[
  {
    "Default": {
      "$type": "ConfigAbility",
      "abilityName": "Vehicle_Sorush_Normal_01",
      "abilityMixins": [
        {
          "$type": "AttachToStateIDMixin",
          "stateIDs": ["Sprint"],
          "modifierName": "Sorush_Sprint_On",
          "DGFCLAIDIFI": ""
        },
        {
          "$type": "AttachToStateIDMixin",
          "stateIDs": ["Sprint", "FastSkill", "ChargeSkill"],
          "modifierName": "Sorush_Sprint_Handler",
          "DGFCLAIDIFI": ""
        },
        {
          "$type": "AttachModifierToSelfGlobalValueMixin",
          "globalValueKey": "_ABILITY_Sorush_Sprint_Mark",
          "gvInTalk": 0.0,
          "valueSteps": [-0.5, 0.5, 1.5],
          "modifierNameSteps": ["Blank", "UNIQUE_Sorush_Sprint"]
        },
        {
          "$type": "LIFCABIDGDI",
          "pushColliderNames": [
            "MoveCollider",
            "MoveColliderDummy",
            "PushColliderExtra"
          ]
        }
      ],
      "modifiers": {
        "Sorush_Sprint_On": {
          "modifierName": "",
          "elementDurability": 100.0,
          "onAdded": [
            {
              "$type": "SetGlobalValue",
              "value": 1.0,
              "key": "_ABILITY_Sorush_Sprint_Mark",
              "maxValue": 0.0,
              "minValue": 0.0
            }
          ]
        },
        "Sorush_Sprint_Handler": {
          "modifierName": "",
          "elementDurability": 100.0,
          "thinkInterval": 0.20000000298023224,
          "onRemoved": [
            {
              "$type": "SetGlobalValue",
              "value": 0.0,
              "key": "_ABILITY_Sorush_Sprint_Mark",
              "maxValue": 0.0,
              "minValue": 0.0
            }
          ],
          "onThinkInterval": [
            {
              "$type": "Predicated",
              "targetPredicates": [
                {
                  "$type": "ByAnimatorInt",
                  "logic": "Equal",
                  "value": 5,
                  "parameter": "MotionFlag"
                }
              ],
              "successActions": [
                {
                  "$type": "SetGlobalValue",
                  "value": 1.0,
                  "key": "_ABILITY_Sorush_Sprint_Mark",
                  "maxValue": 0.0,
                  "minValue": 0.0
                }
              ],
              "failActions": [
                {
                  "$type": "SetGlobalValue",
                  "value": 0.0,
                  "key": "_ABILITY_Sorush_Sprint_Mark",
                  "maxValue": 0.0,
                  "minValue": 0.0
                }
              ]
            }
          ]
        },
        "UNIQUE_Sorush_Sprint": {
          "stacking": "Unique",
          "modifierName": "",
          "forceTriggerWhenChangeAuthority": true,
          "elementDurability": 100.0,
          "modifierMixins": [
            {
              "$type": "TriggerPostProcessEffectMixin",
              "postEffectAssetName": "PostEffect_Skiff_Sprint",
              "duration": 0.0
            }
          ],
          "onAdded": [
            {
              "$type": "ActCameraRadialBlur",
              "cameraRadialBlur": {
                "power": 0.6000000238418579,
                "blurTime": 0.20000000298023224,
                "fadeTime": 0.20000000298023224
              }
            },
            {
              "$type": "AttachEffect",
              "rotationDampTime": "Eff_Sorush_Normal_Sprint",
              "PPPDJGDDOGD": 1.0,
              "AJDILHJFNKE": -1.0
            }
          ]
        },
        "UNIQUE_Sorush_MuteIce": {
          "stacking": "Unique",
          "modifierName": "",
          "forceTriggerWhenChangeAuthority": true,
          "elementDurability": 100.0,
          "thinkInterval": 0.5,
          "onAdded": [
            {
              "$type": "FireEffect",
              "rotationDampTime": "Eff_Sorush_Normal_Born",
              "PPPDJGDDOGD": 1.0,
              "AJDILHJFNKE": -1.0
            },
            {
              "$type": "AttachEffect",
              "rotationDampTime": "Eff_Sorush_Normal_Trail",
              "PPPDJGDDOGD": 1.0,
              "AJDILHJFNKE": -1.0
            }
          ],
          "onThinkInterval": [
            {
              "$type": "TriggerAttackEvent",
              "attackEvent": {
                "attackPattern": {
                  "$type": "ConfigAttackBox",
                  "triggerType": "TriggerNoRepeat",
                  "checkHitLayerType": "OnlyHitMassiveEntity",
                  "born": {
                    "$type": "ConfigBornBySelf",
                    "offset": {
                      "x": 0.0,
                      "y": 0.0,
                      "z": -3.299999952316284
                    },
                    "useRotation": true
                  },
                  "size": {
                    "x": 5.0,
                    "y": 4.0,
                    "z": 8.0
                  }
                },
                "attackInfo": {
                  "attackTag": "",
                  "attenuationTag": "",
                  "attenuationGroup": "default",
                  "attackProperty": {
                    "actorGrassSubHurtDelta": 0.0,
                    "actorWindSubHurtDelta": 0.0,
                    "elementType": "VehicleMuteIce",
                    "elementDurability": 10.0,
                    "enBreak": 0.0,
                    "GLKMCMDJBIK": 0.0
                  },
                  "hitPattern": {
                    "onHitEffectName": "none",
                    "hitImpulseY": "",
                    "hitImpulseType": "LV0",
                    "retreatType": "ByHitDirection",
                    "muteHitText": true
                  }
                }
              },
              "targetType": "Enemy"
            }
          ]
        },
        "Blank": {
          "modifierName": "",
          "elementDurability": 100.0
        }
      },
      "onAdded": [
        {
          "$type": "AttachAbilityStateResistance",
          "resistanceListID": 15001
        },
        {
          "$type": "AttachAbilityStateResistance",
          "resistanceListID": 15002
        },
        {
          "$type": "AttachModifier",
          "modifierName": "UNIQUE_Sorush_MuteIce"
        }
      ]
    }
  },
  {
    "Default": {
      "$type": "ConfigAbility",
      "abilityName": "Vehicle_Sorush_AutoHeal",
      "abilityMixins": [
        {
          "$type": "AttachModifierToSelfGlobalValueMixin",
          "globalValueKey": "_ABILITY_Sorush_AutoHeal_Count",
          "gvInTalk": 0.0,
          "valueSteps": [0.5, 4.5, 5.5],
          "modifierNameSteps": ["Blank", "UNIQUE_Sorush_AutoHeal_Interval"]
        }
      ],
      "modifiers": {
        "UNIQUE_Sorush_AutoHeal_Handler": {
          "stacking": "Unique",
          "modifierName": "",
          "forceTriggerWhenChangeAuthority": true,
          "elementDurability": 100.0,
          "thinkInterval": 1.0,
          "modifierMixins": [
            {
              "$type": "DoActionByEventMixin",
              "damageRatio": "Current",
              "onEvent": "HPDown",
              "actions": [
                {
                  "$type": "SetGlobalValue",
                  "value": 0.0,
                  "key": "_ABILITY_Sorush_AutoHeal_Count",
                  "maxValue": 0.0,
                  "minValue": 0.0
                },
                {
                  "$type": "DebugLog",
                  "content": "!!!!!!!!!!!HPDown!!!!!!!!!!"
                }
              ],
              "costEnergyDeltaName": ""
            }
          ],
          "onBeingHit": [
            {
              "$type": "Predicated",
              "target": "Other",
              "targetPredicates": [
                {
                  "$type": "ByHitDamage",
                  "damage": 0.0
                }
              ],
              "successActions": [
                {
                  "$type": "SetGlobalValue",
                  "value": 0.0,
                  "key": "_ABILITY_Sorush_AutoHeal_Count",
                  "maxValue": 0.0,
                  "minValue": 0.0
                }
              ]
            }
          ],
          "onThinkInterval": [
            {
              "$type": "AddGlobalValue",
              "value": 1.0,
              "key": "_ABILITY_Sorush_AutoHeal_Count",
              "useLimitRange": true,
              "maxValue": 5.0,
              "minValue": 0.0
            }
          ]
        },
        "UNIQUE_Sorush_AutoHeal_Interval": {
          "stacking": "Unique",
          "modifierName": "",
          "forceTriggerWhenChangeAuthority": true,
          "elementDurability": 100.0,
          "thinkInterval": 2.0,
          "onAdded": [
            {
              "$type": "HealHP",
              "predicates": [
                {
                  "$type": "ByTargetHPRatio",
                  "logic": "Lesser",
                  "ratio": 1.0
                },
                {
                  "$type": "ByTargetGlobalValue",
                  "key": "_ABILITY_Sorush_AvatarIn_Mark",
                  "value": 1.0
                }
              ],
              "CKDBFHCIJEK": 0.05000000074505806,
              "cdRatio": ""
            },
            {
              "$type": "HealHP",
              "predicates": [
                {
                  "$type": "ByTargetHPRatio",
                  "logic": "Lesser",
                  "ratio": 1.0
                },
                {
                  "$type": "ByTargetGlobalValue",
                  "key": "_ABILITY_Sorush_AvatarIn_Mark",
                  "value": 0.0,
                  "compareType": "NoneOrEqual"
                }
              ],
              "CKDBFHCIJEK": 0.006500000134110451,
              "cdRatio": ""
            },
            {
              "$type": "FireEffect",
              "predicates": [
                {
                  "$type": "ByTargetHPRatio",
                  "logic": "Lesser",
                  "ratio": 1.0
                }
              ],
              "rotationDampTime": "Eff_Skiff_Normal_Heal",
              "PPPDJGDDOGD": 1.0,
              "AJDILHJFNKE": -1.0
            }
          ],
          "onThinkInterval": [
            {
              "$type": "HealHP",
              "predicates": [
                {
                  "$type": "ByTargetHPRatio",
                  "logic": "Lesser",
                  "ratio": 1.0
                },
                {
                  "$type": "ByTargetGlobalValue",
                  "key": "_ABILITY_Sorush_AvatarIn_Mark",
                  "value": 1.0
                }
              ],
              "CKDBFHCIJEK": 0.05000000074505806,
              "cdRatio": ""
            },
            {
              "$type": "HealHP",
              "predicates": [
                {
                  "$type": "ByTargetHPRatio",
                  "logic": "Lesser",
                  "ratio": 1.0
                },
                {
                  "$type": "ByTargetGlobalValue",
                  "key": "_ABILITY_Sorush_AvatarIn_Mark",
                  "value": 0.0,
                  "compareType": "NoneOrEqual"
                }
              ],
              "CKDBFHCIJEK": 0.006500000134110451,
              "cdRatio": ""
            },
            {
              "$type": "FireEffect",
              "predicates": [
                {
                  "$type": "ByTargetHPRatio",
                  "logic": "Lesser",
                  "ratio": 1.0
                }
              ],
              "rotationDampTime": "Eff_Skiff_Normal_Heal",
              "PPPDJGDDOGD": 1.0,
              "AJDILHJFNKE": -1.0
            }
          ]
        },
        "Blank": {
          "modifierName": "",
          "elementDurability": 100.0
        }
      },
      "onAdded": [
        {
          "$type": "SetGlobalValue",
          "value": 0.0,
          "key": "_ABILITY_Sorush_AutoHeal_Count",
          "maxValue": 0.0,
          "minValue": 0.0
        },
        {
          "$type": "AttachModifier",
          "modifierName": "UNIQUE_Sorush_AutoHeal_Handler"
        }
      ]
    }
  },
  {
    "Default": {
      "$type": "ConfigAbility",
      "abilityName": "Vehicle_Sorush_Normal_ServerBuff_Handler",
      "modifiers": {
        "SERVER_Sorush_Normal_AvatarStatue_Handler": {
          "stacking": "Multiple",
          "modifierName": "",
          "elementDurability": 100.0,
          "thinkInterval": 1.0,
          "onAdded": [
            {
              "$type": "AttachModifier",
              "shieldHP": true,
              "modifierName": "UNIQUE_Sorush_Normal_AvatarStatue_DenyLockOn"
            },
            {
              "$type": "AttachModifier",
              "shieldHP": true,
              "modifierName": "UNIQUE_Sorush_Normal_AvatarStatue_Invincible"
            },
            {
              "$type": "AttachModifier",
              "shieldHP": true,
              "modifierName": "UNIQUE_Sorush_Normal_AvatarStatue_IsGhostToEnemy"
            },
            {
              "$type": "AttachModifier",
              "shieldHP": true,
              "modifierName": "UNIQUE_Sorush_Normal_AvatarStatue_LockHP"
            },
            {
              "$type": "AttachModifier",
              "shieldHP": true,
              "modifierName": "UNIQUE_Sorush_Normal_OutofCombat_Handler"
            },
            {
              "$type": "AttachAbilityStateResistance",
              "shieldHP": true,
              "resistanceListID": 15001
            },
            {
              "$type": "AttachAbilityStateResistance",
              "shieldHP": true,
              "resistanceListID": 15002
            },
            {
              "$type": "ApplyModifier",
              "target": "Vehicle",
              "modifierName": "UNIQUE_Sorush_Normal_AvatarStatue_GrandHandler"
            },
            {
              "$type": "SetGlobalValue",
              "shieldHP": true,
              "value": 1.0,
              "key": "_ABILITY_Avatar_InSorush_Mark",
              "maxValue": 0.0,
              "minValue": 0.0
            },
            {
              "$type": "Predicated",
              "target": "CurLocalAvatar",
              "targetPredicates": [
                {
                  "$type": "AHEDBPEIDHJ"
                }
              ],
              "successActions": [
                {
                  "$type": "ApplyModifier",
                  "target": "Vehicle",
                  "shieldHP": true,
                  "modifierName": "Vehicle_Sorush_isHost"
                }
              ],
              "failActions": [
                {
                  "$type": "ApplyModifier",
                  "target": "Vehicle",
                  "shieldHP": true,
                  "modifierName": "Vehicle_Sorush_notHost"
                }
              ]
            },
            {
              "$type": "EnableHDMesh",
              "shieldHP": true,
              "hdMeshKey": "Default"
            }
          ],
          "onRemoved": [
            {
              "$type": "TriggerAbility",
              "target": "Vehicle",
              "abilityName": "SorushStatue_WithOutAvatar"
            },
            {
              "$type": "SetGlobalValue",
              "target": "Vehicle",
              "value": 0.0,
              "key": "_ABILITY_Sorush_AvatarIn_Mark",
              "maxValue": 0.0,
              "minValue": 0.0
            },
            {
              "$type": "SetGlobalValue",
              "shieldHP": true,
              "value": 0.0,
              "key": "_ABILITY_Avatar_InSorush_Mark",
              "maxValue": 0.0,
              "minValue": 0.0
            },
            {
              "$type": "EnableHDMesh",
              "shieldHP": true,
              "enable": true,
              "hdMeshKey": "Default"
            }
          ],
          "onThinkInterval": [
            {
              "$type": "ApplyModifier",
              "target": "Vehicle",
              "modifierName": "UNIQUE_Sorush_Normal_AvatarStatue_GrandHandler"
            },
            {
              "$type": "Predicated",
              "target": "CurLocalAvatar",
              "targetPredicates": [
                {
                  "$type": "AHEDBPEIDHJ"
                }
              ],
              "successActions": [
                {
                  "$type": "ApplyModifier",
                  "target": "Vehicle",
                  "shieldHP": true,
                  "modifierName": "Vehicle_Sorush_isHost"
                }
              ],
              "failActions": [
                {
                  "$type": "ApplyModifier",
                  "target": "Vehicle",
                  "shieldHP": true,
                  "modifierName": "Vehicle_Sorush_notHost"
                }
              ]
            }
          ],
          "onVehicleIn": [
            {
              "$type": "ApplyModifier",
              "target": "Vehicle",
              "modifierName": "UNIQUE_Sorush_Normal_AvatarStatue_GrandHandler"
            },
            {
              "$type": "SetGlobalValue",
              "shieldHP": true,
              "value": 1.0,
              "key": "_ABILITY_Avatar_InSorush_Mark",
              "maxValue": 0.0,
              "minValue": 0.0
            },
            {
              "$type": "FNPMFLOOCDD",
              "target": "Team",
              "value": 0.0,
              "key": "SORUSH_GrapplingHook_Mark",
              "maxValue": 0.0,
              "minValue": 0.0
            },
            {
              "$type": "AttachModifier",
              "target": "Team",
              "modifierName": "SGVListener_Sorush_HookPoint"
            },
            {
              "$type": "Predicated",
              "target": "CurLocalAvatar",
              "targetPredicates": [
                {
                  "$type": "AHEDBPEIDHJ"
                }
              ],
              "successActions": [
                {
                  "$type": "ApplyModifier",
                  "target": "Vehicle",
                  "shieldHP": true,
                  "modifierName": "Vehicle_Sorush_isHost"
                },
                {
                  "$type": "FNPMFLOOCDD",
                  "target": "CurLocalAvatar",
                  "value": 0.0,
                  "key": "SORUSH_GrapplingHook_Mark",
                  "maxValue": 0.0,
                  "minValue": 0.0
                }
              ],
              "failActions": [
                {
                  "$type": "ApplyModifier",
                  "target": "Vehicle",
                  "shieldHP": true,
                  "modifierName": "Vehicle_Sorush_notHost"
                },
                {
                  "$type": "FNPMFLOOCDD",
                  "target": "CurLocalAvatar",
                  "value": 0.0,
                  "key": "SORUSH_GrapplingHook_Mark",
                  "maxValue": 0.0,
                  "minValue": 0.0
                }
              ]
            }
          ]
        },
        "Vehicle_Sorush_isHost": {
          "stacking": "Multiple",
          "modifierName": "",
          "duration": 0.5,
          "elementDurability": 100.0,
          "onAdded": [
            {
              "$type": "SetGlobalValue",
              "shieldHP": true,
              "value": 1.0,
              "key": "_ABILITY_Sorush_isHost_Mark",
              "maxValue": 0.0,
              "minValue": 0.0
            }
          ]
        },
        "Vehicle_Sorush_notHost": {
          "stacking": "Multiple",
          "modifierName": "",
          "duration": 0.5,
          "elementDurability": 100.0,
          "onAdded": [
            {
              "$type": "SetGlobalValue",
              "shieldHP": true,
              "value": 0.0,
              "key": "_ABILITY_Sorush_isHost_Mark",
              "maxValue": 0.0,
              "minValue": 0.0
            }
          ]
        },
        "SGVListener_Sorush_HookPoint": {
          "modifierName": "",
          "elementDurability": 100.0,
          "modifierMixins": [
            {
              "$type": "DoActionOnGlobalValueChangeMixin",
              "globalValueKey": "SGV_IsInHookRegion",
              "actions": [
                {
                  "$type": "Predicated",
                  "targetPredicates": [
                    {
                      "$type": "BGOKEHHCFHG",
                      "predicates": [
                        {
                          "$type": "ByTargetGlobalValue",
                          "target": "Self",
                          "key": "SGV_IsInHookRegion",
                          "value": 0.0,
                          "compareType": "NoneOrEqual"
                        },
                        {
                          "$type": "ByTargetGlobalValue",
                          "target": "Vehicle",
                          "key": "SORUSH_GrapplingHook_Mark",
                          "value": 1.0
                        }
                      ]
                    }
                  ],
                  "successActions": [
                    {
                      "$type": "SetGlobalValue",
                      "target": "Vehicle",
                      "value": 0.0,
                      "key": "SORUSH_GrapplingHook_Mark",
                      "maxValue": 0.0,
                      "minValue": 0.0
                    },
                    {
                      "$type": "BAKEBEKLLAC",
                      "muteRemoteAction": true,
                      "id": 400922
                    },
                    {
                      "$type": "ApplyModifier",
                      "otherTargets": {
                        "$type": "PBLNLAENOGB",
                        "tag": "SlushaHookRegion"
                      },
                      "modifierName": "Set_EmptyGadget_SendRefreshSLC"
                    }
                  ],
                  "failActions": [
                    {
                      "$type": "DebugLog",
                      "content": "!!!!!!!!!!!!!!!!!!!!!!!!!!!!!!!!!!!FAILED!!!!!!!!!!!!!!!!!"
                    }
                  ]
                }
              ]
            }
          ],
          "onRemoved": [
            {
              "$type": "DebugLog",
              "content": "!!!!!!!!!!!!!!!!!SGVListener_Sorush_HookPoint_REMOVED!!!!!!!!!!!!!!"
            }
          ]
        },
        "Set_EmptyGadget_SendRefreshSLC": {
          "modifierName": "",
          "duration": 0.10000000149011612,
          "elementDurability": 100.0,
          "onAdded": [
            {
              "$type": "AHPEKICBIIL",
              "luaCallType": "FromGroup",
              "funcName": "SLC_Refresh_Hookpoint_By_Leave_Region",
              "param1": 0.0,
              "MGAMDEHMCOL": 0.0,
              "MMHOHAOGPLP": 0.0
            }
          ]
        },
        "UNIQUE_Sorush_Normal_AvatarStatue_GrandHandler": {
          "stacking": "RefreshUniqueDurability",
          "modifierName": "",
          "forceTriggerWhenChangeAuthority": true,
          "duration": 1.5,
          "elementDurability": 100.0,
          "onAdded": [
            {
              "$type": "TriggerAbility",
              "abilityName": "SorushStatue_WithAvatar"
            },
            {
              "$type": "SetGlobalValue",
              "value": 1.0,
              "key": "_ABILITY_Sorush_AvatarIn_Mark",
              "maxValue": 0.0,
              "minValue": 0.0
            }
          ],
          "onRemoved": [
            {
              "$type": "TriggerAbility",
              "abilityName": "SorushStatue_WithOutAvatar"
            },
            {
              "$type": "SetGlobalValue",
              "value": 0.0,
              "key": "_ABILITY_Sorush_AvatarIn_Mark",
              "maxValue": 0.0,
              "minValue": 0.0
            }
          ]
        },
        "UNIQUE_Sorush_Normal_AvatarStatue_DenyLockOn": {
          "stacking": "Unique",
          "modifierName": "",
          "forceTriggerWhenChangeAuthority": true,
          "elementDurability": 100.0,
          "state": "DenyLockOn"
        },
        "UNIQUE_Sorush_Normal_AvatarStatue_Invincible": {
          "stacking": "Unique",
          "modifierName": "",
          "forceTriggerWhenChangeAuthority": true,
          "elementDurability": 100.0,
          "state": "Invincible"
        },
        "UNIQUE_Sorush_Normal_AvatarStatue_IsGhostToEnemy": {
          "stacking": "Unique",
          "modifierName": "",
          "forceTriggerWhenChangeAuthority": true,
          "elementDurability": 100.0,
          "state": "IsGhostToEnemy"
        },
        "UNIQUE_Sorush_Normal_AvatarStatue_LockHP": {
          "stacking": "Unique",
          "modifierName": "",
          "forceTriggerWhenChangeAuthority": true,
          "elementDurability": 100.0,
          "state": "LockHP"
        },
        "UNIQUE_Sorush_Normal_OutofCombat_Handler": {
          "stacking": "Unique",
          "modifierName": "",
          "forceTriggerWhenChangeAuthority": true,
          "elementDurability": 100.0,
          "thinkInterval": 1.0,
          "onThinkInterval": [
            {
              "$type": "SetGlobalValue",
              "target": "Vehicle",
              "predicates": [
                {
                  "$type": "CLLKJIEOEBE",
                  "target": "Self"
                },
                {
                  "$type": "ByIsLocalAvatar",
                  "target": "Self"
                }
              ],
              "value": 0.0,
              "key": "_ABILITY_Sorush_AutoHeal_Count",
              "maxValue": 0.0,
              "minValue": 0.0
            }
          ]
        }
      },
      "isDynamicAbility": true
    }
  },
  {
    "Default": {
      "$type": "ConfigAbility",
      "abilityName": "SorushStatue_WithOutAvatar",
      "modifiers": {
        "UNIQUE_SorushStatue_WithOutAvatar_DenyLockOn": {
          "stacking": "Unique",
          "modifierName": "",
          "forceTriggerWhenChangeAuthority": true,
          "elementDurability": 100.0,
          "state": "DenyLockOn"
        },
        "UNIQUE_SorushStatue_WithOutAvatar_IsGhostToEnemy": {
          "stacking": "Unique",
          "modifierName": "",
          "forceTriggerWhenChangeAuthority": true,
          "elementDurability": 100.0,
          "state": "IsGhostToEnemy"
        }
      },
      "onAdded": [
        {
          "$type": "TriggerAbility",
          "abilityName": "SorushStatue_WithOutAvatar"
        }
      ],
      "onAbilityStart": [
        {
          "$type": "AttachModifier",
          "modifierName": "UNIQUE_SorushStatue_WithOutAvatar_DenyLockOn"
        },
        {
          "$type": "AttachModifier",
          "modifierName": "UNIQUE_SorushStatue_WithOutAvatar_IsGhostToEnemy"
        },
        {
          "$type": "RemoveUniqueModifier",
          "modifierName": "UNIQUE_SorushStatue_WithAvatar_HitShake_Handler"
        },
        {
          "$type": "SetGlobalValue",
          "value": 0.0,
          "key": "_ABILITY_Sorush_ChargeSkillValue",
          "maxValue": 0.0,
          "minValue": 0.0
        }
      ]
    }
  },
  {
    "Default": {
      "$type": "ConfigAbility",
      "abilityName": "SorushStatue_WithAvatar",
      "abilityMixins": [
        {
          "$type": "AttachModifierToSelfGlobalValueMixin",
          "globalValueKey": "_ABILITY_Sorush_AvatarIn_Mark",
          "gvInTalk": 0.0,
          "valueSteps": [-0.5, 0.5, 1.5],
          "modifierNameSteps": ["Blank", "UNIQUE_ElfView_Handler"]
        }
      ],
      "modifiers": {
        "UNIQUE_ElfView_Handler": {
          "modifierName": "",
          "forceTriggerWhenChangeAuthority": true,
          "elementDurability": 100.0,
          "modifierMixins": [
            {
              "$type": "BKGNEAMEPPB"
            }
          ]
        },
        "UNIQUE_SorushStatue_WithAvatar_HitShake_Handler": {
          "modifierName": "",
          "forceTriggerWhenChangeAuthority": true,
          "elementDurability": 100.0,
          "onBeingHit": [
            {
              "$type": "Predicated",
              "target": "Target",
              "targetPredicates": [
                {
                  "$type": "ByAny",
                  "predicates": [
                    {
                      "$type": "ByHitDamage",
                      "damage": 0.0
                    },
                    {
                      "$type": "ByHitEnBreak",
                      "enBreak": 0.0
                    }
                  ]
                }
              ],
              "successActions": [
                {
                  "$type": "ApplyModifier",
                  "modifierName": "SorushStatue_WithAvatar_HitShake"
                }
              ]
            }
          ]
        },
        "SorushStatue_WithAvatar_HitShake": {
          "stacking": "Unique",
          "modifierName": "",
          "duration": 0.5,
          "elementDurability": 100.0,
          "properties": {
            "Animator_OverallSpeedRatioMultiplied": 0.6000000238418579
          },
          "onAdded": [
            {
              "$type": "SetAnimatorTrigger",
              "triggerID": "Shake",
              "mpTriggerOnRemote": true
            }
          ]
        },
        "Blank": {
          "modifierName": "",
          "elementDurability": 100.0
        }
      },
      "onAbilityStart": [
        {
          "$type": "RemoveUniqueModifier",
          "modifierName": "UNIQUE_SorushStatue_WithOutAvatar_IsGhostToEnemy"
        },
        {
          "$type": "AttachModifier",
          "modifierName": "UNIQUE_SorushStatue_WithAvatar_HitShake_Handler"
        }
      ]
    }
  },
  {
    "Default": {
      "$type": "ConfigAbility",
      "abilityName": "Vehicle_Sorush_ActionSkill",
      "abilityMixins": [
        {
          "$type": "AttachModifierToSelfGlobalValueMixin",
          "globalValueKey": "_ABILITY_Sorush_LoopSkill_Mark",
          "gvInTalk": 0.0,
          "valueSteps": [-0.5, 0.5, 1.5],
          "modifierNameSteps": [
            "UNIQUE_Sorush_notLoopSkill",
            "UNIQUE_Sorush_isLoopSkill"
          ]
        }
      ],
      "modifiers": {
        "Vehicle_Sorush_onReconnect": {
          "modifierName": "",
          "elementDurability": 100.0,
          "onReconnect": [
            {
              "$type": "SetGlobalValue",
              "shieldHP": true,
              "predicates": [
                {
                  "$type": "ByTargetGlobalValue",
                  "key": "_ABILITY_Sorush_AvatarIn_Mark",
                  "value": 1.0
                }
              ],
              "value": 0.0,
              "key": "_ABILITY_Sorush_LoopSkill_Mark",
              "maxValue": 0.0,
              "minValue": 0.0
            }
          ]
        },
        "UNIQUE_Sorush_notLoopSkill": {
          "stacking": "Unique",
          "modifierName": "",
          "forceTriggerWhenChangeAuthority": true,
          "elementDurability": 100.0,
          "thinkInterval": 0.5,
          "onAdded": [
            {
              "$type": "SetAnimatorBool",
              "boolID": "StartSkill"
            }
          ],
          "onThinkInterval": [
            {
              "$type": "SetAnimatorBool",
              "boolID": "StartSkill"
            }
          ]
        },
        "UNIQUE_Sorush_isLoopSkill": {
          "stacking": "Unique",
          "modifierName": "",
          "forceTriggerWhenChangeAuthority": true,
          "elementDurability": 100.0,
          "thinkInterval": 0.5,
          "onAdded": [
            {
              "$type": "SetAnimatorBool",
              "boolID": "StartSkill",
              "value": true
            }
          ],
          "onThinkInterval": [
            {
              "$type": "SetAnimatorBool",
              "boolID": "StartSkill",
              "value": true
            }
          ]
        },
        "Vehicle_Sorush_Detect_Input_Delay": {
          "modifierName": "",
          "duration": 1.0,
          "elementDurability": 100.0,
          "onAdded": [
            {
              "$type": "SetAnimatorTrigger",
              "triggerID": "HatOn"
            }
          ],
          "onRemoved": [
            {
              "$type": "ApplyModifier",
              "modifierName": "Vehicle_Sorush_Detect_Input"
            },
            {
              "$type": "SetAnimatorTrigger",
              "triggerID": "HatOff"
            }
          ]
        },
        "Vehicle_Sorush_Detect_Input": {
          "modifierName": "",
          "elementDurability": 100.0,
          "modifierMixins": [
            {
              "$type": "PCJHFFKBGIJ",
              "chargeTime": 0.5,
              "secondChargeTime": 0.5,
              "onReleaseUncharged": [
                {
                  "$type": "PMJBEFBIKDM",
                  "predicates": [
                    {
                      "$type": "ByTargetGlobalValue",
                      "key": "_ABILITY_Sorush_AvatarIn_Mark",
                      "value": 1.0
                    }
                  ],
                  "inputActionControllerType": "VehicleSkillController",
                  "inputActionType": "Action3",
                  "cdTime": 2.0
                },
                {
                  "$type": "SetAnimatorTrigger",
                  "predicates": [
                    {
                      "$type": "ByTargetGlobalValue",
                      "key": "_ABILITY_Sorush_AvatarIn_Mark",
                      "value": 1.0
                    }
                  ],
                  "triggerID": "FastSkill",
                  "mpTriggerOnRemote": true
                },
                {
                  "$type": "DebugLog",
                  "predicates": [
                    {
                      "$type": "ByTargetGlobalValue",
                      "key": "_ABILITY_Sorush_AvatarIn_Mark",
                      "value": 1.0
                    }
                  ],
                  "content": "！！！！！！！！！！！OnReleaseUncharged"
                }
              ],
              "onBeginCharged": [
                {
                  "$type": "SetGlobalValue",
                  "predicates": [
                    {
                      "$type": "ByTargetGlobalValue",
                      "key": "_ABILITY_Sorush_AvatarIn_Mark",
                      "value": 1.0
                    }
                  ],
                  "value": 1.0,
                  "key": "_ABILITY_Sorush_LoopSkill_Mark",
                  "maxValue": 0.0,
                  "minValue": 0.0
                },
                {
                  "$type": "DebugLog",
                  "predicates": [
                    {
                      "$type": "ByTargetGlobalValue",
                      "key": "_ABILITY_Sorush_AvatarIn_Mark",
                      "value": 1.0
                    }
                  ],
                  "content": "！！！！！！！！！！！OnBeginCharged"
                }
              ],
              "chargeStateIDs": ["Idle", "Move", "Sprint"],
              "inputActionControllerType": "VehicleSkillController",
              "inputActionType": "Action3"
            },
            {
              "$type": "AttachToStateIDMixin",
              "stateIDs": ["ActionSkill_Loop"],
              "modifierName": "Vehicle_Sorush_ActionSkill_Interaction",
              "DGFCLAIDIFI": ""
            }
          ]
        },
        "Vehicle_Sorush_ActionSkill_Interaction": {
          "modifierName": "",
          "elementDurability": 100.0,
          "thinkInterval": 1.5,
          "modifierMixins": [
            {
              "$type": "BKGNEAMEPPB",
              "maxDistance": 15.0
            }
          ],
          "onAdded": [
            {
              "$type": "PMJBEFBIKDM",
              "inputActionControllerType": "VehicleSkillController",
              "inputActionType": "Action3",
              "cdTime": 10.0
            },
            {
              "$type": "TriggerAbility",
              "target": "Vehicle",
              "abilityName": "Vehicle_Sorush_HookPoint_DropHandler"
            },
            {
              "$type": "CLDHCOFLGDL",
              "sorushSkill": true
            },
            {
              "$type": "SetAnimatorTrigger",
              "triggerID": "HatOn"
            },
            {
              "$type": "FNPMFLOOCDD",
              "value": 1.0,
              "key": "_ABILITY_Sorush_Hovering_Mark",
              "maxValue": 0.0,
              "minValue": 0.0
            },
            {
              "$type": "AttachEffect",
              "rotationDampTime": "Eff_Sorush_Normal_Skill1_Attack_Loop",
              "PPPDJGDDOGD": 1.0,
              "AJDILHJFNKE": -1.0
            },
            {
              "$type": "TriggerAttackEvent",
              "attackEvent": {
                "attackPattern": {
                  "$type": "ConfigAttackSphere",
                  "triggerType": "TriggerNoRepeat",
                  "born": {
                    "$type": "ConfigBornByTarget",
                    "offset": {
                      "x": 0.0,
                      "y": 0.0,
                      "z": 0.0
                    }
                  },
                  "radius": 5.5
                },
                "attackInfo": {
                  "attackTag": "ElfContinWaveInteract",
                  "attenuationTag": "",
                  "attenuationGroup": "default",
                  "attackProperty": {
                    "actorGrassSubHurtDelta": 0.0,
                    "actorWindSubHurtDelta": 0.0,
                    "elementDurability": 100.0,
                    "strikeType": "Default",
                    "enBreak": 0.0,
                    "GLKMCMDJBIK": 0.0
                  },
                  "hitPattern": {
                    "onHitEffectName": "none",
                    "hitImpulseY": "",
                    "hitImpulseType": "LV0",
                    "hitHaltTimeScale": 0.10000000149011612,
                    "muteHitText": true
                  }
                }
              },
              "targetType": "Enemy"
            }
          ],
          "onRemoved": [
            {
              "$type": "FNPMFLOOCDD",
              "value": 0.0,
              "key": "_ABILITY_Sorush_Hovering_Mark",
              "maxValue": 0.0,
              "minValue": 0.0
            }
          ],
          "onThinkInterval": [
            {
              "$type": "TriggerAttackEvent",
              "attackEvent": {
                "attackPattern": {
                  "$type": "ConfigAttackSphere",
                  "triggerType": "TriggerNoRepeat",
                  "born": {
                    "$type": "ConfigBornByTarget",
                    "offset": {
                      "x": 0.0,
                      "y": 0.0,
                      "z": 0.0
                    }
                  },
                  "radius": 5.5
                },
                "attackInfo": {
                  "attackTag": "ElfContinWaveInteract",
                  "attenuationTag": "",
                  "attenuationGroup": "default",
                  "attackProperty": {
                    "actorGrassSubHurtDelta": 0.0,
                    "actorWindSubHurtDelta": 0.0,
                    "elementDurability": 100.0,
                    "strikeType": "Default",
                    "enBreak": 0.0,
                    "GLKMCMDJBIK": 0.0
                  },
                  "hitPattern": {
                    "onHitEffectName": "none",
                    "hitImpulseY": "",
                    "hitImpulseType": "LV0",
                    "hitHaltTimeScale": 0.10000000149011612,
                    "muteHitText": true
                  }
                }
              },
              "targetType": "Enemy"
            }
          ]
        },
        "Blank": {
          "modifierName": "",
          "elementDurability": 100.0
        }
      },
      "onAdded": [
        {
          "$type": "ApplyModifier",
          "modifierName": "Vehicle_Sorush_Detect_Input_Delay"
        },
        {
          "$type": "ApplyModifier",
          "modifierName": "Vehicle_Sorush_onReconnect"
        },
        {
          "$type": "SetGlobalValue",
          "value": 0.0,
          "key": "_ABILITY_Sorush_Hovering_Mark",
          "maxValue": 0.0,
          "minValue": 0.0
        },
        {
          "$type": "SetGlobalValue",
          "value": 0.0,
          "key": "SORUSH_GrapplingHook_Mark",
          "maxValue": 0.0,
          "minValue": 0.0
        }
      ],
      "onAbilityStart": [
        {
          "$type": "TriggerAttackEvent",
          "attackEvent": {
            "attackPattern": {
              "$type": "ConfigAttackSphere",
              "triggerType": "TriggerNoRepeat",
              "born": {
                "$type": "ConfigBornByTarget",
                "offset": {
                  "x": 0.0,
                  "y": 0.0,
                  "z": 0.0
                }
              },
              "radius": 5.5
            },
            "attackInfo": {
              "attackTag": "ElfWaveInteract",
              "attenuationTag": "",
              "attenuationGroup": "default",
              "attackProperty": {
                "actorGrassSubHurtDelta": 0.0,
                "actorWindSubHurtDelta": 0.0,
                "elementDurability": 100.0,
                "strikeType": "Default",
                "enBreak": 0.0,
                "GLKMCMDJBIK": 0.0
              },
              "hitPattern": {
                "onHitEffectName": "none",
                "hitImpulseY": "",
                "hitImpulseType": "LV0",
                "hitHaltTimeScale": 0.10000000149011612,
                "muteHitText": true
              }
            }
          },
          "targetType": "Enemy"
        },
        {
          "$type": "TriggerAttackEvent",
          "attackEvent": {
            "attackPattern": {
              "$type": "ConfigAttackSphere",
              "triggerType": "TriggerNoRepeat",
              "born": {
                "$type": "ConfigBornByTarget",
                "offset": {
                  "x": 0.0,
                  "y": 0.0,
                  "z": 0.0
                }
              },
              "radius": 5.5
            },
            "attackInfo": {
              "attackTag": "ElfWaveInteract",
              "attenuationTag": "",
              "attenuationGroup": "default",
              "attackProperty": {
                "actorGrassSubHurtDelta": 0.0,
                "actorWindSubHurtDelta": 0.0,
                "elementDurability": 100.0,
                "strikeType": "Default",
                "enBreak": 0.0,
                "GLKMCMDJBIK": 0.0
              },
              "hitPattern": {
                "onHitEffectName": "none",
                "hitImpulseY": "",
                "hitImpulseType": "LV0",
                "hitHaltTimeScale": 0.10000000149011612,
                "muteHitText": true
              }
            }
          },
          "targetType": "Alliance"
        }
      ]
    }
  },
  {
    "Default": {
      "$type": "ConfigAbility",
      "abilityName": "Vehicle_Sorush_ActionSkillHighLight",
      "modifiers": {
        "Vehicle_Sorush_SkillHighLight_Detect": {
          "modifierName": "",
          "elementDurability": 100.0,
          "thinkInterval": 0.5,
          "modifierMixins": [
            {
              "$type": "AttachModifierToSelfGlobalValueMixin",
              "globalValueKey": "_ABILITY_Sorush_SkillHighLight_Mark",
              "gvInTalk": 0.0,
              "valueSteps": [-0.5, 0.5, 1.5],
              "modifierNameSteps": ["Blank", "Vehicle_Sorush_SkillHighLight"]
            }
          ],
          "onAdded": [
            {
              "$type": "Predicated",
              "otherTargets": {
                "$type": "SelectTargetsByShape",
                "shapeName": "CircleR5H5HC",
                "campTargetType": "AllExceptSelf",
                "doOffStage": 1.0
              },
              "predicates": [
                {
                  "$type": "ByTargetGlobalValue",
                  "target": "Caster",
                  "key": "_ABILITY_Sorush_isHost_Mark",
                  "value": 1.0
                }
              ],
              "targetPredicates": [
                {
                  "$type": "JHAJOBAACDP",
                  "tag": "_Mark_Sorush_Interact"
                }
              ],
              "successActions": [
                {
                  "$type": "SetGlobalValue",
                  "value": 1.0,
                  "key": "_ABILITY_Sorush_SkillHighLight_Mark",
                  "maxValue": 0.0,
                  "minValue": 0.0
                }
              ],
              "failActions": [
                {
                  "$type": "SetGlobalValue",
                  "value": 0.0,
                  "key": "_ABILITY_Sorush_SkillHighLight_Mark",
                  "maxValue": 0.0,
                  "minValue": 0.0
                }
              ]
            }
          ],
          "onThinkInterval": [
            {
              "$type": "Predicated",
              "otherTargets": {
                "$type": "SelectTargetsByShape",
                "shapeName": "CircleR5H5HC",
                "campTargetType": "AllExceptSelf",
                "doOffStage": 1.0
              },
              "predicates": [
                {
                  "$type": "ByTargetGlobalValue",
                  "target": "Caster",
                  "key": "_ABILITY_Sorush_isHost_Mark",
                  "value": 1.0
                }
              ],
              "targetPredicates": [
                {
                  "$type": "JHAJOBAACDP",
                  "tag": "_Mark_Sorush_Interact"
                }
              ],
              "successActions": [
                {
                  "$type": "SetGlobalValue",
                  "value": 1.0,
                  "key": "_ABILITY_Sorush_SkillHighLight_Mark",
                  "maxValue": 0.0,
                  "minValue": 0.0
                }
              ],
              "failActions": [
                {
                  "$type": "SetGlobalValue",
                  "value": 0.0,
                  "key": "_ABILITY_Sorush_SkillHighLight_Mark",
                  "maxValue": 0.0,
                  "minValue": 0.0
                }
              ]
            }
          ]
        },
        "Vehicle_Sorush_SkillHighLight": {
          "modifierName": "",
          "elementDurability": 100.0,
          "modifierMixins": [
            {
              "$type": "JAELMDBHGNI",
              "DHMEHMABOAE": 10201
            }
          ]
        },
        "Blank": {
          "modifierName": "",
          "elementDurability": 100.0
        }
      },
      "onAdded": [
        {
          "$type": "ApplyModifier",
          "modifierName": "Vehicle_Sorush_SkillHighLight_Detect"
        }
      ]
    }
  },
  {
    "Default": {
      "$type": "ConfigAbility",
      "abilityName": "Vehicle_Sorush_ActionSkillHighLight_WithCrown",
      "modifiers": {
        "Vehicle_Sorush_SkillHighLight_Detect": {
          "modifierName": "",
          "elementDurability": 100.0,
          "thinkInterval": 0.5,
          "modifierMixins": [
            {
              "$type": "AttachModifierToSelfGlobalValueMixin",
              "globalValueKey": "_ABILITY_Sorush_SkillHighLight_Mark",
              "gvInTalk": 0.0,
              "valueSteps": [-0.5, 0.5, 1.5],
              "modifierNameSteps": ["Blank", "Vehicle_Sorush_SkillHighLight"]
            }
          ],
          "onAdded": [
            {
              "$type": "Predicated",
              "otherTargets": {
                "$type": "SelectTargetsByShape",
                "shapeName": "CircleR5H5HC",
                "campTargetType": "AllExceptSelf",
                "doOffStage": 1.0
              },
              "predicates": [
                {
                  "$type": "ByTargetGlobalValue",
                  "target": "Caster",
                  "key": "_ABILITY_Sorush_isHost_Mark",
                  "value": 1.0
                }
              ],
              "targetPredicates": [
                {
                  "$type": "ByAny",
                  "predicates": [
                    {
                      "$type": "JHAJOBAACDP",
                      "tag": "_Mark_Sorush_Interact"
                    },
                    {
                      "$type": "JHAJOBAACDP",
                      "tag": "_Mark_CrownSorush_Only"
                    }
                  ]
                }
              ],
              "successActions": [
                {
                  "$type": "SetGlobalValue",
                  "value": 1.0,
                  "key": "_ABILITY_Sorush_SkillHighLight_Mark",
                  "maxValue": 0.0,
                  "minValue": 0.0
                }
              ],
              "failActions": [
                {
                  "$type": "SetGlobalValue",
                  "value": 0.0,
                  "key": "_ABILITY_Sorush_SkillHighLight_Mark",
                  "maxValue": 0.0,
                  "minValue": 0.0
                }
              ]
            }
          ],
          "onThinkInterval": [
            {
              "$type": "Predicated",
              "otherTargets": {
                "$type": "SelectTargetsByShape",
                "shapeName": "CircleR5H5HC",
                "campTargetType": "AllExceptSelf",
                "doOffStage": 1.0
              },
              "predicates": [
                {
                  "$type": "ByTargetGlobalValue",
                  "target": "Caster",
                  "key": "_ABILITY_Sorush_isHost_Mark",
                  "value": 1.0
                }
              ],
              "targetPredicates": [
                {
                  "$type": "ByAny",
                  "predicates": [
                    {
                      "$type": "JHAJOBAACDP",
                      "tag": "_Mark_Sorush_Interact"
                    },
                    {
                      "$type": "JHAJOBAACDP",
                      "tag": "_Mark_CrownSorush_Only"
                    }
                  ]
                }
              ],
              "successActions": [
                {
                  "$type": "SetGlobalValue",
                  "value": 1.0,
                  "key": "_ABILITY_Sorush_SkillHighLight_Mark",
                  "maxValue": 0.0,
                  "minValue": 0.0
                }
              ],
              "failActions": [
                {
                  "$type": "SetGlobalValue",
                  "value": 0.0,
                  "key": "_ABILITY_Sorush_SkillHighLight_Mark",
                  "maxValue": 0.0,
                  "minValue": 0.0
                }
              ]
            }
          ]
        },
        "Vehicle_Sorush_SkillHighLight": {
          "modifierName": "",
          "elementDurability": 100.0,
          "modifierMixins": [
            {
              "$type": "JAELMDBHGNI",
              "DHMEHMABOAE": 10201
            }
          ]
        },
        "Blank": {
          "modifierName": "",
          "elementDurability": 100.0
        }
      },
      "onAdded": [
        {
          "$type": "ApplyModifier",
          "modifierName": "Vehicle_Sorush_SkillHighLight_Detect"
        }
      ]
    }
  },
  {
    "Default": {
      "$type": "ConfigAbility",
      "abilityName": "Vehicle_Sorush_ChargeSkill",
      "abilityMixins": [
        {
          "$type": "AttachModifierToSelfGlobalValueMixin",
          "globalValueKey": "_ABILITY_Sorush_ChargeSkillValue",
          "gvInTalk": 0.0,
          "valueSteps": [-0.5, 0.5, 999.5],
          "modifierNameSteps": ["Blank", "Sorush_BombAlertFX"]
        }
      ],
      "modifiers": {
        "Vehicle_Sorush_ChargeSkill_Delay": {
          "modifierName": "",
          "duration": 0.20000000298023224,
          "elementDurability": 100.0,
          "onAdded": [
            {
              "$type": "FireEffect",
              "rotationDampTime": "Eff_Sorush_Normal_Skill2",
              "PPPDJGDDOGD": 1.0,
              "AJDILHJFNKE": -1.0
            },
            {
              "$type": "SetAnimatorTrigger",
              "triggerID": "HatOn"
            }
          ],
          "onRemoved": [
            {
              "$type": "TriggerBullet",
              "bulletID": 70220147,
              "born": {
                "$type": "ConfigBornBySelf",
                "offset": {
                  "x": 0.0,
                  "y": -0.10000000149011612,
                  "z": 0.0
                },
                "useRotation": true
              }
            },
            {
              "$type": "SetAnimatorTrigger",
              "triggerID": "HatOff"
            }
          ]
        },
        "Sorush_BombAlertFX": {
          "modifierName": "",
          "elementDurability": 100.0,
          "onAdded": [
            {
              "$type": "AttachEffect",
              "rotationDampTime": "Eff_Sorush_BombAlert",
              "PPPDJGDDOGD": 1.0,
              "AJDILHJFNKE": -1.0
            }
          ]
        },
        "Blank": {
          "modifierName": "",
          "elementDurability": 100.0
        }
      },
      "onAbilityStart": [
        {
          "$type": "AddGlobalValue",
          "value": -10.0,
          "key": "_ABILITY_Sorush_ChargeSkillValue",
          "useLimitRange": true,
          "maxValue": 80.0,
          "minValue": 0.0
        },
        {
          "$type": "SetAnimatorTrigger",
          "triggerID": "ChargeSkill",
          "mpTriggerOnRemote": true
        },
        {
          "$type": "ApplyModifier",
          "modifierName": "Vehicle_Sorush_ChargeSkill_Delay"
        }
      ]
    }
  },
  {
    "Default": {
      "$type": "ConfigAbility",
      "abilityName": "Bullet_Sorush_Bomb",
      "modifiers": {
        "Bullet_Sorush_Bomb_FX": {
          "modifierName": "",
          "elementDurability": 100.0,
          "onAdded": [
            {
              "$type": "AttachEffect",
              "rotationDampTime": "Eff_SceneObject_SlushaFruit_01_Bullet",
              "PPPDJGDDOGD": 1.0,
              "AJDILHJFNKE": -1.0
            }
          ]
        }
      },
      "onAdded": [
        {
          "$type": "AttachModifier",
          "modifierName": "Bullet_Sorush_Bomb_FX"
        }
      ],
      "onAbilityStart": [
        {
          "$type": "RemoveModifier",
          "modifierName": "Bullet_Sorush_Bomb_FX"
        },
        {
          "$type": "TriggerAttackEvent",
          "attackEvent": {
            "attackPattern": {
              "$type": "ConfigAttackSphere",
              "triggerType": "TriggerNoRepeat",
              "born": {
                "$type": "ConfigBornByCollisionPoint"
              },
              "radius": 3.0
            },
            "attackInfo": {
              "attackTag": "Sorush_Bomb_Attack",
              "attenuationTag": "",
              "attenuationGroup": "default",
              "attackProperty": {
                "actorGrassSubHurtDelta": 0.0,
                "actorWindSubHurtDelta": 0.0,
                "elementDurability": 100.0,
                "strikeType": "Blunt",
                "GLKMCMDJBIK": 0.0
              },
              "hitPattern": {
                "onHitEffectName": "default",
                "hitImpulseY": "",
                "hitImpulseType": "LV0",
                "hitHaltTimeScale": 0.05000000074505806,
                "muteHitText": true
              }
            }
          },
          "targetType": "Enemy"
        },
        {
          "$type": "FireEffect",
          "rotationDampTime": "Eff_SceneObject_SlushaFruit_01_Bomb",
          "born": {
            "$type": "ConfigBornByCollisionPoint"
          },
          "PPPDJGDDOGD": 1.0,
          "AJDILHJFNKE": -1.0
        },
        {
          "$type": "KillSelf"
        }
      ]
    }
  },
  {
    "Default": {
      "$type": "ConfigAbility",
      "abilityName": "Vehicle_Sorush_GrapplingHookSkill",
      "abilityMixins": [
        {
          "$type": "AttachModifierToSelfGlobalValueNoInitMixin",
          "globalValueKey": "_ABILITY_Sorush_AvatarIn_Mark",
          "valueSteps": [-0.5, 0.5, 1.5],
          "modifierNameSteps": ["Btn_T_Handler_Off", "Btn_T_Handler_On"]
        },
        {
          "$type": "EJNMIOFDIGF",
          "onStageReady": [
            {
              "$type": "DebugLog",
              "content": "!!!!!!!OnStageReady!!!!!!!!!"
            },
            {
              "$type": "AddGlobalValue",
              "target": "Team",
              "predicates": [
                {
                  "$type": "KGMHMHFHGIC",
                  "isHost": true
                }
              ],
              "value": -1.0,
              "key": "SORUSH_GrapplingHook_Mark",
              "useLimitRange": true,
              "maxValue": 1.0,
              "minValue": 0.0
            },
            {
              "$type": "AddGlobalValue",
              "value": -1.0,
              "key": "SORUSH_GrapplingHook_Mark",
              "useLimitRange": true,
              "maxValue": 1.0,
              "minValue": 0.0
            },
            {
              "$type": "AddGlobalValue",
              "target": "CurLocalAvatar",
              "predicates": [
                {
                  "$type": "KGMHMHFHGIC",
                  "isHost": true
                }
              ],
              "value": -1.0,
              "key": "SORUSH_GrapplingHook_Mark",
              "useLimitRange": true,
              "maxValue": 1.0,
              "minValue": 0.0
            }
          ]
        },
        {
          "$type": "DoActionOnGlobalValueChangeMixin",
          "globalValueKey": "SORUSH_GrapplingHook_Mark",
          "actions": [
            {
              "$type": "CopyGlobalValue",
              "srcTarget": "Self",
              "dstTarget": "Team",
              "srcKey": "SORUSH_GrapplingHook_Mark",
              "dstKey": "SORUSH_GrapplingHook_Mark"
            }
          ]
        }
      ],
      "modifiers": {
        "Btn_T_Handler_Off": {
          "modifierName": "",
          "elementDurability": 100.0
        },
        "Btn_T_Handler_On": {
          "modifierName": "",
          "elementDurability": 100.0,
          "onAdded": [
            {
              "$type": "ApplyModifier",
              "target": "Team",
              "modifierName": "Btn_T_Handler_OnTeam"
            }
          ],
          "onRemoved": [
            {
              "$type": "RemoveModifier",
              "target": "Team",
              "modifierName": "Btn_T_Handler_OnTeam"
            }
          ]
        },
        "Btn_T_Handler_OnTeam": {
          "modifierName": "",
          "elementDurability": 100.0,
          "modifierMixins": [
            {
              "$type": "DoActionOnGlobalValueChangeMixin",
              "globalValueKey": "SORUSH_GrapplingHook_Mark",
              "actions": [
                {
                  "$type": "MMEOBGGBNLK",
                  "shieldHP": true,
                  "predicates": [
                    {
                      "$type": "ByTargetGlobalValue",
                      "target": "Team",
                      "key": "SORUSH_GrapplingHook_Mark",
                      "value": 1.0
                    },
                    {
                      "$type": "ByTargetGlobalValue",
                      "target": "Team",
                      "key": "SGV_IsInHookRegion",
                      "value": 0.0,
                      "compareType": "MoreThan"
                    }
                  ],
                  "skillID": 20046
                },
                {
                  "$type": "MMEOBGGBNLK",
                  "shieldHP": true,
                  "predicates": [
                    {
                      "$type": "ByAny",
                      "predicates": [
                        {
                          "$type": "ByTargetGlobalValue",
                          "target": "Team",
                          "key": "SORUSH_GrapplingHook_Mark",
                          "value": 0.0,
                          "compareType": "NoneOrEqual"
                        },
                        {
                          "$type": "ByTargetGlobalValue",
                          "target": "Team",
                          "key": "SGV_IsInHookRegion",
                          "value": 0.0,
                          "compareType": "NoneOrEqual"
                        }
                      ]
                    }
                  ]
                }
              ]
            }
          ],
          "onRemoved": [
            {
              "$type": "MMEOBGGBNLK",
              "shieldHP": true
            }
          ],
          "onReconnect": [
            {
              "$type": "MMEOBGGBNLK",
              "shieldHP": true,
              "predicates": [
                {
                  "$type": "ByAny",
                  "predicates": [
                    {
                      "$type": "ByTargetGlobalValue",
                      "target": "Team",
                      "key": "SORUSH_GrapplingHook_Mark",
                      "value": 0.0,
                      "compareType": "NoneOrEqual"
                    },
                    {
                      "$type": "ByTargetGlobalValue",
                      "target": "Team",
                      "key": "SGV_IsInHookRegion",
                      "value": 0.0,
                      "compareType": "NoneOrEqual"
                    }
                  ]
                }
              ]
            }
          ]
        },
        "Set_EmptyGadget_SendRefreshSLC": {
          "modifierName": "",
          "duration": 0.10000000149011612,
          "elementDurability": 100.0,
          "onAdded": [
            {
              "$type": "AHPEKICBIIL",
              "luaCallType": "FromGroup",
              "funcName": "SLC_Refresh_Hookpoint_By_Leave_Region",
              "param1": 0.0,
              "MGAMDEHMCOL": 0.0,
              "MMHOHAOGPLP": 0.0
            }
          ]
        }
      },
      "onAdded": [
        {
          "$type": "FNPMFLOOCDD",
          "value": 0.0,
          "key": "SORUSH_GrapplingHook_Mark",
          "maxValue": 0.0,
          "minValue": 0.0
        }
      ],
      "onAbilityStart": [
        {
          "$type": "DebugLog",
          "content": "!!!!!!!Skill Be Trigger!!!!!!!!!"
        },
        {
          "$type": "Predicated",
          "targetPredicates": [
            {
              "$type": "ByTargetGlobalValue",
              "key": "SORUSH_GrapplingHook_Mark",
              "value": 1.0
            },
            {
              "$type": "ByTargetGlobalValue",
              "key": "_ABILITY_Sorush_AvatarIn_Mark",
              "value": 1.0
            },
            {
              "$type": "ByTargetGlobalValue",
              "target": "Team",
              "key": "SGV_IsInHookRegion",
              "value": 0.0,
              "compareType": "MoreThan"
            }
          ],
          "successActions": [
            {
              "$type": "CreateGadget",
              "born": {
                "$type": "ConfigBornBySelf",
                "offset": {
                  "x": 0.0,
                  "y": 0.0,
                  "z": 0.0
                },
                "useRotation": true
              },
              "gadgetID": 70220157,
              "campID": 5001,
              "campTargetType": "Enemy"
            }
          ]
        },
        {
          "$type": "AddGlobalValue",
          "target": "Team",
          "predicates": [
            {
              "$type": "KGMHMHFHGIC",
              "isHost": true
            }
          ],
          "value": -1.0,
          "key": "SORUSH_GrapplingHook_Mark",
          "useLimitRange": true,
          "maxValue": 1.0,
          "minValue": 0.0
        },
        {
          "$type": "AddGlobalValue",
          "value": -1.0,
          "key": "SORUSH_GrapplingHook_Mark",
          "useLimitRange": true,
          "maxValue": 1.0,
          "minValue": 0.0
        },
        {
          "$type": "AddGlobalValue",
          "target": "CurLocalAvatar",
          "predicates": [
            {
              "$type": "KGMHMHFHGIC",
              "isHost": true
            }
          ],
          "value": -1.0,
          "key": "SORUSH_GrapplingHook_Mark",
          "useLimitRange": true,
          "maxValue": 1.0,
          "minValue": 0.0
        }
      ],
      "onKill": [
        {
          "$type": "DebugLog",
          "content": "!!!!!!!On Kill In!!!!!!!!!"
        },
        {
          "$type": "Predicated",
          "targetPredicates": [
            {
              "$type": "ByTargetGlobalValue",
              "target": "Self",
              "key": "SORUSH_GrapplingHook_Mark",
              "value": 1.0
            }
          ],
          "successActions": [
            {
              "$type": "DebugLog",
              "content": "!!!!!!!modifier Add Succ!!!!!!!!!"
            },
            {
              "$type": "ApplyModifier",
              "otherTargets": {
                "$type": "PBLNLAENOGB",
                "tag": "SlushaHookRegion"
              },
              "shieldHP": true,
              "modifierName": "Set_EmptyGadget_SendRefreshSLC"
            },
            {
              "$type": "AddGlobalValue",
              "target": "Team",
              "predicates": [
                {
                  "$type": "KGMHMHFHGIC",
                  "isHost": true
                }
              ],
              "value": -1.0,
              "key": "SORUSH_GrapplingHook_Mark",
              "useLimitRange": true,
              "maxValue": 1.0,
              "minValue": 0.0
            },
            {
              "$type": "AddGlobalValue",
              "value": -1.0,
              "key": "SORUSH_GrapplingHook_Mark",
              "useLimitRange": true,
              "maxValue": 1.0,
              "minValue": 0.0
            },
            {
              "$type": "AddGlobalValue",
              "target": "CurLocalAvatar",
              "predicates": [
                {
                  "$type": "KGMHMHFHGIC",
                  "isHost": true
                }
              ],
              "value": -1.0,
              "key": "SORUSH_GrapplingHook_Mark",
              "useLimitRange": true,
              "maxValue": 1.0,
              "minValue": 0.0
            }
          ],
          "failActions": [
            {
              "$type": "DebugLog",
              "content": "!!!!!!!modifier Add Failed!!!!!!!!!"
            }
          ]
        }
      ]
    }
  },
  {
    "Default": {
      "$type": "ConfigAbility",
      "abilityName": "SceneObj_Level_Xm_Property_Ani_Prop_SlushaMovingHook_01_Creator",
      "abilitySpecials": {
        "pos_x": 0.0,
        "pos_y": 0.0,
        "pos_z": 0.0
      },
      "modifiers": {
        "SaveGlobalPos": {
          "modifierName": "",
          "duration": 0.10000000149011612,
          "elementDurability": 100.0,
          "onAdded": [
            {
              "$type": "SetGlobalPos",
              "key": "_TempPos",
              "born": {
                "$type": "ConfigBornByTarget",
                "offset": {
                  "x": 0.0,
                  "y": 0.0,
                  "z": 0.0
                }
              },
              "setTarget": false
            }
          ],
          "onRemoved": [
            {
              "$type": "ApplyModifier",
              "modifierName": "GV_Overrider"
            }
          ]
        },
        "GV_Overrider": {
          "modifierName": "",
          "duration": 0.10000000149011612,
          "elementDurability": 100.0,
          "onAdded": [
            {
              "$type": "SetGlobalValueToOverrideMap",
              "globalValueKey": "_TempPos_0",
              "overrideMapKey": "pos_x"
            },
            {
              "$type": "SetGlobalValueToOverrideMap",
              "globalValueKey": "_TempPos_1",
              "overrideMapKey": "pos_y"
            },
            {
              "$type": "SetGlobalValueToOverrideMap",
              "globalValueKey": "_TempPos_2",
              "overrideMapKey": "pos_z"
            }
          ],
          "onRemoved": [
            {
              "$type": "ApplyModifier",
              "otherTargets": {
                "$type": "PBLNLAENOGB",
                "tag": "SlushaHookRegion"
              },
              "modifierName": "Set_EmptyGadget_CreateHookpoint"
            }
          ]
        },
        "Set_EmptyGadget_CreateHookpoint": {
          "modifierName": "",
          "duration": 1.0,
          "elementDurability": 100.0,
          "onAdded": [
            {
              "$type": "AHPEKICBIIL",
              "luaCallType": "FromGroup",
              "funcName": "SLC_Create_HookPoint",
              "paramNum": 3,
              "param1": 0,
              "MGAMDEHMCOL": "pos_y",
              "MMHOHAOGPLP": "pos_z"
            }
          ],
          "onRemoved": [
            {
              "$type": "KillSelf",
              "target": "Applier",
              "configIdArray": [70220154]
            }
          ]
        }
      },
      "onAdded": [
        {
          "$type": "ApplyModifier",
          "modifierName": "SaveGlobalPos"
        }
      ]
    }
  },
  {
    "Default": {
      "$type": "ConfigAbility",
      "abilityName": "Vehicle_Sorush_HookPoint_DropHandler",
      "modifiers": {
        "Set_EmptyGadget_SendRefreshSLC": {
          "modifierName": "",
          "duration": 0.10000000149011612,
          "elementDurability": 100.0,
          "onAdded": [
            {
              "$type": "AHPEKICBIIL",
              "luaCallType": "FromGroup",
              "funcName": "SLC_Refresh_Hookpoint_By_Leave_Region",
              "param1": 0.0,
              "MGAMDEHMCOL": 0.0,
              "MMHOHAOGPLP": 0.0
            }
          ]
        }
      },
      "onAbilityStart": [
        {
          "$type": "DebugLog",
          "content": "!!!!!!!DorperTirgger!!!!!!!!!"
        },
        {
          "$type": "Predicated",
          "targetPredicates": [
            {
              "$type": "ByTargetGlobalValue",
              "target": "Self",
              "key": "SORUSH_GrapplingHook_Mark",
              "value": 1.0
            }
          ],
          "successActions": [
            {
              "$type": "DebugLog",
              "content": "!!!!!!!modifier Add Succ!!!!!!!!!"
            },
            {
              "$type": "ApplyModifier",
              "otherTargets": {
                "$type": "PBLNLAENOGB",
                "tag": "SlushaHookRegion"
              },
              "shieldHP": true,
              "modifierName": "Set_EmptyGadget_SendRefreshSLC"
            },
            {
              "$type": "AddGlobalValue",
              "target": "Team",
              "predicates": [
                {
                  "$type": "KGMHMHFHGIC",
                  "isHost": true
                }
              ],
              "value": -1.0,
              "key": "SORUSH_GrapplingHook_Mark",
              "useLimitRange": true,
              "maxValue": 1.0,
              "minValue": 0.0
            },
            {
              "$type": "AddGlobalValue",
              "value": -1.0,
              "key": "SORUSH_GrapplingHook_Mark",
              "useLimitRange": true,
              "maxValue": 1.0,
              "minValue": 0.0
            },
            {
              "$type": "AddGlobalValue",
              "target": "CurLocalAvatar",
              "predicates": [
                {
                  "$type": "KGMHMHFHGIC",
                  "isHost": true
                }
              ],
              "value": -1.0,
              "key": "SORUSH_GrapplingHook_Mark",
              "useLimitRange": true,
              "maxValue": 1.0,
              "minValue": 0.0
            }
          ],
          "failActions": [
            {
              "$type": "DebugLog",
              "content": "!!!!!!!modifier Add Failed!!!!!!!!!"
            }
          ]
        }
      ]
    }
  },
  {
    "Default": {
      "$type": "ConfigAbility",
      "abilityName": "Vehicle_Sorush_KillTeamChildren",
      "modifiers": {
        "KILLSELF": {
          "modifierName": "",
          "elementDurability": 100.0,
          "onAdded": [
            {
              "$type": "KillSelf",
              "configIdArray": [70220142]
            }
          ]
        }
      },
      "onRemoved": [
        {
          "$type": "ApplyModifier",
          "otherTargets": {
            "$type": "SelectTargetsByChildren",
            "configID": 70220142
          },
          "modifierName": "KILLSELF"
        }
      ],
      "isDynamicAbility": true
    }
  },
  {
    "Default": {
      "$type": "ConfigAbility",
      "abilityName": "Vehicle_Sorush_DynamicCollisionHandler",
      "abilityMixins": [
        {
          "$type": "JJGIIICBELE",
          "tags": ["SORUSH_WITH_HAT"],
          "isChecker": true
        }
      ]
    }
  },
  {
    "Default": {
      "$type": "ConfigAbility",
      "abilityName": "Vehicle_Sorush_SorushWithCrown",
      "onAdded": [
        {
          "$type": "FNPMFLOOCDD",
          "value": 1.0,
          "key": "_Ability_Sorush_Crown_Mark",
          "maxValue": 0.0,
          "minValue": 0.0
        }
      ]
    }
  },
  {
    "Default": {
      "$type": "ConfigAbility",
      "abilityName": "Vehicle_Sorush_ActivityVehicleMark",
      "onAdded": [
        {
          "$type": "SetGlobalValue",
          "value": 1.0,
          "key": "_ABILITY_Sorush_ActivityVehicleMark",
          "maxValue": 0.0,
          "minValue": 0.0
        }
      ]
    }
  },
  {
    "Default": {
      "$type": "ConfigAbility",
      "abilityName": "ActivityAbility_Team_Hitman_Sorush_FireBomb",
      "abilityMixins": [
        {
          "$type": "CMOCCIJDPCK",
          "targetVehicleIDs": [45002003],
          "skillDepotId": 99002001
        },
        {
          "$type": "ACOFEHEIAIN",
          "maxDistance": 15.0,
          "KOHOCMIPEHN": {
            "y": -2.5999999046325684
          },
          "GEKNGHOGDPA": 5.0,
          "EEAIBAFNDBP": 0.800000011920929
        },
        {
          "$type": "CurLocalAvatarMixinV2",
          "modifierName": "UNIQUE_Hitman_Sorush_FireBomb_FX_Handler"
        }
      ],
      "modifiers": {
        "UNIQUE_Hitman_Sorush_FireBomb_FX_Handler": {
          "modifierName": "",
          "forceTriggerWhenChangeAuthority": true,
          "elementDurability": 100.0,
          "modifierMixins": [
            {
              "$type": "AttachModifierToSelfGlobalValueMixin",
              "globalValueKey": "_ABILITY_Avatar_InSorush_Mark",
              "gvInTalk": 0.0,
              "valueSteps": [-0.5, 0.5, 1.5],
              "modifierNameSteps": ["Blank", "Sorush_BombAlertFX_Handler"]
            }
          ]
        },
        "Sorush_BombAlertFX_Handler": {
          "modifierName": "",
          "elementDurability": 100.0,
          "thinkInterval": 1.0,
          "onAdded": [
            {
              "$type": "AttachModifier",
              "target": "Vehicle",
              "shieldHP": true,
              "modifierName": "Sorush_BombAlertFX"
            }
          ],
          "onThinkInterval": [
            {
              "$type": "AttachModifier",
              "target": "Vehicle",
              "shieldHP": true,
              "modifierName": "Sorush_BombAlertFX"
            }
          ]
        },
        "Sorush_BombAlertFX": {
          "modifierName": "",
          "elementDurability": 100.0,
          "onAdded": [
            {
              "$type": "AttachEffect",
              "rotationDampTime": "Eff_Sorush_BombAlert",
              "PPPDJGDDOGD": 1.0,
              "AJDILHJFNKE": -1.0
            }
          ]
        },
        "Blank": {
          "modifierName": "",
          "elementDurability": 100.0
        }
      },
      "isDynamicAbility": true
    }
  },
  {
    "Default": {
      "$type": "ConfigAbility",
      "abilityName": "ActivityAbility_Hitman_Sorush_FireBomb",
      "modifiers": {
        "Vehicle_Sorush_ChargeSkill_Delay": {
          "modifierName": "",
          "duration": 0.20000000298023224,
          "elementDurability": 100.0,
          "onAdded": [
            {
              "$type": "SetAnimatorTrigger",
              "triggerID": "HatOn"
            }
          ],
          "onRemoved": [
            {
              "$type": "FireEffect",
              "rotationDampTime": "Eff_SceneObj_Slusha_FireBomb_01_Attack",
              "PPPDJGDDOGD": 1.0,
              "AJDILHJFNKE": -1.0
            },
            {
              "$type": "TriggerBullet",
              "bulletID": 70220151,
              "born": {
                "$type": "ConfigBornBySelf",
                "offset": {
                  "x": 0.0,
                  "y": -0.10000000149011612,
                  "z": 0.0
                },
                "useRotation": true
              }
            },
            {
              "$type": "SetAnimatorTrigger",
              "triggerID": "HatOff"
            }
          ]
        }
      },
      "onAbilityStart": [
        {
          "$type": "SetAnimatorTrigger",
          "triggerID": "ChargeSkill",
          "mpTriggerOnRemote": true
        },
        {
          "$type": "ApplyModifier",
          "modifierName": "Vehicle_Sorush_ChargeSkill_Delay"
        },
        {
          "$type": "AHPEKICBIIL",
          "shieldHP": true,
          "luaCallType": "CurGalleryControlGroup",
          "funcName": "SLC_Activity_SorushTrialHitman_SorushFireBomb",
          "param1": 0.0,
          "MGAMDEHMCOL": 0.0,
          "MMHOHAOGPLP": 0.0
        }
      ]
    }
  },
  {
    "Default": {
      "$type": "ConfigAbility",
      "abilityName": "Bullet_Sorush_Hitman_FireBomb",
      "modifiers": {
        "Bullet_Sorush_Bomb_FX": {
          "modifierName": "",
          "elementDurability": 100.0,
          "onAdded": [
            {
              "$type": "AttachEffect",
              "rotationDampTime": "Eff_SceneObj_Slusha_FireBomb_01_Bullet",
              "PPPDJGDDOGD": 1.0,
              "AJDILHJFNKE": -1.0
            }
          ]
        }
      },
      "onAdded": [
        {
          "$type": "AttachModifier",
          "modifierName": "Bullet_Sorush_Bomb_FX"
        }
      ],
      "onAbilityStart": [
        {
          "$type": "RemoveModifier",
          "modifierName": "Bullet_Sorush_Bomb_FX"
        },
        {
          "$type": "TriggerAttackEvent",
          "attackEvent": {
            "attackPattern": {
              "$type": "ConfigAttackSphere",
              "triggerType": "TriggerNoRepeat",
              "born": {
                "$type": "ConfigBornByCollisionPoint"
              },
              "radius": 3.0
            },
            "attackInfo": {
              "attackTag": "Sorush_Hitman_Bomb_Attack",
              "attenuationTag": "",
              "attenuationGroup": "default",
              "attackProperty": {
                "actorGrassSubHurtDelta": 0.0,
                "actorWindSubHurtDelta": 0.0,
                "elementType": "Fire",
                "elementDurability": 25.0,
                "strikeType": "Blunt",
                "GLKMCMDJBIK": 0.0
              },
              "hitPattern": {
                "onHitEffectName": "default",
                "hitImpulseY": "",
                "hitImpulseType": "LV0",
                "hitHaltTimeScale": 0.05000000074505806,
                "muteHitText": true
              }
            }
          },
          "targetType": "Enemy",
          "entityTypes": ["Gadget", "Field"]
        },
        {
          "$type": "FireEffect",
          "rotationDampTime": "Eff_SceneObj_Slusha_FireBomb_01_Bomb",
          "born": {
            "$type": "ConfigBornByCollisionPoint"
          },
          "PPPDJGDDOGD": 1.0,
          "AJDILHJFNKE": -1.0
        },
        {
          "$type": "KillSelf"
        }
      ]
    }
  }
]
