[
  {
    "Default": {
      "$type": "ConfigAbility",
      "abilityName": "Avatar_DrillTest_ExtraAttack"
    }
  },
  {
    "Default": {
      "$type": "ConfigAbility",
      "abilityName": "Avatar_DrillTest_ElementalArt_Launch"
    }
  },
  {
    "Default": {
      "$type": "ConfigAbility",
      "abilityName": "Avatar_DrillTest_ElementalArt_SpecialMove"
    }
  },
  {
    "Default": {
      "$type": "ConfigAbility",
      "abilityName": "Avatar_DrillTest_ElementalArt_Exit"
    }
  },
  {
    "Default": {
      "$type": "ConfigAbility",
      "abilityName": "Avatar_DrillTest_ShowEff"
    }
  },
  {
    "Default": {
      "$type": "ConfigAbility",
      "abilityName": "Avatar_DrillTest_ElementalBurst"
    }
  },
  {
    "Default": {
      "$type": "ConfigAbility",
      "abilityName": "Avatar_DrillTest_TestNyxValueChange",
      "abilityMixins": [
        {
          "$type": "LLNOANAIPFK",
          "target": "AllPlayerAvatars",
          "FMGELHCJGCF": "Test_NyxValue_Add",
          "minValue": 0.0,
          "maxValue": 99999.0
        },
        {
          "$type": "LLNOANAIPFK",
          "target": "AllPlayerAvatars",
          "damageRatio": "Reduce",
          "FMGELHCJGCF": "Test_NyxValue_Reduce",
          "minValue": 0.0,
          "maxValue": 99999.0
        }
      ],
      "onAdded": [
        {
          "$type": "SetGlobalValue",
          "value": 0.0,
          "key": "Test_NyxValue_Add",
          "maxValue": 0.0,
          "minValue": 0.0
        },
        {
          "$type": "SetGlobalValue",
          "value": 0.0,
          "key": "Test_NyxValue_Reduce",
          "maxValue": 0.0,
          "minValue": 0.0
        }
      ]
    }
  }
]
