[
  {
    "Default": {
      "$type": "ConfigAbility",
      "abilityName": "Avatar_PlayerBoy_ExtraAttack_Rock",
      "abilityMixins": [
        {
          "$type": "ButtonHoldChargeMixin",
          "skillID": 100545,
          "chargeTime": 0.11999999731779099,
          "secondChargeTime": 0.20000000298023224,
          "onBeginUncharged": [
            {
              "$type": "SetAnimatorTrigger",
              "triggerID": "DoSkill"
            },
            {
              "$type": "SetAnimatorInt",
              "predicates": [
                {
                  "$type": "ByAny",
                  "predicates": [
                    {
                      "$type": "ByAnimatorInt",
                      "logic": "Equal",
                      "value": 0,
                      "parameter": "ComboCount"
                    },
                    {
                      "$type": "ByAnimatorInt",
                      "logic": "Equal",
                      "value": 5,
                      "parameter": "ComboCount"
                    }
                  ]
                }
              ],
              "intID": "SkillID",
              "value": 99.0
            },
            {
              "$type": "SetAnimatorBool",
              "boolID": "IsCharging"
            }
          ],
          "onReleaseUncharged": [
            {
              "$type": "SetAnimatorInt",
              "intID": "SkillID",
              "value": 1.0
            }
          ],
          "onBeginCharged": [
            {
              "$type": "SetAnimatorBool",
              "boolID": "IsCharging",
              "value": true
            }
          ],
          "onReleaseCharged": [
            {
              "$type": "SetAnimatorBool",
              "boolID": "IsCharging"
            },
            {
              "$type": "SetAnimatorInt",
              "intID": "SkillID",
              "value": 1.0
            }
          ],
          "onBeginSecondCharged": [
            {
              "$type": "SetAnimatorTrigger",
              "predicates": [
                {
                  "$type": "ByLocalAvatarStamina",
                  "logic": "GreaterOrEqual",
                  "stamina": [
                    "ExtraAttack_Sword_Stamina_Cost",
                    "Flexible_Stamina",
                    "ADD"
                  ]
                }
              ],
              "triggerID": "DoSkill"
            },
            {
              "$type": "SetAnimatorInt",
              "predicates": [
                {
                  "$type": "ByLocalAvatarStamina",
                  "logic": "GreaterOrEqual",
                  "stamina": [
                    "ExtraAttack_Sword_Stamina_Cost",
                    "Flexible_Stamina",
                    "ADD"
                  ]
                }
              ],
              "intID": "SkillID",
              "value": 6.0
            },
            {
              "$type": "SetAnimatorBool",
              "boolID": "IsCharging"
            }
          ],
          "chargeStateIDs": [
            "Attack01",
            "Attack02",
            "Attack03",
            "Attack04",
            "Run"
          ]
        },
        {
          "$type": "AttachToStateIDMixin",
          "stateIDs": ["ExtraAttack"],
          "modifierName": "ExtraAttack_StaminaCost",
          "DGFCLAIDIFI": ""
        }
      ],
      "abilitySpecials": {
        "ExtraAttack_Sword_Stamina_Cost": 0.0,
        "Flexible_Stamina": -2.0
      },
      "modifiers": {
        "ExtraAttack_StaminaCost": {
          "modifierName": "",
          "elementDurability": 100.0,
          "onAdded": [
            {
              "$type": "AvatarSkillStart",
              "skillID": 10001,
              "amountByTargetCurrentHPRatio": 1.0,
              "costStaminaRatio": "ExtraAttack_Sword_Stamina_Cost"
            }
          ]
        }
      },
      "isDynamicAbility": true
    }
  },
  {
    "Default": {
      "$type": "ConfigAbility",
      "abilityName": "Avatar_PlayerGirl_ExtraAttack_Rock",
      "abilityMixins": [
        {
          "$type": "ButtonHoldChargeMixin",
          "skillID": 100555,
          "chargeTime": 0.11999999731779099,
          "secondChargeTime": 0.20000000298023224,
          "onBeginUncharged": [
            {
              "$type": "SetAnimatorTrigger",
              "triggerID": "DoSkill"
            },
            {
              "$type": "SetAnimatorInt",
              "predicates": [
                {
                  "$type": "ByAny",
                  "predicates": [
                    {
                      "$type": "ByAnimatorInt",
                      "logic": "Equal",
                      "value": 0,
                      "parameter": "ComboCount"
                    },
                    {
                      "$type": "ByAnimatorInt",
                      "logic": "Equal",
                      "value": 5,
                      "parameter": "ComboCount"
                    }
                  ]
                }
              ],
              "intID": "SkillID",
              "value": 99.0
            },
            {
              "$type": "SetAnimatorBool",
              "boolID": "IsCharging"
            }
          ],
          "onReleaseUncharged": [
            {
              "$type": "SetAnimatorInt",
              "intID": "SkillID",
              "value": 1.0
            }
          ],
          "onBeginCharged": [
            {
              "$type": "SetAnimatorBool",
              "boolID": "IsCharging",
              "value": true
            }
          ],
          "onReleaseCharged": [
            {
              "$type": "SetAnimatorBool",
              "boolID": "IsCharging"
            },
            {
              "$type": "SetAnimatorInt",
              "intID": "SkillID",
              "value": 1.0
            }
          ],
          "onBeginSecondCharged": [
            {
              "$type": "SetAnimatorTrigger",
              "predicates": [
                {
                  "$type": "ByLocalAvatarStamina",
                  "logic": "GreaterOrEqual",
                  "stamina": [
                    "ExtraAttack_Sword_Stamina_Cost",
                    "Flexible_Stamina",
                    "ADD"
                  ]
                }
              ],
              "triggerID": "DoSkill"
            },
            {
              "$type": "SetAnimatorInt",
              "predicates": [
                {
                  "$type": "ByLocalAvatarStamina",
                  "logic": "GreaterOrEqual",
                  "stamina": [
                    "ExtraAttack_Sword_Stamina_Cost",
                    "Flexible_Stamina",
                    "ADD"
                  ]
                }
              ],
              "intID": "SkillID",
              "value": 6.0
            },
            {
              "$type": "SetAnimatorBool",
              "boolID": "IsCharging"
            }
          ],
          "chargeStateIDs": [
            "Attack01",
            "Attack02",
            "Attack03",
            "Attack04",
            "Run"
          ]
        },
        {
          "$type": "AttachToStateIDMixin",
          "stateIDs": ["ExtraAttack"],
          "modifierName": "ExtraAttack_StaminaCost",
          "DGFCLAIDIFI": ""
        }
      ],
      "abilitySpecials": {
        "ExtraAttack_Sword_Stamina_Cost": 0.0,
        "Flexible_Stamina": -2.0
      },
      "modifiers": {
        "ExtraAttack_StaminaCost": {
          "modifierName": "",
          "elementDurability": 100.0,
          "onAdded": [
            {
              "$type": "AvatarSkillStart",
              "skillID": 10001,
              "amountByTargetCurrentHPRatio": 1.0,
              "costStaminaRatio": "ExtraAttack_Sword_Stamina_Cost"
            }
          ]
        }
      },
      "isDynamicAbility": true
    }
  },
  {
    "Default": {
      "$type": "ConfigAbility",
      "abilityName": "Avatar_Player_Hogyoku",
      "onAbilityStart": [
        {
          "$type": "CreateGadget",
          "born": {
            "$type": "ConfigBornByTarget",
            "offset": {
              "x": 0.0,
              "y": 0.0,
              "z": 2.0
            },
            "onGround": true,
            "onGroundIgnoreWater": true,
            "alongGround": true
          },
          "gadgetID": 41005003,
          "campID": 1001,
          "campTargetType": "Enemy"
        },
        {
          "$type": "AvatarSkillStart",
          "skillID": 10077,
          "amountByTargetCurrentHPRatio": 1.0,
          "costStaminaRatio": 1.0
        }
      ],
      "isDynamicAbility": true
    }
  },
  {
    "Default": {
      "$type": "ConfigAbility",
      "abilityName": "Avatar_Player_Hogyoku_ChargeStrike",
      "abilityMixins": [
        {
          "$type": "SkillButtonHoldChargeMixin",
          "skillID": 10077,
          "nextLoopTriggerID": "NextLoopTrigger",
          "endHoldTrigger": "EndHoldTrigger",
          "beforeStateIDs": ["Hogyoku_BS"],
          "chargeLoopStateIDs": ["Hogyoku_Charge"],
          "chargeLoopDurations": [10.0]
        },
        {
          "$type": "AttachToStateIDMixin",
          "stateIDs": ["Hogyoku_Charge", "Hogyoku_Charge_2"],
          "modifierName": "Focus",
          "DGFCLAIDIFI": ""
        },
        {
          "$type": "AttachToStateIDMixin",
          "stateIDs": ["Hogyoku_Charge"],
          "modifierName": "Charge",
          "DGFCLAIDIFI": ""
        }
      ],
      "modifiers": {
        "Focus": {
          "modifierName": "",
          "elementDurability": 100.0,
          "onAdded": [
            {
              "$type": "AvatarEnterFocus",
              "cameraFollowLower": {
                "x": 0.800000011920929,
                "y": 0.20000000298023224,
                "z": -2.5
              },
              "cameraFollowUpper": {
                "x": 0.5,
                "y": -0.20000000298023224
              },
              "cameraFastFocusMode": true,
              "dragButtonName": "Skill2",
              "assistance": {
                "ps4": {},
                "ps5": {},
                "other": {
                  "useGyro": true
                }
              },
              "canMove": false,
              "showCrosshair": false,
              "focusAnchorVerAngle": 5.0,
              "OMHGAKJIEFB": ""
            }
          ],
          "onRemoved": [
            {
              "$type": "AvatarExitFocus",
              "keepRotation": true
            }
          ]
        },
        "Charge": {
          "modifierName": "",
          "elementDurability": 100.0,
          "onAdded": [
            {
              "$type": "AddGlobalValue",
              "value": 10.0,
              "key": "_HOGYOKU_THROW_RANGE",
              "useLimitRange": true,
              "maxValue": 10.0,
              "minValue": 10.0
            },
            {
              "$type": "AttachEffect",
              "rotationDampTime": "Eff_Avatar_Hogyoku_Aim_Line",
              "PPPDJGDDOGD": 1.0,
              "AJDILHJFNKE": -1.0
            }
          ]
        }
      },
      "onAbilityStart": [
        {
          "$type": "AvatarSkillStart",
          "skillID": 10077,
          "amountByTargetCurrentHPRatio": 1.0,
          "costStaminaRatio": 1.0
        },
        {
          "$type": "TriggerBullet",
          "bulletID": 41005008,
          "born": {
            "$type": "ConfigBornByAttachPoint",
            "offset": {
              "x": 0.20000000298023224,
              "y": 0.0,
              "z": 0.6000000238418579
            },
            "attachPointName": "FocusAnchor"
          }
        }
      ],
      "isDynamicAbility": true
    }
  },
  {
    "Default": {
      "$type": "ConfigAbility",
      "abilityName": "Avatar_Player_HogyokuBullet",
      "onAbilityStart": [
        {
          "$type": "CreateGadget",
          "born": {
            "$type": "ConfigBornByCollisionPoint",
            "offset": {
              "x": 0.0,
              "y": 0.0,
              "z": 0.0
            },
            "onGround": true,
            "onGroundIgnoreWater": true,
            "alongGround": true
          },
          "gadgetID": 41005004,
          "campID": 1001,
          "campTargetType": "Enemy"
        }
      ]
    }
  },
  {
    "Default": {
      "$type": "ConfigAbility",
      "abilityName": "Avatar_Player_HogyokuBullet_LifeOver",
      "onAbilityStart": [
        {
          "$type": "CreateGadget",
          "born": {
            "$type": "ConfigBornByTarget",
            "offset": {
              "x": 0.0,
              "y": 0.0,
              "z": 0.0
            },
            "onGround": true,
            "onGroundIgnoreWater": true,
            "alongGround": true
          },
          "gadgetID": 41005004,
          "campID": 1001,
          "campTargetType": "Enemy"
        }
      ]
    }
  },
  {
    "Default": {
      "$type": "ConfigAbility",
      "abilityName": "Avatar_Player_Hogyoku_Base",
      "modifiers": {
        "Hogyoku_Base_Appear": {
          "modifierName": "",
          "duration": 0.6000000238418579,
          "elementDurability": 100.0,
          "onAdded": [
            {
              "$type": "FireEffect",
              "rotationDampTime": "Eff_Avatar_Hogyoku_Bullet",
              "born": {
                "$type": "ConfigBornByTarget",
                "offset": {
                  "x": 0.0,
                  "y": 0.0,
                  "z": 1.0
                },
                "onGround": true,
                "alongGround": true
              },
              "PPPDJGDDOGD": 1.0,
              "AJDILHJFNKE": -1.0
            }
          ],
          "onRemoved": [
            {
              "$type": "CreateGadget",
              "born": {
                "$type": "ConfigBornByTarget",
                "offset": {
                  "x": 0.0,
                  "y": 0.0,
                  "z": 1.0
                },
                "onGround": true,
                "onGroundIgnoreWater": true,
                "onGroundRaycastUpDist": 4.0,
                "alongGround": true
              },
              "gadgetID": 41005004,
              "campID": 1001,
              "campTargetType": "Enemy"
            }
          ]
        }
      },
      "onAdded": [
        {
          "$type": "ApplyModifier",
          "modifierName": "Hogyoku_Base_Appear"
        }
      ]
    }
  },
  {
    "Default": {
      "$type": "ConfigAbility",
      "abilityName": "Avatar_Player_Hogyoku_Barrier",
      "abilitySpecials": {
        "GetElementRatio": 1.0,
        "BarrierLifeTimeDelta": 0.0,
        "Damage_Explode": 0.0
      },
      "modifiers": {
        "Hogyoku_AttackHandler": {
          "modifierName": "",
          "duration": 5.0,
          "elementDurability": 100.0,
          "onAdded": [
            {
              "$type": "TriggerAttackEvent",
              "attackEvent": {
                "attackPattern": {
                  "$type": "ConfigAttackCircle",
                  "triggerType": "TriggerNoRepeat",
                  "born": {
                    "$type": "ConfigBornBySelf",
                    "offset": {
                      "x": 0.0,
                      "y": -0.5,
                      "z": 0.0
                    },
                    "useRotation": true
                  },
                  "height": 2.0,
                  "radius": 3.0
                },
                "attackInfo": {
                  "attackTag": "Elemental_Art",
                  "attenuationTag": "Elemental_Art",
                  "attenuationGroup": "default",
                  "attackProperty": {
                    "actorGrassSubHurtDelta": "Damage_Explode",
                    "actorWindSubHurtDelta": 0.0,
                    "elementType": "Rock",
                    "elementRank": 1.5,
                    "elementDurability": 50.0,
                    "strikeType": "Blunt",
                    "enBreak": 133.1999969482422,
                    "GLKMCMDJBIK": 0.0
                  },
                  "hitPattern": {
                    "onHitEffectName": "default",
                    "hitImpulseY": "",
                    "hitImpulseType": "LV5",
                    "retreatType": "ByHitDirection",
                    "hitHaltTime": 0.05000000074505806,
                    "hitHaltTimeScale": 0.05000000074505806,
                    "canBeDefenceHalt": true
                  },
                  "forceCameraShake": true,
                  "cameraShake": {
                    "shakeRange": 0.30000001192092896,
                    "shakeTime": 0.15000000596046448
                  },
                  "canBeModifiedBy": "OriginOwner"
                }
              },
              "targetType": "Enemy"
            }
          ],
          "onAttackLanded": [
            {
              "$type": "Predicated",
              "target": "Target",
              "targetPredicates": [
                {
                  "$type": "ByAttackTags",
                  "attackTags": ["Elemental_Art"]
                },
                {
                  "$type": "ByEntityTypes",
                  "entityTypes": ["Monster"]
                },
                {
                  "$type": "ByTargetGlobalValue",
                  "key": "_ANIMAL_ENTITY_TYPE",
                  "value": 0.0,
                  "compareType": "NoneOrEqual"
                },
                {
                  "$type": "PEJAIAPIAJD",
                  "target": "OriginOwner",
                  "elementType": "Rock"
                },
                {
                  "$type": "ByTargetGlobalValue",
                  "target": "Self",
                  "key": "_ABILITY_Hogyoku_Barrier_Limitation",
                  "value": 1.0
                },
                {
                  "$type": "ByTargetGlobalValue",
                  "target": "Self",
                  "key": "_ABILITY_Hogyoku_Barrier_ElemBallMark",
                  "value": 0.0,
                  "compareType": "NoneOrEqual"
                }
              ],
              "successActions": [
                {
                  "$type": "GenerateElemBall",
                  "configID": 2023,
                  "born": {
                    "$type": "ConfigBornByTarget",
                    "offset": {
                      "x": 0.0,
                      "y": 0.0,
                      "z": 0.0
                    }
                  },
                  "hpRatio": "GetElementRatio",
                  "baseEnergy": 9.0
                },
                {
                  "$type": "Randomed",
                  "chance": 0.33000001311302185,
                  "successActions": [
                    {
                      "$type": "GenerateElemBall",
                      "configID": 2023,
                      "born": {
                        "$type": "ConfigBornByTarget",
                        "offset": {
                          "x": 0.0,
                          "y": 0.0,
                          "z": 0.0
                        }
                      },
                      "hpRatio": "GetElementRatio",
                      "baseEnergy": 3.0
                    }
                  ]
                },
                {
                  "$type": "AddGlobalValue",
                  "value": 1.0,
                  "key": "_ABILITY_Hogyoku_Barrier_ElemBallMark",
                  "useLimitRange": true,
                  "maxValue": 1.0,
                  "minValue": 1.0
                }
              ]
            }
          ]
        },
        "Hogyoku_Barrier_HP": {
          "modifierName": "",
          "duration": ["BarrierLifeTimeDelta", 30.0, "ADD"],
          "elementDurability": 100.0,
          "onRemoved": [
            {
              "$type": "KillSelf"
            }
          ]
        },
        "Hogyoku_Barrier_Explode_Timer": {
          "modifierName": "",
          "duration": 0.8999999761581421,
          "elementDurability": 100.0,
          "onAdded": [
            {
              "$type": "AddGlobalValue",
              "value": 1.0,
              "key": "_ABILITY_Hogyoku_Barrier_Limitation",
              "useLimitRange": true,
              "maxValue": 1.0,
              "minValue": 0.0
            }
          ],
          "onRemoved": [
            {
              "$type": "AddGlobalValue",
              "value": -1.0,
              "key": "_ABILITY_Hogyoku_Barrier_Limitation",
              "useLimitRange": true,
              "maxValue": 1.0,
              "minValue": 0.0
            },
            {
              "$type": "ApplyModifier",
              "predicates": [
                {
                  "$type": "ByUnlockTalentParam",
                  "talentParam": "Player_Rock_UnstablePrime"
                }
              ],
              "modifierName": "Hogyoku_Barrier_Explode"
            }
          ]
        },
        "Hogyoku_Barrier_Explode": {
          "modifierName": "",
          "elementDurability": 100.0,
          "onKill": [
            {
              "$type": "TriggerAttackEvent",
              "attackEvent": {
                "attackPattern": {
                  "$type": "ConfigAttackCircle",
                  "triggerType": "TriggerNoRepeat",
                  "born": {
                    "$type": "ConfigBornBySelf",
                    "offset": {
                      "x": 0.0,
                      "y": 0.0,
                      "z": 0.0
                    },
                    "useRotation": true
                  },
                  "height": 1.5,
                  "radius": 3.0
                },
                "attackInfo": {
                  "attackTag": "Elemental_Art",
                  "attenuationTag": "Elemental_Art",
                  "attenuationGroup": "default",
                  "attackProperty": {
                    "actorGrassSubHurtDelta": "Damage_Explode",
                    "actorWindSubHurtDelta": 0.0,
                    "elementType": "Rock",
                    "elementRank": 1.5,
                    "elementDurability": 25.0,
                    "strikeType": "Blunt",
                    "enBreak": 133.1999969482422,
                    "GLKMCMDJBIK": 0.0
                  },
                  "hitPattern": {
                    "onHitEffectName": "default",
                    "hitImpulseY": "",
                    "hitImpulseType": "LV5",
                    "retreatType": "ByHitDirection",
                    "hitHaltTime": 0.05000000074505806,
                    "hitHaltTimeScale": 0.05000000074505806,
                    "canBeDefenceHalt": true
                  },
                  "forceCameraShake": true,
                  "cameraShake": {
                    "shakeRange": 0.30000001192092896,
                    "shakeTime": 0.15000000596046448
                  },
                  "canBeModifiedBy": "OriginOwner"
                }
              },
              "targetType": "Enemy"
            },
            {
              "$type": "FireEffect",
              "rotationDampTime": "Eff_Avatar_Hogyoku_Crystal_Explode",
              "PPPDJGDDOGD": 1.0,
              "AJDILHJFNKE": -1.0
            }
          ]
        }
      },
      "onAdded": [
        {
          "$type": "ApplyModifier",
          "modifierName": "Hogyoku_Barrier_Explode_Timer"
        },
        {
          "$type": "ApplyModifier",
          "modifierName": "Hogyoku_AttackHandler"
        },
        {
          "$type": "ApplyModifier",
          "modifierName": "Hogyoku_Barrier_HP"
        }
      ]
    }
  },
  {
    "Default": {
      "$type": "ConfigAbility",
      "abilityName": "Avatar_Player_Hogyoku_Barrier_EndBoom",
      "abilitySpecials": {
        "Damage_Explode": 0.0
      },
      "modifiers": {
        "Life_Timer": {
          "modifierName": "",
          "duration": 2.0,
          "elementDurability": 100.0,
          "onRemoved": [
            {
              "$type": "KillSelf"
            }
          ]
        }
      },
      "onAdded": [
        {
          "$type": "TriggerAttackEvent",
          "attackEvent": {
            "attackPattern": {
              "$type": "ConfigAttackCircle",
              "triggerType": "TriggerNoRepeat",
              "born": {
                "$type": "ConfigBornBySelf",
                "offset": {
                  "x": 0.0,
                  "y": 0.0,
                  "z": 0.0
                },
                "useRotation": true
              },
              "height": 1.5,
              "radius": 3.0
            },
            "attackInfo": {
              "attackTag": "Elemental_Art",
              "attenuationTag": "Elemental_Art",
              "attenuationGroup": "default",
              "attackProperty": {
                "actorGrassSubHurtDelta": "Damage_Explode",
                "actorWindSubHurtDelta": 0.0,
                "elementType": "Rock",
                "elementRank": 1.5,
                "elementDurability": 25.0,
                "strikeType": "Blunt",
                "enBreak": 133.1999969482422,
                "GLKMCMDJBIK": 0.0
              },
              "hitPattern": {
                "onHitEffectName": "default",
                "hitImpulseY": "",
                "hitImpulseType": "LV5",
                "retreatType": "ByHitDirection",
                "hitHaltTime": 0.05000000074505806,
                "hitHaltTimeScale": 0.05000000074505806,
                "canBeDefenceHalt": true
              },
              "forceCameraShake": true,
              "cameraShake": {
                "shakeRange": 0.30000001192092896,
                "shakeTime": 0.15000000596046448
              },
              "canBeModifiedBy": "OriginOwner"
            }
          },
          "targetType": "Enemy"
        },
        {
          "$type": "FireEffect",
          "rotationDampTime": "Eff_Avatar_Hogyoku_Crystal_Explode",
          "PPPDJGDDOGD": 1.0,
          "AJDILHJFNKE": -1.0
        },
        {
          "$type": "ApplyModifier",
          "modifierName": "Life_Timer"
        }
      ]
    }
  },
  {
    "Default": {
      "$type": "ConfigAbility",
      "abilityName": "Avatar_Player_Hogyoku_Barrier_Material",
      "modifiers": {
        "Hogyoku_Barrier_Material_Timer": {
          "modifierName": "",
          "duration": 0.05000000074505806,
          "elementDurability": 100.0,
          "onRemoved": [
            {
              "$type": "ApplyModifier",
              "modifierName": "Hogyoku_Barrier_Material"
            },
            {
              "$type": "SetAnimatorTrigger",
              "triggerID": "Start"
            }
          ]
        },
        "Hogyoku_Barrier_Material": {
          "modifierName": "",
          "elementDurability": 100.0,
          "onAdded": [
            {
              "$type": "AttachEffect",
              "rotationDampTime": "Eff_Avatar_Hogyoku_Crystal",
              "PPPDJGDDOGD": 1.0,
              "AJDILHJFNKE": -1.0
            }
          ]
        },
        "Hogyoku_Barrier_Disappear": {
          "modifierName": "",
          "elementDurability": 100.0,
          "onKill": [
            {
              "$type": "FireEffect",
              "predicates": [
                {
                  "$type": "ByNot",
                  "predicates": [
                    {
                      "$type": "ByUnlockTalentParam",
                      "talentParam": "Player_Rock_UnstablePrime"
                    }
                  ]
                }
              ],
              "rotationDampTime": "Eff_Avatar_Hogyoku_Crystal_Disappear",
              "PPPDJGDDOGD": 1.0,
              "AJDILHJFNKE": -1.0
            },
            {
              "$type": "RemoveModifier",
              "modifierName": "Hogyoku_Barrier_Material"
            }
          ]
        }
      },
      "onAdded": [
        {
          "$type": "FireEffect",
          "rotationDampTime": "Eff_Avatar_Hogyoku_Crystal_Impact",
          "PPPDJGDDOGD": 1.0,
          "AJDILHJFNKE": -1.0
        },
        {
          "$type": "ApplyModifier",
          "modifierName": "Hogyoku_Barrier_Material_Timer"
        },
        {
          "$type": "ApplyModifier",
          "modifierName": "Hogyoku_Barrier_Disappear"
        }
      ]
    }
  },
  {
    "Default": {
      "$type": "ConfigAbility",
      "abilityName": "Avatar_Player_RockTide",
      "abilityMixins": [
        {
          "$type": "AttachToStateIDMixin",
          "stateIDs": ["RockTide"],
          "modifierName": "RockTide_Camera_Protection_Ghost",
          "DGFCLAIDIFI": ""
        },
        {
          "$type": "AttachToStateIDMixin",
          "stateIDs": ["RockTide"],
          "modifierName": "RockTide_Camera_Protection_Invincible",
          "DGFCLAIDIFI": ""
        }
      ],
      "modifiers": {
        "RockTide_Camera_Protection_Ghost": {
          "modifierName": "",
          "elementDurability": 100.0,
          "onAdded": [
            {
              "$type": "AttachAbilityStateResistance",
              "resistanceListID": 11002
            }
          ]
        },
        "RockTide_Camera_Protection_Invincible": {
          "modifierName": "",
          "elementDurability": 100.0,
          "state": "Invincible"
        }
      },
      "onAbilityStart": [
        {
          "$type": "KillGadget",
          "gadgetInfo": {
            "configID": 41005006
          }
        },
        {
          "$type": "CreateGadget",
          "born": {
            "$type": "ConfigBornByTarget",
            "offset": {
              "x": 0.0,
              "y": 0.0,
              "z": 0.0
            }
          },
          "gadgetID": 41005005,
          "campID": 1001,
          "campTargetType": "Enemy"
        },
        {
          "$type": "AvatarSkillStart",
          "skillID": 10078,
          "amountByTargetCurrentHPRatio": 1.0,
          "costStaminaRatio": 1.0
        }
      ],
      "isDynamicAbility": true
    }
  },
  {
    "Default": {
      "$type": "ConfigAbility",
      "abilityName": "Avatar_Player_RockTide_AttackWave",
      "abilitySpecials": {
        "ReviveElemEnergyRatio": 5.0,
        "GaeaAnthem_TimeDelta": 0.0,
        "GaeaAnthem_EndureDelta": 0.699999988079071,
        "GaeaAnthem_CriticalDelta": 0.10000000149011612,
        "AttackWaveDamage": 0.0
      },
      "modifiers": {
        "RockTide_Push": {
          "modifierName": "",
          "duration": 1.2000000476837158,
          "elementDurability": 100.0,
          "modifierMixins": [
            {
              "$type": "WindZoneMixin",
              "shapeName": "CircleR6",
              "born": {
                "$type": "ConfigBornByTarget",
                "offset": {
                  "x": 0.0,
                  "y": 0.0,
                  "z": 0.0
                }
              },
              "strength": -2.0,
              "IAELBHDMINN": 4.0,
              "MMBCLAEOEFB": 0.0,
              "targetType": "All",
              "predicates": [
                {
                  "$type": "ByEntityTypes",
                  "entityTypes": ["Avatar"],
                  "reject": true
                },
                {
                  "$type": "ByTargetWeight",
                  "logic": "LesserOrEqual",
                  "BHOOHGLJDHM": 100.0
                }
              ],
              "modifierName": ""
            }
          ]
        },
        "RockTide_Attack_Start": {
          "modifierName": "",
          "duration": 1.100000023841858,
          "elementDurability": 100.0,
          "thinkInterval": 0.25,
          "onRemoved": [
            {
              "$type": "TriggerAbility",
              "abilityName": "Avatar_Player_RockTide_Barrier_Appear"
            }
          ],
          "onThinkInterval": [
            {
              "$type": "TriggerAttackEvent",
              "attackEvent": {
                "attackPattern": {
                  "$type": "ConfigAttackCircle",
                  "triggerType": "TriggerNoRepeat",
                  "born": {
                    "$type": "ConfigBornBySelf",
                    "offset": {
                      "x": 0.0,
                      "y": 0.0,
                      "z": 0.0
                    }
                  },
                  "height": 1.5,
                  "radius": 6.0
                },
                "attackInfo": {
                  "attackTag": "Elemental_Burst",
                  "attenuationTag": "Player_RockTide",
                  "attenuationGroup": "default",
                  "attackProperty": {
                    "actorGrassSubHurtDelta": "AttackWaveDamage",
                    "actorWindSubHurtDelta": 0.0,
                    "elementType": "Rock",
                    "elementRank": 3.0,
                    "elementDurability": 50.0,
                    "strikeType": "Blunt",
                    "enBreak": 100.0,
                    "GLKMCMDJBIK": 0.0
                  },
                  "hitPattern": {
                    "onHitEffectName": "default",
                    "hitImpulseY": "",
                    "hitImpulseType": "LV4",
                    "retreatType": "ByHitDirection",
                    "hitHaltTimeScale": 0.05000000074505806
                  },
                  "forceCameraShake": true,
                  "cameraShake": {
                    "shakeRange": 0.03999999910593033,
                    "shakeTime": 0.20000000298023224
                  },
                  "canBeModifiedBy": "OriginOwner"
                }
              },
              "targetType": "Enemy"
            }
          ]
        },
        "RockTide_AttackWave_Material": {
          "modifierName": "",
          "duration": ["GaeaAnthem_TimeDelta", 18.0, "ADD"],
          "elementDurability": 100.0,
          "onAdded": [
            {
              "$type": "FireEffect",
              "rotationDampTime": "Eff_Avatar_RockTide_Crest_Move",
              "PPPDJGDDOGD": 1.0,
              "AJDILHJFNKE": -1.0
            }
          ],
          "onRemoved": [
            {
              "$type": "KillSelf"
            }
          ]
        },
        "RockTide_AttackWave_StarDustReturn": {
          "modifierName": "",
          "elementDurability": 100.0,
          "onAttackLanded": [
            {
              "$type": "Predicated",
              "target": "Target",
              "targetPredicates": [
                {
                  "$type": "ByAttackTags",
                  "attackTags": ["Elemental_Burst"]
                },
                {
                  "$type": "ByEntityTypes",
                  "entityTypes": ["Monster"]
                }
              ],
              "successActions": [
                {
                  "$type": "ApplyModifier",
                  "target": "Target",
                  "predicates": [
                    {
                      "$type": "PEJAIAPIAJD",
                      "target": "Owner",
                      "elementType": "Rock"
                    }
                  ],
                  "modifierName": "StarDustReturn_Mark"
                }
              ]
            }
          ]
        },
        "StarDustReturn_Mark": {
          "modifierName": "",
          "duration": 2.0,
          "elementDurability": 100.0,
          "onAdded": [
            {
              "$type": "ApplyModifier",
              "target": "CasterOriginOwner",
              "modifierName": "StarDustReturn_Restore"
            }
          ]
        },
        "StarDustReturn_Restore": {
          "stacking": "Multiple",
          "stackingOption": {
            "abilitySpecialName": "",
            "maxModifierNumForMultipleType": 5.0
          },
          "modifierName": "",
          "duration": 1.5,
          "elementDurability": 100.0,
          "onAdded": [
            {
              "$type": "ReviveElemEnergy",
              "shieldHP": true,
              "value": "ReviveElemEnergyRatio"
            }
          ]
        },
        "UNIQUE_RockTide_GaeaAnthem": {
          "modifierName": "",
          "forceTriggerWhenChangeAuthority": true,
          "duration": ["GaeaAnthem_TimeDelta", 15.0, "ADD"],
          "elementDurability": 100.0,
          "thinkInterval": 1.0,
          "onThinkInterval": [
            {
              "$type": "ApplyModifier",
              "otherTargets": {
                "$type": "SelectTargetsByShape",
                "shapeName": "CircleR7",
                "campTargetType": "Alliance",
                "doOffStage": 1.0
              },
              "predicates": [
                {
                  "$type": "ByEntityTypes",
                  "entityTypes": ["Avatar"]
                }
              ],
              "modifierName": "UNIQUE_GaeaAnthem_PowerUp"
            }
          ]
        },
        "UNIQUE_GaeaAnthem_PowerUp": {
          "modifierName": "",
          "forceTriggerWhenChangeAuthority": true,
          "duration": 2.0,
          "elementDurability": 100.0,
          "properties": {
            "Actor_EndureDelta": "GaeaAnthem_EndureDelta",
            "Actor_CriticalDelta": "GaeaAnthem_CriticalDelta"
          },
          "isLimitedProperties": true
        }
      },
      "onAdded": [
        {
          "$type": "ApplyModifier",
          "modifierName": "RockTide_Push"
        },
        {
          "$type": "ApplyModifier",
          "modifierName": "RockTide_Attack_Start"
        },
        {
          "$type": "ApplyModifier",
          "modifierName": "RockTide_AttackWave_Material"
        },
        {
          "$type": "ApplyModifier",
          "predicates": [
            {
              "$type": "ByUnlockTalentParam",
              "talentParam": "Player_Rock_StarDustReturn"
            }
          ],
          "modifierName": "RockTide_AttackWave_StarDustReturn"
        },
        {
          "$type": "RemoveModifier",
          "predicates": [
            {
              "$type": "ByNot",
              "predicates": [
                {
                  "$type": "ByUnlockTalentParam",
                  "talentParam": "Player_Rock_StarDustReturn"
                }
              ]
            }
          ],
          "modifierName": "RockTide_AttackWave_StarDustReturn"
        },
        {
          "$type": "ApplyModifier",
          "predicates": [
            {
              "$type": "ByUnlockTalentParam",
              "talentParam": "Player_Rock_GaeaAnthem"
            }
          ],
          "modifierName": "UNIQUE_RockTide_GaeaAnthem"
        },
        {
          "$type": "RemoveUniqueModifier",
          "predicates": [
            {
              "$type": "ByNot",
              "predicates": [
                {
                  "$type": "ByUnlockTalentParam",
                  "talentParam": "Player_Rock_GaeaAnthem"
                }
              ]
            }
          ],
          "modifierName": "UNIQUE_RockTide_GaeaAnthem"
        }
      ]
    }
  },
  {
    "Default": {
      "$type": "ConfigAbility",
      "abilityName": "Avatar_Player_RockTide_Barrier_Appear",
      "onAbilityStart": [
        {
          "$type": "CreateGadget",
          "born": {
            "$type": "ConfigBornByTarget",
            "offset": {
              "x": 2.75,
              "y": 0.0,
              "z": 6.670000076293945
            },
            "onGround": true,
            "onGroundIgnoreWater": true,
            "direction": {
              "$type": "ConfigDirectionByLookAtEntity",
              "namedTransform": ""
            },
            "alongGround": true
          },
          "gadgetID": 41005006,
          "campID": 1001,
          "campTargetType": "Enemy"
        },
        {
          "$type": "CreateGadget",
          "born": {
            "$type": "ConfigBornByTarget",
            "offset": {
              "x": -2.75,
              "y": 0.0,
              "z": -6.670000076293945
            },
            "onGround": true,
            "onGroundIgnoreWater": true,
            "direction": {
              "$type": "ConfigDirectionByLookAtEntity",
              "namedTransform": ""
            },
            "alongGround": true
          },
          "gadgetID": 41005006,
          "campID": 1001,
          "campTargetType": "Enemy"
        },
        {
          "$type": "CreateGadget",
          "born": {
            "$type": "ConfigBornByTarget",
            "offset": {
              "x": 6.670000076293945,
              "y": 0.0,
              "z": -2.75
            },
            "onGround": true,
            "onGroundIgnoreWater": true,
            "direction": {
              "$type": "ConfigDirectionByLookAtEntity",
              "namedTransform": ""
            },
            "alongGround": true
          },
          "gadgetID": 41005006,
          "campID": 1001,
          "campTargetType": "Enemy"
        },
        {
          "$type": "CreateGadget",
          "born": {
            "$type": "ConfigBornByTarget",
            "offset": {
              "x": -6.670000076293945,
              "y": 0.0,
              "z": 2.75
            },
            "onGround": true,
            "onGroundIgnoreWater": true,
            "direction": {
              "$type": "ConfigDirectionByLookAtEntity",
              "namedTransform": ""
            },
            "alongGround": true
          },
          "gadgetID": 41005006,
          "campID": 1001,
          "campTargetType": "Enemy"
        }
      ]
    }
  },
  {
    "Default": {
      "$type": "ConfigAbility",
      "abilityName": "Avatar_Player_RockTide_Barrier",
      "abilitySpecials": {
        "BarrierHP": 0.25,
        "BarrierLifeTimeDelta": 0.0
      },
      "modifiers": {
        "Barrier_Stat": {
          "modifierName": "",
          "duration": ["BarrierLifeTimeDelta", 15.0, "ADD"],
          "elementDurability": 100.0,
          "properties": {
            "Actor_MaxHPRatio": "BarrierHP"
          },
          "onRemoved": [
            {
              "$type": "KillSelf"
            }
          ]
        },
        "Barrier_Material_Timer": {
          "modifierName": "",
          "duration": 0.05000000074505806,
          "elementDurability": 100.0,
          "onRemoved": [
            {
              "$type": "ApplyModifier",
              "modifierName": "Barrier_Material"
            },
            {
              "$type": "SetAnimatorTrigger",
              "triggerID": "Start"
            }
          ]
        },
        "Barrier_Material": {
          "modifierName": "",
          "elementDurability": 100.0,
          "onAdded": [
            {
              "$type": "AttachEffect",
              "rotationDampTime": "Eff_Avatar_RockTide_RockWall",
              "PPPDJGDDOGD": 1.0,
              "AJDILHJFNKE": -1.0
            }
          ],
          "onKill": [
            {
              "$type": "FireEffect",
              "rotationDampTime": "Eff_Avatar_RockTide_RockWall_Disappear",
              "PPPDJGDDOGD": 1.0,
              "AJDILHJFNKE": -1.0
            }
          ]
        },
        "Barrier_Damage": {
          "modifierName": "",
          "elementDurability": 100.0
        },
        "Barrier_Damage_Modifier": {
          "modifierName": "",
          "duration": 0.10000000149011612,
          "elementDurability": 100.0,
          "onAdded": [
            {
              "$type": "TriggerAttackEvent",
              "target": "Caster",
              "attackEvent": {
                "attackPattern": {
                  "$type": "ConfigAttackSphere",
                  "triggerType": "TriggerNoRepeat",
                  "born": {
                    "$type": "ConfigBornBySelf"
                  },
                  "radius": 1.0
                },
                "attackInfo": {
                  "attackTag": "",
                  "attenuationTag": "",
                  "attenuationGroup": "default",
                  "attackProperty": {
                    "actorGrassSubHurtDelta": 0.10000000149011612,
                    "actorWindSubHurtDelta": 0.0,
                    "elementType": "Rock",
                    "elementRank": 1.5,
                    "elementDurability": 25.0,
                    "strikeType": "Default",
                    "enBreak": 10.59000015258789,
                    "GLKMCMDJBIK": 0.0
                  },
                  "hitPattern": {
                    "onHitEffectName": "",
                    "hitImpulseY": "",
                    "hitImpulseType": "LV3",
                    "hitHaltTimeScale": 0.05000000074505806
                  }
                }
              },
              "targetType": "Enemy"
            }
          ]
        }
      },
      "onAdded": [
        {
          "$type": "ApplyModifier",
          "modifierName": "Barrier_Stat"
        },
        {
          "$type": "FireEffect",
          "rotationDampTime": "Eff_Avatar_RockTide_RockWall_Impact",
          "PPPDJGDDOGD": 1.0,
          "AJDILHJFNKE": -1.0
        },
        {
          "$type": "ApplyModifier",
          "modifierName": "Barrier_Material_Timer"
        }
      ]
    }
  },
  {
    "Default": {
      "$type": "ConfigAbility",
      "abilityName": "Avatar_Player_Rock_Avalanche",
      "abilitySpecials": {
        "Avalanche_Damage": 0.6000000238418579
      },
      "onAbilityStart": [
        {
          "$type": "TriggerAttackEvent",
          "predicates": [
            {
              "$type": "ByUnlockTalentParam",
              "talentParam": "Player_Rock_Avalanche"
            }
          ],
          "attackEvent": {
            "attackPattern": {
              "$type": "ConfigAttackSphere",
              "triggerType": "TriggerNoRepeat",
              "born": {
                "$type": "ConfigBornBySelf",
                "offset": {
                  "x": 0.0,
                  "y": 1.0,
                  "z": 1.2000000476837158
                }
              },
              "radius": 2.4000000953674316
            },
            "attackInfo": {
              "attackTag": "NormalAttack_05",
              "attenuationTag": "",
              "attenuationGroup": "default",
              "attackProperty": {
                "actorGrassSubHurtDelta": "Avalanche_Damage",
                "actorWindSubHurtDelta": 0.0,
                "elementType": "Rock",
                "elementDurability": 25.0,
                "strikeType": "Blunt",
                "enBreak": 13.5,
                "attackType": "Melee",
                "GLKMCMDJBIK": 0.0
              },
              "hitPattern": {
                "onHitEffectName": "default",
                "hitImpulseY": "",
                "hitImpulseType": "LV2",
                "hitHaltTimeScale": 0.05000000074505806
              },
              "cameraShake": {
                "shakeRange": 0.07999999821186066,
                "shakeTime": 0.03999999910593033
              }
            }
          },
          "targetType": "Enemy"
        },
        {
          "$type": "FireEffect",
          "predicates": [
            {
              "$type": "ByUnlockTalentParam",
              "talentParam": "Player_Rock_Avalanche"
            }
          ],
          "rotationDampTime": "Eff_Avatar_RockBlade_Explode",
          "PPPDJGDDOGD": 1.0,
          "AJDILHJFNKE": -1.0
        }
      ],
      "isDynamicAbility": true
    }
  },
  {
    "Default": {
      "$type": "ConfigAbility",
      "abilityName": "Avatar_Player_Rock_Climber",
      "abilityMixins": [
        {
          "$type": "AttachToStateIDMixin",
          "stateIDs": ["Climb"],
          "modifierName": "Player_Rock_Climber",
          "DGFCLAIDIFI": ""
        }
      ],
      "abilitySpecials": {
        "Climber_CostStaminaRatio": -0.07999999821186066
      },
      "modifiers": {
        "Player_Rock_Climber": {
          "modifierName": "",
          "elementDurability": 100.0,
          "properties": {
            "Actor_CostStaminaRatio": "Climber_CostStaminaRatio"
          },
          "isLimitedProperties": true
        }
      },
      "isDynamicAbility": true
    }
  }
]
