[
  {
    "Default": {
      "$type": "ConfigAbility",
      "abilityName": "Avatar_HookTest_ExtraAttack",
      "abilityMixins": [
        {
          "$type": "ButtonHoldChargeMixin",
          "skillID": 30101,
          "chargeTime": 0.10000000149011612,
          "secondChargeTime": 0.10000000149011612,
          "onBeginUncharged": [
            {
              "$type": "SetAnimatorTrigger",
              "triggerID": "DoSkill"
            },
            {
              "$type": "SetAnimatorInt",
              "intID": "SkillID",
              "value": 1.0
            }
          ]
        },
        {
          "$type": "SwitchSkillIDMixin",
          "priority": "AvatarSpecial",
          "skillID": 30101,
          "useInAir": true,
          "GAOGFPCNEGF": true
        }
      ]
    }
  },
  {
    "Default": {
      "$type": "ConfigAbility",
      "abilityName": "Avatar_HookTest_ElementalArt_Passive",
      "abilityMixins": [
        {
          "$type": "AttachToNormalizedTimeMixin",
          "stateID": "Hook_Shoot",
          "modifierName": "Hook_Shoot_Trigger",
          "normalizeStart": 0.5,
          "DGFCLAIDIFI": ""
        },
        {
          "$type": "AttachToNormalizedTimeMixin",
          "stateID": "Hook_Strafe_Final",
          "modifierName": "Hook_Final",
          "normalizeStart": 0.10000000149011612,
          "DGFCLAIDIFI": ""
        },
        {
          "$type": "AttachToStateIDMixin",
          "stateIDs": ["Hook_Rush_Loop"],
          "modifierName": "Hook_SteerCamera",
          "DGFCLAIDIFI": ""
        },
        {
          "$type": "AttachToNormalizedTimeMixin",
          "stateID": "Hook_Rush",
          "modifierName": "Hook_NoGravity",
          "normalizeEnd": 0.6000000238418579,
          "DGFCLAIDIFI": ""
        },
        {
          "$type": "AttachToNormalizedTimeMixin",
          "stateID": "Hook_Rush_Air",
          "modifierName": "Hook_NoGravity",
          "normalizeEnd": 0.6000000238418579,
          "DGFCLAIDIFI": ""
        },
        {
          "$type": "AttachToNormalizedTimeMixin",
          "stateID": "Hook_Rush",
          "modifierName": "Hook_Rush_Fx",
          "DGFCLAIDIFI": ""
        },
        {
          "$type": "AttachToNormalizedTimeMixin",
          "stateID": "Hook_Rush_Air",
          "modifierName": "Hook_RushAir_Fx",
          "DGFCLAIDIFI": ""
        },
        {
          "$type": "AttachToNormalizedTimeMixin",
          "stateID": "Hook_Strafe_L",
          "modifierName": "Hook_StrafeL_Fx",
          "normalizeEnd": 0.3799999952316284,
          "DGFCLAIDIFI": ""
        },
        {
          "$type": "AttachToNormalizedTimeMixin",
          "stateID": "Hook_Strafe_R",
          "modifierName": "Hook_StrafeR_Fx",
          "normalizeEnd": 0.3799999952316284,
          "DGFCLAIDIFI": ""
        },
        {
          "$type": "AttachToNormalizedTimeMixin",
          "stateID": "Hook_Strafe_F",
          "modifierName": "Hook_StrafeF_Fx",
          "normalizeEnd": 0.25,
          "DGFCLAIDIFI": ""
        }
      ],
      "modifiers": {
        "Hook_Hand_Foot_Fx": {
          "modifierName": "",
          "elementDurability": 100.0,
          "onAdded": [
            {
              "$type": "AttachEffect",
              "shieldHP": true,
              "rotationDampTime": "Eff_Avatar_Boy_Hook_Test_Trail_LFoot",
              "PPPDJGDDOGD": 1.0,
              "AJDILHJFNKE": -1.0
            },
            {
              "$type": "AttachEffect",
              "shieldHP": true,
              "rotationDampTime": "Eff_Avatar_Boy_Hook_Test_Trail_LHand",
              "PPPDJGDDOGD": 1.0,
              "AJDILHJFNKE": -1.0
            },
            {
              "$type": "AttachEffect",
              "shieldHP": true,
              "rotationDampTime": "Eff_Avatar_Boy_Hook_Test_Trail_RFoot",
              "PPPDJGDDOGD": 1.0,
              "AJDILHJFNKE": -1.0
            },
            {
              "$type": "AttachEffect",
              "shieldHP": true,
              "rotationDampTime": "Eff_Avatar_Boy_Hook_Test_Trail_RHand",
              "PPPDJGDDOGD": 1.0,
              "AJDILHJFNKE": -1.0
            }
          ]
        },
        "Hook_Final": {
          "modifierName": "",
          "elementDurability": 100.0,
          "onAdded": [
            {
              "$type": "RemoveModifier",
              "modifierName": "Hook_KillDragonState"
            }
          ]
        },
        "Hook_Shoot_Trigger": {
          "modifierName": "",
          "elementDurability": 100.0,
          "onAdded": [
            {
              "$type": "ApplyModifier",
              "modifierName": "Hook_KillDragonState"
            }
          ]
        },
        "Hook_KillDragonState": {
          "modifierName": "",
          "duration": 15.0,
          "elementDurability": 100.0,
          "modifierMixins": [
            {
              "$type": "SwitchSkillIDMixin",
              "priority": "AvatarSpecial",
              "skillID": 30103,
              "useInAir": true,
              "GAOGFPCNEGF": true
            },
            {
              "$type": "SwitchSkillIDMixin",
              "priority": "AvatarSpecial",
              "skillIndex": 1,
              "skillID": 30104,
              "useInAir": true,
              "GAOGFPCNEGF": true
            }
          ],
          "onAdded": [
            {
              "$type": "AttachEffect",
              "rotationDampTime": "Eff_Avatar_Lady_Catalyst_Liuyun_ElementalBurst_Drone_JumpBuff",
              "PPPDJGDDOGD": 1.0,
              "AJDILHJFNKE": -1.0
            }
          ]
        },
        "Hook_NoGravity": {
          "modifierName": "",
          "elementDurability": 100.0,
          "properties": {
            "Actor_AddGravityScale": -2.0
          }
        },
        "Hook_SteerCamera": {
          "modifierName": "",
          "duration": 1.0,
          "elementDurability": 100.0,
          "modifierMixins": [
            {
              "$type": "AvatarSteerByCameraMixin",
              "stateIDs": ["Hook_Rush_Loop"],
              "angularSpeed": 180.0,
              "canReviveStamina": true,
              "isCheckOnAttach": true,
              "PBLEFEPFBPH": "",
              "LBOBGGPJOOP": ""
            }
          ]
        },
        "Hook_Fx": {
          "modifierName": "",
          "duration": 3.0,
          "elementDurability": 100.0,
          "modifierMixins": [
            {
              "$type": "FKIBGDFKICL",
              "rotationDampTime": "Eff_Vehicle_Natsaurus_Hookwalker_Aim_Line_Avatar",
              "positionKey": "_GrapplingHook_TargetPos",
              "onHookReached": [
                {
                  "$type": "SendEffectTrigger",
                  "parameter": "Get",
                  "attachPoint": "",
                  "rotationDampTime": "Eff_Vehicle_Natsaurus_Hookwalker_Aim_Line_Avatar"
                }
              ]
            }
          ]
        },
        "Hook_Fx_02": {
          "modifierName": "",
          "duration": 3.0,
          "elementDurability": 100.0,
          "modifierMixins": [
            {
              "$type": "FKIBGDFKICL",
              "rotationDampTime": "Eff_Vehicle_Natsaurus_Hookwalker_Aim_Line_Avatar",
              "positionKey": "_GrapplingHook_TargetPos",
              "onHookReached": [
                {
                  "$type": "SendEffectTrigger",
                  "parameter": "Get",
                  "attachPoint": "",
                  "rotationDampTime": "Eff_Vehicle_Natsaurus_Hookwalker_Aim_Line_Avatar"
                }
              ]
            }
          ]
        },
        "Hook_Rush_Fx": {
          "modifierName": "",
          "elementDurability": 100.0,
          "onAdded": [
            {
              "$type": "SetGlobalPos",
              "key": "_GrapplingHook_TargetPos",
              "born": {
                "$type": "ConfigBornBySelf",
                "offset": {
                  "x": 0.0,
                  "y": 4.0,
                  "z": 5.5
                },
                "useRotation": true
              }
            },
            {
              "$type": "RemoveModifier",
              "modifierName": "Hook_Fx"
            },
            {
              "$type": "AttachModifier",
              "modifierName": "Hook_Fx"
            },
            {
              "$type": "RemoveModifier",
              "modifierName": "Hook_Rush_Move"
            },
            {
              "$type": "RemoveModifier",
              "modifierName": "Hook_RushAir_Move"
            },
            {
              "$type": "ApplyModifier",
              "modifierName": "Hook_Rush_Move"
            }
          ]
        },
        "Hook_RushAir_Fx": {
          "modifierName": "",
          "elementDurability": 100.0,
          "onAdded": [
            {
              "$type": "SetGlobalPos",
              "key": "_GrapplingHook_TargetPos",
              "born": {
                "$type": "ConfigBornBySelf",
                "offset": {
                  "x": 0.0,
                  "y": 0.0,
                  "z": 6.0
                },
                "useRotation": true
              }
            },
            {
              "$type": "RemoveModifier",
              "modifierName": "Hook_Fx"
            },
            {
              "$type": "AttachModifier",
              "modifierName": "Hook_Fx"
            },
            {
              "$type": "RemoveModifier",
              "modifierName": "Hook_Rush_Move"
            },
            {
              "$type": "RemoveModifier",
              "modifierName": "Hook_RushAir_Move"
            },
            {
              "$type": "ApplyModifier",
              "modifierName": "Hook_RushAir_Move"
            }
          ]
        },
        "Hook_StrafeL_Fx": {
          "modifierName": "",
          "elementDurability": 100.0,
          "onAdded": [
            {
              "$type": "SetGlobalPos",
              "key": "_GrapplingHook_TargetPos",
              "born": {
                "$type": "ConfigBornBySelf",
                "offset": {
                  "x": 0.0,
                  "y": 1.5,
                  "z": 10.0
                },
                "useRotation": true
              }
            },
            {
              "$type": "RemoveModifier",
              "modifierName": "Hook_Fx"
            },
            {
              "$type": "AttachModifier",
              "modifierName": "Hook_Fx"
            }
          ]
        },
        "Hook_StrafeR_Fx": {
          "modifierName": "",
          "elementDurability": 100.0,
          "onAdded": [
            {
              "$type": "SetGlobalPos",
              "key": "_GrapplingHook_TargetPos",
              "born": {
                "$type": "ConfigBornBySelf",
                "offset": {
                  "x": 0.0,
                  "y": 1.5,
                  "z": 10.0
                },
                "useRotation": true
              }
            },
            {
              "$type": "RemoveModifier",
              "modifierName": "Hook_Fx"
            },
            {
              "$type": "AttachModifier",
              "modifierName": "Hook_Fx_02"
            }
          ]
        },
        "Hook_StrafeF_Fx": {
          "modifierName": "",
          "elementDurability": 100.0,
          "onAdded": [
            {
              "$type": "SetGlobalPos",
              "key": "_GrapplingHook_TargetPos",
              "born": {
                "$type": "ConfigBornBySelf",
                "offset": {
                  "x": 0.0,
                  "y": 2.0,
                  "z": 8.0
                },
                "useRotation": true
              }
            },
            {
              "$type": "RemoveModifier",
              "modifierName": "Hook_Fx"
            },
            {
              "$type": "AttachModifier",
              "modifierName": "Hook_Fx"
            }
          ]
        },
        "Hook_Rush_Move": {
          "modifierName": "",
          "duration": 1.100000023841858,
          "elementDurability": 100.0,
          "properties": {
            "Actor_AddGravityScale": -2.0
          },
          "onAdded": [
            {
              "$type": "RemoveVelocityForce",
              "forces": ["RushMoveType", "InertiaType"]
            },
            {
              "$type": "SetVelocityIgnoreAirGY",
              "ignoreAirGY": true
            },
            {
              "$type": "TriggerSetPassThrough",
              "shieldHP": true,
              "passThrough": true
            },
            {
              "$type": "FixedAvatarRushMove",
              "toPos": {
                "$type": "ConfigBornByGlobalValue",
                "offset": {
                  "x": 0.0,
                  "y": 0.0,
                  "z": 0.0
                },
                "positionKey": "_GrapplingHook_TargetPos",
                "directionKey": ""
              },
              "NKPCHMCNNOK": 0.699999988079071,
              "maxRange": 15.0,
              "animatorStateIDs": ["Hook_Rush", "Hook_Rush_Loop"],
              "overrideMoveCollider": "",
              "isInAir": true
            }
          ],
          "onRemoved": [
            {
              "$type": "SetVelocityIgnoreAirGY"
            },
            {
              "$type": "TriggerSetPassThrough",
              "shieldHP": true,
              "canBeHandledOnRecover": true
            }
          ]
        },
        "Hook_RushAir_Move": {
          "modifierName": "",
          "duration": 1.100000023841858,
          "elementDurability": 100.0,
          "properties": {
            "Actor_AddGravityScale": -2.0
          },
          "onAdded": [
            {
              "$type": "RemoveVelocityForce",
              "forces": ["RushMoveType", "InertiaType"]
            },
            {
              "$type": "SetVelocityIgnoreAirGY",
              "ignoreAirGY": true
            },
            {
              "$type": "TriggerSetPassThrough",
              "shieldHP": true,
              "passThrough": true
            },
            {
              "$type": "FixedAvatarRushMove",
              "toPos": {
                "$type": "ConfigBornByGlobalValue",
                "offset": {
                  "x": 0.0,
                  "y": 0.0,
                  "z": 0.0
                },
                "positionKey": "_GrapplingHook_TargetPos",
                "directionKey": ""
              },
              "NKPCHMCNNOK": 0.699999988079071,
              "maxRange": 15.0,
              "animatorStateIDs": ["Hook_Rush_Air", "Hook_Rush_Air_Loop"],
              "overrideMoveCollider": "",
              "isInAir": true
            }
          ],
          "onRemoved": [
            {
              "$type": "SetVelocityIgnoreAirGY"
            },
            {
              "$type": "TriggerSetPassThrough",
              "shieldHP": true,
              "canBeHandledOnRecover": true
            }
          ]
        }
      }
    }
  },
  {
    "Default": {
      "$type": "ConfigAbility",
      "abilityName": "Avatar_HookTest_ElementalArt",
      "abilityMixins": [
        {
          "$type": "ButtonHoldChargeMixin",
          "skillID": 30102,
          "secondChargeTime": 0.15000000596046448,
          "onReleaseCharged": [
            {
              "$type": "SetAnimatorTrigger",
              "triggerID": "PRIVATE_ShortHook"
            }
          ],
          "onBeginSecondCharged": [
            {
              "$type": "ApplyModifier",
              "shieldHP": true,
              "modifierName": "FocusCanMove"
            }
          ],
          "onReleaseSecondCharged": [
            {
              "$type": "SetGlobalPos",
              "key": "_ABILITY_HookTest_HookPos",
              "born": {
                "$type": "NGFMFHGBGNK",
                "offset": {
                  "x": 0.0,
                  "y": 0.0,
                  "z": 12.0
                },
                "KPKHEKMOEGN": {
                  "$type": "EPICDEIDAMH",
                  "direction": {
                    "$type": "JNKPDKHFJJB"
                  },
                  "useRotation": true
                }
              }
            },
            {
              "$type": "TurnDirectionToPos",
              "toPos": {
                "$type": "ConfigBornByGlobalValue",
                "positionKey": "_ABILITY_HookTest_HookPos",
                "directionKey": ""
              }
            },
            {
              "$type": "RemoveModifier",
              "shieldHP": true,
              "modifierName": "FocusCanMove"
            },
            {
              "$type": "SetAnimatorTrigger",
              "triggerID": "PRIVATE_HoldHook"
            }
          ],
          "onCancelCharged": [
            {
              "$type": "RemoveModifier",
              "shieldHP": true,
              "modifierName": "FocusCanMove"
            }
          ],
          "chargeStateIDs": [
            "NormalStandby",
            "NormalMove",
            "Sprint",
            "SprintBS"
          ]
        },
        {
          "$type": "AttachToNormalizedTimeMixin",
          "stateID": "Hook_AimGroundHold_Shoot",
          "modifierName": "HookTest_Shoot_Bullet",
          "normalizeStart": 0.20000000298023224,
          "DGFCLAIDIFI": ""
        },
        {
          "$type": "AttachToStateIDMixin",
          "stateIDs": ["Hook_AimGroundLoop"],
          "modifierName": "Charge",
          "DGFCLAIDIFI": ""
        },
        {
          "$type": "AttachToStateIDMixin",
          "stateIDs": ["Hook_AimGroundHold_Rush"],
          "modifierName": "RushTimer",
          "DGFCLAIDIFI": ""
        },
        {
          "$type": "AttachToStateIDMixin",
          "stateIDs": ["Hook_AimGroundHold_Rush"],
          "modifierName": "HookTest_CloseCollider",
          "DGFCLAIDIFI": ""
        },
        {
          "$type": "AttachToStateIDMixin",
          "stateIDs": ["Hook_Rush_Loop"],
          "modifierName": "Hook_Rush_Loop_SwitchSkill",
          "DGFCLAIDIFI": ""
        },
        {
          "$type": "DoActionOnGlobalValueChangeMixin",
          "globalValueKey": "_ABILITY_HookTest_ElementalArt_Trigger",
          "actions": [
            {
              "$type": "Predicated",
              "target": "Caster",
              "targetPredicates": [
                {
                  "$type": "ByTargetGlobalValue",
                  "target": "Caster",
                  "key": "_ABILITY_HookTest_ElementalArt_Trigger",
                  "value": 1.0
                }
              ],
              "successActions": [
                {
                  "$type": "SetAnimatorTrigger",
                  "triggerID": "Private_Start_Hold_Rush"
                },
                {
                  "$type": "RemoveModifier",
                  "modifierName": "Hook_Fx_Hold"
                },
                {
                  "$type": "AttachModifier",
                  "modifierName": "Hook_Fx_Hold"
                },
                {
                  "$type": "SetGlobalValue",
                  "shieldHP": true,
                  "value": 0.0,
                  "key": "_ABILITY_HookTest_ElementalArt_Trigger",
                  "maxValue": 0.0,
                  "minValue": 0.0
                }
              ]
            }
          ]
        }
      ],
      "modifiers": {
        "FocusCanMove": {
          "modifierName": "",
          "duration": 10.0,
          "elementDurability": 100.0,
          "modifierMixins": [
            {
              "$type": "KABKFPPHKFK",
              "showCrosshair": false,
              "dragButtonName": "Skill2"
            },
            {
              "$type": "BJAMAIBGOPD",
              "JLPODGJBMHD": {
                "$type": "MGHMDODPJHM",
                "AEAMANCFLLA": "CameraLook",
                "BOLMHHFIMFA": {
                  "x": 1.5,
                  "y": 0.800000011920929
                },
                "defaultRadius": 5.0,
                "fov": 45.0,
                "HOALMDAEIEN": -60.0,
                "JOLDBHFJJNP": 60.0,
                "DJPDGDNAKDO": true,
                "HONBKBEPNEI": true,
                "MOBEEJIGMID": [70331003, 21010105, 21020704],
                "GEJNMFFGECL": 1.0,
                "PKGOEJGOCND": 4.418000221252441
              },
              "BELLAHDCNEC": {
                "blendType": 2,
                "ONMLJJIPBAI": 2,
                "duration": 0.25
              }
            }
          ],
          "onAdded": [
            {
              "$type": "AttachModifier",
              "target": "Team",
              "modifierName": "HookTest_Camera_Aim_Eff"
            }
          ],
          "onAvatarOut": [
            {
              "$type": "RemoveModifier",
              "shieldHP": true,
              "modifierName": "FocusCanMove"
            }
          ]
        },
        "HookTest_Camera_Aim_Eff": {
          "modifierName": "",
          "elementDurability": 100.0,
          "modifierMixins": [
            {
              "$type": "AttachActionToModifierMixin",
              "onAdded": [
                {
                  "$type": "DungeonFogEffects",
                  "canBeHandledOnRecover": true,
                  "muteRemoteAction": true,
                  "enable": true,
                  "cameraFogEffectName": "Eff_Avatar_Boy_Pole_Mika_ElementalArt_Camera_Aim",
                  "playerFogEffectName": ""
                }
              ],
              "onRemoved": [
                {
                  "$type": "DungeonFogEffects",
                  "shieldHP": true,
                  "canBeHandledOnRecover": true,
                  "muteRemoteAction": true,
                  "cameraFogEffectName": "Eff_Avatar_Boy_Pole_Mika_ElementalArt_Camera_Aim",
                  "playerFogEffectName": ""
                }
              ]
            }
          ]
        },
        "Hook_Rush_NoGravity": {
          "modifierName": "",
          "duration": 1.4500000476837158,
          "elementDurability": 100.0,
          "properties": {
            "Actor_AddGravityScale": -2.0
          },
          "onAdded": [
            {
              "$type": "RemoveVelocityForce",
              "forces": ["RushMoveType", "InertiaType"]
            },
            {
              "$type": "SetVelocityIgnoreAirGY",
              "ignoreAirGY": true
            }
          ],
          "onRemoved": [
            {
              "$type": "SetVelocityIgnoreAirGY"
            }
          ]
        },
        "Focus": {
          "modifierName": "",
          "elementDurability": 100.0,
          "onAdded": [
            {
              "$type": "AvatarEnterFocus",
              "cameraFollowLower": {
                "x": 1.0,
                "y": 0.20000000298023224,
                "z": -2.5
              },
              "cameraFollowUpper": {
                "x": 1.0,
                "y": -0.20000000298023224
              },
              "cameraFollowMaxDegree": 35.0,
              "cameraFollowMinDegree": -55.0,
              "EHDIBGLAPMF": false,
              "cameraFastFocusMode": true,
              "dragButtonName": "Skill2",
              "assistance": {
                "ps4": {},
                "ps5": {},
                "other": {
                  "useGyro": true
                }
              },
              "canMove": false,
              "showCrosshair": false,
              "OMHGAKJIEFB": ""
            }
          ],
          "onRemoved": [
            {
              "$type": "AvatarExitFocus",
              "keepRotation": true
            }
          ]
        },
        "Charge": {
          "modifierName": "",
          "elementDurability": 100.0,
          "onAdded": [
            {
              "$type": "AddGlobalValue",
              "value": 8.0,
              "key": "_Keqing_Aim_Range",
              "useLimitRange": true,
              "maxValue": 8.0,
              "minValue": 8.0
            },
            {
              "$type": "AttachEffect",
              "rotationDampTime": "Eff_Avatar_Keqing_ElementalArt_Charge_Aim",
              "PPPDJGDDOGD": 1.0,
              "AJDILHJFNKE": -1.0
            }
          ]
        },
        "HookTest_Shoot_Bullet": {
          "modifierName": "",
          "elementDurability": 100.0,
          "onAdded": [
            {
              "$type": "RemoveModifier",
              "modifierName": "Hook_Fx_Hold"
            },
            {
              "$type": "AttachModifier",
              "modifierName": "Hook_Fx_Hold"
            }
          ]
        },
        "RushTimer": {
          "modifierName": "",
          "duration": 0.8999999761581421,
          "elementDurability": 100.0,
          "thinkInterval": 0.6000000238418579,
          "onRemoved": [
            {
              "$type": "SetAnimatorTrigger",
              "triggerID": "Private_Go_ToDropDown"
            }
          ],
          "onThinkInterval": [
            {
              "$type": "ApplyModifier",
              "shieldHP": true,
              "modifierName": "Avatar_HookTest_Switch_E_OnAir_Father"
            }
          ]
        },
        "Hook_Rush_Loop_SwitchSkill": {
          "modifierName": "",
          "elementDurability": 100.0,
          "onAdded": [
            {
              "$type": "ApplyModifier",
              "shieldHP": true,
              "modifierName": "Avatar_HookTest_Switch_E_OnAir_Father"
            }
          ]
        },
        "Avatar_HookTest_Switch_E_OnAir_Father": {
          "stacking": "Unique",
          "modifierName": "",
          "duration": 7.0,
          "elementDurability": 100.0,
          "modifierMixins": [
            {
              "$type": "AttachToStateIDMixin",
              "stateIDs": [
                "Hook_Rush_Loop",
                "Fall",
                "Hook_AimAirBS",
                "Hook_AimAirLoop",
                "Hook_AimAirHold_Shoot",
                "Hook_AimGroundHold_Rush"
              ],
              "modifierName": "Avatar_HookTest_Switch_E_OnAir",
              "isCheckOnAttach": true,
              "DGFCLAIDIFI": ""
            }
          ]
        },
        "Avatar_HookTest_Switch_E_OnAir": {
          "modifierName": "",
          "elementDurability": 100.0,
          "modifierMixins": [
            {
              "$type": "AvatarChangeSkillMixin",
              "index": 1,
              "priority": "AvatarSpecial",
              "jumpSkillID": 30104,
              "flySkillID": 30104
            }
          ],
          "onAdded": [
            {
              "$type": "SetAnimatorBool",
              "boolID": "PRIVATE_AirUseSkill",
              "value": true
            }
          ],
          "onRemoved": [
            {
              "$type": "SetAnimatorBool",
              "boolID": "PRIVATE_AirUseSkill"
            },
            {
              "$type": "RemoveModifier",
              "shieldHP": true,
              "modifierName": "Avatar_HookTest_Switch_E_OnAir_Father"
            }
          ]
        },
        "HookTest_CloseCollider": {
          "modifierName": "",
          "duration": 0.800000011920929,
          "elementDurability": 100.0,
          "onAdded": [
            {
              "$type": "ApplyModifier",
              "modifierName": "Hook_Rush_NoGravity"
            },
            {
              "$type": "RemoveVelocityForce",
              "forces": ["RushMoveType", "InertiaType"]
            },
            {
              "$type": "TriggerSetPassThrough",
              "shieldHP": true,
              "passThrough": true
            },
            {
              "$type": "FixedAvatarRushMove",
              "toPos": {
                "$type": "ConfigBornByGlobalValue",
                "offset": {
                  "x": 0.0,
                  "y": 0.0,
                  "z": 0.0
                },
                "positionKey": "_ABILITY_HookTest_HookPos",
                "directionKey": ""
              },
              "NKPCHMCNNOK": 0.699999988079071,
              "maxRange": 15.0,
              "animatorStateIDs": ["Hook_AimGroundHold_Rush"],
              "overrideMoveCollider": "",
              "isInAir": true
            }
          ],
          "onRemoved": [
            {
              "$type": "TriggerSetPassThrough",
              "shieldHP": true,
              "canBeHandledOnRecover": true
            },
            {
              "$type": "RemoveModifier",
              "shieldHP": true,
              "modifierName": "Hook_Fx_Hold"
            },
            {
              "$type": "RemoveModifier",
              "modifierName": "Hook_Rush_NoGravity"
            }
          ]
        },
        "Hook_Fx_Hold": {
          "modifierName": "",
          "duration": 3.0,
          "elementDurability": 100.0,
          "modifierMixins": [
            {
              "$type": "FKIBGDFKICL",
              "rotationDampTime": "Eff_Vehicle_Natsaurus_Hookwalker_Aim_Line_Avatar",
              "positionKey": "_ABILITY_HookTest_HookPos",
              "onHookReached": [
                {
                  "$type": "SendEffectTrigger",
                  "parameter": "Get",
                  "attachPoint": "",
                  "rotationDampTime": "Eff_Vehicle_Natsaurus_Hookwalker_Aim_Line_Avatar"
                }
              ]
            }
          ]
        }
      },
      "onAdded": [
        {
          "$type": "SetGlobalPos",
          "shieldHP": true,
          "key": "_ABILITY_HookTest_HookPos",
          "born": {
            "$type": "ConfigBornBySelf",
            "offset": {
              "x": 0.0,
              "y": 0.30000001192092896,
              "z": 0.0
            },
            "useRotation": true
          }
        },
        {
          "$type": "SetGlobalValue",
          "target": "Caster",
          "shieldHP": true,
          "value": 0.0,
          "key": "_ABILITY_HookTest_Shoot_Bullet_Type",
          "maxValue": 0.0,
          "minValue": 0.0
        }
      ]
    }
  },
  {
    "Default": {
      "$type": "ConfigAbility",
      "abilityName": "Avatar_HookTest_ElementalArt_OnAir",
      "abilityMixins": [
        {
          "$type": "SkillButtonHoldChargeMixin",
          "skillID": 30104,
          "nextLoopTriggerID": "NextLoopTrigger",
          "endHoldTrigger": "EndHoldTrigger",
          "beforeStateIDs": ["Hook_AimAirBS"],
          "beforeHoldDuration": 0.15000000596046448,
          "chargeLoopStateIDs": ["Hook_AimAirLoop"],
          "afterStateIDs": ["Hook_AimAirHold_Shoot", "Hook_AimAirHold_Rush"],
          "chargeLoopDurations": [5.0]
        },
        {
          "$type": "AttachToMultiNormalizedTimeMixin",
          "normalizedStateIDList": [
            {
              "stateID": "Hook_AimAirLoop"
            },
            {
              "stateID": "Hook_AimAirHold_Shoot",
              "normalizeEnd": 0.699999988079071
            }
          ],
          "modifierName": "Focus_OnAir",
          "DGFCLAIDIFI": ""
        },
        {
          "$type": "AttachToStateIDMixin",
          "stateIDs": ["Hook_AimAirHold_Shoot"],
          "modifierName": "HookTest_Shoot_Bullet_OnAir",
          "DGFCLAIDIFI": ""
        },
        {
          "$type": "AttachToStateIDMixin",
          "stateIDs": ["Hook_AimAirLoop"],
          "modifierName": "Charge_OnAir",
          "DGFCLAIDIFI": ""
        },
        {
          "$type": "AttachToStateIDMixin",
          "stateIDs": ["Hook_AimAirHold_Rush"],
          "modifierName": "RushTimer_OnAir",
          "DGFCLAIDIFI": ""
        },
        {
          "$type": "AttachToStateIDMixin",
          "stateIDs": ["Hook_AimAirHold_Rush"],
          "modifierName": "HookTest_CloseCollider_OnAir",
          "DGFCLAIDIFI": ""
        },
        {
          "$type": "AttachToStateIDMixin",
          "stateIDs": [
            "Hook_AimAirBS",
            "Hook_AimAirLoop",
            "Hook_AimAirHold_Shoot"
          ],
          "modifierName": "HookTest_Aim_NoGravity_OnAir",
          "DGFCLAIDIFI": ""
        },
        {
          "$type": "DoActionOnGlobalValueChangeMixin",
          "globalValueKey": "_ABILITY_HookTest_ElementalArt_Air_Trigger",
          "actions": [
            {
              "$type": "Predicated",
              "target": "Caster",
              "targetPredicates": [
                {
                  "$type": "ByTargetGlobalValue",
                  "target": "Caster",
                  "key": "_ABILITY_HookTest_ElementalArt_Air_Trigger",
                  "value": 1.0
                }
              ],
              "successActions": [
                {
                  "$type": "SetAnimatorTrigger",
                  "triggerID": "Private_Start_Hold_Rush"
                },
                {
                  "$type": "RemoveModifier",
                  "modifierName": "Hook_Fx_Hold_OnAir"
                },
                {
                  "$type": "AttachModifier",
                  "modifierName": "Hook_Fx_Hold_OnAir"
                },
                {
                  "$type": "SetGlobalValue",
                  "shieldHP": true,
                  "value": 0.0,
                  "key": "_ABILITY_HookTest_ElementalArt_Air_Trigger",
                  "maxValue": 0.0,
                  "minValue": 0.0
                }
              ]
            }
          ]
        }
      ],
      "modifiers": {
        "Focus_OnAir": {
          "modifierName": "",
          "elementDurability": 100.0,
          "onAdded": [
            {
              "$type": "AvatarEnterFocus",
              "cameraFollowLower": {
                "x": 1.0,
                "y": 0.20000000298023224,
                "z": -2.5
              },
              "cameraFollowUpper": {
                "x": 1.0,
                "y": -0.20000000298023224
              },
              "cameraFollowMaxDegree": 10.0,
              "cameraFollowMinDegree": -55.0,
              "cameraFastFocusMode": true,
              "dragButtonName": "Skill2",
              "assistance": {
                "ps4": {},
                "ps5": {},
                "other": {
                  "useGyro": true
                }
              },
              "canMove": false,
              "showCrosshair": false,
              "OMHGAKJIEFB": ""
            }
          ],
          "onRemoved": [
            {
              "$type": "AvatarExitFocus",
              "keepRotation": true
            }
          ]
        },
        "HookTest_Shoot_Bullet_OnAir": {
          "modifierName": "",
          "elementDurability": 100.0,
          "onAdded": [
            {
              "$type": "SetGlobalValue",
              "target": "Caster",
              "shieldHP": true,
              "value": 2.0,
              "key": "_ABILITY_HookTest_Shoot_Bullet_Type",
              "maxValue": 0.0,
              "minValue": 0.0
            },
            {
              "$type": "TriggerBullet",
              "bulletID": 42000009,
              "born": {
                "$type": "ConfigBornByAttachPoint",
                "offset": {
                  "x": 0.0,
                  "y": 0.0,
                  "z": 0.699999988079071
                },
                "direction": {
                  "$type": "ConfigDirectionByAttachPoint",
                  "angleOffset": {
                    "x": 0.0,
                    "y": 0.0,
                    "z": 0.0
                  },
                  "attachPointName": "FocusAnchor",
                  "attachPointTargetType": "Self"
                },
                "useRotation": true,
                "attachPointName": "FocusAnchor"
              }
            }
          ]
        },
        "Charge_OnAir": {
          "modifierName": "",
          "elementDurability": 100.0,
          "onAdded": [
            {
              "$type": "AddGlobalValue",
              "value": 8.0,
              "key": "_Keqing_Aim_Range",
              "useLimitRange": true,
              "maxValue": 8.0,
              "minValue": 8.0
            },
            {
              "$type": "AttachEffect",
              "rotationDampTime": "Eff_Avatar_Keqing_ElementalArt_Charge_Aim",
              "PPPDJGDDOGD": 1.0,
              "AJDILHJFNKE": -1.0
            }
          ]
        },
        "RushTimer_OnAir": {
          "modifierName": "",
          "duration": 0.8999999761581421,
          "elementDurability": 100.0,
          "onRemoved": [
            {
              "$type": "SetAnimatorTrigger",
              "triggerID": "Private_Go_ToDropDown"
            }
          ]
        },
        "HookTest_CloseCollider_OnAir": {
          "modifierName": "",
          "duration": 0.800000011920929,
          "elementDurability": 100.0,
          "onAdded": [
            {
              "$type": "ApplyModifier",
              "modifierName": "Hook_Rush_NoGravity_OnAir"
            },
            {
              "$type": "RemoveVelocityForce",
              "forces": ["RushMoveType", "InertiaType"]
            },
            {
              "$type": "TriggerSetPassThrough",
              "shieldHP": true,
              "passThrough": true
            },
            {
              "$type": "FixedAvatarRushMove",
              "toPos": {
                "$type": "ConfigBornByGlobalValue",
                "offset": {
                  "x": 0.0,
                  "y": 0.0,
                  "z": 0.0
                },
                "positionKey": "_ABILITY_HookTest_HookPos",
                "directionKey": ""
              },
              "NKPCHMCNNOK": 0.699999988079071,
              "maxRange": 15.0,
              "animatorStateIDs": ["Hook_AimAirHold_Rush"],
              "overrideMoveCollider": "",
              "isInAir": true
            }
          ],
          "onRemoved": [
            {
              "$type": "TriggerSetPassThrough",
              "shieldHP": true,
              "canBeHandledOnRecover": true
            },
            {
              "$type": "RemoveModifier",
              "shieldHP": true,
              "modifierName": "Hook_Fx_Hold_OnAir"
            },
            {
              "$type": "RemoveModifier",
              "modifierName": "Hook_Rush_NoGravity_OnAir"
            }
          ]
        },
        "HookTest_Aim_NoGravity_OnAir": {
          "modifierName": "",
          "elementDurability": 100.0,
          "properties": {
            "Actor_AddGravityScale": -2.0
          },
          "onAdded": [
            {
              "$type": "RemoveVelocityForce",
              "forces": ["RushMoveType", "InertiaType"]
            },
            {
              "$type": "SetVelocityIgnoreAirGY",
              "ignoreAirGY": true
            },
            {
              "$type": "FixedAvatarRushMove",
              "toPos": {
                "$type": "ConfigBornBySelf",
                "offset": {
                  "x": 0.0,
                  "y": 0.20000000298023224,
                  "z": 0.0
                },
                "useRotation": true
              },
              "NKPCHMCNNOK": 1.0,
              "overrideMoveCollider": "",
              "isInAir": true
            }
          ],
          "onRemoved": [
            {
              "$type": "SetVelocityIgnoreAirGY"
            }
          ]
        },
        "Hook_Rush_NoGravity_OnAir": {
          "modifierName": "",
          "duration": 1.4500000476837158,
          "elementDurability": 100.0,
          "properties": {
            "Actor_AddGravityScale": -2.0
          },
          "onAdded": [
            {
              "$type": "RemoveVelocityForce",
              "forces": ["RushMoveType", "InertiaType"]
            },
            {
              "$type": "SetVelocityIgnoreAirGY",
              "ignoreAirGY": true
            }
          ],
          "onRemoved": [
            {
              "$type": "SetVelocityIgnoreAirGY"
            }
          ]
        },
        "Hook_Fx_Hold_OnAir": {
          "modifierName": "",
          "duration": 3.0,
          "elementDurability": 100.0,
          "modifierMixins": [
            {
              "$type": "FKIBGDFKICL",
              "rotationDampTime": "Eff_Vehicle_Natsaurus_Hookwalker_Aim_Line_Avatar",
              "positionKey": "_ABILITY_HookTest_HookPos",
              "onHookReached": [
                {
                  "$type": "SendEffectTrigger",
                  "parameter": "Get",
                  "attachPoint": "",
                  "rotationDampTime": "Eff_Vehicle_Natsaurus_Hookwalker_Aim_Line_Avatar"
                }
              ]
            }
          ]
        }
      }
    }
  },
  {
    "Default": {
      "$type": "ConfigAbility",
      "abilityName": "Avatar_HookTest_Hold_Bullet",
      "modifiers": {
        "Trigger_Timer": {
          "modifierName": "",
          "duration": 0.30000001192092896,
          "elementDurability": 100.0,
          "onRemoved": [
            {
              "$type": "TriggerAbility",
              "abilityName": "Avatar_HookTest_Hold_Bullet"
            }
          ]
        },
        "Hit_Scene_Stop": {
          "stacking": "Unique",
          "modifierName": "",
          "elementDurability": 100.0,
          "properties": {
            "Actor_BulletMoveSpeedRatio": -1.0
          },
          "onAdded": [
            {
              "$type": "ApplyModifier",
              "modifierName": "Hook_Eff"
            },
            {
              "$type": "SetGlobalPos",
              "shieldHP": true,
              "key": "_ABILITY_HookTest_HookPos_OnGadget",
              "born": {
                "$type": "ConfigBornBySelf",
                "offset": {
                  "x": 0.0,
                  "y": 0.30000001192092896,
                  "z": 0.0
                },
                "useRotation": true
              }
            },
            {
              "$type": "CopyGlobalValue",
              "srcTarget": "Self",
              "dstTarget": "OriginOwner",
              "srcKey": "_ABILITY_HookTest_HookPos_OnGadget_0",
              "dstKey": "_ABILITY_HookTest_HookPos_0"
            },
            {
              "$type": "CopyGlobalValue",
              "srcTarget": "Self",
              "dstTarget": "OriginOwner",
              "srcKey": "_ABILITY_HookTest_HookPos_OnGadget_1",
              "dstKey": "_ABILITY_HookTest_HookPos_1"
            },
            {
              "$type": "CopyGlobalValue",
              "srcTarget": "Self",
              "dstTarget": "OriginOwner",
              "srcKey": "_ABILITY_HookTest_HookPos_OnGadget_2",
              "dstKey": "_ABILITY_HookTest_HookPos_2"
            },
            {
              "$type": "SetGlobalValue",
              "target": "Owner",
              "predicates": [
                {
                  "$type": "ByTargetGlobalValue",
                  "target": "Owner",
                  "key": "_ABILITY_HookTest_Shoot_Bullet_Type",
                  "value": 1.0
                }
              ],
              "value": 1.0,
              "key": "_ABILITY_HookTest_ElementalArt_Trigger",
              "maxValue": 0.0,
              "minValue": 0.0
            },
            {
              "$type": "SetGlobalValue",
              "target": "Owner",
              "predicates": [
                {
                  "$type": "ByTargetGlobalValue",
                  "target": "Owner",
                  "key": "_ABILITY_HookTest_Shoot_Bullet_Type",
                  "value": 2.0
                }
              ],
              "value": 1.0,
              "key": "_ABILITY_HookTest_ElementalArt_Air_Trigger",
              "maxValue": 0.0,
              "minValue": 0.0
            },
            {
              "$type": "ApplyModifier",
              "modifierName": "TriggerDelay"
            }
          ]
        },
        "TriggerDelay": {
          "modifierName": "",
          "duration": 0.15000000596046448,
          "elementDurability": 100.0
        },
        "Hook_Eff": {
          "modifierName": "",
          "duration": 1.5,
          "elementDurability": 100.0,
          "onAdded": [
            {
              "$type": "AttachEffect",
              "rotationDampTime": "Eff_Avatar_Diving_Jellyfish_Boom_Hold",
              "born": {
                "$type": "ConfigBornByAttachPoint",
                "useRotation": true,
                "attachPointName": "RootNode"
              },
              "PPPDJGDDOGD": 1.0,
              "AJDILHJFNKE": -1.0
            }
          ]
        }
      },
      "onAdded": [
        {
          "$type": "AttachModifier",
          "modifierName": "Trigger_Timer"
        }
      ],
      "onAbilityStart": [
        {
          "$type": "ApplyModifier",
          "modifierName": "Hit_Scene_Stop"
        },
        {
          "$type": "EnableBulletCollisionPluginTrigger"
        }
      ]
    }
  }
]
