[
  {
    "Default": {
      "$type": "ConfigAbility",
      "abilityName": "Avatar_Shinobu_ExtraAttack",
      "abilityMixins": [
        {
          "$type": "ButtonHoldChargeMixin",
          "skillID": 10651,
          "chargeTime": 0.11999999731779099,
          "secondChargeTime": 0.20000000298023224,
          "onBeginUncharged": [
            {
              "$type": "SetAnimatorTrigger",
              "triggerID": "DoSkill"
            },
            {
              "$type": "SetAnimatorInt",
              "predicates": [
                {
                  "$type": "ByAny",
                  "predicates": [
                    {
                      "$type": "ByAnimatorInt",
                      "logic": "Equal",
                      "value": 0,
                      "parameter": "ComboCount"
                    },
                    {
                      "$type": "ByAnimatorInt",
                      "logic": "Equal",
                      "value": 4,
                      "parameter": "ComboCount"
                    }
                  ]
                }
              ],
              "intID": "SkillID",
              "value": 99.0
            },
            {
              "$type": "SetAnimatorBool",
              "boolID": "IsCharging"
            }
          ],
          "onReleaseUncharged": [
            {
              "$type": "SetAnimatorInt",
              "intID": "SkillID",
              "value": 1.0
            }
          ],
          "onBeginCharged": [
            {
              "$type": "SetAnimatorBool",
              "boolID": "IsCharging",
              "value": true
            }
          ],
          "onReleaseCharged": [
            {
              "$type": "SetAnimatorBool",
              "boolID": "IsCharging"
            },
            {
              "$type": "SetAnimatorInt",
              "intID": "SkillID",
              "value": 1.0
            }
          ],
          "onBeginSecondCharged": [
            {
              "$type": "SetAnimatorTrigger",
              "predicates": [
                {
                  "$type": "ByLocalAvatarStamina",
                  "logic": "GreaterOrEqual",
                  "stamina": [
                    "ExtraAttack_Sword_Stamina_Cost",
                    "Flexible_Stamina",
                    "ADD"
                  ]
                }
              ],
              "triggerID": "DoSkill"
            },
            {
              "$type": "SetAnimatorInt",
              "predicates": [
                {
                  "$type": "ByLocalAvatarStamina",
                  "logic": "GreaterOrEqual",
                  "stamina": [
                    "ExtraAttack_Sword_Stamina_Cost",
                    "Flexible_Stamina",
                    "ADD"
                  ]
                }
              ],
              "intID": "SkillID",
              "value": 6.0
            },
            {
              "$type": "SetAnimatorBool",
              "boolID": "IsCharging"
            }
          ],
          "chargeStateIDs": [
            "Attack01",
            "Attack02",
            "Attack03",
            "Attack04",
            "Run"
          ]
        },
        {
          "$type": "AttachToStateIDMixin",
          "stateIDs": ["ExtraAttack"],
          "modifierName": "ExtraAttack_StaminaCost",
          "DGFCLAIDIFI": ""
        }
      ],
      "abilitySpecials": {
        "ExtraAttack_Sword_Stamina_Cost": 0.0,
        "Flexible_Stamina": -2.0
      },
      "modifiers": {
        "ExtraAttack_StaminaCost": {
          "modifierName": "",
          "elementDurability": 100.0,
          "onAdded": [
            {
              "$type": "AvatarSkillStart",
              "skillID": 10001,
              "amountByTargetCurrentHPRatio": 1.0,
              "costStaminaRatio": "ExtraAttack_Sword_Stamina_Cost"
            }
          ]
        }
      }
    }
  },
  {
    "Default": {
      "$type": "ConfigAbility",
      "abilityName": "Avatar_Shinobu_NormalAttack_Handler",
      "abilityMixins": [
        {
          "$type": "AttachToNormalizedTimeMixin",
          "stateID": "Attack03",
          "modifierName": "Avatar_Shinobu_NormalAttack_HideWeapon",
          "DGFCLAIDIFI": ""
        },
        {
          "$type": "AttachToNormalizedTimeMixin",
          "stateID": "Attack04",
          "modifierName": "Shinobu_Hide",
          "normalizeEnd": 0.03400000184774399,
          "DGFCLAIDIFI": ""
        }
      ],
      "modifiers": {
        "Shinobu_Hide": {
          "modifierName": "",
          "elementDurability": 100.0,
          "onAdded": [
            {
              "$type": "TriggerSetVisible",
              "shieldHP": true
            },
            {
              "$type": "TriggerSetPassThrough",
              "shieldHP": true,
              "passThrough": true
            },
            {
              "$type": "EnableHDMesh",
              "hdMeshKey": "Default"
            }
          ],
          "onRemoved": [
            {
              "$type": "TriggerSetVisible",
              "shieldHP": true,
              "KGGEDGKGLDD": true
            },
            {
              "$type": "TriggerSetPassThrough",
              "shieldHP": true,
              "canBeHandledOnRecover": true
            },
            {
              "$type": "EnableHDMesh",
              "canBeHandledOnRecover": true,
              "enable": true,
              "hdMeshKey": "Default"
            }
          ]
        },
        "Shinobu_Hide2": {
          "modifierName": "",
          "elementDurability": 100.0,
          "onAdded": [
            {
              "$type": "TriggerSetVisible",
              "shieldHP": true
            },
            {
              "$type": "TriggerSetPassThrough",
              "shieldHP": true,
              "passThrough": true
            }
          ],
          "onRemoved": [
            {
              "$type": "TriggerSetVisible",
              "shieldHP": true,
              "KGGEDGKGLDD": true
            },
            {
              "$type": "TriggerSetPassThrough",
              "shieldHP": true,
              "canBeHandledOnRecover": true
            }
          ]
        },
        "Avatar_Shinobu_NormalAttack_HideWeapon": {
          "modifierName": "",
          "elementDurability": 100.0,
          "onAdded": [
            {
              "$type": "TriggerHideWeapon",
              "shieldHP": true,
              "partNames": ["equip01", "equip02", "sheathPoint"]
            }
          ],
          "onRemoved": [
            {
              "$type": "TriggerHideWeapon",
              "shieldHP": true,
              "KGGEDGKGLDD": true,
              "partNames": ["equip01", "equip02", "sheathPoint"]
            }
          ]
        }
      }
    }
  },
  {
    "Default": {
      "$type": "ConfigAbility",
      "abilityName": "Avatar_Shinobu_ElementalArt_Init",
      "onAbilityStart": [
        {
          "$type": "KillGadget",
          "shieldHP": true,
          "gadgetInfo": {
            "configID": 41065001
          }
        },
        {
          "$type": "RemoveUniqueModifier",
          "shieldHP": true,
          "modifierName": "UNIQUE_Avatar_Shinobu_ElementalArt_ElemBall_Handler"
        }
      ]
    }
  },
  {
    "Default": {
      "$type": "ConfigAbility",
      "abilityName": "Avatar_Shinobu_ElementalArt",
      "abilityMixins": [
        {
          "$type": "AttachToStateIDMixin",
          "stateIDs": ["Shinobu_ElementalArt"],
          "modifierName": "Shinobu_ElementalArt_WeaponFade",
          "DGFCLAIDIFI": ""
        }
      ],
      "abilitySpecials": {
        "ElementalArt_OnceAttack_Damage": 0.0,
        "Shinobu_PermanentSkill_2_P2": 0.0
      },
      "modifiers": {
        "Shinobu_ElementalArt_WeaponFade": {
          "modifierName": "",
          "elementDurability": 100.0,
          "onAdded": [
            {
              "$type": "TriggerHideWeapon",
              "shieldHP": true,
              "partNames": ["equip01", "equip02", "sheathPoint"]
            }
          ],
          "onRemoved": [
            {
              "$type": "TriggerHideWeapon",
              "shieldHP": true,
              "KGGEDGKGLDD": true,
              "partNames": ["equip01", "equip02", "sheathPoint"]
            }
          ]
        }
      },
      "onAbilityStart": [
        {
          "$type": "AvatarSkillStart",
          "skillID": 10652,
          "amountByTargetCurrentHPRatio": 1.0,
          "costStaminaRatio": 1.0
        },
        {
          "$type": "TriggerAttackEvent",
          "shieldHP": true,
          "attackEvent": {
            "attackPattern": {
              "$type": "ConfigAttackCircle",
              "triggerType": "TriggerNoRepeat",
              "born": {
                "$type": "ConfigBornBySelf",
                "offset": {
                  "x": 0.0,
                  "y": -0.5,
                  "z": 0.0
                }
              },
              "height": 2.0,
              "radius": 4.0
            },
            "attackInfo": {
              "attackTag": "Elemental_Art",
              "attenuationTag": "Elemental_Art",
              "attenuationGroup": "default",
              "attackProperty": {
                "actorGrassSubHurtDelta": "ElementalArt_OnceAttack_Damage",
                "actorWindSubHurtDelta": 0.0,
                "elementType": "Electric",
                "elementDurability": 25.0,
                "strikeType": "Blunt",
                "attackType": "Melee",
                "HMBONGBFIAP": [
                  "Shinobu_PermanentSkill_2_P2",
                  "FIGHT_PROP_ELEMENT_MASTERY",
                  "MUL"
                ],
                "GLKMCMDJBIK": 0.0
              },
              "hitPattern": {
                "onHitEffectName": "default",
                "hitImpulseY": "",
                "hitImpulseType": "LV4",
                "retreatType": "ByHitDirection",
                "hitHaltTimeScale": 0.019999999552965164
              },
              "canBeModifiedBy": "OriginOwner"
            }
          },
          "targetType": "Enemy"
        },
        {
          "$type": "FireEffect",
          "rotationDampTime": "Eff_Avatar_Girl_Sword_Shinobu_ElementalArt_LoseHp",
          "PPPDJGDDOGD": 1.0,
          "AJDILHJFNKE": -1.0
        },
        {
          "$type": "LoseHP",
          "shieldHP": true,
          "amountByTargetCurrentHPRatio": 0.30000001192092896,
          "DNEEAPPMAEM": 0.20000000298023224,
          "lethal": false,
          "BJKGFBGEFPB": ""
        },
        {
          "$type": "CreateGadget",
          "shieldHP": true,
          "born": {
            "$type": "ConfigBornBySelf",
            "offset": {
              "x": 0.0,
              "y": 0.0,
              "z": 0.0
            }
          },
          "gadgetID": 41065001,
          "campID": 1001,
          "campTargetType": "Enemy"
        }
      ]
    }
  },
  {
    "Default": {
      "$type": "ConfigAbility",
      "abilityName": "SkillObj_Shinobu_ElementalArt_LifetimeHandler",
      "abilityMixins": [
        {
          "$type": "DoActionByTeamStatusMixin",
          "actions": [
            {
              "$type": "KillSelf",
              "predicates": [
                {
                  "$type": "ByCurTeamHasFeatureTag",
                  "featureTagID": 10065,
                  "logic": "LesserOrEqual"
                }
              ]
            }
          ]
        }
      ],
      "abilitySpecials": {
        "Duration": 13.0,
        "Duration_Add": 0.0
      },
      "modifiers": {
        "Shinobu_ElementalArt_SpawnTimer": {
          "modifierName": "",
          "duration": 0.3499999940395355,
          "elementDurability": 100.0,
          "onRemoved": [
            {
              "$type": "ApplyModifier",
              "modifierName": "UNIQUE_Shinobu_ElementalArt_LifeTimeHandler"
            }
          ]
        },
        "Shinobu_ElementalArt_ProtectTimer": {
          "modifierName": "",
          "duration": 1.600000023841858,
          "elementDurability": 100.0,
          "onAdded": [
            {
              "$type": "SetGlobalValue",
              "target": "OriginOwner",
              "shieldHP": true,
              "value": 1.0,
              "key": "Shinobu_ElementalArt_IsProtect",
              "maxValue": 0.0,
              "minValue": 0.0
            }
          ],
          "onRemoved": [
            {
              "$type": "SetGlobalValue",
              "target": "OriginOwner",
              "shieldHP": true,
              "value": 0.0,
              "key": "Shinobu_ElementalArt_IsProtect",
              "maxValue": 0.0,
              "minValue": 0.0
            }
          ]
        },
        "UNIQUE_Shinobu_ElementalArt_LifeTimeHandler": {
          "modifierName": "",
          "forceTriggerWhenChangeAuthority": true,
          "duration": ["Duration", "Duration_Add", "ADD"],
          "elementDurability": ["Duration", "Duration_Add", "ADD"],
          "onAdded": [
            {
              "$type": "SetAnimatorTrigger",
              "triggerID": "Appear"
            },
            {
              "$type": "RemoveUniqueModifier",
              "target": "Team",
              "modifierName": "UNIQUE_Avatar_Shinobu_ElementalArt_Constellation_Attack_Handler"
            },
            {
              "$type": "AttachModifier",
              "target": "Team",
              "predicates": [
                {
                  "$type": "ByUnlockTalentParam",
                  "talentParam": "Shinobu_Constellation_4"
                }
              ],
              "modifierName": "UNIQUE_Avatar_Shinobu_ElementalArt_Constellation_Attack_Handler"
            },
            {
              "$type": "AttachModifier",
              "target": "OriginOwner",
              "shieldHP": true,
              "modifierName": "UNIQUE_Avatar_Shinobu_ElementalArt_ElemBall_Handler"
            }
          ],
          "onRemoved": [
            {
              "$type": "SetAnimatorTrigger",
              "triggerID": "Die"
            },
            {
              "$type": "ApplyModifier",
              "modifierName": "Avatar_Shinobu_ElementalArt_Bullet_KillGadget"
            }
          ]
        },
        "Avatar_Shinobu_ElementalArt_Bullet_KillGadget": {
          "modifierName": "",
          "duration": 0.5,
          "elementDurability": 100.0,
          "onRemoved": [
            {
              "$type": "KillSelf",
              "predicates": [
                {
                  "$type": "ByTargetGlobalValue",
                  "target": "CasterOriginOwner",
                  "key": "Shinobu_ElementalArt_IsProtect",
                  "value": 0.0,
                  "compareType": "NoneOrEqual"
                }
              ]
            }
          ]
        },
        "UNIQUE_Avatar_Shinobu_ElementalArt_ElemBall_Handler": {
          "modifierName": "",
          "forceTriggerWhenChangeAuthority": true,
          "elementDurability": 100.0,
          "onAttackLanded": [
            {
              "$type": "Predicated",
              "target": "Other",
              "shieldHP": true,
              "targetPredicates": [
                {
                  "$type": "ByAttackTags",
                  "attackTags": ["Elemental_Art"]
                },
                {
                  "$type": "ByEntityTypes",
                  "entityTypes": ["Monster"]
                },
                {
                  "$type": "ByTargetGlobalValue",
                  "key": "_ANIMAL_ENTITY_TYPE",
                  "value": 0.0,
                  "compareType": "NoneOrEqual"
                }
              ],
              "successActions": [
                {
                  "$type": "ApplyModifier",
                  "shieldHP": true,
                  "modifierName": "Avatar_Shinobu_ElementalArt_ElemBall"
                }
              ]
            }
          ]
        },
        "Avatar_Shinobu_ElementalArt_ElemBall": {
          "stacking": "Unique",
          "modifierName": "",
          "duration": 0.20000000298023224,
          "elementDurability": 100.0,
          "onAdded": [
            {
              "$type": "Randomed",
              "shieldHP": true,
              "chance": 0.44999998807907104,
              "successActions": [
                {
                  "$type": "GenerateElemBall",
                  "shieldHP": true,
                  "configID": 2020,
                  "born": {
                    "$type": "ConfigBornBySelf",
                    "offset": {
                      "x": 0.0,
                      "y": 0.0,
                      "z": 0.0
                    }
                  },
                  "hpRatio": 1.0,
                  "baseEnergy": 3.0
                }
              ]
            }
          ]
        },
        "UNIQUE_Avatar_Shinobu_ElementalArt_Constellation_Attack_Handler": {
          "modifierName": "",
          "forceTriggerWhenChangeAuthority": true,
          "elementDurability": 100.0,
          "modifierMixins": [
            {
              "$type": "CurLocalAvatarMixinV2",
              "modifierName": "Avatar_Shinobu_Constellation_Attack_Detect"
            }
          ]
        },
        "Avatar_Shinobu_Constellation_Attack_Detect": {
          "modifierName": "",
          "elementDurability": 100.0,
          "onAttackLanded": [
            {
              "$type": "Predicated",
              "target": "Other",
              "targetPredicates": [
                {
                  "$type": "ByEntityTypes",
                  "entityTypes": ["Monster"]
                },
                {
                  "$type": "ByTargetGlobalValue",
                  "key": "_ANIMAL_ENTITY_TYPE",
                  "value": 0.0,
                  "compareType": "NoneOrEqual"
                },
                {
                  "$type": "ByTargetGlobalValue",
                  "target": "CasterOriginOwner",
                  "key": "_ABILITY_Shinobu_Constellation_IsCD",
                  "value": 0.0,
                  "compareType": "NoneOrEqual"
                },
                {
                  "$type": "ByTargetPositionToSelfPosition",
                  "logic": "LesserOrEqual",
                  "value": 15.0,
                  "DDALGNLEHOD": ""
                },
                {
                  "$type": "ByAttackTags",
                  "attackTags": [
                    "NormalAttack_01",
                    "NormalAttack_02",
                    "NormalAttack_03",
                    "NormalAttack_04",
                    "NormalAttack_05",
                    "NormalAttack_06",
                    "ExtraAttack",
                    "FallingAttack"
                  ]
                }
              ],
              "successActions": [
                {
                  "$type": "SetGlobalPos",
                  "target": "SelfAttackTarget",
                  "key": "_ABILITY_Shinobu_Constellation_Pos",
                  "born": {
                    "$type": "ConfigBornBySelectedPoint"
                  },
                  "setTarget": false
                },
                {
                  "$type": "CopyGlobalValue",
                  "dstTarget": "CasterOriginOwner",
                  "srcKey": "_ABILITY_Shinobu_Constellation_Pos_0",
                  "dstKey": "_ABILITY_Shinobu_Constellation_Pos_0"
                },
                {
                  "$type": "CopyGlobalValue",
                  "dstTarget": "CasterOriginOwner",
                  "srcKey": "_ABILITY_Shinobu_Constellation_Pos_1",
                  "dstKey": "_ABILITY_Shinobu_Constellation_Pos_1"
                },
                {
                  "$type": "CopyGlobalValue",
                  "dstTarget": "CasterOriginOwner",
                  "srcKey": "_ABILITY_Shinobu_Constellation_Pos_2",
                  "dstKey": "_ABILITY_Shinobu_Constellation_Pos_2"
                },
                {
                  "$type": "DebugLog",
                  "content": "条件满足,触发命之座4效果"
                },
                {
                  "$type": "TriggerAbility",
                  "target": "CasterOriginOwner",
                  "shieldHP": true,
                  "abilityName": "Avatar_Shinobu_Constellation_AddAttack"
                }
              ]
            }
          ]
        }
      },
      "onAdded": [
        {
          "$type": "ResetAnimatorTrigger",
          "triggerID": "Die"
        },
        {
          "$type": "ApplyModifier",
          "modifierName": "Shinobu_ElementalArt_SpawnTimer"
        },
        {
          "$type": "AttachModifier",
          "shieldHP": true,
          "modifierName": "Shinobu_ElementalArt_ProtectTimer"
        }
      ]
    }
  },
  {
    "Default": {
      "$type": "ConfigAbility",
      "abilityName": "SkillObj_Shinobu_ElementalArt_FireTickEffect",
      "onAbilityStart": [
        {
          "$type": "FireEffect",
          "rotationDampTime": "Eff_Shinobu_ElementalArt_Gadget_Attack",
          "PPPDJGDDOGD": 1.0,
          "AJDILHJFNKE": -1.0
        }
      ]
    }
  },
  {
    "Default": {
      "$type": "ConfigAbility",
      "abilityName": "SkillObj_Shinobu_ElementalArt_TickLogic",
      "abilitySpecials": {
        "Elemental_Art_TickDamage": 0.0,
        "ElementalArt_Heal_MaxHP_Percentage": 0.0,
        "ElementalArt_Heal_Amount": 0.0,
        "Shinobu_PermanentSkill_2_P1": 0.0,
        "Shinobu_PermanentSkill_2_P2": 0.0
      },
      "onAbilityStart": [
        {
          "$type": "TriggerAbility",
          "target": "OriginOwner",
          "shieldHP": true,
          "abilityName": "Avatar_Shinobu_ElementalArt_TickLogic"
        }
      ]
    }
  },
  {
    "Default": {
      "$type": "ConfigAbility",
      "abilityName": "Avatar_Shinobu_ElementalArt_TickLogic",
      "abilitySpecials": {
        "Elemental_Art_TickDamage": 0.0,
        "ElementalArt_Heal_MaxHP_Percentage": 0.0,
        "ElementalArt_Heal_Amount": 0.0,
        "Shinobu_PermanentSkill_2_P1": 0.0,
        "Shinobu_PermanentSkill_2_P2": 0.0
      },
      "modifiers": {
        "Avatar_Shinobu_ElementalArt_TickLogic_Effect": {
          "modifierName": "",
          "duration": 0.10000000149011612,
          "elementDurability": 100.0,
          "onAdded": [
            {
              "$type": "TriggerAttackEvent",
              "target": "Caster",
              "shieldHP": true,
              "attackEvent": {
                "attackPattern": {
                  "$type": "ConfigAttackCircle",
                  "triggerType": "TriggerNoRepeat",
                  "born": {
                    "$type": "ConfigBornBySelf",
                    "offset": {
                      "x": 0.0,
                      "y": -0.5,
                      "z": 0.0
                    }
                  },
                  "height": 2.0,
                  "radius": 4.0
                },
                "attackInfo": {
                  "attackTag": "Elemental_Art",
                  "attenuationTag": "Elemental_Art",
                  "attenuationGroup": "default",
                  "attackProperty": {
                    "actorGrassSubHurtDelta": "Elemental_Art_TickDamage",
                    "actorWindSubHurtDelta": 0.0,
                    "elementType": "Electric",
                    "elementDurability": 25.0,
                    "strikeType": "Default",
                    "enBreak": 10.0,
                    "HMBONGBFIAP": [
                      "Shinobu_PermanentSkill_2_P2",
                      "FIGHT_PROP_ELEMENT_MASTERY",
                      "MUL"
                    ],
                    "GLKMCMDJBIK": 0.0
                  },
                  "hitPattern": {
                    "onHitEffectName": "default",
                    "hitImpulseY": "",
                    "hitImpulseType": "LV3",
                    "hitHaltTimeScale": 0.009999999776482582
                  },
                  "canBeModifiedBy": "OriginOwner"
                }
              },
              "targetType": "Enemy"
            },
            {
              "$type": "HealHP",
              "otherTargets": {
                "$type": "SelectTargetsByShape",
                "shapeName": "CircleR4",
                "campTargetType": "All",
                "doOffStage": 1.0
              },
              "shieldHP": true,
              "predicates": [
                {
                  "$type": "ByEntityTypes",
                  "entityTypes": ["Avatar"]
                }
              ],
              "amount": [
                "ElementalArt_Heal_Amount",
                "Shinobu_PermanentSkill_2_P1",
                "FIGHT_PROP_ELEMENT_MASTERY",
                "MUL",
                "ADD"
              ],
              "amountByCasterMaxHPRatio": "ElementalArt_Heal_MaxHP_Percentage",
              "cdRatio": ""
            }
          ]
        }
      },
      "onAbilityStart": [
        {
          "$type": "ApplyModifier",
          "target": "CurLocalAvatar",
          "shieldHP": true,
          "modifierName": "Avatar_Shinobu_ElementalArt_TickLogic_Effect"
        }
      ]
    }
  },
  {
    "Default": {
      "$type": "ConfigAbility",
      "abilityName": "Avatar_Shinobu_Constellation_AddAttack",
      "abilitySpecials": {
        "Shinobu_Constellation_4_Dmg_P1": 0.0,
        "Shinobu_Constellation_4_CD_P2": 0.0
      },
      "modifiers": {
        "UNIQUE_Avatar_Shinobu_Constellation_AddAttack_IntoCD": {
          "modifierName": "",
          "forceTriggerWhenChangeAuthority": true,
          "duration": "Shinobu_Constellation_4_CD_P2",
          "elementDurability": 100.0,
          "onAdded": [
            {
              "$type": "SetGlobalValue",
              "shieldHP": true,
              "value": 1.0,
              "key": "_ABILITY_Shinobu_Constellation_IsCD",
              "maxValue": 0.0,
              "minValue": 0.0
            }
          ],
          "onRemoved": [
            {
              "$type": "SetGlobalValue",
              "shieldHP": true,
              "value": 0.0,
              "key": "_ABILITY_Shinobu_Constellation_IsCD",
              "maxValue": 0.0,
              "minValue": 0.0
            }
          ]
        },
        "Avatar_Shinobu_Constellation_AddAttack_Effect": {
          "modifierName": "",
          "duration": 0.20000000298023224,
          "elementDurability": 100.0,
          "onAdded": [
            {
              "$type": "FireEffect",
              "shieldHP": true,
              "rotationDampTime": "Eff_Avatar_Girl_Sword_Shinobu_ElementalArt_Constellation",
              "born": {
                "$type": "ConfigBornByGlobalValue",
                "positionKey": "_ABILITY_Shinobu_Constellation_Pos",
                "directionKey": ""
              },
              "PPPDJGDDOGD": 1.0,
              "AJDILHJFNKE": -1.0
            },
            {
              "$type": "TriggerAttackEvent",
              "shieldHP": true,
              "attackEvent": {
                "attackPattern": {
                  "$type": "ConfigAttackSphere",
                  "triggerType": "TriggerNoRepeat",
                  "ignoreMassive": true,
                  "born": {
                    "$type": "ConfigBornByGlobalValue",
                    "positionKey": "_ABILITY_Shinobu_Constellation_Pos",
                    "directionKey": ""
                  },
                  "radius": 2.0
                },
                "attackInfo": {
                  "attackTag": "Elemental_Art",
                  "attenuationTag": "",
                  "attenuationGroup": "default",
                  "attackProperty": {
                    "actorWindSubHurtDelta": 0.0,
                    "elementType": "Electric",
                    "elementDurability": 25.0,
                    "strikeType": "Default",
                    "enBreak": 20.0,
                    "HMBONGBFIAP": [
                      "Shinobu_Constellation_4_Dmg_P1",
                      "FIGHT_PROP_MAX_HP",
                      "MUL"
                    ],
                    "GLKMCMDJBIK": 0.0
                  },
                  "hitPattern": {
                    "onHitEffectName": "default",
                    "hitImpulseY": "",
                    "hitImpulseType": "LV2",
                    "hitHaltTimeScale": 0.05000000074505806
                  },
                  "canBeModifiedBy": "OriginOwner"
                }
              },
              "targetType": "Enemy"
            }
          ]
        }
      },
      "onAbilityStart": [
        {
          "$type": "ApplyModifier",
          "shieldHP": true,
          "modifierName": "Avatar_Shinobu_Constellation_AddAttack_Effect"
        },
        {
          "$type": "ApplyModifier",
          "shieldHP": true,
          "modifierName": "UNIQUE_Avatar_Shinobu_Constellation_AddAttack_IntoCD"
        }
      ]
    }
  },
  {
    "Default": {
      "$type": "ConfigAbility",
      "abilityName": "Shinobu_Onkill_KillArtGadget",
      "modifiers": {
        "Shinobu_Onkill_KillArtGadget": {
          "modifierName": "",
          "duration": 1.0,
          "elementDurability": 100.0,
          "onAdded": [
            {
              "$type": "KillSelf",
              "shieldHP": true,
              "configIdArray": [41065001]
            }
          ]
        }
      },
      "onKill": [
        {
          "$type": "ApplyModifier",
          "otherTargets": {
            "$type": "SelectTargetsByChildren",
            "configID": 41065001
          },
          "shieldHP": true,
          "modifierName": "Shinobu_Onkill_KillArtGadget"
        }
      ]
    }
  },
  {
    "Default": {
      "$type": "ConfigAbility",
      "abilityName": "Avatar_Shinobu_ElementalBurst",
      "abilityMixins": [
        {
          "$type": "AttachToStateIDMixin",
          "stateIDs": ["ElementalBurst"],
          "modifierName": "ElementalBurst_SkillStart",
          "DGFCLAIDIFI": ""
        },
        {
          "$type": "AttachToStateIDMixin",
          "stateIDs": ["ElementalBurst"],
          "modifierName": "Shinobu_ElementalBurst_Invincible",
          "DGFCLAIDIFI": ""
        },
        {
          "$type": "AttachToNormalizedTimeMixin",
          "stateID": "ElementalBurst_AS",
          "modifierName": "Shinobu_ElementalBurst_Invincible02",
          "normalizeEnd": 0.05700000002980232,
          "DGFCLAIDIFI": ""
        },
        {
          "$type": "AttachToStateIDMixin",
          "stateIDs": ["ElementalBurst"],
          "modifierName": "Shinobu_ElementalBurst_Weather",
          "DGFCLAIDIFI": ""
        },
        {
          "$type": "AttachToStateIDMixin",
          "stateIDs": ["ElementalBurst"],
          "modifierName": "Shinobu_ElementalBurst_Camera_Handler",
          "DGFCLAIDIFI": ""
        },
        {
          "$type": "AttachToStateIDMixin",
          "stateIDs": ["ElementalBurst", "ElementalBurst_AS"],
          "modifierName": "Shinobu_ElementalBurst_HideWeapon",
          "DGFCLAIDIFI": ""
        }
      ],
      "modifiers": {
        "ElementalBurst_SkillStart": {
          "modifierName": "",
          "elementDurability": 100.0
        },
        "Shinobu_ElementalBurst_Invincible": {
          "modifierName": "",
          "elementDurability": 100.0,
          "state": "Invincible",
          "onAdded": [
            {
              "$type": "AttachAbilityStateResistance",
              "resistanceListID": 11002
            }
          ]
        },
        "Shinobu_ElementalBurst_Invincible02": {
          "modifierName": "",
          "elementDurability": 100.0,
          "state": "Invincible",
          "onAdded": [
            {
              "$type": "AttachAbilityStateResistance",
              "resistanceListID": 11002
            }
          ]
        },
        "Shinobu_ElementalBurst_Weather": {
          "modifierName": "",
          "elementDurability": 100.0,
          "modifierMixins": [
            {
              "$type": "TriggerWeatherMixin",
              "damageRatio": "Skill",
              "weatherPattern": "Weather_Sara_ElementBurst",
              "duration": 2.0
            }
          ]
        },
        "Shinobu_ElementalBurst_Camera_Handler": {
          "modifierName": "",
          "elementDurability": 100.0,
          "onRemoved": [
            {
              "$type": "AvatarExitCameraShot",
              "shieldHP": true
            },
            {
              "$type": "AvatarCameraParam",
              "shieldHP": true,
              "cameraParam": {
                "forceRadius": 6.0,
                "forceRadiusDuration": 0.0,
                "shouldKeepForceRadius": true
              }
            }
          ],
          "onAvatarOut": [
            {
              "$type": "AvatarCameraParam",
              "shieldHP": true,
              "cameraParam": {
                "forceRadius": 6.0,
                "forceRadiusDuration": 0.0,
                "shouldKeepForceRadius": true
              }
            },
            {
              "$type": "AvatarExitCameraShot",
              "shieldHP": true
            }
          ]
        },
        "Shinobu_ElementalBurst_HideWeapon": {
          "modifierName": "",
          "elementDurability": 100.0,
          "onAdded": [
            {
              "$type": "TriggerHideWeapon",
              "shieldHP": true,
              "partNames": ["equip01", "equip02", "sheathPoint"]
            }
          ],
          "onRemoved": [
            {
              "$type": "TriggerHideWeapon",
              "shieldHP": true,
              "KGGEDGKGLDD": true,
              "partNames": ["equip01", "equip02", "sheathPoint"]
            }
          ]
        },
        "Shinobu_ElementalBurst_HideWeapon2": {
          "modifierName": "",
          "elementDurability": 100.0,
          "onAdded": [
            {
              "$type": "TriggerHideWeapon",
              "partNames": ["equip01", "equip02", "sheathPoint"]
            }
          ],
          "onRemoved": [
            {
              "$type": "TriggerHideWeapon",
              "KGGEDGKGLDD": true,
              "partNames": ["equip01", "equip02", "sheathPoint"]
            }
          ]
        }
      },
      "onAbilityStart": [
        {
          "$type": "ActCameraRadialBlur",
          "cameraRadialBlur": {
            "power": 1.0,
            "blurTime": 0.4000000059604645,
            "fadeTime": 0.20000000298023224
          }
        },
        {
          "$type": "SetGlobalPos",
          "target": "SelfAttackTarget",
          "predicates": [
            {
              "$type": "ByHasAttackTarget"
            }
          ],
          "key": "ArrowRainAlertPos",
          "born": {
            "$type": "ConfigBornByTarget"
          },
          "setTarget": false
        },
        {
          "$type": "SetGlobalPos",
          "predicates": [
            {
              "$type": "ByNot",
              "predicates": [
                {
                  "$type": "ByHasAttackTarget"
                }
              ]
            },
            {
              "$type": "ByNot",
              "predicates": [
                {
                  "$type": "ByUnlockTalentParam",
                  "talentParam": "Shinobu_Constellation_1"
                }
              ]
            }
          ],
          "key": "ArrowRainAlertPos",
          "born": {
            "$type": "ConfigBornByTarget",
            "offset": {
              "x": 0.0,
              "y": 0.0,
              "z": 5.5
            }
          },
          "setTarget": false
        },
        {
          "$type": "SetGlobalPos",
          "predicates": [
            {
              "$type": "ByNot",
              "predicates": [
                {
                  "$type": "ByHasAttackTarget"
                }
              ]
            },
            {
              "$type": "ByUnlockTalentParam",
              "talentParam": "Shinobu_Constellation_1"
            }
          ],
          "key": "ArrowRainAlertPos",
          "born": {
            "$type": "ConfigBornByTarget",
            "offset": {
              "x": 0.0,
              "y": 0.0,
              "z": 7.5
            }
          },
          "setTarget": false
        },
        {
          "$type": "CreateGadget",
          "shieldHP": true,
          "born": {
            "$type": "ConfigBornByGlobalValue",
            "onGround": true,
            "positionKey": "ArrowRainAlertPos",
            "directionKey": ""
          },
          "gadgetID": 41065002,
          "campID": 1001,
          "campTargetType": "Enemy"
        }
      ]
    }
  },
  {
    "Default": {
      "$type": "ConfigAbility",
      "abilityName": "Avatar_Shinobu_ElementalBurst_Init",
      "abilityMixins": [
        {
          "$type": "AttachToStateIDMixin",
          "stateIDs": ["ElementalBurst", "ElementalBurst_AS"],
          "modifierName": "UNIQUE_Avatar_Shinobu_ElementalBurst_Weapon_Remove",
          "DGFCLAIDIFI": ""
        }
      ],
      "modifiers": {
        "UNIQUE_Avatar_Shinobu_ElementalBurst_Weapon_Appear": {
          "modifierName": "",
          "forceTriggerWhenChangeAuthority": true,
          "duration": 4.5,
          "elementDurability": 100.0,
          "onAdded": [
            {
              "$type": "AttachEffect",
              "rotationDampTime": "Eff_Avatar_Girl_Sword_Shinobu_ElementalBurst_Start_Weapon",
              "PPPDJGDDOGD": 1.0,
              "AJDILHJFNKE": -1.0
            }
          ]
        },
        "UNIQUE_Avatar_Shinobu_ElementalBurst_Weapon_Remove": {
          "modifierName": "",
          "forceTriggerWhenChangeAuthority": true,
          "elementDurability": 100.0,
          "onRemoved": [
            {
              "$type": "RemoveUniqueModifier",
              "shieldHP": true,
              "modifierName": "UNIQUE_Avatar_Shinobu_ElementalBurst_Weapon_Appear"
            }
          ]
        }
      },
      "onAbilityStart": [
        {
          "$type": "RemoveUniqueModifier",
          "shieldHP": true,
          "modifierName": "UNIQUE_Avatar_Shinobu_ElementalBurst_Weapon_Appear"
        },
        {
          "$type": "AvatarSkillStart",
          "skillID": 10655,
          "amountByTargetCurrentHPRatio": 1.0,
          "costStaminaRatio": 1.0
        },
        {
          "$type": "Predicated",
          "targetPredicates": [
            {
              "$type": "ByTargetHPRatio",
              "target": "Self",
              "ratio": 0.5
            }
          ],
          "successActions": [
            {
              "$type": "DebugLog",
              "content": "##放大时血量高"
            },
            {
              "$type": "SetGlobalValue",
              "shieldHP": true,
              "value": 0.0,
              "key": "_ABILITY_Shinobu_ElementalBurst_HpIsLow",
              "maxValue": 0.0,
              "minValue": 0.0
            }
          ],
          "failActions": [
            {
              "$type": "DebugLog",
              "content": "##放大时血量低"
            },
            {
              "$type": "SetGlobalValue",
              "shieldHP": true,
              "value": 1.0,
              "key": "_ABILITY_Shinobu_ElementalBurst_HpIsLow",
              "maxValue": 0.0,
              "minValue": 0.0
            }
          ]
        },
        {
          "$type": "ApplyModifier",
          "modifierName": "UNIQUE_Avatar_Shinobu_ElementalBurst_Weapon_Appear"
        }
      ]
    }
  },
  {
    "Default": {
      "$type": "ConfigAbility",
      "abilityName": "Shinobu_ElementalBurst_Gadget",
      "abilitySpecials": {
        "ElementalBurst_Damage_Percentage": 0.0
      },
      "modifiers": {
        "Shinobu_ElementalBurst_SowrdRainLoop_LowHp_NotUnLock_Constellation_1": {
          "modifierName": "",
          "duration": 3.5999999046325684,
          "elementDurability": 100.0,
          "thinkInterval": 0.30000001192092896,
          "onAdded": [
            {
              "$type": "FireEffect",
              "rotationDampTime": "Eff_Avatar_Girl_Sword_Shinobu_ElementalBurst_ArrowRain_LowHp_R40",
              "PPPDJGDDOGD": 1.0,
              "AJDILHJFNKE": -1.0
            },
            {
              "$type": "TriggerAttackEvent",
              "target": "Caster",
              "attackEvent": {
                "attackPattern": {
                  "$type": "ConfigAttackCircle",
                  "triggerType": "TriggerNoRepeat",
                  "born": {
                    "$type": "ConfigBornBySelf",
                    "offset": {
                      "x": 0.0,
                      "y": -0.5,
                      "z": 0.0
                    }
                  },
                  "height": 4.5,
                  "radius": 4.0
                },
                "attackInfo": {
                  "attackTag": "Elemental_Burst",
                  "attenuationTag": "Elemental_Burst",
                  "attenuationGroup": "default",
                  "attackProperty": {
                    "actorWindSubHurtDelta": 0.0,
                    "elementType": "Electric",
                    "elementDurability": 25.0,
                    "strikeType": "Default",
                    "enBreak": 20.0,
                    "HMBONGBFIAP": [
                      "FIGHT_PROP_MAX_HP",
                      "ElementalBurst_Damage_Percentage",
                      "MUL"
                    ],
                    "GLKMCMDJBIK": 0.0
                  },
                  "hitPattern": {
                    "onHitEffectName": "default",
                    "hitImpulseY": "",
                    "hitImpulseType": "LV2",
                    "hitHaltTimeScale": 0.05000000074505806
                  },
                  "canBeModifiedBy": "OriginOwner"
                }
              },
              "targetType": "Enemy"
            }
          ],
          "onThinkInterval": [
            {
              "$type": "TriggerAttackEvent",
              "target": "Caster",
              "attackEvent": {
                "attackPattern": {
                  "$type": "ConfigAttackCircle",
                  "triggerType": "TriggerNoRepeat",
                  "born": {
                    "$type": "ConfigBornBySelf",
                    "offset": {
                      "x": 0.0,
                      "y": -0.5,
                      "z": 0.0
                    }
                  },
                  "height": 4.5,
                  "radius": 4.0
                },
                "attackInfo": {
                  "attackTag": "Elemental_Burst",
                  "attenuationTag": "Elemental_Burst",
                  "attenuationGroup": "default",
                  "attackProperty": {
                    "actorWindSubHurtDelta": 0.0,
                    "elementType": "Electric",
                    "elementDurability": 25.0,
                    "strikeType": "Default",
                    "enBreak": 20.0,
                    "HMBONGBFIAP": [
                      "FIGHT_PROP_MAX_HP",
                      "ElementalBurst_Damage_Percentage",
                      "MUL"
                    ],
                    "GLKMCMDJBIK": 0.0
                  },
                  "hitPattern": {
                    "onHitEffectName": "default",
                    "hitImpulseY": "",
                    "hitImpulseType": "LV1",
                    "hitHaltTimeScale": 0.05000000074505806
                  },
                  "canBeModifiedBy": "OriginOwner"
                }
              },
              "targetType": "Enemy"
            }
          ]
        },
        "Shinobu_ElementalBurst_SowrdRainLoop_HighHp_NotUnLock_Constellation_1": {
          "modifierName": "",
          "duration": 2.0,
          "elementDurability": 100.0,
          "thinkInterval": 0.30000001192092896,
          "onAdded": [
            {
              "$type": "FireEffect",
              "rotationDampTime": "Eff_Avatar_Girl_Sword_Shinobu_ElementalBurst_ArrowRain_HighHp_R40",
              "PPPDJGDDOGD": 1.0,
              "AJDILHJFNKE": -1.0
            },
            {
              "$type": "TriggerAttackEvent",
              "target": "Caster",
              "attackEvent": {
                "attackPattern": {
                  "$type": "ConfigAttackCircle",
                  "triggerType": "TriggerNoRepeat",
                  "born": {
                    "$type": "ConfigBornBySelf",
                    "offset": {
                      "x": 0.0,
                      "y": -0.5,
                      "z": 0.0
                    }
                  },
                  "height": 4.5,
                  "radius": 4.0
                },
                "attackInfo": {
                  "attackTag": "Elemental_Burst",
                  "attenuationTag": "Elemental_Burst",
                  "attenuationGroup": "default",
                  "attackProperty": {
                    "actorWindSubHurtDelta": 0.0,
                    "elementType": "Electric",
                    "elementDurability": 25.0,
                    "strikeType": "Default",
                    "enBreak": 20.0,
                    "HMBONGBFIAP": [
                      "FIGHT_PROP_MAX_HP",
                      "ElementalBurst_Damage_Percentage",
                      "MUL"
                    ],
                    "GLKMCMDJBIK": 0.0
                  },
                  "hitPattern": {
                    "onHitEffectName": "default",
                    "hitImpulseY": "",
                    "IMIJMPGJOGG": 0.0,
                    "hitImpulseType": "LV2",
                    "retreatType": "ByHitDirection",
                    "hitHaltTimeScale": 0.05000000074505806
                  },
                  "canBeModifiedBy": "OriginOwner"
                }
              },
              "targetType": "Enemy"
            }
          ],
          "onThinkInterval": [
            {
              "$type": "TriggerAttackEvent",
              "target": "Caster",
              "attackEvent": {
                "attackPattern": {
                  "$type": "ConfigAttackCircle",
                  "triggerType": "TriggerNoRepeat",
                  "born": {
                    "$type": "ConfigBornBySelf",
                    "offset": {
                      "x": 0.0,
                      "y": -0.5,
                      "z": 0.0
                    }
                  },
                  "height": 4.5,
                  "radius": 4.0
                },
                "attackInfo": {
                  "attackTag": "Elemental_Burst",
                  "attenuationTag": "Elemental_Burst",
                  "attenuationGroup": "default",
                  "attackProperty": {
                    "actorWindSubHurtDelta": 0.0,
                    "elementType": "Electric",
                    "elementDurability": 25.0,
                    "strikeType": "Default",
                    "enBreak": 20.0,
                    "HMBONGBFIAP": [
                      "FIGHT_PROP_MAX_HP",
                      "ElementalBurst_Damage_Percentage",
                      "MUL"
                    ],
                    "GLKMCMDJBIK": 0.0
                  },
                  "hitPattern": {
                    "onHitEffectName": "default",
                    "hitImpulseY": "",
                    "hitImpulseType": "LV1",
                    "retreatType": "ByHitDirection",
                    "hitHaltTimeScale": 0.05000000074505806
                  },
                  "canBeModifiedBy": "OriginOwner"
                }
              },
              "targetType": "Enemy"
            }
          ]
        },
        "Shinobu_ElementalBurst_SowrdRainLoop_LowHp_UnLock_Constellation_1": {
          "modifierName": "",
          "duration": 3.5999999046325684,
          "elementDurability": 100.0,
          "thinkInterval": 0.30000001192092896,
          "onAdded": [
            {
              "$type": "FireEffect",
              "rotationDampTime": "Eff_Avatar_Girl_Sword_Shinobu_ElementalBurst_ArrowRain_LowHp",
              "PPPDJGDDOGD": 1.0,
              "AJDILHJFNKE": -1.0
            },
            {
              "$type": "TriggerAttackEvent",
              "target": "Caster",
              "attackEvent": {
                "attackPattern": {
                  "$type": "ConfigAttackCircle",
                  "triggerType": "TriggerNoRepeat",
                  "born": {
                    "$type": "ConfigBornBySelf",
                    "offset": {
                      "x": 0.0,
                      "y": -0.5,
                      "z": 0.0
                    }
                  },
                  "height": 4.5,
                  "radius": 6.0
                },
                "attackInfo": {
                  "attackTag": "Elemental_Burst",
                  "attenuationTag": "Elemental_Burst",
                  "attenuationGroup": "default",
                  "attackProperty": {
                    "actorWindSubHurtDelta": 0.0,
                    "elementType": "Electric",
                    "elementDurability": 25.0,
                    "strikeType": "Default",
                    "enBreak": 20.0,
                    "HMBONGBFIAP": [
                      "FIGHT_PROP_MAX_HP",
                      "ElementalBurst_Damage_Percentage",
                      "MUL"
                    ],
                    "GLKMCMDJBIK": 0.0
                  },
                  "hitPattern": {
                    "onHitEffectName": "default",
                    "hitImpulseY": "",
                    "hitImpulseType": "LV2",
                    "hitHaltTimeScale": 0.05000000074505806
                  },
                  "canBeModifiedBy": "OriginOwner"
                }
              },
              "targetType": "Enemy"
            }
          ],
          "onThinkInterval": [
            {
              "$type": "TriggerAttackEvent",
              "target": "Caster",
              "attackEvent": {
                "attackPattern": {
                  "$type": "ConfigAttackCircle",
                  "triggerType": "TriggerNoRepeat",
                  "born": {
                    "$type": "ConfigBornBySelf",
                    "offset": {
                      "x": 0.0,
                      "y": -0.5,
                      "z": 0.0
                    }
                  },
                  "height": 4.5,
                  "radius": 6.0
                },
                "attackInfo": {
                  "attackTag": "Elemental_Burst",
                  "attenuationTag": "Elemental_Burst",
                  "attenuationGroup": "default",
                  "attackProperty": {
                    "actorWindSubHurtDelta": 0.0,
                    "elementType": "Electric",
                    "elementDurability": 25.0,
                    "strikeType": "Default",
                    "enBreak": 20.0,
                    "HMBONGBFIAP": [
                      "FIGHT_PROP_MAX_HP",
                      "ElementalBurst_Damage_Percentage",
                      "MUL"
                    ],
                    "GLKMCMDJBIK": 0.0
                  },
                  "hitPattern": {
                    "onHitEffectName": "default",
                    "hitImpulseY": "",
                    "hitImpulseType": "LV1",
                    "hitHaltTimeScale": 0.05000000074505806
                  },
                  "canBeModifiedBy": "OriginOwner"
                }
              },
              "targetType": "Enemy"
            }
          ]
        },
        "Shinobu_ElementalBurst_SowrdRainLoop_HighHp_UnLock_Constellation_1": {
          "modifierName": "",
          "duration": 2.0,
          "elementDurability": 100.0,
          "thinkInterval": 0.30000001192092896,
          "onAdded": [
            {
              "$type": "FireEffect",
              "rotationDampTime": "Eff_Avatar_Girl_Sword_Shinobu_ElementalBurst_ArrowRain_HighHp",
              "PPPDJGDDOGD": 1.0,
              "AJDILHJFNKE": -1.0
            },
            {
              "$type": "TriggerAttackEvent",
              "target": "Caster",
              "attackEvent": {
                "attackPattern": {
                  "$type": "ConfigAttackCircle",
                  "triggerType": "TriggerNoRepeat",
                  "born": {
                    "$type": "ConfigBornBySelf",
                    "offset": {
                      "x": 0.0,
                      "y": -0.5,
                      "z": 0.0
                    }
                  },
                  "height": 4.5,
                  "radius": 6.0
                },
                "attackInfo": {
                  "attackTag": "Elemental_Burst",
                  "attenuationTag": "Elemental_Burst",
                  "attenuationGroup": "default",
                  "attackProperty": {
                    "actorWindSubHurtDelta": 0.0,
                    "elementType": "Electric",
                    "elementDurability": 25.0,
                    "strikeType": "Default",
                    "enBreak": 20.0,
                    "HMBONGBFIAP": [
                      "FIGHT_PROP_MAX_HP",
                      "ElementalBurst_Damage_Percentage",
                      "MUL"
                    ],
                    "GLKMCMDJBIK": 0.0
                  },
                  "hitPattern": {
                    "onHitEffectName": "default",
                    "hitImpulseY": "",
                    "hitImpulseType": "LV2",
                    "hitHaltTimeScale": 0.05000000074505806
                  },
                  "canBeModifiedBy": "OriginOwner"
                }
              },
              "targetType": "Enemy"
            }
          ],
          "onThinkInterval": [
            {
              "$type": "TriggerAttackEvent",
              "target": "Caster",
              "attackEvent": {
                "attackPattern": {
                  "$type": "ConfigAttackCircle",
                  "triggerType": "TriggerNoRepeat",
                  "born": {
                    "$type": "ConfigBornBySelf",
                    "offset": {
                      "x": 0.0,
                      "y": -0.5,
                      "z": 0.0
                    }
                  },
                  "height": 4.5,
                  "radius": 6.0
                },
                "attackInfo": {
                  "attackTag": "Elemental_Burst",
                  "attenuationTag": "Elemental_Burst",
                  "attenuationGroup": "default",
                  "attackProperty": {
                    "actorWindSubHurtDelta": 0.0,
                    "elementType": "Electric",
                    "elementDurability": 25.0,
                    "strikeType": "Default",
                    "enBreak": 20.0,
                    "HMBONGBFIAP": [
                      "FIGHT_PROP_MAX_HP",
                      "ElementalBurst_Damage_Percentage",
                      "MUL"
                    ],
                    "GLKMCMDJBIK": 0.0
                  },
                  "hitPattern": {
                    "onHitEffectName": "default",
                    "hitImpulseY": "",
                    "hitImpulseType": "LV1",
                    "hitHaltTimeScale": 0.05000000074505806
                  },
                  "canBeModifiedBy": "OriginOwner"
                }
              },
              "targetType": "Enemy"
            }
          ]
        }
      },
      "onAdded": [
        {
          "$type": "CopyGlobalValue",
          "srcTarget": "OriginOwner",
          "dstTarget": "Self",
          "srcKey": "_ABILITY_Shinobu_ElementalBurst_HpIsLow",
          "dstKey": "_ABILITY_Shinobu_ElementalBurst_HpIsLow"
        },
        {
          "$type": "Predicated",
          "targetPredicates": [
            {
              "$type": "ByTargetGlobalValue",
              "key": "_ABILITY_Shinobu_ElementalBurst_HpIsLow",
              "value": 1.0
            }
          ],
          "successActions": [
            {
              "$type": "ApplyModifier",
              "predicates": [
                {
                  "$type": "ByNot",
                  "predicates": [
                    {
                      "$type": "ByUnlockTalentParam",
                      "talentParam": "Shinobu_Constellation_1"
                    }
                  ]
                }
              ],
              "modifierName": "Shinobu_ElementalBurst_SowrdRainLoop_LowHp_NotUnLock_Constellation_1"
            },
            {
              "$type": "ApplyModifier",
              "predicates": [
                {
                  "$type": "ByUnlockTalentParam",
                  "talentParam": "Shinobu_Constellation_1"
                }
              ],
              "modifierName": "Shinobu_ElementalBurst_SowrdRainLoop_LowHp_UnLock_Constellation_1"
            }
          ],
          "failActions": [
            {
              "$type": "ApplyModifier",
              "predicates": [
                {
                  "$type": "ByNot",
                  "predicates": [
                    {
                      "$type": "ByUnlockTalentParam",
                      "talentParam": "Shinobu_Constellation_1"
                    }
                  ]
                }
              ],
              "modifierName": "Shinobu_ElementalBurst_SowrdRainLoop_HighHp_NotUnLock_Constellation_1"
            },
            {
              "$type": "ApplyModifier",
              "predicates": [
                {
                  "$type": "ByUnlockTalentParam",
                  "talentParam": "Shinobu_Constellation_1"
                }
              ],
              "modifierName": "Shinobu_ElementalBurst_SowrdRainLoop_HighHp_UnLock_Constellation_1"
            }
          ]
        }
      ]
    }
  },
  {
    "Default": {
      "$type": "ConfigAbility",
      "abilityName": "Avatar_Shinobu_NormalAttack_DamageHandler",
      "abilityMixins": [
        {
          "$type": "ModifyDamageMixin",
          "animEventNames": ["ATK01"],
          "actorGrassSubHurtDelta": "NormalAttack_01_DamagePercentage",
          "actorWindSubHurtDelta": 0.0
        },
        {
          "$type": "ModifyDamageMixin",
          "animEventNames": ["ATK02"],
          "actorGrassSubHurtDelta": "NormalAttack_02_DamagePercentage",
          "actorWindSubHurtDelta": 0.0
        },
        {
          "$type": "ModifyDamageMixin",
          "animEventNames": ["ATK03"],
          "actorGrassSubHurtDelta": "NormalAttack_03_DamagePercentage",
          "actorWindSubHurtDelta": 0.0
        },
        {
          "$type": "ModifyDamageMixin",
          "animEventNames": ["ATK04"],
          "actorGrassSubHurtDelta": "NormalAttack_04_DamagePercentage",
          "actorWindSubHurtDelta": 0.0
        },
        {
          "$type": "ModifyDamageMixin",
          "animEventNames": ["ExtraAttack_1"],
          "actorGrassSubHurtDelta": "ExtraAttack1_DamagePercentag",
          "actorWindSubHurtDelta": 0.0
        },
        {
          "$type": "ModifyDamageMixin",
          "animEventNames": ["ExtraAttack_2"],
          "actorGrassSubHurtDelta": "ExtraAttack2_DamagePercentag",
          "actorWindSubHurtDelta": 0.0
        }
      ],
      "abilitySpecials": {
        "NormalAttack_01_DamagePercentage": 0.0,
        "NormalAttack_02_DamagePercentage": 0.0,
        "NormalAttack_03_DamagePercentage": 0.0,
        "NormalAttack_04_DamagePercentage": 0.0,
        "ExtraAttack1_DamagePercentag": 0.0,
        "ExtraAttack2_DamagePercentag": 0.0
      }
    }
  },
  {
    "Default": {
      "$type": "ConfigAbility",
      "abilityName": "Avatar_Shinobu_FallingAnthem",
      "abilityMixins": [
        {
          "$type": "AvatarChangeSkillMixin",
          "jumpSkillID": 5065010,
          "flySkillID": 5065010
        },
        {
          "$type": "AttachToStateIDMixin",
          "stateIDs": ["FallingAnthem_BS"],
          "modifierName": "FallingAnthem_BS_Material",
          "DGFCLAIDIFI": ""
        },
        {
          "$type": "AttachToStateIDMixin",
          "stateIDs": ["FallingAnthem_BS"],
          "modifierName": "FallingAnthem_Loop_Normal",
          "DGFCLAIDIFI": ""
        },
        {
          "$type": "AttachToAnimatorStateIDMixin",
          "stateIDs": [
            "FallingAnthem_BS_2",
            "FallingAnthem_Loop",
            "FallingAnthem_Loop_Low"
          ],
          "modifierName": "FallingAnthem_LoopDamage",
          "DGFCLAIDIFI": ""
        },
        {
          "$type": "AttachToStateIDMixin",
          "stateIDs": ["FallingAnthem_BS"],
          "modifierName": "FallingAnthem_BS_VelocityForce_Initialize",
          "DGFCLAIDIFI": ""
        },
        {
          "$type": "AttachToStateIDMixin",
          "stateIDs": [
            "FallingAnthem_BS",
            "FallingAnthem_Loop",
            "FallingAnthem_AS_1",
            "FallingAnthem_AS_2"
          ],
          "modifierName": "FallingAnthem_Height_Detect",
          "DGFCLAIDIFI": ""
        },
        {
          "$type": "AttachToStateIDMixin",
          "stateIDs": [
            "FallingAnthem_BS",
            "FallingAnthem_Loop",
            "FallingAnthem_AS_1",
            "FallingAnthem_AS_2"
          ],
          "modifierName": "FallingAnthem_FallingDamageImmune_01",
          "DGFCLAIDIFI": ""
        },
        {
          "$type": "AttachToStateIDMixin",
          "stateIDs": ["FallingAnthem_BS", "FallingAnthem_Loop"],
          "modifierName": "Inertia",
          "DGFCLAIDIFI": ""
        },
        {
          "$type": "AttachToStateIDMixin",
          "stateIDs": [
            "FallingAnthem_BS",
            "FallingAnthem_Loop",
            "FallingAnthem_AS_1",
            "FallingAnthem_AS_2"
          ],
          "modifierName": "FallingAnthem_OverHead_Camera",
          "DGFCLAIDIFI": ""
        },
        {
          "$type": "AttachToStateIDMixin",
          "stateIDs": ["FallingAnthem_BS"],
          "modifierName": "FallingAnthem_ClearVelocityForce",
          "DGFCLAIDIFI": ""
        },
        {
          "$type": "AttachToStateIDMixin",
          "stateIDs": ["FallingAnthem_AS_1", "FallingAnthem_AS_2"],
          "modifierName": "FallingAnthem_ClearVelocityForce_AS",
          "DGFCLAIDIFI": ""
        },
        {
          "$type": "AttachToStateIDMixin",
          "stateIDs": ["FallingAnthem_BS", "FallingAnthem_Loop"],
          "modifierName": "FallingAnthem_AttachWeaponEffect",
          "DGFCLAIDIFI": ""
        },
        {
          "$type": "AttachToAnimatorStateIDMixin",
          "stateIDs": ["FallingAnthem_BS_2"],
          "modifierName": "FallingAnthem_CameraRadialBlur",
          "DGFCLAIDIFI": ""
        }
      ],
      "abilitySpecials": {
        "FallingAnthem_Normal_Loop_Damage": 0.0,
        "FallingAnthem_Normal_Rank_1_Damage": 0.0,
        "FallingAnthem_Normal_Rank_2_Damage": 0.0,
        "FallingAnthem_Altitude_Lv0": 20.0,
        "FallingAnthem_Altitude_Lv1": 40.0,
        "FallingAnthem_Altitude_Lv2": 60.0,
        "FallingAnthem_Altitude_Lv3": 100.0,
        "FallingAnthem_Altitude_Lv4": 200.0,
        "FallingAnthem_FallingDamageRatio_Lv0": -1.0,
        "FallingAnthem_FallingDamageRatio_Lv1": -1.0,
        "FallingAnthem_FallingDamageRatio_Lv2": -0.8999999761581421,
        "FallingAnthem_FallingDamageRatio_Lv3": -0.800000011920929,
        "FallingAnthem_FallingDamageRatio_Lv4": -0.6000000238418579,
        "FallingAnthem_FallingDamageRatio": 0.0
      },
      "modifiers": {
        "FallingAnthem_AttachWeaponEffect": {
          "modifierName": "",
          "elementDurability": 100.0,
          "onAdded": [
            {
              "$type": "AttachEffect",
              "rotationDampTime": "Eff_Avatar_Sword_FallAnthem_Self_01",
              "PPPDJGDDOGD": 1.0,
              "AJDILHJFNKE": -1.0
            }
          ]
        },
        "FallingAnthem_CameraRadialBlur": {
          "modifierName": "",
          "duration": 0.23000000417232513,
          "elementDurability": 100.0,
          "modifierMixins": [
            {
              "$type": "CameraBlurMixin",
              "cameraRadialBlur": {
                "power": 0.30000001192092896,
                "fadeTime": 0.15000000596046448
              }
            }
          ]
        },
        "FallingAnthem_BS_Material": {
          "modifierName": "",
          "elementDurability": 100.0,
          "onAdded": [
            {
              "$type": "FireEffect",
              "rotationDampTime": "Eff_Avatar_Sword_FallAnthem_BS",
              "PPPDJGDDOGD": 1.0,
              "AJDILHJFNKE": -1.0
            }
          ]
        },
        "FallingAnthem_BS_VelocityForce_Initialize": {
          "modifierName": "",
          "elementDurability": 100.0,
          "properties": {
            "Actor_AddGravityScale": -2.0
          },
          "onAdded": [
            {
              "$type": "RemoveVelocityForce",
              "forces": ["RushMoveType"]
            }
          ]
        },
        "FallingAnthem_LoopDamage": {
          "modifierName": "",
          "elementDurability": 100.0,
          "thinkInterval": 0.30000001192092896,
          "onThinkInterval": [
            {
              "$type": "TriggerAttackEvent",
              "attackEvent": {
                "attackPattern": {
                  "$type": "ConfigAttackSphere",
                  "triggerType": "TriggerNoRepeat",
                  "born": {
                    "$type": "ConfigBornBySelf",
                    "offset": {
                      "x": 0.0,
                      "y": 0.0,
                      "z": 1.0
                    }
                  },
                  "radius": 1.0
                },
                "attackInfo": {
                  "attackTag": "FallingAttack",
                  "attenuationTag": "",
                  "attenuationGroup": "default",
                  "attackProperty": {
                    "actorGrassSubHurtDelta": "FallingAnthem_Normal_Loop_Damage",
                    "actorWindSubHurtDelta": 0.0,
                    "elementDurability": 0.0,
                    "overrideByWeapon": true,
                    "strikeType": "Slash",
                    "enBreak": 25.0,
                    "attackType": "Melee",
                    "GLKMCMDJBIK": 0.0
                  },
                  "hitPattern": {
                    "onHitEffectName": "default",
                    "hitImpulseY": "",
                    "hitImpulseType": "LV2",
                    "hitHaltTimeScale": 0.019999999552965164
                  }
                }
              },
              "targetType": "Enemy"
            }
          ]
        },
        "FallingAnthem_FallingDamageImmune_01": {
          "modifierName": "",
          "elementDurability": 100.0,
          "onAdded": [
            {
              "$type": "ClearGlobalValue",
              "key": "_ABILITY_FallingAttack_Altitude"
            },
            {
              "$type": "AddGlobalValue",
              "predicates": [
                {
                  "$type": "ByTargetAltitude",
                  "logic": "LesserOrEqual",
                  "value": "FallingAnthem_Altitude_Lv0"
                }
              ],
              "value": "FallingAnthem_FallingDamageRatio_Lv0",
              "key": "_ABILITY_FallingAttack_Altitude",
              "useLimitRange": true,
              "maxValue": "FallingAnthem_FallingDamageRatio_Lv0",
              "minValue": "FallingAnthem_FallingDamageRatio_Lv0"
            },
            {
              "$type": "AddGlobalValue",
              "predicates": [
                {
                  "$type": "ByTargetAltitude",
                  "logic": "LesserOrEqual",
                  "value": "FallingAnthem_Altitude_Lv1"
                },
                {
                  "$type": "ByTargetAltitude",
                  "value": "FallingAnthem_Altitude_Lv0"
                }
              ],
              "value": "FallingAnthem_FallingDamageRatio_Lv1",
              "key": "_ABILITY_FallingAttack_Altitude",
              "useLimitRange": true,
              "maxValue": "FallingAnthem_FallingDamageRatio_Lv1",
              "minValue": "FallingAnthem_FallingDamageRatio_Lv1"
            },
            {
              "$type": "AddGlobalValue",
              "predicates": [
                {
                  "$type": "ByTargetAltitude",
                  "logic": "LesserOrEqual",
                  "value": "FallingAnthem_Altitude_Lv2"
                },
                {
                  "$type": "ByTargetAltitude",
                  "value": "FallingAnthem_Altitude_Lv1"
                }
              ],
              "value": "FallingAnthem_FallingDamageRatio_Lv2",
              "key": "_ABILITY_FallingAttack_Altitude",
              "useLimitRange": true,
              "maxValue": "FallingAnthem_FallingDamageRatio_Lv2",
              "minValue": "FallingAnthem_FallingDamageRatio_Lv2"
            },
            {
              "$type": "AddGlobalValue",
              "predicates": [
                {
                  "$type": "ByTargetAltitude",
                  "logic": "LesserOrEqual",
                  "value": "FallingAnthem_Altitude_Lv3"
                },
                {
                  "$type": "ByTargetAltitude",
                  "value": "FallingAnthem_Altitude_Lv2"
                }
              ],
              "value": "FallingAnthem_FallingDamageRatio_Lv3",
              "key": "_ABILITY_FallingAttack_Altitude",
              "useLimitRange": true,
              "maxValue": "FallingAnthem_FallingDamageRatio_Lv3",
              "minValue": "FallingAnthem_FallingDamageRatio_Lv3"
            },
            {
              "$type": "AddGlobalValue",
              "predicates": [
                {
                  "$type": "ByTargetAltitude",
                  "value": "FallingAnthem_Altitude_Lv3"
                }
              ],
              "value": "FallingAnthem_FallingDamageRatio_Lv4",
              "key": "_ABILITY_FallingAttack_Altitude",
              "useLimitRange": true,
              "maxValue": "FallingAnthem_FallingDamageRatio_Lv4",
              "minValue": "FallingAnthem_FallingDamageRatio_Lv4"
            },
            {
              "$type": "AttachModifier",
              "modifierName": "FallingAnthem_FallingDamageImmune_02"
            }
          ]
        },
        "FallingAnthem_FallingDamageImmune_02": {
          "modifierName": "",
          "elementDurability": 100.0,
          "onAdded": [
            {
              "$type": "SetGlobalValueToOverrideMap",
              "globalValueKey": "_ABILITY_FallingAttack_Altitude",
              "overrideMapKey": "FallingAnthem_FallingDamageRatio"
            },
            {
              "$type": "AttachModifier",
              "modifierName": "FallingAnthem_FallingDamageImmune_03"
            }
          ]
        },
        "FallingAnthem_FallingDamageImmune_03": {
          "modifierName": "",
          "elementDurability": 100.0,
          "properties": {
            "Actor_FallingDamageRatio": "FallingAnthem_FallingDamageRatio"
          }
        },
        "FallingAnthem_Loop_Normal": {
          "modifierName": "",
          "elementDurability": 100.0,
          "modifierMixins": [
            {
              "$type": "AttachModifierToSelfGlobalValueMixin",
              "globalValueKey": "_ABILITY_FallingAnthem_UseCamera",
              "gvInTalk": 0.0,
              "valueSteps": [-1.0, 0.5, 1.5],
              "modifierNameSteps": [
                "FallingAnthem_Loop_Normal_Rank_1",
                "FallingAnthem_Loop_Normal_Rank_2"
              ]
            }
          ]
        },
        "FallingAnthem_Loop_Normal_Rank_1": {
          "modifierName": "",
          "elementDurability": 100.0,
          "onAdded": [
            {
              "$type": "AttachEffect",
              "rotationDampTime": "Eff_Avatar_Sword_FallAnthem_Loop_01",
              "PPPDJGDDOGD": 1.0,
              "AJDILHJFNKE": -1.0
            }
          ]
        },
        "FallingAnthem_Loop_Normal_Rank_2": {
          "modifierName": "",
          "elementDurability": 100.0,
          "onAdded": [
            {
              "$type": "AttachEffect",
              "rotationDampTime": "Eff_Avatar_Sword_FallAnthem_Loop_02",
              "PPPDJGDDOGD": 1.0,
              "AJDILHJFNKE": -1.0
            }
          ]
        },
        "Inertia": {
          "modifierName": "",
          "elementDurability": 100.0,
          "modifierMixins": [
            {
              "$type": "ApplyInertiaVelocityMixin",
              "useXZ": false,
              "useY": false
            }
          ]
        },
        "FallingAnthem_Height_Detect": {
          "modifierName": "",
          "elementDurability": 100.0,
          "onAdded": [
            {
              "$type": "AddGlobalValue",
              "predicates": [
                {
                  "$type": "ByTargetAltitude",
                  "logic": "LesserOrEqual",
                  "value": 2.4000000953674316
                }
              ],
              "value": 0.0,
              "key": "_ABILITY_FallingAnthem_UseCamera",
              "useLimitRange": true,
              "maxValue": 0.0,
              "minValue": 0.0
            },
            {
              "$type": "AddGlobalValue",
              "predicates": [
                {
                  "$type": "ByTargetAltitude",
                  "value": 2.4000000953674316
                }
              ],
              "value": 5.0,
              "key": "_ABILITY_FallingAnthem_UseCamera",
              "useLimitRange": true,
              "maxValue": 1.0,
              "minValue": 0.0
            },
            {
              "$type": "SetAnimatorFloat",
              "predicates": [
                {
                  "$type": "ByTargetAltitude",
                  "logic": "LesserOrEqual",
                  "value": 2.4000000953674316
                }
              ],
              "floatID": "FallingAnthem_UseCamera",
              "value": 0.0
            },
            {
              "$type": "SetAnimatorFloat",
              "predicates": [
                {
                  "$type": "ByTargetAltitude",
                  "value": 2.4000000953674316
                }
              ],
              "floatID": "FallingAnthem_UseCamera",
              "value": 1.0
            }
          ],
          "onRemoved": [
            {
              "$type": "SetAnimatorFloat",
              "floatID": "FallingAnthem_UseCamera",
              "value": 0.0
            },
            {
              "$type": "AddGlobalValue",
              "value": 0.0,
              "key": "_ABILITY_FallingAnthem_UseCamera",
              "useLimitRange": true,
              "maxValue": 0.0,
              "minValue": 0.0
            }
          ]
        },
        "FallingAnthem_OverHead_Camera": {
          "modifierName": "",
          "elementDurability": 100.0,
          "onAdded": [
            {
              "$type": "AvatarCameraParam",
              "predicates": [
                {
                  "$type": "ByAnimatorFloat",
                  "logic": "Equal",
                  "value": 1.0,
                  "parameter": "FallingAnthem_UseCamera"
                }
              ],
              "cameraParam": {
                "forceRadius": 4.5,
                "forceRadiusDuration": 0.20000000298023224,
                "shouldKeepForceRadius": true
              }
            }
          ]
        },
        "FallingAnthem_OverHead_Camera_Remover": {
          "modifierName": "",
          "elementDurability": 100.0,
          "onAdded": [
            {
              "$type": "AvatarExitCameraShot",
              "shieldHP": true
            }
          ]
        },
        "FallingAnthem_Landed_Camera": {
          "modifierName": "",
          "elementDurability": 100.0,
          "onAdded": [
            {
              "$type": "AvatarCameraParam",
              "predicates": [
                {
                  "$type": "ByAnimatorFloat",
                  "logic": "Equal",
                  "value": 1.0,
                  "parameter": "FallingAnthem_UseCamera"
                }
              ],
              "cameraParam": {
                "forceRadius": 6.0,
                "forceRadiusDuration": 0.10000000149011612,
                "shouldKeepForceRadius": true
              }
            }
          ]
        },
        "FallingAnthem_ClearVelocityForce": {
          "modifierName": "",
          "elementDurability": 100.0,
          "onAdded": [
            {
              "$type": "RemoveVelocityForce",
              "forces": ["RushMoveType", "InertiaType"]
            }
          ]
        },
        "FallingAnthem_ClearVelocityForce_AS": {
          "modifierName": "",
          "elementDurability": 100.0,
          "onAdded": [
            {
              "$type": "RemoveVelocityForce",
              "forces": ["RushMoveType", "InertiaType"]
            }
          ]
        }
      },
      "onAbilityStart": [
        {
          "$type": "TriggerAttackEvent",
          "predicates": [
            {
              "$type": "ByTargetGlobalValue",
              "key": "_ABILITY_FallingAnthem_UseCamera",
              "value": 0.0,
              "forceByCaster": true,
              "compareType": "NoneOrEqual"
            }
          ],
          "attackEvent": {
            "attackPattern": {
              "$type": "ConfigAttackCircle",
              "triggerType": "TriggerNoRepeat",
              "born": {
                "$type": "ConfigBornByTarget",
                "offset": {
                  "x": 0.0,
                  "y": -0.5,
                  "z": 1.0
                }
              },
              "height": 2.0,
              "radius": 3.0
            },
            "attackInfo": {
              "attackTag": "FallingAttack",
              "attenuationTag": "",
              "attenuationGroup": "default",
              "attackProperty": {
                "actorGrassSubHurtDelta": "FallingAnthem_Normal_Rank_1_Damage",
                "actorWindSubHurtDelta": 0.0,
                "elementDurability": 25.0,
                "overrideByWeapon": true,
                "strikeType": "Blunt",
                "enBreak": 100.0,
                "attackType": "Melee",
                "GLKMCMDJBIK": 0.0
              },
              "hitPattern": {
                "onHitEffectName": "none",
                "hitImpulseY": "",
                "hitImpulseType": "LV4",
                "hitHaltTimeScale": 0.10000000149011612
              },
              "forceCameraShake": true,
              "cameraShake": {
                "shakeType": "CustomVector",
                "shakeRange": 0.23999999463558197,
                "shakeTime": 0.11999999731779099,
                "shakeDistance": 30.0,
                "shakeDir": {
                  "y": 1.0
                },
                "extension": {
                  "baseCycle": 0.23999999463558197,
                  "cycleDamping": 0.0,
                  "rangeAttenuation": 0.30000001192092896
                }
              }
            }
          },
          "targetType": "Enemy"
        },
        {
          "$type": "TriggerAttackEvent",
          "predicates": [
            {
              "$type": "ByTargetGlobalValue",
              "key": "_ABILITY_FallingAnthem_UseCamera",
              "value": 1.0,
              "forceByCaster": true
            }
          ],
          "attackEvent": {
            "attackPattern": {
              "$type": "ConfigAttackCircle",
              "triggerType": "TriggerNoRepeat",
              "born": {
                "$type": "ConfigBornByTarget",
                "offset": {
                  "x": 0.0,
                  "y": -0.5,
                  "z": 1.0
                }
              },
              "height": 2.0,
              "radius": 5.0
            },
            "attackInfo": {
              "attackTag": "FallingAttack",
              "attenuationTag": "",
              "attenuationGroup": "default",
              "attackProperty": {
                "actorGrassSubHurtDelta": "FallingAnthem_Normal_Rank_2_Damage",
                "actorWindSubHurtDelta": 0.0,
                "elementDurability": 25.0,
                "overrideByWeapon": true,
                "strikeType": "Blunt",
                "enBreak": 150.0,
                "attackType": "Melee",
                "GLKMCMDJBIK": 0.0
              },
              "hitPattern": {
                "onHitEffectName": "none",
                "hitImpulseY": "",
                "hitImpulseType": "LV7",
                "hitHaltTimeScale": 0.10000000149011612
              },
              "forceCameraShake": true,
              "cameraShake": {
                "shakeType": "CustomVector",
                "shakeRange": 0.5,
                "shakeTime": 0.20000000298023224,
                "shakeDistance": 30.0,
                "shakeDir": {
                  "y": 1.0,
                  "z": 1.0
                },
                "extension": {
                  "baseCycle": 0.4000000059604645,
                  "cycleDamping": 0.0,
                  "rangeAttenuation": 0.30000001192092896
                }
              }
            }
          },
          "targetType": "Enemy"
        },
        {
          "$type": "FireEffect",
          "predicates": [
            {
              "$type": "ByTargetGlobalValue",
              "key": "_ABILITY_FallingAnthem_UseCamera",
              "value": 0.0,
              "forceByCaster": true,
              "compareType": "NoneOrEqual"
            }
          ],
          "rotationDampTime": "Eff_Avatar_Sword_FallAnthem_Strike_01",
          "PPPDJGDDOGD": 1.0,
          "AJDILHJFNKE": -1.0
        },
        {
          "$type": "FireEffect",
          "predicates": [
            {
              "$type": "ByTargetGlobalValue",
              "key": "_ABILITY_FallingAnthem_UseCamera",
              "value": 1.0,
              "forceByCaster": true
            }
          ],
          "rotationDampTime": "Eff_Avatar_Sword_FallAnthem_Strike_02",
          "PPPDJGDDOGD": 1.0,
          "AJDILHJFNKE": -1.0
        }
      ]
    }
  },
  {
    "Default": {
      "$type": "ConfigAbility",
      "abilityName": "Shinobu_Show01_AttachEffect",
      "abilityMixins": [
        {
          "$type": "AttachToStateIDMixin",
          "stateIDs": ["StandbyShow_01"],
          "modifierName": "Shinobu_Show01_AttachEffect_Modifier",
          "DGFCLAIDIFI": ""
        }
      ],
      "modifiers": {
        "Shinobu_Show01_AttachEffect_Modifier": {
          "modifierName": "",
          "elementDurability": 100.0,
          "onAdded": [
            {
              "$type": "DebugLog",
              "shieldHP": true,
              "content": "##show01特效"
            },
            {
              "$type": "AttachEffect",
              "rotationDampTime": "Eff_Avatar_Girl_Sword_Shinobu_Show01_00",
              "PPPDJGDDOGD": 1.0,
              "AJDILHJFNKE": -1.0
            }
          ]
        }
      }
    }
  },
  {
    "Default": {
      "$type": "ConfigAbility",
      "abilityName": "Avatar_Shinobu_PermanentSkill_WhenLowHp",
      "abilityMixins": [
        {
          "$type": "AttachModifierToPredicateMixin",
          "onEvent": "HP",
          "predicates": [
            {
              "$type": "ByTargetHPRatio",
              "logic": "LesserOrEqual",
              "ratio": "HpRate_P1"
            }
          ],
          "modifierName": "Avatar_Shinobu_PermanentSkill_HealUpWhenLowHp"
        }
      ],
      "abilitySpecials": {
        "HpRate_P1": 0.0,
        "HealAddDelta_P2": 0.0
      },
      "modifiers": {
        "Avatar_Shinobu_PermanentSkill_HealUpWhenLowHp": {
          "modifierName": "",
          "elementDurability": 100.0,
          "properties": {
            "Actor_HealAddDelta": "HealAddDelta_P2"
          },
          "isLimitedProperties": true
        }
      },
      "onAdded": [
        {
          "$type": "ApplyModifier",
          "shieldHP": true,
          "predicates": [
            {
              "$type": "ByTargetHPRatio",
              "logic": "LesserOrEqual",
              "ratio": "HpRate_P1"
            }
          ],
          "modifierName": "Avatar_Shinobu_PermanentSkill_HealUpWhenLowHp"
        }
      ]
    }
  },
  {
    "Default": {
      "$type": "ConfigAbility",
      "abilityName": "Avatar_Shinobu_Constellation6_Limbo",
      "abilitySpecials": {
        "Shinobu_Constellation_6_HpRate_P1": 0.0
      },
      "modifiers": {
        "Shinobu_Constellation6_Limbo_Main_Handler": {
          "modifierName": "",
          "elementDurability": 100.0,
          "thinkInterval": 2.0,
          "modifierMixins": [
            {
              "$type": "DoActionByEventMixin",
              "onEvent": "HPDown",
              "predicates": [
                {
                  "$type": "ByTargetHPValue",
                  "target": "Caster",
                  "logic": "Lesser",
                  "hp": 2.0
                },
                {
                  "$type": "BySkillReady",
                  "skillID": 10656
                }
              ],
              "actions": [
                {
                  "$type": "TriggerAbility",
                  "shieldHP": true,
                  "abilityName": "Avatar_Shinobu_Constellation6_Limbo_Trigger_Protect"
                }
              ],
              "costEnergyDeltaName": ""
            }
          ],
          "onThinkInterval": [
            {
              "$type": "AttachModifier",
              "shieldHP": true,
              "predicates": [
                {
                  "$type": "BySkillReady",
                  "skillID": 10656
                }
              ],
              "modifierName": "UNIQUE_Shinobu_Constellation6_Limbo_Untriggered_Limbo"
            },
            {
              "$type": "TriggerAbility",
              "shieldHP": true,
              "predicates": [
                {
                  "$type": "ByTargetHPValue",
                  "target": "Caster",
                  "logic": "Lesser",
                  "hp": 2.0
                },
                {
                  "$type": "BySkillReady",
                  "skillID": 10656
                }
              ],
              "abilityName": "Avatar_Shinobu_Constellation6_Limbo_Trigger_Protect"
            }
          ]
        },
        "Shinobu_Constellation6_ElemMastery_Main_Handler": {
          "modifierName": "",
          "elementDurability": 100.0,
          "modifierMixins": [
            {
              "$type": "DoActionByEventMixin",
              "onEvent": "HPDown",
              "predicates": [
                {
                  "$type": "ByTargetHPRatio",
                  "target": "Caster",
                  "logic": "Lesser",
                  "ratio": "Shinobu_Constellation_6_HpRate_P1"
                },
                {
                  "$type": "BySkillReady",
                  "skillID": 10657
                }
              ],
              "actions": [
                {
                  "$type": "TriggerAbility",
                  "shieldHP": true,
                  "abilityName": "Avatar_Shinobu_Constellation6_Limbo_Trigger_ElemMastery"
                }
              ],
              "costEnergyDeltaName": ""
            }
          ]
        },
        "UNIQUE_Shinobu_Constellation6_Limbo_Untriggered_Limbo": {
          "modifierName": "",
          "forceTriggerWhenChangeAuthority": true,
          "duration": 3.0,
          "elementDurability": 100.0,
          "state": "Limbo"
        }
      },
      "onAdded": [
        {
          "$type": "ApplyModifier",
          "shieldHP": true,
          "modifierName": "Shinobu_Constellation6_Limbo_Main_Handler"
        },
        {
          "$type": "ApplyModifier",
          "shieldHP": true,
          "modifierName": "Shinobu_Constellation6_ElemMastery_Main_Handler"
        },
        {
          "$type": "UnlockSkill",
          "shieldHP": true,
          "skillID": 10656
        },
        {
          "$type": "UnlockSkill",
          "shieldHP": true,
          "skillID": 10657
        }
      ],
      "isDynamicAbility": true
    }
  },
  {
    "Default": {
      "$type": "ConfigAbility",
      "abilityName": "Avatar_Shinobu_Constellation6_Limbo_Trigger_ElemMastery",
      "abilitySpecials": {
        "Shinobu_Constellation6_BuffDuration_P2": 0.0,
        "Shinobu_Constellation6_ElemMasteryDelta_P3": 0.0
      },
      "modifiers": {
        "UNIQUE_Shinobu_Constellation_ElemMastery_Trigger_Handler": {
          "modifierName": "",
          "forceTriggerWhenChangeAuthority": true,
          "duration": "Shinobu_Constellation6_BuffDuration_P2",
          "elementDurability": 100.0,
          "properties": {
            "Actor_ElemMasteryDelta": "Shinobu_Constellation6_ElemMasteryDelta_P3"
          },
          "state": "AttackUp",
          "onAdded": [
            {
              "$type": "FireEffect",
              "rotationDampTime": "Eff_Avatar_Girl_Sword_Shinobu_BuffStart",
              "PPPDJGDDOGD": 1.0,
              "AJDILHJFNKE": -1.0
            }
          ],
          "isLimitedProperties": true
        }
      },
      "onAbilityStart": [
        {
          "$type": "ApplyModifier",
          "shieldHP": true,
          "modifierName": "UNIQUE_Shinobu_Constellation_ElemMastery_Trigger_Handler"
        },
        {
          "$type": "AvatarSkillStart",
          "shieldHP": true,
          "skillID": 10657,
          "amountByTargetCurrentHPRatio": 1.0,
          "costStaminaRatio": 1.0
        }
      ],
      "isDynamicAbility": true
    }
  },
  {
    "Default": {
      "$type": "ConfigAbility",
      "abilityName": "Avatar_Shinobu_Constellation6_Limbo_Trigger_Protect",
      "abilitySpecials": {
        "Shinobu_Constellation6_BuffDuration_P2": 0.0
      },
      "modifiers": {
        "UNIQUE_Shinobu_Constellation_Limbo_Trigger_Handler": {
          "modifierName": "",
          "forceTriggerWhenChangeAuthority": true,
          "duration": 1.0,
          "elementDurability": 100.0,
          "onAdded": [
            {
              "$type": "FireEffect",
              "rotationDampTime": "Eff_Avatar_Girl_Sword_Shinobu_Limbo_Start",
              "PPPDJGDDOGD": 1.0,
              "AJDILHJFNKE": -1.0
            }
          ],
          "isLimitedProperties": true
        }
      },
      "onAbilityStart": [
        {
          "$type": "ApplyModifier",
          "shieldHP": true,
          "modifierName": "UNIQUE_Shinobu_Constellation_Limbo_Trigger_Handler"
        },
        {
          "$type": "RemoveUniqueModifier",
          "shieldHP": true,
          "modifierName": "UNIQUE_Shinobu_Constellation6_Limbo_Untriggered_Limbo"
        },
        {
          "$type": "AvatarSkillStart",
          "shieldHP": true,
          "skillID": 10656,
          "amountByTargetCurrentHPRatio": 1.0,
          "costStaminaRatio": 1.0
        }
      ],
      "isDynamicAbility": true
    }
  }
]
