[
  {
    "id": 11101,
    "name": "Épée émoussée",
    "type_main": "ITEM_WEAPON",
    "type_sub": "WEAPON_SWORD_ONE_HAND",
    "rank": 1,
    "img": "/image/game/genshin/weapon/UI_EquipIcon_Sword_Blunt.png"
  },
  {
    "id": 11201,
    "name": "Épée en argent",
    "type_main": "ITEM_WEAPON",
    "type_sub": "WEAPON_SWORD_ONE_HAND",
    "rank": 2,
    "img": "/image/game/genshin/weapon/UI_EquipIcon_Sword_Silver.png"
  },
  {
    "id": 11301,
    "name": "Lame froide",
    "type_main": "ITEM_WEAPON",
    "type_sub": "WEAPON_SWORD_ONE_HAND",
    "rank": 3,
    "img": "/image/game/genshin/weapon/UI_EquipIcon_Sword_Steel.png"
  },
  {
    "id": 11302,
    "name": "Messager de l'Aube",
    "type_main": "ITEM_WEAPON",
    "type_sub": "WEAPON_SWORD_ONE_HAND",
    "rank": 3,
    "img": "/image/game/genshin/weapon/UI_EquipIcon_Sword_Dawn.png"
  },
  {
    "id": 11303,
    "name": "Épée du voyageur",
    "type_main": "ITEM_WEAPON",
    "type_sub": "WEAPON_SWORD_ONE_HAND",
    "rank": 3,
    "img": "/image/game/genshin/weapon/UI_EquipIcon_Sword_Traveler.png"
  },
  {
    "id": 11304,
    "name": "Épée en fer noir",
    "type_main": "ITEM_WEAPON",
    "type_sub": "WEAPON_SWORD_ONE_HAND",
    "rank": 3,
    "img": "/image/game/genshin/weapon/UI_EquipIcon_Sword_Darker.png"
  },
  {
    "id": 11305,
    "name": "Couteau à filets",
    "type_main": "ITEM_WEAPON",
    "type_sub": "WEAPON_SWORD_ONE_HAND",
    "rank": 3,
    "img": "/image/game/genshin/weapon/UI_EquipIcon_Sword_Sashimi.png"
  },
  {
    "id": 11306,
    "name": "Épée céleste",
    "type_main": "ITEM_WEAPON",
    "type_sub": "WEAPON_SWORD_ONE_HAND",
    "rank": 3,
    "img": "/image/game/genshin/weapon/UI_EquipIcon_Sword_Mitsurugi.png"
  },
  {
    "id": 11401,
    "name": "Épée de Favonius",
    "type_main": "ITEM_WEAPON",
    "type_sub": "WEAPON_SWORD_ONE_HAND",
    "rank": 4,
    "img": "/image/game/genshin/weapon/UI_EquipIcon_Sword_Zephyrus.png"
  },
  {
    "id": 11402,
    "name": "Flûte",
    "type_main": "ITEM_WEAPON",
    "type_sub": "WEAPON_SWORD_ONE_HAND",
    "rank": 4,
    "img": "/image/game/genshin/weapon/UI_EquipIcon_Sword_Troupe.png"
  },
  {
    "id": 11403,
    "name": "Épée rituelle",
    "type_main": "ITEM_WEAPON",
    "type_sub": "WEAPON_SWORD_ONE_HAND",
    "rank": 4,
    "img": "/image/game/genshin/weapon/UI_EquipIcon_Sword_Fossil.png"
  },
  {
    "id": 11404,
    "name": "Épée longue royale",
    "type_main": "ITEM_WEAPON",
    "type_sub": "WEAPON_SWORD_ONE_HAND",
    "rank": 4,
    "img": "/image/game/genshin/weapon/UI_EquipIcon_Sword_Theocrat.png"
  },
  {
    "id": 11405,
    "name": "Rugissement du Lion",
    "type_main": "ITEM_WEAPON",
    "type_sub": "WEAPON_SWORD_ONE_HAND",
    "rank": 4,
    "img": "/image/game/genshin/weapon/UI_EquipIcon_Sword_Rockkiller.png"
  },
  {
    "id": 11406,
    "name": "Tailleur de pierre (prototype)",
    "type_main": "ITEM_WEAPON",
    "type_sub": "WEAPON_SWORD_ONE_HAND",
    "rank": 4,
    "img": "/image/game/genshin/weapon/UI_EquipIcon_Sword_Proto.png"
  },
  {
    "id": 11407,
    "name": "Piqûre de fer",
    "type_main": "ITEM_WEAPON",
    "type_sub": "WEAPON_SWORD_ONE_HAND",
    "rank": 4,
    "img": "/image/game/genshin/weapon/UI_EquipIcon_Sword_Exotic.png"
  },
  {
    "id": 11408,
    "name": "Épée longue de Rochenoire",
    "type_main": "ITEM_WEAPON",
    "type_sub": "WEAPON_SWORD_ONE_HAND",
    "rank": 4,
    "img": "/image/game/genshin/weapon/UI_EquipIcon_Sword_Blackrock.png"
  },
  {
    "id": 11409,
    "name": "Épée noire",
    "type_main": "ITEM_WEAPON",
    "type_sub": "WEAPON_SWORD_ONE_HAND",
    "rank": 4,
    "img": "/image/game/genshin/weapon/UI_EquipIcon_Sword_Bloodstained.png"
  },
  {
    "id": 11410,
    "name": "Éclair des impasses",
    "type_main": "ITEM_WEAPON",
    "type_sub": "WEAPON_SWORD_ONE_HAND",
    "rank": 4,
    "img": "/image/game/genshin/weapon/UI_EquipIcon_Sword_Outlaw.png"
  },
  {
    "id": 11411,
    "name": "N/A",
    "type_main": "ITEM_WEAPON",
    "type_sub": "WEAPON_SWORD_ONE_HAND",
    "rank": 4,
    "img": "/image/game/genshin/weapon/UI_EquipIcon_Sword_Blunt.png"
  },
  {
    "id": 11412,
    "name": "Épée de la descente",
    "type_main": "ITEM_WEAPON",
    "type_sub": "WEAPON_SWORD_ONE_HAND",
    "rank": 4,
    "img": "/image/game/genshin/weapon/UI_EquipIcon_Sword_Psalmus.png"
  },
  {
    "id": 11413,
    "name": "Croc suppurant",
    "type_main": "ITEM_WEAPON",
    "type_sub": "WEAPON_SWORD_ONE_HAND",
    "rank": 4,
    "img": "/image/game/genshin/weapon/UI_EquipIcon_Sword_Magnum.png"
  },
  {
    "id": 11414,
    "name": "Lame kageuchi d'Amenoma",
    "type_main": "ITEM_WEAPON",
    "type_sub": "WEAPON_SWORD_ONE_HAND",
    "rank": 4,
    "img": "/image/game/genshin/weapon/UI_EquipIcon_Sword_Bakufu.png"
  },
  {
    "id": 11415,
    "name": "Fuseau de cinabre",
    "type_main": "ITEM_WEAPON",
    "type_sub": "WEAPON_SWORD_ONE_HAND",
    "rank": 4,
    "img": "/image/game/genshin/weapon/UI_EquipIcon_Sword_Opus.png"
  },
  {
    "id": 11416,
    "name": "Kagotsurube Isshin",
    "type_main": "ITEM_WEAPON",
    "type_sub": "WEAPON_SWORD_ONE_HAND",
    "rank": 4,
    "img": "/image/game/genshin/weapon/UI_EquipIcon_Sword_Youtou.png"
  },
  {
    "id": 11417,
    "name": "Lame d'aubier",
    "type_main": "ITEM_WEAPON",
    "type_sub": "WEAPON_SWORD_ONE_HAND",
    "rank": 4,
    "img": "/image/game/genshin/weapon/UI_EquipIcon_Sword_Arakalari.png"
  },
  {
    "id": 11418,
    "name": "Clair de lune de Xiphos",
    "type_main": "ITEM_WEAPON",
    "type_sub": "WEAPON_SWORD_ONE_HAND",
    "rank": 4,
    "img": "/image/game/genshin/weapon/UI_EquipIcon_Sword_Pleroma.png"
  },
  {
    "id": 11419,
    "name": "Chef-d'œuvre Isshin",
    "type_main": "ITEM_WEAPON",
    "type_sub": "WEAPON_SWORD_ONE_HAND",
    "rank": 4,
    "img": "/image/game/genshin/weapon/UI_EquipIcon_Sword_YoutouEnchanted.png"
  },
  {
    "id": 11420,
    "name": "Chef-d'œuvre Isshin",
    "type_main": "ITEM_WEAPON",
    "type_sub": "WEAPON_SWORD_ONE_HAND",
    "rank": 4,
    "img": "/image/game/genshin/weapon/UI_EquipIcon_Sword_YoutouShattered.png"
  },
  {
    "id": 11421,
    "name": "Chef-d'œuvre Isshin",
    "type_main": "ITEM_WEAPON",
    "type_sub": "WEAPON_SWORD_ONE_HAND",
    "rank": 4,
    "img": "/image/game/genshin/weapon/UI_EquipIcon_Sword_YoutouEnchanted.png"
  },
  {
    "id": 11422,
    "name": "Pluie florale",
    "type_main": "ITEM_WEAPON",
    "type_sub": "WEAPON_SWORD_ONE_HAND",
    "rank": 4,
    "img": "/image/game/genshin/weapon/UI_EquipIcon_Sword_Kasabouzu.png"
  },
  {
    "id": 11424,
    "name": "Croc de loup",
    "type_main": "ITEM_WEAPON",
    "type_sub": "WEAPON_SWORD_ONE_HAND",
    "rank": 4,
    "img": "/image/game/genshin/weapon/UI_EquipIcon_Sword_Boreas.png"
  },
  {
    "id": 11425,
    "name": "Final des profondeurs",
    "type_main": "ITEM_WEAPON",
    "type_sub": "WEAPON_SWORD_ONE_HAND",
    "rank": 4,
    "img": "/image/game/genshin/weapon/UI_EquipIcon_Sword_Vorpal.png"
  },
  {
    "id": 11426,
    "name": "Passeur du Fleuve cendré",
    "type_main": "ITEM_WEAPON",
    "type_sub": "WEAPON_SWORD_ONE_HAND",
    "rank": 4,
    "img": "/image/game/genshin/weapon/UI_EquipIcon_Sword_Machination.png"
  },
  {
    "id": 11427,
    "name": "L'assistant du docker",
    "type_main": "ITEM_WEAPON",
    "type_sub": "WEAPON_SWORD_ONE_HAND",
    "rank": 4,
    "img": "/image/game/genshin/weapon/UI_EquipIcon_Sword_Mechanic.png"
  },
  {
    "id": 11428,
    "name": "Lame du Narzissenkreuz",
    "type_main": "ITEM_WEAPON",
    "type_sub": "WEAPON_SWORD_ONE_HAND",
    "rank": 4,
    "img": "/image/game/genshin/weapon/UI_EquipIcon_Sword_Purewill.png"
  },
  {
    "id": 11429,
    "name": "Lame du Narzissenkreuz",
    "type_main": "ITEM_WEAPON",
    "type_sub": "WEAPON_SWORD_ONE_HAND",
    "rank": 4,
    "img": "/image/game/genshin/weapon/UI_EquipIcon_Sword_Purewill.png"
  },
  {
    "id": 11431,
    "name": "Flûte d'ezpitzal",
    "type_main": "ITEM_WEAPON",
    "type_sub": "WEAPON_SWORD_ONE_HAND",
    "rank": 4,
    "img": "/image/game/genshin/weapon/UI_EquipIcon_Sword_Isikhulu.png"
  },
  {
    "id": 11501,
    "name": "Épée du faucon",
    "type_main": "ITEM_WEAPON",
    "type_sub": "WEAPON_SWORD_ONE_HAND",
    "rank": 5,
    "img": "/image/game/genshin/weapon/UI_EquipIcon_Sword_Falcon.png"
  },
  {
    "id": 11502,
    "name": "Lame de la Voûte d'Azur",
    "type_main": "ITEM_WEAPON",
    "type_sub": "WEAPON_SWORD_ONE_HAND",
    "rank": 5,
    "img": "/image/game/genshin/weapon/UI_EquipIcon_Sword_Dvalin.png"
  },
  {
    "id": 11503,
    "name": "Serment de la liberté",
    "type_main": "ITEM_WEAPON",
    "type_sub": "WEAPON_SWORD_ONE_HAND",
    "rank": 5,
    "img": "/image/game/genshin/weapon/UI_EquipIcon_Sword_Widsith.png"
  },
  {
    "id": 11504,
    "name": "Tranche-sommets",
    "type_main": "ITEM_WEAPON",
    "type_sub": "WEAPON_SWORD_ONE_HAND",
    "rank": 5,
    "img": "/image/game/genshin/weapon/UI_EquipIcon_Sword_Kunwu.png"
  },
  {
    "id": 11505,
    "name": "Coupeur de jade primordial",
    "type_main": "ITEM_WEAPON",
    "type_sub": "WEAPON_SWORD_ONE_HAND",
    "rank": 5,
    "img": "/image/game/genshin/weapon/UI_EquipIcon_Sword_Morax.png"
  },
  {
    "id": 11506,
    "name": "Coupeur de jade primordial",
    "type_main": "ITEM_WEAPON",
    "type_sub": "WEAPON_SWORD_ONE_HAND",
    "rank": 5,
    "img": "/image/game/genshin/weapon/UI_EquipIcon_Sword_Blunt.png"
  },
  {
    "id": 11507,
    "name": "Destin du néant",
    "type_main": "ITEM_WEAPON",
    "type_sub": "WEAPON_SWORD_ONE_HAND",
    "rank": 5,
    "img": "/image/game/genshin/weapon/UI_EquipIcon_Sword_Blunt.png"
  },
  {
    "id": 11508,
    "name": "N/A",
    "type_main": "ITEM_WEAPON",
    "type_sub": "WEAPON_SWORD_ONE_HAND",
    "rank": 5,
    "img": "/image/game/genshin/weapon/UI_EquipIcon_Sword_Blunt.png"
  },
  {
    "id": 11509,
    "name": "Reflet de tranche-brume",
    "type_main": "ITEM_WEAPON",
    "type_sub": "WEAPON_SWORD_ONE_HAND",
    "rank": 5,
    "img": "/image/game/genshin/weapon/UI_EquipIcon_Sword_Narukami.png"
  },
  {
    "id": 11510,
    "name": "Lune ondulante de Futsu",
    "type_main": "ITEM_WEAPON",
    "type_sub": "WEAPON_SWORD_ONE_HAND",
    "rank": 5,
    "img": "/image/game/genshin/weapon/UI_EquipIcon_Sword_Amenoma.png"
  },
  {
    "id": 11511,
    "name": "Clé de Khaj-Nisut",
    "type_main": "ITEM_WEAPON",
    "type_sub": "WEAPON_SWORD_ONE_HAND",
    "rank": 5,
    "img": "/image/game/genshin/weapon/UI_EquipIcon_Sword_Deshret.png"
  },
  {
    "id": 11512,
    "name": "Lumière d'incision foliaire",
    "type_main": "ITEM_WEAPON",
    "type_sub": "WEAPON_SWORD_ONE_HAND",
    "rank": 5,
    "img": "/image/game/genshin/weapon/UI_EquipIcon_Sword_Ayus.png"
  },
  {
    "id": 11513,
    "name": "Splendeur des eaux calmes",
    "type_main": "ITEM_WEAPON",
    "type_sub": "WEAPON_SWORD_ONE_HAND",
    "rank": 5,
    "img": "/image/game/genshin/weapon/UI_EquipIcon_Sword_Regalis.png"
  },
  {
    "id": 11514,
    "name": "Uraku Misugiri",
    "type_main": "ITEM_WEAPON",
    "type_sub": "WEAPON_SWORD_ONE_HAND",
    "rank": 5,
    "img": "/image/game/genshin/weapon/UI_EquipIcon_Sword_Needle.png"
  },
  {
    "id": 11515,
    "name": "Absolution",
    "type_main": "ITEM_WEAPON",
    "type_sub": "WEAPON_SWORD_ONE_HAND",
    "rank": 5,
    "img": "/image/game/genshin/weapon/UI_EquipIcon_Sword_Estoc.png"
  },
  {
    "id": 12101,
    "name": "Épée d'entraînement",
    "type_main": "ITEM_WEAPON",
    "type_sub": "WEAPON_CLAYMORE",
    "rank": 1,
    "img": "/image/game/genshin/weapon/UI_EquipIcon_Claymore_Aniki.png"
  },
  {
    "id": 12201,
    "name": "Lame du mercenaire",
    "type_main": "ITEM_WEAPON",
    "type_sub": "WEAPON_CLAYMORE",
    "rank": 2,
    "img": "/image/game/genshin/weapon/UI_EquipIcon_Claymore_Oyaji.png"
  },
  {
    "id": 12301,
    "name": "Ombre ferreuse",
    "type_main": "ITEM_WEAPON",
    "type_sub": "WEAPON_CLAYMORE",
    "rank": 3,
    "img": "/image/game/genshin/weapon/UI_EquipIcon_Claymore_Glaive.png"
  },
  {
    "id": 12302,
    "name": "Épée sanglante",
    "type_main": "ITEM_WEAPON",
    "type_sub": "WEAPON_CLAYMORE",
    "rank": 3,
    "img": "/image/game/genshin/weapon/UI_EquipIcon_Claymore_Siegfry.png"
  },
  {
    "id": 12303,
    "name": "Grande épée en fer blanc",
    "type_main": "ITEM_WEAPON",
    "type_sub": "WEAPON_CLAYMORE",
    "rank": 3,
    "img": "/image/game/genshin/weapon/UI_EquipIcon_Claymore_Tin.png"
  },
  {
    "id": 12304,
    "name": "Grande épée en quartz",
    "type_main": "ITEM_WEAPON",
    "type_sub": "WEAPON_CLAYMORE",
    "rank": 3,
    "img": ""
  },
  {
    "id": 12305,
    "name": "Épée de la raison",
    "type_main": "ITEM_WEAPON",
    "type_sub": "WEAPON_CLAYMORE",
    "rank": 3,
    "img": "/image/game/genshin/weapon/UI_EquipIcon_Claymore_Reasoning.png"
  },
  {
    "id": 12306,
    "name": "Grande épée céleste",
    "type_main": "ITEM_WEAPON",
    "type_sub": "WEAPON_CLAYMORE",
    "rank": 3,
    "img": "/image/game/genshin/weapon/UI_EquipIcon_Claymore_Mitsurugi.png"
  },
  {
    "id": 12401,
    "name": "Espadon de Favonius",
    "type_main": "ITEM_WEAPON",
    "type_sub": "WEAPON_CLAYMORE",
    "rank": 4,
    "img": "/image/game/genshin/weapon/UI_EquipIcon_Claymore_Zephyrus.png"
  },
  {
    "id": 12402,
    "name": "Épée-horloge",
    "type_main": "ITEM_WEAPON",
    "type_sub": "WEAPON_CLAYMORE",
    "rank": 4,
    "img": "/image/game/genshin/weapon/UI_EquipIcon_Claymore_Troupe.png"
  },
  {
    "id": 12403,
    "name": "Espadon rituel",
    "type_main": "ITEM_WEAPON",
    "type_sub": "WEAPON_CLAYMORE",
    "rank": 4,
    "img": "/image/game/genshin/weapon/UI_EquipIcon_Claymore_Fossil.png"
  },
  {
    "id": 12404,
    "name": "Espadon royal",
    "type_main": "ITEM_WEAPON",
    "type_sub": "WEAPON_CLAYMORE",
    "rank": 4,
    "img": "/image/game/genshin/weapon/UI_EquipIcon_Claymore_Theocrat.png"
  },
  {
    "id": 12405,
    "name": "Fluorescence",
    "type_main": "ITEM_WEAPON",
    "type_sub": "WEAPON_CLAYMORE",
    "rank": 4,
    "img": "/image/game/genshin/weapon/UI_EquipIcon_Claymore_Perdue.png"
  },
  {
    "id": 12406,
    "name": "Espadon (prototype)",
    "type_main": "ITEM_WEAPON",
    "type_sub": "WEAPON_CLAYMORE",
    "rank": 4,
    "img": "/image/game/genshin/weapon/UI_EquipIcon_Claymore_Proto.png"
  },
  {
    "id": 12407,
    "name": "Ombre immaculée",
    "type_main": "ITEM_WEAPON",
    "type_sub": "WEAPON_CLAYMORE",
    "rank": 4,
    "img": "/image/game/genshin/weapon/UI_EquipIcon_Claymore_Exotic.png"
  },
  {
    "id": 12408,
    "name": "Trancheuse de Rochenoire",
    "type_main": "ITEM_WEAPON",
    "type_sub": "WEAPON_CLAYMORE",
    "rank": 4,
    "img": "/image/game/genshin/weapon/UI_EquipIcon_Claymore_Blackrock.png"
  },
  {
    "id": 12409,
    "name": "Ossature du dragon",
    "type_main": "ITEM_WEAPON",
    "type_sub": "WEAPON_CLAYMORE",
    "rank": 4,
    "img": "/image/game/genshin/weapon/UI_EquipIcon_Claymore_Kione.png"
  },
  {
    "id": 12410,
    "name": "Épée antique des Millelithes",
    "type_main": "ITEM_WEAPON",
    "type_sub": "WEAPON_CLAYMORE",
    "rank": 4,
    "img": "/image/game/genshin/weapon/UI_EquipIcon_Claymore_Lapis.png"
  },
  {
    "id": 12411,
    "name": "Tombe-neige en argétoile",
    "type_main": "ITEM_WEAPON",
    "type_sub": "WEAPON_CLAYMORE",
    "rank": 4,
    "img": "/image/game/genshin/weapon/UI_EquipIcon_Claymore_Dragonfell.png"
  },
  {
    "id": 12412,
    "name": "Illustre seigneur des mers",
    "type_main": "ITEM_WEAPON",
    "type_sub": "WEAPON_CLAYMORE",
    "rank": 4,
    "img": "/image/game/genshin/weapon/UI_EquipIcon_Claymore_MillenniaTuna.png"
  },
  {
    "id": 12414,
    "name": "Espadon de Nagamasa",
    "type_main": "ITEM_WEAPON",
    "type_sub": "WEAPON_CLAYMORE",
    "rank": 4,
    "img": "/image/game/genshin/weapon/UI_EquipIcon_Claymore_Bakufu.png"
  },
  {
    "id": 12415,
    "name": "Aigue-marine de Makhaira",
    "type_main": "ITEM_WEAPON",
    "type_sub": "WEAPON_CLAYMORE",
    "rank": 4,
    "img": "/image/game/genshin/weapon/UI_EquipIcon_Claymore_Pleroma.png"
  },
  {
    "id": 12416,
    "name": "Akuoumaru",
    "type_main": "ITEM_WEAPON",
    "type_sub": "WEAPON_CLAYMORE",
    "rank": 4,
    "img": "/image/game/genshin/weapon/UI_EquipIcon_Claymore_Maria.png"
  },
  {
    "id": 12417,
    "name": "Apparat de la forêt",
    "type_main": "ITEM_WEAPON",
    "type_sub": "WEAPON_CLAYMORE",
    "rank": 4,
    "img": "/image/game/genshin/weapon/UI_EquipIcon_Claymore_Arakalari.png"
  },
  {
    "id": 12418,
    "name": "Fleur de mailles",
    "type_main": "ITEM_WEAPON",
    "type_sub": "WEAPON_CLAYMORE",
    "rank": 4,
    "img": "/image/game/genshin/weapon/UI_EquipIcon_Claymore_Fleurfair.png"
  },
  {
    "id": 12424,
    "name": "Bâton bavard",
    "type_main": "ITEM_WEAPON",
    "type_sub": "WEAPON_CLAYMORE",
    "rank": 4,
    "img": "/image/game/genshin/weapon/UI_EquipIcon_Claymore_BeastTamer.png"
  },
  {
    "id": 12425,
    "name": "Ombre tidale",
    "type_main": "ITEM_WEAPON",
    "type_sub": "WEAPON_CLAYMORE",
    "rank": 4,
    "img": "/image/game/genshin/weapon/UI_EquipIcon_Claymore_Vorpal.png"
  },
  {
    "id": 12426,
    "name": "« Méga épée magique du suzerain ultime »",
    "type_main": "ITEM_WEAPON",
    "type_sub": "WEAPON_CLAYMORE",
    "rank": 4,
    "img": "/image/game/genshin/weapon/UI_EquipIcon_Claymore_Champion.png"
  },
  {
    "id": 12427,
    "name": "Scie électrique portative",
    "type_main": "ITEM_WEAPON",
    "type_sub": "WEAPON_CLAYMORE",
    "rank": 4,
    "img": "/image/game/genshin/weapon/UI_EquipIcon_Claymore_Mechanic.png"
  },
  {
    "id": 12431,
    "name": "Trembleur de terre",
    "type_main": "ITEM_WEAPON",
    "type_sub": "WEAPON_CLAYMORE",
    "rank": 4,
    "img": "/image/game/genshin/weapon/UI_EquipIcon_Claymore_Isikhulu.png"
  },
  {
    "id": 12501,
    "name": "Fierté de la Voûte d'Azur",
    "type_main": "ITEM_WEAPON",
    "type_sub": "WEAPON_CLAYMORE",
    "rank": 5,
    "img": "/image/game/genshin/weapon/UI_EquipIcon_Claymore_Dvalin.png"
  },
  {
    "id": 12502,
    "name": "Mort-du-loup",
    "type_main": "ITEM_WEAPON",
    "type_sub": "WEAPON_CLAYMORE",
    "rank": 5,
    "img": "/image/game/genshin/weapon/UI_EquipIcon_Claymore_Wolfmound.png"
  },
  {
    "id": 12503,
    "name": "Ode au chant du vent",
    "type_main": "ITEM_WEAPON",
    "type_sub": "WEAPON_CLAYMORE",
    "rank": 5,
    "img": "/image/game/genshin/weapon/UI_EquipIcon_Claymore_Widsith.png"
  },
  {
    "id": 12504,
    "name": "Lame brute",
    "type_main": "ITEM_WEAPON",
    "type_sub": "WEAPON_CLAYMORE",
    "rank": 5,
    "img": "/image/game/genshin/weapon/UI_EquipIcon_Claymore_Kunwu.png"
  },
  {
    "id": 12505,
    "name": "Grande épée de jade primordial",
    "type_main": "ITEM_WEAPON",
    "type_sub": "WEAPON_CLAYMORE",
    "rank": 5,
    "img": "/image/game/genshin/weapon/UI_EquipIcon_Claymore_Aniki.png"
  },
  {
    "id": 12506,
    "name": "Histoire secondaire",
    "type_main": "ITEM_WEAPON",
    "type_sub": "WEAPON_CLAYMORE",
    "rank": 5,
    "img": "/image/game/genshin/weapon/UI_EquipIcon_Claymore_Aniki.png"
  },
  {
    "id": 12508,
    "name": "N/A",
    "type_main": "ITEM_WEAPON",
    "type_sub": "WEAPON_CLAYMORE",
    "rank": 5,
    "img": "/image/game/genshin/weapon/UI_EquipIcon_Claymore_Aniki.png"
  },
  {
    "id": 12509,
    "name": "N/A",
    "type_main": "ITEM_WEAPON",
    "type_sub": "WEAPON_CLAYMORE",
    "rank": 5,
    "img": "/image/game/genshin/weapon/UI_EquipIcon_Claymore_Aniki.png"
  },
  {
    "id": 12510,
    "name": "Brise-pierre de corne rouge",
    "type_main": "ITEM_WEAPON",
    "type_sub": "WEAPON_CLAYMORE",
    "rank": 5,
    "img": "/image/game/genshin/weapon/UI_EquipIcon_Claymore_Itadorimaru.png"
  },
  {
    "id": 12511,
    "name": "Balise de la mer de roseaux",
    "type_main": "ITEM_WEAPON",
    "type_sub": "WEAPON_CLAYMORE",
    "rank": 5,
    "img": "/image/game/genshin/weapon/UI_EquipIcon_Claymore_Deshret.png"
  },
  {
    "id": 12512,
    "name": "Condamneur",
    "type_main": "ITEM_WEAPON",
    "type_sub": "WEAPON_CLAYMORE",
    "rank": 5,
    "img": "/image/game/genshin/weapon/UI_EquipIcon_Claymore_GoldenVerdict.png"
  },
  {
    "id": 12513,
    "name": "Croc du roi de la montagne",
    "type_main": "ITEM_WEAPON",
    "type_sub": "WEAPON_CLAYMORE",
    "rank": 5,
    "img": "/image/game/genshin/weapon/UI_EquipIcon_Claymore_EmeraldSword.png"
  },
  {
    "id": 13101,
    "name": "Lance du débutant",
    "type_main": "ITEM_WEAPON",
    "type_sub": "WEAPON_POLE",
    "rank": 1,
    "img": "/image/game/genshin/weapon/UI_EquipIcon_Pole_Gewalt.png"
  },
  {
    "id": 13201,
    "name": "Pointe de fer",
    "type_main": "ITEM_WEAPON",
    "type_sub": "WEAPON_POLE",
    "rank": 2,
    "img": "/image/game/genshin/weapon/UI_EquipIcon_Pole_Rod.png"
  },
  {
    "id": 13301,
    "name": "Pampille blanche",
    "type_main": "ITEM_WEAPON",
    "type_sub": "WEAPON_POLE",
    "rank": 3,
    "img": "/image/game/genshin/weapon/UI_EquipIcon_Pole_Ruby.png"
  },
  {
    "id": 13302,
    "name": "Hallebarde",
    "type_main": "ITEM_WEAPON",
    "type_sub": "WEAPON_POLE",
    "rank": 3,
    "img": "/image/game/genshin/weapon/UI_EquipIcon_Pole_Halberd.png"
  },
  {
    "id": 13303,
    "name": "Pampille noire",
    "type_main": "ITEM_WEAPON",
    "type_sub": "WEAPON_POLE",
    "rank": 3,
    "img": "/image/game/genshin/weapon/UI_EquipIcon_Pole_Noire.png"
  },
  {
    "id": 13304,
    "name": "La hampe",
    "type_main": "ITEM_WEAPON",
    "type_sub": "WEAPON_POLE",
    "rank": 3,
    "img": ""
  },
  {
    "id": 13401,
    "name": "Fléau du dragon",
    "type_main": "ITEM_WEAPON",
    "type_sub": "WEAPON_POLE",
    "rank": 4,
    "img": "/image/game/genshin/weapon/UI_EquipIcon_Pole_Stardust.png"
  },
  {
    "id": 13402,
    "name": "Guisarme stellaire (prototype)",
    "type_main": "ITEM_WEAPON",
    "type_sub": "WEAPON_POLE",
    "rank": 4,
    "img": "/image/game/genshin/weapon/UI_EquipIcon_Pole_Proto.png"
  },
  {
    "id": 13403,
    "name": "Pique du croissant de lune",
    "type_main": "ITEM_WEAPON",
    "type_sub": "WEAPON_POLE",
    "rank": 4,
    "img": "/image/game/genshin/weapon/UI_EquipIcon_Pole_Exotic.png"
  },
  {
    "id": 13404,
    "name": "Lance de Rochenoire",
    "type_main": "ITEM_WEAPON",
    "type_sub": "WEAPON_POLE",
    "rank": 4,
    "img": "/image/game/genshin/weapon/UI_EquipIcon_Pole_Blackrock.png"
  },
  {
    "id": 13405,
    "name": "Scion de la victoire",
    "type_main": "ITEM_WEAPON",
    "type_sub": "WEAPON_POLE",
    "rank": 4,
    "img": "/image/game/genshin/weapon/UI_EquipIcon_Pole_Gladiator.png"
  },
  {
    "id": 13406,
    "name": "Lance des Millelithes",
    "type_main": "ITEM_WEAPON",
    "type_sub": "WEAPON_POLE",
    "rank": 4,
    "img": "/image/game/genshin/weapon/UI_EquipIcon_Pole_Lapis.png"
  },
  {
    "id": 13407,
    "name": "Lance de Favonius",
    "type_main": "ITEM_WEAPON",
    "type_sub": "WEAPON_POLE",
    "rank": 4,
    "img": "/image/game/genshin/weapon/UI_EquipIcon_Pole_Zephyrus.png"
  },
  {
    "id": 13408,
    "name": "Lance de chasse royale",
    "type_main": "ITEM_WEAPON",
    "type_sub": "WEAPON_POLE",
    "rank": 4,
    "img": "/image/game/genshin/weapon/UI_EquipIcon_Pole_Theocrat.png"
  },
  {
    "id": 13409,
    "name": "Lance Dosdragon",
    "type_main": "ITEM_WEAPON",
    "type_sub": "WEAPON_POLE",
    "rank": 4,
    "img": "/image/game/genshin/weapon/UI_EquipIcon_Pole_Everfrost.png"
  },
  {
    "id": 13414,
    "name": "Lance en croix de Kitain",
    "type_main": "ITEM_WEAPON",
    "type_sub": "WEAPON_POLE",
    "rank": 4,
    "img": "/image/game/genshin/weapon/UI_EquipIcon_Pole_Bakufu.png"
  },
  {
    "id": 13415,
    "name": "« La prise »",
    "type_main": "ITEM_WEAPON",
    "type_sub": "WEAPON_POLE",
    "rank": 4,
    "img": "/image/game/genshin/weapon/UI_EquipIcon_Pole_Mori.png"
  },
  {
    "id": 13416,
    "name": "Aileron de brise-vagues",
    "type_main": "ITEM_WEAPON",
    "type_sub": "WEAPON_POLE",
    "rank": 4,
    "img": "/image/game/genshin/weapon/UI_EquipIcon_Pole_Maria.png"
  },
  {
    "id": 13417,
    "name": "Perce-lune",
    "type_main": "ITEM_WEAPON",
    "type_sub": "WEAPON_POLE",
    "rank": 4,
    "img": "/image/game/genshin/weapon/UI_EquipIcon_Pole_Arakalari.png"
  },
  {
    "id": 13419,
    "name": "Lance du vent saisonnier",
    "type_main": "ITEM_WEAPON",
    "type_sub": "WEAPON_POLE",
    "rank": 4,
    "img": "/image/game/genshin/weapon/UI_EquipIcon_Pole_Windvane.png"
  },
  {
    "id": 13424,
    "name": "Ballade des fjords",
    "type_main": "ITEM_WEAPON",
    "type_sub": "WEAPON_POLE",
    "rank": 4,
    "img": "/image/game/genshin/weapon/UI_EquipIcon_Pole_Shanty.png"
  },
  {
    "id": 13425,
    "name": "Récompense légitime",
    "type_main": "ITEM_WEAPON",
    "type_sub": "WEAPON_POLE",
    "rank": 4,
    "img": "/image/game/genshin/weapon/UI_EquipIcon_Pole_Vorpal.png"
  },
  {
    "id": 13426,
    "name": "Dialogues des sages du désert",
    "type_main": "ITEM_WEAPON",
    "type_sub": "WEAPON_POLE",
    "rank": 4,
    "img": "/image/game/genshin/weapon/UI_EquipIcon_Pole_Caduceus.png"
  },
  {
    "id": 13427,
    "name": "Foret de prospecteur",
    "type_main": "ITEM_WEAPON",
    "type_sub": "WEAPON_POLE",
    "rank": 4,
    "img": "/image/game/genshin/weapon/UI_EquipIcon_Pole_Mechanic.png"
  },
  {
    "id": 13431,
    "name": "Trace d'arc-en-ciel",
    "type_main": "ITEM_WEAPON",
    "type_sub": "WEAPON_POLE",
    "rank": 4,
    "img": "/image/game/genshin/weapon/UI_EquipIcon_Pole_Isikhulu.png"
  },
  {
    "id": 13501,
    "name": "Bâton de Homa",
    "type_main": "ITEM_WEAPON",
    "type_sub": "WEAPON_POLE",
    "rank": 5,
    "img": "/image/game/genshin/weapon/UI_EquipIcon_Pole_Homa.png"
  },
  {
    "id": 13502,
    "name": "Berge de la Voûte d'Azur",
    "type_main": "ITEM_WEAPON",
    "type_sub": "WEAPON_POLE",
    "rank": 5,
    "img": "/image/game/genshin/weapon/UI_EquipIcon_Pole_Dvalin.png"
  },
  {
    "id": 13503,
    "name": "N/A",
    "type_main": "ITEM_WEAPON",
    "type_sub": "WEAPON_POLE",
    "rank": 5,
    "img": "/image/game/genshin/weapon/UI_EquipIcon_Pole_Gewalt.png"
  },
  {
    "id": 13504,
    "name": "Perceur prismatique",
    "type_main": "ITEM_WEAPON",
    "type_sub": "WEAPON_POLE",
    "rank": 5,
    "img": "/image/game/genshin/weapon/UI_EquipIcon_Pole_Kunwu.png"
  },
  {
    "id": 13505,
    "name": "Lance de jade ailée",
    "type_main": "ITEM_WEAPON",
    "type_sub": "WEAPON_POLE",
    "rank": 5,
    "img": "/image/game/genshin/weapon/UI_EquipIcon_Pole_Morax.png"
  },
  {
    "id": 13506,
    "name": "Déicide",
    "type_main": "ITEM_WEAPON",
    "type_sub": "WEAPON_POLE",
    "rank": 5,
    "img": "/image/game/genshin/weapon/UI_EquipIcon_Pole_Gewalt.png"
  },
  {
    "id": 13507,
    "name": "Étouffeur de calamités",
    "type_main": "ITEM_WEAPON",
    "type_sub": "WEAPON_POLE",
    "rank": 5,
    "img": "/image/game/genshin/weapon/UI_EquipIcon_Pole_Santika.png"
  },
  {
    "id": 13509,
    "name": "Lumière du faucheur",
    "type_main": "ITEM_WEAPON",
    "type_sub": "WEAPON_POLE",
    "rank": 5,
    "img": "/image/game/genshin/weapon/UI_EquipIcon_Pole_Narukami.png"
  },
  {
    "id": 13511,
    "name": "Bâton des sables écarlates",
    "type_main": "ITEM_WEAPON",
    "type_sub": "WEAPON_POLE",
    "rank": 5,
    "img": "/image/game/genshin/weapon/UI_EquipIcon_Pole_Deshret.png"
  },
  {
    "id": 13512,
    "name": "Semblance de la lune écarlate",
    "type_main": "ITEM_WEAPON",
    "type_sub": "WEAPON_POLE",
    "rank": 5,
    "img": "/image/game/genshin/weapon/UI_EquipIcon_Pole_BloodMoon.png"
  },
  {
    "id": 13513,
    "name": "Élégie de Lumidouce",
    "type_main": "ITEM_WEAPON",
    "type_sub": "WEAPON_POLE",
    "rank": 5,
    "img": "/image/game/genshin/weapon/UI_EquipIcon_Pole_Muguet.png"
  },
  {
    "id": 14101,
    "name": "Notes de l'apprenti",
    "type_main": "ITEM_WEAPON",
    "type_sub": "WEAPON_CATALYST",
    "rank": 1,
    "img": "/image/game/genshin/weapon/UI_EquipIcon_Catalyst_Apprentice.png"
  },
  {
    "id": 14201,
    "name": "Grimoire de poche",
    "type_main": "ITEM_WEAPON",
    "type_sub": "WEAPON_CATALYST",
    "rank": 2,
    "img": "/image/game/genshin/weapon/UI_EquipIcon_Catalyst_Pocket.png"
  },
  {
    "id": 14301,
    "name": "Guide de magie",
    "type_main": "ITEM_WEAPON",
    "type_sub": "WEAPON_CATALYST",
    "rank": 3,
    "img": "/image/game/genshin/weapon/UI_EquipIcon_Catalyst_Intro.png"
  },
  {
    "id": 14302,
    "name": "Histoire des chasseurs de dragon",
    "type_main": "ITEM_WEAPON",
    "type_sub": "WEAPON_CATALYST",
    "rank": 3,
    "img": "/image/game/genshin/weapon/UI_EquipIcon_Catalyst_Pulpfic.png"
  },
  {
    "id": 14303,
    "name": "Conte d'un autre monde",
    "type_main": "ITEM_WEAPON",
    "type_sub": "WEAPON_CATALYST",
    "rank": 3,
    "img": "/image/game/genshin/weapon/UI_EquipIcon_Catalyst_Lightnov.png"
  },
  {
    "id": 14304,
    "name": "Orbe jadien",
    "type_main": "ITEM_WEAPON",
    "type_sub": "WEAPON_CATALYST",
    "rank": 3,
    "img": "/image/game/genshin/weapon/UI_EquipIcon_Catalyst_Jade.png"
  },
  {
    "id": 14305,
    "name": "Néphrite jumelle",
    "type_main": "ITEM_WEAPON",
    "type_sub": "WEAPON_CATALYST",
    "rank": 3,
    "img": "/image/game/genshin/weapon/UI_EquipIcon_Catalyst_Phoney.png"
  },
  {
    "id": 14306,
    "name": "Catalyseur en ambre",
    "type_main": "ITEM_WEAPON",
    "type_sub": "WEAPON_CATALYST",
    "rank": 3,
    "img": ""
  },
  {
    "id": 14401,
    "name": "Code de Favonius",
    "type_main": "ITEM_WEAPON",
    "type_sub": "WEAPON_CATALYST",
    "rank": 4,
    "img": "/image/game/genshin/weapon/UI_EquipIcon_Catalyst_Zephyrus.png"
  },
  {
    "id": 14402,
    "name": "Mouvement vagabond",
    "type_main": "ITEM_WEAPON",
    "type_sub": "WEAPON_CATALYST",
    "rank": 4,
    "img": "/image/game/genshin/weapon/UI_EquipIcon_Catalyst_Troupe.png"
  },
  {
    "id": 14403,
    "name": "Mémoires de rituels",
    "type_main": "ITEM_WEAPON",
    "type_sub": "WEAPON_CATALYST",
    "rank": 4,
    "img": "/image/game/genshin/weapon/UI_EquipIcon_Catalyst_Fossil.png"
  },
  {
    "id": 14404,
    "name": "Grimoire royal",
    "type_main": "ITEM_WEAPON",
    "type_sub": "WEAPON_CATALYST",
    "rank": 4,
    "img": "/image/game/genshin/weapon/UI_EquipIcon_Catalyst_Theocrat.png"
  },
  {
    "id": 14405,
    "name": "Perle solaire",
    "type_main": "ITEM_WEAPON",
    "type_sub": "WEAPON_CATALYST",
    "rank": 4,
    "img": "/image/game/genshin/weapon/UI_EquipIcon_Catalyst_Resurrection.png"
  },
  {
    "id": 14406,
    "name": "Malice (prototype)",
    "type_main": "ITEM_WEAPON",
    "type_sub": "WEAPON_CATALYST",
    "rank": 4,
    "img": "/image/game/genshin/weapon/UI_EquipIcon_Catalyst_Proto.png"
  },
  {
    "id": 14407,
    "name": "Atlas des terres et des mers",
    "type_main": "ITEM_WEAPON",
    "type_sub": "WEAPON_CATALYST",
    "rank": 4,
    "img": "/image/game/genshin/weapon/UI_EquipIcon_Catalyst_Exotic.png"
  },
  {
    "id": 14408,
    "name": "Agate de Rochenoire",
    "type_main": "ITEM_WEAPON",
    "type_sub": "WEAPON_CATALYST",
    "rank": 4,
    "img": "/image/game/genshin/weapon/UI_EquipIcon_Catalyst_Blackrock.png"
  },
  {
    "id": 14409,
    "name": "Œil de la perception",
    "type_main": "ITEM_WEAPON",
    "type_sub": "WEAPON_CATALYST",
    "rank": 4,
    "img": "/image/game/genshin/weapon/UI_EquipIcon_Catalyst_Truelens.png"
  },
  {
    "id": 14410,
    "name": "Vins et chants",
    "type_main": "ITEM_WEAPON",
    "type_sub": "WEAPON_CATALYST",
    "rank": 4,
    "img": "/image/game/genshin/weapon/UI_EquipIcon_Catalyst_Outlaw.png"
  },
  {
    "id": 14411,
    "name": "N/A",
    "type_main": "ITEM_WEAPON",
    "type_sub": "WEAPON_CATALYST",
    "rank": 4,
    "img": "/image/game/genshin/weapon/UI_EquipIcon_Catalyst_Apprentice.png"
  },
  {
    "id": 14412,
    "name": "Fruit du permafrost",
    "type_main": "ITEM_WEAPON",
    "type_sub": "WEAPON_CATALYST",
    "rank": 4,
    "img": "/image/game/genshin/weapon/UI_EquipIcon_Catalyst_Everfrost.png"
  },
  {
    "id": 14413,
    "name": "Contes de Dodoco",
    "type_main": "ITEM_WEAPON",
    "type_sub": "WEAPON_CATALYST",
    "rank": 4,
    "img": "/image/game/genshin/weapon/UI_EquipIcon_Catalyst_Ludiharpastum.png"
  },
  {
    "id": 14414,
    "name": "Anneau des Hakushin",
    "type_main": "ITEM_WEAPON",
    "type_sub": "WEAPON_CATALYST",
    "rank": 4,
    "img": "/image/game/genshin/weapon/UI_EquipIcon_Catalyst_Bakufu.png"
  },
  {
    "id": 14415,
    "name": "Œil d'assermentation",
    "type_main": "ITEM_WEAPON",
    "type_sub": "WEAPON_CATALYST",
    "rank": 4,
    "img": "/image/game/genshin/weapon/UI_EquipIcon_Catalyst_Jyanome.png"
  },
  {
    "id": 14416,
    "name": "Étoile du soir errante",
    "type_main": "ITEM_WEAPON",
    "type_sub": "WEAPON_CATALYST",
    "rank": 4,
    "img": "/image/game/genshin/weapon/UI_EquipIcon_Catalyst_Pleroma.png"
  },
  {
    "id": 14417,
    "name": "Le fruit de l'accomplissement",
    "type_main": "ITEM_WEAPON",
    "type_sub": "WEAPON_CATALYST",
    "rank": 4,
    "img": "/image/game/genshin/weapon/UI_EquipIcon_Catalyst_Arakalari.png"
  },
  {
    "id": 14424,
    "name": "Jade sacrificiel",
    "type_main": "ITEM_WEAPON",
    "type_sub": "WEAPON_CATALYST",
    "rank": 4,
    "img": "/image/game/genshin/weapon/UI_EquipIcon_Catalyst_Yue.png"
  },
  {
    "id": 14425,
    "name": "Pureté fluide",
    "type_main": "ITEM_WEAPON",
    "type_sub": "WEAPON_CATALYST",
    "rank": 4,
    "img": "/image/game/genshin/weapon/UI_EquipIcon_Catalyst_Vorpal.png"
  },
  {
    "id": 14426,
    "name": "Ballade d'un azur infini",
    "type_main": "ITEM_WEAPON",
    "type_sub": "WEAPON_CATALYST",
    "rank": 4,
    "img": "/image/game/genshin/weapon/UI_EquipIcon_Catalyst_DandelionPoem.png"
  },
  {
    "id": 14427,
    "name": "Corne à boire cendrée",
    "type_main": "ITEM_WEAPON",
    "type_sub": "WEAPON_CATALYST",
    "rank": 4,
    "img": "/image/game/genshin/weapon/UI_EquipIcon_Catalyst_ConchSprayer.png"
  },
  {
    "id": 14431,
    "name": "Anneau de Yaxche",
    "type_main": "ITEM_WEAPON",
    "type_sub": "WEAPON_CATALYST",
    "rank": 4,
    "img": "/image/game/genshin/weapon/UI_EquipIcon_Catalyst_Isikhulu.png"
  },
  {
    "id": 14501,
    "name": "Atlas de la Voûte d'Azur",
    "type_main": "ITEM_WEAPON",
    "type_sub": "WEAPON_CATALYST",
    "rank": 5,
    "img": "/image/game/genshin/weapon/UI_EquipIcon_Catalyst_Dvalin.png"
  },
  {
    "id": 14502,
    "name": "L'origine des Quatre Vents",
    "type_main": "ITEM_WEAPON",
    "type_sub": "WEAPON_CATALYST",
    "rank": 5,
    "img": "/image/game/genshin/weapon/UI_EquipIcon_Catalyst_Fourwinds.png"
  },
  {
    "id": 14503,
    "name": "Ballade perdue",
    "type_main": "ITEM_WEAPON",
    "type_sub": "WEAPON_CATALYST",
    "rank": 5,
    "img": "/image/game/genshin/weapon/UI_EquipIcon_Catalyst_Apprentice.png"
  },
  {
    "id": 14504,
    "name": "Chaînes mortelles",
    "type_main": "ITEM_WEAPON",
    "type_sub": "WEAPON_CATALYST",
    "rank": 5,
    "img": "/image/game/genshin/weapon/UI_EquipIcon_Catalyst_Kunwu.png"
  },
  {
    "id": 14505,
    "name": "Splendeur de l'azur",
    "type_main": "ITEM_WEAPON",
    "type_sub": "WEAPON_CATALYST",
    "rank": 5,
    "img": "/image/game/genshin/weapon/UI_EquipIcon_Catalyst_Morax.png"
  },
  {
    "id": 14506,
    "name": "Lueur de la lune éternelle",
    "type_main": "ITEM_WEAPON",
    "type_sub": "WEAPON_CATALYST",
    "rank": 5,
    "img": "/image/game/genshin/weapon/UI_EquipIcon_Catalyst_Kaleido.png"
  },
  {
    "id": 14508,
    "name": "N/A",
    "type_main": "ITEM_WEAPON",
    "type_sub": "WEAPON_CATALYST",
    "rank": 5,
    "img": "/image/game/genshin/weapon/UI_EquipIcon_Catalyst_Apprentice.png"
  },
  {
    "id": 14509,
    "name": "Vérité de Kagura",
    "type_main": "ITEM_WEAPON",
    "type_sub": "WEAPON_CATALYST",
    "rank": 5,
    "img": "/image/game/genshin/weapon/UI_EquipIcon_Catalyst_Narukami.png"
  },
  {
    "id": 14511,
    "name": "Mille rêves flottants",
    "type_main": "ITEM_WEAPON",
    "type_sub": "WEAPON_CATALYST",
    "rank": 5,
    "img": "/image/game/genshin/weapon/UI_EquipIcon_Catalyst_Ayus.png"
  },
  {
    "id": 14512,
    "name": "Mémoire de Tulaytullah",
    "type_main": "ITEM_WEAPON",
    "type_sub": "WEAPON_CATALYST",
    "rank": 5,
    "img": "/image/game/genshin/weapon/UI_EquipIcon_Catalyst_Alaya.png"
  },
  {
    "id": 14513,
    "name": "Supervision de trésorerie",
    "type_main": "ITEM_WEAPON",
    "type_sub": "WEAPON_CATALYST",
    "rank": 5,
    "img": "/image/game/genshin/weapon/UI_EquipIcon_Catalyst_Wheatley.png"
  },
  {
    "id": 14514,
    "name": "Tome du flux éternel",
    "type_main": "ITEM_WEAPON",
    "type_sub": "WEAPON_CATALYST",
    "rank": 5,
    "img": "/image/game/genshin/weapon/UI_EquipIcon_Catalyst_Iudex.png"
  },
  {
    "id": 14515,
    "name": "Écho de la grue",
    "type_main": "ITEM_WEAPON",
    "type_sub": "WEAPON_CATALYST",
    "rank": 5,
    "img": "/image/game/genshin/weapon/UI_EquipIcon_Catalyst_MountainGale.png"
  },
  {
    "id": 14516,
    "name": "Instant surfant",
    "type_main": "ITEM_WEAPON",
    "type_sub": "WEAPON_CATALYST",
    "rank": 5,
    "img": "/image/game/genshin/weapon/UI_EquipIcon_Catalyst_MechaPufferfish.png"
  },
  {
    "id": 15101,
    "name": "Arc de chasse",
    "type_main": "ITEM_WEAPON",
    "type_sub": "WEAPON_BOW",
    "rank": 1,
    "img": "/image/game/genshin/weapon/UI_EquipIcon_Bow_Hunters.png"
  },
  {
    "id": 15201,
    "name": "Arc de chasse aguerri",
    "type_main": "ITEM_WEAPON",
    "type_sub": "WEAPON_BOW",
    "rank": 2,
    "img": "/image/game/genshin/weapon/UI_EquipIcon_Bow_Old.png"
  },
  {
    "id": 15301,
    "name": "Arc du corbeau",
    "type_main": "ITEM_WEAPON",
    "type_sub": "WEAPON_BOW",
    "rank": 3,
    "img": "/image/game/genshin/weapon/UI_EquipIcon_Bow_Crowfeather.png"
  },
  {
    "id": 15302,
    "name": "Serment de l'archer",
    "type_main": "ITEM_WEAPON",
    "type_sub": "WEAPON_BOW",
    "rank": 3,
    "img": "/image/game/genshin/weapon/UI_EquipIcon_Bow_Arjuna.png"
  },
  {
    "id": 15303,
    "name": "Arc courbé",
    "type_main": "ITEM_WEAPON",
    "type_sub": "WEAPON_BOW",
    "rank": 3,
    "img": "/image/game/genshin/weapon/UI_EquipIcon_Bow_Curve.png"
  },
  {
    "id": 15304,
    "name": "Lance-pierres",
    "type_main": "ITEM_WEAPON",
    "type_sub": "WEAPON_BOW",
    "rank": 3,
    "img": "/image/game/genshin/weapon/UI_EquipIcon_Bow_Sling.png"
  },
  {
    "id": 15305,
    "name": "Messager",
    "type_main": "ITEM_WEAPON",
    "type_sub": "WEAPON_BOW",
    "rank": 3,
    "img": "/image/game/genshin/weapon/UI_EquipIcon_Bow_Msg.png"
  },
  {
    "id": 15306,
    "name": "Arc en ébène",
    "type_main": "ITEM_WEAPON",
    "type_sub": "WEAPON_BOW",
    "rank": 3,
    "img": ""
  },
  {
    "id": 15401,
    "name": "Arc de chasse de Favonius",
    "type_main": "ITEM_WEAPON",
    "type_sub": "WEAPON_BOW",
    "rank": 4,
    "img": "/image/game/genshin/weapon/UI_EquipIcon_Bow_Zephyrus.png"
  },
  {
    "id": 15402,
    "name": "Dernière corde",
    "type_main": "ITEM_WEAPON",
    "type_sub": "WEAPON_BOW",
    "rank": 4,
    "img": "/image/game/genshin/weapon/UI_EquipIcon_Bow_Troupe.png"
  },
  {
    "id": 15403,
    "name": "Arc rituel",
    "type_main": "ITEM_WEAPON",
    "type_sub": "WEAPON_BOW",
    "rank": 4,
    "img": "/image/game/genshin/weapon/UI_EquipIcon_Bow_Fossil.png"
  },
  {
    "id": 15404,
    "name": "Arc royal",
    "type_main": "ITEM_WEAPON",
    "type_sub": "WEAPON_BOW",
    "rank": 4,
    "img": "/image/game/genshin/weapon/UI_EquipIcon_Bow_Theocrat.png"
  },
  {
    "id": 15405,
    "name": "Arc rouillé",
    "type_main": "ITEM_WEAPON",
    "type_sub": "WEAPON_BOW",
    "rank": 4,
    "img": "/image/game/genshin/weapon/UI_EquipIcon_Bow_Recluse.png"
  },
  {
    "id": 15406,
    "name": "Lune paisible (prototype)",
    "type_main": "ITEM_WEAPON",
    "type_sub": "WEAPON_BOW",
    "rank": 4,
    "img": "/image/game/genshin/weapon/UI_EquipIcon_Bow_Proto.png"
  },
  {
    "id": 15407,
    "name": "Arc à poulies",
    "type_main": "ITEM_WEAPON",
    "type_sub": "WEAPON_BOW",
    "rank": 4,
    "img": "/image/game/genshin/weapon/UI_EquipIcon_Bow_Exotic.png"
  },
  {
    "id": 15408,
    "name": "Arc de guerre de Rochenoire",
    "type_main": "ITEM_WEAPON",
    "type_sub": "WEAPON_BOW",
    "rank": 4,
    "img": "/image/game/genshin/weapon/UI_EquipIcon_Bow_Blackrock.png"
  },
  {
    "id": 15409,
    "name": "Arc de chasse verdoyant",
    "type_main": "ITEM_WEAPON",
    "type_sub": "WEAPON_BOW",
    "rank": 4,
    "img": "/image/game/genshin/weapon/UI_EquipIcon_Bow_Viridescent.png"
  },
  {
    "id": 15410,
    "name": "Traqueur des impasses",
    "type_main": "ITEM_WEAPON",
    "type_sub": "WEAPON_BOW",
    "rank": 4,
    "img": "/image/game/genshin/weapon/UI_EquipIcon_Bow_Outlaw.png"
  },
  {
    "id": 15411,
    "name": "Crépuscule couchant",
    "type_main": "ITEM_WEAPON",
    "type_sub": "WEAPON_BOW",
    "rank": 4,
    "img": "/image/game/genshin/weapon/UI_EquipIcon_Bow_Fallensun.png"
  },
  {
    "id": 15412,
    "name": "Valse nocturne",
    "type_main": "ITEM_WEAPON",
    "type_sub": "WEAPON_BOW",
    "rank": 4,
    "img": "/image/game/genshin/weapon/UI_EquipIcon_Bow_Nachtblind.png"
  },
  {
    "id": 15413,
    "name": "Ode aux alizées",
    "type_main": "ITEM_WEAPON",
    "type_sub": "WEAPON_BOW",
    "rank": 4,
    "img": "/image/game/genshin/weapon/UI_EquipIcon_Bow_Fleurfair.png"
  },
  {
    "id": 15414,
    "name": "Arc d'exorcisme",
    "type_main": "ITEM_WEAPON",
    "type_sub": "WEAPON_BOW",
    "rank": 4,
    "img": "/image/game/genshin/weapon/UI_EquipIcon_Bow_Bakufu.png"
  },
  {
    "id": 15415,
    "name": "Predator",
    "type_main": "ITEM_WEAPON",
    "type_sub": "WEAPON_BOW",
    "rank": 4,
    "img": "/image/game/genshin/weapon/UI_EquipIcon_Bow_Predator.png"
  },
  {
    "id": 15416,
    "name": "Lune de Mouun",
    "type_main": "ITEM_WEAPON",
    "type_sub": "WEAPON_BOW",
    "rank": 4,
    "img": "/image/game/genshin/weapon/UI_EquipIcon_Bow_Maria.png"
  },
  {
    "id": 15417,
    "name": "Le valet du roi",
    "type_main": "ITEM_WEAPON",
    "type_sub": "WEAPON_BOW",
    "rank": 4,
    "img": "/image/game/genshin/weapon/UI_EquipIcon_Bow_Arakalari.png"
  },
  {
    "id": 15418,
    "name": "Chalutier",
    "type_main": "ITEM_WEAPON",
    "type_sub": "WEAPON_BOW",
    "rank": 4,
    "img": "/image/game/genshin/weapon/UI_EquipIcon_Bow_Fin.png"
  },
  {
    "id": 15419,
    "name": "Perceur d'ibis",
    "type_main": "ITEM_WEAPON",
    "type_sub": "WEAPON_BOW",
    "rank": 4,
    "img": "/image/game/genshin/weapon/UI_EquipIcon_Bow_Ibis.png"
  },
  {
    "id": 15424,
    "name": "Descendant du soleil flamboyant",
    "type_main": "ITEM_WEAPON",
    "type_sub": "WEAPON_BOW",
    "rank": 4,
    "img": "/image/game/genshin/weapon/UI_EquipIcon_Bow_Gurabad.png"
  },
  {
    "id": 15425,
    "name": "Chant de quiétude",
    "type_main": "ITEM_WEAPON",
    "type_sub": "WEAPON_BOW",
    "rank": 4,
    "img": "/image/game/genshin/weapon/UI_EquipIcon_Bow_Vorpal.png"
  },
  {
    "id": 15426,
    "name": "Nimbus-forgé",
    "type_main": "ITEM_WEAPON",
    "type_sub": "WEAPON_BOW",
    "rank": 4,
    "img": "/image/game/genshin/weapon/UI_EquipIcon_Bow_Ultimatum.png"
  },
  {
    "id": 15427,
    "name": "Jauge de portée",
    "type_main": "ITEM_WEAPON",
    "type_sub": "WEAPON_BOW",
    "rank": 4,
    "img": "/image/game/genshin/weapon/UI_EquipIcon_Bow_Mechanic.png"
  },
  {
    "id": 15431,
    "name": "Brise-chaîne",
    "type_main": "ITEM_WEAPON",
    "type_sub": "WEAPON_BOW",
    "rank": 4,
    "img": "/image/game/genshin/weapon/UI_EquipIcon_Bow_Isikhulu.png"
  },
  {
    "id": 15501,
    "name": "Ailes de la Voûte d'Azur",
    "type_main": "ITEM_WEAPON",
    "type_sub": "WEAPON_BOW",
    "rank": 5,
    "img": "/image/game/genshin/weapon/UI_EquipIcon_Bow_Dvalin.png"
  },
  {
    "id": 15502,
    "name": "Arc d'Amos",
    "type_main": "ITEM_WEAPON",
    "type_sub": "WEAPON_BOW",
    "rank": 5,
    "img": "/image/game/genshin/weapon/UI_EquipIcon_Bow_Amos.png"
  },
  {
    "id": 15503,
    "name": "Ultime soupir",
    "type_main": "ITEM_WEAPON",
    "type_sub": "WEAPON_BOW",
    "rank": 5,
    "img": "/image/game/genshin/weapon/UI_EquipIcon_Bow_Widsith.png"
  },
  {
    "id": 15504,
    "name": "Wyrmbane de Kunwu",
    "type_main": "ITEM_WEAPON",
    "type_sub": "WEAPON_BOW",
    "rank": 5,
    "img": "/image/game/genshin/weapon/UI_EquipIcon_Bow_Hunters.png"
  },
  {
    "id": 15505,
    "name": "Vue de jade primordial",
    "type_main": "ITEM_WEAPON",
    "type_sub": "WEAPON_BOW",
    "rank": 5,
    "img": "/image/game/genshin/weapon/UI_EquipIcon_Bow_Hunters.png"
  },
  {
    "id": 15506,
    "name": "Briseur de mirroire",
    "type_main": "ITEM_WEAPON",
    "type_sub": "WEAPON_BOW",
    "rank": 5,
    "img": "/image/game/genshin/weapon/UI_EquipIcon_Bow_Hunters.png"
  },
  {
    "id": 15507,
    "name": "Étoile polaire",
    "type_main": "ITEM_WEAPON",
    "type_sub": "WEAPON_BOW",
    "rank": 5,
    "img": "/image/game/genshin/weapon/UI_EquipIcon_Bow_Worldbane.png"
  },
  {
    "id": 15508,
    "name": "Simulacre d'eau",
    "type_main": "ITEM_WEAPON",
    "type_sub": "WEAPON_BOW",
    "rank": 5,
    "img": "/image/game/genshin/weapon/UI_EquipIcon_Bow_Kirin.png"
  },
  {
    "id": 15509,
    "name": "Pulsation du tonnerre",
    "type_main": "ITEM_WEAPON",
    "type_sub": "WEAPON_BOW",
    "rank": 5,
    "img": "/image/game/genshin/weapon/UI_EquipIcon_Bow_Narukami.png"
  },
  {
    "id": 15511,
    "name": "La voie du chasseur",
    "type_main": "ITEM_WEAPON",
    "type_sub": "WEAPON_BOW",
    "rank": 5,
    "img": "/image/game/genshin/weapon/UI_EquipIcon_Bow_Ayus.png"
  },
  {
    "id": 15512,
    "name": "La première grande magie",
    "type_main": "ITEM_WEAPON",
    "type_sub": "WEAPON_BOW",
    "rank": 5,
    "img": "/image/game/genshin/weapon/UI_EquipIcon_Bow_Pledge.png"
  },
  {
    "id": 15513,
    "name": "Corde de pluie blanche",
    "type_main": "ITEM_WEAPON",
    "type_sub": "WEAPON_BOW",
    "rank": 5,
    "img": "/image/game/genshin/weapon/UI_EquipIcon_Bow_Arcdange.png"
  }
]