{
  "V4_8_FairyBook_LineGadget_Type_1_Common": {
    "$type": "CJKJIENLOHD",
    "common": {
      "disableTickDistance": 100.0,
      "isForceRefreshAuthotiryToHost": true
    },
    "specialPoint": {
      "elementAbsorb": "RootNode",
      "elementPendant": "",
      "elementDrop": "RootNode",
      "bulletAim": "AimPoint"
    },
    "globalValue": {
      "serverGlobalValues": [
        "SGV_CD_Duration",
        "SGV_PF_followSpeed",
        "SGV_PF_acceleration",
        "SGV_PF_maxSpeed",
        "SGV_PF_returnSpeed",
        "SGV_MaxLength",
        "SGV_Common_Scale"
      ],
      "initServerGlobalValues": {
        "SGV_CD_Duration": 3.0,
        "SGV_PF_followSpeed": 20.0,
        "SGV_PF_acceleration": 2.0,
        "SGV_PF_maxSpeed": 28.0,
        "SGV_PF_returnSpeed": 40.0,
        "SGV_MaxLength": 3.0,
        "SGV_Common_Scale": 1.0
      }
    },
    "hasModel": true,
    "combat": {
      "property": {
        "hp": 99999.0,
        "attack": 20.0,
        "weight": 40.0,
        "isLockHP": true,
        "isGhostToAllied": true,
        "isGhostToEnemy": true,
        "canTriggerBullet": false
      },
      "beHit": {
        "hitBloodEffect": "",
        "muteAllHit": true,
        "muteAllHitEffect": true,
        "muteAllHitText": true
      },
      "combatLock": {
        "lockShape": "CircleLockEnemy",
        "denyLockOn": true,
        "lockType": "Gadget_Lv1"
      }
    },
    "combatTemplate": "",
    "abilities": [
      {
        "abilityID": "ability_01",
        "abilityName": "V4_8_FairyBook_LineGadget_Type_1_MainLogic",
        "abilityOverride": ""
      },
      {
        "abilityID": "ability_01",
        "abilityName": "V4_8_FairyBook_LineGadget_Type_1_TagControl",
        "abilityOverride": ""
      }
    ],
    "partControl": {
      "parts": [
        {
          "$type": "INCPGKCDCIO",
          "angularSpeed": 1000.0,
          "partRootName": "EndGadget",
          "forwardBy": "NamedTransform",
          "rotateBy": "ForwardTransLocal",
          "doOnUnEabled": "Default",
          "forwardByTransName": "RootNode",
          "limitHorizontal": 360.0,
          "targetType": "ActionSetTarget",
          "KEAJBDBGBJE": true
        }
      ]
    }
  },
  "V4_8_FairyBook_LineGadget_Type_1_ToyTrainVersion": {
    "$type": "CJKJIENLOHD",
    "common": {
      "disableTickDistance": 100.0,
      "isForceRefreshAuthotiryToHost": true
    },
    "specialPoint": {
      "elementAbsorb": "RootNode",
      "elementPendant": "",
      "elementDrop": "RootNode",
      "bulletAim": "AimPoint"
    },
    "globalValue": {
      "serverGlobalValues": [
        "SGV_CD_Duration",
        "SGV_PF_followSpeed",
        "SGV_PF_acceleration",
        "SGV_PF_maxSpeed",
        "SGV_PF_returnSpeed",
        "SGV_MaxLength",
        "SGV_Common_Scale"
      ],
      "initServerGlobalValues": {
        "SGV_CD_Duration": 3.0,
        "SGV_PF_followSpeed": 20.0,
        "SGV_PF_acceleration": 2.0,
        "SGV_PF_maxSpeed": 28.0,
        "SGV_PF_returnSpeed": 40.0,
        "SGV_MaxLength": 1.5,
        "SGV_Common_Scale": 1.0
      }
    },
    "hasModel": true,
    "combat": {
      "property": {
        "hp": 99999.0,
        "attack": 20.0,
        "weight": 40.0,
        "isLockHP": true,
        "isGhostToAllied": true,
        "isGhostToEnemy": true,
        "canTriggerBullet": false
      },
      "beHit": {
        "hitBloodEffect": "",
        "muteAllHit": true,
        "muteAllHitEffect": true,
        "muteAllHitText": true
      },
      "combatLock": {
        "lockShape": "CircleLockEnemy",
        "denyLockOn": true,
        "lockType": "Gadget_Lv1"
      }
    },
    "combatTemplate": "",
    "abilities": [
      {
        "abilityID": "ability_01",
        "abilityName": "V4_8_FairyBook_LineGadget_Type_1_MainLogic_ToyTrainVersion",
        "abilityOverride": ""
      },
      {
        "abilityID": "ability_01",
        "abilityName": "V4_8_FairyBook_LineGadget_Type_1_TagControl",
        "abilityOverride": ""
      }
    ],
    "partControl": {
      "parts": [
        {
          "$type": "INCPGKCDCIO",
          "angularSpeed": 1000.0,
          "partRootName": "EndGadget",
          "forwardBy": "NamedTransform",
          "rotateBy": "ForwardTransLocal",
          "doOnUnEabled": "RotateToForward",
          "forwardByTransName": "RootNode",
          "limitHorizontal": 0.0,
          "targetType": "ActionSetTarget",
          "KEAJBDBGBJE": true
        }
      ]
    }
  },
  "V4_8_FairyBook_LineGadget_Type_2_Common": {
    "$type": "CJKJIENLOHD",
    "common": {
      "disableTickDistance": 100.0,
      "isForceRefreshAuthotiryToHost": true
    },
    "specialPoint": {
      "elementAbsorb": "RootNode",
      "elementPendant": "",
      "elementDrop": "RootNode",
      "bulletAim": "AimPoint"
    },
    "globalValue": {
      "serverGlobalValues": [
        "SGV_LineType2_SubType",
        "SGV_Line_Warning_Anim_Percent",
        "SGV_Line_Warning_Length",
        "SGV_Line_Max_Length",
        "SGV_Warning_Length_Total",
        "SGV_CD_Duration",
        "SGV_PF_followSpeed",
        "SGV_PF_acceleration",
        "SGV_PF_maxSpeed",
        "SGV_PF_returnSpeed"
      ],
      "initServerGlobalValues": {
        "SGV_LineType2_SubType": 1.0,
        "SGV_Line_Warning_Anim_Percent": 0.5,
        "SGV_Line_Warning_Length": 2.0,
        "SGV_Line_Max_Length": 3.0,
        "SGV_Warning_Length_Total": 1.0,
        "SGV_CD_Duration": 3.0,
        "SGV_PF_followSpeed": 20.0,
        "SGV_PF_acceleration": 2.0,
        "SGV_PF_maxSpeed": 28.0,
        "SGV_PF_returnSpeed": 40.0
      }
    },
    "hasModel": true,
    "combat": {
      "property": {
        "hp": 99999.0,
        "attack": 20.0,
        "weight": 40.0,
        "isLockHP": true,
        "isGhostToAllied": true,
        "isGhostToEnemy": true,
        "canTriggerBullet": false
      },
      "beHit": {
        "hitBloodEffect": "",
        "muteAllHit": true,
        "muteAllHitEffect": true,
        "muteAllHitText": true
      },
      "combatLock": {
        "lockShape": "CircleLockEnemy",
        "denyLockOn": true,
        "lockType": "Gadget_Lv1"
      },
      "die": {
        "dieEndTime": 0.10000000149011612,
        "dieForceDisappearTime": 0.10000000149011612,
        "dieDisappearEffect": ""
      }
    },
    "combatTemplate": "",
    "abilities": [
      {
        "abilityID": "ability_01",
        "abilityName": "V4_8_FairyBook_LineGadget_Type_2_MainLogic",
        "abilityOverride": ""
      },
      {
        "abilityID": "ability_02",
        "abilityName": "V4_8_FairyBook_LineGadget_Sync_GV",
        "abilityOverride": ""
      },
      {
        "abilityID": "ability_03",
        "abilityName": "V4_8_FairyBook_LineGadget_Link_Start",
        "abilityOverride": ""
      },
      {
        "abilityID": "ability_04",
        "abilityName": "V4_8_FairyBook_LineGadget_Link_GiveUp",
        "abilityOverride": ""
      },
      {
        "abilityID": "ability_05",
        "abilityName": "V4_8_FairyBook_LineGadget_Link_Break",
        "abilityOverride": ""
      },
      {
        "abilityID": "ability_06",
        "abilityName": "V4_8_FairyBook_LineGadget_Link_Break_and_EnterCD",
        "abilityOverride": ""
      },
      {
        "abilityID": "ability_07",
        "abilityName": "V4_8_FairyBook_LineGadget_Link_Remove_SLC",
        "abilityOverride": ""
      },
      {
        "abilityID": "ability_09",
        "abilityName": "V4_8_FairyBook_LineGadget_OrigamiFrog",
        "abilityOverride": ""
      },
      {
        "abilityID": "Scene_RockGadget_Summon_Detect",
        "abilityName": "Scene_RockGadget_Summon_Detect",
        "abilityOverride": ""
      }
    ],
    "move": {
      "$type": "MMAPEFIEGAL",
      "target": "TargetKey",
      "followTargetEx": {
        "$type": "JJNAIOOLBOJ",
        "targetKey": "FollowRuntimeId"
      },
      "attachPoint": "LinkPoint",
      "followRotation": true,
      "LFOHLEKJFBI": "",
      "GIDLCCHLBHE": {
        "$type": "LGHKFJENENG",
        "GJCCBINCPHM": true,
        "arriveDistance": 0.10000000149011612,
        "speed": 24.0,
        "EDDIMBPLJEC": 0.0,
        "maxSpeed": 24.0,
        "FCKCAHBHNGD": false
      }
    },
    "partControl": {
      "parts": [
        {
          "$type": "INCPGKCDCIO",
          "angularSpeed": 1000.0,
          "partRootName": "EndGadget",
          "forwardBy": "NamedTransform",
          "rotateBy": "ForwardTransLocal",
          "doOnUnEabled": "Default",
          "forwardByTransName": "RootNode",
          "limitHorizontal": 0.0,
          "targetType": "ActionSetTarget",
          "KEAJBDBGBJE": true
        }
      ]
    }
  },
  "V4_8_FairyBook_Telelinestick_01": {
    "$type": "CJKJIENLOHD",
    "common": {
      "disableTickDistance": 100.0,
      "isForceRefreshAuthotiryToHost": true
    },
    "specialPoint": {
      "elementAbsorb": "RootNode",
      "elementPendant": "",
      "elementDrop": "RootNode",
      "bulletAim": "AimPoint"
    },
    "globalValue": {
      "serverGlobalValues": [
        "SGV_PF_followSpeed",
        "SGV_PF_acceleration",
        "SGV_PF_maxSpeed",
        "SGV_PF_returnSpeed",
        "SGV_Forbid_By_ClockworkPendulum",
        "SGV_TYPE",
        "SGV_Need_CreateEff"
      ],
      "initServerGlobalValues": {
        "SGV_PF_followSpeed": 20.0,
        "SGV_PF_acceleration": 2.0,
        "SGV_PF_maxSpeed": 28.0,
        "SGV_PF_returnSpeed": 40.0,
        "SGV_Forbid_By_ClockworkPendulum": 0.0,
        "SGV_TYPE": 0.0,
        "SGV_Need_CreateEff": 0.0
      }
    },
    "hasModel": true,
    "combat": {
      "property": {
        "hp": 99999.0,
        "attack": 20.0,
        "weight": 40.0,
        "isLockHP": true,
        "isGhostToAllied": true,
        "isGhostToEnemy": true,
        "canTriggerBullet": false
      },
      "beHit": {
        "hitBloodEffect": "",
        "muteAllHit": true,
        "muteAllHitEffect": true,
        "muteAllHitText": true
      },
      "combatLock": {
        "lockShape": "CircleLockEnemy",
        "denyLockOn": true,
        "lockType": "Gadget_Lv1"
      }
    },
    "combatTemplate": "",
    "abilities": [
      {
        "abilityID": "ability_01",
        "abilityName": "V4_8_FairyBook_Telelinestick_MainLogic",
        "abilityOverride": ""
      },
      {
        "abilityID": "ability_01",
        "abilityName": "V4_8_FairyBook_Telelinestick_WidgetSupport_Handler",
        "abilityOverride": ""
      },
      {
        "abilityID": "Scene_RockGadget_Summon_Detect",
        "abilityName": "Scene_RockGadget_Summon_Detect",
        "abilityOverride": ""
      }
    ],
    "uiInteract": {
      "gadgetUIBtnCfgPath": "TEST/TEST_Chest_Btn",
      "uiName": "LEVEL_FairyBook_TeleStick_01",
      "onTouch": "WidgetMPSupport",
      "touchParams": ["V4_8_FairyBook_Telelinestick_WidgetSupport_Handler"],
      "icon": "UI_Icon_Intee_Mechanism",
      "groupName": "",
      "confirmDialogTitle": "",
      "confirmDialogContent": "",
      "canInteractInCombat": false
    },
    "partControl": {
      "parts": [
        {
          "$type": "INCPGKCDCIO",
          "angularSpeed": 1000.0,
          "partRootName": "PartControlAxis_H",
          "forwardBy": "NamedTransform",
          "rotateBy": "ForwardTransLocal",
          "doOnUnEabled": "Default",
          "forwardByTransName": "RootNode",
          "limitHorizontal": 360.0,
          "limitVertical": 0.0,
          "targetType": "ActionSetTarget",
          "KEAJBDBGBJE": true
        },
        {
          "$type": "INCPGKCDCIO",
          "angularSpeed": 1000.0,
          "partRootName": "PartControlAxis",
          "forwardBy": "NamedTransform",
          "rotateBy": "ForwardTransLocal",
          "doOnUnEabled": "Default",
          "forwardByTransName": "PartControlAxis",
          "limitHorizontal": 0.0,
          "limitVertical": 360.0,
          "targetType": "ActionSetTarget",
          "KEAJBDBGBJE": true
        }
      ]
    },
    "intee": {
      "triggerRadius": 2.0,
      "triggerHeight": 4.0,
      "KAMIAMNMFCP": ""
    }
  },
  "V4_8_FairyBook_Telelinestick_02": {
    "$type": "CJKJIENLOHD",
    "common": {
      "disableTickDistance": 100.0,
      "isForceRefreshAuthotiryToHost": true
    },
    "specialPoint": {
      "elementAbsorb": "RootNode",
      "elementPendant": "",
      "elementDrop": "RootNode",
      "bulletAim": "AimPoint"
    },
    "globalValue": {
      "serverGlobalValues": [
        "SGV_PF_followSpeed",
        "SGV_PF_acceleration",
        "SGV_PF_maxSpeed",
        "SGV_PF_returnSpeed",
        "SGV_Forbid_By_ClockworkPendulum",
        "SGV_TYPE",
        "SGV_Need_CreateEff"
      ],
      "initServerGlobalValues": {
        "SGV_PF_followSpeed": 20.0,
        "SGV_PF_acceleration": 2.0,
        "SGV_PF_maxSpeed": 28.0,
        "SGV_PF_returnSpeed": 40.0,
        "SGV_Forbid_By_ClockworkPendulum": 0.0,
        "SGV_TYPE": 1.0,
        "SGV_Need_CreateEff": 0.0
      }
    },
    "hasModel": true,
    "combat": {
      "property": {
        "hp": 99999.0,
        "attack": 20.0,
        "weight": 40.0,
        "isLockHP": true,
        "isGhostToAllied": true,
        "isGhostToEnemy": true,
        "canTriggerBullet": false
      },
      "beHit": {
        "hitBloodEffect": "",
        "muteAllHit": true,
        "muteAllHitEffect": true,
        "muteAllHitText": true
      },
      "combatLock": {
        "lockShape": "CircleLockEnemy",
        "denyLockOn": true,
        "lockType": "Gadget_Lv1"
      }
    },
    "combatTemplate": "",
    "abilities": [
      {
        "abilityID": "ability_01",
        "abilityName": "V4_8_FairyBook_Telelinestick_MainLogic",
        "abilityOverride": ""
      },
      {
        "abilityID": "ability_01",
        "abilityName": "V4_8_FairyBook_Telelinestick_WidgetSupport_Handler",
        "abilityOverride": ""
      },
      {
        "abilityID": "Scene_RockGadget_Summon_Detect",
        "abilityName": "Scene_RockGadget_Summon_Detect",
        "abilityOverride": ""
      }
    ],
    "uiInteract": {
      "gadgetUIBtnCfgPath": "TEST/TEST_Chest_Btn",
      "uiName": "LEVEL_FairyBook_TeleStick_01",
      "onTouch": "WidgetMPSupport",
      "touchParams": ["V4_8_FairyBook_Telelinestick_WidgetSupport_Handler"],
      "icon": "UI_Icon_Intee_Mechanism",
      "groupName": "",
      "confirmDialogTitle": "",
      "confirmDialogContent": "",
      "canInteractInCombat": false
    },
    "partControl": {
      "parts": [
        {
          "$type": "INCPGKCDCIO",
          "angularSpeed": 1000.0,
          "partRootName": "PartControlAxis_H",
          "forwardBy": "NamedTransform",
          "rotateBy": "ForwardTransLocal",
          "doOnUnEabled": "Default",
          "forwardByTransName": "RootNode",
          "limitHorizontal": 360.0,
          "limitVertical": 0.0,
          "targetType": "ActionSetTarget",
          "KEAJBDBGBJE": true
        },
        {
          "$type": "INCPGKCDCIO",
          "angularSpeed": 1000.0,
          "partRootName": "PartControlAxis",
          "forwardBy": "NamedTransform",
          "rotateBy": "ForwardTransLocal",
          "doOnUnEabled": "Default",
          "forwardByTransName": "PartControlAxis",
          "limitHorizontal": 0.0,
          "limitVertical": 360.0,
          "targetType": "ActionSetTarget",
          "KEAJBDBGBJE": true
        }
      ]
    },
    "intee": {
      "triggerRadius": 2.0,
      "triggerHeight": 4.0,
      "KAMIAMNMFCP": ""
    }
  },
  "V4_8_FairyBook_Telelinestick_03": {
    "$type": "CJKJIENLOHD",
    "common": {
      "disableTickDistance": 100.0,
      "isForceRefreshAuthotiryToHost": true
    },
    "specialPoint": {
      "elementAbsorb": "RootNode",
      "elementPendant": "",
      "elementDrop": "RootNode",
      "bulletAim": "AimPoint"
    },
    "globalValue": {
      "serverGlobalValues": [
        "SGV_PF_followSpeed",
        "SGV_PF_acceleration",
        "SGV_PF_maxSpeed",
        "SGV_PF_returnSpeed",
        "SGV_Forbid_By_ClockworkPendulum",
        "SGV_TYPE",
        "SGV_Need_CreateEff"
      ],
      "initServerGlobalValues": {
        "SGV_PF_followSpeed": 20.0,
        "SGV_PF_acceleration": 2.0,
        "SGV_PF_maxSpeed": 28.0,
        "SGV_PF_returnSpeed": 40.0,
        "SGV_Forbid_By_ClockworkPendulum": 0.0,
        "SGV_TYPE": 0.0,
        "SGV_Need_CreateEff": 0.0
      }
    },
    "hasModel": true,
    "combat": {
      "property": {
        "hp": 99999.0,
        "attack": 20.0,
        "weight": 40.0,
        "isLockHP": true,
        "isGhostToAllied": true,
        "isGhostToEnemy": true,
        "canTriggerBullet": false
      },
      "beHit": {
        "hitBloodEffect": "",
        "muteAllHit": true,
        "muteAllHitEffect": true,
        "muteAllHitText": true
      },
      "combatLock": {
        "lockShape": "CircleLockEnemy",
        "denyLockOn": true,
        "lockType": "Gadget_Lv1"
      }
    },
    "combatTemplate": "",
    "abilities": [
      {
        "abilityID": "ability_01",
        "abilityName": "V4_8_FairyBook_Telelinestick_03",
        "abilityOverride": ""
      },
      {
        "abilityID": "Scene_RockGadget_Summon_Detect",
        "abilityName": "Scene_RockGadget_Summon_Detect",
        "abilityOverride": ""
      }
    ],
    "uiInteract": {
      "gadgetUIBtnCfgPath": "TEST/TEST_Chest_Btn",
      "uiName": "LEVEL_FairyBook_TeleStick_01",
      "onTouch": "WidgetMPSupport",
      "touchParams": ["V4_8_FairyBook_Telelinestick_03"],
      "icon": "UI_Icon_Intee_Mechanism",
      "groupName": "",
      "confirmDialogTitle": "",
      "confirmDialogContent": "",
      "canInteractInCombat": false
    },
    "partControl": {
      "parts": [
        {
          "$type": "INCPGKCDCIO",
          "angularSpeed": 1000.0,
          "partRootName": "PartControlAxis_H",
          "forwardBy": "NamedTransform",
          "rotateBy": "ForwardTransLocal",
          "doOnUnEabled": "Default",
          "forwardByTransName": "RootNode",
          "limitHorizontal": 360.0,
          "limitVertical": 0.0,
          "targetType": "ActionSetTarget",
          "KEAJBDBGBJE": true
        },
        {
          "$type": "INCPGKCDCIO",
          "angularSpeed": 1000.0,
          "partRootName": "PartControlAxis",
          "forwardBy": "NamedTransform",
          "rotateBy": "ForwardTransLocal",
          "doOnUnEabled": "Default",
          "forwardByTransName": "PartControlAxis",
          "limitHorizontal": 0.0,
          "limitVertical": 360.0,
          "targetType": "ActionSetTarget",
          "KEAJBDBGBJE": true
        }
      ]
    },
    "intee": {
      "triggerRadius": 2.0,
      "triggerHeight": 4.0,
      "KAMIAMNMFCP": ""
    }
  },
  "V4_8_FairyBook_LineStick_01": {
    "$type": "CJKJIENLOHD",
    "common": {
      "disableTickDistance": 100000.0,
      "isForceRefreshAuthotiryToHost": true
    },
    "specialPoint": {
      "elementAbsorb": "RootNode",
      "elementPendant": "",
      "elementDrop": "RootNode",
      "bulletAim": "AimPoint"
    },
    "globalValue": {
      "serverGlobalValues": [
        "SGV_PF_followSpeed",
        "SGV_PF_acceleration",
        "SGV_PF_maxSpeed",
        "SGV_PF_returnSpeed",
        "SGV_CWS_GroupTag",
        "SGV_Anim_Start_Progress",
        "SGV_Anim_Total_Progress",
        "SGV_Init_Usable",
        "SGV_Is_LinkStarted",
        "SGV_Is_Source_LineStick"
      ],
      "initServerGlobalValues": {
        "SGV_PF_followSpeed": 20.0,
        "SGV_PF_acceleration": 2.0,
        "SGV_PF_maxSpeed": 28.0,
        "SGV_PF_returnSpeed": 40.0,
        "SGV_CWS_GroupTag": 0.0,
        "SGV_Anim_Start_Progress": 0.0,
        "SGV_Anim_Total_Progress": 30000.0,
        "SGV_Init_Usable": 1.0,
        "SGV_Is_LinkStarted": 0.0,
        "SGV_Is_Source_LineStick": 1.0
      }
    },
    "hasModel": true,
    "combat": {
      "property": {
        "hp": 99999.0,
        "attack": 20.0,
        "weight": 40.0,
        "isLockHP": true,
        "isGhostToAllied": true
      },
      "beHit": {
        "hitBloodEffect": "",
        "muteAllHitText": true
      },
      "combatLock": {
        "lockShape": "CircleLockEnemy",
        "denyLockOn": true,
        "lockType": "Gadget_Lv1"
      }
    },
    "combatTemplate": "",
    "abilities": [
      {
        "abilityID": "ability_01",
        "abilityName": "V4_8_FairyBook_Clockwork_Anim_Logic",
        "abilityOverride": ""
      },
      {
        "abilityID": "ability_02",
        "abilityName": "V4_8_FairyBook_Clockwork_GV_Broadcast_StoneClockwork_SP",
        "abilityOverride": ""
      },
      {
        "abilityID": "ability_03",
        "abilityName": "V4_8_FairyBook_LineStick_InitState_Handler",
        "abilityOverride": ""
      },
      {
        "abilityID": "ability_04",
        "abilityName": "V4_8_FairyBook_LineStick_Source_Main",
        "abilityOverride": ""
      },
      {
        "abilityID": "ability_05",
        "abilityName": "V4_8_FairyBook_LineStick_Source_Reset_ToyRingLineLink",
        "abilityOverride": ""
      },
      {
        "abilityID": "ability_06",
        "abilityName": "V4_8_FairyBook_LineStick_Source_DummyLine_Logic",
        "abilityOverride": ""
      },
      {
        "abilityID": "ability_07",
        "abilityName": "V4_8_FairyBook_LineStick_Source_Send_Reset_SLC_Handler",
        "abilityOverride": ""
      },
      {
        "abilityID": "Scene_RockGadget_Summon_Detect",
        "abilityName": "Scene_RockGadget_Summon_Detect",
        "abilityOverride": ""
      },
      {
        "abilityID": "V4_8_FairyBook_Common_StateResistance",
        "abilityName": "V4_8_FairyBook_Common_StateResistance",
        "abilityOverride": ""
      }
    ],
    "partControl": {
      "parts": [
        {
          "$type": "INCPGKCDCIO",
          "angularSpeed": 1000.0,
          "partRootName": "PartControl_H",
          "forwardBy": "NamedTransform",
          "rotateBy": "ForwardTransLocal",
          "doOnUnEabled": "Default",
          "forwardByTransName": "PartControl_H",
          "limitHorizontal": 360.0,
          "limitVertical": 0.0,
          "targetType": "ActionSetTarget",
          "KEAJBDBGBJE": true
        },
        {
          "$type": "INCPGKCDCIO",
          "angularSpeed": 1000.0,
          "partRootName": "PartControl_V",
          "forwardBy": "NamedTransform",
          "rotateBy": "ForwardTransLocal",
          "doOnUnEabled": "Default",
          "forwardByTransName": "PartControl_V",
          "limitHorizontal": 0.0,
          "limitVertical": 360.0,
          "targetType": "ActionSetTarget",
          "KEAJBDBGBJE": true
        }
      ]
    }
  },
  "V4_8_FairyBook_LineStick_02": {
    "$type": "CJKJIENLOHD",
    "common": {
      "disableTickDistance": 100000.0,
      "isForceRefreshAuthotiryToHost": true
    },
    "specialPoint": {
      "elementAbsorb": "RootNode",
      "elementPendant": "",
      "elementDrop": "RootNode",
      "bulletAim": "AimPoint"
    },
    "globalValue": {
      "serverGlobalValues": [
        "SGV_PF_followSpeed",
        "SGV_PF_acceleration",
        "SGV_PF_maxSpeed",
        "SGV_PF_returnSpeed",
        "SGV_CWS_GroupTag",
        "SGV_Anim_Start_Progress",
        "SGV_Anim_Total_Progress",
        "SGV_Init_Usable",
        "SGV_Is_Source_LineStick"
      ],
      "initServerGlobalValues": {
        "SGV_PF_followSpeed": 20.0,
        "SGV_PF_acceleration": 2.0,
        "SGV_PF_maxSpeed": 28.0,
        "SGV_PF_returnSpeed": 40.0,
        "SGV_CWS_GroupTag": 0.0,
        "SGV_Anim_Start_Progress": 0.0,
        "SGV_Anim_Total_Progress": 30000.0,
        "SGV_Init_Usable": 1.0,
        "SGV_Is_Source_LineStick": 0.0
      }
    },
    "hasModel": true,
    "combat": {
      "property": {
        "hp": 99999.0,
        "attack": 20.0,
        "weight": 40.0,
        "isLockHP": true,
        "isGhostToAllied": true
      },
      "beHit": {
        "hitBloodEffect": "",
        "muteAllHitText": true
      },
      "combatLock": {
        "lockShape": "CircleLockEnemy",
        "denyLockOn": true,
        "lockType": "Gadget_Lv1"
      }
    },
    "combatTemplate": "",
    "abilities": [
      {
        "abilityID": "ability_01",
        "abilityName": "V4_8_FairyBook_Clockwork_Anim_Logic",
        "abilityOverride": ""
      },
      {
        "abilityID": "ability_02",
        "abilityName": "V4_8_FairyBook_Clockwork_GV_Broadcast_StoneClockwork_SP",
        "abilityOverride": ""
      },
      {
        "abilityID": "ability_03",
        "abilityName": "V4_8_FairyBook_LineStick_InitState_Handler",
        "abilityOverride": ""
      },
      {
        "abilityID": "ability_04",
        "abilityName": "V4_8_FairyBook_LineStick_IncreamentLine_Link_Handler",
        "abilityOverride": ""
      },
      {
        "abilityID": "ability_05",
        "abilityName": "V4_8_FairyBook_LineStick_IncreamentLine_Break_Handler",
        "abilityOverride": ""
      },
      {
        "abilityID": "ability_06",
        "abilityName": "V4_8_FairyBook_LineStick_Source_Reset_ToyRingLineLink",
        "abilityOverride": ""
      },
      {
        "abilityID": "ability_07",
        "abilityName": "V4_8_FairyBook_LineStick_Reset_OnBeingHit_Handler",
        "abilityOverride": ""
      },
      {
        "abilityID": "Scene_RockGadget_Summon_Detect",
        "abilityName": "Scene_RockGadget_Summon_Detect",
        "abilityOverride": ""
      },
      {
        "abilityID": "V4_8_FairyBook_Common_StateResistance",
        "abilityName": "V4_8_FairyBook_Common_StateResistance",
        "abilityOverride": ""
      }
    ]
  },
  "V4_8_FairyBook_LineStick_Scene_01": {
    "$type": "CJKJIENLOHD",
    "common": {
      "disableTickDistance": 100.0
    },
    "globalValue": {
      "serverGlobalValues": ["SGV_Search_2nd_Target", "SGV_Need_CreateEff"],
      "initServerGlobalValues": {
        "SGV_Search_2nd_Target": 0.0,
        "SGV_Need_CreateEff": 0.0
      }
    },
    "hasModel": true,
    "combat": {
      "property": {
        "hp": 99999.0,
        "attack": 20.0,
        "weight": 40.0,
        "isLockHP": true,
        "isGhostToAllied": true,
        "isGhostToEnemy": true,
        "canTriggerBullet": false
      },
      "beHit": {
        "hitBloodEffect": "",
        "muteAllHitText": true
      },
      "combatLock": {
        "lockShape": "CircleLockEnemy",
        "denyLockOn": true,
        "lockType": "Gadget_Lv1"
      },
      "die": {
        "dieEndTime": 0.5,
        "dieDisappearEffect": ""
      }
    },
    "combatTemplate": "",
    "abilities": [
      {
        "abilityID": "ability_01",
        "abilityName": "V4_8_FairyBook_LineStick_Scene_01",
        "abilityOverride": ""
      },
      {
        "abilityID": "Scene_RockGadget_Summon_Detect",
        "abilityName": "Scene_RockGadget_Summon_Detect",
        "abilityOverride": ""
      }
    ]
  },
  "V4_8_FairyBook_ClockworkToy_SitPointOccupy": {
    "$type": "CJKJIENLOHD",
    "common": {
      "disableTickDistance": 1000.0
    },
    "combat": {
      "property": {
        "hp": 99999.0,
        "attack": 20.0,
        "weight": 40.0,
        "isInvincible": true,
        "isLockHP": true,
        "isGhostToAllied": true,
        "isGhostToEnemy": true,
        "canTriggerBullet": false
      },
      "beHit": {
        "hitBloodEffect": "",
        "muteAllHitText": true
      },
      "combatLock": {
        "lockShape": "CircleLockEnemy",
        "denyLockOn": true,
        "lockType": "Gadget_Lv1"
      }
    },
    "combatTemplate": "",
    "abilities": [
      {
        "abilityID": "ability_01",
        "abilityName": "V4_8_FairyBook_ClockworkToy_SitPointOccupy",
        "abilityOverride": ""
      }
    ]
  },
  "V4_8_FairyBook_SummonGadget_Destroyor": {
    "$type": "CJKJIENLOHD",
    "common": {
      "disableTickDistance": 100.0
    },
    "combat": {
      "property": {
        "hp": 99999.0,
        "attack": 20.0,
        "weight": 40.0,
        "isInvincible": true,
        "isLockHP": true,
        "isGhostToAllied": true,
        "isGhostToEnemy": true
      },
      "beHit": {
        "hitBloodEffect": "",
        "muteAllHitText": true
      },
      "combatLock": {
        "lockShape": "CircleLockEnemy",
        "denyLockOn": true,
        "lockType": "Gadget_Lv1"
      }
    },
    "combatTemplate": "",
    "abilities": [
      {
        "abilityID": "ability_01",
        "abilityName": "V4_8_FairyBook_SummonGadget_Destroyor",
        "abilityOverride": ""
      }
    ],
    "move": {
      "$type": "MMAPEFIEGAL",
      "target": "TargetKey",
      "followTargetEx": {
        "$type": "JJNAIOOLBOJ",
        "targetKey": "FollowRuntimeId"
      },
      "attachPoint": "SummonDestoryer_Point",
      "followRotation": true,
      "LFOHLEKJFBI": "",
      "GIDLCCHLBHE": {
        "$type": "LGHKFJENENG",
        "GJCCBINCPHM": true,
        "arriveDistance": 0.10000000149011612,
        "speed": 999.0,
        "EDDIMBPLJEC": 0.0,
        "maxSpeed": 999.0,
        "FCKCAHBHNGD": false
      }
    },
    "gadget": {
      "$type": "JENBBNKGGJP",
      "collision": {
        "triggerType": "TriggerNoRepeat",
        "targetType": "AllExceptSelf"
      },
      "triggerActions": [
        {
          "$type": "AILPBJHDHDG",
          "abilityName": "V4_8_FairyBook_SummonGadget_Destroyor"
        }
      ],
      "killByOther": true,
      "enableCollisionDelay": 0.10000000149011612,
      "resetLastPosOnDelayEnd": true,
      "reTriggerOnDelayEnd": true
    }
  }
}
