{
  "DendroTornado_Hunting": {
    "$type": "CJKJIENLOHD",
    "common": {},
    "combat": {
      "property": {
        "useCreatorProperty": true,
        "hp": 999999.0,
        "attack": 10.0,
        "defense": 999999.0,
        "isInvincible": true
      },
      "beHit": {
        "hitBloodEffect": "",
        "muteAllHit": true,
        "muteAllHitEffect": true,
        "muteAllHitText": true
      },
      "combatLock": {
        "lockShape": "CircleLockEnemy",
        "denyLockOn": true,
        "lockType": "Default"
      }
    },
    "combatTemplate": "",
    "abilities": [
      {
        "abilityID": "",
        "abilityName": "Hunting_Dendro_Tornado",
        "abilityOverride": ""
      }
    ],
    "timer": {
      "lifeTime": 10.0
    },
    "move": {
      "$type": "POHFDPGKAFL",
      "velocityForce": {
        "excludeForces": [
          "WindZoneType",
          "AirflowType",
          "RiseType",
          "SpeedupType",
          "AirflowAccType"
        ]
      },
      "speed": 4.800000190734863,
      "delay": 0.25,
      "stickToGround": {
        "maxStepHeight": 1.0,
        "maxSlopeAngle": 60.0,
        "heightToGround": 0.5,
        "flexibleRange": 0.5,
        "isStickToWater": true,
        "unstickWhenDownSlide": "Keep",
        "unstickWhenUpSlide": "Stay"
      },
      "radius": 6.5,
      "traceOnYAxis": true,
      "randomBackAngleAdded": 60.0,
      "reboundInterval": 0.20000000298023224,
      "outOfRangeFixCD": 0.5
    }
  }
}
