{
  "Invoker_Herald_Ice_ConeOfCold": {
    "$type": "CJKJIENLOHD",
    "common": {
      "effectAttachShape": {
        "$type": "OMIODKONOMG",
        "scaleX": 0.5,
        "scaleY": 0.5
      }
    },
    "combat": {
      "property": {
        "useCreatorProperty": true,
        "isInvincible": true,
        "canTriggerBullet": false
      },
      "combatLock": {
        "lockShape": "CircleLockEnemy",
        "denyLockOn": true,
        "lockType": "Default"
      }
    },
    "combatTemplate": "",
    "abilities": [
      {
        "abilityID": "",
        "abilityName": "Invoker_Herald_Ice_ConeOfCold_Bullet",
        "abilityOverride": ""
      }
    ],
    "timer": {
      "lifeTime": 1.0
    },
    "move": {
      "$type": "GMOHNHFHLAO",
      "velocityForce": {
        "excludeForces": ["WindZoneType", "AirflowType"]
      },
      "speed": 45.0,
      "maxSpeed": 46.0,
      "anglerVelocity": 18.0,
      "DPAAFHNMHHN": {
        "$type": "IFAANDLLGLP"
      },
      "traceOnYAxis": true
    },
    "gadget": {
      "$type": "JENBBNKGGJP",
      "collision": {
        "triggerType": "TriggerNoRepeat",
        "targetType": "Enemy",
        "ignoreScene": true
      },
      "triggerActions": [
        {
          "$type": "AILPBJHDHDG",
          "abilityName": "Invoker_Herald_Ice_ConeOfCold_Bullet"
        },
        {
          "$type": "HILFMFBKIKF",
          "attackInfo": {
            "attackTag": "EnchantIceBlade",
            "attenuationTag": "",
            "attenuationGroup": "default",
            "attackProperty": {
              "actorGrassSubHurtDelta": 0.7799999713897705,
              "actorWindSubHurtDelta": 0.0,
              "elementType": "Ice",
              "elementDurability": 25.0,
              "strikeType": "Blunt",
              "enBreak": 200.0,
              "GLKMCMDJBIK": 0.0
            },
            "hitPattern": {
              "onHitEffectName": "",
              "hitImpulseY": "",
              "hitImpulseType": "",
              "overrideHitImpulse": {
                "hitLevel": "Heavy",
                "IMIJMPGJOGG": 1350.0,
                "BPCDKKBKOBM": 0.0
              }
            }
          }
        }
      ]
    }
  },
  "Invoker_Herald_Ice_ConeOfCold_Improved": {
    "$type": "CJKJIENLOHD",
    "common": {
      "effectAttachShape": {
        "$type": "OMIODKONOMG",
        "scaleX": 0.5,
        "scaleY": 0.5
      }
    },
    "combat": {
      "property": {
        "useCreatorProperty": true,
        "isInvincible": true,
        "canTriggerBullet": false
      },
      "combatLock": {
        "lockShape": "CircleLockEnemy",
        "denyLockOn": true,
        "lockType": "Default"
      }
    },
    "combatTemplate": "",
    "abilities": [
      {
        "abilityID": "",
        "abilityName": "Invoker_Herald_Ice_ConeOfCold_Bullet_Improved",
        "abilityOverride": ""
      }
    ],
    "timer": {
      "lifeTime": 1.7999999523162842
    },
    "move": {
      "$type": "GMOHNHFHLAO",
      "velocityForce": {
        "excludeForces": ["WindZoneType", "AirflowType"]
      },
      "speed": 50.0,
      "maxSpeed": 50.0,
      "anglerVelocity": 350.0,
      "DPAAFHNMHHN": {
        "$type": "IFAANDLLGLP"
      },
      "traceOnYAxis": true
    },
    "gadget": {
      "$type": "JENBBNKGGJP",
      "collision": {},
      "triggerActions": [
        {
          "$type": "AILPBJHDHDG",
          "abilityName": "Invoker_Herald_Ice_ConeOfCold_Bullet_Improved"
        }
      ],
      "triggerLifeOverActions": [
        {
          "$type": "AILPBJHDHDG",
          "abilityName": "Invoker_Herald_Ice_ConeOfCold_Bullet_Improved"
        }
      ]
    }
  },
  "Invoker_Herald_Ice_ConeOfCold_TargetPoint": {
    "$type": "CJKJIENLOHD",
    "combat": {
      "property": {
        "useCreatorProperty": true,
        "isInvincible": true,
        "isGhostToEnemy": true,
        "canTriggerBullet": false
      },
      "combatLock": {
        "lockShape": "CircleLockEnemy",
        "denyLockOn": true,
        "lockType": "Default"
      }
    },
    "combatTemplate": "",
    "abilities": [
      {
        "abilityID": "",
        "abilityName": "Invoker_Herald_Ice_ConeOfCold_Improved_Point_Logic",
        "abilityOverride": ""
      }
    ],
    "timer": {
      "lifeTime": 0.75
    }
  },
  "Invoker_Herald_Ice_ConeOfCold_Linear_TargetPoint": {
    "$type": "CJKJIENLOHD",
    "combat": {
      "property": {
        "useCreatorProperty": true,
        "isInvincible": true,
        "isGhostToEnemy": true,
        "canTriggerBullet": false
      },
      "combatLock": {
        "lockShape": "CircleLockEnemy",
        "denyLockOn": true,
        "lockType": "Default"
      }
    },
    "combatTemplate": "",
    "abilities": [
      {
        "abilityID": "",
        "abilityName": "Invoker_Herald_Ice_ConeOfCold_Linear_Point_Logic",
        "abilityOverride": ""
      }
    ],
    "timer": {
      "lifeTime": 0.75
    }
  }
}
