{
  "Test_LightLock_Seal": {
    "$type": "CJKJIENLOHD",
    "hasModel": true,
    "combat": {
      "property": {
        "hp": 99999.0,
        "attack": 200.0,
        "weight": 50.0,
        "isLockHP": true
      },
      "beHit": {
        "hitBloodEffect": "",
        "hitAutoRedirect": false,
        "muteAllHitText": true
      },
      "combatLock": {
        "lockShape": "CircleLockEnemy",
        "denyLockOn": true,
        "lockType": "Gadget_Lv1"
      },
      "die": {
        "dieForceDisappearTime": 3.0,
        "dieDisappearEffect": ""
      }
    },
    "combatTemplate": "",
    "abilities": [
      {
        "abilityID": "Ability_01",
        "abilityName": "Test_LightLock_Seal",
        "abilityOverride": ""
      }
    ],
    "field": {
      "concernType": "LocalAvatar",
      "shape": "CircleR13",
      "fromShape": "",
      "triggerInfinite": true,
      "lifeInfinite": true,
      "checkInterval": 0.5,
      "overwriteCampType": true,
      "campType": "SelfCamp",
      "colliderName": "",
      "fromColliderName": ""
    },
    "misc": {
      "seal": {
        "boardEffect": "Eff_Stage_SealBorder02",
        "boardEffectStartPosition": -6.0,
        "boardEffectEndPosition": 1.5,
        "startTips": "",
        "title": ""
      },
      "escapeEffect": ""
    },
    "stateLayers": {
      "defaultLayer": {
        "$type": "GBGJJIIEMBD",
        "layerIndexName": "",
        "CPAANEIJCGD": "",
        "stateIDs": {
          "Battle": {
            "$type": "BEIEGKBABOF",
            "animatorStates": {
              "Gear_Start": [],
              "GearAction1": [],
              "Active": [],
              "Close": []
            }
          },
          "Success": {
            "$type": "BEIEGKBABOF",
            "animatorStates": {
              "Success": ["Audio_SceneObj_Gear_Seal01_Active"]
            }
          },
          "To_Action01": {
            "$type": "BEIEGKBABOF",
            "animatorStates": {
              "To_Action01": []
            }
          },
          "To_Action02": {
            "$type": "BEIEGKBABOF",
            "animatorStates": {
              "To_Action02": []
            }
          },
          "To_Action03": {
            "$type": "BEIEGKBABOF",
            "animatorStates": {
              "To_Action03": []
            }
          },
          "To_Action02_All": {
            "$type": "BEIEGKBABOF",
            "animatorStates": {
              "To_Action02_All": []
            }
          },
          "To_Action03_Part": {
            "$type": "BEIEGKBABOF",
            "animatorStates": {
              "To_Action03_Part": []
            }
          },
          "To_Action03_All": {
            "$type": "BEIEGKBABOF",
            "animatorStates": {
              "To_Action03_All": []
            }
          }
        }
      }
    },
    "audio": {
      "$type": "DEGGADLMEOK",
      "overrideEmitterName": "",
      "animAudio": {
        "onTransitionIn": [
          {
            "currentStateName": "Success",
            "audioEvent": {
              "text": "Play_amb_sceneObj_dragonNest_clueBase_unlocking_idle"
            }
          },
          {
            "currentStateName": "To_Action03_All",
            "audioEvent": {
              "text": "Play_amb_sceneObj_dragonNest_clueBase_unlock"
            }
          },
          {
            "currentStateName": "To_Action03_Part",
            "audioEvent": {
              "text": "Play_amb_sceneObj_dragonNest_clueBase_unlock"
            }
          },
          {
            "currentStateName": "To_Action03",
            "audioEvent": {
              "text": "Play_amb_sceneObj_dragonNest_clueBase_unlock"
            }
          }
        ],
        "onTransitionOut": [
          {
            "currentStateName": "Success",
            "audioEvent": {
              "text": "Stop_amb_sceneObj_dragonNest_clueBase_unlocking_idle"
            }
          }
        ]
      }
    },
    "keepModifierOutSight": false,
    "gadgetAction": {
      "gadgetStateActionList": [
        {
          "$type": "FJGKLJLPOGL",
          "intID": "GadgetState",
          "syncState": true
        }
      ]
    }
  },
  "Test_LightLock_Seal_Logic": {
    "$type": "CJKJIENLOHD",
    "common": {
      "viewSize": 10.0,
      "disableTickDistance": 1000.0
    },
    "hasModel": true,
    "combat": {
      "property": {
        "hp": 500.0,
        "isInvincible": true
      },
      "die": {
        "dieEndTime": 3.0,
        "dieForceDisappearTime": 3.0,
        "dieDisappearEffect": ""
      }
    },
    "combatTemplate": "",
    "abilities": [
      {
        "abilityID": "Ability_01",
        "abilityName": "Test_LightLock_Seal_Logic",
        "abilityOverride": ""
      }
    ],
    "field": {
      "concernType": "LocalAvatar",
      "shape": "CircleR2",
      "fromShape": "",
      "triggerInfinite": true,
      "lifeInfinite": true,
      "checkInterval": 0.5,
      "overwriteCampType": true,
      "campType": "SelfCamp",
      "colliderName": "",
      "fromColliderName": ""
    },
    "misc": {
      "seal": {
        "boardEffect": "Eff_Stage_SealBorder02",
        "boardEffectStartPosition": -6.0,
        "boardEffectEndPosition": 1.5,
        "startTips": "",
        "title": ""
      },
      "escapeEffect": ""
    },
    "stateLayers": {
      "defaultLayer": {
        "$type": "GBGJJIIEMBD",
        "layerIndexName": "",
        "CPAANEIJCGD": "",
        "stateIDs": {
          "Seal_Collect": {
            "$type": "BEIEGKBABOF",
            "animatorStates": {
              "Seal_Collect": []
            }
          }
        }
      }
    },
    "gadgetAction": {
      "gadgetStateActionList": [
        {
          "$type": "FJGKLJLPOGL",
          "intID": "GadgetState",
          "syncState": true
        }
      ]
    }
  },
  "Test_LightLock_Point": {
    "$type": "CJKJIENLOHD",
    "common": {
      "disableTickDistance": 1000.0
    },
    "combat": {
      "property": {
        "hp": 500.0,
        "attack": 10.0,
        "defense": 500.0,
        "weight": 50.0,
        "isLockHP": true
      },
      "combatLock": {
        "lockShape": "CircleLockEnemy",
        "denyLockOn": true,
        "lockType": "Gadget_Lv1"
      },
      "die": {
        "dieEndTime": 0.10000000149011612,
        "dieForceDisappearTime": 0.10000000149011612,
        "dieDisappearEffect": ""
      }
    },
    "combatTemplate": "",
    "abilities": [
      {
        "abilityID": "Ability_01",
        "abilityName": "Test_LightLock_Point",
        "abilityOverride": ""
      }
    ],
    "field": {
      "concernType": "LocalAvatar",
      "shape": "",
      "fromShape": "",
      "triggerInfinite": true,
      "lifeInfinite": true,
      "checkInterval": 0.5,
      "overwriteCampType": true,
      "campType": "SelfCamp",
      "colliderName": "",
      "fromColliderName": ""
    }
  },
  "Test_LightLock_Bullet": {
    "$type": "CJKJIENLOHD",
    "common": {
      "effectAttachShape": {
        "$type": "OMIODKONOMG"
      },
      "mass": 50.0,
      "viewSize": 10.0,
      "disableTickDistance": 200.0
    },
    "combat": {
      "property": {
        "hp": 500.0,
        "attack": 10.0,
        "defense": 500.0,
        "weight": 50.0,
        "isLockHP": true
      },
      "beHit": {
        "hitBloodEffect": "",
        "muteAllHitEffect": true,
        "muteAllHitText": true
      },
      "combatLock": {
        "lockShape": "CircleLockEnemy",
        "denyLockOn": true,
        "lockType": "Gadget_Lv1"
      },
      "die": {
        "dieForceDisappearTime": 0.0,
        "dieDisappearEffect": ""
      }
    },
    "combatTemplate": "",
    "abilities": [
      {
        "abilityID": "Ability_01",
        "abilityName": "Test_LightLock_Bullet",
        "abilityOverride": ""
      }
    ],
    "move": {
      "$type": "MMAPEFIEGAL",
      "attachPoint": "RootNode",
      "followRotation": true,
      "LFOHLEKJFBI": ""
    },
    "gadget": {
      "$type": "JENBBNKGGJP",
      "collision": {
        "triggerType": "TriggerAlways",
        "triggerCD": 0.5,
        "targetType": "Enemy",
        "ignoreScene": true
      },
      "maxAutoKillDist": 160.0
    }
  }
}
