{
  "SceneObj_Penumbra_Common_Property_Ani_Prop_CannonV2_02": {
    "$type": "ALBBCOHDFGB",
    "hasModel": true,
    "combat": {
      "property": {
        "hp": 99999.0,
        "attack": 20.0,
        "weight": 50.0,
        "isLockHP": true,
        "ignoreDamageToSelf": true
      },
      "beHit": {
        "hitBloodEffect": "",
        "hitAutoRedirect": false,
        "muteAllHitText": true
      },
      "combatLock": {
        "lockShape": "CircleLockEnemy",
        "denyLockOn": true,
        "lockType": "Gadget_Lv1"
      }
    },
    "combatTemplate": "",
    "abilities": [
      {
        "abilityID": "TargetShooting_Cannon_Init",
        "abilityName": "TargetShootingV2_Cannon_Init",
        "abilityOverride": ""
      },
      {
        "abilityID": "TargetShooting_Extra_Magzine",
        "abilityName": "TargetShootingV2_Extra_Magzine",
        "abilityOverride": ""
      },
      {
        "abilityID": "TargetShootingV2_Cannon_Change",
        "abilityName": "TargetShootingV2_Cannon_Change",
        "abilityOverride": ""
      },
      {
        "abilityID": "TargetShooting_Cannon_Shot",
        "abilityName": "TargetShootingV2_Cannon_Shot",
        "abilityOverride": ""
      },
      {
        "abilityID": "Scene_RockGadget_Summon_Detect",
        "abilityName": "Scene_RockGadget_Summon_Detect",
        "abilityOverride": ""
      }
    ],
    "field": {
      "concernType": "AllAvatars",
      "shape": "CircleR3H5",
      "fromShape": "",
      "triggerInfinite": true,
      "lifeInfinite": true,
      "checkInterval": 0.10000000149011612,
      "overwriteCampType": true,
      "campType": "SelfCamp",
      "colliderName": "",
      "fromColliderName": ""
    },
    "uiInteract": {
      "gadgetUIBtnCfgPath": "TEST/TEST_Chest_Btn",
      "uiName": "UI_GADGET_TargetShooting_Cannon_OPERATE",
      "onTouch": "WidgetMPSupport",
      "touchParams": ["TargetShootingV2_Cannon_Init"],
      "icon": "",
      "groupName": "",
      "confirmDialogTitle": "",
      "confirmDialogContent": "",
      "canOnlyInteractInStandStill": true
    },
    "misc": {
      "customGadgetColliderControl": {
        "JBFPLFCACNJ": "CameraPivot",
        "GCCIDIGBIGD": {
          "y": 2.5,
          "z": -1.0
        },
        "FHFHJFAPADH": 6.0,
        "CLHONOKLFBD": 50.0,
        "OHOJGJKEGPB": 22,
        "IFCEABEKJJN": -55.0,
        "ODCGNOHHNPH": 25.0,
        "GKKPACOCGCI": -90.0,
        "MDMAEGGEGBK": 90.0,
        "ANEDCPCBANO": true,
        "MIMMOAEPAKN": [
          70291144, 70291145, 70291146, 70291147, 70291148, 70291149, 70291150
        ],
        "DMPMPIJNPGN": 4.411799907684326,
        "JFDGNCLKHEA": 0.6499999761581421,
        "GHKHFIIJGDL": 0.44999998807907104,
        "AJNOCIHHMDM": "TargetShootingV2_Cannon_Shot",
        "FOMDMMEDLFK": 0.30000001192092896,
        "KGNFGPKPPEL": "TargetShootingV2_Cannon_Change",
        "LPPLMEHKFFP": "_LOCAL_MAX_AMMO",
        "FDFEKOMILBK": "_CURRENT_AMMO_NUMBER",
        "BGNMEEENMBO": "_AMMO_CHANGING"
      },
      "escapeEffect": ""
    }
  },
  "Penumbra_CannonBallV2_01": {
    "$type": "ALBBCOHDFGB",
    "common": {
      "disableTickDistance": 100000.0
    },
    "model": {
      "bornEffect": "",
      "attachEffect": ""
    },
    "hasModel": true,
    "combat": {
      "property": {
        "useCreatorProperty": true,
        "hp": 99999.0,
        "attack": 10000.0,
        "defense": 99999.0,
        "weight": 1.0,
        "canTriggerBullet": false
      },
      "beHit": {
        "hitBloodEffect": "",
        "muteAllHit": true,
        "muteAllHitEffect": true,
        "muteAllHitText": true
      },
      "combatLock": {
        "lockShape": "CircleLockEnemy",
        "denyLockOn": true,
        "lockType": "Gadget_Lv1"
      }
    },
    "combatTemplate": "",
    "abilities": [
      {
        "abilityID": "Bullet_TargetShooting_CannonBall",
        "abilityName": "Bullet_TargetShooting_CannonBall",
        "abilityOverride": ""
      }
    ],
    "timer": {
      "lifeTime": 2.0
    },
    "move": {
      "$type": "OAJHNEBBFEI",
      "speed": 80.0,
      "BEDFAMLDJHL": {
        "$type": "FPHMJHCMGBF"
      },
      "syncToRemote": true,
      "straightRange": 80.0,
      "gravityOfAcceleration": 20.0,
      "airResistance": 0.10000000149011612
    },
    "gadget": {
      "$type": "FELBEPFPJCJ",
      "collision": {
        "targetType": "Enemy"
      },
      "triggerActions": [
        {
          "$type": "NNHLJFIIKMM",
          "abilityName": "Bullet_TargetShooting_CannonBall"
        }
      ],
      "triggerLifeOverActions": [
        {
          "$type": "NNHLJFIIKMM",
          "abilityName": "Bullet_TargetShooting_CannonBall"
        }
      ]
    }
  },
  "Penumbra_CannonBallV2_02": {
    "$type": "ALBBCOHDFGB",
    "common": {
      "disableTickDistance": 100000.0
    },
    "model": {
      "bornEffect": "",
      "attachEffect": ""
    },
    "hasModel": true,
    "combat": {
      "property": {
        "useCreatorProperty": true,
        "hp": 99999.0,
        "attack": 10000.0,
        "defense": 99999.0,
        "weight": 1.0,
        "canTriggerBullet": false
      },
      "beHit": {
        "hitBloodEffect": "",
        "muteAllHit": true,
        "muteAllHitEffect": true,
        "muteAllHitText": true
      },
      "combatLock": {
        "lockShape": "CircleLockEnemy",
        "denyLockOn": true,
        "lockType": "Gadget_Lv1"
      }
    },
    "combatTemplate": "",
    "abilities": [
      {
        "abilityID": "Bullet_TargetShootingV2_ExplosiveCannonBall",
        "abilityName": "Bullet_TargetShootingV2_ExplosiveCannonBall",
        "abilityOverride": ""
      }
    ],
    "timer": {
      "lifeTime": 2.0
    },
    "move": {
      "$type": "OAJHNEBBFEI",
      "speed": 120.0,
      "BEDFAMLDJHL": {
        "$type": "FPHMJHCMGBF"
      },
      "syncToRemote": true,
      "straightRange": 80.0,
      "gravityOfAcceleration": 20.0,
      "airResistance": 0.10000000149011612
    },
    "gadget": {
      "$type": "FELBEPFPJCJ",
      "collision": {
        "targetType": "Enemy"
      },
      "triggerActions": [
        {
          "$type": "NNHLJFIIKMM",
          "abilityName": "Bullet_TargetShootingV2_ExplosiveCannonBall"
        }
      ],
      "triggerLifeOverActions": [
        {
          "$type": "NNHLJFIIKMM",
          "abilityName": "Bullet_TargetShootingV2_ExplosiveCannonBall"
        }
      ]
    }
  },
  "Penumbra_CannonBallV2_03": {
    "$type": "ALBBCOHDFGB",
    "common": {
      "effectAttachShape": {
        "$type": "DEEFFDAEELC"
      },
      "disableTickDistance": 100000.0
    },
    "hasModel": true,
    "combatTemplate": "canBeAttackedByAny",
    "abilities": [
      {
        "abilityID": "Penumbra_CannonBallV2_03",
        "abilityName": "Penumbra_CannonBallV2_03",
        "abilityOverride": ""
      }
    ],
    "timer": {
      "lifeTime": 1.5
    },
    "move": {
      "$type": "MLNJHNJNOJI",
      "speed": 120.0,
      "BEDFAMLDJHL": {
        "$type": "FPHMJHCMGBF"
      }
    },
    "gadget": {
      "$type": "FELBEPFPJCJ",
      "collision": {
        "ccd": {
          "damageRatio": "Always"
        },
        "triggerType": "TriggerNoRepeat",
        "targetType": "Enemy",
        "ignoreScene": true
      },
      "triggerActions": [
        {
          "$type": "NNHLJFIIKMM",
          "abilityName": "Penumbra_CannonBallV2_03"
        }
      ],
      "triggerLifeOverActions": [
        {
          "$type": "NNHLJFIIKMM",
          "abilityName": "Penumbra_CannonBallV2_03"
        }
      ]
    }
  },
  "Penumbra_CannonBallV2_04": {
    "$type": "ALBBCOHDFGB",
    "common": {
      "effectAttachShape": {
        "$type": "DEEFFDAEELC"
      },
      "disableTickDistance": 100000.0
    },
    "hasModel": true,
    "combatTemplate": "canBeAttackedByAny",
    "abilities": [
      {
        "abilityID": "Penumbra_CannonBallV2_04",
        "abilityName": "Penumbra_CannonBallV2_04",
        "abilityOverride": ""
      }
    ],
    "timer": {
      "lifeTime": 1.5
    },
    "move": {
      "$type": "MLNJHNJNOJI",
      "speed": 120.0,
      "BEDFAMLDJHL": {
        "$type": "FPHMJHCMGBF"
      }
    },
    "gadget": {
      "$type": "FELBEPFPJCJ",
      "collision": {
        "ccd": {
          "damageRatio": "Always"
        },
        "triggerType": "TriggerNoRepeat",
        "targetType": "Enemy",
        "ignoreScene": true
      },
      "triggerActions": [
        {
          "$type": "NNHLJFIIKMM",
          "abilityName": "Penumbra_CannonBallV2_04"
        }
      ],
      "triggerLifeOverActions": [
        {
          "$type": "NNHLJFIIKMM",
          "abilityName": "Penumbra_CannonBallV2_04"
        }
      ]
    }
  }
}
