{
  "SceneObj_Area_Fd_Property_Ani_Prop_LanternFishPacman_WaterGlideChampOrb_01": {
    "$type": "CJKJIENLOHD",
    "hasModel": true,
    "combat": {
      "property": {
        "hp": 99999.0,
        "attack": 50.0,
        "weight": 50.0,
        "isLockHP": true
      },
      "beHit": {
        "hitBloodEffect": "",
        "hitAutoRedirect": false,
        "muteAllHitText": true
      },
      "combatLock": {
        "lockShape": "CircleLockEnemy",
        "denyLockOn": true,
        "lockType": "Gadget_Lv1"
      }
    },
    "combatTemplate": "",
    "abilities": [
      {
        "abilityID": "SceneObj_Area_Fd_Property_Ani_Prop_LanternFishPacman_WaterGlideChampOrb_01",
        "abilityName": "SceneObj_Area_Fd_Property_Ani_Prop_LanternFishPacman_WaterGlideChampOrb_01",
        "abilityOverride": ""
      }
    ],
    "field": {
      "shape": "CircleR1.5H3",
      "fromShape": "",
      "lifeInfinite": true,
      "checkInterval": 0.20000000298023224,
      "triggerCount": 1,
      "overwriteCampType": true,
      "campType": "All",
      "colliderName": "",
      "fromColliderName": ""
    }
  },
  "SceneObj_Area_Fd_Property_Ani_Prop_LanternFishPacman_RemusLanternFish_01": {
    "$type": "CJKJIENLOHD",
    "common": {
      "disableTickDistance": 100001.0
    },
    "globalValue": {
      "serverGlobalValues": [
        "SGV_REMUSLANTERNFISH_STILL_TIME",
        "SGV_MUSICMECH_ACTIVE",
        "SGV_IsWarning",
        "SGV_Whale_Cannon_Mark_ID"
      ],
      "initServerGlobalValues": {
        "SGV_REMUSLANTERNFISH_STILL_TIME": 10.0,
        "SGV_MUSICMECH_ACTIVE": 1.0,
        "SGV_IsWarning": 0.0,
        "SGV_Whale_Cannon_Mark_ID": 8.0
      }
    },
    "hasModel": true,
    "combat": {
      "property": {
        "hp": 99999.0,
        "attack": 50.0,
        "weight": 50.0,
        "isLockHP": true,
        "canTriggerBullet": false
      },
      "beHit": {
        "hitBloodEffect": "",
        "hitAutoRedirect": false,
        "muteAllHitText": true
      },
      "combatLock": {
        "lockShape": "CircleLockEnemy",
        "denyLockOn": true,
        "lockType": "Gadget_Lv1"
      }
    },
    "combatTemplate": "",
    "abilities": [
      {
        "abilityID": "Ability_Trigger",
        "abilityName": "SceneObj_World_4_6_OriMove_02",
        "abilityOverride": ""
      },
      {
        "abilityID": "SceneObj_Area_Fd_Property_Ani_Prop_LanternFishPacman_RemusLanternFish_01",
        "abilityName": "SceneObj_Area_Fd_Property_Ani_Prop_LanternFishPacman_RemusLanternFish_01",
        "abilityOverride": ""
      }
    ],
    "move": {
      "$type": "OEFHHKHPMCJ",
      "LIFBDKPAGKI": true
    },
    "stateLayers": {
      "defaultLayer": {
        "$type": "GBGJJIIEMBD",
        "layerIndexName": "",
        "CPAANEIJCGD": "",
        "stateIDs": {
          "OnStandby": {
            "$type": "BEIEGKBABOF",
            "animatorStates": {
              "Idle": []
            },
            "cullingModelAlwaysAnimate": true
          },
          "OnStill": {
            "$type": "BEIEGKBABOF",
            "animatorStates": {
              "RuinedAS": [],
              "RuinedBS": [],
              "RuinedLoop": []
            },
            "cullingModelAlwaysAnimate": true
          }
        }
      },
      "alertLayer": {
        "$type": "GBGJJIIEMBD",
        "layerIndex": 3,
        "layerIndexName": "Alert Layer",
        "CPAANEIJCGD": "",
        "stateIDs": {
          "OnAlert": {
            "$type": "BEIEGKBABOF",
            "animatorStates": {
              "AlertLoop": []
            },
            "cullingModelAlwaysAnimate": true
          },
          "OnWaring": {
            "$type": "BEIEGKBABOF",
            "animatorStates": {
              "Alert": [],
              "Alert_Reverse": []
            },
            "cullingModelAlwaysAnimate": true
          }
        }
      },
      "doorLayer": {
        "$type": "GBGJJIIEMBD",
        "layerIndex": 1,
        "layerIndexName": "OpenDoor Layer",
        "CPAANEIJCGD": "",
        "stateIDs": {
          "DoorOpen": {
            "$type": "BEIEGKBABOF",
            "animatorStates": {
              "OpenDoorLoop": [],
              "OpenDoor": []
            },
            "cullingModelAlwaysAnimate": true
          },
          "DoorClose": {
            "$type": "BEIEGKBABOF",
            "animatorStates": {
              "CloseDoor": [],
              "CloseDoorLoop": []
            },
            "cullingModelAlwaysAnimate": true
          }
        }
      }
    },
    "gadgetAction": {}
  },
  "SceneObj_Area_Fd_Property_Ani_Prop_WoodenFish_GamePlayController_01": {
    "$type": "CJKJIENLOHD",
    "hasModel": true,
    "combatTemplate": "",
    "abilities": [
      {
        "abilityID": "ability_01",
        "abilityName": "SceneObj_Area_Fd_Property_Ani_Prop_WoodenFish_GamePlayController_01",
        "abilityOverride": ""
      },
      {
        "abilityID": "ability_02",
        "abilityName": "SceneObj_Area_Fd_Property_Ani_Prop_WoodenFish_GamePlayController_02",
        "abilityOverride": ""
      }
    ]
  }
}
