{
  "Klee_NormalAttack": {
    "$type": "CJKJIENLOHD",
    "common": {
      "effectAttachShape": {
        "$type": "OMIODKONOMG",
        "scaleZ": 0.4000000059604645
      },
      "mass": 5.0,
      "affectedByWorld": true,
      "checkInSurface": true
    },
    "combat": {
      "property": {
        "useCreatorProperty": true,
        "hp": 99999.0,
        "isLockHP": true,
        "isGhostToAllied": true
      },
      "combatLock": {
        "lockShape": "CircleLockEnemy",
        "denyLockOn": true,
        "lockType": "Gadget_Lv1"
      }
    },
    "combatTemplate": "",
    "abilities": [
      {
        "abilityID": "NoarmalAttack_Damage",
        "abilityName": "Avatar_Klee_NoarmalAttack_01_Damage",
        "abilityOverride": ""
      },
      {
        "abilityID": "Material",
        "abilityName": "Avatar_Klee_Attack01_Material",
        "abilityOverride": ""
      }
    ],
    "timer": {
      "lifeTime": 2.0
    },
    "move": {
      "$type": "BFDBCCCADKH",
      "speed": 20.0,
      "angleOffHor": 25.0,
      "gravityOfAcceleration": 40.0,
      "correction": {
        "$type": "FEHDIANJKBF",
        "fixAngleOfVer": 15.0,
        "minSpeed": 4.0,
        "maxSpeed": 18.0
      },
      "GEBCKKDCGDP": "",
      "NKPHOKHJKGC": ""
    },
    "gadget": {
      "$type": "JENBBNKGGJP",
      "collision": {
        "targetType": "Enemy"
      },
      "triggerActions": [
        {
          "$type": "AILPBJHDHDG",
          "abilityName": "Avatar_Klee_NoarmalAttack_01_Damage"
        }
      ]
    }
  },
  "Klee_NormalAttack_02": {
    "$type": "CJKJIENLOHD",
    "common": {
      "effectAttachShape": {
        "$type": "OMIODKONOMG",
        "scaleZ": 0.4000000059604645
      },
      "mass": 5.0,
      "affectedByWorld": true,
      "checkInSurface": true
    },
    "combat": {
      "property": {
        "useCreatorProperty": true,
        "hp": 99999.0,
        "isLockHP": true,
        "isGhostToAllied": true
      },
      "combatLock": {
        "lockShape": "CircleLockEnemy",
        "denyLockOn": true,
        "lockType": "Gadget_Lv1"
      }
    },
    "combatTemplate": "",
    "abilities": [
      {
        "abilityID": "NoarmalAttack_Damage",
        "abilityName": "Avatar_Klee_NoarmalAttack_02_Damage",
        "abilityOverride": ""
      },
      {
        "abilityID": "Material",
        "abilityName": "Avatar_Klee_Attack01_Material",
        "abilityOverride": ""
      }
    ],
    "timer": {
      "lifeTime": 2.0
    },
    "move": {
      "$type": "BFDBCCCADKH",
      "speed": 20.0,
      "angleOffHor": 25.0,
      "gravityOfAcceleration": 40.0,
      "correction": {
        "$type": "FEHDIANJKBF",
        "fixAngleOfVer": 15.0,
        "minSpeed": 4.0,
        "maxSpeed": 18.0
      },
      "GEBCKKDCGDP": "",
      "NKPHOKHJKGC": ""
    },
    "gadget": {
      "$type": "JENBBNKGGJP",
      "collision": {
        "targetType": "Enemy"
      },
      "triggerActions": [
        {
          "$type": "AILPBJHDHDG",
          "abilityName": "Avatar_Klee_NoarmalAttack_02_Damage"
        }
      ]
    }
  },
  "Klee_NormalAttack_03": {
    "$type": "CJKJIENLOHD",
    "common": {
      "effectAttachShape": {
        "$type": "OMIODKONOMG",
        "scaleZ": 0.4000000059604645
      },
      "mass": 5.0,
      "affectedByWorld": true,
      "checkInSurface": true
    },
    "combat": {
      "property": {
        "useCreatorProperty": true,
        "hp": 99999.0,
        "isLockHP": true,
        "isGhostToAllied": true
      },
      "combatLock": {
        "lockShape": "CircleLockEnemy",
        "denyLockOn": true,
        "lockType": "Gadget_Lv1"
      }
    },
    "combatTemplate": "",
    "abilities": [
      {
        "abilityID": "NoarmalAttack_Damage",
        "abilityName": "Avatar_Klee_NoarmalAttack_03_Damage",
        "abilityOverride": ""
      },
      {
        "abilityID": "Material",
        "abilityName": "Avatar_Klee_Attack03_Material",
        "abilityOverride": ""
      }
    ],
    "timer": {
      "lifeTime": 2.0
    },
    "move": {
      "$type": "BFDBCCCADKH",
      "speed": 20.0,
      "angleOffHor": 25.0,
      "gravityOfAcceleration": 40.0,
      "correction": {
        "$type": "FEHDIANJKBF",
        "fixAngleOfVer": 15.0,
        "minSpeed": 4.0,
        "maxSpeed": 18.0
      },
      "GEBCKKDCGDP": "",
      "NKPHOKHJKGC": ""
    },
    "gadget": {
      "$type": "JENBBNKGGJP",
      "collision": {
        "targetType": "Enemy"
      },
      "triggerActions": [
        {
          "$type": "AILPBJHDHDG",
          "abilityName": "Avatar_Klee_NoarmalAttack_03_Damage"
        }
      ]
    }
  },
  "Klee_JumpBomb_01": {
    "$type": "CJKJIENLOHD",
    "common": {
      "effectAttachShape": {
        "$type": "OMIODKONOMG",
        "scaleZ": 0.4000000059604645
      },
      "mass": 5.0,
      "affectedByWorld": true,
      "checkInSurface": true
    },
    "combat": {
      "property": {
        "useCreatorProperty": true,
        "hp": 99999.0,
        "isLockHP": true,
        "isGhostToAllied": true
      },
      "combatLock": {
        "lockShape": "CircleLockEnemy",
        "denyLockOn": true,
        "lockType": "Gadget_Lv1"
      }
    },
    "combatTemplate": "",
    "abilities": [
      {
        "abilityID": "Bomb_Explode1",
        "abilityName": "Jumping_Drug_Explode",
        "abilityOverride": ""
      }
    ],
    "timer": {
      "lifeTime": 10.0
    },
    "move": {
      "$type": "BFDBCCCADKH",
      "speed": 8.0,
      "delay": 0.029999999329447746,
      "angleOffHor": 40.0,
      "gravityOfAcceleration": 30.0,
      "correction": {
        "$type": "FEHDIANJKBF",
        "deviation": 0.5,
        "fixAngleOfVer": 5.0,
        "minSpeed": 8.0,
        "maxSpeed": 9.0
      },
      "GEBCKKDCGDP": "",
      "NKPHOKHJKGC": ""
    },
    "gadget": {
      "$type": "JENBBNKGGJP",
      "collision": {},
      "triggerActions": [
        {
          "$type": "AILPBJHDHDG",
          "abilityName": "Jumping_Drug_Explode"
        }
      ]
    }
  },
  "Klee_JumpBomb_02": {
    "$type": "CJKJIENLOHD",
    "common": {
      "effectAttachShape": {
        "$type": "OMIODKONOMG",
        "scaleZ": 0.4000000059604645
      },
      "mass": 5.0,
      "affectedByWorld": true,
      "checkInSurface": true
    },
    "combat": {
      "property": {
        "useCreatorProperty": true,
        "hp": 99999.0,
        "isLockHP": true,
        "isGhostToAllied": true
      },
      "combatLock": {
        "lockShape": "CircleLockEnemy",
        "denyLockOn": true,
        "lockType": "Gadget_Lv1"
      }
    },
    "combatTemplate": "",
    "abilities": [
      {
        "abilityID": "Bomb_Explode2",
        "abilityName": "Jumping_Drug_Explode2",
        "abilityOverride": ""
      }
    ],
    "timer": {
      "lifeTime": 10.0
    },
    "move": {
      "$type": "BFDBCCCADKH",
      "speed": 8.0,
      "delay": 0.10000000149011612,
      "angleOffHor": 70.0,
      "gravityOfAcceleration": 30.0,
      "correction": {
        "$type": "FEHDIANJKBF",
        "deviation": 0.07999999821186066,
        "fixAngleOfVer": 5.0,
        "minSpeed": 8.0,
        "maxSpeed": 9.0
      },
      "GEBCKKDCGDP": "",
      "NKPHOKHJKGC": ""
    },
    "gadget": {
      "$type": "JENBBNKGGJP",
      "collision": {
        "targetType": "Enemy",
        "bornWithTriggerEnabled": false
      },
      "triggerActions": [
        {
          "$type": "AILPBJHDHDG",
          "abilityName": "Jumping_Drug_Explode2"
        }
      ],
      "enableCollisionDelay": 0.30000001192092896
    }
  },
  "Klee_JumpBomb_03": {
    "$type": "CJKJIENLOHD",
    "common": {
      "effectAttachShape": {
        "$type": "OMIODKONOMG",
        "scaleZ": 0.4000000059604645
      },
      "mass": 5.0,
      "affectedByWorld": true,
      "checkInSurface": true
    },
    "combat": {
      "property": {
        "useCreatorProperty": true,
        "hp": 99999.0,
        "isLockHP": true,
        "isGhostToAllied": true
      },
      "combatLock": {
        "lockShape": "CircleLockEnemy",
        "denyLockOn": true,
        "lockType": "Gadget_Lv1"
      }
    },
    "combatTemplate": "",
    "abilities": [
      {
        "abilityID": "Bomb_Explode3",
        "abilityName": "Jumping_Drug_Explode3",
        "abilityOverride": ""
      }
    ],
    "timer": {
      "lifeTime": 10.0
    },
    "move": {
      "$type": "BFDBCCCADKH",
      "speed": 8.0,
      "delay": 0.10000000149011612,
      "angleOffHor": 70.0,
      "gravityOfAcceleration": 30.0,
      "correction": {
        "$type": "FEHDIANJKBF",
        "deviation": 0.5,
        "fixAngleOfVer": 5.0,
        "minSpeed": 8.0,
        "maxSpeed": 9.0
      },
      "GEBCKKDCGDP": "",
      "NKPHOKHJKGC": ""
    },
    "gadget": {
      "$type": "JENBBNKGGJP",
      "collision": {
        "targetType": "Enemy",
        "bornWithTriggerEnabled": false
      },
      "triggerActions": [
        {
          "$type": "AILPBJHDHDG",
          "abilityName": "Jumping_Drug_Explode3"
        }
      ],
      "enableCollisionDelay": 0.30000001192092896
    }
  },
  "JumpDrug_Whitbox_04": {
    "$type": "CJKJIENLOHD",
    "common": {
      "effectAttachShape": {
        "$type": "OMIODKONOMG",
        "scaleZ": 0.4000000059604645
      },
      "mass": 5.0,
      "affectedByWorld": true,
      "checkInSurface": true
    },
    "combat": {
      "property": {
        "useCreatorProperty": true,
        "hp": 99999.0,
        "isLockHP": true,
        "isGhostToAllied": true
      },
      "combatLock": {
        "lockShape": "CircleLockEnemy",
        "denyLockOn": true,
        "lockType": "Gadget_Lv1"
      }
    },
    "combatTemplate": "",
    "timer": {
      "lifeTime": 15.0
    },
    "move": {
      "$type": "BFDBCCCADKH",
      "speed": 10.0,
      "angleOffHor": 25.0,
      "gravityOfAcceleration": 12.0,
      "correction": {
        "$type": "FEHDIANJKBF",
        "deviation": 2.0,
        "fixAngleOfVer": 5.0,
        "minSpeed": 5.0,
        "maxSpeed": 20.0
      },
      "GEBCKKDCGDP": "",
      "NKPHOKHJKGC": ""
    },
    "gadget": {
      "$type": "JENBBNKGGJP",
      "collision": {
        "targetType": "Enemy"
      }
    },
    "equipment": {
      "attachTo": "equip03",
      "subAttachTo": "",
      "auxToTrans": "",
      "equipEntityType": "Spear"
    }
  },
  "Klee_Mine_Throw": {
    "$type": "CJKJIENLOHD",
    "common": {
      "effectAttachShape": {
        "$type": "OMIODKONOMG",
        "scaleZ": 0.4000000059604645
      },
      "mass": 5.0,
      "affectedByWorld": true,
      "checkInSurface": true
    },
    "combat": {
      "property": {
        "useCreatorProperty": true,
        "isLockHP": true,
        "isGhostToAllied": true
      },
      "combatLock": {
        "lockShape": "CircleLockEnemy",
        "denyLockOn": true,
        "lockType": "Gadget_Lv1"
      }
    },
    "combatTemplate": "",
    "abilities": [
      {
        "abilityID": "Avatar_Klee_ThrowMine",
        "abilityName": "Avatar_Klee_ThrowMine",
        "abilityOverride": ""
      }
    ],
    "timer": {
      "lifeTime": 5.0
    },
    "move": {
      "$type": "BFDBCCCADKH",
      "speed": 12.0,
      "acceleration": -10.0,
      "angleOffHor": 70.0,
      "gravityOfAcceleration": 35.0,
      "GEBCKKDCGDP": "",
      "NKPHOKHJKGC": ""
    },
    "gadget": {
      "$type": "JENBBNKGGJP",
      "collision": {
        "targetType": "Enemy",
        "bornWithTriggerEnabled": false
      },
      "triggerActions": [
        {
          "$type": "AILPBJHDHDG",
          "abilityName": "Avatar_Klee_ThrowMine"
        }
      ],
      "enableCollisionDelay": 0.20000000298023224
    }
  },
  "Avatar_Klee_Mine": {
    "$type": "CJKJIENLOHD",
    "common": {
      "effectAttachShape": {
        "$type": "OMIODKONOMG"
      },
      "affectedByWorld": true
    },
    "combat": {
      "property": {
        "useCreatorProperty": true
      },
      "beHit": {
        "hitBloodEffect": "",
        "muteAllHitText": true
      },
      "combatLock": {
        "lockShape": "CircleLockEnemy",
        "denyLockOn": true,
        "lockType": "Gadget_Lv1"
      }
    },
    "combatTemplate": "",
    "abilities": [
      {
        "abilityID": "Avatar_Klee_Mine",
        "abilityName": "Avatar_Klee_Mine",
        "abilityOverride": ""
      },
      {
        "abilityID": "Avatar_Klee_Constellation_2",
        "abilityName": "Avatar_Klee_Constellation_2",
        "abilityOverride": ""
      }
    ],
    "timer": {
      "lifeTime": 16.0
    },
    "move": {
      "$type": "MGENMIHFEJO",
      "velocityForce": {
        "includeForces": ["WindZoneType", "RetreatType", "RetreatAirType"]
      },
      "startCloseToGround": false
    },
    "gadget": {
      "$type": "JENBBNKGGJP",
      "collision": {
        "targetType": "Enemy",
        "ignoreScene": true
      },
      "triggerActions": [
        {
          "$type": "AILPBJHDHDG",
          "abilityName": "Avatar_Klee_Mine"
        }
      ],
      "enableCollisionDelay": 1.0,
      "resetLastPosOnDelayEnd": true,
      "reTriggerOnDelayEnd": true
    }
  },
  "Klee_Elemental_Burst_Trigger": {
    "$type": "CJKJIENLOHD",
    "common": {
      "effectAttachShape": {
        "$type": "OMIODKONOMG"
      }
    },
    "combat": {
      "property": {
        "useCreatorProperty": true,
        "isGhostToEnemy": true
      }
    },
    "combatTemplate": "",
    "abilities": [
      {
        "abilityID": "CreateBomb",
        "abilityName": "Avatar_Klee_Elemental_Burst_Trigger",
        "abilityOverride": ""
      }
    ],
    "timer": {
      "lifeTime": 25.0
    },
    "move": {
      "$type": "MMAPEFIEGAL",
      "attachPoint": "",
      "followRotation": true,
      "offset": {
        "y": 1.0
      },
      "followOwnerInvisible": true,
      "LFOHLEKJFBI": ""
    }
  },
  "Klee_Elemental_Burst_Bomb": {
    "$type": "CJKJIENLOHD",
    "combat": {
      "property": {
        "useCreatorProperty": true,
        "weight": 50.0,
        "isGhostToAllied": true,
        "isGhostToEnemy": true
      },
      "beHit": {
        "hitBloodEffect": "",
        "muteAllHit": true,
        "muteAllHitEffect": true,
        "muteAllHitText": true
      },
      "combatLock": {
        "lockShape": "CircleLockEnemy",
        "denyLockOn": true,
        "lockType": "Gadget_Lv1"
      }
    },
    "combatTemplate": "",
    "abilities": [
      {
        "abilityID": "Explode",
        "abilityName": "Avatar_Klee_Elemental_Burst_Explode",
        "abilityOverride": ""
      }
    ],
    "timer": {
      "lifeTime": 2.0
    },
    "move": {
      "$type": "GMOHNHFHLAO",
      "speed": 25.0,
      "maxSpeed": 25.0,
      "minSpeed": 20.0,
      "acceleration": 1.0,
      "traceOnYAxis": true
    },
    "gadget": {
      "$type": "JENBBNKGGJP",
      "collision": {
        "targetType": "Enemy"
      },
      "triggerActions": [
        {
          "$type": "AILPBJHDHDG",
          "abilityName": "Avatar_Klee_Elemental_Burst_Explode"
        }
      ]
    }
  },
  "Klee_Constellation_Bomb": {
    "$type": "CJKJIENLOHD",
    "combat": {
      "property": {
        "useCreatorProperty": true,
        "weight": 50.0,
        "isGhostToAllied": true,
        "isGhostToEnemy": true
      },
      "beHit": {
        "hitBloodEffect": "",
        "muteAllHit": true,
        "muteAllHitEffect": true,
        "muteAllHitText": true
      },
      "combatLock": {
        "lockShape": "CircleLockEnemy",
        "denyLockOn": true,
        "lockType": "Gadget_Lv1"
      }
    },
    "combatTemplate": "",
    "abilities": [
      {
        "abilityID": "Explode",
        "abilityName": "Avatar_Klee_Constellation_Explode",
        "abilityOverride": ""
      }
    ],
    "timer": {
      "lifeTime": 2.0
    },
    "move": {
      "$type": "GMOHNHFHLAO",
      "speed": 25.0,
      "maxSpeed": 25.0,
      "minSpeed": 20.0,
      "acceleration": 1.0,
      "traceOnYAxis": true
    },
    "gadget": {
      "$type": "JENBBNKGGJP",
      "collision": {
        "targetType": "Enemy"
      },
      "triggerActions": [
        {
          "$type": "AILPBJHDHDG",
          "abilityName": "Avatar_Klee_Constellation_Explode"
        }
      ]
    }
  },
  "Klee_Elemental_Burst_Funnel": {
    "$type": "CJKJIENLOHD",
    "common": {
      "effectAttachShape": {
        "$type": "OMIODKONOMG"
      },
      "affectedByWorld": true,
      "checkInSurface": true
    },
    "combat": {
      "property": {
        "useCreatorProperty": true,
        "weight": 150.0,
        "isInvincible": true
      },
      "combatLock": {
        "lockShape": "CircleLockEnemy",
        "denyLockOn": true,
        "lockType": "Gadget_Lv1"
      },
      "die": {
        "dieDisappearEffect": ""
      }
    },
    "combatTemplate": "",
    "abilities": [
      {
        "abilityID": "Funnel",
        "abilityName": "Klee_Elemental_Burst_Funnel",
        "abilityOverride": ""
      }
    ],
    "timer": {
      "lifeTime": 1.5
    },
    "move": {
      "$type": "GMOHNHFHLAO",
      "speed": 0.009999999776482582,
      "DPAAFHNMHHN": {
        "$type": "IFAANDLLGLP",
        "traceLerpCoef": 360.0
      },
      "traceOnYAxis": true
    }
  },
  "Klee_Constellation_Funnel": {
    "$type": "CJKJIENLOHD",
    "common": {
      "effectAttachShape": {
        "$type": "OMIODKONOMG"
      },
      "affectedByWorld": true,
      "checkInSurface": true
    },
    "combat": {
      "property": {
        "useCreatorProperty": true,
        "weight": 150.0,
        "isInvincible": true
      },
      "combatLock": {
        "lockShape": "CircleLockEnemy",
        "denyLockOn": true,
        "lockType": "Gadget_Lv1"
      },
      "die": {
        "dieDisappearEffect": ""
      }
    },
    "combatTemplate": "",
    "abilities": [
      {
        "abilityID": "Constellation_Funnel",
        "abilityName": "Klee_Constellation_Funnel",
        "abilityOverride": ""
      }
    ],
    "timer": {
      "lifeTime": 1.5
    },
    "move": {
      "$type": "GMOHNHFHLAO",
      "speed": 0.009999999776482582,
      "DPAAFHNMHHN": {
        "$type": "IFAANDLLGLP",
        "traceLerpCoef": 360.0
      },
      "traceOnYAxis": true
    }
  },
  "Klee_Elemental_Burst_Bullet": {
    "$type": "CJKJIENLOHD",
    "common": {
      "effectAttachShape": {
        "$type": "OMIODKONOMG"
      }
    },
    "combat": {
      "property": {
        "useCreatorProperty": true,
        "isGhostToAllied": true,
        "isGhostToEnemy": true,
        "canTriggerBullet": false
      },
      "beHit": {
        "hitBloodEffect": "",
        "muteAllHit": true,
        "muteAllHitEffect": true,
        "muteAllHitText": true
      },
      "combatLock": {
        "lockShape": "CircleLockEnemy",
        "denyLockOn": true,
        "lockType": "Gadget_Lv1"
      }
    },
    "combatTemplate": "",
    "abilities": [
      {
        "abilityID": "CreateFunnel",
        "abilityName": "Avatar_Klee_ElementalBurst_CreateFunnel",
        "abilityOverride": ""
      },
      {
        "abilityID": "Material",
        "abilityName": "Avatar_Klee_ElementalBurst_Bullet_Material",
        "abilityOverride": ""
      }
    ],
    "timer": {
      "lifeTime": 3.5
    },
    "move": {
      "$type": "GMOHNHFHLAO",
      "speed": 30.0,
      "maxSpeed": 30.0,
      "minSpeed": 8.0,
      "acceleration": 1.0,
      "traceOnYAxis": true
    },
    "gadget": {
      "$type": "JENBBNKGGJP",
      "collision": {
        "targetType": "Enemy"
      },
      "triggerActions": [
        {
          "$type": "AILPBJHDHDG",
          "abilityName": "Avatar_Klee_ElementalBurst_CreateFunnel"
        }
      ]
    }
  },
  "Klee_ExtraAttack": {
    "$type": "CJKJIENLOHD",
    "common": {
      "effectAttachShape": {
        "$type": "OMIODKONOMG"
      },
      "checkInSurface": true
    },
    "combat": {
      "property": {
        "useCreatorProperty": true,
        "weight": 150.0,
        "isLockHP": true,
        "isGhostToEnemy": true
      },
      "combatLock": {
        "lockShape": "CircleLockEnemy",
        "denyLockOn": true,
        "lockType": "Gadget_Lv1"
      },
      "die": {
        "dieDisappearEffect": "Eff_Klee_ExtraAttack_Clover_Die"
      }
    },
    "combatTemplate": "",
    "abilities": [
      {
        "abilityID": "Material",
        "abilityName": "Avatar_Klee_ExtraAttack_Clover",
        "abilityOverride": ""
      }
    ],
    "timer": {
      "lifeTime": 1.3200000524520874
    },
    "stateLayers": {
      "defaultLayer": {
        "$type": "GBGJJIIEMBD",
        "layerIndexName": "",
        "CPAANEIJCGD": "",
        "stateIDs": {
          "ExtraAttack": {
            "$type": "BEIEGKBABOF",
            "animatorStates": {
              "ExtraAttack": ["Klee_ExtraAttack_Clover"]
            },
            "cullingModelAlwaysAnimate": true
          }
        }
      }
    }
  },
  "Klee_ExtraAttack_Bullet": {
    "$type": "CJKJIENLOHD",
    "common": {
      "effectAttachShape": {
        "$type": "OMIODKONOMG"
      }
    },
    "combat": {
      "property": {
        "useCreatorProperty": true,
        "isGhostToAllied": true,
        "isGhostToEnemy": true,
        "canTriggerBullet": false
      },
      "beHit": {
        "hitBloodEffect": "",
        "muteAllHit": true,
        "muteAllHitEffect": true,
        "muteAllHitText": true
      },
      "combatLock": {
        "lockShape": "CircleLockEnemy",
        "denyLockOn": true,
        "lockType": "Gadget_Lv1"
      }
    },
    "combatTemplate": "",
    "abilities": [
      {
        "abilityID": "Material",
        "abilityName": "Avatar_Klee_ExtraAttack_Clover_Bullet",
        "abilityOverride": ""
      }
    ],
    "timer": {
      "lifeTime": 0.800000011920929
    },
    "move": {
      "$type": "GMOHNHFHLAO",
      "speed": 30.0,
      "maxSpeed": 45.0,
      "minSpeed": 10.0,
      "acceleration": 1.0,
      "delay": 0.10000000149011612,
      "traceOnYAxis": true
    },
    "gadget": {
      "$type": "JENBBNKGGJP",
      "collision": {
        "targetType": "Enemy"
      },
      "triggerActions": [
        {
          "$type": "AILPBJHDHDG",
          "abilityName": "Avatar_Klee_ExtraAttack_Clover_Bullet"
        }
      ]
    }
  }
}
