{
  "SceneObj_Penumbra_Common_Property_Ani_Prop_CannonTarget_01": {
    "$type": "CJKJIENLOHD",
    "common": {
      "disableTickDistance": 100001.0
    },
    "hasModel": true,
    "combat": {
      "property": {
        "hp": 10.0,
        "attack": 80.0,
        "weight": 80.0,
        "isLockHP": true
      },
      "beHit": {
        "hitBloodEffect": "",
        "hitAutoRedirect": false,
        "muteAllHitText": true
      },
      "combatLock": {
        "lockShape": "CircleLockEnemy",
        "denyLockOn": true,
        "lockType": "Default"
      },
      "die": {
        "dieEndTime": 0.10000000149011612,
        "dieDisappearEffect": ""
      }
    },
    "combatTemplate": "",
    "abilities": [
      {
        "abilityID": "SceneObj_Penumbra_Common_Property_Ani_Prop_CannonTarget_01",
        "abilityName": "SceneObj_Penumbra_Common_Property_Ani_Prop_CannonTarget_01",
        "abilityOverride": ""
      }
    ],
    "move": {
      "$type": "OEFHHKHPMCJ"
    }
  },
  "SceneObj_Penumbra_Common_Property_Ani_Prop_CannonTarget_02": {
    "$type": "CJKJIENLOHD",
    "common": {
      "disableTickDistance": 100001.0
    },
    "hasModel": true,
    "combat": {
      "property": {
        "hp": 10.0,
        "attack": 80.0,
        "weight": 80.0,
        "isLockHP": true
      },
      "beHit": {
        "hitBloodEffect": "",
        "hitAutoRedirect": false,
        "muteAllHitText": true
      },
      "combatLock": {
        "lockShape": "CircleLockEnemy",
        "denyLockOn": true,
        "lockType": "Default"
      },
      "die": {
        "dieEndTime": 0.10000000149011612,
        "dieDisappearEffect": ""
      }
    },
    "combatTemplate": "",
    "abilities": [
      {
        "abilityID": "SceneObj_Penumbra_Common_Property_Ani_Prop_CannonTarget_02",
        "abilityName": "SceneObj_Penumbra_Common_Property_Ani_Prop_CannonTarget_02",
        "abilityOverride": ""
      }
    ],
    "move": {
      "$type": "OEFHHKHPMCJ"
    }
  },
  "SceneObj_Penumbra_Common_Property_Ani_Prop_CannonTarget_03": {
    "$type": "CJKJIENLOHD",
    "common": {
      "disableTickDistance": 100001.0
    },
    "hasModel": true,
    "combat": {
      "property": {
        "hp": 10.0,
        "attack": 80.0,
        "weight": 80.0,
        "isLockHP": true
      },
      "beHit": {
        "hitBloodEffect": "",
        "hitAutoRedirect": false,
        "muteAllHitText": true
      },
      "combatLock": {
        "lockShape": "CircleLockEnemy",
        "denyLockOn": true,
        "lockType": "Default"
      },
      "die": {
        "dieEndTime": 0.10000000149011612,
        "dieDisappearEffect": ""
      }
    },
    "combatTemplate": "",
    "abilities": [
      {
        "abilityID": "SceneObj_Penumbra_Common_Property_Ani_Prop_CannonTarget_03",
        "abilityName": "SceneObj_Penumbra_Common_Property_Ani_Prop_CannonTarget_03",
        "abilityOverride": ""
      }
    ],
    "move": {
      "$type": "OEFHHKHPMCJ"
    }
  },
  "SceneObj_Penumbra_Common_Property_Ani_Prop_CannonTarget_04": {
    "$type": "CJKJIENLOHD",
    "common": {
      "disableTickDistance": 100001.0
    },
    "hasModel": true,
    "combat": {
      "property": {
        "hp": 10.0,
        "attack": 80.0,
        "weight": 80.0,
        "isLockHP": true
      },
      "beHit": {
        "hitBloodEffect": "",
        "hitAutoRedirect": false,
        "muteAllHitText": true
      },
      "combatLock": {
        "lockShape": "CircleLockEnemy",
        "denyLockOn": true,
        "lockType": "Default"
      },
      "die": {
        "dieEndTime": 0.10000000149011612,
        "dieDisappearEffect": ""
      }
    },
    "combatTemplate": "",
    "abilities": [
      {
        "abilityID": "SceneObj_Penumbra_Common_Property_Ani_Prop_CannonTarget_04",
        "abilityName": "SceneObj_Penumbra_Common_Property_Ani_Prop_CannonTarget_04",
        "abilityOverride": ""
      }
    ],
    "move": {
      "$type": "OEFHHKHPMCJ"
    }
  },
  "SceneObj_Penumbra_Common_Property_Ani_Prop_CannonTarget_05": {
    "$type": "CJKJIENLOHD",
    "common": {
      "disableTickDistance": 100001.0
    },
    "hasModel": true,
    "combat": {
      "property": {
        "hp": 10.0,
        "attack": 80.0,
        "weight": 80.0,
        "isLockHP": true
      },
      "beHit": {
        "hitBloodEffect": "",
        "hitAutoRedirect": false,
        "muteAllHitText": true
      },
      "combatLock": {
        "lockShape": "CircleLockEnemy",
        "denyLockOn": true,
        "lockType": "Default"
      },
      "die": {
        "dieEndTime": 0.10000000149011612,
        "dieDisappearEffect": ""
      }
    },
    "combatTemplate": "",
    "abilities": [
      {
        "abilityID": "SceneObj_Penumbra_Common_Property_Ani_Prop_CannonTarget_05",
        "abilityName": "SceneObj_Penumbra_Common_Property_Ani_Prop_CannonTarget_05",
        "abilityOverride": ""
      }
    ],
    "move": {
      "$type": "OEFHHKHPMCJ"
    }
  },
  "SceneObj_Penumbra_Common_Property_Ani_Prop_CannonTarget_06": {
    "$type": "CJKJIENLOHD",
    "common": {
      "disableTickDistance": 100001.0
    },
    "KJGJCNANPJP": true,
    "hasModel": true,
    "combat": {
      "property": {
        "hp": 10.0,
        "attack": 80.0,
        "weight": 80.0,
        "isLockHP": true
      },
      "beHit": {
        "hitBloodEffect": "",
        "hitAutoRedirect": false,
        "muteAllHitText": true
      },
      "combatLock": {
        "lockShape": "CircleLockEnemy",
        "denyLockOn": true,
        "lockType": "Default"
      },
      "die": {
        "dieEndTime": 0.10000000149011612,
        "dieDisappearEffect": ""
      }
    },
    "combatTemplate": "",
    "abilities": [
      {
        "abilityID": "SceneObj_Penumbra_Common_Property_Ani_Prop_CannonTarget_06",
        "abilityName": "SceneObj_Penumbra_Common_Property_Ani_Prop_CannonTarget_06",
        "abilityOverride": ""
      }
    ],
    "move": {
      "$type": "OEFHHKHPMCJ"
    }
  },
  "SceneObj_Penumbra_Common_Property_Ani_Prop_BossTarget_01": {
    "$type": "CJKJIENLOHD",
    "common": {
      "disableTickDistance": 100001.0
    },
    "hasModel": true,
    "combat": {
      "property": {
        "hp": 10.0,
        "attack": 80.0,
        "weight": 80.0,
        "isLockHP": true
      },
      "beHit": {
        "hitBloodEffect": "",
        "hitAutoRedirect": false,
        "muteAllHitText": true
      },
      "combatLock": {
        "lockShape": "CircleLockEnemy",
        "denyLockOn": true,
        "lockType": "Default"
      },
      "die": {
        "dieEndTime": 0.10000000149011612,
        "dieDisappearEffect": ""
      }
    },
    "combatTemplate": "",
    "abilities": [
      {
        "abilityID": "SceneObj_Penumbra_Common_Property_Ani_Prop_BossTarget_01",
        "abilityName": "SceneObj_Penumbra_Common_Property_Ani_Prop_BossTarget_01",
        "abilityOverride": ""
      }
    ],
    "move": {
      "$type": "OEFHHKHPMCJ"
    },
    "billboard": {
      "$type": "MCINMKADGHP",
      "attachPoint": "BillboardAttach",
      "offset": {
        "y": 9.0
      },
      "customKeyList": ["BOSS_HEALTH", "BOSS_HEALTH_NUM", "BOSS_TYPE"],
      "maxValue": 4.0,
      "prefabPluginName": "",
      "damageRatio": "PenAdvTargetShootingBoss"
    }
  },
  "SceneObj_Penumbra_Common_Property_Ani_Prop_Cannon_01": {
    "$type": "CJKJIENLOHD",
    "hasModel": true,
    "combat": {
      "property": {
        "hp": 10.0,
        "attack": 80.0,
        "weight": 80.0,
        "isLockHP": true,
        "isGhostToAllied": true,
        "isGhostToEnemy": true
      },
      "beHit": {
        "hitBloodEffect": "",
        "hitAutoRedirect": false,
        "muteAllHit": true,
        "muteAllHitEffect": true,
        "muteAllHitText": true
      },
      "combatLock": {
        "lockShape": "CircleLockEnemy",
        "denyLockOn": true,
        "lockType": "Default"
      }
    },
    "combatTemplate": ""
  }
}
