{
  "SceneObj_Monster_Eldritch_Tentacle_Message": {
    "$type": "CJKJIENLOHD",
    "combatTemplate": ""
  },
  "SceneObj_Monster_Eldritch_Tentacle_Control": {
    "$type": "CJKJIENLOHD",
    "combat": {
      "property": {
        "endureType": "Monster_Boss_Other",
        "hp": 99999.0,
        "isInvincible": true,
        "isGhostToAllied": true,
        "isGhostToEnemy": true
      },
      "combatLock": {
        "lockShape": "CircleLockEnemy",
        "denyLockOn": true,
        "lockType": "Default"
      }
    },
    "combatTemplate": "",
    "abilities": [
      {
        "abilityID": "Tentacle_Control_Ability",
        "abilityName": "SceneObj_Monster_Eldritch_Tentacle_Control_Ability",
        "abilityOverride": ""
      }
    ]
  },
  "SceneObj_Monster_Eldritch_Tentacle_SkillControl": {
    "$type": "CJKJIENLOHD",
    "combat": {
      "property": {
        "hp": 100.0,
        "attack": 10.0,
        "isInvincible": true,
        "isGhostToAllied": true,
        "isGhostToEnemy": true,
        "canTriggerBullet": false
      },
      "combatLock": {
        "lockShape": "CircleLockEnemy",
        "denyLockOn": true,
        "lockType": "Default"
      }
    },
    "combatTemplate": "",
    "abilities": [
      {
        "abilityID": "SceneObj_Monster_Eldritch_Tentacle_SkillControl_Ability",
        "abilityName": "SceneObj_Monster_Eldritch_Tentacle_SkillControl_Ability",
        "abilityOverride": ""
      }
    ],
    "timer": {
      "lifeTime": 5.0
    }
  },
  "SceneObj_Monster_Eldritch_Tentacle_WaterBulletTargeting": {
    "$type": "CJKJIENLOHD",
    "combat": {
      "property": {
        "useCreatorProperty": true,
        "hp": 100.0,
        "isInvincible": true,
        "isLockHP": true,
        "isGhostToEnemy": true
      },
      "beHit": {
        "hitBloodEffect": "",
        "hitAutoRedirect": false
      },
      "combatLock": {
        "lockShape": "CircleLockEnemy",
        "denyLockOn": true,
        "lockType": "Default"
      }
    },
    "combatTemplate": "",
    "abilities": [
      {
        "abilityID": "SceneObj_Monster_Eldritch_Tentacle_WaterBulletTargeting_Ability",
        "abilityName": "SceneObj_Monster_Eldritch_Tentacle_WaterBulletTargeting_Ability",
        "abilityOverride": ""
      }
    ],
    "timer": {
      "lifeTime": 7.0
    }
  },
  "SceneObj_Monster_Eldritch_Tentacle_WaterBullet": {
    "$type": "CJKJIENLOHD",
    "combat": {
      "property": {
        "useCreatorProperty": true,
        "hp": 999999.0,
        "attack": 10.0,
        "defense": 999999.0,
        "isInvincible": true,
        "isGhostToAllied": true,
        "isGhostToEnemy": true
      },
      "beHit": {
        "hitBloodEffect": "",
        "muteAllHit": true,
        "muteAllHitEffect": true,
        "muteAllHitText": true
      },
      "combatLock": {
        "lockShape": "CircleLockEnemy",
        "denyLockOn": true,
        "lockType": "Default"
      }
    },
    "combatTemplate": "",
    "abilities": [
      {
        "abilityID": "SceneObj_Monster_Eldritch_Tentacle_WaterBullet_Explode",
        "abilityName": "SceneObj_Monster_Eldritch_Tentacle_WaterBullet_Explode",
        "abilityOverride": ""
      }
    ],
    "timer": {
      "lifeTime": 10.0
    },
    "move": {
      "$type": "GONNMCBKAOC",
      "speed": 20.0,
      "acceleration": 5.0,
      "DPAAFHNMHHN": {
        "$type": "IFAANDLLGLP"
      }
    },
    "gadget": {
      "$type": "JENBBNKGGJP",
      "collision": {
        "targetType": "SelfCamp",
        "ignoreScene": true
      },
      "triggerActions": [
        {
          "$type": "AILPBJHDHDG",
          "abilityName": "SceneObj_Monster_Eldritch_Tentacle_WaterBullet_Explode"
        }
      ],
      "killByOther": true
    }
  },
  "SceneObj_Monster_Eldritch_Tentacle_ElementalBurst": {
    "$type": "CJKJIENLOHD",
    "combat": {
      "property": {
        "useCreatorProperty": true,
        "hp": 100.0,
        "isInvincible": true,
        "isLockHP": true,
        "isGhostToEnemy": true
      },
      "beHit": {
        "hitBloodEffect": "",
        "hitAutoRedirect": false
      },
      "combatLock": {
        "lockShape": "CircleLockEnemy",
        "denyLockOn": true,
        "lockType": "Default"
      }
    },
    "combatTemplate": "",
    "abilities": [
      {
        "abilityID": "SceneObj_Monster_Eldritch_Tentacle_ElementalBurst_Ability",
        "abilityName": "SceneObj_Monster_Eldritch_Tentacle_ElementalBurst_Ability",
        "abilityOverride": ""
      }
    ],
    "timer": {
      "lifeTime": 20.0
    }
  },
  "SceneObj_Monster_Eldritch_Tentacle_ElementalBurst_Damage": {
    "$type": "CJKJIENLOHD",
    "combat": {
      "property": {
        "useCreatorProperty": true,
        "hp": 999999.0,
        "attack": 10.0,
        "defense": 999999.0,
        "isInvincible": true,
        "isGhostToAllied": true,
        "isGhostToEnemy": true
      },
      "beHit": {
        "hitBloodEffect": "",
        "muteAllHit": true,
        "muteAllHitEffect": true,
        "muteAllHitText": true
      },
      "combatLock": {
        "lockShape": "CircleLockEnemy",
        "denyLockOn": true,
        "lockType": "Default"
      }
    },
    "combatTemplate": "",
    "abilities": [
      {
        "abilityID": "SceneObj_Monster_Eldritch_Tentacle_ElementalBurst_Damage_Ability",
        "abilityName": "SceneObj_Monster_Eldritch_Tentacle_ElementalBurst_Damage_Ability",
        "abilityOverride": ""
      }
    ],
    "timer": {
      "lifeTime": 10.0
    },
    "move": {
      "$type": "GONNMCBKAOC",
      "speed": 20.0,
      "acceleration": 5.0,
      "DPAAFHNMHHN": {
        "$type": "IFAANDLLGLP"
      }
    },
    "gadget": {
      "$type": "JENBBNKGGJP",
      "collision": {
        "triggerType": "TriggerNoRepeat",
        "targetType": "SelfCamp",
        "ignoreScene": true
      },
      "triggerActions": [
        {
          "$type": "AILPBJHDHDG",
          "abilityName": "SceneObj_Monster_Eldritch_Tentacle_ElementalBurst_Damage_Ability"
        }
      ],
      "killByOther": true
    }
  },
  "SceneObj_Monster_Eldritch_Tentacle_PA": {
    "$type": "CJKJIENLOHD",
    "common": {
      "mass": 100000000.0,
      "scale": 4.0,
      "disableTickDistance": 10000.0,
      "muteElementStickUI": true
    },
    "hasModel": true,
    "combat": {
      "property": {
        "endureType": "Monster_Boss_Other",
        "hp": 99999.0,
        "isInvincible": true,
        "isGhostToAllied": true,
        "isGhostToEnemy": true
      },
      "combatLock": {
        "lockShape": "CircleLockEnemy",
        "denyLockOn": true,
        "lockType": "Default"
      }
    },
    "combatTemplate": "",
    "abilities": [
      {
        "abilityID": "SceneObj_Monster_Eldritch_Tentacle_BattleIdle",
        "abilityName": "SceneObj_Monster_Eldritch_Tentacle_BattleIdle",
        "abilityOverride": ""
      }
    ],
    "stateLayers": {
      "defaultLayer": {
        "$type": "GBGJJIIEMBD",
        "layerIndexName": "",
        "CPAANEIJCGD": "",
        "stateIDs": {
          "NormalIdle": {
            "$type": "BEIEGKBABOF",
            "animatorStates": {
              "Standby": []
            },
            "cullingModelAlwaysAnimate": true
          },
          "BeHit": {
            "$type": "BEIEGKBABOF",
            "animatorStates": {
              "BeHit": ["Audio_Eldritch_Tentacle_Behit"]
            },
            "cullingModelAlwaysAnimate": true
          },
          "Attack": {
            "$type": "BEIEGKBABOF",
            "animatorStates": {
              "Attack": [
                "Gadget_Scene_Monster_Eldritch_Tentacle_Attack",
                "Audio_Eldritch_Tentacle_Attack"
              ]
            },
            "cullingModelAlwaysAnimate": true
          },
          "BattleIdle": {
            "$type": "BEIEGKBABOF",
            "animatorStates": {
              "BattleIdle": []
            },
            "cullingModelAlwaysAnimate": true
          }
        }
      }
    }
  },
  "SceneObj_Monster_Eldritch_Tentacle_PB": {
    "$type": "CJKJIENLOHD",
    "common": {
      "mass": 100000000.0,
      "scale": 4.0,
      "disableTickDistance": 10000.0,
      "muteElementStickUI": true
    },
    "hasModel": true,
    "combat": {
      "property": {
        "endureType": "Monster_Boss_Other",
        "hp": 99999.0,
        "isInvincible": true,
        "isGhostToAllied": true,
        "isGhostToEnemy": true
      },
      "combatLock": {
        "lockShape": "CircleLockEnemy",
        "denyLockOn": true,
        "lockType": "Default"
      }
    },
    "combatTemplate": "",
    "abilities": [
      {
        "abilityID": "SceneObj_Monster_Eldritch_Tentacle_BattleIdle",
        "abilityName": "SceneObj_Monster_Eldritch_Tentacle_BattleIdle",
        "abilityOverride": ""
      }
    ],
    "stateLayers": {
      "defaultLayer": {
        "$type": "GBGJJIIEMBD",
        "layerIndexName": "",
        "CPAANEIJCGD": "",
        "stateIDs": {
          "NormalIdle": {
            "$type": "BEIEGKBABOF",
            "animatorStates": {
              "Standby": []
            },
            "cullingModelAlwaysAnimate": true
          },
          "BeHit": {
            "$type": "BEIEGKBABOF",
            "animatorStates": {
              "BeHit": []
            },
            "cullingModelAlwaysAnimate": true
          },
          "Attack": {
            "$type": "BEIEGKBABOF",
            "animatorStates": {
              "Attack": []
            },
            "cullingModelAlwaysAnimate": true
          },
          "BattleIdle": {
            "$type": "BEIEGKBABOF",
            "animatorStates": {
              "BattleIdle": []
            },
            "cullingModelAlwaysAnimate": true
          }
        }
      }
    }
  },
  "SceneObj_Monster_Eldritch_Tentacle_PC": {
    "$type": "CJKJIENLOHD",
    "common": {
      "mass": 100000000.0,
      "scale": 4.0,
      "disableTickDistance": 10000.0,
      "muteElementStickUI": true
    },
    "hasModel": true,
    "combat": {
      "property": {
        "endureType": "Monster_Boss_Other",
        "hp": 99999.0,
        "isInvincible": true,
        "isGhostToAllied": true,
        "isGhostToEnemy": true
      },
      "combatLock": {
        "lockShape": "CircleLockEnemy",
        "denyLockOn": true,
        "lockType": "Default"
      }
    },
    "combatTemplate": "",
    "abilities": [
      {
        "abilityID": "SceneObj_Monster_Eldritch_Tentacle_BattleIdle",
        "abilityName": "SceneObj_Monster_Eldritch_Tentacle_BattleIdle",
        "abilityOverride": ""
      }
    ],
    "stateLayers": {
      "defaultLayer": {
        "$type": "GBGJJIIEMBD",
        "layerIndexName": "",
        "CPAANEIJCGD": "",
        "stateIDs": {
          "NormalIdle": {
            "$type": "BEIEGKBABOF",
            "animatorStates": {
              "Standby": []
            },
            "cullingModelAlwaysAnimate": true
          },
          "BeHit": {
            "$type": "BEIEGKBABOF",
            "animatorStates": {
              "BeHit": []
            },
            "cullingModelAlwaysAnimate": true
          },
          "Attack": {
            "$type": "BEIEGKBABOF",
            "animatorStates": {
              "Attack": []
            },
            "cullingModelAlwaysAnimate": true
          },
          "BattleIdle": {
            "$type": "BEIEGKBABOF",
            "animatorStates": {
              "BattleIdle": []
            },
            "cullingModelAlwaysAnimate": true
          }
        }
      }
    }
  },
  "SceneObj_Monster_Eldritch_Tentacle_PD": {
    "$type": "CJKJIENLOHD",
    "common": {
      "mass": 100000000.0,
      "scale": 4.0,
      "disableTickDistance": 10000.0,
      "muteElementStickUI": true
    },
    "hasModel": true,
    "combat": {
      "property": {
        "endureType": "Monster_Boss_Other",
        "hp": 99999.0,
        "isInvincible": true,
        "isGhostToAllied": true,
        "isGhostToEnemy": true
      },
      "combatLock": {
        "lockShape": "CircleLockEnemy",
        "denyLockOn": true,
        "lockType": "Default"
      }
    },
    "combatTemplate": "",
    "abilities": [
      {
        "abilityID": "SceneObj_Monster_Eldritch_Tentacle_BattleIdle",
        "abilityName": "SceneObj_Monster_Eldritch_Tentacle_BattleIdle",
        "abilityOverride": ""
      }
    ],
    "stateLayers": {
      "defaultLayer": {
        "$type": "GBGJJIIEMBD",
        "layerIndexName": "",
        "CPAANEIJCGD": "",
        "stateIDs": {
          "NormalIdle": {
            "$type": "BEIEGKBABOF",
            "animatorStates": {
              "Standby": []
            },
            "cullingModelAlwaysAnimate": true
          },
          "BeHit": {
            "$type": "BEIEGKBABOF",
            "animatorStates": {
              "BeHit": []
            },
            "cullingModelAlwaysAnimate": true
          },
          "Attack": {
            "$type": "BEIEGKBABOF",
            "animatorStates": {
              "Attack": []
            },
            "cullingModelAlwaysAnimate": true
          },
          "BattleIdle": {
            "$type": "BEIEGKBABOF",
            "animatorStates": {
              "BattleIdle": []
            },
            "cullingModelAlwaysAnimate": true
          }
        }
      }
    }
  },
  "SceneObj_Monster_Eldritch_Tentacle_PE": {
    "$type": "CJKJIENLOHD",
    "common": {
      "mass": 100000000.0,
      "scale": 4.0,
      "disableTickDistance": 10000.0,
      "muteElementStickUI": true
    },
    "hasModel": true,
    "combat": {
      "property": {
        "endureType": "Monster_Boss_Other",
        "hp": 99999.0,
        "isInvincible": true,
        "isGhostToAllied": true,
        "isGhostToEnemy": true
      },
      "combatLock": {
        "lockShape": "CircleLockEnemy",
        "denyLockOn": true,
        "lockType": "Default"
      }
    },
    "combatTemplate": "",
    "abilities": [
      {
        "abilityID": "SceneObj_Monster_Eldritch_Tentacle_BattleIdle",
        "abilityName": "SceneObj_Monster_Eldritch_Tentacle_BattleIdle",
        "abilityOverride": ""
      }
    ],
    "stateLayers": {
      "defaultLayer": {
        "$type": "GBGJJIIEMBD",
        "layerIndexName": "",
        "CPAANEIJCGD": "",
        "stateIDs": {
          "NormalIdle": {
            "$type": "BEIEGKBABOF",
            "animatorStates": {
              "Standby": []
            },
            "cullingModelAlwaysAnimate": true
          },
          "BeHit": {
            "$type": "BEIEGKBABOF",
            "animatorStates": {
              "BeHit": []
            },
            "cullingModelAlwaysAnimate": true
          },
          "Attack": {
            "$type": "BEIEGKBABOF",
            "animatorStates": {
              "Attack": []
            },
            "cullingModelAlwaysAnimate": true
          },
          "BattleIdle": {
            "$type": "BEIEGKBABOF",
            "animatorStates": {
              "BattleIdle": []
            },
            "cullingModelAlwaysAnimate": true
          }
        }
      }
    }
  },
  "SceneObj_Level_Common_Property_Ani_Prop_AdeptusBallista_01": {
    "$type": "CJKJIENLOHD",
    "hasModel": true,
    "combat": {
      "property": {
        "hp": 500000.0,
        "attack": 200.0,
        "weight": 50.0
      },
      "beHit": {
        "hitBloodEffect": "",
        "hitAutoRedirect": false
      },
      "combatLock": {
        "lockShape": "CircleLockEnemy",
        "denyLockOn": true,
        "lockType": "Gadget_Lv1"
      }
    },
    "combatTemplate": "",
    "abilities": [
      {
        "abilityID": "SceneObj_Property_Prop_AdeptusBallista_Ability",
        "abilityName": "SceneObj_Property_Prop_AdeptusBallista_Ability",
        "abilityOverride": ""
      }
    ],
    "billboard": {
      "$type": "DNGNMAJBCNP",
      "attachPoint": "HpBarNode",
      "radiusOffset": 1.5,
      "showDistance": 48.0,
      "showHPBar": true,
      "size": "Grand"
    }
  },
  "SceneObj_Level_Common_Property_Prop_DeerFairy_01": {
    "$type": "CJKJIENLOHD",
    "hasModel": true,
    "combat": {
      "property": {
        "endureType": "Monster_Boss_Other",
        "hp": 99999.0,
        "isInvincible": true,
        "isGhostToAllied": true,
        "isGhostToEnemy": true
      },
      "combatLock": {
        "lockShape": "CircleLockEnemy",
        "denyLockOn": true,
        "lockType": "Default"
      }
    },
    "combatTemplate": "",
    "abilities": [
      {
        "abilityID": "SceneObj_Level_Common_Property_Prop_DeerFairy_01_Ability",
        "abilityName": "SceneObj_Level_Common_Property_Prop_DeerFairy_01_Ability",
        "abilityOverride": ""
      }
    ]
  },
  "SceneObj_Level_Common_Property_Prop_DeerFairy_02": {
    "$type": "CJKJIENLOHD",
    "hasModel": true,
    "combat": {
      "property": {
        "endureType": "Monster_Boss_Other",
        "hp": 99999.0,
        "isInvincible": true,
        "isGhostToAllied": true,
        "isGhostToEnemy": true
      },
      "combatLock": {
        "lockShape": "CircleLockEnemy",
        "denyLockOn": true,
        "lockType": "Default"
      }
    },
    "combatTemplate": "",
    "abilities": [
      {
        "abilityID": "SceneObj_Level_Common_Property_Prop_DeerFairy_02_Ability",
        "abilityName": "SceneObj_Level_Common_Property_Prop_DeerFairy_02_Ability",
        "abilityOverride": ""
      }
    ]
  },
  "SceneObj_Monster_Hound_CleanUpCorruption": {
    "$type": "CJKJIENLOHD",
    "combat": {
      "property": {
        "endureType": "Monster_Boss_Other",
        "hp": 99999.0,
        "isInvincible": true,
        "isGhostToAllied": true,
        "isGhostToEnemy": true
      },
      "combatLock": {
        "lockShape": "CircleLockEnemy",
        "denyLockOn": true,
        "lockType": "Default"
      }
    },
    "combatTemplate": "",
    "abilities": [
      {
        "abilityID": "",
        "abilityName": "SceneObj_Monster_Hound_CleanUpCorruption",
        "abilityOverride": ""
      }
    ]
  },
  "SceneObj_Monster_Sylph_AttackEnhance": {
    "$type": "CJKJIENLOHD",
    "combat": {
      "property": {
        "endureType": "Monster_Boss_Other",
        "hp": 99999.0,
        "isInvincible": true,
        "isGhostToAllied": true,
        "isGhostToEnemy": true
      },
      "combatLock": {
        "lockShape": "CircleLockEnemy",
        "denyLockOn": true,
        "lockType": "Default"
      }
    },
    "combatTemplate": "",
    "abilities": [
      {
        "abilityID": "",
        "abilityName": "SceneObj_Monster_Sylph_AttackEnhance",
        "abilityOverride": ""
      }
    ]
  }
}
