{
  "Ability_MonsterCamp_50_WindZone": {
    "$type": "CJKJIENLOHD",
    "common": {},
    "combat": {
      "property": {
        "hp": 99999.0,
        "defense": 99999.0,
        "isInvincible": true,
        "isGhostToAllied": true,
        "isGhostToEnemy": true
      },
      "beHit": {
        "hitBloodEffect": "",
        "muteAllHit": true,
        "muteAllHitEffect": true,
        "muteAllHitText": true
      },
      "combatLock": {
        "lockShape": "CircleLockEnemy",
        "denyLockOn": true,
        "lockType": "Gadget_Lv1"
      }
    },
    "combatTemplate": "",
    "abilities": [
      {
        "abilityID": "Ability_MonsterCamp_50_WindZone",
        "abilityName": "Ability_MonsterCamp_50_WindZone",
        "abilityOverride": ""
      }
    ],
    "timer": {
      "lifeTime": 10.0
    }
  },
  "SkillObj_BuffDungeon_50_WindZone": {
    "$type": "CJKJIENLOHD",
    "common": {},
    "combat": {
      "property": {
        "useCreatorProperty": true,
        "hp": 99999.0,
        "defense": 99999.0,
        "isInvincible": true,
        "isGhostToAllied": true,
        "isGhostToEnemy": true
      },
      "beHit": {
        "hitBloodEffect": "",
        "muteAllHit": true,
        "muteAllHitEffect": true,
        "muteAllHitText": true
      },
      "combatLock": {
        "lockShape": "CircleLockEnemy",
        "denyLockOn": true,
        "lockType": "Gadget_Lv1"
      }
    },
    "combatTemplate": "",
    "abilities": [
      {
        "abilityID": "SkillObj_BuffDungeon_50_WindZone",
        "abilityName": "SkillObj_BuffDungeon_50_WindZone",
        "abilityOverride": ""
      }
    ],
    "timer": {
      "lifeTime": 10.0
    }
  },
  "SceneObj_BuffDungeon_50_DeathExplode": {
    "$type": "CJKJIENLOHD",
    "combat": {
      "property": {
        "hp": 100.0,
        "attack": 10.0,
        "isInvincible": true,
        "isGhostToAllied": true,
        "isGhostToEnemy": true
      },
      "combatLock": {
        "lockShape": "CircleLockEnemy",
        "denyLockOn": true,
        "lockType": "Default"
      }
    },
    "combatTemplate": "",
    "abilities": [
      {
        "abilityID": "SceneObj_BuffDungeon_50_DeathExplode",
        "abilityName": "SceneObj_BuffDungeon_50_DeathExplode",
        "abilityOverride": ""
      }
    ],
    "timer": {
      "lifeTime": 10.0
    }
  },
  "SkillObj_Act_50_ElementBurst_Extra_Impact_Trigger": {
    "$type": "CJKJIENLOHD",
    "common": {
      "effectAttachShape": {
        "$type": "OMIODKONOMG"
      }
    },
    "combat": {
      "property": {
        "useCreatorProperty": true,
        "hp": 999999.0,
        "attack": 10.0,
        "defense": 999999.0,
        "isInvincible": true,
        "isGhostToAllied": true,
        "isGhostToEnemy": true,
        "canTriggerBullet": false
      },
      "combatLock": {
        "lockShape": "CircleLockEnemy",
        "denyLockOn": true,
        "lockType": "Default"
      }
    },
    "combatTemplate": "",
    "abilities": [
      {
        "abilityID": "SkillObj_Act_50_ElementBurst_Extra_Impact_Trigger",
        "abilityName": "SkillObj_Act_50_ElementBurst_Extra_Impact_Trigger",
        "abilityOverride": ""
      }
    ],
    "timer": {
      "lifeTime": 1.2999999523162842
    }
  },
  "SkillObj_Act_50_ElementBurst_Extra_Impact": {
    "$type": "CJKJIENLOHD",
    "common": {
      "effectAttachShape": {
        "$type": "OMIODKONOMG",
        "scaleX": 0.5,
        "scaleY": 0.5
      },
      "affectedByWorld": true
    },
    "combat": {
      "property": {
        "useCreatorProperty": true,
        "isInvincible": true,
        "isGhostToAllied": true,
        "isGhostToEnemy": true,
        "canTriggerBullet": false
      },
      "beHit": {
        "hitBloodEffect": "",
        "muteAllHit": true,
        "muteAllHitEffect": true,
        "muteAllHitText": true
      },
      "combatLock": {
        "lockShape": "CircleLockEnemy",
        "denyLockOn": true,
        "lockType": "Gadget_Lv1"
      }
    },
    "combatTemplate": "",
    "abilities": [
      {
        "abilityID": "SkillObj_Act_50_ElementBurst_Extra_Impact",
        "abilityName": "SkillObj_Act_50_ElementBurst_Extra_Impact",
        "abilityOverride": ""
      }
    ],
    "timer": {
      "lifeTime": 5.0
    },
    "move": {
      "$type": "GONNMCBKAOC",
      "velocityForce": {
        "muteAll": true
      },
      "speed": 4.5
    }
  },
  "SceneObj_Area_Nt_NatlanTourParkour_Challengestarter_01": {
    "$type": "CJKJIENLOHD",
    "common": {
      "isForceRefreshAuthotiryToHost": true
    },
    "globalValue": {
      "serverGlobalValues": [
        "SGV_NatlanTourParkour_Level_Id",
        "SGV_NatlanTourParkour_Challengestarter_conditionType"
      ],
      "initServerGlobalValues": {
        "SGV_NatlanTourParkour_Level_Id": 1.0,
        "SGV_NatlanTourParkour_Challengestarter_conditionType": 0.0
      }
    },
    "hasModel": true,
    "combat": {
      "property": {
        "hp": 1000.0,
        "attack": 100.0,
        "weight": 50.0,
        "isLockHP": true,
        "isGhostToAllied": true,
        "isGhostToEnemy": true
      },
      "beHit": {
        "hitBloodEffect": "",
        "hitAutoRedirect": false,
        "muteAllHitEffect": true,
        "muteAllHitText": true
      },
      "combatLock": {
        "lockShape": "CircleLockEnemy",
        "denyLockOn": true,
        "lockType": "Gadget_Lv1"
      }
    },
    "combatTemplate": "",
    "abilities": [
      {
        "abilityID": "",
        "abilityName": "Scene_RockGadget_Summon_Detect",
        "abilityOverride": ""
      },
      {
        "abilityID": "",
        "abilityName": "SceneObj_Area_Nt_NatlanTourParkour_Challengestarter_01",
        "abilityOverride": ""
      },
      {
        "abilityID": "",
        "abilityName": "SceneObj_Area_Nt_NatlanTourParkour_Challengestarter_01_showReminder",
        "abilityOverride": ""
      }
    ],
    "field": {
      "concernType": "LocalAvatar",
      "shape": "CircleR7.5H6",
      "fromShape": "",
      "triggerInfinite": true,
      "lifeInfinite": true,
      "checkInterval": 0.25,
      "overwriteCampType": true,
      "campType": "SelfCamp",
      "colliderName": "",
      "fromColliderName": ""
    },
    "uiInteract": {
      "gadgetUIBtnCfgPath": "TEST/TEST_Chest_Btn",
      "uiName": "",
      "icon": "",
      "groupName": "",
      "confirmDialogTitle": "",
      "confirmDialogContent": "",
      "gadgetUIExtraItems": [
        {
          "gadgetUIBtnCfgPath": "TEST/TEST_Chest_Btn",
          "uiName": "UI_ACTIVITY_NATLANTOURPARKOUR_OPERATE",
          "onTouch": "WidgetMPSupport",
          "touchParams": [
            "SceneObj_Area_Nt_NatlanTourParkour_Challengestarter_01"
          ],
          "showCombType": "LOGIC_AND",
          "showCondTypes": ["HOST"],
          "icon": "",
          "groupName": "",
          "confirmDialogTitle": "",
          "confirmDialogContent": ""
        }
      ]
    },
    "gadgetAction": {
      "gadgetStateActionList": [
        {
          "$type": "DEMJBAICBKO",
          "enable": true
        },
        {
          "$type": "DEMJBAICBKO",
          "triggerID": "GearStart"
        },
        {
          "$type": "DEMJBAICBKO",
          "triggerID": "GearStop"
        }
      ]
    },
    "intee": {
      "useHeadControlTrigger": false,
      "triggerRadius": 2.0,
      "headCtrlRadius": 0.0,
      "NNLKGELOJJI": true,
      "KAMIAMNMFCP": ""
    }
  },
  "SceneObj_Level_Common_Property_Ani_Prop_NatlanTourParkour_GoldCoin_01": {
    "$type": "CJKJIENLOHD",
    "model": {
      "bornEffect": "",
      "attachEffect": "Eff_SceneObj_AdventurerCoin_NoShadows_03",
      "BKPFGNPLDNJ": ""
    },
    "hasModel": true,
    "combat": {
      "property": {
        "hp": 99999.0,
        "weight": 50.0,
        "isInvincible": true,
        "isLockHP": true,
        "isGhostToAllied": true,
        "canTriggerBullet": false
      },
      "beHit": {
        "hitBloodEffect": "",
        "hitAutoRedirect": false,
        "muteAllHit": true,
        "muteAllHitEffect": true,
        "muteAllHitText": true
      },
      "combatLock": {
        "lockShape": "CircleLockEnemy",
        "denyLockOn": true,
        "lockType": "Default"
      }
    },
    "combatTemplate": "",
    "abilities": [
      {
        "abilityID": "",
        "abilityName": "SceneObj_Level_Common_Property_Ani_Prop_NatlanTourParkour_GoldCoin_01",
        "abilityOverride": ""
      }
    ],
    "field": {
      "concernType": "CombatExcludeGWGO",
      "shape": "CircleR2H2",
      "fromShape": "",
      "triggerInfinite": true,
      "lifeInfinite": true,
      "checkInterval": 0.25,
      "overwriteCampType": true,
      "campType": "All",
      "colliderName": "",
      "fromColliderName": ""
    }
  },
  "SceneObj_Level_Common_Property_Ani_Prop_NatlanTourParkour_GoldCoin_02": {
    "$type": "CJKJIENLOHD",
    "model": {
      "bornEffect": "",
      "attachEffect": "Eff_SceneObj_AdventurerCoin_NoShadows_03",
      "BKPFGNPLDNJ": ""
    },
    "hasModel": true,
    "combat": {
      "property": {
        "hp": 99999.0,
        "weight": 50.0,
        "isInvincible": true,
        "isLockHP": true,
        "isGhostToAllied": true,
        "canTriggerBullet": false
      },
      "beHit": {
        "hitBloodEffect": "",
        "hitAutoRedirect": false,
        "muteAllHit": true,
        "muteAllHitEffect": true,
        "muteAllHitText": true
      },
      "combatLock": {
        "lockShape": "CircleLockEnemy",
        "denyLockOn": true,
        "lockType": "Default"
      }
    },
    "combatTemplate": "",
    "abilities": [
      {
        "abilityID": "",
        "abilityName": "SceneObj_Level_Common_Property_Ani_Prop_NatlanTourParkour_GoldCoin_01",
        "abilityOverride": ""
      }
    ],
    "field": {
      "concernType": "CombatExcludeGWGO",
      "shape": "CircleR2H2",
      "fromShape": "",
      "triggerInfinite": true,
      "lifeInfinite": true,
      "checkInterval": 0.25,
      "overwriteCampType": true,
      "campType": "All",
      "colliderName": "",
      "fromColliderName": ""
    },
    "move": {
      "$type": "OEFHHKHPMCJ"
    }
  },
  "SceneObj_Level_Common_Property_Ani_Prop_NatlanTourParkour_GoldCoin_03": {
    "$type": "CJKJIENLOHD",
    "globalValue": {
      "serverGlobalValues": ["SGV_NatlanTourParkour_GoldCoin_FieldRadius"],
      "initServerGlobalValues": {
        "SGV_NatlanTourParkour_GoldCoin_FieldRadius": 2.0
      }
    },
    "hasModel": true,
    "combat": {
      "property": {
        "hp": 99999.0,
        "weight": 50.0,
        "isInvincible": true,
        "isLockHP": true,
        "isGhostToAllied": true,
        "canTriggerBullet": false
      },
      "beHit": {
        "hitBloodEffect": "",
        "hitAutoRedirect": false,
        "muteAllHit": true,
        "muteAllHitEffect": true,
        "muteAllHitText": true
      },
      "combatLock": {
        "lockShape": "CircleLockEnemy",
        "denyLockOn": true,
        "lockType": "Default"
      }
    },
    "combatTemplate": "",
    "abilities": [
      {
        "abilityID": "",
        "abilityName": "SceneObj_Level_Common_Property_Ani_Prop_NatlanTourParkour_GoldCoin_03",
        "abilityOverride": ""
      }
    ],
    "field": {
      "concernType": "CombatExcludeGWGO",
      "shape": "CircleR2H2",
      "fromShape": "",
      "triggerInfinite": true,
      "lifeInfinite": true,
      "checkInterval": 0.25,
      "overwriteCampType": true,
      "campType": "All",
      "colliderName": "",
      "fromColliderName": ""
    },
    "move": {
      "$type": "MMAPEFIEGAL",
      "target": "GroupGadgetEntity",
      "attachPoint": "",
      "followRotation": true,
      "syncTransToServer": true,
      "handleInLateTick": true,
      "LFOHLEKJFBI": ""
    }
  },
  "SceneObj_Level_Common_Property_Ani_Prop_NatlanTourParkour_GoldCoin_04": {
    "$type": "CJKJIENLOHD",
    "globalValue": {
      "serverGlobalValues": [
        "SGV_NatlanTourParkour_GoldCoin_AnimDistanceRatio",
        "SGV_NatlanTourParkour_GoldCoin_AnimHeightRatio",
        "SGV_NatlanTourParkour_GoldCoin_AnimType",
        "SGV_NatlanTourParkour_GoldCoin_FieldRadius",
        "SGV_NatlanTourParkour_GoldCoin_StarBornDelay"
      ],
      "initServerGlobalValues": {
        "SGV_NatlanTourParkour_GoldCoin_AnimDistanceRatio": 1.0,
        "SGV_NatlanTourParkour_GoldCoin_AnimHeightRatio": 1.0,
        "SGV_NatlanTourParkour_GoldCoin_AnimType": 1.0,
        "SGV_NatlanTourParkour_GoldCoin_FieldRadius": 2.0,
        "SGV_NatlanTourParkour_GoldCoin_StarBornDelay": 0.0
      }
    },
    "hasModel": true,
    "combat": {
      "property": {
        "hp": 99999.0,
        "weight": 50.0,
        "isInvincible": true,
        "isLockHP": true,
        "isGhostToAllied": true,
        "canTriggerBullet": false
      },
      "beHit": {
        "hitBloodEffect": "",
        "hitAutoRedirect": false,
        "muteAllHit": true,
        "muteAllHitEffect": true,
        "muteAllHitText": true
      },
      "combatLock": {
        "lockShape": "CircleLockEnemy",
        "denyLockOn": true,
        "lockType": "Default"
      }
    },
    "combatTemplate": "",
    "abilities": [
      {
        "abilityID": "",
        "abilityName": "SceneObj_Level_Common_Property_Ani_Prop_NatlanTourParkour_GoldCoin_04",
        "abilityOverride": ""
      }
    ],
    "field": {
      "concernType": "CombatExcludeGWGO",
      "shape": "",
      "fromShape": "",
      "triggerInfinite": true,
      "lifeInfinite": true,
      "checkInterval": 0.25,
      "overwriteCampType": true,
      "campType": "All",
      "colliderName": "",
      "fromColliderName": ""
    },
    "move": {
      "$type": "OEFHHKHPMCJ"
    }
  },
  "SceneObj_Level_Common_Property_Ani_Prop_NatlanTourParkour_GoldCoin_05": {
    "$type": "CJKJIENLOHD",
    "model": {
      "bornEffect": "",
      "attachEffect": "Eff_SceneObj_AdventurerCoin_NoShadows_03",
      "BKPFGNPLDNJ": ""
    },
    "hasModel": true,
    "combat": {
      "property": {
        "hp": 99999.0,
        "weight": 50.0,
        "isInvincible": true,
        "isLockHP": true,
        "isGhostToAllied": true,
        "canTriggerBullet": false
      },
      "beHit": {
        "hitBloodEffect": "",
        "hitAutoRedirect": false,
        "muteAllHit": true,
        "muteAllHitEffect": true,
        "muteAllHitText": true
      },
      "combatLock": {
        "lockShape": "CircleLockEnemy",
        "denyLockOn": true,
        "lockType": "Default"
      }
    },
    "combatTemplate": "",
    "abilities": [
      {
        "abilityID": "",
        "abilityName": "SceneObj_Level_Common_Property_Ani_Prop_NatlanTourParkour_GoldCoin_01",
        "abilityOverride": ""
      }
    ],
    "field": {
      "concernType": "CombatExcludeGWGO",
      "shape": "CircleR1H1",
      "fromShape": "",
      "triggerInfinite": true,
      "lifeInfinite": true,
      "checkInterval": 0.25,
      "overwriteCampType": true,
      "campType": "All",
      "colliderName": "",
      "fromColliderName": ""
    }
  },
  "SceneObj_Level_Common_Property_Ani_Prop_NatlanTourParkour_CoinFollowObject_01": {
    "$type": "CJKJIENLOHD",
    "hasModel": true,
    "combat": {
      "property": {
        "hp": 99999.0,
        "weight": 50.0,
        "isInvincible": true,
        "isLockHP": true,
        "isGhostToAllied": true,
        "isGhostToEnemy": true,
        "canTriggerBullet": false
      },
      "beHit": {
        "hitBloodEffect": "",
        "hitAutoRedirect": false,
        "muteAllHit": true,
        "muteAllHitEffect": true,
        "muteAllHitText": true
      },
      "combatLock": {
        "lockShape": "CircleLockEnemy",
        "denyLockOn": true,
        "lockType": "Default"
      }
    },
    "combatTemplate": "",
    "abilities": [
      {
        "abilityID": "",
        "abilityName": "SceneObj_Level_Common_Property_Ani_Prop_NatlanTourParkour_CoinFollowObject_hideIndicator",
        "abilityOverride": ""
      }
    ],
    "move": {
      "$type": "OEFHHKHPMCJ"
    },
    "gadgetAction": {
      "gadgetStateActionList": [
        {
          "$type": "FJGKLJLPOGL",
          "intID": "GadgetState",
          "syncState": true
        }
      ]
    }
  },
  "SceneObj_Level_Common_Property_Ani_Prop_NatlanTourParkour_DeductPointsCoin_01": {
    "$type": "CJKJIENLOHD",
    "common": {
      "disableTickDistance": 100000.0
    },
    "hasModel": true,
    "combat": {
      "property": {
        "hp": 99999.0,
        "attack": 20.0,
        "weight": 50.0,
        "isLockHP": true,
        "isGhostToAllied": true,
        "ignoreDamageToSelf": true
      },
      "beHit": {
        "hitBloodEffect": "",
        "hitAutoRedirect": false,
        "muteAllHitText": true
      },
      "combatLock": {
        "lockShape": "CircleLockEnemy",
        "denyLockOn": true,
        "lockType": "Gadget_Lv1"
      },
      "die": {
        "dieForceDisappearTime": 0.0,
        "dieDisappearEffect": ""
      }
    },
    "combatTemplate": "",
    "abilities": [
      {
        "abilityID": "",
        "abilityName": "SceneObj_Level_Common_Property_Ani_Prop_NatlanTourParkour_DeductPointsCoin_01",
        "abilityOverride": ""
      }
    ],
    "field": {
      "concernType": "LocalAvatar",
      "shape": "",
      "fromShape": "",
      "triggerInfinite": true,
      "lifeInfinite": true,
      "checkInterval": 0.20000000298023224,
      "overwriteCampType": true,
      "campType": "SelfCamp",
      "colliderName": "",
      "fromColliderName": ""
    },
    "move": {
      "$type": "OEFHHKHPMCJ"
    }
  },
  "SceneObj_Level_Common_Property_Ani_Prop_NatlanTourParkour_AbsorbCoin_01": {
    "$type": "CJKJIENLOHD",
    "hasModel": true,
    "combat": {
      "property": {
        "hp": 99999.0,
        "attack": 20.0,
        "weight": 50.0,
        "isLockHP": true,
        "isGhostToAllied": true,
        "ignoreDamageToSelf": true
      },
      "beHit": {
        "hitBloodEffect": "",
        "hitAutoRedirect": false,
        "muteAllHitText": true
      },
      "combatLock": {
        "lockShape": "CircleLockEnemy",
        "denyLockOn": true,
        "lockType": "Gadget_Lv1"
      },
      "die": {
        "dieEndTime": 1.0,
        "dieForceDisappearTime": 1.0,
        "dieDisappearEffect": ""
      }
    },
    "combatTemplate": "",
    "abilities": [
      {
        "abilityID": "",
        "abilityName": "SceneObj_Level_Common_Property_Ani_Prop_NatlanTourParkour_AbsorbCoin_01",
        "abilityOverride": ""
      }
    ],
    "field": {
      "concernType": "LocalAvatar",
      "shape": "CircleR2H2",
      "fromShape": "",
      "triggerInfinite": true,
      "lifeInfinite": true,
      "checkInterval": 0.20000000298023224,
      "overwriteCampType": true,
      "campType": "SelfCamp",
      "colliderName": "",
      "fromColliderName": ""
    }
  },
  "SceneObj_Level_Common_Property_Ani_Prop_NatlanTourParkour_GoldMound_01": {
    "$type": "CJKJIENLOHD",
    "model": {
      "bornEffect": "Eff_SceneObj_Drillhead_UniversalPit_Create",
      "attachEffect": "",
      "KOCEMHIPJOP": true,
      "NDNFEDBOOKF": 1,
      "BKPFGNPLDNJ": ""
    },
    "hasModel": true,
    "combat": {
      "property": {
        "hp": 99999.0,
        "weight": 50.0,
        "isInvincible": true,
        "isLockHP": true,
        "isGhostToAllied": true,
        "isGhostToEnemy": true,
        "canTriggerBullet": false
      },
      "beHit": {
        "hitBloodEffect": "",
        "hitAutoRedirect": false,
        "muteAllHit": true,
        "muteAllHitEffect": true,
        "muteAllHitText": true
      },
      "combatLock": {
        "lockShape": "CircleLockEnemy",
        "denyLockOn": true,
        "lockType": "Default"
      }
    },
    "combatTemplate": "",
    "abilities": [
      {
        "abilityID": "",
        "abilityName": "SceneObj_Level_Common_Property_Ani_Prop_NatlanTourParkour_GoldMound_01",
        "abilityOverride": ""
      }
    ]
  },
  "SceneObj_Level_Common_Property_Ani_Prop_NatlanTourParkour_DestructiveMaterial_Activity_01": {
    "$type": "CJKJIENLOHD",
    "hasModel": true,
    "combat": {
      "property": {
        "hp": 99999.0,
        "attack": 20.0,
        "weight": 50.0,
        "isLockHP": true,
        "isGhostToAllied": true,
        "ignoreDamageToSelf": true
      },
      "beHit": {
        "hitBloodEffect": "",
        "hitAutoRedirect": false,
        "muteAllHitText": true
      },
      "combatLock": {
        "lockShape": "CircleLockEnemy",
        "denyLockOn": true,
        "lockType": "Gadget_Lv1"
      },
      "die": {
        "dieForceDisappearTime": 0.0,
        "dieDisappearEffect": ""
      }
    },
    "combatTemplate": "",
    "abilities": [
      {
        "abilityID": "SceneObj_Level_Nt_Property_Ani_Prop_Mosasaurus_ArcTarget_Activity_01",
        "abilityName": "SceneObj_Level_Nt_Property_Ani_Prop_Mosasaurus_ArcTarget_Activity_01",
        "abilityOverride": ""
      },
      {
        "abilityID": "SceneObj_Level_Common_Property_Ani_Prop_NatlanTourParkour_DestructiveMaterial_01",
        "abilityName": "SceneObj_Level_Common_Property_Ani_Prop_NatlanTourParkour_DestructiveMaterial_01",
        "abilityOverride": ""
      }
    ]
  },
  "SceneObj_Level_Common_Property_Ani_Prop_NatlanTourParkour_DestructiveMaterial_Activity_02": {
    "$type": "CJKJIENLOHD",
    "hasModel": true,
    "combat": {
      "property": {
        "hp": 99999.0,
        "attack": 20.0,
        "weight": 50.0,
        "isLockHP": true,
        "isGhostToAllied": true,
        "ignoreDamageToSelf": true
      },
      "beHit": {
        "hitBloodEffect": "",
        "hitAutoRedirect": false,
        "muteAllHitText": true
      },
      "combatLock": {
        "lockShape": "CircleLockEnemy",
        "denyLockOn": true,
        "lockType": "Gadget_Lv1"
      },
      "die": {
        "dieForceDisappearTime": 0.0,
        "dieDisappearEffect": ""
      }
    },
    "combatTemplate": "",
    "abilities": [
      {
        "abilityID": "SceneObj_Level_Nt_Property_Ani_Prop_Mosasaurus_BreakableBox_01",
        "abilityName": "SceneObj_Level_Nt_Property_Ani_Prop_Mosasaurus_BreakableBox_01",
        "abilityOverride": ""
      },
      {
        "abilityID": "SceneObj_Level_Common_Property_Ani_Prop_NatlanTourParkour_DestructiveMaterial_01",
        "abilityName": "SceneObj_Level_Common_Property_Ani_Prop_NatlanTourParkour_DestructiveMaterial_01",
        "abilityOverride": ""
      },
      {
        "abilityID": "SceneObj_Level_Nt_Property_Ani_Prop_Mosasaurus_BreakableObject_ActivityEffect_02",
        "abilityName": "SceneObj_Level_Nt_Property_Ani_Prop_Mosasaurus_BreakableObject_ActivityEffect_02",
        "abilityOverride": ""
      }
    ]
  },
  "SceneObj_Level_Common_Property_Ani_Prop_NatlanTourParkour_DestructiveMaterial_Activity_03": {
    "$type": "CJKJIENLOHD",
    "globalValue": {
      "serverGlobalValues": [
        "SGV_Burrow_Detect_Distance",
        "SGV_Disable_Distance_Detect",
        "SGV_Is_White"
      ],
      "initServerGlobalValues": {
        "SGV_Burrow_Detect_Distance": 6.0,
        "SGV_Disable_Distance_Detect": 0.0
      }
    },
    "KJGJCNANPJP": true,
    "hasModel": true,
    "combat": {
      "property": {
        "hp": 99999.0,
        "attack": 20.0,
        "weight": 50.0,
        "isLockHP": true
      },
      "beHit": {
        "hitBloodEffect": "",
        "hitAutoRedirect": false,
        "muteAllHitText": true
      },
      "combatLock": {
        "lockShape": "CircleLockEnemy",
        "denyLockOn": true,
        "lockType": "Gadget_Lv1"
      }
    },
    "combatTemplate": "",
    "abilities": [
      {
        "abilityID": "SceneObj_Level_Nt_Property_Ani_Prop_Drillhead_PhlogistonSpike_6M",
        "abilityName": "SceneObj_Level_Nt_Property_Ani_Prop_Drillhead_PhlogistonSpike_6M",
        "abilityOverride": ""
      },
      {
        "abilityID": "SceneObj_Level_Nt_Property_Ani_Prop_Drillhead_PhlogistonSpike_Boom_6M_NoDamage",
        "abilityName": "SceneObj_Level_Nt_Property_Ani_Prop_Drillhead_PhlogistonSpike_Boom_6M_NoDamage",
        "abilityOverride": ""
      },
      {
        "abilityID": "SceneObj_Level_Nt_Property_Ani_Prop_Drillhead_PhlogistonSpike_Color",
        "abilityName": "SceneObj_Level_Nt_Property_Ani_Prop_Drillhead_PhlogistonSpike_Color",
        "abilityOverride": ""
      },
      {
        "abilityID": "SceneObj_Area_Nt_Natsaurus_Tribe_Quick_Trigger_ToDie",
        "abilityName": "SceneObj_Area_Nt_Natsaurus_Tribe_Quick_Trigger_ToDie",
        "abilityOverride": ""
      },
      {
        "abilityID": "SceneObj_Level_Common_Property_Ani_Prop_NatlanTourParkour_DestructiveMaterial_01",
        "abilityName": "SceneObj_Level_Common_Property_Ani_Prop_NatlanTourParkour_DestructiveMaterial_01",
        "abilityOverride": ""
      },
      {
        "abilityID": "SceneObj_Level_Nt_Property_Ani_Prop_Mosasaurus_BreakableObject_ActivityEffect_03",
        "abilityName": "SceneObj_Level_Nt_Property_Ani_Prop_Mosasaurus_BreakableObject_ActivityEffect_03",
        "abilityOverride": ""
      }
    ]
  },
  "SceneObj_Level_Common_Property_Ani_Prop_NatlanTourParkour_DestructiveMaterial_Activity_04": {
    "$type": "CJKJIENLOHD",
    "globalValue": {
      "serverGlobalValues": [
        "SGV_Burrow_Detect_Distance",
        "SGV_Disable_Distance_Detect",
        "SGV_Is_White"
      ],
      "initServerGlobalValues": {
        "SGV_Burrow_Detect_Distance": 6.0,
        "SGV_Disable_Distance_Detect": 0.0
      }
    },
    "hasModel": true,
    "combat": {
      "property": {
        "hp": 99999.0,
        "attack": 20.0,
        "weight": 50.0,
        "isLockHP": true
      },
      "beHit": {
        "hitBloodEffect": "",
        "hitAutoRedirect": false,
        "muteAllHitText": true
      },
      "combatLock": {
        "lockShape": "CircleLockEnemy",
        "denyLockOn": true,
        "lockType": "Gadget_Lv1"
      }
    },
    "combatTemplate": "",
    "abilities": [
      {
        "abilityID": "SceneObj_Level_Nt_Property_Ani_Prop_Drillhead_PhlogistonSpike_9M",
        "abilityName": "SceneObj_Level_Nt_Property_Ani_Prop_Drillhead_PhlogistonSpike_9M",
        "abilityOverride": ""
      },
      {
        "abilityID": "SceneObj_Level_Nt_Property_Ani_Prop_Drillhead_PhlogistonSpike_Boom_9M_NoDamage",
        "abilityName": "SceneObj_Level_Nt_Property_Ani_Prop_Drillhead_PhlogistonSpike_Boom_9M_NoDamage",
        "abilityOverride": ""
      },
      {
        "abilityID": "SceneObj_Level_Nt_Property_Ani_Prop_Drillhead_PhlogistonSpike_Color",
        "abilityName": "SceneObj_Level_Nt_Property_Ani_Prop_Drillhead_PhlogistonSpike_Color",
        "abilityOverride": ""
      },
      {
        "abilityID": "SceneObj_Area_Nt_Natsaurus_Tribe_Quick_Trigger_ToDie",
        "abilityName": "SceneObj_Area_Nt_Natsaurus_Tribe_Quick_Trigger_ToDie",
        "abilityOverride": ""
      },
      {
        "abilityID": "SceneObj_Level_Common_Property_Ani_Prop_NatlanTourParkour_DestructiveMaterial_01",
        "abilityName": "SceneObj_Level_Common_Property_Ani_Prop_NatlanTourParkour_DestructiveMaterial_01",
        "abilityOverride": ""
      },
      {
        "abilityID": "SceneObj_Level_Nt_Property_Ani_Prop_Mosasaurus_BreakableObject_ActivityEffect_03",
        "abilityName": "SceneObj_Level_Nt_Property_Ani_Prop_Mosasaurus_BreakableObject_ActivityEffect_03",
        "abilityOverride": ""
      }
    ]
  },
  "SceneObj_Level_Common_Property_Prop_ActivityNatlanGather_01": {
    "$type": "CJKJIENLOHD",
    "combatTemplate": "default",
    "radarHint": true
  },
  "SceneObj_Area_Md_Property_Ani_Prop_FishblasterZhuoKong_02": {
    "$type": "CJKJIENLOHD",
    "combat": {
      "property": {
        "hp": 5000.0,
        "attack": 200.0,
        "weight": 50.0,
        "isInvincible": true,
        "isLockHP": true,
        "isGhostToAllied": true,
        "isGhostToEnemy": true,
        "canTriggerBullet": false
      },
      "beHit": {
        "hitBloodEffect": "",
        "hitAutoRedirect": false
      },
      "combatLock": {
        "lockShape": "CircleLockEnemy",
        "denyLockOn": true,
        "lockType": "Gadget_Lv1"
      }
    },
    "combatTemplate": "",
    "abilities": [
      {
        "abilityID": "SceneObj_Area_Md_Property_Ani_Prop_FishblasterZhuoKong_01",
        "abilityName": "SceneObj_Area_Md_Property_Ani_Prop_FishblasterZhuoKong_01",
        "abilityOverride": ""
      }
    ],
    "uiInteract": {
      "gadgetUIBtnCfgPath": "UI/open_BomberDodocoLevel_page",
      "uiName": "UI_ACTIVITY_BOMBERDODOCO_START",
      "icon": "",
      "groupName": "",
      "confirmDialogTitle": "",
      "confirmDialogContent": "",
      "showCondTypesV2": ["SINGLE"]
    },
    "radarHint": true,
    "billboard": {
      "$type": "AKPHLFJFMBD",
      "attachPoint": "BillboardAttach",
      "offset": {
        "y": 0.5
      },
      "markShowDistance": 40.0,
      "iconName": "UI_NPCTopIcon_Activity_Fishblaster",
      "title": ""
    },
    "intee": {
      "triggerHeight": 3.0,
      "KAMIAMNMFCP": ""
    }
  },
  "Gadget_Hunting_LifeBalance_Manager": {
    "$type": "CJKJIENLOHD",
    "common": {
      "effectAttachShape": {
        "$type": "OMIODKONOMG"
      }
    },
    "combat": {
      "property": {
        "hp": 1000000000.0,
        "attack": 15.0,
        "defense": 999999.0,
        "weight": 251.0,
        "isLockHP": true,
        "isGhostToAllied": true,
        "isGhostToEnemy": true,
        "canTriggerBullet": false
      },
      "beHit": {
        "hitBloodEffect": "",
        "muteAllHit": true,
        "muteAllHitEffect": true,
        "muteAllHitText": true
      },
      "combatLock": {
        "lockShape": "CircleLockEnemy",
        "denyLockOn": true,
        "lockType": "Default"
      }
    },
    "combatTemplate": "",
    "abilities": [
      {
        "abilityID": "",
        "abilityName": "MonsterAffix_Hunting_LifeBalance_Manager",
        "abilityOverride": ""
      }
    ],
    "timer": {
      "lifeInfinite": true
    }
  },
  "MonsterAffix_Hunting_Yunqi_Die_BroadCast": {
    "$type": "CJKJIENLOHD",
    "common": {
      "effectAttachShape": {
        "$type": "OMIODKONOMG"
      }
    },
    "combat": {
      "property": {
        "useCreatorProperty": true,
        "hp": 999999.0,
        "attack": 10.0,
        "defense": 999999.0,
        "isInvincible": true,
        "isGhostToEnemy": true
      },
      "beHit": {
        "hitBloodEffect": "",
        "muteAllHit": true,
        "muteAllHitEffect": true,
        "muteAllHitText": true
      },
      "combatLock": {
        "lockShape": "CircleLockEnemy",
        "denyLockOn": true,
        "lockType": "Default"
      }
    },
    "combatTemplate": "",
    "abilities": [
      {
        "abilityID": "",
        "abilityName": "MonsterAffix_Hunting_Yunqi_Die_BroadCast",
        "abilityOverride": ""
      }
    ],
    "timer": {
      "lifeTime": 1.0
    }
  },
  "MonsterAffix_Hunting_DeathRattleCrystal_DamageGadget": {
    "$type": "CJKJIENLOHD",
    "common": {
      "effectAttachShape": {
        "$type": "OMIODKONOMG",
        "scaleZ": 0.4000000059604645
      }
    },
    "combat": {
      "property": {
        "useCreatorProperty": true,
        "isLockHP": true,
        "isGhostToAllied": true,
        "isGhostToEnemy": true,
        "canTriggerBullet": false
      },
      "beHit": {
        "hitBloodEffect": "",
        "muteAllHit": true,
        "muteAllHitEffect": true,
        "muteAllHitText": true
      },
      "combatLock": {
        "lockShape": "CircleLockEnemy",
        "denyLockOn": true,
        "lockType": "Default"
      }
    },
    "combatTemplate": "",
    "abilities": [
      {
        "abilityID": "",
        "abilityName": "MonsterAffix_Hunting_DeathRattleCrystal_DamageGadget",
        "abilityOverride": ""
      }
    ],
    "field": {
      "concernType": "AllAvatars",
      "shape": "CircleR3H3",
      "height": 4.0,
      "fromShape": "",
      "startCheckTime": 2.0,
      "checkInterval": 0.10000000149011612,
      "triggerCount": 1,
      "lifeTime": 70.0,
      "useCollider": false,
      "colliderName": "",
      "fromColliderName": ""
    }
  },
  "MonsterAffix_Hunting_DeathMatch_FieldBullet": {
    "$type": "CJKJIENLOHD",
    "common": {
      "effectAttachShape": {
        "$type": "OMIODKONOMG",
        "scaleZ": 0.4000000059604645
      }
    },
    "combat": {
      "property": {
        "useCreatorProperty": true,
        "isLockHP": true,
        "isGhostToAllied": true,
        "isGhostToEnemy": true,
        "canTriggerBullet": false
      },
      "beHit": {
        "hitBloodEffect": "",
        "muteAllHit": true,
        "muteAllHitEffect": true,
        "muteAllHitText": true
      },
      "combatLock": {
        "lockShape": "CircleLockEnemy",
        "denyLockOn": true,
        "lockType": "Default"
      }
    },
    "combatTemplate": "",
    "abilities": [
      {
        "abilityID": "",
        "abilityName": "MonsterAffix_Hunting_DeathMatch_FieldBullet",
        "abilityOverride": ""
      }
    ],
    "field": {
      "concernType": "AllTeams",
      "shape": "CircleR4H20",
      "fromShape": "",
      "triggerInfinite": true,
      "lifeInfinite": true,
      "checkInterval": 0.10000000149011612,
      "useCollider": false,
      "colliderName": "",
      "fromColliderName": ""
    },
    "timer": {
      "lifeInfinite": true
    },
    "move": {
      "$type": "MMAPEFIEGAL",
      "target": "TargetKey",
      "followTargetEx": {
        "$type": "JJNAIOOLBOJ",
        "targetKey": "FollowRuntimeID"
      },
      "attachPoint": "RootNode",
      "LFOHLEKJFBI": ""
    }
  }
}
