{
  "SceneObj_Level_Common_Property_Ani_Prop_MarechausseeGate_01": {
    "$type": "ALBBCOHDFGB",
    "common": {
      "disableTickDistance": 1000.0
    },
    "hasModel": true,
    "combat": {
      "property": {
        "hp": 80000.0,
        "attack": 15.0,
        "weight": 50.0,
        "isLockHP": true,
        "isGhostToAllied": true,
        "isGhostToEnemy": true
      },
      "combatLock": {
        "lockShape": "CircleLockEnemy",
        "denyLockOn": true,
        "lockType": "Gadget_Lv1"
      }
    },
    "combatTemplate": "",
    "abilities": [
      {
        "abilityID": "SceneObj_Level_Common_Property_Ani_Prop_MarechausseeGate_01",
        "abilityName": "SceneObj_Level_Common_Property_Ani_Prop_MarechausseeGate_01",
        "abilityOverride": ""
      }
    ]
  },
  "SceneObj_Level_Common_Property_Ani_Build_Hiddendoor_01": {
    "$type": "ALBBCOHDFGB",
    "hasModel": true,
    "combat": {
      "property": {
        "hp": 80000.0,
        "attack": 15.0,
        "weight": 50.0,
        "isLockHP": true,
        "isGhostToAllied": true,
        "isGhostToEnemy": true
      },
      "combatLock": {
        "lockShape": "CircleLockEnemy",
        "denyLockOn": true,
        "lockType": "Gadget_Lv1"
      }
    },
    "combatTemplate": "",
    "abilities": [
      {
        "abilityID": "SceneObj_Level_Common_Property_Ani_Build_Hiddendoor_01",
        "abilityName": "SceneObj_Level_Common_Property_Ani_Build_Hiddendoor_01",
        "abilityOverride": ""
      }
    ]
  },
  "SceneObj_Area_Fd_TreasureEntry_Door_01": {
    "$type": "ALBBCOHDFGB",
    "hasModel": true,
    "combat": {
      "property": {
        "hp": 80000.0,
        "attack": 15.0,
        "weight": 50.0,
        "isLockHP": true,
        "isGhostToAllied": true,
        "isGhostToEnemy": true
      },
      "combatLock": {
        "lockShape": "CircleLockEnemy",
        "denyLockOn": true,
        "lockType": "Gadget_Lv1"
      }
    },
    "combatTemplate": "",
    "abilities": [
      {
        "abilityID": "SceneObj_Area_Fd_TreasureEntry_Door_01",
        "abilityName": "SceneObj_Area_Fd_TreasureEntry_Door_01",
        "abilityOverride": ""
      }
    ]
  },
  "SceneObj_Level_Common_AvatarObj_Ani_Quest_SgwMixtureBottle_01": {
    "$type": "ALBBCOHDFGB",
    "hasModel": true,
    "combat": {
      "property": {
        "hp": 80000.0,
        "attack": 15.0,
        "weight": 50.0,
        "isLockHP": true,
        "isGhostToAllied": true,
        "isGhostToEnemy": true
      },
      "combatLock": {
        "lockShape": "CircleLockEnemy",
        "denyLockOn": true,
        "lockType": "Gadget_Lv1"
      }
    },
    "combatTemplate": "",
    "abilities": [
      {
        "abilityID": "SceneObj_Level_Common_AvatarObj_Ani_Quest_SgwMixtureBottle_01",
        "abilityName": "SceneObj_Level_Common_AvatarObj_Ani_Quest_SgwMixtureBottle_01",
        "abilityOverride": ""
      }
    ]
  },
  "SceneObj_Quest_DimensionalCollapse_01": {
    "$type": "ALBBCOHDFGB",
    "hasModel": true,
    "combat": {
      "property": {
        "hp": 80000.0,
        "attack": 15.0,
        "weight": 50.0,
        "isLockHP": true,
        "isGhostToAllied": true,
        "isGhostToEnemy": true
      },
      "combatLock": {
        "lockShape": "CircleLockEnemy",
        "denyLockOn": true,
        "lockType": "Gadget_Lv1"
      }
    },
    "combatTemplate": "",
    "abilities": [
      {
        "abilityID": "SceneObj_Quest_DimensionalCollapse_01",
        "abilityName": "SceneObj_Quest_DimensionalCollapse_01",
        "abilityOverride": ""
      }
    ]
  }
}
