{
  "SceneObj_Area_Xm_Property_Prop_EnterSceneLook_01": {
    "$type": "CJKJIENLOHD",
    "combatTemplate": "",
    "abilities": [
      {
        "abilityID": "ability_01",
        "abilityName": "SceneObj_Area_Xm_Property_Prop_EnterSceneLook_01_Ability",
        "abilityOverride": ""
      }
    ]
  },
  "SceneObj_Area_Xm_Property_Ani_Prop_LotusLeaf_01": {
    "$type": "CJKJIENLOHD",
    "hasModel": true,
    "combat": {
      "property": {
        "hp": 99999.0,
        "isLockHP": true
      },
      "beHit": {
        "hitBloodEffect": "",
        "hitAutoRedirect": false,
        "muteAllHitText": true
      },
      "combatLock": {
        "lockShape": "CircleLockEnemy",
        "lockType": "Gadget_Lv1",
        "overrideRange": 5.0
      }
    },
    "combatTemplate": "",
    "abilities": [
      {
        "abilityID": "ability_ThreeState",
        "abilityName": "GrassGadget_ThreeState",
        "abilityOverride": ""
      },
      {
        "abilityID": "ability_01",
        "abilityName": "SceneObj_Area_Xm_Property_Ani_Prop_LotusLeaf_01_Ability",
        "abilityOverride": ""
      }
    ],
    "move": {
      "$type": "IDIPBKCPBDP",
      "attachPoint": "ColliderRoot"
    },
    "gadgetAction": {
      "gadgetStateActionList": [
        {
          "$type": "FJGKLJLPOGL",
          "intID": "GadgetState",
          "syncState": true
        }
      ]
    }
  },
  "SceneObj_Area_Xm_Property_Ani_Prop_GrapplingHookPoint_01": {
    "$type": "CJKJIENLOHD",
    "model": {
      "bornEffect": "",
      "attachEffect": "Eff_SceneObj_GrappleHook_01",
      "BKPFGNPLDNJ": ""
    },
    "hasModel": true,
    "combat": {
      "property": {
        "hp": 99999.0,
        "isLockHP": true,
        "isGhostToAllied": true,
        "isGhostToEnemy": true
      },
      "combatLock": {
        "lockShape": "CircleLockEnemy",
        "denyLockOn": true,
        "lockType": "Default"
      }
    },
    "combatTemplate": "",
    "abilities": [
      {
        "abilityID": "ability_01",
        "abilityName": "SceneObj_Area_Xm_Property_Ani_Prop_GrapplingHookPoint_01_Ability",
        "abilityOverride": ""
      }
    ],
    "gadgetAction": {
      "gadgetStateActionList": [
        {
          "$type": "FJGKLJLPOGL",
          "intID": "GadgetState",
          "syncState": true
        }
      ]
    }
  },
  "SceneObj_Area_Xm_Property_Ani_Prop_GrapplingHookPoint_SanBin01": {
    "$type": "CJKJIENLOHD",
    "model": {
      "bornEffect": "",
      "attachEffect": "Eff_SceneObj_GrappleHook_01",
      "BKPFGNPLDNJ": ""
    },
    "hasModel": true,
    "combat": {
      "property": {
        "hp": 99999.0,
        "isLockHP": true,
        "isGhostToAllied": true,
        "isGhostToEnemy": true
      },
      "combatLock": {
        "lockShape": "CircleLockEnemy",
        "denyLockOn": true,
        "lockType": "Default"
      }
    },
    "combatTemplate": "",
    "abilities": [
      {
        "abilityID": "ability_01",
        "abilityName": "SceneObj_Area_Xm_Property_Ani_Prop_GrapplingHookPoint_SanBin01",
        "abilityOverride": ""
      }
    ],
    "gadgetAction": {
      "gadgetStateActionList": [
        {
          "$type": "FJGKLJLPOGL",
          "intID": "GadgetState",
          "syncState": true
        }
      ]
    }
  },
  "SceneObj_Area_Xm_Property_Ani_Tree_GrassSeedCreate_01": {
    "$type": "CJKJIENLOHD",
    "hasModel": true,
    "combat": {
      "property": {
        "hp": 99999.0,
        "isLockHP": true,
        "isGhostToAllied": true,
        "isGhostToEnemy": true
      }
    },
    "combatTemplate": "",
    "abilities": [
      {
        "abilityID": "ability_01",
        "abilityName": "SceneObj_Area_Xm_Property_Ani_Tree_GrassSeedCreate_01_State",
        "abilityOverride": ""
      },
      {
        "abilityID": "ability_02",
        "abilityName": "SceneObj_Area_Xm_Property_Ani_Tree_GrassSeedCreate_01_Buff",
        "abilityOverride": ""
      },
      {
        "abilityID": "ability_02",
        "abilityName": "Scene_RockGadget_Summon_Detect",
        "abilityOverride": ""
      }
    ],
    "uiInteract": {
      "gadgetUIBtnCfgPath": "TEST/TEST_Chest_Btn",
      "uiName": "",
      "onTouch": "WidgetMPSupport",
      "touchParams": [
        "SceneObj_Area_Xm_Property_Ani_Tree_GrassSeedCreate_01_Buff"
      ],
      "icon": "",
      "groupName": "",
      "confirmDialogTitle": "",
      "confirmDialogContent": ""
    },
    "gadgetAction": {
      "gadgetStateActionList": [
        {
          "$type": "DEMJBAICBKO",
          "enable": true
        },
        {
          "$type": "DEMJBAICBKO",
          "triggerID": "GearStop"
        }
      ]
    }
  },
  "SceneObj_Area_Xm_Property_Ani_Tree_GrassSeedCreate_02": {
    "$type": "CJKJIENLOHD",
    "hasModel": true,
    "combat": {
      "property": {
        "hp": 99999.0,
        "isLockHP": true,
        "isGhostToAllied": true,
        "isGhostToEnemy": true
      }
    },
    "combatTemplate": "",
    "abilities": [
      {
        "abilityID": "ability_01",
        "abilityName": "SceneObj_Area_Xm_Property_Ani_Tree_GrassSeedCreate_02_State",
        "abilityOverride": ""
      },
      {
        "abilityID": "ability_02",
        "abilityName": "SceneObj_Area_Xm_Property_Ani_Tree_GrassSeedCreate_02_Buff",
        "abilityOverride": ""
      },
      {
        "abilityID": "ability_02",
        "abilityName": "Scene_RockGadget_Summon_Detect",
        "abilityOverride": ""
      }
    ],
    "uiInteract": {
      "gadgetUIBtnCfgPath": "TEST/TEST_Chest_Btn",
      "uiName": "",
      "onTouch": "WidgetMPSupport",
      "touchParams": [
        "SceneObj_Area_Xm_Property_Ani_Tree_GrassSeedCreate_02_Buff"
      ],
      "icon": "",
      "groupName": "",
      "confirmDialogTitle": "",
      "confirmDialogContent": ""
    },
    "gadgetAction": {
      "gadgetStateActionList": [
        {
          "$type": "DEMJBAICBKO"
        },
        {
          "$type": "DEMJBAICBKO",
          "triggerID": "GearStart",
          "enable": true
        },
        {
          "$type": "DEMJBAICBKO",
          "triggerID": "GearStop"
        }
      ]
    }
  },
  "SceneObj_Area_Xm_Property_Ani_Prop_GrassSeedBullet_01": {
    "$type": "CJKJIENLOHD",
    "common": {
      "effectAttachShape": {
        "$type": "OMIODKONOMG"
      }
    },
    "combat": {
      "property": {
        "useCreatorProperty": true,
        "isGhostToAllied": true,
        "isGhostToEnemy": true,
        "canTriggerBullet": false
      },
      "beHit": {
        "hitBloodEffect": "",
        "muteAllHit": true,
        "muteAllHitEffect": true,
        "muteAllHitText": true
      },
      "combatLock": {
        "lockShape": "CircleLockEnemy",
        "denyLockOn": true,
        "lockType": "Gadget_Lv1"
      }
    },
    "combatTemplate": "",
    "abilities": [
      {
        "abilityID": "",
        "abilityName": "SceneObj_Area_Xm_Property_Ani_Prop_GrassSeedBullet_01_Damage",
        "abilityOverride": ""
      }
    ],
    "timer": {
      "lifeTime": 5.0
    },
    "move": {
      "$type": "GMOHNHFHLAO",
      "speed": 10.0,
      "maxSpeed": 60.0,
      "anglerVelocity": 30.0,
      "acceleration": 5.0,
      "delay": 0.10000000149011612,
      "traceOnYAxis": true
    },
    "gadget": {
      "$type": "JENBBNKGGJP",
      "collision": {
        "targetType": "Enemy",
        "ignoreScene": true
      },
      "triggerActions": [
        {
          "$type": "AILPBJHDHDG",
          "abilityName": "SceneObj_Area_Xm_Property_Ani_Prop_GrassSeedBullet_01_Damage"
        }
      ],
      "triggerLifeOverActions": [
        {
          "$type": "AILPBJHDHDG",
          "abilityName": "SceneObj_Area_Xm_Property_Ani_Prop_GrassSeedBullet_01_Damage"
        }
      ],
      "enableCollisionDelay": 0.30000001192092896
    }
  },
  "SceneObj_Area_Xm_Property_Ani_Prop_GrassSeedBullet_02": {
    "$type": "CJKJIENLOHD",
    "common": {
      "effectAttachShape": {
        "$type": "OMIODKONOMG"
      }
    },
    "combat": {
      "property": {
        "useCreatorProperty": true,
        "isGhostToAllied": true,
        "isGhostToEnemy": true,
        "canTriggerBullet": false
      },
      "beHit": {
        "hitBloodEffect": "",
        "muteAllHit": true,
        "muteAllHitEffect": true,
        "muteAllHitText": true
      },
      "combatLock": {
        "lockShape": "CircleLockEnemy",
        "denyLockOn": true,
        "lockType": "Gadget_Lv1"
      }
    },
    "combatTemplate": "",
    "abilities": [
      {
        "abilityID": "",
        "abilityName": "SceneObj_Area_Xm_Property_Ani_Prop_GrassSeedBullet_02_Damage",
        "abilityOverride": ""
      }
    ],
    "timer": {
      "lifeTime": 5.0
    },
    "move": {
      "$type": "GMOHNHFHLAO",
      "speed": 10.0,
      "maxSpeed": 60.0,
      "anglerVelocity": 30.0,
      "acceleration": 5.0,
      "delay": 0.10000000149011612,
      "traceOnYAxis": true
    },
    "gadget": {
      "$type": "JENBBNKGGJP",
      "collision": {
        "targetType": "Enemy",
        "ignoreScene": true
      },
      "triggerActions": [
        {
          "$type": "AILPBJHDHDG",
          "abilityName": "SceneObj_Area_Xm_Property_Ani_Prop_GrassSeedBullet_02_Damage"
        }
      ],
      "triggerLifeOverActions": [
        {
          "$type": "AILPBJHDHDG",
          "abilityName": "SceneObj_Area_Xm_Property_Ani_Prop_GrassSeedBullet_02_Damage"
        }
      ],
      "enableCollisionDelay": 0.30000001192092896
    }
  },
  "SceneObj_Area_Xm_Property_Prop_GrassSeedDummy_01": {
    "$type": "CJKJIENLOHD",
    "common": {
      "effectAttachShape": {
        "$type": "OMIODKONOMG"
      }
    },
    "combatTemplate": "canBeAttacked",
    "abilities": [
      {
        "abilityID": "ability_01",
        "abilityName": "SceneObj_Area_Xm_Property_Prop_GrassSeedDummy_01_Ability",
        "abilityOverride": ""
      }
    ],
    "timer": {
      "lifeTime": 2.0
    }
  }
}
