{
  "Bullet_OceanCurrent": {
    "$type": "CJKJIENLOHD",
    "common": {
      "effectAttachShape": {
        "$type": "OMIODKONOMG",
        "scaleX": 2.4000000953674316,
        "scaleY": 2.4000000953674316,
        "scaleZ": 2.4000000953674316
      },
      "affectedByWorld": true,
      "isForceRefreshAuthotiryToHost": true
    },
    "combat": {
      "property": {
        "useCreatorProperty": true,
        "isGhostToAllied": true,
        "isGhostToEnemy": true
      },
      "combatLock": {
        "lockShape": "CircleLockEnemy",
        "denyLockOn": true,
        "lockType": "Default"
      }
    },
    "combatTemplate": "",
    "abilities": [
      {
        "abilityID": "Bullet_OceanCurrent",
        "abilityName": "Bullet_OceanCurrent",
        "abilityOverride": ""
      },
      {
        "abilityID": "Bullet_OceanCurrent_LifeOver",
        "abilityName": "Bullet_OceanCurrent_LifeOver",
        "abilityOverride": ""
      }
    ],
    "timer": {
      "lifeTime": 0.75
    },
    "move": {
      "$type": "GONNMCBKAOC",
      "speed": 80.0,
      "syncToRemote": true
    },
    "gadget": {
      "$type": "JENBBNKGGJP",
      "collision": {
        "ccd": {
          "damageRatio": "Always"
        },
        "triggerType": "TriggerAlways",
        "targetType": "Enemy"
      },
      "triggerActions": [
        {
          "$type": "AILPBJHDHDG",
          "abilityName": "Bullet_OceanCurrent"
        }
      ],
      "triggerLifeOverActions": [
        {
          "$type": "AILPBJHDHDG",
          "abilityName": "Bullet_OceanCurrent_LifeOver"
        }
      ]
    }
  },
  "Bullet_OceanCurrent_Detect": {
    "$type": "CJKJIENLOHD",
    "combat": {
      "property": {
        "useCreatorProperty": true,
        "isGhostToAllied": true,
        "isGhostToEnemy": true
      },
      "combatLock": {
        "lockShape": "CircleLockEnemy",
        "denyLockOn": true,
        "lockType": "Default"
      }
    },
    "combatTemplate": "",
    "abilities": [
      {
        "abilityID": "Bullet_OceanCurrent_Detect",
        "abilityName": "Bullet_OceanCurrent_Detect",
        "abilityOverride": ""
      }
    ],
    "field": {
      "shape": "",
      "fromShape": "",
      "triggerInfinite": true,
      "lifeInfinite": true,
      "checkInterval": 0.20000000298023224,
      "overwriteCampType": true,
      "colliderName": "",
      "fromColliderName": ""
    }
  },
  "Bullet_OceanCurrent_Laser": {
    "$type": "CJKJIENLOHD",
    "common": {
      "effectAttachShape": {
        "$type": "OMIODKONOMG",
        "scaleX": 2.4000000953674316,
        "scaleY": 2.4000000953674316,
        "scaleZ": 2.4000000953674316
      },
      "affectedByWorld": true,
      "isForceRefreshAuthotiryToHost": true
    },
    "combat": {
      "property": {
        "useCreatorProperty": true,
        "isGhostToAllied": true,
        "isGhostToEnemy": true
      },
      "combatLock": {
        "lockShape": "CircleLockEnemy",
        "denyLockOn": true,
        "lockType": "Default"
      }
    },
    "combatTemplate": "",
    "abilities": [
      {
        "abilityID": "Bullet_OceanCurrent_Laser",
        "abilityName": "Bullet_OceanCurrent_Laser",
        "abilityOverride": ""
      },
      {
        "abilityID": "Bullet_OceanCurrent_Laser_LifeOver",
        "abilityName": "Bullet_OceanCurrent_Laser_LifeOver",
        "abilityOverride": ""
      }
    ],
    "timer": {
      "lifeTime": 0.699999988079071
    },
    "gadget": {
      "$type": "JENBBNKGGJP",
      "collision": {
        "ccd": {
          "damageRatio": "Always"
        },
        "triggerType": "TriggerAlways",
        "targetType": "Enemy"
      },
      "triggerActions": [
        {
          "$type": "AILPBJHDHDG",
          "abilityName": "Bullet_OceanCurrent_Laser"
        }
      ],
      "triggerLifeOverActions": [
        {
          "$type": "AILPBJHDHDG",
          "abilityName": "Bullet_OceanCurrent_Laser_LifeOver"
        }
      ]
    }
  },
  "SceneObj_Area_Common_FairyTalesCurrent_Target_01": {
    "$type": "CJKJIENLOHD",
    "common": {
      "isForceRefreshAuthotiryToHost": true
    },
    "HPCBKOHDFJO": true,
    "hasModel": true,
    "combat": {
      "property": {
        "hp": 99999.0,
        "isLockHP": true
      },
      "combatLock": {
        "lockShape": "CircleLockEnemy",
        "denyLockOn": true,
        "lockType": "Default"
      }
    },
    "combatTemplate": "",
    "abilities": [
      {
        "abilityID": "ability_01",
        "abilityName": "SceneObj_Area_Common_FairyTalesCurrent_Target_01",
        "abilityOverride": ""
      }
    ],
    "field": {
      "concernType": "AllAvatars",
      "shape": "CircleR5H2",
      "fromShape": "",
      "triggerInfinite": true,
      "checkInterval": 1.0,
      "colliderName": "",
      "fromColliderName": "",
      "colliderCheckOnInit": true
    },
    "move": {
      "$type": "OEFHHKHPMCJ"
    }
  },
  "SceneObj_Area_Common_FairyTalesCurrent_Target_02": {
    "$type": "CJKJIENLOHD",
    "common": {
      "isForceRefreshAuthotiryToHost": true
    },
    "HPCBKOHDFJO": true,
    "hasModel": true,
    "combat": {
      "property": {
        "hp": 99999.0,
        "isLockHP": true
      },
      "combatLock": {
        "lockShape": "CircleLockEnemy",
        "denyLockOn": true,
        "lockType": "Default"
      }
    },
    "combatTemplate": "",
    "abilities": [
      {
        "abilityID": "ability_01",
        "abilityName": "SceneObj_Area_Common_FairyTalesCurrent_Target_02",
        "abilityOverride": ""
      }
    ],
    "field": {
      "concernType": "AllAvatars",
      "shape": "CircleR5H2",
      "fromShape": "",
      "triggerInfinite": true,
      "checkInterval": 1.0,
      "colliderName": "",
      "fromColliderName": "",
      "colliderCheckOnInit": true
    },
    "move": {
      "$type": "OEFHHKHPMCJ"
    }
  },
  "SceneObj_Area_Common_FairyTalesCurrent_Target_03": {
    "$type": "CJKJIENLOHD",
    "common": {
      "isForceRefreshAuthotiryToHost": true
    },
    "HPCBKOHDFJO": true,
    "hasModel": true,
    "combat": {
      "property": {
        "hp": 99999.0,
        "isLockHP": true
      },
      "combatLock": {
        "lockShape": "CircleLockEnemy",
        "denyLockOn": true,
        "lockType": "Default"
      }
    },
    "combatTemplate": "",
    "abilities": [
      {
        "abilityID": "ability_01",
        "abilityName": "SceneObj_Area_Common_FairyTalesCurrent_Target_03",
        "abilityOverride": ""
      }
    ],
    "field": {
      "concernType": "AllAvatars",
      "shape": "CircleR5H2",
      "fromShape": "",
      "triggerInfinite": true,
      "checkInterval": 1.0,
      "colliderName": "",
      "fromColliderName": "",
      "colliderCheckOnInit": true
    },
    "move": {
      "$type": "OEFHHKHPMCJ"
    }
  },
  "SceneObj_Area_Common_FairyTalesCurrent_Target_04": {
    "$type": "CJKJIENLOHD",
    "common": {
      "isForceRefreshAuthotiryToHost": true
    },
    "HPCBKOHDFJO": true,
    "hasModel": true,
    "combat": {
      "property": {
        "hp": 99999.0,
        "isLockHP": true
      },
      "combatLock": {
        "lockShape": "CircleLockEnemy",
        "denyLockOn": true,
        "lockType": "Default"
      }
    },
    "combatTemplate": "",
    "abilities": [
      {
        "abilityID": "ability_01",
        "abilityName": "SceneObj_Area_Common_FairyTalesCurrent_Target_04",
        "abilityOverride": ""
      }
    ],
    "move": {
      "$type": "FJOPPCPPOJE",
      "GINHJOJEMFC": 25.0,
      "duration": 1.5
    }
  },
  "SceneObj_V4_8_OceanCurrent_ShootSpeedUpRing_01": {
    "$type": "CJKJIENLOHD",
    "common": {
      "isForceRefreshAuthotiryToHost": true
    },
    "hasModel": true,
    "combat": {
      "property": {
        "hp": 99999.0,
        "isLockHP": true
      },
      "combatLock": {
        "lockShape": "CircleLockEnemy",
        "denyLockOn": true,
        "lockType": "Default"
      }
    },
    "combatTemplate": "",
    "abilities": [
      {
        "abilityID": "ability_01",
        "abilityName": "SceneObj_V4_8_OceanCurrent_ShootSpeedUpRing_01",
        "abilityOverride": ""
      }
    ],
    "field": {
      "concernType": "AllAvatars",
      "shape": "CircleR5H2",
      "fromShape": "",
      "triggerInfinite": true,
      "checkInterval": 1.0,
      "colliderName": "",
      "fromColliderName": "",
      "colliderCheckOnInit": true
    },
    "move": {
      "$type": "OEFHHKHPMCJ"
    }
  },
  "SceneObj_Gather_MagicBook_4_8": {
    "$type": "CJKJIENLOHD",
    "model": {
      "bornEffect": "",
      "attachEffect": "",
      "BKPFGNPLDNJ": ""
    },
    "hasModel": true,
    "combat": {
      "property": {
        "hp": 99999.0,
        "weight": 50.0,
        "isInvincible": true,
        "isLockHP": true,
        "canTriggerBullet": false
      },
      "beHit": {
        "hitBloodEffect": "",
        "hitAutoRedirect": false,
        "muteAllHit": true,
        "muteAllHitEffect": true,
        "muteAllHitText": true
      },
      "combatLock": {
        "lockShape": "CircleLockEnemy",
        "denyLockOn": true,
        "lockType": "Gadget_Lv1"
      },
      "die": {
        "dieEndTime": 2.0,
        "dieForceDisappearTime": 2.0,
        "dieDisappearEffect": ""
      }
    },
    "combatTemplate": "",
    "abilities": [
      {
        "abilityID": "Ability_01",
        "abilityName": "SceneObj_Gather_MagicBook_4_8",
        "abilityOverride": ""
      }
    ],
    "misc": {
      "pickup": {
        "pickType": "AutoSelect",
        "isStatic": true,
        "bornEffect": "",
        "dropEffect": "",
        "attractAudio": ""
      },
      "escapeEffect": ""
    },
    "radarHint": true
  },
  "SceneObj_Gather_MagicBook_Fly_4_8": {
    "$type": "CJKJIENLOHD",
    "model": {
      "bornEffect": "",
      "attachEffect": "Eff_SceneObj_MagicBookPage_Fly",
      "BKPFGNPLDNJ": ""
    },
    "hasModel": true,
    "combatTemplate": "",
    "abilities": [
      {
        "abilityID": "Ability_01",
        "abilityName": "SceneObj_Gather_MagicBook_Fly_4_8",
        "abilityOverride": ""
      }
    ]
  },
  "SceneObj_NightFlower": {
    "$type": "CJKJIENLOHD",
    "hasModel": true,
    "combat": {
      "property": {
        "hp": 99999.0,
        "weight": 50.0,
        "isInvincible": true,
        "isLockHP": true,
        "isGhostToAllied": true,
        "isGhostToEnemy": true,
        "canTriggerBullet": false
      },
      "beHit": {
        "hitBloodEffect": "",
        "hitAutoRedirect": false,
        "muteAllHit": true,
        "muteAllHitEffect": true,
        "muteAllHitText": true
      },
      "combatLock": {
        "lockShape": "CircleLockEnemy",
        "denyLockOn": true,
        "lockType": "Gadget_Lv1"
      }
    },
    "combatTemplate": "",
    "abilities": [
      {
        "abilityID": "Ability_01",
        "abilityName": "SceneObj_NightFlower",
        "abilityOverride": ""
      }
    ]
  },
  "SceneObj_PingFeng": {
    "$type": "CJKJIENLOHD",
    "hasModel": true,
    "combat": {
      "property": {
        "hp": 99999.0,
        "weight": 50.0,
        "isInvincible": true,
        "isLockHP": true,
        "isGhostToAllied": true,
        "isGhostToEnemy": true,
        "canTriggerBullet": false
      },
      "beHit": {
        "hitBloodEffect": "",
        "hitAutoRedirect": false,
        "muteAllHit": true,
        "muteAllHitEffect": true,
        "muteAllHitText": true
      },
      "combatLock": {
        "lockShape": "CircleLockEnemy",
        "denyLockOn": true,
        "lockType": "Gadget_Lv1"
      }
    },
    "combatTemplate": ""
  },
  "SceneObj_DungeonEntrance_Ami": {
    "$type": "CJKJIENLOHD",
    "model": {
      "bornEffect": "",
      "attachEffect": "Eff_SceneObj_TravelerQuestDungeonEntrance_01",
      "BKPFGNPLDNJ": ""
    },
    "hasModel": true,
    "combatTemplate": ""
  },
  "SceneObj_Air_OceanCurrent_Entrance": {
    "$type": "CJKJIENLOHD",
    "hasModel": true,
    "combat": {
      "property": {
        "hp": 99999.0,
        "attack": 20.0,
        "weight": 50.0,
        "isLockHP": true,
        "isGhostToAllied": true,
        "isGhostToEnemy": true,
        "ignoreDamageToSelf": true
      },
      "beHit": {
        "hitBloodEffect": "",
        "hitAutoRedirect": false,
        "muteAllHitText": true
      },
      "combatLock": {
        "lockShape": "CircleLockEnemy",
        "denyLockOn": true,
        "lockType": "Gadget_Lv1"
      }
    },
    "combatTemplate": "",
    "abilities": [
      {
        "abilityID": "SceneObj_Air_OceanCurrent_Entrance",
        "abilityName": "SceneObj_Air_OceanCurrent_Entrance",
        "abilityOverride": ""
      }
    ],
    "uiInteract": {
      "gadgetUIBtnCfgPath": "TEST/TEST_Chest_Btn",
      "uiName": "UI_ACTIVITY_FAIRYTALEAS_CURRENT_INTEE_BUTTON",
      "onTouch": "WidgetMPSupport",
      "touchParams": ["SceneObj_Air_OceanCurrent_Entrance"],
      "icon": "UI_NPCTopIcon_FairyTales_Current",
      "groupName": "",
      "confirmDialogTitle": "",
      "confirmDialogContent": "",
      "showCondTypesV2": ["SINGLE"]
    },
    "billboard": {
      "$type": "AKPHLFJFMBD",
      "attachPoint": "BillboardAttach",
      "offset": {
        "y": 2.5
      },
      "iconName": "UI_NPCTopIcon_FairyTales_Current",
      "title": ""
    },
    "intee": {
      "triggerHeight": 10.0,
      "KAMIAMNMFCP": ""
    }
  },
  "SceneObj_FairyBook_Common_Prop_Thing_FairyTalesCapsuleToys_Base_01": {
    "$type": "CJKJIENLOHD",
    "hasModel": true,
    "combat": {
      "property": {
        "hp": 99999.0,
        "isLockHP": true,
        "isGhostToAllied": true,
        "isGhostToEnemy": true,
        "ignoreDamageToSelf": true
      }
    },
    "combatTemplate": "",
    "abilities": [
      {
        "abilityID": "ability_01",
        "abilityName": "Scene_RockGadget_Summon_Detect",
        "abilityOverride": ""
      },
      {
        "abilityID": "ability_02",
        "abilityName": "Clear_Local_Gadget",
        "abilityOverride": ""
      }
    ],
    "uiInteract": {
      "gadgetUIBtnCfgPath": "UI/open_custom_gadget_page",
      "uiName": "UI_ACTIVITY_FAIRYTALEAS_CAPSULETOYS_CABINET_INTEE",
      "onTouch": "WidgetMPSupport",
      "touchParams": ["Clear_Local_Gadget"],
      "icon": "UI_Icon_Intee_FairyTales_CapsuleCabinet",
      "groupName": "",
      "confirmDialogTitle": "",
      "confirmDialogContent": "",
      "showCondTypesV2": ["SINGLE"],
      "canInteractInCombat": false
    },
    "misc": {
      "customGadgetNode": {
        "cameraSettings": {
          "gadgetHeight": 1.7000000476837158
        },
        "slotMap": {
          "Booth11": {
            "namedTransform": "Booth11",
            "slotConfigId": 61
          },
          "Booth12": {
            "namedTransform": "Booth12",
            "slotConfigId": 62
          },
          "Booth13": {
            "namedTransform": "Booth13",
            "slotConfigId": 63
          },
          "Booth14": {
            "namedTransform": "Booth14",
            "slotConfigId": 64
          },
          "Booth15": {
            "namedTransform": "Booth15",
            "slotConfigId": 65
          },
          "Booth16": {
            "namedTransform": "Booth16",
            "slotConfigId": 66
          },
          "Booth17": {
            "namedTransform": "Booth17",
            "slotConfigId": 67
          },
          "Booth18": {
            "namedTransform": "Booth18",
            "slotConfigId": 68
          }
        }
      },
      "escapeEffect": ""
    },
    "gadgetAction": {
      "gadgetStateActionList": [
        {
          "$type": "DEMJBAICBKO",
          "enable": true
        },
        {
          "$type": "DEMJBAICBKO",
          "triggerID": "GearStop"
        }
      ]
    },
    "intee": {
      "triggerHeight": 3.0,
      "KAMIAMNMFCP": ""
    }
  },
  "SceneObj_FairyBook_Common_Prop_Thing_FairyTalesCapsuleToys_Base_02": {
    "$type": "CJKJIENLOHD",
    "hasModel": true,
    "combat": {
      "property": {
        "hp": 99999.0,
        "isLockHP": true,
        "isGhostToAllied": true,
        "isGhostToEnemy": true,
        "ignoreDamageToSelf": true
      }
    },
    "combatTemplate": "",
    "abilities": [
      {
        "abilityID": "ability_01",
        "abilityName": "Scene_RockGadget_Summon_Detect",
        "abilityOverride": ""
      },
      {
        "abilityID": "ability_02",
        "abilityName": "Clear_Local_Gadget",
        "abilityOverride": ""
      }
    ],
    "uiInteract": {
      "gadgetUIBtnCfgPath": "UI/open_custom_gadget_page",
      "uiName": "UI_ACTIVITY_FAIRYTALEAS_CAPSULETOYS_CABINET_INTEE",
      "onTouch": "WidgetMPSupport",
      "touchParams": ["Clear_Local_Gadget"],
      "icon": "UI_Icon_Intee_FairyTales_CapsuleCabinet",
      "groupName": "",
      "confirmDialogTitle": "",
      "confirmDialogContent": "",
      "showCondTypesV2": ["SINGLE"],
      "canInteractInCombat": false
    },
    "misc": {
      "customGadgetNode": {
        "cameraSettings": {
          "gadgetHeight": 1.7000000476837158
        },
        "slotMap": {
          "Booth21": {
            "namedTransform": "Booth21",
            "slotConfigId": 71
          },
          "Booth22": {
            "namedTransform": "Booth22",
            "slotConfigId": 72
          },
          "Booth23": {
            "namedTransform": "Booth23",
            "slotConfigId": 73
          },
          "Booth24": {
            "namedTransform": "Booth24",
            "slotConfigId": 74
          },
          "Booth25": {
            "namedTransform": "Booth25",
            "slotConfigId": 75
          },
          "Booth26": {
            "namedTransform": "Booth26",
            "slotConfigId": 76
          },
          "Booth27": {
            "namedTransform": "Booth27",
            "slotConfigId": 77
          },
          "Booth28": {
            "namedTransform": "Booth28",
            "slotConfigId": 78
          }
        }
      },
      "escapeEffect": ""
    },
    "gadgetAction": {
      "gadgetStateActionList": [
        {
          "$type": "DEMJBAICBKO",
          "enable": true
        },
        {
          "$type": "DEMJBAICBKO",
          "triggerID": "GearStop"
        }
      ]
    },
    "intee": {
      "triggerHeight": 3.0,
      "KAMIAMNMFCP": ""
    }
  },
  "SceneObj_FairyBook_Common_Prop_Thing_FairyTalesCapsuleToys_Base_03": {
    "$type": "CJKJIENLOHD",
    "hasModel": true,
    "combat": {
      "property": {
        "hp": 99999.0,
        "isLockHP": true,
        "isGhostToAllied": true,
        "isGhostToEnemy": true,
        "ignoreDamageToSelf": true
      }
    },
    "combatTemplate": "",
    "abilities": [
      {
        "abilityID": "ability_01",
        "abilityName": "Scene_RockGadget_Summon_Detect",
        "abilityOverride": ""
      },
      {
        "abilityID": "ability_02",
        "abilityName": "Clear_Local_Gadget",
        "abilityOverride": ""
      }
    ],
    "uiInteract": {
      "gadgetUIBtnCfgPath": "UI/open_custom_gadget_page",
      "uiName": "UI_ACTIVITY_FAIRYTALEAS_CAPSULETOYS_CABINET_INTEE",
      "onTouch": "WidgetMPSupport",
      "touchParams": ["Clear_Local_Gadget"],
      "icon": "UI_Icon_Intee_FairyTales_CapsuleCabinet",
      "groupName": "",
      "confirmDialogTitle": "",
      "confirmDialogContent": "",
      "showCondTypesV2": ["SINGLE"],
      "canInteractInCombat": false
    },
    "misc": {
      "customGadgetNode": {
        "cameraSettings": {
          "gadgetHeight": 1.7000000476837158
        },
        "slotMap": {
          "Booth31": {
            "namedTransform": "Booth31",
            "slotConfigId": 81
          },
          "Booth32": {
            "namedTransform": "Booth32",
            "slotConfigId": 82
          },
          "Booth33": {
            "namedTransform": "Booth33",
            "slotConfigId": 83
          },
          "Booth34": {
            "namedTransform": "Booth34",
            "slotConfigId": 84
          },
          "Booth35": {
            "namedTransform": "Booth35",
            "slotConfigId": 85
          },
          "Booth36": {
            "namedTransform": "Booth36",
            "slotConfigId": 86
          },
          "Booth37": {
            "namedTransform": "Booth37",
            "slotConfigId": 87
          },
          "Booth38": {
            "namedTransform": "Booth38",
            "slotConfigId": 88
          }
        }
      },
      "escapeEffect": ""
    },
    "gadgetAction": {
      "gadgetStateActionList": [
        {
          "$type": "DEMJBAICBKO",
          "enable": true
        },
        {
          "$type": "DEMJBAICBKO",
          "triggerID": "GearStop"
        }
      ]
    },
    "intee": {
      "triggerHeight": 3.0,
      "KAMIAMNMFCP": ""
    }
  },
  "SceneObj_Level_Fd_Property_Ani_Prop_Emilie_WalkingSeed_01": {
    "$type": "CJKJIENLOHD",
    "common": {
      "isForceRefreshAuthotiryToHost": true
    },
    "hasModel": true,
    "combat": {
      "property": {
        "hp": 99999.0,
        "isLockHP": true
      },
      "combatLock": {
        "lockShape": "CircleLockEnemy",
        "denyLockOn": true,
        "lockType": "Default"
      }
    },
    "combatTemplate": "",
    "abilities": [
      {
        "abilityID": "ability_01",
        "abilityName": "SceneObj_Level_Fd_Property_Ani_Prop_Emilie_WalkingSeed_01",
        "abilityOverride": ""
      },
      {
        "abilityID": "ability_02",
        "abilityName": "Scene_RockGadget_Summon_Detect",
        "abilityOverride": ""
      }
    ],
    "move": {
      "$type": "OEFHHKHPMCJ"
    }
  },
  "SceneObj_Level_Fd_Property_Ani_Prop_Emilie_BadFlower_01": {
    "$type": "CJKJIENLOHD",
    "common": {
      "isForceRefreshAuthotiryToHost": true
    },
    "hasModel": true,
    "combat": {
      "property": {
        "hp": 99999.0,
        "isLockHP": true,
        "isGhostToAllied": true,
        "isGhostToEnemy": true
      },
      "combatLock": {
        "lockShape": "CircleLockEnemy",
        "denyLockOn": true,
        "lockType": "Default"
      }
    },
    "combatTemplate": "",
    "abilities": [
      {
        "abilityID": "ability_01",
        "abilityName": "SceneObj_Level_Fd_Property_Ani_Prop_Emilie_BadFlower_01",
        "abilityOverride": ""
      },
      {
        "abilityID": "ability_02",
        "abilityName": "Scene_RockGadget_Summon_Detect",
        "abilityOverride": ""
      }
    ]
  },
  "SceneObj_Level_Fd_Property_Ani_Prop_Emilie_WalkingSeedBase_01": {
    "$type": "CJKJIENLOHD",
    "common": {
      "isForceRefreshAuthotiryToHost": true
    },
    "hasModel": true,
    "combat": {
      "property": {
        "hp": 99999.0,
        "isLockHP": true,
        "isGhostToAllied": true,
        "isGhostToEnemy": true
      },
      "combatLock": {
        "lockShape": "CircleLockEnemy",
        "denyLockOn": true,
        "lockType": "Default"
      }
    },
    "combatTemplate": "",
    "abilities": [
      {
        "abilityID": "SceneObj_Level_Fd_Property_Ani_Prop_Emilie_WalkingSeedBase_01",
        "abilityName": "SceneObj_Level_Fd_Property_Ani_Prop_Emilie_WalkingSeedBase_01",
        "abilityOverride": ""
      },
      {
        "abilityID": "ability_02",
        "abilityName": "Scene_RockGadget_Summon_Detect",
        "abilityOverride": ""
      }
    ],
    "uiInteract": {
      "gadgetUIBtnCfgPath": "TEST/TEST_Chest_Btn",
      "uiName": "UI_GadgetUI_70294026",
      "onTouch": "WidgetMPSupport",
      "touchParams": [
        "SceneObj_Level_Fd_Property_Ani_Prop_Emilie_WalkingSeedBase_01"
      ],
      "icon": "UI_Icon_Intee_Investigation",
      "groupName": "",
      "confirmDialogTitle": "",
      "confirmDialogContent": "",
      "showCondTypesV2": ["HOST"]
    },
    "gadgetAction": {
      "gadgetStateActionList": [
        {
          "$type": "DEMJBAICBKO"
        },
        {
          "$type": "DEMJBAICBKO",
          "triggerID": "GearStart",
          "enable": true
        },
        {
          "$type": "DEMJBAICBKO",
          "triggerID": "GearStop"
        }
      ]
    },
    "intee": {
      "triggerRadius": 4.0,
      "triggerHeight": 8.0,
      "KAMIAMNMFCP": ""
    }
  },
  "SceneObj_Level_Fd_Property_Ani_Prop_Emilie_WalkingSeedBase_Target_01": {
    "$type": "CJKJIENLOHD",
    "common": {
      "isForceRefreshAuthotiryToHost": true
    },
    "hasModel": true,
    "combat": {
      "property": {
        "hp": 99999.0,
        "isLockHP": true
      }
    },
    "combatTemplate": "",
    "abilities": [
      {
        "abilityID": "SceneObj_Level_Fd_Property_Ani_Prop_Emilie_WalkingSeedBase_Target_01",
        "abilityName": "SceneObj_Level_Fd_Property_Ani_Prop_Emilie_WalkingSeedBase_Target_01",
        "abilityOverride": ""
      }
    ]
  },
  "Bullet_Emilie_WalkingSeedBase": {
    "$type": "CJKJIENLOHD",
    "common": {
      "effectAttachShape": {
        "$type": "OMIODKONOMG",
        "scaleX": 2.4000000953674316,
        "scaleY": 2.4000000953674316,
        "scaleZ": 2.4000000953674316
      },
      "affectedByWorld": true,
      "isForceRefreshAuthotiryToHost": true
    },
    "combat": {
      "property": {
        "useCreatorProperty": true,
        "isGhostToAllied": true,
        "isGhostToEnemy": true
      },
      "combatLock": {
        "lockShape": "CircleLockEnemy",
        "denyLockOn": true,
        "lockType": "Default"
      }
    },
    "combatTemplate": "",
    "abilities": [
      {
        "abilityID": "Bullet_Emilie_WalkingSeedBase",
        "abilityName": "Bullet_Emilie_WalkingSeedBase",
        "abilityOverride": ""
      },
      {
        "abilityID": "Bullet_Emilie_WalkingSeedBase",
        "abilityName": "Bullet_Emilie_WalkingSeedBase_LifeOver",
        "abilityOverride": ""
      }
    ],
    "timer": {
      "lifeTime": 4.0
    },
    "move": {
      "$type": "GMOHNHFHLAO",
      "speed": 9.0,
      "anglerVelocity": 170.0,
      "syncToRemote": true,
      "destroyWhenTargetDie": true,
      "traceOnYAxis": true
    },
    "gadget": {
      "$type": "JENBBNKGGJP",
      "collision": {
        "ccd": {
          "damageRatio": "Always"
        },
        "triggerType": "TriggerAlways",
        "targetType": "Enemy"
      },
      "triggerActions": [
        {
          "$type": "AILPBJHDHDG",
          "abilityName": "Bullet_Emilie_WalkingSeedBase"
        }
      ],
      "triggerLifeOverActions": [
        {
          "$type": "AILPBJHDHDG",
          "abilityName": "Bullet_Emilie_WalkingSeedBase_LifeOver"
        }
      ]
    }
  },
  "SceneObj_Stages_Property_Ani_Prop_FairyTalesCapsuleToys_01": {
    "$type": "CJKJIENLOHD",
    "common": {
      "isForceRefreshAuthotiryToHost": true
    },
    "KJGJCNANPJP": true,
    "hasModel": true,
    "combat": {
      "property": {
        "hp": 99999.0,
        "isLockHP": true,
        "isGhostToAllied": true,
        "isGhostToEnemy": true
      },
      "combatLock": {
        "lockShape": "CircleLockEnemy",
        "denyLockOn": true,
        "lockType": "Default"
      }
    },
    "combatTemplate": "",
    "abilities": [
      {
        "abilityID": "SceneObj_Stages_Property_Ani_Prop_FairyTalesCapsuleToys_01",
        "abilityName": "SceneObj_Stages_Property_Ani_Prop_FairyTalesCapsuleToys_01",
        "abilityOverride": ""
      },
      {
        "abilityID": "ability_01",
        "abilityName": "Scene_RockGadget_Summon_Detect",
        "abilityOverride": ""
      }
    ],
    "uiInteract": {
      "gadgetUIBtnCfgPath": "UI/open_gadget_FairyTalesCapsuleToyGachaSidePage_01",
      "uiName": "UI_ACTIVITY_FAIRYTALEAS_CAPSULETOYS_MACHINE_INTEE",
      "onTouch": "WidgetMPSupport",
      "touchParams": [
        "SceneObj_Stages_Property_Ani_Prop_FairyTalesCapsuleToys_01"
      ],
      "icon": "UI_Icon_Intee_FairyTales_CapsuleMachine",
      "groupName": "",
      "confirmDialogTitle": "",
      "confirmDialogContent": "",
      "showCondTypesV2": ["SINGLE"],
      "canInteractInCombat": false
    },
    "stateLayers": {
      "defaultLayer": {
        "$type": "GBGJJIIEMBD",
        "layerIndexName": "",
        "CPAANEIJCGD": "",
        "stateIDs": {
          "G01": {
            "$type": "BEIEGKBABOF",
            "animatorStates": {
              "G01": []
            }
          },
          "G02": {
            "$type": "BEIEGKBABOF",
            "animatorStates": {
              "G02": []
            }
          },
          "S01": {
            "$type": "BEIEGKBABOF",
            "animatorStates": {
              "S01": []
            }
          },
          "S02": {
            "$type": "BEIEGKBABOF",
            "animatorStates": {
              "S02": []
            }
          }
        }
      }
    },
    "audio": {
      "$type": "DEGGADLMEOK",
      "overrideEmitterName": "",
      "animAudio": {
        "onTransitionIn": [
          {
            "currentStateName": "G01",
            "audioEvent": {
              "text": "Play_amb_sceneObj_gear_FairyTalesCapsuleToys_05_Normal"
            }
          },
          {
            "currentStateName": "G02",
            "audioEvent": {
              "text": "Play_amb_sceneObj_gear_FairyTalesCapsuleToys_05_Rare"
            }
          },
          {
            "currentStateName": "S01",
            "audioEvent": {
              "text": "Play_amb_sceneObj_gear_FairyTalesCapsuleToys_01_Normal"
            }
          },
          {
            "currentStateName": "S02",
            "audioEvent": {
              "text": "Play_amb_sceneObj_gear_FairyTalesCapsuleToys_01_Rare"
            }
          }
        ]
      }
    },
    "gadgetAction": {
      "gadgetStateActionList": [
        {
          "$type": "DEMJBAICBKO",
          "enable": true
        },
        {
          "$type": "DEMJBAICBKO",
          "triggerID": "GearStop"
        }
      ]
    },
    "intee": {
      "triggerRadius": 4.0,
      "triggerHeight": 3.0,
      "KAMIAMNMFCP": ""
    }
  },
  "SceneObj_Stages_Property_Ani_Prop_FairyTalesCapsuleToys_02": {
    "$type": "CJKJIENLOHD",
    "common": {
      "isForceRefreshAuthotiryToHost": true
    },
    "KJGJCNANPJP": true,
    "hasModel": true,
    "combat": {
      "property": {
        "hp": 99999.0,
        "isLockHP": true,
        "isGhostToAllied": true,
        "isGhostToEnemy": true
      },
      "combatLock": {
        "lockShape": "CircleLockEnemy",
        "denyLockOn": true,
        "lockType": "Default"
      }
    },
    "combatTemplate": "",
    "abilities": [
      {
        "abilityID": "SceneObj_Stages_Property_Ani_Prop_FairyTalesCapsuleToys_01",
        "abilityName": "SceneObj_Stages_Property_Ani_Prop_FairyTalesCapsuleToys_01",
        "abilityOverride": ""
      },
      {
        "abilityID": "ability_01",
        "abilityName": "Scene_RockGadget_Summon_Detect",
        "abilityOverride": ""
      }
    ],
    "uiInteract": {
      "gadgetUIBtnCfgPath": "UI/open_gadget_FairyTalesCapsuleToyGachaSidePage_02",
      "uiName": "UI_ACTIVITY_FAIRYTALEAS_CAPSULETOYS_MACHINE_INTEE",
      "onTouch": "WidgetMPSupport",
      "touchParams": [
        "SceneObj_Stages_Property_Ani_Prop_FairyTalesCapsuleToys_01"
      ],
      "icon": "UI_Icon_Intee_FairyTales_CapsuleMachine",
      "groupName": "",
      "confirmDialogTitle": "",
      "confirmDialogContent": "",
      "showCondTypesV2": ["SINGLE"],
      "canInteractInCombat": false
    },
    "stateLayers": {
      "defaultLayer": {
        "$type": "GBGJJIIEMBD",
        "layerIndexName": "",
        "CPAANEIJCGD": "",
        "stateIDs": {
          "G01": {
            "$type": "BEIEGKBABOF",
            "animatorStates": {
              "G01": []
            }
          },
          "G02": {
            "$type": "BEIEGKBABOF",
            "animatorStates": {
              "G02": []
            }
          },
          "S01": {
            "$type": "BEIEGKBABOF",
            "animatorStates": {
              "S01": []
            }
          },
          "S02": {
            "$type": "BEIEGKBABOF",
            "animatorStates": {
              "S02": []
            }
          }
        }
      }
    },
    "audio": {
      "$type": "DEGGADLMEOK",
      "overrideEmitterName": "",
      "animAudio": {
        "onTransitionIn": [
          {
            "currentStateName": "G01",
            "audioEvent": {
              "text": "Play_amb_sceneObj_gear_FairyTalesCapsuleToys_05_Normal"
            }
          },
          {
            "currentStateName": "G02",
            "audioEvent": {
              "text": "Play_amb_sceneObj_gear_FairyTalesCapsuleToys_05_Rare"
            }
          },
          {
            "currentStateName": "S01",
            "audioEvent": {
              "text": "Play_amb_sceneObj_gear_FairyTalesCapsuleToys_01_Normal"
            }
          },
          {
            "currentStateName": "S02",
            "audioEvent": {
              "text": "Play_amb_sceneObj_gear_FairyTalesCapsuleToys_01_Rare"
            }
          }
        ]
      }
    },
    "gadgetAction": {
      "gadgetStateActionList": [
        {
          "$type": "DEMJBAICBKO",
          "enable": true
        },
        {
          "$type": "DEMJBAICBKO",
          "triggerID": "GearStop"
        }
      ]
    },
    "intee": {
      "triggerRadius": 4.0,
      "triggerHeight": 3.0,
      "KAMIAMNMFCP": ""
    }
  },
  "SceneObj_Stages_Property_Ani_Prop_FairyTalesCapsuleToys_03": {
    "$type": "CJKJIENLOHD",
    "common": {
      "isForceRefreshAuthotiryToHost": true
    },
    "KJGJCNANPJP": true,
    "hasModel": true,
    "combat": {
      "property": {
        "hp": 99999.0,
        "isLockHP": true,
        "isGhostToAllied": true,
        "isGhostToEnemy": true
      },
      "combatLock": {
        "lockShape": "CircleLockEnemy",
        "denyLockOn": true,
        "lockType": "Default"
      }
    },
    "combatTemplate": "",
    "abilities": [
      {
        "abilityID": "SceneObj_Stages_Property_Ani_Prop_FairyTalesCapsuleToys_01",
        "abilityName": "SceneObj_Stages_Property_Ani_Prop_FairyTalesCapsuleToys_01",
        "abilityOverride": ""
      },
      {
        "abilityID": "ability_01",
        "abilityName": "Scene_RockGadget_Summon_Detect",
        "abilityOverride": ""
      }
    ],
    "uiInteract": {
      "gadgetUIBtnCfgPath": "UI/open_gadget_FairyTalesCapsuleToyGachaSidePage_03",
      "uiName": "UI_ACTIVITY_FAIRYTALEAS_CAPSULETOYS_MACHINE_INTEE",
      "onTouch": "WidgetMPSupport",
      "touchParams": [
        "SceneObj_Stages_Property_Ani_Prop_FairyTalesCapsuleToys_01"
      ],
      "icon": "UI_Icon_Intee_FairyTales_CapsuleMachine",
      "groupName": "",
      "confirmDialogTitle": "",
      "confirmDialogContent": "",
      "showCondTypesV2": ["SINGLE"],
      "canInteractInCombat": false
    },
    "stateLayers": {
      "defaultLayer": {
        "$type": "GBGJJIIEMBD",
        "layerIndexName": "",
        "CPAANEIJCGD": "",
        "stateIDs": {
          "G01": {
            "$type": "BEIEGKBABOF",
            "animatorStates": {
              "G01": []
            }
          },
          "G02": {
            "$type": "BEIEGKBABOF",
            "animatorStates": {
              "G02": []
            }
          },
          "S01": {
            "$type": "BEIEGKBABOF",
            "animatorStates": {
              "S01": []
            }
          },
          "S02": {
            "$type": "BEIEGKBABOF",
            "animatorStates": {
              "S02": []
            }
          }
        }
      }
    },
    "audio": {
      "$type": "DEGGADLMEOK",
      "overrideEmitterName": "",
      "animAudio": {
        "onTransitionIn": [
          {
            "currentStateName": "G01",
            "audioEvent": {
              "text": "Play_amb_sceneObj_gear_FairyTalesCapsuleToys_05_Normal"
            }
          },
          {
            "currentStateName": "G02",
            "audioEvent": {
              "text": "Play_amb_sceneObj_gear_FairyTalesCapsuleToys_05_Rare"
            }
          },
          {
            "currentStateName": "S01",
            "audioEvent": {
              "text": "Play_amb_sceneObj_gear_FairyTalesCapsuleToys_01_Normal"
            }
          },
          {
            "currentStateName": "S02",
            "audioEvent": {
              "text": "Play_amb_sceneObj_gear_FairyTalesCapsuleToys_01_Rare"
            }
          }
        ]
      }
    },
    "gadgetAction": {
      "gadgetStateActionList": [
        {
          "$type": "DEMJBAICBKO",
          "enable": true
        },
        {
          "$type": "DEMJBAICBKO",
          "triggerID": "GearStop"
        }
      ]
    },
    "intee": {
      "triggerRadius": 4.0,
      "triggerHeight": 3.0,
      "KAMIAMNMFCP": ""
    }
  },
  "FairyBook_DragonDungeon_ToyBrickDragonHead_02": {
    "$type": "CJKJIENLOHD",
    "common": {
      "disableTickDistance": 100000.0
    },
    "globalValue": {
      "serverGlobalValues": ["SGV_DragonEmoji", "SGV_DragonHead_AttachPoint"],
      "initServerGlobalValues": {
        "SGV_DragonEmoji": 0.0,
        "SGV_DragonHead_AttachPoint": 0.0
      }
    },
    "hasModel": true,
    "combat": {
      "property": {
        "hp": 99999.0,
        "attack": 400.0,
        "defense": 99999.0,
        "isInvincible": true,
        "isLockHP": true,
        "isGhostToAllied": true,
        "isGhostToEnemy": true
      },
      "combatLock": {
        "lockShape": "CircleLockEnemy",
        "denyLockOn": true,
        "lockType": "Default"
      }
    },
    "combatTemplate": "",
    "abilities": [
      {
        "abilityID": "",
        "abilityName": "FairyBook_DragonDungeon_ToyBrickDragonHead_BornAndDie2",
        "abilityOverride": ""
      },
      {
        "abilityID": "",
        "abilityName": "FairyBook_DragonDungeon_ToyBrickDragonHeadControl",
        "abilityOverride": ""
      },
      {
        "abilityID": "",
        "abilityName": "FairyBook_DragonDungeon_ToyBrickDragonHead_BulletManager",
        "abilityOverride": ""
      },
      {
        "abilityID": "",
        "abilityName": "FairyBook_DragonDungeon_ToyBrickDragonHead_BigBulletOnce",
        "abilityOverride": ""
      },
      {
        "abilityID": "",
        "abilityName": "FairyBook_DragonDungeon_ToyBrickDragonHead_TrackBulletHandler",
        "abilityOverride": ""
      }
    ],
    "move": {
      "$type": "OEFHHKHPMCJ"
    },
    "stateLayers": {
      "defaultLayer": {
        "$type": "GBGJJIIEMBD",
        "layerIndexName": "",
        "CPAANEIJCGD": "",
        "stateIDs": {
          "SpecialBullet_BS": {
            "$type": "BEIEGKBABOF",
            "cullingModelAlwaysAnimate": true
          }
        }
      }
    },
    "partControl": {
      "parts": [
        {
          "$type": "INCPGKCDCIO",
          "angularSpeed": 10.0,
          "partRootName": "HeadControl",
          "forwardBy": "NamedTransform",
          "rotateBy": "ForwardTransLocal",
          "doOnUnEabled": "RotateToForward",
          "forwardByTransName": "HeadControl",
          "limitHorizontal": 360.0,
          "limitVertical": 0.0,
          "targetType": "ActionSetTarget",
          "KEAJBDBGBJE": true
        }
      ]
    }
  },
  "SceneObj_Level_Fd_Property_Ani_Prop_Emilie_PlanetBridge_01": {
    "$type": "CJKJIENLOHD",
    "common": {
      "isForceRefreshAuthotiryToHost": true
    },
    "hasModel": true,
    "combat": {
      "property": {
        "hp": 99999.0,
        "isLockHP": true,
        "isGhostToAllied": true,
        "isGhostToEnemy": true
      }
    },
    "combatTemplate": "",
    "abilities": [
      {
        "abilityID": "SceneObj_Level_Fd_Property_Ani_Prop_Emilie_PlanetBridge_01",
        "abilityName": "SceneObj_Level_Fd_Property_Ani_Prop_Emilie_PlanetBridge_01",
        "abilityOverride": ""
      }
    ]
  },
  "SceneObj_Level_Fd_Property_Ani_Prop_Emilie_PlanetBridge_02": {
    "$type": "CJKJIENLOHD",
    "common": {
      "isForceRefreshAuthotiryToHost": true
    },
    "hasModel": true,
    "combat": {
      "property": {
        "hp": 99999.0,
        "isLockHP": true,
        "isGhostToAllied": true,
        "isGhostToEnemy": true
      }
    },
    "combatTemplate": "",
    "abilities": [
      {
        "abilityID": "SceneObj_Level_Fd_Property_Ani_Prop_Emilie_PlanetBridge_02",
        "abilityName": "SceneObj_Level_Fd_Property_Ani_Prop_Emilie_PlanetBridge_02",
        "abilityOverride": ""
      }
    ]
  },
  "SceneObj_Level_Fd_Property_Ani_Prop_Emilie_WalkingSeed_Target_01": {
    "$type": "CJKJIENLOHD",
    "common": {
      "isForceRefreshAuthotiryToHost": true
    },
    "hasModel": true,
    "combat": {
      "property": {
        "hp": 99999.0,
        "isLockHP": true,
        "isGhostToAllied": true,
        "isGhostToEnemy": true
      }
    },
    "combatTemplate": "",
    "abilities": [
      {
        "abilityID": "SceneObj_Level_Fd_Property_Ani_Prop_Emilie_WalkingSeed_Target_01",
        "abilityName": "SceneObj_Level_Fd_Property_Ani_Prop_Emilie_WalkingSeed_Target_01",
        "abilityOverride": ""
      }
    ]
  },
  "SceneObj_Level_Fd_Property_Ani_Prop_Emilie_WalkingSeed_Target_02": {
    "$type": "CJKJIENLOHD",
    "common": {
      "isForceRefreshAuthotiryToHost": true
    },
    "hasModel": true,
    "combat": {
      "property": {
        "hp": 99999.0,
        "isLockHP": true,
        "isGhostToAllied": true,
        "isGhostToEnemy": true
      }
    },
    "combatTemplate": "",
    "abilities": [
      {
        "abilityID": "SceneObj_Level_Fd_Property_Ani_Prop_Emilie_WalkingSeed_Target_02",
        "abilityName": "SceneObj_Level_Fd_Property_Ani_Prop_Emilie_WalkingSeed_Target_02",
        "abilityOverride": ""
      }
    ]
  },
  "SceneObj_Area_Hd_Property_Prop_FairyBoat_01": {
    "$type": "CJKJIENLOHD",
    "common": {
      "isForceRefreshAuthotiryToHost": true
    },
    "hasModel": true,
    "combat": {
      "property": {
        "hp": 99999.0,
        "isLockHP": true,
        "isGhostToAllied": true,
        "isGhostToEnemy": true
      }
    },
    "combatTemplate": "",
    "abilities": [
      {
        "abilityID": "SceneObj_Area_Hd_Property_Prop_FairyBoat_01",
        "abilityName": "SceneObj_Area_Hd_Property_Prop_FairyBoat_01",
        "abilityOverride": ""
      }
    ]
  },
  "SceneObj_Area_Hd_Property_Prop_FairyBoat_02": {
    "$type": "CJKJIENLOHD",
    "common": {
      "isForceRefreshAuthotiryToHost": true
    },
    "hasModel": true,
    "combat": {
      "property": {
        "hp": 99999.0,
        "isLockHP": true,
        "isGhostToAllied": true,
        "isGhostToEnemy": true
      }
    },
    "combatTemplate": "",
    "abilities": [
      {
        "abilityID": "SceneObj_Area_Hd_Property_Prop_FairyBoat_02",
        "abilityName": "SceneObj_Area_Hd_Property_Prop_FairyBoat_02",
        "abilityOverride": ""
      }
    ]
  },
  "SceneObj_Area_Common_Property_Ani_Prop_QinMamolu_01": {
    "$type": "CJKJIENLOHD",
    "specialPoint": {
      "elementAbsorb": "RootNode",
      "elementPendant": "",
      "elementDrop": "RootNode",
      "bulletAim": "bulletAim"
    },
    "hasModel": true,
    "combat": {
      "property": {
        "hp": 5000.0,
        "attack": 200.0,
        "weight": 50.0
      },
      "beHit": {
        "hitBloodEffect": "",
        "hitAutoRedirect": false
      },
      "combatLock": {
        "lockShape": "CircleLockEnemy",
        "denyLockOn": true,
        "lockType": "Gadget_Lv1"
      }
    },
    "combatTemplate": "",
    "abilities": [
      {
        "abilityID": "SceneObj_Gear_Operator_Mamolu_Entity",
        "abilityName": "SceneObj_Gear_Operator_Mamolu_Entity",
        "abilityOverride": ""
      },
      {
        "abilityID": "SceneObj_Area_Common_Property_Ani_Prop_QinMamolu_01",
        "abilityName": "SceneObj_Area_Common_Property_Ani_Prop_QinMamolu_01",
        "abilityOverride": ""
      }
    ],
    "billboard": {
      "$type": "DNGNMAJBCNP",
      "attachPoint": "RootNode",
      "offset": {
        "y": 2.5
      },
      "radiusOffset": 3.0,
      "showDistance": 48.0,
      "showHPBar": true,
      "size": "Grand"
    }
  },
  "SceneObj_Gear_Operator_Mamolu_V4_8": {
    "$type": "CJKJIENLOHD",
    "specialPoint": {
      "elementAbsorb": "RootNode",
      "elementPendant": "",
      "elementDrop": "RootNode",
      "bulletAim": "bulletAim"
    },
    "hasModel": true,
    "combat": {
      "property": {
        "hp": 5000.0,
        "attack": 200.0,
        "weight": 50.0
      },
      "beHit": {
        "hitBloodEffect": "",
        "hitAutoRedirect": false
      },
      "combatLock": {
        "lockShape": "CircleLockEnemy",
        "denyLockOn": true,
        "lockType": "Gadget_Lv1"
      }
    },
    "combatTemplate": "",
    "abilities": [
      {
        "abilityID": "SceneObj_Gear_Operator_Mamolu_Entity",
        "abilityName": "SceneObj_Gear_Operator_Mamolu_Entity",
        "abilityOverride": ""
      }
    ],
    "billboard": {
      "$type": "DNGNMAJBCNP",
      "attachPoint": "RootNode",
      "offset": {
        "y": 2.5
      },
      "radiusOffset": 3.0,
      "showDistance": 48.0,
      "showHPBar": true,
      "size": "Grand"
    }
  },
  "SceneObj_Area_Hd_Property_Ani_Prop_FairyBook_01": {
    "$type": "CJKJIENLOHD",
    "common": {
      "isForceRefreshAuthotiryToHost": true
    },
    "hasModel": true,
    "combat": {
      "property": {
        "hp": 99999.0,
        "isLockHP": true,
        "isGhostToAllied": true,
        "isGhostToEnemy": true
      }
    },
    "combatTemplate": "",
    "abilities": [
      {
        "abilityID": "SceneObj_Area_Hd_Property_Ani_Prop_FairyBook_01",
        "abilityName": "SceneObj_Area_Hd_Property_Ani_Prop_FairyBook_01",
        "abilityOverride": ""
      }
    ],
    "stateLayers": {
      "defaultLayer": {
        "$type": "GBGJJIIEMBD",
        "layerIndexName": "",
        "CPAANEIJCGD": "",
        "stateIDs": {
          "Open": {
            "$type": "BEIEGKBABOF",
            "animatorStates": {
              "Open": []
            }
          },
          "Idle": {
            "$type": "BEIEGKBABOF",
            "animatorStates": {
              "Idle": []
            }
          }
        }
      }
    }
  },
  "SceneObj_Emilie_DeadBody_01": {
    "$type": "CJKJIENLOHD",
    "hasModel": true,
    "combat": {
      "property": {
        "hp": 99999.0,
        "weight": 50.0,
        "isInvincible": true,
        "isLockHP": true,
        "isGhostToAllied": true,
        "isGhostToEnemy": true
      },
      "combatLock": {
        "lockShape": "CircleLockEnemy",
        "denyLockOn": true,
        "lockType": "Gadget_Lv1"
      }
    },
    "combatTemplate": "",
    "abilities": [
      {
        "abilityID": "ability_01",
        "abilityName": "Scene_RockGadget_Summon_Detect",
        "abilityOverride": ""
      }
    ]
  }
}
