{
  "SceneObj_Area_Fd_Property_Ani_Prop_SearchLamp_01": {
    "$type": "CJKJIENLOHD",
    "common": {
      "disableTickDistance": 100000.0,
      "isForceRefreshAuthotiryToHost": true
    },
    "globalValue": {
      "serverGlobalValues": ["SGV_Prison_MonsterAlert"],
      "initServerGlobalValues": {
        "SGV_Prison_MonsterAlert": 0.0
      }
    },
    "hasModel": true,
    "combat": {
      "property": {
        "hp": 99999.0,
        "isInvincible": true,
        "isLockHP": true,
        "isGhostToAllied": true,
        "isGhostToEnemy": true
      }
    },
    "combatTemplate": "",
    "abilities": [
      {
        "abilityID": "",
        "abilityName": "SceneObj_Area_Fd_Property_Ani_Prop_SearchLamp_01_Ability",
        "abilityOverride": ""
      },
      {
        "abilityID": "",
        "abilityName": "SceneObj_Area_Fd_Property_Ani_Prop_SearchLamp_01_Light_Ability",
        "abilityOverride": ""
      }
    ],
    "field": {
      "concernType": "LocalAvatar",
      "shape": "",
      "fromShape": "",
      "triggerInfinite": true,
      "lifeInfinite": true,
      "overwriteCampType": true,
      "campType": "All",
      "colliderName": "Light_Collider",
      "fromColliderName": ""
    },
    "partControl": {
      "parts": [
        {
          "$type": "INCPGKCDCIO",
          "angularSpeed": 100.0,
          "partRootName": "LightObj",
          "forwardByTransName": "",
          "limitHorizontal": 30.0,
          "limitVertical": 30.0
        },
        {
          "$type": "INCPGKCDCIO",
          "angularSpeed": 100.0,
          "partRootName": "MiddleObj",
          "forwardByTransName": "",
          "limitHorizontal": 30.0,
          "limitVertical": 0.0
        }
      ]
    }
  },
  "SceneObj_Area_Fd_Property_Ani_Prop_SearchLamp_02": {
    "$type": "CJKJIENLOHD",
    "common": {
      "disableTickDistance": 100000.0,
      "isForceRefreshAuthotiryToHost": true
    },
    "hasModel": true,
    "combat": {
      "property": {
        "hp": 99999.0,
        "isInvincible": true,
        "isLockHP": true,
        "isGhostToAllied": true,
        "isGhostToEnemy": true
      }
    },
    "combatTemplate": "",
    "abilities": [
      {
        "abilityID": "",
        "abilityName": "SceneObj_Area_Fd_Property_Ani_Prop_SearchLamp_01_Ability",
        "abilityOverride": ""
      },
      {
        "abilityID": "",
        "abilityName": "SceneObj_Area_Fd_Property_Ani_Prop_SearchLamp_02_Light_Ability",
        "abilityOverride": ""
      }
    ],
    "field": {
      "concernType": "LocalAvatar",
      "shape": "",
      "fromShape": "",
      "triggerInfinite": true,
      "lifeInfinite": true,
      "overwriteCampType": true,
      "campType": "All",
      "colliderName": "Light_Collider",
      "fromColliderName": ""
    },
    "partControl": {
      "parts": [
        {
          "$type": "INCPGKCDCIO",
          "angularSpeed": 100.0,
          "partRootName": "LightObj",
          "forwardByTransName": "",
          "limitHorizontal": 30.0,
          "limitVertical": 30.0
        },
        {
          "$type": "INCPGKCDCIO",
          "angularSpeed": 100.0,
          "partRootName": "MiddleObj",
          "forwardByTransName": "",
          "limitHorizontal": 30.0,
          "limitVertical": 0.0
        }
      ]
    }
  },
  "SceneObj_Area_Fd_Property_Ani_Prop_SearchLamp_03": {
    "$type": "CJKJIENLOHD",
    "hasModel": true,
    "combatTemplate": "",
    "abilities": [
      {
        "abilityID": "",
        "abilityName": "SceneObj_Area_Fd_Property_Ani_Prop_SearchLamp_03_Ability",
        "abilityOverride": ""
      }
    ]
  },
  "SceneObj_Area_Fd_Property_Ani_Prop_ChasingPhantom_LookAt_01": {
    "$type": "CJKJIENLOHD",
    "common": {
      "disableTickDistance": 100000.0
    },
    "combat": {
      "property": {
        "hp": 99999.0,
        "isInvincible": true,
        "isLockHP": true,
        "isGhostToAllied": true,
        "isGhostToEnemy": true
      }
    },
    "combatTemplate": "",
    "abilities": [
      {
        "abilityID": "",
        "abilityName": "SceneObj_Area_Fd_Property_Ani_Prop_ChasingPhantom_LookAt_01_Ability",
        "abilityOverride": ""
      }
    ],
    "move": {
      "$type": "OEFHHKHPMCJ",
      "LIFBDKPAGKI": true
    }
  },
  "SceneObj_Area_Fd_Property_Ani_Prop_StealthObject_01": {
    "$type": "CJKJIENLOHD",
    "combatTemplate": "",
    "abilities": [
      {
        "abilityID": "",
        "abilityName": "SceneObj_Area_Fd_Property_Ani_Prop_StealthObject_01_Ability",
        "abilityOverride": ""
      }
    ]
  },
  "SceneObj_Area_Fd_Property_Ani_Prop_ChasingPhantom_01": {
    "$type": "CJKJIENLOHD",
    "combat": {
      "property": {
        "hp": 99999.0,
        "isInvincible": true,
        "isLockHP": true,
        "isGhostToAllied": true,
        "isGhostToEnemy": true
      }
    },
    "combatTemplate": "",
    "abilities": [
      {
        "abilityID": "",
        "abilityName": "SceneObj_Area_Fd_Property_Ani_Prop_ChasingPhantom_01_Ability",
        "abilityOverride": ""
      }
    ],
    "field": {
      "concernType": "AllAvatars",
      "shape": "CircleR5H5",
      "fromShape": "",
      "triggerInfinite": true,
      "lifeInfinite": true,
      "checkInterval": 0.20000000298023224,
      "overwriteCampType": true,
      "campType": "All",
      "colliderName": "",
      "fromColliderName": ""
    },
    "move": {
      "$type": "OEFHHKHPMCJ",
      "LIFBDKPAGKI": true
    }
  },
  "SkillObj_ChasingPhantom_Bullet": {
    "$type": "CJKJIENLOHD",
    "common": {
      "effectAttachShape": {
        "$type": "OMIODKONOMG"
      },
      "disableTickDistance": 100000.0
    },
    "combat": {
      "property": {
        "useCreatorProperty": true,
        "isGhostToAllied": true,
        "isGhostToEnemy": true,
        "canTriggerBullet": false
      },
      "beHit": {
        "hitBloodEffect": "",
        "muteAllHit": true,
        "muteAllHitEffect": true,
        "muteAllHitText": true
      },
      "combatLock": {
        "lockShape": "CircleLockEnemy",
        "denyLockOn": true,
        "lockType": "Default"
      }
    },
    "combatTemplate": "",
    "abilities": [
      {
        "abilityID": "SkillObj_ChasingPhantom_Bullet_Ability",
        "abilityName": "SkillObj_ChasingPhantom_Bullet_Ability",
        "abilityOverride": ""
      }
    ],
    "timer": {
      "lifeInfinite": true
    },
    "move": {
      "$type": "GMOHNHFHLAO",
      "speed": 8.0,
      "anglerVelocity": 60.0,
      "destroyWhenTargetDie": true,
      "traceOnYAxis": true
    },
    "gadget": {
      "$type": "JENBBNKGGJP",
      "collision": {
        "triggerType": "TriggerNoRepeat",
        "targetType": "All"
      },
      "triggerActions": [
        {
          "$type": "AILPBJHDHDG",
          "abilityName": "SkillObj_ChasingPhantom_Bullet_Ability"
        }
      ]
    }
  },
  "SceneObj_Area_Fd_Property_Ani_Prop_ChasingPhantom_PortableCell_01": {
    "$type": "CJKJIENLOHD",
    "hasModel": true,
    "combat": {
      "property": {
        "hp": 99999.0,
        "attack": 200.0,
        "weight": 50.0,
        "isLockHP": true
      },
      "die": {
        "dieEndTime": 1.0,
        "dieDisappearEffect": ""
      }
    },
    "combatTemplate": "",
    "abilities": [
      {
        "abilityID": "",
        "abilityName": "SceneObj_Area_Fd_Property_Ani_Prop_PhantomChasing_PortableCell_01_Ability",
        "abilityOverride": ""
      }
    ],
    "field": {
      "concernType": "LocalAvatar",
      "shape": "CircleR1",
      "fromShape": "",
      "triggerInfinite": true,
      "lifeInfinite": true,
      "checkInterval": 0.20000000298023224,
      "overwriteCampType": true,
      "campType": "SelfCamp",
      "colliderName": "",
      "fromColliderName": ""
    }
  },
  "SceneObj_Area_Fd_Property_Ani_Prop_VugBarrier_01": {
    "$type": "CJKJIENLOHD",
    "combat": {
      "property": {
        "hp": 99999.0,
        "isInvincible": true,
        "isLockHP": true,
        "isGhostToAllied": true,
        "isGhostToEnemy": true
      }
    },
    "combatTemplate": "",
    "abilities": [
      {
        "abilityID": "",
        "abilityName": "SceneObj_Area_Fd_Property_Ani_Prop_VugBarrier_01_Ability",
        "abilityOverride": ""
      }
    ],
    "field": {
      "concernType": "AllAvatars",
      "shape": "CircleR3",
      "fromShape": "",
      "triggerInfinite": true,
      "lifeInfinite": true,
      "checkInterval": 0.20000000298023224,
      "overwriteCampType": true,
      "campType": "All",
      "colliderName": "",
      "fromColliderName": ""
    }
  },
  "SceneObj_Area_Fd_Property_Ani_Prop_PrismObject_01": {
    "$type": "CJKJIENLOHD",
    "common": {
      "isForceRefreshAuthotiryToHost": true
    },
    "globalValue": {
      "serverGlobalValues": ["SGV_Prism_Mark"],
      "initServerGlobalValues": {
        "SGV_Prism_Mark": 0.0
      }
    },
    "hasModel": true,
    "combat": {
      "property": {
        "hp": 99999.0,
        "isInvincible": true,
        "isLockHP": true,
        "isGhostToAllied": true,
        "isGhostToEnemy": true
      }
    },
    "combatTemplate": "",
    "abilities": [
      {
        "abilityID": "",
        "abilityName": "SceneObj_Area_Fd_Property_Ani_Prop_PrismObject_01_Ability",
        "abilityOverride": ""
      },
      {
        "abilityID": "",
        "abilityName": "Scene_RockGadget_Summon_Detect",
        "abilityOverride": ""
      }
    ],
    "uiInteract": {
      "gadgetUIBtnCfgPath": "TEST/TEST_Chest_Btn",
      "uiName": "UI_FocusPrism_Intee_01",
      "onTouch": "WidgetMPSupport",
      "touchParams": [
        "SceneObj_Area_Fd_Property_Ani_Prop_PrismObject_01_Ability"
      ],
      "icon": "UI_Icon_Intee_Mechanism",
      "groupName": "",
      "confirmDialogTitle": "",
      "confirmDialogContent": ""
    },
    "misc": {
      "escapeEffect": "",
      "targetIndicatorYOffset": 1.350000023841858
    },
    "gadgetAction": {
      "gadgetStateActionList": [
        {
          "$type": "FJGKLJLPOGL",
          "intID": "GadgetState",
          "syncState": true
        },
        {
          "$type": "DEMJBAICBKO"
        },
        {
          "$type": "DEMJBAICBKO",
          "triggerID": "GearStart",
          "enable": true
        },
        {
          "$type": "DEMJBAICBKO",
          "triggerID": "GearStop"
        }
      ]
    },
    "intee": {
      "KAMIAMNMFCP": ""
    }
  },
  "SceneObj_Area_Fd_Property_Ani_Prop_PrismObject_02": {
    "$type": "CJKJIENLOHD",
    "hasModel": true,
    "combat": {
      "property": {
        "hp": 99999.0,
        "isInvincible": true,
        "isLockHP": true,
        "isGhostToAllied": true,
        "isGhostToEnemy": true
      }
    },
    "combatTemplate": "",
    "abilities": [
      {
        "abilityID": "",
        "abilityName": "SceneObj_Area_Fd_Property_Ani_Prop_PrismObject_02_Ability",
        "abilityOverride": ""
      },
      {
        "abilityID": "",
        "abilityName": "Scene_RockGadget_Summon_Detect",
        "abilityOverride": ""
      }
    ],
    "field": {
      "concernType": "LocalAvatar",
      "shape": "CircleR3.5H2",
      "fromShape": "",
      "triggerInfinite": true,
      "lifeInfinite": true,
      "checkInterval": 0.5,
      "overwriteCampType": true,
      "campType": "SelfCamp",
      "colliderName": "",
      "fromColliderName": ""
    },
    "gadgetAction": {
      "gadgetStateActionList": [
        {
          "$type": "FJGKLJLPOGL",
          "intID": "GadgetState",
          "syncState": true
        }
      ]
    }
  },
  "SceneObj_Area_Fd_Property_Ani_Prop_PrismObject_05": {
    "$type": "CJKJIENLOHD",
    "model": {
      "bornEffect": "",
      "attachEffect": "Eff_SceneObj_CenterPrism_01_Shell",
      "BKPFGNPLDNJ": ""
    },
    "hasModel": true,
    "combatTemplate": ""
  },
  "SceneObj_Area_Fd_Property_Ani_Prop_PrismObject_03": {
    "$type": "CJKJIENLOHD",
    "combat": {
      "property": {
        "hp": 99999.0,
        "attack": 200.0,
        "weight": 50.0,
        "isLockHP": true,
        "isGhostToAllied": true
      },
      "beHit": {
        "hitBloodEffect": "",
        "hitAutoRedirect": false,
        "muteAllHitText": true
      },
      "combatLock": {
        "lockShape": "CircleLockEnemy",
        "denyLockOn": true,
        "lockType": "Gadget_Lv1"
      },
      "die": {
        "dieEndTime": 5.0,
        "dieForceDisappearTime": 5.0,
        "dieDisappearEffect": ""
      }
    },
    "combatTemplate": "",
    "uiInteract": {
      "gadgetUIBtnCfgPath": "TEST/TEST_Chest_Btn",
      "uiName": "UI_FocusPrism_Intee_02",
      "icon": "",
      "groupName": "",
      "confirmDialogTitle": "",
      "confirmDialogContent": ""
    },
    "gadgetAction": {
      "gadgetStateActionList": [
        {
          "$type": "DEMJBAICBKO",
          "enable": true
        },
        {
          "$type": "DEMJBAICBKO",
          "triggerID": "GearStart"
        }
      ]
    },
    "intee": {
      "triggerRadius": 2.0,
      "triggerHeight": 3.0,
      "KAMIAMNMFCP": ""
    },
    "lowPriorityIntee": true
  },
  "SceneObj_Area_Fd_Property_Ani_Prop_PrismObject_04": {
    "$type": "CJKJIENLOHD",
    "model": {
      "bornEffect": "",
      "attachEffect": "Eff_SceneObj_FocusingPrism_01_Active",
      "BKPFGNPLDNJ": ""
    },
    "hasModel": true,
    "combatTemplate": ""
  },
  "SceneObj_Area_Fd_Property_Ani_Prop_PrismLight_01": {
    "$type": "CJKJIENLOHD",
    "common": {
      "isForceRefreshAuthotiryToHost": true
    },
    "globalValue": {
      "serverGlobalValues": [
        "SGV_PRISMLIGHT_BEFORE",
        "SGV_PRISMLIGHT_AFTER",
        "SGV_PRISMLIGHT_BLUR",
        "SGV_PRISMLIGHT_FOCUS"
      ],
      "initServerGlobalValues": {
        "SGV_PRISMLIGHT_BEFORE": 1.0,
        "SGV_PRISMLIGHT_AFTER": 1.0,
        "SGV_PRISMLIGHT_BLUR": 1.0,
        "SGV_PRISMLIGHT_FOCUS": 1.0
      }
    },
    "hasModel": true,
    "combat": {
      "property": {
        "hp": 99999.0,
        "isInvincible": true,
        "isLockHP": true,
        "isGhostToAllied": true,
        "isGhostToEnemy": true
      }
    },
    "combatTemplate": "",
    "abilities": [
      {
        "abilityID": "",
        "abilityName": "SceneObj_Area_Fd_Property_Ani_Prop_PrismLight_01_Ability",
        "abilityOverride": ""
      }
    ]
  },
  "SceneObj_Area_Fd_Property_Ani_Prop_PrismRay_01": {
    "$type": "CJKJIENLOHD",
    "combatTemplate": "",
    "abilities": [
      {
        "abilityID": "",
        "abilityName": "SceneObj_Area_Fd_Property_Ani_Prop_PrismRay_01_Ability",
        "abilityOverride": ""
      }
    ]
  },
  "SceneObj_Area_Fd_Property_Ani_Prop_PrismRay_02": {
    "$type": "CJKJIENLOHD",
    "combatTemplate": "",
    "abilities": [
      {
        "abilityID": "",
        "abilityName": "SceneObj_Area_Fd_Property_Ani_Prop_PrismRay_02_Ability",
        "abilityOverride": ""
      }
    ]
  },
  "SceneObj_Area_Fd_Property_Ani_Prop_PrismRay_03": {
    "$type": "CJKJIENLOHD",
    "combatTemplate": "",
    "abilities": [
      {
        "abilityID": "",
        "abilityName": "SceneObj_Area_Fd_Property_Ani_Prop_PrismRay_03_Ability",
        "abilityOverride": ""
      }
    ]
  },
  "SceneObj_Area_Fd_Property_Ani_Prop_PrismCrystal_01": {
    "$type": "CJKJIENLOHD",
    "model": {
      "bornEffect": "",
      "attachEffect": "Eff_Item_Hint_Small",
      "BKPFGNPLDNJ": ""
    },
    "hasModel": true,
    "combatTemplate": "",
    "misc": {
      "pickup": {
        "pickType": "Select",
        "isStatic": true,
        "bornEffect": "",
        "dropEffect": "",
        "attractAudio": ""
      },
      "escapeEffect": ""
    },
    "gadgetAction": {
      "gadgetStateActionList": [
        {
          "$type": "DEMJBAICBKO"
        },
        {
          "$type": "DEMJBAICBKO",
          "triggerID": "GearStart",
          "enable": true
        }
      ]
    }
  },
  "SceneObj_FocusingPrism_Light_01": {
    "$type": "CJKJIENLOHD",
    "combatTemplate": "",
    "abilities": [
      {
        "abilityID": "",
        "abilityName": "SceneObj_FocusingPrism_Light_01_Ability",
        "abilityOverride": ""
      }
    ]
  },
  "SceneObj_FocusingPrism_Light_02": {
    "$type": "CJKJIENLOHD",
    "combatTemplate": "",
    "abilities": [
      {
        "abilityID": "",
        "abilityName": "SceneObj_FocusingPrism_Light_02_Ability",
        "abilityOverride": ""
      }
    ]
  },
  "SceneObj_FocusingPrism_Light_03": {
    "$type": "CJKJIENLOHD",
    "combatTemplate": "",
    "abilities": [
      {
        "abilityID": "",
        "abilityName": "SceneObj_FocusingPrism_Light_03_Ability",
        "abilityOverride": ""
      }
    ]
  },
  "SceneObj_FocusingPrism_Light_04": {
    "$type": "CJKJIENLOHD",
    "combatTemplate": "",
    "abilities": [
      {
        "abilityID": "",
        "abilityName": "SceneObj_FocusingPrism_Light_04_Ability",
        "abilityOverride": ""
      }
    ]
  },
  "SceneObj_FocusingPrism_Light_05": {
    "$type": "CJKJIENLOHD",
    "combatTemplate": "",
    "abilities": [
      {
        "abilityID": "",
        "abilityName": "SceneObj_FocusingPrism_Light_05_Ability",
        "abilityOverride": ""
      }
    ]
  },
  "SceneObj_FocusingPrism_Light_06": {
    "$type": "CJKJIENLOHD",
    "combatTemplate": "",
    "abilities": [
      {
        "abilityID": "",
        "abilityName": "SceneObj_FocusingPrism_Light_06_Ability",
        "abilityOverride": ""
      }
    ]
  },
  "SceneObj_Area_Fd_Property_Ani_Prop_SeaVine_01": {
    "$type": "CJKJIENLOHD",
    "hasModel": true,
    "combatTemplate": "canBeAttacked",
    "abilities": [
      {
        "abilityID": "",
        "abilityName": "SceneObj_Area_Fd_Property_Ani_Prop_SeaVine_01_Ability",
        "abilityOverride": ""
      }
    ],
    "field": {
      "concernType": "AllAvatars",
      "shape": "",
      "fromShape": "",
      "triggerInfinite": true,
      "lifeInfinite": true,
      "checkInterval": 0.20000000298023224,
      "overwriteCampType": true,
      "campType": "All",
      "colliderName": "Trigger",
      "fromColliderName": ""
    }
  },
  "SceneObj_Area_Fd_Property_Ani_Prop_SeaVine_02": {
    "$type": "CJKJIENLOHD",
    "hasModel": true,
    "combatTemplate": "canBeAttacked",
    "abilities": [
      {
        "abilityID": "",
        "abilityName": "SceneObj_Area_Fd_Property_Ani_Prop_SeaVine_02_Ability",
        "abilityOverride": ""
      }
    ],
    "field": {
      "concernType": "AllAvatars",
      "shape": "",
      "fromShape": "",
      "triggerInfinite": true,
      "lifeInfinite": true,
      "checkInterval": 0.20000000298023224,
      "overwriteCampType": true,
      "campType": "All",
      "colliderName": "Trigger",
      "fromColliderName": ""
    }
  },
  "SceneObj_Area_Fd_Property_Ani_Prop_SeaVine_03": {
    "$type": "CJKJIENLOHD",
    "hasModel": true,
    "combatTemplate": "canBeAttacked",
    "abilities": [
      {
        "abilityID": "",
        "abilityName": "SceneObj_Area_Fd_Property_Ani_Prop_SeaVine_03_Ability",
        "abilityOverride": ""
      }
    ],
    "field": {
      "concernType": "AllAvatars",
      "shape": "",
      "fromShape": "",
      "triggerInfinite": true,
      "lifeInfinite": true,
      "checkInterval": 0.20000000298023224,
      "overwriteCampType": true,
      "campType": "All",
      "colliderName": "Trigger",
      "fromColliderName": ""
    }
  },
  "SceneObj_Area_Fd_Property_Ani_Prop_SeaVineCore_01": {
    "$type": "CJKJIENLOHD",
    "common": {
      "disableTickDistance": 5000.0
    },
    "globalValue": {
      "serverGlobalValues": ["SGV_SEACORE_LOCKHP", "SGV_SEACORE_FULLHP"],
      "initServerGlobalValues": {
        "SGV_SEACORE_LOCKHP": 1.0,
        "SGV_SEACORE_FULLHP": 1.0
      }
    },
    "hasModel": true,
    "combat": {
      "property": {
        "hp": 10000.0,
        "attack": 20.0,
        "weight": 50.0,
        "canTriggerBullet": false
      },
      "beHit": {
        "hitBloodEffect": "",
        "hitAutoRedirect": false,
        "muteAllHitText": true
      },
      "combatLock": {
        "lockShape": "CircleLockEnemy",
        "lockType": "Avatar&Monster_Lv4"
      },
      "die": {
        "dieEndTime": 5.0,
        "dieForceDisappearTime": 5.0,
        "dieDisappearEffect": "",
        "dieModelFadeDelay": 0.20000000298023224
      }
    },
    "combatTemplate": "",
    "abilities": [
      {
        "abilityID": "",
        "abilityName": "SceneObj_Area_Fd_Property_Ani_Prop_SeaVineCore_01_Ability",
        "abilityOverride": ""
      }
    ],
    "gadgetAction": {
      "gadgetStateActionList": [
        {
          "$type": "FJGKLJLPOGL",
          "intID": "GadgetState",
          "syncState": true
        }
      ]
    },
    "billboard": {
      "$type": "DNGNMAJBCNP",
      "attachPoint": "AttachPoint",
      "offset": {
        "y": 6.0
      },
      "radiusOffset": 3.0,
      "enableSelfAdapt": true,
      "showDistance": 48.0,
      "showHPBar": true,
      "size": "Grand"
    }
  },
  "SceneObj_Area_Fd_Property_Ani_Prop_FDHintLineSpec_01": {
    "$type": "CJKJIENLOHD",
    "hasModel": true,
    "combatTemplate": "",
    "abilities": [
      {
        "abilityID": "",
        "abilityName": "SceneObj_Area_Fd_Property_Ani_Prop_FDHintLineSpec_01_Ability",
        "abilityOverride": ""
      }
    ]
  },
  "SceneObj_Area_Fd_Property_Ani_Prop_FDHintLineSpec_02": {
    "$type": "CJKJIENLOHD",
    "hasModel": true,
    "combatTemplate": "",
    "abilities": [
      {
        "abilityID": "",
        "abilityName": "SceneObj_Area_Fd_Property_Ani_Prop_FDHintLineSpec_02_Ability",
        "abilityOverride": ""
      }
    ]
  },
  "SceneObj_Area_Fd_Property_Ani_Prop_UnderseaFactory_CenterGear_01": {
    "$type": "CJKJIENLOHD",
    "hasModel": true,
    "combat": {
      "property": {
        "hp": 99999.0,
        "isInvincible": true,
        "isLockHP": true,
        "isGhostToAllied": true,
        "isGhostToEnemy": true
      }
    },
    "combatTemplate": "",
    "abilities": [
      {
        "abilityID": "",
        "abilityName": "SceneObj_Area_Fd_Property_Ani_Prop_UnderseaFactory_CenterGear_01_Ability",
        "abilityOverride": ""
      },
      {
        "abilityID": "",
        "abilityName": "Scene_RockGadget_Summon_Detect",
        "abilityOverride": ""
      }
    ],
    "field": {
      "concernType": "AllAvatars",
      "shape": "CircleR1",
      "fromShape": "",
      "triggerInfinite": true,
      "lifeInfinite": true,
      "checkInterval": 0.20000000298023224,
      "overwriteCampType": true,
      "campType": "All",
      "colliderName": "",
      "fromColliderName": ""
    },
    "stateLayers": {
      "defaultLayer": {
        "$type": "GBGJJIIEMBD",
        "layerIndexName": "",
        "CPAANEIJCGD": "",
        "stateIDs": {
          "All": {
            "$type": "BEIEGKBABOF",
            "cullingModelAlwaysAnimate": true
          }
        }
      }
    },
    "gadgetAction": {
      "gadgetStateActionList": [
        {
          "$type": "FJGKLJLPOGL",
          "intID": "GadgetState",
          "syncState": true
        }
      ]
    }
  },
  "SceneObj_Area_Fd_Property_Ani_Prop_UnderseaFactory_AroundGear_01": {
    "$type": "CJKJIENLOHD",
    "hasModel": true,
    "combat": {
      "property": {
        "hp": 99999.0,
        "isInvincible": true,
        "isLockHP": true,
        "isGhostToAllied": true,
        "isGhostToEnemy": true
      }
    },
    "combatTemplate": "",
    "abilities": [
      {
        "abilityID": "",
        "abilityName": "SceneObj_Area_Fd_Property_Ani_Prop_UnderseaFactory_AroundGear_01_Ability",
        "abilityOverride": ""
      },
      {
        "abilityID": "",
        "abilityName": "Scene_RockGadget_Summon_Detect",
        "abilityOverride": ""
      }
    ],
    "field": {
      "concernType": "AllAvatars",
      "shape": "CircleR1",
      "fromShape": "",
      "triggerInfinite": true,
      "lifeInfinite": true,
      "checkInterval": 0.20000000298023224,
      "overwriteCampType": true,
      "campType": "All",
      "colliderName": "",
      "fromColliderName": ""
    },
    "stateLayers": {
      "defaultLayer": {
        "$type": "GBGJJIIEMBD",
        "layerIndexName": "",
        "CPAANEIJCGD": "",
        "stateIDs": {
          "All": {
            "$type": "BEIEGKBABOF",
            "cullingModelAlwaysAnimate": true
          }
        }
      }
    },
    "gadgetAction": {
      "gadgetStateActionList": [
        {
          "$type": "FJGKLJLPOGL",
          "intID": "GadgetState",
          "syncState": true
        }
      ]
    }
  },
  "SceneObj_Area_Fd_Property_Ani_Prop_UnderseaFactory_Axis_01": {
    "$type": "CJKJIENLOHD",
    "hasModel": true,
    "combat": {
      "property": {
        "hp": 99999.0,
        "isInvincible": true,
        "isLockHP": true,
        "isGhostToAllied": true,
        "isGhostToEnemy": true
      }
    },
    "combatTemplate": "",
    "abilities": [
      {
        "abilityID": "",
        "abilityName": "SceneObj_Area_Fd_Property_Ani_Prop_UnderseaFactory_Axis_01_Ability",
        "abilityOverride": ""
      }
    ],
    "stateLayers": {
      "defaultLayer": {
        "$type": "GBGJJIIEMBD",
        "layerIndexName": "",
        "CPAANEIJCGD": "",
        "stateIDs": {
          "All": {
            "$type": "BEIEGKBABOF",
            "cullingModelAlwaysAnimate": true
          }
        }
      }
    }
  },
  "SceneObj_Area_Fd_Property_Ani_Prop_UnderseaFactory_Axis_02": {
    "$type": "CJKJIENLOHD",
    "hasModel": true,
    "combat": {
      "property": {
        "hp": 99999.0,
        "isInvincible": true,
        "isLockHP": true,
        "isGhostToAllied": true,
        "isGhostToEnemy": true
      }
    },
    "combatTemplate": "",
    "abilities": [
      {
        "abilityID": "",
        "abilityName": "SceneObj_Area_Fd_Property_Ani_Prop_UnderseaFactory_Axis_02_Ability",
        "abilityOverride": ""
      }
    ],
    "stateLayers": {
      "defaultLayer": {
        "$type": "GBGJJIIEMBD",
        "layerIndexName": "",
        "CPAANEIJCGD": "",
        "stateIDs": {
          "All": {
            "$type": "BEIEGKBABOF",
            "cullingModelAlwaysAnimate": true
          }
        }
      }
    }
  },
  "SceneObj_Area_Fd_Property_Ani_Prop_UnderseaFactory_Axis_03": {
    "$type": "CJKJIENLOHD",
    "hasModel": true,
    "combat": {
      "property": {
        "hp": 99999.0,
        "isInvincible": true,
        "isLockHP": true,
        "isGhostToAllied": true,
        "isGhostToEnemy": true
      }
    },
    "combatTemplate": "",
    "abilities": [
      {
        "abilityID": "",
        "abilityName": "SceneObj_Area_Fd_Property_Ani_Prop_UnderseaFactory_Axis_03_Ability",
        "abilityOverride": ""
      }
    ],
    "stateLayers": {
      "defaultLayer": {
        "$type": "GBGJJIIEMBD",
        "layerIndexName": "",
        "CPAANEIJCGD": "",
        "stateIDs": {
          "All": {
            "$type": "BEIEGKBABOF",
            "cullingModelAlwaysAnimate": true
          }
        }
      }
    }
  },
  "SceneObj_Area_Fd_Property_Ani_Prop_UnderseaFactory_GearGiving_09": {
    "$type": "CJKJIENLOHD",
    "combat": {
      "property": {
        "hp": 99999.0,
        "attack": 200.0,
        "weight": 50.0,
        "isLockHP": true,
        "isGhostToAllied": true
      },
      "beHit": {
        "hitBloodEffect": "",
        "hitAutoRedirect": false,
        "muteAllHitText": true
      },
      "combatLock": {
        "lockShape": "CircleLockEnemy",
        "denyLockOn": true,
        "lockType": "Gadget_Lv1"
      },
      "die": {
        "dieEndTime": 5.0,
        "dieForceDisappearTime": 5.0,
        "dieDisappearEffect": ""
      }
    },
    "combatTemplate": "",
    "uiInteract": {
      "gadgetUIBtnCfgPath": "TEST/TEST_Chest_Btn",
      "uiName": "QUESTROTATIONGEAR_LOADGEAR",
      "icon": "UI_Icon_Intee_Mechanism",
      "groupName": "",
      "confirmDialogTitle": "",
      "confirmDialogContent": ""
    },
    "gadgetAction": {
      "gadgetStateActionList": [
        {
          "$type": "DEMJBAICBKO",
          "enable": true
        },
        {
          "$type": "DEMJBAICBKO",
          "triggerID": "GearStart"
        }
      ]
    },
    "intee": {
      "triggerRadius": 2.0,
      "triggerHeight": 3.0,
      "KAMIAMNMFCP": ""
    },
    "lowPriorityIntee": true
  },
  "SceneObj_Area_Fd_Property_Ani_Prop_UnderseaFactory_Wall_01": {
    "$type": "CJKJIENLOHD",
    "common": {
      "disableTickDistance": 100000.0
    },
    "hasModel": true,
    "combat": {
      "property": {
        "hp": 99999.0,
        "isInvincible": true,
        "isLockHP": true,
        "isGhostToAllied": true,
        "isGhostToEnemy": true
      }
    },
    "combatTemplate": "",
    "abilities": [
      {
        "abilityID": "",
        "abilityName": "SceneObj_Area_Fd_Property_Ani_Prop_UnderseaFactory_Wall_01_Ability",
        "abilityOverride": ""
      }
    ],
    "stateLayers": {
      "defaultLayer": {
        "$type": "GBGJJIIEMBD",
        "layerIndexName": "",
        "CPAANEIJCGD": "",
        "stateIDs": {
          "All": {
            "$type": "BEIEGKBABOF",
            "animatorStates": {
              "UnderseaFactory_DoorToWall": [],
              "UnderseaFactory_WallToDoor": [],
              "UnderseaFactory_Wall_Move": []
            },
            "cullingModelAlwaysAnimate": true
          }
        }
      }
    },
    "gadgetAction": {
      "gadgetStateActionList": [
        {
          "$type": "FJGKLJLPOGL",
          "intID": "GadgetState",
          "syncState": true
        }
      ]
    }
  },
  "SceneObj_Area_Fd_Property_Ani_Prop_UnderseaFactory_Wall_02": {
    "$type": "CJKJIENLOHD",
    "common": {
      "disableTickDistance": 100000.0
    },
    "hasModel": true,
    "combat": {
      "property": {
        "hp": 99999.0,
        "isInvincible": true,
        "isLockHP": true,
        "isGhostToAllied": true,
        "isGhostToEnemy": true
      }
    },
    "combatTemplate": "",
    "abilities": [
      {
        "abilityID": "",
        "abilityName": "SceneObj_Area_Fd_Property_Ani_Prop_UnderseaFactory_Wall_01_Ability",
        "abilityOverride": ""
      }
    ],
    "stateLayers": {
      "defaultLayer": {
        "$type": "GBGJJIIEMBD",
        "layerIndexName": "",
        "CPAANEIJCGD": "",
        "stateIDs": {
          "All": {
            "$type": "BEIEGKBABOF",
            "animatorStates": {
              "UnderseaFactory_DoorToWall": [],
              "UnderseaFactory_WallToDoor": [],
              "UnderseaFactory_Wall_Move": []
            },
            "cullingModelAlwaysAnimate": true
          }
        }
      }
    },
    "gadgetAction": {
      "gadgetStateActionList": [
        {
          "$type": "FJGKLJLPOGL",
          "intID": "GadgetState",
          "syncState": true
        }
      ]
    }
  },
  "SceneObj_Area_Fd_Property_Ani_Prop_UnderseaFactory_CameraBox_01": {
    "$type": "CJKJIENLOHD",
    "hasModel": true,
    "combat": {
      "property": {
        "hp": 99999.0,
        "attack": 20.0,
        "weight": 50.0,
        "isLockHP": true,
        "ignoreDamageToSelf": true
      },
      "beHit": {
        "hitBloodEffect": "",
        "hitAutoRedirect": false,
        "muteAllHitText": true
      },
      "combatLock": {
        "lockShape": "CircleLockEnemy",
        "denyLockOn": true,
        "lockType": "Gadget_Lv1"
      }
    },
    "combatTemplate": "",
    "vodPlayer": {
      "configName": "Ca_Scene_GearRoom",
      "enterRadius": 3.0,
      "exitRadius": 3.0,
      "EDLGIFNDCMM": true
    }
  },
  "SceneObj_Area_Fd_Property_Ani_Prop_GearPipe_Gear_01": {
    "$type": "CJKJIENLOHD",
    "common": {
      "disableTickDistance": 100000.0
    },
    "hasModel": true,
    "combat": {
      "property": {
        "hp": 99999.0,
        "attack": 20.0,
        "weight": 50.0,
        "isLockHP": true,
        "ignoreDamageToSelf": true
      },
      "beHit": {
        "hitBloodEffect": "",
        "hitAutoRedirect": false,
        "muteAllHitText": true
      },
      "combatLock": {
        "lockShape": "CircleLockEnemy",
        "lockType": "Gadget_Lv1"
      }
    },
    "combatTemplate": "",
    "abilities": [
      {
        "abilityID": "",
        "abilityName": "SceneObj_Area_Fd_Property_Ani_Prop_GearPipe_Gear_01_Ability",
        "abilityOverride": ""
      }
    ],
    "move": {
      "$type": "OEFHHKHPMCJ"
    }
  },
  "SceneObj_Area_Fd_Property_Ani_Prop_GearPipe_Gear_02": {
    "$type": "CJKJIENLOHD",
    "common": {
      "disableTickDistance": 100000.0
    },
    "hasModel": true,
    "combat": {
      "property": {
        "hp": 99999.0,
        "attack": 200.0,
        "weight": 50.0,
        "isLockHP": true
      }
    },
    "combatTemplate": "",
    "abilities": [
      {
        "abilityID": "",
        "abilityName": "SceneObj_Area_Fd_Property_Ani_Prop_GearPipe_Gear_02_Ability",
        "abilityOverride": ""
      }
    ],
    "move": {
      "$type": "OEFHHKHPMCJ"
    }
  },
  "SceneObj_Area_Fd_Property_Ani_Prop_GearPipe_Gear_03": {
    "$type": "CJKJIENLOHD",
    "hasModel": true,
    "combat": {
      "property": {
        "hp": 99999.0,
        "attack": 200.0,
        "weight": 50.0,
        "isLockHP": true
      }
    },
    "combatTemplate": "",
    "move": {
      "$type": "OEFHHKHPMCJ"
    }
  },
  "SceneObj_Area_Fd_Property_Ani_Prop_GearPipe_Camera_01": {
    "$type": "CJKJIENLOHD",
    "hasModel": true,
    "combat": {
      "property": {
        "hp": 99999.0,
        "attack": 20.0,
        "weight": 50.0,
        "isLockHP": true,
        "ignoreDamageToSelf": true
      },
      "beHit": {
        "hitBloodEffect": "",
        "hitAutoRedirect": false,
        "muteAllHitText": true
      },
      "combatLock": {
        "lockShape": "CircleLockEnemy",
        "denyLockOn": true,
        "lockType": "Gadget_Lv1"
      }
    },
    "combatTemplate": "",
    "vodPlayer": {
      "configName": "Ca_Scene_Clockwork_01",
      "enterRadius": 3.0,
      "exitRadius": 3.0,
      "EDLGIFNDCMM": true
    }
  },
  "SceneObj_Area_Fd_Property_Ani_Prop_GearPipe_Camera_02": {
    "$type": "CJKJIENLOHD",
    "hasModel": true,
    "combat": {
      "property": {
        "hp": 99999.0,
        "attack": 20.0,
        "weight": 50.0,
        "isLockHP": true,
        "ignoreDamageToSelf": true
      },
      "beHit": {
        "hitBloodEffect": "",
        "hitAutoRedirect": false,
        "muteAllHitText": true
      },
      "combatLock": {
        "lockShape": "CircleLockEnemy",
        "denyLockOn": true,
        "lockType": "Gadget_Lv1"
      }
    },
    "combatTemplate": "",
    "vodPlayer": {
      "configName": "Ca_Scene_Clockwork_02",
      "enterRadius": 3.0,
      "exitRadius": 3.0,
      "EDLGIFNDCMM": true
    }
  },
  "SceneObj_Area_Fd_Property_Ani_Prop_GearPipe_Camera_03": {
    "$type": "CJKJIENLOHD",
    "hasModel": true,
    "combat": {
      "property": {
        "hp": 99999.0,
        "attack": 20.0,
        "weight": 50.0,
        "isLockHP": true,
        "ignoreDamageToSelf": true
      },
      "beHit": {
        "hitBloodEffect": "",
        "hitAutoRedirect": false,
        "muteAllHitText": true
      },
      "combatLock": {
        "lockShape": "CircleLockEnemy",
        "denyLockOn": true,
        "lockType": "Gadget_Lv1"
      }
    },
    "combatTemplate": "",
    "vodPlayer": {
      "configName": "Ca_Scene_Clockwork_03",
      "enterRadius": 3.0,
      "exitRadius": 3.0,
      "EDLGIFNDCMM": true
    }
  },
  "SceneObj_Area_Fd_Property_Ani_Prop_HSDT_Camera_01": {
    "$type": "CJKJIENLOHD",
    "hasModel": true,
    "combat": {
      "property": {
        "hp": 99999.0,
        "attack": 20.0,
        "weight": 50.0,
        "isLockHP": true,
        "ignoreDamageToSelf": true
      },
      "beHit": {
        "hitBloodEffect": "",
        "hitAutoRedirect": false,
        "muteAllHitText": true
      },
      "combatLock": {
        "lockShape": "CircleLockEnemy",
        "denyLockOn": true,
        "lockType": "Gadget_Lv1"
      }
    },
    "combatTemplate": "",
    "vodPlayer": {
      "configName": "Ca_Scene_HSDT_01",
      "enterRadius": 3.0,
      "exitRadius": 3.0,
      "EDLGIFNDCMM": true
    }
  },
  "SceneObj_Area_Fd_Property_Ani_Prop_HitBubble_01": {
    "$type": "CJKJIENLOHD",
    "specialPoint": {
      "elementAbsorb": "RootNode",
      "elementPendant": "",
      "elementDrop": "RootNode",
      "bulletAim": "BulletAimPoint"
    },
    "hasModel": true,
    "combat": {
      "property": {
        "hp": 99999.0,
        "isLockHP": true
      },
      "beHit": {
        "hitBloodEffect": "",
        "hitAutoRedirect": false,
        "muteAllHitText": true
      },
      "combatLock": {
        "lockShape": "CircleLockEnemy",
        "lockType": "Gadget_Lv1",
        "overrideRange": 5.0
      },
      "die": {
        "dieEndTime": 1.0,
        "dieDisappearEffect": ""
      }
    },
    "combatTemplate": "",
    "abilities": [
      {
        "abilityID": "",
        "abilityName": "SceneObj_Area_Fd_Property_Ani_Prop_HitBubble_01_Ability",
        "abilityOverride": ""
      },
      {
        "abilityID": "",
        "abilityName": "Scene_RockGadget_Summon_Detect",
        "abilityOverride": ""
      }
    ],
    "gadgetAction": {
      "gadgetStateActionList": [
        {
          "$type": "FJGKLJLPOGL",
          "intID": "GadgetState",
          "syncState": true
        }
      ]
    },
    "billboard": {
      "$type": "DNGNMAJBCNP",
      "attachPoint": "BillboardAttach",
      "offset": {
        "y": 3.0
      },
      "radiusOffset": 1.0,
      "showHPBar": true,
      "shieldBarOnly": true
    },
    "openWatcher": true
  },
  "SceneObj_Area_Fd_Property_Ani_Prop_TrapBubble_01": {
    "$type": "CJKJIENLOHD",
    "common": {
      "effectAttachShape": {
        "$type": "OMIODKONOMG",
        "scaleZ": 0.4000000059604645
      }
    },
    "combat": {
      "property": {
        "hp": 999999.0,
        "attack": 15.0,
        "defense": 999999.0,
        "isLockHP": true
      },
      "beHit": {
        "hitBloodEffect": "",
        "muteAllHit": true,
        "muteAllHitEffect": true,
        "muteAllHitText": true
      },
      "combatLock": {
        "lockShape": "CircleLockEnemy",
        "denyLockOn": true,
        "lockType": "Default"
      }
    },
    "combatTemplate": "",
    "abilities": [
      {
        "abilityID": "SceneObj_Area_Fd_Property_Ani_Prop_TrapBubble_01_Ability",
        "abilityName": "SceneObj_Area_Fd_Property_Ani_Prop_TrapBubble_01_Ability",
        "abilityOverride": ""
      }
    ],
    "field": {
      "concernType": "AllAvatars",
      "shape": "CircleR0_5",
      "fromShape": "",
      "triggerInfinite": true,
      "lifeInfinite": true,
      "checkInterval": 0.20000000298023224,
      "overwriteCampType": true,
      "campType": "All",
      "colliderName": "",
      "fromColliderName": ""
    }
  },
  "SceneObj_Area_Fd_Property_Ani_Prop_TrapBubble_02": {
    "$type": "CJKJIENLOHD",
    "common": {
      "effectAttachShape": {
        "$type": "OMIODKONOMG",
        "scaleZ": 0.4000000059604645
      }
    },
    "combat": {
      "property": {
        "hp": 999999.0,
        "attack": 15.0,
        "defense": 999999.0,
        "isLockHP": true
      },
      "beHit": {
        "hitBloodEffect": "",
        "muteAllHit": true,
        "muteAllHitEffect": true,
        "muteAllHitText": true
      },
      "combatLock": {
        "lockShape": "CircleLockEnemy",
        "denyLockOn": true,
        "lockType": "Default"
      }
    },
    "combatTemplate": "",
    "abilities": [
      {
        "abilityID": "SceneObj_Area_Fd_Property_Ani_Prop_TrapBubble_01_Ability",
        "abilityName": "SceneObj_Area_Fd_Property_Ani_Prop_TrapBubble_01_Ability",
        "abilityOverride": ""
      }
    ],
    "field": {
      "concernType": "AllAvatars",
      "shape": "CircleR0_5",
      "fromShape": "",
      "triggerInfinite": true,
      "lifeInfinite": true,
      "checkInterval": 0.20000000298023224,
      "overwriteCampType": true,
      "campType": "All",
      "colliderName": "",
      "fromColliderName": ""
    },
    "move": {
      "$type": "OEFHHKHPMCJ",
      "LIFBDKPAGKI": true
    }
  },
  "SceneObj_Area_Fd_Property_Ani_Prop_PrimalKey_02": {
    "$type": "CJKJIENLOHD",
    "hasModel": true,
    "combat": {
      "property": {
        "hp": 99999.0,
        "attack": 20.0,
        "weight": 50.0,
        "isLockHP": true,
        "ignoreDamageToSelf": true
      },
      "beHit": {
        "hitBloodEffect": "",
        "hitAutoRedirect": false,
        "muteAllHitText": true
      },
      "combatLock": {
        "lockShape": "CircleLockEnemy",
        "denyLockOn": true,
        "lockType": "Gadget_Lv1"
      }
    },
    "combatTemplate": "",
    "vodPlayer": {
      "configName": "Ca_Scene_PrimalKey",
      "enterRadius": 3.0,
      "exitRadius": 3.0,
      "EDLGIFNDCMM": true
    }
  },
  "SceneObj_Area_Fd_Property_Ani_Prop_AbandonHammer_01": {
    "$type": "CJKJIENLOHD",
    "common": {
      "disableTickDistance": 100000.0
    },
    "KJGJCNANPJP": true,
    "hasModel": true,
    "combatTemplate": "",
    "abilities": [
      {
        "abilityID": "",
        "abilityName": "SceneObj_Area_Fd_Property_Ani_Prop_AbandonHammer_01_Ability",
        "abilityOverride": ""
      }
    ],
    "stateLayers": {
      "defaultLayer": {
        "$type": "GBGJJIIEMBD",
        "layerIndexName": "",
        "CPAANEIJCGD": "",
        "stateIDs": {
          "All": {
            "$type": "BEIEGKBABOF",
            "animatorStates": {
              "Down": ["Audio_amb_sceneObj_gear_abandonHammer_01_down"],
              "Up": ["Audio_amb_sceneObj_gear_abandonHammer_01_up"]
            },
            "cullingModelAlwaysAnimate": true
          }
        }
      }
    },
    "gadgetAction": {
      "gadgetStateActionList": [
        {
          "$type": "FJGKLJLPOGL",
          "intID": "GadgetState",
          "syncState": true
        }
      ]
    }
  },
  "SceneObj_Area_Fd_Property_Ani_Prop_PrimalKey_01": {
    "$type": "CJKJIENLOHD",
    "hasModel": true,
    "combat": {
      "property": {
        "hp": 99999.0,
        "isLockHP": true
      },
      "beHit": {
        "hitBloodEffect": "",
        "hitAutoRedirect": false,
        "muteAllHitText": true
      },
      "combatLock": {
        "lockShape": "CircleLockEnemy",
        "lockType": "Gadget_Lv1",
        "overrideRange": 5.0
      }
    },
    "combatTemplate": "",
    "abilities": [
      {
        "abilityID": "",
        "abilityName": "SceneObj_Area_Fd_Property_Ani_Prop_PrimalKey_01_Ability",
        "abilityOverride": ""
      }
    ],
    "billboard": {
      "$type": "DNGNMAJBCNP",
      "attachPoint": "BillboardAttach",
      "offset": {
        "y": 4.5
      },
      "radiusOffset": 1.0,
      "showHPBar": true,
      "shieldBarOnly": true
    }
  },
  "SceneObj_Area_Fd_Property_Ani_Prop_FurnaceCover_01": {
    "$type": "CJKJIENLOHD",
    "hasModel": true,
    "combat": {
      "property": {
        "hp": 99999.0,
        "isLockHP": true
      },
      "beHit": {
        "hitBloodEffect": "",
        "hitAutoRedirect": false,
        "muteAllHitText": true
      },
      "combatLock": {
        "lockShape": "CircleLockEnemy",
        "lockType": "Gadget_Lv1",
        "overrideRange": 5.0
      }
    },
    "combatTemplate": "",
    "abilities": [
      {
        "abilityID": "",
        "abilityName": "SceneObj_Area_Fd_Property_Ani_Prop_FurnaceCover_01_Ability",
        "abilityOverride": ""
      }
    ],
    "billboard": {
      "$type": "DNGNMAJBCNP",
      "attachPoint": "BillboardAttach",
      "offset": {
        "y": 2.0
      },
      "radiusOffset": 1.0,
      "showHPBar": true,
      "shieldBarOnly": true
    }
  },
  "SceneObj_Area_Fd_Property_Ani_Prop_BoxMatch_Lamp_01": {
    "$type": "CJKJIENLOHD",
    "hasModel": true,
    "combat": {
      "property": {
        "hp": 99999.0,
        "isLockHP": true,
        "isGhostToAllied": true
      },
      "beHit": {
        "hitBloodEffect": "",
        "hitAutoRedirect": false,
        "muteAllHitText": true
      },
      "combatLock": {
        "lockShape": "CircleLockEnemy",
        "lockType": "Gadget_Lv1"
      }
    },
    "combatTemplate": "",
    "abilities": [
      {
        "abilityID": "SceneObj_Area_Fd_Property_Ani_Prop_BoxMatch_Lamp_01_Ability",
        "abilityName": "SceneObj_Area_Fd_Property_Ani_Prop_BoxMatch_Lamp_01_Ability",
        "abilityOverride": ""
      },
      {
        "abilityID": "SceneObj_Area_Fd_Property_Ani_Prop_OPLamp_01",
        "abilityName": "SceneObj_Area_Fd_Property_Ani_Prop_OPLamp_01",
        "abilityOverride": ""
      },
      {
        "abilityID": "SceneObj_Fd_ArkheGadget",
        "abilityName": "SceneObj_Fd_ArkheGadget",
        "abilityOverride": ""
      }
    ]
  },
  "SceneObj_Area_Common_Property_Ani_Prop_CookingSmoke_01": {
    "$type": "CJKJIENLOHD",
    "model": {
      "bornEffect": "",
      "attachEffect": "Eff_SceneObj_AranaraPot_01_Cooking",
      "BKPFGNPLDNJ": ""
    },
    "hasModel": true,
    "combatTemplate": ""
  },
  "SceneObj_Area_Fd_Property_Ani_Water_PotPurling_01": {
    "$type": "CJKJIENLOHD",
    "model": {
      "bornEffect": "",
      "attachEffect": "Eff_Stages_SceneObj_Area_Fd_QQKXGC_PotPurling_01",
      "BKPFGNPLDNJ": ""
    },
    "hasModel": true,
    "combatTemplate": ""
  },
  "SceneObj_Area_Fd_Property_Ani_Prop_TransferStationShip_01": {
    "$type": "CJKJIENLOHD",
    "hasModel": true,
    "combatTemplate": "",
    "abilities": [
      {
        "abilityID": "",
        "abilityName": "SceneObj_Area_Fd_Property_Ani_Prop_TransferStationShip_01_Ability",
        "abilityOverride": ""
      }
    ],
    "move": {
      "$type": "OEFHHKHPMCJ"
    }
  },
  "SceneObj_Area_Fd_Property_Ani_Prop_QZJCZXShitou_01": {
    "$type": "CJKJIENLOHD",
    "hasModel": true,
    "combat": {
      "property": {
        "hp": 99999.0,
        "weight": 50.0,
        "isLockHP": true
      },
      "beHit": {
        "hitBloodEffect": "",
        "hitAutoRedirect": false,
        "muteAllHitText": true
      },
      "combatLock": {
        "lockShape": "CircleLockEnemy",
        "denyLockOn": true,
        "lockType": "Default"
      }
    },
    "combatTemplate": "",
    "abilities": [
      {
        "abilityID": "",
        "abilityName": "SceneObj_Area_Fd_Property_Ani_Prop_QZJCZXShitou_01_Ability",
        "abilityOverride": ""
      }
    ],
    "billboard": {
      "$type": "DNGNMAJBCNP",
      "attachPoint": "BillboardAttach",
      "offset": {
        "y": 4.800000190734863,
        "z": 1.2000000476837158
      },
      "radiusOffset": 1.0,
      "showHPBar": true,
      "size": "Big",
      "shieldBarOnly": true
    }
  },
  "SceneObj_Area_Fd_Property_Ani_Build_DYZHiddenDoor_01": {
    "$type": "CJKJIENLOHD",
    "hasModel": true,
    "combat": {
      "property": {
        "hp": 99999.0,
        "isInvincible": true,
        "isLockHP": true,
        "isGhostToAllied": true,
        "isGhostToEnemy": true
      }
    },
    "combatTemplate": "",
    "gadgetAction": {
      "gadgetStateActionList": [
        {
          "$type": "FJGKLJLPOGL",
          "intID": "GadgetState",
          "syncState": true
        }
      ]
    }
  },
  "SceneObj_Area_Fd_Property_Ani_Prop_HSDTGuard_01": {
    "$type": "CJKJIENLOHD",
    "hasModel": true,
    "combatTemplate": "",
    "abilities": [
      {
        "abilityID": "",
        "abilityName": "Scene_RockGadget_Summon_Detect",
        "abilityOverride": ""
      }
    ]
  },
  "SceneObj_Area_Fd_Property_Ani_Prop_IronFenceUW_01": {
    "$type": "CJKJIENLOHD",
    "hasModel": true,
    "combat": {
      "property": {
        "hp": 10000.0,
        "isLockHP": true,
        "isGhostToAllied": true,
        "isGhostToEnemy": true,
        "ignorePurgeRate": true
      },
      "beHit": {
        "hitBloodEffect": "",
        "hitAutoRedirect": false,
        "muteAllHitText": true
      },
      "combatLock": {
        "lockShape": "CircleLockEnemy",
        "denyLockOn": true,
        "lockType": "Gadget_Lv1"
      }
    },
    "combatTemplate": "",
    "abilities": [
      {
        "abilityID": "",
        "abilityName": "SceneObj_Area_Fd_Property_Ani_Prop_IronFenceUW_01_Ability",
        "abilityOverride": ""
      }
    ]
  }
}
