{
  "Liuyun_NormalAttack_Bullet_01": {
    "$type": "CJKJIENLOHD",
    "common": {
      "effectAttachShape": {
        "$type": "OMIODKONOMG"
      },
      "affectedByWorld": true
    },
    "combat": {
      "property": {
        "useCreatorProperty": true,
        "isInvincible": true,
        "canTriggerBullet": false
      },
      "beHit": {
        "hitBloodEffect": "",
        "muteAllHit": true,
        "muteAllHitEffect": true,
        "muteAllHitText": true
      },
      "combatLock": {
        "lockShape": "CircleLockEnemy",
        "denyLockOn": true,
        "lockType": "Gadget_Lv1"
      }
    },
    "combatTemplate": "",
    "abilities": [
      {
        "abilityID": "",
        "abilityName": "Avatar_Liuyun_NormalAttack_Bullet_01",
        "abilityOverride": ""
      }
    ],
    "timer": {
      "lifeTime": 0.6000000238418579
    },
    "move": {
      "$type": "GMOHNHFHLAO",
      "velocityForce": {
        "muteAll": true
      },
      "speed": 15.0,
      "maxSpeed": 40.0,
      "minSpeed": 15.0,
      "anglerVelocity": 720.0,
      "acceleration": 30.0,
      "DPAAFHNMHHN": {
        "$type": "IFAANDLLGLP",
        "traceLerpCoef": 720.0
      },
      "traceOnYAxis": true,
      "whenNoTarget": {
        "$type": "KHJKFPPGDDP",
        "defaultTarget": {
          "$type": "ConfigBornBySelfOwner",
          "offset": {
            "x": 0.0,
            "y": 1.0,
            "z": 12.0
          }
        },
        "radius": 0.5
      }
    },
    "gadget": {
      "$type": "JENBBNKGGJP",
      "collision": {
        "targetType": "Enemy"
      },
      "triggerActions": [
        {
          "$type": "AILPBJHDHDG",
          "abilityName": "Avatar_Liuyun_NormalAttack_Bullet_01"
        }
      ],
      "triggerLifeOverActions": [
        {
          "$type": "AILPBJHDHDG",
          "abilityName": "Avatar_Liuyun_NormalAttack_Bullet_01"
        }
      ]
    }
  },
  "Liuyun_NormalAttack_Bullet_02": {
    "$type": "CJKJIENLOHD",
    "common": {
      "effectAttachShape": {
        "$type": "OMIODKONOMG"
      },
      "affectedByWorld": true
    },
    "combat": {
      "property": {
        "useCreatorProperty": true,
        "isInvincible": true,
        "canTriggerBullet": false
      },
      "beHit": {
        "hitBloodEffect": "",
        "muteAllHit": true,
        "muteAllHitEffect": true,
        "muteAllHitText": true
      },
      "combatLock": {
        "lockShape": "CircleLockEnemy",
        "denyLockOn": true,
        "lockType": "Gadget_Lv1"
      }
    },
    "combatTemplate": "",
    "abilities": [
      {
        "abilityID": "",
        "abilityName": "Avatar_Liuyun_NormalAttack_Bullet_02",
        "abilityOverride": ""
      }
    ],
    "timer": {
      "lifeTime": 0.6000000238418579
    },
    "move": {
      "$type": "GMOHNHFHLAO",
      "velocityForce": {
        "muteAll": true
      },
      "speed": 15.0,
      "maxSpeed": 40.0,
      "minSpeed": 15.0,
      "anglerVelocity": 720.0,
      "acceleration": 30.0,
      "DPAAFHNMHHN": {
        "$type": "IFAANDLLGLP",
        "traceLerpCoef": 720.0
      },
      "traceOnYAxis": true,
      "whenNoTarget": {
        "$type": "KHJKFPPGDDP",
        "defaultTarget": {
          "$type": "ConfigBornBySelfOwner",
          "offset": {
            "x": 0.0,
            "y": 1.0,
            "z": 12.0
          }
        },
        "radius": 0.5
      }
    },
    "gadget": {
      "$type": "JENBBNKGGJP",
      "collision": {
        "targetType": "Enemy"
      },
      "triggerActions": [
        {
          "$type": "AILPBJHDHDG",
          "abilityName": "Avatar_Liuyun_NormalAttack_Bullet_02"
        }
      ],
      "triggerLifeOverActions": [
        {
          "$type": "AILPBJHDHDG",
          "abilityName": "Avatar_Liuyun_NormalAttack_Bullet_02"
        }
      ]
    }
  },
  "Liuyun_NormalAttack_Bullet_03": {
    "$type": "CJKJIENLOHD",
    "common": {
      "effectAttachShape": {
        "$type": "OMIODKONOMG"
      },
      "affectedByWorld": true
    },
    "combat": {
      "property": {
        "useCreatorProperty": true,
        "isInvincible": true,
        "canTriggerBullet": false
      },
      "beHit": {
        "hitBloodEffect": "",
        "muteAllHit": true,
        "muteAllHitEffect": true,
        "muteAllHitText": true
      },
      "combatLock": {
        "lockShape": "CircleLockEnemy",
        "denyLockOn": true,
        "lockType": "Gadget_Lv1"
      }
    },
    "combatTemplate": "",
    "abilities": [
      {
        "abilityID": "",
        "abilityName": "Avatar_Liuyun_NormalAttack_Bullet_03",
        "abilityOverride": ""
      }
    ],
    "timer": {
      "lifeTime": 0.800000011920929
    },
    "move": {
      "$type": "GMOHNHFHLAO",
      "velocityForce": {
        "muteAll": true
      },
      "speed": 15.0,
      "maxSpeed": 40.0,
      "minSpeed": 15.0,
      "anglerVelocity": 360.0,
      "acceleration": 20.0,
      "DPAAFHNMHHN": {
        "$type": "IFAANDLLGLP",
        "isSmoothRotation": true
      },
      "traceOnYAxis": true
    },
    "gadget": {
      "$type": "JENBBNKGGJP",
      "collision": {
        "targetType": "Enemy"
      },
      "triggerActions": [
        {
          "$type": "AILPBJHDHDG",
          "abilityName": "Avatar_Liuyun_NormalAttack_Bullet_03"
        }
      ],
      "triggerLifeOverActions": [
        {
          "$type": "AILPBJHDHDG",
          "abilityName": "Avatar_Liuyun_NormalAttack_Bullet_03"
        }
      ]
    }
  },
  "Liuyun_NormalAttack_Bullet_04": {
    "$type": "CJKJIENLOHD",
    "common": {
      "effectAttachShape": {
        "$type": "OMIODKONOMG"
      },
      "affectedByWorld": true
    },
    "combat": {
      "property": {
        "useCreatorProperty": true,
        "isInvincible": true,
        "canTriggerBullet": false
      },
      "beHit": {
        "hitBloodEffect": "",
        "muteAllHit": true,
        "muteAllHitEffect": true,
        "muteAllHitText": true
      },
      "combatLock": {
        "lockShape": "CircleLockEnemy",
        "denyLockOn": true,
        "lockType": "Gadget_Lv1"
      }
    },
    "combatTemplate": "",
    "abilities": [
      {
        "abilityID": "",
        "abilityName": "Avatar_Liuyun_NormalAttack_Bullet_04",
        "abilityOverride": ""
      }
    ],
    "timer": {
      "lifeTime": 0.8999999761581421
    },
    "move": {
      "$type": "GMOHNHFHLAO",
      "velocityForce": {
        "muteAll": true
      },
      "speed": 15.0,
      "maxSpeed": 30.0,
      "minSpeed": 15.0,
      "anglerVelocity": 360.0,
      "acceleration": 15.0,
      "DPAAFHNMHHN": {
        "$type": "IFAANDLLGLP",
        "isSmoothRotation": true
      },
      "traceOnYAxis": true
    },
    "gadget": {
      "$type": "JENBBNKGGJP",
      "collision": {
        "targetType": "Enemy"
      },
      "triggerActions": [
        {
          "$type": "AILPBJHDHDG",
          "abilityName": "Avatar_Liuyun_NormalAttack_Bullet_04"
        }
      ],
      "triggerLifeOverActions": [
        {
          "$type": "AILPBJHDHDG",
          "abilityName": "Avatar_Liuyun_NormalAttack_Bullet_04"
        }
      ]
    }
  },
  "Liuyun_NormalAttack_Bullet_05": {
    "$type": "CJKJIENLOHD",
    "common": {
      "effectAttachShape": {
        "$type": "OMIODKONOMG"
      },
      "affectedByWorld": true
    },
    "combat": {
      "property": {
        "useCreatorProperty": true,
        "isInvincible": true,
        "canTriggerBullet": false
      },
      "beHit": {
        "hitBloodEffect": "",
        "muteAllHit": true,
        "muteAllHitEffect": true,
        "muteAllHitText": true
      },
      "combatLock": {
        "lockShape": "CircleLockEnemy",
        "denyLockOn": true,
        "lockType": "Gadget_Lv1"
      }
    },
    "combatTemplate": "",
    "abilities": [
      {
        "abilityID": "Avatar_Liuyun_ExtraAttack_Bullet",
        "abilityName": "Avatar_Liuyun_ExtraAttack_Bullet",
        "abilityOverride": ""
      }
    ],
    "timer": {
      "lifeTime": 0.6000000238418579
    },
    "move": {
      "$type": "GONNMCBKAOC",
      "velocityForce": {
        "muteAll": true
      },
      "speed": 20.0,
      "anglerVelocity": 0.0,
      "stickToGround": {
        "maxStepHeight": 2.5,
        "maxSlopeAngle": 30.0,
        "heightToGround": 1.2999999523162842,
        "flexibleRange": 2.5,
        "isStickToWater": true,
        "unstickWhenDownSlide": "Keep",
        "unstickWhenUpSlide": "Keep"
      }
    },
    "gadget": {
      "$type": "JENBBNKGGJP",
      "collision": {
        "triggerType": "TriggerNoRepeat",
        "targetType": "Enemy"
      },
      "triggerActions": [
        {
          "$type": "AILPBJHDHDG",
          "abilityName": "Avatar_Liuyun_ExtraAttack_Bullet"
        }
      ]
    }
  },
  "Liuyun_ElementalArt_Move_Collider_01": {
    "$type": "CJKJIENLOHD",
    "common": {
      "effectAttachShape": {
        "$type": "OMIODKONOMG"
      }
    },
    "combat": {
      "property": {
        "useCreatorProperty": true,
        "hp": 99999.0,
        "defense": 99999.0,
        "isInvincible": true,
        "isGhostToAllied": true,
        "isGhostToEnemy": true
      },
      "beHit": {
        "hitBloodEffect": "",
        "muteAllHit": true,
        "muteAllHitEffect": true,
        "muteAllHitText": true
      },
      "combatLock": {
        "lockShape": "CircleLockEnemy",
        "denyLockOn": true,
        "lockType": "Gadget_Lv1"
      }
    },
    "combatTemplate": "",
    "abilities": [
      {
        "abilityID": "Liuyun_ElementalArt_Move_Collider",
        "abilityName": "Liuyun_ElementalArt_Move_Collider",
        "abilityOverride": ""
      }
    ],
    "timer": {
      "lifeTime": 15.0
    },
    "move": {
      "$type": "MMAPEFIEGAL",
      "velocityForce": {
        "muteAll": true
      },
      "attachPoint": "MoveHead",
      "followRotation": true,
      "followOwnerInvisible": true,
      "syncTransToServer": true,
      "LFOHLEKJFBI": ""
    },
    "gadget": {
      "$type": "JENBBNKGGJP",
      "collision": {
        "ccd": {
          "damageRatio": "Always"
        },
        "triggerType": "TriggerNoRepeat",
        "targetType": "Enemy",
        "ignoreScene": true,
        "ignoreWater": true
      },
      "triggerActions": [
        {
          "$type": "AILPBJHDHDG",
          "abilityName": "Liuyun_ElementalArt_Move_Collider"
        }
      ]
    },
    "useRetreatType": true
  },
  "Liuyun_ElementalArt_Move_Collider_02": {
    "$type": "CJKJIENLOHD",
    "common": {
      "effectAttachShape": {
        "$type": "OMIODKONOMG"
      }
    },
    "combat": {
      "property": {
        "useCreatorProperty": true,
        "hp": 99999.0,
        "defense": 99999.0,
        "isInvincible": true,
        "isGhostToAllied": true,
        "isGhostToEnemy": true
      },
      "beHit": {
        "hitBloodEffect": "",
        "muteAllHit": true,
        "muteAllHitEffect": true,
        "muteAllHitText": true
      },
      "combatLock": {
        "lockShape": "CircleLockEnemy",
        "denyLockOn": true,
        "lockType": "Gadget_Lv1"
      }
    },
    "combatTemplate": "",
    "abilities": [
      {
        "abilityID": "Liuyun_ElementalArt_Move_Collider",
        "abilityName": "Liuyun_ElementalArt_Move_Collider",
        "abilityOverride": ""
      }
    ],
    "timer": {
      "lifeTime": 5.0
    },
    "move": {
      "$type": "MMAPEFIEGAL",
      "velocityForce": {
        "muteAll": true
      },
      "attachPoint": "MoveHead",
      "followRotation": true,
      "followOwnerInvisible": true,
      "syncTransToServer": true,
      "LFOHLEKJFBI": ""
    },
    "gadget": {
      "$type": "JENBBNKGGJP",
      "collision": {
        "ccd": {
          "damageRatio": "Always"
        },
        "triggerType": "TriggerNoRepeat",
        "targetType": "Enemy",
        "ignoreScene": true,
        "ignoreWater": true
      },
      "triggerActions": [
        {
          "$type": "AILPBJHDHDG",
          "abilityName": "Liuyun_ElementalArt_Move_Collider"
        }
      ]
    },
    "useRetreatType": true
  },
  "Liuyun_ElementalArt_Move_Collider_03": {
    "$type": "CJKJIENLOHD",
    "common": {
      "effectAttachShape": {
        "$type": "OMIODKONOMG"
      }
    },
    "combat": {
      "property": {
        "useCreatorProperty": true,
        "hp": 99999.0,
        "defense": 99999.0,
        "isInvincible": true,
        "isGhostToAllied": true,
        "isGhostToEnemy": true
      },
      "beHit": {
        "hitBloodEffect": "",
        "muteAllHit": true,
        "muteAllHitEffect": true,
        "muteAllHitText": true
      },
      "combatLock": {
        "lockShape": "CircleLockEnemy",
        "denyLockOn": true,
        "lockType": "Gadget_Lv1"
      }
    },
    "combatTemplate": "",
    "abilities": [
      {
        "abilityID": "Liuyun_ElementalArt_Move_Collider",
        "abilityName": "Liuyun_ElementalArt_Move_Collider",
        "abilityOverride": ""
      }
    ],
    "timer": {
      "lifeTime": 5.0
    },
    "move": {
      "$type": "MMAPEFIEGAL",
      "velocityForce": {
        "muteAll": true
      },
      "attachPoint": "MoveHead",
      "followRotation": true,
      "followOwnerInvisible": true,
      "syncTransToServer": true,
      "LFOHLEKJFBI": ""
    },
    "gadget": {
      "$type": "JENBBNKGGJP",
      "collision": {
        "ccd": {
          "damageRatio": "Always"
        },
        "triggerType": "TriggerNoRepeat",
        "targetType": "Enemy",
        "ignoreScene": true,
        "ignoreWater": true
      },
      "triggerActions": [
        {
          "$type": "AILPBJHDHDG",
          "abilityName": "Liuyun_ElementalArt_Move_Collider"
        }
      ]
    },
    "useRetreatType": true
  },
  "Liuyun_ElementalArt_Crane_Collider": {
    "$type": "CJKJIENLOHD",
    "common": {
      "effectAttachShape": {
        "$type": "OMIODKONOMG"
      }
    },
    "combat": {
      "property": {
        "useCreatorProperty": true,
        "hp": 99999.0,
        "defense": 99999.0,
        "isInvincible": true,
        "isGhostToAllied": true,
        "isGhostToEnemy": true
      },
      "beHit": {
        "hitBloodEffect": "",
        "muteAllHit": true,
        "muteAllHitEffect": true,
        "muteAllHitText": true
      },
      "combatLock": {
        "lockShape": "CircleLockEnemy",
        "denyLockOn": true,
        "lockType": "Gadget_Lv1"
      }
    },
    "combatTemplate": "",
    "abilities": [
      {
        "abilityID": "Liuyun_ElementalArt_Crane_Collider",
        "abilityName": "Liuyun_ElementalArt_Crane_Collider",
        "abilityOverride": ""
      }
    ],
    "timer": {
      "lifeTime": 3.0
    },
    "move": {
      "$type": "MMAPEFIEGAL",
      "velocityForce": {
        "muteAll": true
      },
      "attachPoint": "CatalystR",
      "followRotation": true,
      "syncTransToServer": true,
      "LFOHLEKJFBI": ""
    },
    "gadget": {
      "$type": "JENBBNKGGJP",
      "collision": {
        "ccd": {
          "damageRatio": "Always"
        },
        "triggerType": "TriggerNoRepeat",
        "targetType": "Enemy",
        "ignoreScene": true,
        "ignoreWater": true
      },
      "triggerActions": [
        {
          "$type": "AILPBJHDHDG",
          "abilityName": "Liuyun_ElementalArt_Crane_Collider"
        }
      ]
    },
    "useRetreatType": true
  },
  "Liuyun_ElementalArt_Crane_Collider_02": {
    "$type": "CJKJIENLOHD",
    "common": {
      "effectAttachShape": {
        "$type": "OMIODKONOMG"
      }
    },
    "combat": {
      "property": {
        "useCreatorProperty": true,
        "hp": 99999.0,
        "defense": 99999.0,
        "isInvincible": true,
        "isGhostToAllied": true,
        "isGhostToEnemy": true
      },
      "beHit": {
        "hitBloodEffect": "",
        "muteAllHit": true,
        "muteAllHitEffect": true,
        "muteAllHitText": true
      },
      "combatLock": {
        "lockShape": "CircleLockEnemy",
        "denyLockOn": true,
        "lockType": "Gadget_Lv1"
      }
    },
    "combatTemplate": "",
    "abilities": [
      {
        "abilityID": "Liuyun_ElementalArt_Crane_Collider_02",
        "abilityName": "Liuyun_ElementalArt_Crane_Collider_02",
        "abilityOverride": ""
      }
    ],
    "timer": {
      "lifeTime": 3.0
    },
    "move": {
      "$type": "MMAPEFIEGAL",
      "velocityForce": {
        "muteAll": true
      },
      "attachPoint": "CatalystR",
      "followRotation": true,
      "syncTransToServer": true,
      "LFOHLEKJFBI": ""
    },
    "gadget": {
      "$type": "JENBBNKGGJP",
      "collision": {
        "ccd": {
          "damageRatio": "Always"
        },
        "triggerType": "TriggerNoRepeat",
        "targetType": "Enemy",
        "ignoreWater": true
      },
      "triggerActions": [
        {
          "$type": "AILPBJHDHDG",
          "abilityName": "Liuyun_ElementalArt_Crane_Collider_02"
        }
      ]
    },
    "useRetreatType": true
  },
  "Liuyun_ElementalArt_WindHole": {
    "$type": "CJKJIENLOHD",
    "common": {
      "effectAttachShape": {
        "$type": "OMIODKONOMG"
      }
    },
    "combat": {
      "property": {
        "useCreatorProperty": true,
        "hp": 99999.0,
        "defense": 99999.0,
        "isInvincible": true,
        "isGhostToAllied": true,
        "isGhostToEnemy": true
      },
      "beHit": {
        "hitBloodEffect": "",
        "muteAllHit": true,
        "muteAllHitEffect": true,
        "muteAllHitText": true
      },
      "combatLock": {
        "lockShape": "CircleLockEnemy",
        "denyLockOn": true,
        "lockType": "Gadget_Lv1"
      }
    },
    "combatTemplate": "",
    "abilities": [
      {
        "abilityID": "Liuyun_ElementalArt_WindHole",
        "abilityName": "Liuyun_ElementalArt_WindHole",
        "abilityOverride": ""
      }
    ],
    "timer": {
      "lifeTime": 5.0
    }
  },
  "Liuyun_ElementalBurst_Crane": {
    "$type": "CJKJIENLOHD",
    "common": {
      "effectAttachShape": {
        "$type": "OMIODKONOMG"
      }
    },
    "combat": {
      "property": {
        "useCreatorProperty": true,
        "hp": 99999.0,
        "defense": 99999.0,
        "isInvincible": true,
        "isGhostToEnemy": true
      },
      "beHit": {
        "hitBloodEffect": "",
        "muteAllHit": true,
        "muteAllHitEffect": true,
        "muteAllHitText": true
      },
      "combatLock": {
        "lockShape": "CircleLockEnemy",
        "denyLockOn": true,
        "lockType": "Gadget_Lv1"
      }
    },
    "combatTemplate": "",
    "abilities": [
      {
        "abilityID": "Avatar_Liuyun_ElementBurst_Drone",
        "abilityName": "Avatar_Liuyun_ElementBurst_Drone",
        "abilityOverride": ""
      }
    ],
    "timer": {
      "lifeTime": 20.0
    },
    "move": {
      "$type": "MMAPEFIEGAL",
      "attachPoint": "",
      "followRotation": true,
      "offset": {
        "x": 0.800000011920929,
        "y": 1.7000000476837158
      },
      "followOwnerInvisible": true,
      "syncTransToServer": true,
      "followPositionSmoothedDampTime": 0.10000000149011612,
      "followRotationSmoothedDampTime": 0.10000000149011612,
      "LFOHLEKJFBI": ""
    }
  },
  "Liuyun_ElementalBurst_BigWindHole": {
    "$type": "CJKJIENLOHD",
    "common": {
      "effectAttachShape": {
        "$type": "OMIODKONOMG"
      }
    },
    "combat": {
      "property": {
        "useCreatorProperty": true,
        "hp": 99999.0,
        "defense": 99999.0,
        "isInvincible": true,
        "isGhostToAllied": true,
        "isGhostToEnemy": true
      },
      "beHit": {
        "hitBloodEffect": "",
        "muteAllHit": true,
        "muteAllHitEffect": true,
        "muteAllHitText": true
      },
      "combatLock": {
        "lockShape": "CircleLockEnemy",
        "denyLockOn": true,
        "lockType": "Gadget_Lv1"
      }
    },
    "combatTemplate": "",
    "timer": {
      "lifeTime": 5.0
    }
  },
  "Liuyun_ElementalBurst_SmallWindHole": {
    "$type": "CJKJIENLOHD",
    "common": {
      "effectAttachShape": {
        "$type": "OMIODKONOMG"
      }
    },
    "combat": {
      "property": {
        "useCreatorProperty": true,
        "hp": 99999.0,
        "defense": 99999.0,
        "isInvincible": true,
        "isGhostToAllied": true,
        "isGhostToEnemy": true
      },
      "beHit": {
        "hitBloodEffect": "",
        "muteAllHit": true,
        "muteAllHitEffect": true,
        "muteAllHitText": true
      },
      "combatLock": {
        "lockShape": "CircleLockEnemy",
        "denyLockOn": true,
        "lockType": "Gadget_Lv1"
      }
    },
    "combatTemplate": "",
    "timer": {
      "lifeTime": 5.0
    }
  }
}
