{
  "Sayu_ElementalArt_Bullet": {
    "$type": "CJKJIENLOHD",
    "common": {
      "effectAttachShape": {
        "$type": "OMIODKONOMG"
      }
    },
    "combat": {
      "property": {
        "useCreatorProperty": true,
        "hp": 99999.0,
        "defense": 99999.0,
        "isInvincible": true,
        "isGhostToAllied": true,
        "isGhostToEnemy": true
      },
      "beHit": {
        "hitBloodEffect": "",
        "muteAllHit": true,
        "muteAllHitEffect": true,
        "muteAllHitText": true
      },
      "combatLock": {
        "lockShape": "CircleLockEnemy",
        "denyLockOn": true,
        "lockType": "Gadget_Lv1"
      }
    },
    "combatTemplate": "",
    "abilities": [
      {
        "abilityID": "Avatar_Sayu_ElementalArt_Bullet",
        "abilityName": "Avatar_Sayu_ElementalArt_Bullet",
        "abilityOverride": ""
      }
    ],
    "timer": {
      "lifeTime": 2.0
    },
    "move": {
      "$type": "MMAPEFIEGAL",
      "attachPoint": "RootNode",
      "followOwnerInvisible": true,
      "LFOHLEKJFBI": ""
    },
    "gadget": {
      "$type": "JENBBNKGGJP",
      "collision": {
        "ccd": {
          "damageRatio": "Always"
        },
        "triggerType": "TriggerNoRepeat",
        "targetType": "Enemy",
        "ignoreScene": true,
        "ignoreWater": true
      },
      "triggerActions": [
        {
          "$type": "AILPBJHDHDG",
          "abilityName": "Avatar_Sayu_ElementalArt_Bullet"
        }
      ]
    }
  },
  "Sayu_ElementalArt_Roll_Bullet": {
    "$type": "CJKJIENLOHD",
    "common": {
      "effectAttachShape": {
        "$type": "OMIODKONOMG"
      }
    },
    "combat": {
      "property": {
        "useCreatorProperty": true,
        "hp": 99999.0,
        "defense": 99999.0,
        "isInvincible": true,
        "isGhostToAllied": true,
        "isGhostToEnemy": true
      },
      "beHit": {
        "hitBloodEffect": "",
        "muteAllHit": true,
        "muteAllHitEffect": true,
        "muteAllHitText": true
      },
      "combatLock": {
        "lockShape": "CircleLockEnemy",
        "denyLockOn": true,
        "lockType": "Gadget_Lv1"
      }
    },
    "combatTemplate": "",
    "abilities": [
      {
        "abilityID": "Avatar_Sayu_ElementalArt_Roll_Bullet",
        "abilityName": "Avatar_Sayu_ElementalArt_Roll_Bullet",
        "abilityOverride": ""
      },
      {
        "abilityID": "Avatar_Sayu_ElementalArt_Roll_Mix",
        "abilityName": "Avatar_Sayu_ElementalArt_Roll_Mix",
        "abilityOverride": ""
      }
    ],
    "timer": {
      "lifeTime": 10.0
    },
    "move": {
      "$type": "MMAPEFIEGAL",
      "attachPoint": "RootNode",
      "followOwnerInvisible": true,
      "LFOHLEKJFBI": ""
    },
    "gadget": {
      "$type": "JENBBNKGGJP",
      "collision": {
        "ccd": {
          "damageRatio": "Always"
        },
        "triggerType": "TriggerAlways",
        "triggerCD": 0.5,
        "targetType": "Enemy",
        "ignoreScene": true
      },
      "triggerActions": [
        {
          "$type": "AILPBJHDHDG",
          "abilityName": "Avatar_Sayu_ElementalArt_Roll_Bullet"
        }
      ]
    }
  },
  "Sayu_ElementalBurst_Phantom": {
    "$type": "CJKJIENLOHD",
    "common": {
      "effectAttachShape": {
        "$type": "OMIODKONOMG"
      },
      "checkInSurface": true,
      "enableCrashDamage": false
    },
    "model": {
      "bornEffect": "",
      "attachEffect": "",
      "hasCharacterRenderering": true,
      "BKPFGNPLDNJ": ""
    },
    "hasModel": true,
    "combat": {
      "property": {
        "useCreatorProperty": true,
        "weight": 200.0,
        "isLockHP": true,
        "isGhostToEnemy": true
      },
      "beHit": {
        "hitBloodEffect": "",
        "muteAllHit": true,
        "muteAllHitEffect": true,
        "muteAllHitText": true
      },
      "combatLock": {
        "lockShape": "CircleLockEnemy",
        "denyLockOn": true,
        "lockType": "Gadget_Lv1"
      }
    },
    "combatTemplate": "",
    "abilities": [
      {
        "abilityID": "Avatar_Sayu_ElementalBurst_Phantom",
        "abilityName": "Avatar_Sayu_ElementalBurst_Phantom",
        "abilityOverride": ""
      }
    ],
    "timer": {
      "lifeTime": 20.0
    },
    "move": {
      "$type": "MGENMIHFEJO",
      "velocityForce": {
        "includeForces": ["RetreatType", "RetreatAirType", "WindZoneType"]
      }
    },
    "stateLayers": {
      "defaultLayer": {
        "$type": "GBGJJIIEMBD",
        "layerIndexName": "",
        "CPAANEIJCGD": "",
        "stateIDs": {
          "Sayu_Phantom_Born": {
            "$type": "BEIEGKBABOF",
            "animatorStates": {
              "Sayu_Phantom_Born": ["Sayu_Phantom_Born"],
              "Sayu_Phantom_Born_BS": ["Sayu_Phantom_Born"]
            }
          },
          "Sayu_Phantom_Idle": {
            "$type": "BEIEGKBABOF",
            "animatorStates": {
              "Sayu_Phantom_Idle": ["Sayu_Phantom_Idle"]
            }
          },
          "Sayu_Phantom_Heal": {
            "$type": "BEIEGKBABOF",
            "animatorStates": {
              "Sayu_Phantom_Heal": ["Sayu_Phantom_Heal"]
            }
          },
          "Sayu_Phantom_Attack": {
            "$type": "BEIEGKBABOF",
            "animatorStates": {
              "Sayu_Phantom_Attack": ["Sayu_Phantom_Attack"]
            }
          },
          "Sayu_Phantom_Break": {
            "$type": "BEIEGKBABOF",
            "animatorStates": {
              "Sayu_Phantom_Break": ["Sayu_Phantom_Break"]
            }
          }
        }
      }
    },
    "characterRendering": {
      "overrideTickInterval": 1
    }
  }
}
