{
  "V4_8_FairyBook_Clockwork_Axis": {
    "$type": "CJKJIENLOHD",
    "common": {
      "disableTickDistance": 100000.0
    },
    "globalValue": {
      "serverGlobalValues": [
        "SGV_CWS_GroupTag",
        "SGV_Anim_Start_Progress",
        "SGV_Anim_Total_Progress"
      ],
      "initServerGlobalValues": {
        "SGV_CWS_GroupTag": 0.0,
        "SGV_Anim_Start_Progress": 0.0,
        "SGV_Anim_Total_Progress": 100000.0
      }
    },
    "hasModel": true,
    "combatTemplate": "",
    "abilities": [
      {
        "abilityID": "ability_01",
        "abilityName": "V4_8_FairyBook_Clockwork_Anim_Logic",
        "abilityOverride": ""
      },
      {
        "abilityID": "ability_02",
        "abilityName": "V4_8_FairyBook_Clockwork_GV_Broadcast",
        "abilityOverride": ""
      }
    ]
  },
  "V4_8_FairyBook_ClockworkPlatform_Carriage_01": {
    "$type": "CJKJIENLOHD",
    "common": {
      "disableTickDistance": 100000.0
    },
    "specialPoint": {
      "elementAbsorb": "RootNode",
      "elementPendant": "",
      "elementDrop": "RootNode",
      "bulletAim": "AimPoint"
    },
    "globalValue": {
      "serverGlobalValues": [
        "SGV_IS_CWS_Driver",
        "SGV_CWS_GroupTag",
        "SGV_Anim_Start_Progress",
        "SGV_Anim_Total_Progress",
        "SGV_Max_Turns_Rate",
        "SGV_DeltaPrg_PerHit",
        "SGV_LerpTime_PerHit",
        "SGV_Start_Turn_Back_Delay",
        "SGV_Turn_Back_Speed",
        "SGV_Show_Airscrew",
        "SGV_Eff_Scale_Type",
        "SGV_NeedSafeCol",
        "SGV_Forbid_Eff",
        "SGV_Safe_Col_Duration",
        "SGV_Clockwork_Platform_Type"
      ],
      "initServerGlobalValues": {
        "SGV_IS_CWS_Driver": 1.0,
        "SGV_CWS_GroupTag": 0.0,
        "SGV_Anim_Start_Progress": 0.0,
        "SGV_Anim_Total_Progress": 100000.0,
        "SGV_Max_Turns_Rate": 100000.0,
        "SGV_DeltaPrg_PerHit": 10000.0,
        "SGV_LerpTime_PerHit": 3.4000000953674316,
        "SGV_Start_Turn_Back_Delay": 2.0,
        "SGV_Turn_Back_Speed": 6000.0,
        "SGV_Show_Airscrew": 1.0,
        "SGV_Eff_Scale_Type": 1.0,
        "SGV_NeedSafeCol": 1.0,
        "SGV_Forbid_Eff": 0.0,
        "SGV_Safe_Col_Duration": 1.899999976158142,
        "SGV_Clockwork_Platform_Type": 2.0
      }
    },
    "KJGJCNANPJP": true,
    "hasModel": true,
    "combat": {
      "property": {
        "hp": 99999.0,
        "attack": 20.0,
        "weight": 40.0,
        "isLockHP": true,
        "isGhostToAllied": true
      },
      "beHit": {
        "hitBloodEffect": "",
        "hitAutoRedirect": false,
        "muteAllHit": true,
        "muteAllHitText": true
      },
      "combatLock": {
        "lockShape": "CircleLockEnemy",
        "lockType": "Gadget_Lv1"
      }
    },
    "combatTemplate": "",
    "abilities": [
      {
        "abilityID": "ability_01",
        "abilityName": "V4_8_FairyBook_Clockwork_Common",
        "abilityOverride": ""
      },
      {
        "abilityID": "ability_02",
        "abilityName": "V4_8_FairyBook_Clockwork_Anim_Logic",
        "abilityOverride": ""
      },
      {
        "abilityID": "ability_03",
        "abilityName": "V4_8_FairyBook_Clockwork_GV_Broadcast",
        "abilityOverride": ""
      },
      {
        "abilityID": "ability_04",
        "abilityName": "V4_8_FairyBook_Clockwork_Carriage_Airscrew_Control",
        "abilityOverride": ""
      },
      {
        "abilityID": "ability_05",
        "abilityName": "V4_8_FairyBook_Clockwork_Platform_SafeCol_Control",
        "abilityOverride": ""
      },
      {
        "abilityID": "Scene_RockGadget_Summon_Detect",
        "abilityName": "Scene_RockGadget_Summon_Detect",
        "abilityOverride": ""
      },
      {
        "abilityID": "V4_8_FairyBook_Common_StateResistance",
        "abilityName": "V4_8_FairyBook_Common_StateResistance",
        "abilityOverride": ""
      }
    ],
    "move": {
      "$type": "HHDHALCKCOD",
      "namedTransform": "",
      "useTarget": true,
      "target": "GroupGadgetEntity",
      "FJPPBHMGFFJ": "Free"
    }
  },
  "V4_8_FairyBook_ClockworkPlatform_Carriage_02": {
    "$type": "CJKJIENLOHD",
    "common": {
      "disableTickDistance": 100000.0
    },
    "specialPoint": {
      "elementAbsorb": "RootNode",
      "elementPendant": "",
      "elementDrop": "RootNode",
      "bulletAim": "AimPoint"
    },
    "globalValue": {
      "serverGlobalValues": [
        "SGV_IS_CWS_Driver",
        "SGV_CWS_GroupTag",
        "SGV_Anim_Start_Progress",
        "SGV_Anim_Total_Progress",
        "SGV_Max_Turns_Rate",
        "SGV_DeltaPrg_PerHit",
        "SGV_LerpTime_PerHit",
        "SGV_Start_Turn_Back_Delay",
        "SGV_Turn_Back_Speed",
        "SGV_Show_Airscrew",
        "SGV_Eff_Scale_Type",
        "SGV_NeedSafeCol",
        "SGV_Forbid_Eff",
        "SGV_Safe_Col_Duration",
        "SGV_Clockwork_Platform_Type"
      ],
      "initServerGlobalValues": {
        "SGV_IS_CWS_Driver": 1.0,
        "SGV_CWS_GroupTag": 0.0,
        "SGV_Anim_Start_Progress": 0.0,
        "SGV_Anim_Total_Progress": 100000.0,
        "SGV_Max_Turns_Rate": 100000.0,
        "SGV_DeltaPrg_PerHit": 10000.0,
        "SGV_LerpTime_PerHit": 3.4000000953674316,
        "SGV_Start_Turn_Back_Delay": 2.0,
        "SGV_Turn_Back_Speed": 6000.0,
        "SGV_Show_Airscrew": 1.0,
        "SGV_Eff_Scale_Type": 0.0,
        "SGV_NeedSafeCol": 1.0,
        "SGV_Forbid_Eff": 0.0,
        "SGV_Safe_Col_Duration": 1.899999976158142,
        "SGV_Clockwork_Platform_Type": 1.0
      }
    },
    "KJGJCNANPJP": true,
    "hasModel": true,
    "combat": {
      "property": {
        "hp": 99999.0,
        "attack": 20.0,
        "weight": 40.0,
        "isLockHP": true,
        "isGhostToAllied": true
      },
      "beHit": {
        "hitBloodEffect": "",
        "hitAutoRedirect": false,
        "muteAllHit": true,
        "muteAllHitText": true
      },
      "combatLock": {
        "lockShape": "CircleLockEnemy",
        "lockType": "Gadget_Lv1"
      }
    },
    "combatTemplate": "",
    "abilities": [
      {
        "abilityID": "ability_01",
        "abilityName": "V4_8_FairyBook_Clockwork_Common",
        "abilityOverride": ""
      },
      {
        "abilityID": "ability_02",
        "abilityName": "V4_8_FairyBook_Clockwork_Anim_Logic",
        "abilityOverride": ""
      },
      {
        "abilityID": "ability_03",
        "abilityName": "V4_8_FairyBook_Clockwork_GV_Broadcast",
        "abilityOverride": ""
      },
      {
        "abilityID": "ability_04",
        "abilityName": "V4_8_FairyBook_Clockwork_Carriage_Airscrew_Control",
        "abilityOverride": ""
      },
      {
        "abilityID": "ability_05",
        "abilityName": "V4_8_FairyBook_Clockwork_Platform_SafeCol_Control",
        "abilityOverride": ""
      },
      {
        "abilityID": "Scene_RockGadget_Summon_Detect",
        "abilityName": "Scene_RockGadget_Summon_Detect",
        "abilityOverride": ""
      },
      {
        "abilityID": "V4_8_FairyBook_Common_StateResistance",
        "abilityName": "V4_8_FairyBook_Common_StateResistance",
        "abilityOverride": ""
      }
    ],
    "move": {
      "$type": "HHDHALCKCOD",
      "namedTransform": "",
      "useTarget": true,
      "target": "GroupGadgetEntity",
      "FJPPBHMGFFJ": "Free"
    }
  },
  "V4_8_FairyBook_ClockworkPlatform_Carriage_03": {
    "$type": "CJKJIENLOHD",
    "common": {
      "disableTickDistance": 100000.0,
      "isForceRefreshAuthotiryToHost": true
    },
    "specialPoint": {
      "elementAbsorb": "RootNode",
      "elementPendant": "",
      "elementDrop": "RootNode",
      "bulletAim": "AimPoint"
    },
    "globalValue": {
      "serverGlobalValues": [
        "SGV_IS_CWS_Driver",
        "SGV_CWS_GroupTag",
        "SGV_Anim_Start_Progress",
        "SGV_Anim_Total_Progress",
        "SGV_Max_Turns_Rate",
        "SGV_DeltaPrg_PerHit",
        "SGV_LerpTime_PerHit",
        "SGV_Start_Turn_Back_Delay",
        "SGV_Turn_Back_Speed",
        "SGV_Show_Airscrew",
        "SGV_Eff_Scale_Type",
        "SGV_NeedSafeCol",
        "SGV_SP_Camera_Fin",
        "SGV_SP_Camera_PF_Size",
        "SGV_Forbid_Eff",
        "SGV_Safe_Col_Duration",
        "SGV_Clockwork_Platform_Type"
      ],
      "initServerGlobalValues": {
        "SGV_IS_CWS_Driver": 1.0,
        "SGV_CWS_GroupTag": 0.0,
        "SGV_Anim_Start_Progress": 0.0,
        "SGV_Anim_Total_Progress": 100000.0,
        "SGV_Max_Turns_Rate": 100000.0,
        "SGV_DeltaPrg_PerHit": 10000.0,
        "SGV_LerpTime_PerHit": 3.4000000953674316,
        "SGV_Start_Turn_Back_Delay": 2.0,
        "SGV_Turn_Back_Speed": 6000.0,
        "SGV_Show_Airscrew": 1.0,
        "SGV_Eff_Scale_Type": 0.0,
        "SGV_NeedSafeCol": 1.0,
        "SGV_SP_Camera_Fin": 0.0,
        "SGV_SP_Camera_PF_Size": 6.0,
        "SGV_Forbid_Eff": 0.0,
        "SGV_Safe_Col_Duration": 8.0,
        "SGV_Clockwork_Platform_Type": 1.0
      }
    },
    "KJGJCNANPJP": true,
    "hasModel": true,
    "combat": {
      "property": {
        "hp": 99999.0,
        "attack": 20.0,
        "weight": 40.0,
        "isLockHP": true,
        "isGhostToAllied": true
      },
      "beHit": {
        "hitBloodEffect": "",
        "hitAutoRedirect": false,
        "muteAllHit": true,
        "muteAllHitText": true
      },
      "combatLock": {
        "lockShape": "CircleLockEnemy",
        "lockType": "Gadget_Lv1"
      }
    },
    "combatTemplate": "",
    "abilities": [
      {
        "abilityID": "ability_01",
        "abilityName": "V4_8_FairyBook_Clockwork_Common",
        "abilityOverride": ""
      },
      {
        "abilityID": "ability_02",
        "abilityName": "V4_8_FairyBook_Clockwork_Anim_Logic",
        "abilityOverride": ""
      },
      {
        "abilityID": "ability_03",
        "abilityName": "V4_8_FairyBook_Clockwork_GV_Broadcast",
        "abilityOverride": ""
      },
      {
        "abilityID": "ability_04",
        "abilityName": "V4_8_FairyBook_Clockwork_Carriage_Airscrew_Control",
        "abilityOverride": ""
      },
      {
        "abilityID": "ability_05",
        "abilityName": "V4_8_FairyBook_Clockwork_Platform_SafeCol_Control",
        "abilityOverride": ""
      },
      {
        "abilityID": "ability_06",
        "abilityName": "V4_8_FairyBook_Clockwork_Platform_SpCamera_Control",
        "abilityOverride": ""
      },
      {
        "abilityID": "Scene_RockGadget_Summon_Detect",
        "abilityName": "Scene_RockGadget_Summon_Detect",
        "abilityOverride": ""
      },
      {
        "abilityID": "V4_8_FairyBook_Common_StateResistance",
        "abilityName": "V4_8_FairyBook_Common_StateResistance",
        "abilityOverride": ""
      }
    ],
    "move": {
      "$type": "HHDHALCKCOD",
      "namedTransform": "",
      "useTarget": true,
      "target": "GroupGadgetEntity",
      "FJPPBHMGFFJ": "Free"
    }
  },
  "V4_8_FairyBook_ClockworkPlatform_Carriage_04": {
    "$type": "CJKJIENLOHD",
    "common": {
      "disableTickDistance": 100000.0
    },
    "specialPoint": {
      "elementAbsorb": "RootNode",
      "elementPendant": "",
      "elementDrop": "RootNode",
      "bulletAim": "AimPoint"
    },
    "globalValue": {
      "serverGlobalValues": [
        "SGV_IS_CWS_Driver",
        "SGV_CWS_GroupTag",
        "SGV_Anim_Start_Progress",
        "SGV_Anim_Total_Progress",
        "SGV_Max_Turns_Rate",
        "SGV_DeltaPrg_PerHit",
        "SGV_LerpTime_PerHit",
        "SGV_Start_Turn_Back_Delay",
        "SGV_Turn_Back_Speed",
        "SGV_Show_Airscrew",
        "SGV_Eff_Scale_Type",
        "SGV_NeedSafeCol",
        "SGV_SP_Camera_Fin",
        "SGV_SP_Camera_PF_Size",
        "SGV_Forbid_Eff",
        "SGV_Safe_Col_Duration",
        "SGV_Clockwork_Platform_Type"
      ],
      "initServerGlobalValues": {
        "SGV_IS_CWS_Driver": 1.0,
        "SGV_CWS_GroupTag": 0.0,
        "SGV_Anim_Start_Progress": 0.0,
        "SGV_Anim_Total_Progress": 100000.0,
        "SGV_Max_Turns_Rate": 100000.0,
        "SGV_DeltaPrg_PerHit": 10000.0,
        "SGV_LerpTime_PerHit": 3.4000000953674316,
        "SGV_Start_Turn_Back_Delay": 2.0,
        "SGV_Turn_Back_Speed": 6000.0,
        "SGV_Show_Airscrew": 1.0,
        "SGV_Eff_Scale_Type": 1.0,
        "SGV_NeedSafeCol": 1.0,
        "SGV_SP_Camera_Fin": 0.0,
        "SGV_SP_Camera_PF_Size": 9.0,
        "SGV_Forbid_Eff": 0.0,
        "SGV_Safe_Col_Duration": 1.899999976158142,
        "SGV_Clockwork_Platform_Type": 2.0
      }
    },
    "KJGJCNANPJP": true,
    "hasModel": true,
    "combat": {
      "property": {
        "hp": 99999.0,
        "attack": 20.0,
        "weight": 40.0,
        "isLockHP": true,
        "isGhostToAllied": true
      },
      "beHit": {
        "hitBloodEffect": "",
        "hitAutoRedirect": false,
        "muteAllHit": true,
        "muteAllHitText": true
      },
      "combatLock": {
        "lockShape": "CircleLockEnemy",
        "lockType": "Gadget_Lv1"
      }
    },
    "combatTemplate": "",
    "abilities": [
      {
        "abilityID": "ability_01",
        "abilityName": "V4_8_FairyBook_Clockwork_Common",
        "abilityOverride": ""
      },
      {
        "abilityID": "ability_02",
        "abilityName": "V4_8_FairyBook_Clockwork_Anim_Logic",
        "abilityOverride": ""
      },
      {
        "abilityID": "ability_03",
        "abilityName": "V4_8_FairyBook_Clockwork_GV_Broadcast",
        "abilityOverride": ""
      },
      {
        "abilityID": "ability_04",
        "abilityName": "V4_8_FairyBook_Clockwork_Carriage_Airscrew_Control",
        "abilityOverride": ""
      },
      {
        "abilityID": "ability_05",
        "abilityName": "V4_8_FairyBook_Clockwork_Platform_SafeCol_Control",
        "abilityOverride": ""
      },
      {
        "abilityID": "ability_06",
        "abilityName": "V4_8_FairyBook_Clockwork_Platform_SpCamera_Control2",
        "abilityOverride": ""
      },
      {
        "abilityID": "Scene_RockGadget_Summon_Detect",
        "abilityName": "Scene_RockGadget_Summon_Detect",
        "abilityOverride": ""
      },
      {
        "abilityID": "V4_8_FairyBook_Common_StateResistance",
        "abilityName": "V4_8_FairyBook_Common_StateResistance",
        "abilityOverride": ""
      }
    ],
    "move": {
      "$type": "HHDHALCKCOD",
      "namedTransform": "",
      "useTarget": true,
      "target": "GroupGadgetEntity",
      "FJPPBHMGFFJ": "Free"
    }
  },
  "V4_8_FairyBook_ToyTrain_SPIntee_01": {
    "$type": "CJKJIENLOHD",
    "common": {
      "disableTickDistance": 100000.0
    },
    "combat": {
      "property": {
        "hp": 99999.0,
        "attack": 20.0,
        "weight": 50.0,
        "isLockHP": true,
        "isGhostToAllied": true,
        "isGhostToEnemy": true,
        "ignoreDamageToSelf": true
      },
      "beHit": {
        "hitBloodEffect": "",
        "hitAutoRedirect": false,
        "muteAllHitText": true
      },
      "combatLock": {
        "lockShape": "CircleLockEnemy",
        "denyLockOn": true,
        "lockType": "Gadget_Lv1"
      },
      "die": {
        "dieEndTime": 1.0,
        "dieForceDisappearTime": 1.0,
        "dieDisappearEffect": ""
      }
    },
    "combatTemplate": "",
    "abilities": [
      {
        "abilityID": "V4_8_FairyBook_ToyTrain_BirdInteract_01",
        "abilityName": "V4_8_FairyBook_ToyTrain_BirdInteract_01",
        "abilityOverride": ""
      }
    ],
    "move": {
      "$type": "MMAPEFIEGAL",
      "target": "TargetEntity",
      "attachPoint": "InteePoint",
      "syncTransToServer": true,
      "syncInterval": 0.5,
      "handleInLateTick": true,
      "LFOHLEKJFBI": ""
    },
    "uiInteract": {
      "gadgetUIBtnCfgPath": "TEST/TEST_Chest_Btn",
      "uiName": "LEVEL_FairyBook_TrainBirdActive_01",
      "onTouch": "WidgetMPSupport",
      "touchParams": ["V4_8_FairyBook_ToyTrain_BirdInteract_01"],
      "icon": "UI_Icon_Intee_Mechanism",
      "groupName": "",
      "confirmDialogTitle": "",
      "confirmDialogContent": "",
      "canInteractInCombat": false
    },
    "intee": {
      "triggerHeight": 6.0,
      "KAMIAMNMFCP": ""
    }
  },
  "V4_8_FairyBook_ToyTrain_01": {
    "$type": "CJKJIENLOHD",
    "common": {
      "disableTickDistance": 100000.0
    },
    "model": {
      "bornEffect": "",
      "attachEffect": "",
      "HBJIOPNMBOM": true,
      "KOCEMHIPJOP": true,
      "BKPFGNPLDNJ": ""
    },
    "globalValue": {
      "serverGlobalValues": [
        "SGV_Safe_Col_On",
        "SGV_Idle_State",
        "SGV_Train_Pause_Check",
        "SGV_Forbid_InteeGadget"
      ],
      "initServerGlobalValues": {
        "SGV_Safe_Col_On": 0.0,
        "SGV_Idle_State": 0.0,
        "SGV_Train_Pause_Check": 0.0,
        "SGV_Forbid_InteeGadget": 0.0
      }
    },
    "hasModel": true,
    "combat": {
      "property": {
        "hp": 99999.0,
        "attack": 20.0,
        "weight": 50.0,
        "isLockHP": true,
        "isGhostToAllied": true,
        "isGhostToEnemy": true,
        "ignoreDamageToSelf": true
      },
      "beHit": {
        "hitBloodEffect": "",
        "hitAutoRedirect": false,
        "muteAllHitText": true
      },
      "combatLock": {
        "lockShape": "CircleLockEnemy",
        "denyLockOn": true,
        "lockType": "Gadget_Lv1"
      },
      "die": {
        "dieEndTime": 1.0,
        "dieForceDisappearTime": 1.0,
        "dieDisappearEffect": ""
      }
    },
    "combatTemplate": "",
    "abilities": [
      {
        "abilityID": "V4_8_FairyBook_ToyTrain_01",
        "abilityName": "V4_8_FairyBook_ToyTrain_01",
        "abilityOverride": ""
      },
      {
        "abilityID": "V4_8_FairyBook_ToyTrain_BirdInteract_receiver_01",
        "abilityName": "V4_8_FairyBook_ToyTrain_BirdInteract_receiver_01",
        "abilityOverride": ""
      },
      {
        "abilityID": "V4_8_FairyBook_ToyTrain_CurveEvent",
        "abilityName": "V4_8_FairyBook_ToyTrain_CurveEvent",
        "abilityOverride": ""
      },
      {
        "abilityID": "Scene_RockGadget_Summon_Detect",
        "abilityName": "Scene_RockGadget_Summon_Detect",
        "abilityOverride": ""
      }
    ],
    "move": {
      "$type": "DFOIIIKDOFG"
    },
    "stateLayers": {
      "baseLayer": {
        "$type": "GBGJJIIEMBD",
        "layerIndexName": "Base Layer",
        "CPAANEIJCGD": "",
        "stateIDs": {
          "TrainMove": {
            "$type": "BEIEGKBABOF",
            "animatorStates": {
              "TrainRun": [],
              "TrainStopLoop01": [],
              "TrainStopLoop02": [],
              "TrainStop": []
            }
          }
        }
      },
      "doorLayer": {
        "$type": "GBGJJIIEMBD",
        "layerIndex": 1,
        "layerIndexName": "Door Layer",
        "CPAANEIJCGD": "",
        "stateIDs": {
          "DoorMove": {
            "$type": "BEIEGKBABOF",
            "animatorStates": {
              "DoorCloseLoop": [],
              "DoorOpenLoop": [],
              "DoorOpen": ["Audio_Gear_ToyTrain_DoorOpen"],
              "DoorCloese": ["Audio_Gear_ToyTrain_DoorOpen"]
            }
          }
        }
      },
      "birdLayer": {
        "$type": "GBGJJIIEMBD",
        "layerIndex": 2,
        "layerIndexName": "Bird Layer",
        "CPAANEIJCGD": "",
        "stateIDs": {
          "BirdTalk": {
            "$type": "BEIEGKBABOF",
            "animatorStates": {
              "BirdTalk": ["Audio_Gear_ToyTrain_BirdTalk"]
            }
          }
        }
      }
    },
    "audio": {
      "$type": "DEGGADLMEOK",
      "overrideEmitterName": "",
      "animAudio": {
        "onTransitionIn": [
          {
            "currentStateName": "TrainRun",
            "audioEvent": {
              "text": "Play_amb_sceneObj_gear_ToyTrain_01_TrainRun_Loop"
            }
          }
        ],
        "onTransitionOut": [
          {
            "currentStateName": "TrainRun",
            "audioEvent": {
              "text": "Stop_amb_sceneObj_gear_ToyTrain_01_TrainRun_Loop"
            }
          }
        ]
      },
      "disableEvent": {
        "text": ""
      },
      "destroyEvent": {
        "text": ""
      }
    }
  },
  "V4_8_FairyBook_ToyTrain_02": {
    "$type": "CJKJIENLOHD",
    "common": {
      "disableTickDistance": 100000.0
    },
    "model": {
      "bornEffect": "",
      "attachEffect": "",
      "HBJIOPNMBOM": true,
      "KOCEMHIPJOP": true,
      "BKPFGNPLDNJ": ""
    },
    "globalValue": {
      "serverGlobalValues": [
        "SGV_Move_Control",
        "SGV_Safe_Col_On",
        "SGV_Idle_State",
        "SGV_Train_Pause_Check"
      ],
      "initServerGlobalValues": {
        "SGV_Move_Control": 0.0,
        "SGV_Safe_Col_On": 0.0,
        "SGV_Idle_State": 0.0,
        "SGV_Train_Pause_Check": 0.0
      }
    },
    "hasModel": true,
    "combat": {
      "property": {
        "hp": 99999.0,
        "attack": 20.0,
        "weight": 50.0,
        "isLockHP": true,
        "isGhostToAllied": true,
        "isGhostToEnemy": true,
        "ignoreDamageToSelf": true
      },
      "beHit": {
        "hitBloodEffect": "",
        "hitAutoRedirect": false,
        "muteAllHitText": true
      },
      "combatLock": {
        "lockShape": "CircleLockEnemy",
        "denyLockOn": true,
        "lockType": "Gadget_Lv1"
      },
      "die": {
        "dieEndTime": 1.0,
        "dieForceDisappearTime": 1.0,
        "dieDisappearEffect": ""
      }
    },
    "combatTemplate": "",
    "abilities": [
      {
        "abilityID": "V4_8_FairyBook_ToyTrain_02",
        "abilityName": "V4_8_FairyBook_ToyTrain_02",
        "abilityOverride": ""
      },
      {
        "abilityID": "V4_8_FairyBook_ToyTrain_CurveEvent",
        "abilityName": "V4_8_FairyBook_ToyTrain_CurveEvent",
        "abilityOverride": ""
      },
      {
        "abilityID": "Scene_RockGadget_Summon_Detect",
        "abilityName": "Scene_RockGadget_Summon_Detect",
        "abilityOverride": ""
      }
    ],
    "move": {
      "$type": "DFOIIIKDOFG"
    },
    "stateLayers": {
      "baseLayer": {
        "$type": "GBGJJIIEMBD",
        "layerIndexName": "Base Layer",
        "CPAANEIJCGD": "",
        "stateIDs": {
          "TrainMove": {
            "$type": "BEIEGKBABOF",
            "animatorStates": {
              "TrainRun": [],
              "TrainStopLoop01": [],
              "TrainStopLoop02": [],
              "TrainStop": []
            }
          }
        }
      },
      "doorLayer": {
        "$type": "GBGJJIIEMBD",
        "layerIndex": 1,
        "layerIndexName": "Door Layer",
        "CPAANEIJCGD": "",
        "stateIDs": {
          "DoorMove": {
            "$type": "BEIEGKBABOF",
            "animatorStates": {
              "DoorCloseLoop": [],
              "DoorOpenLoop": [],
              "DoorOpen": ["Audio_Gear_ToyTrain_DoorOpen"],
              "DoorCloese": ["Audio_Gear_ToyTrain_DoorOpen"]
            }
          }
        }
      },
      "birdLayer": {
        "$type": "GBGJJIIEMBD",
        "layerIndex": 2,
        "layerIndexName": "Bird Layer",
        "CPAANEIJCGD": "",
        "stateIDs": {
          "BirdTalk": {
            "$type": "BEIEGKBABOF",
            "animatorStates": {
              "BirdTalk": ["Audio_Gear_ToyTrain_BirdTalk"]
            }
          }
        }
      }
    },
    "audio": {
      "$type": "DEGGADLMEOK",
      "overrideEmitterName": "",
      "animAudio": {
        "onTransitionIn": [
          {
            "currentStateName": "TrainRun",
            "audioEvent": {
              "text": "Play_amb_sceneObj_gear_ToyTrain_01_TrainRun_Loop"
            }
          }
        ],
        "onTransitionOut": [
          {
            "currentStateName": "TrainRun",
            "audioEvent": {
              "text": "Stop_amb_sceneObj_gear_ToyTrain_01_TrainRun_Loop"
            }
          }
        ]
      },
      "disableEvent": {
        "text": ""
      },
      "destroyEvent": {
        "text": ""
      }
    }
  },
  "V4_8_FairyBook_ToyTrain_03": {
    "$type": "CJKJIENLOHD",
    "common": {
      "disableTickDistance": 100000.0
    },
    "model": {
      "bornEffect": "",
      "attachEffect": "",
      "HBJIOPNMBOM": true,
      "KOCEMHIPJOP": true,
      "BKPFGNPLDNJ": ""
    },
    "globalValue": {
      "serverGlobalValues": ["SGV_Idle_State"],
      "initServerGlobalValues": {
        "SGV_Idle_State": 0.0
      }
    },
    "hasModel": true,
    "combat": {
      "property": {
        "hp": 99999.0,
        "attack": 20.0,
        "weight": 50.0,
        "isLockHP": true,
        "isGhostToAllied": true,
        "isGhostToEnemy": true,
        "ignoreDamageToSelf": true
      },
      "beHit": {
        "hitBloodEffect": "",
        "hitAutoRedirect": false,
        "muteAllHitText": true
      },
      "combatLock": {
        "lockShape": "CircleLockEnemy",
        "denyLockOn": true,
        "lockType": "Gadget_Lv1"
      },
      "die": {
        "dieEndTime": 1.0,
        "dieForceDisappearTime": 1.0,
        "dieDisappearEffect": ""
      }
    },
    "combatTemplate": "",
    "abilities": [
      {
        "abilityID": "V4_8_FairyBook_ToyTrain_03",
        "abilityName": "V4_8_FairyBook_ToyTrain_03",
        "abilityOverride": ""
      },
      {
        "abilityID": "Scene_RockGadget_Summon_Detect",
        "abilityName": "Scene_RockGadget_Summon_Detect",
        "abilityOverride": ""
      }
    ],
    "move": {
      "$type": "OEFHHKHPMCJ"
    },
    "stateLayers": {
      "baseLayer": {
        "$type": "GBGJJIIEMBD",
        "layerIndexName": "Base Layer",
        "CPAANEIJCGD": "",
        "stateIDs": {
          "TrainMove": {
            "$type": "BEIEGKBABOF",
            "animatorStates": {
              "TrainRun": [],
              "TrainStopLoop01": [],
              "TrainStopLoop02": [],
              "TrainStop": []
            }
          }
        }
      },
      "doorLayer": {
        "$type": "GBGJJIIEMBD",
        "layerIndex": 1,
        "layerIndexName": "Door Layer",
        "CPAANEIJCGD": "",
        "stateIDs": {
          "DoorMove": {
            "$type": "BEIEGKBABOF",
            "animatorStates": {
              "DoorCloseLoop": [],
              "DoorOpenLoop": [],
              "DoorOpen": ["Audio_Gear_ToyTrain_DoorOpen"],
              "DoorCloese": ["Audio_Gear_ToyTrain_DoorOpen"]
            }
          }
        }
      },
      "birdLayer": {
        "$type": "GBGJJIIEMBD",
        "layerIndex": 2,
        "layerIndexName": "Bird Layer",
        "CPAANEIJCGD": "",
        "stateIDs": {
          "BirdTalk": {
            "$type": "BEIEGKBABOF",
            "animatorStates": {
              "BirdTalk": ["Audio_Gear_ToyTrain_BirdTalk"]
            }
          }
        }
      }
    },
    "audio": {
      "$type": "DEGGADLMEOK",
      "overrideEmitterName": "",
      "animAudio": {
        "onTransitionIn": [
          {
            "currentStateName": "TrainRun",
            "audioEvent": {
              "text": "Play_amb_sceneObj_gear_ToyTrain_01_TrainRun_Loop_simple"
            }
          }
        ],
        "onTransitionOut": [
          {
            "currentStateName": "TrainRun",
            "audioEvent": {
              "text": "Stop_amb_sceneObj_gear_ToyTrain_01_TrainRun_Loop"
            }
          }
        ]
      },
      "disableEvent": {
        "text": ""
      },
      "destroyEvent": {
        "text": ""
      }
    }
  },
  "V4_8_FairyBook_ToyTrain_QD_01": {
    "$type": "CJKJIENLOHD",
    "common": {
      "disableTickDistance": 100000.0
    },
    "model": {
      "bornEffect": "",
      "attachEffect": "",
      "HBJIOPNMBOM": true,
      "KOCEMHIPJOP": true,
      "BKPFGNPLDNJ": ""
    },
    "hasModel": true,
    "combat": {
      "property": {
        "hp": 99999.0,
        "attack": 20.0,
        "weight": 50.0,
        "isLockHP": true,
        "isGhostToAllied": true,
        "isGhostToEnemy": true,
        "ignoreDamageToSelf": true
      },
      "beHit": {
        "hitBloodEffect": "",
        "hitAutoRedirect": false,
        "muteAllHitText": true
      },
      "combatLock": {
        "lockShape": "CircleLockEnemy",
        "denyLockOn": true,
        "lockType": "Gadget_Lv1"
      },
      "die": {
        "dieEndTime": 1.0,
        "dieForceDisappearTime": 1.0,
        "dieDisappearEffect": ""
      }
    },
    "combatTemplate": "",
    "abilities": [
      {
        "abilityID": "V4_8_FairyBook_ToyTrain_QD_01",
        "abilityName": "V4_8_FairyBook_ToyTrain_QD_01",
        "abilityOverride": ""
      },
      {
        "abilityID": "Scene_RockGadget_Summon_Detect",
        "abilityName": "Scene_RockGadget_Summon_Detect",
        "abilityOverride": ""
      }
    ],
    "move": {
      "$type": "OEFHHKHPMCJ"
    },
    "stateLayers": {
      "baseLayer": {
        "$type": "GBGJJIIEMBD",
        "layerIndexName": "Base Layer",
        "CPAANEIJCGD": "",
        "stateIDs": {
          "TrainMove": {
            "$type": "BEIEGKBABOF",
            "animatorStates": {
              "TrainRun": [],
              "TrainStopLoop01": [],
              "TrainStopLoop02": [],
              "TrainStop": []
            }
          }
        }
      },
      "doorLayer": {
        "$type": "GBGJJIIEMBD",
        "layerIndex": 1,
        "layerIndexName": "Door Layer",
        "CPAANEIJCGD": "",
        "stateIDs": {
          "DoorMove": {
            "$type": "BEIEGKBABOF",
            "animatorStates": {
              "DoorCloseLoop": [],
              "DoorOpenLoop": [],
              "DoorOpen": ["Audio_Gear_ToyTrain_DoorOpen"],
              "DoorCloese": ["Audio_Gear_ToyTrain_DoorOpen"]
            }
          }
        }
      },
      "birdLayer": {
        "$type": "GBGJJIIEMBD",
        "layerIndex": 2,
        "layerIndexName": "Bird Layer",
        "CPAANEIJCGD": "",
        "stateIDs": {
          "BirdTalk": {
            "$type": "BEIEGKBABOF",
            "animatorStates": {
              "BirdTalk": ["Audio_Gear_ToyTrain_BirdTalk"]
            }
          }
        }
      }
    },
    "audio": {
      "$type": "DEGGADLMEOK",
      "overrideEmitterName": "",
      "animAudio": {
        "onTransitionIn": [
          {
            "currentStateName": "TrainRun",
            "audioEvent": {
              "text": "Play_amb_sceneObj_gear_ToyTrain_01_TrainRun_Loop"
            }
          }
        ],
        "onTransitionOut": [
          {
            "currentStateName": "TrainRun",
            "audioEvent": {
              "text": "Stop_amb_sceneObj_gear_ToyTrain_01_TrainRun_Loop"
            }
          }
        ]
      },
      "disableEvent": {
        "text": ""
      },
      "destroyEvent": {
        "text": ""
      }
    }
  },
  "V4_8_FairyBook_SceneObj_Static_01": {
    "$type": "CJKJIENLOHD",
    "model": {
      "bornEffect": "",
      "attachEffect": "",
      "HBJIOPNMBOM": true,
      "KOCEMHIPJOP": true,
      "BKPFGNPLDNJ": ""
    },
    "hasModel": true,
    "combatTemplate": "",
    "abilities": [
      {
        "abilityID": "Scene_RockGadget_Summon_Detect",
        "abilityName": "Scene_RockGadget_Summon_Detect",
        "abilityOverride": ""
      }
    ]
  },
  "V4_8_FairyBook_SceneObj_Static_CharacterRender_01": {
    "$type": "CJKJIENLOHD",
    "model": {
      "bornEffect": "",
      "attachEffect": "",
      "hasCharacterRenderering": true,
      "HBJIOPNMBOM": true,
      "KOCEMHIPJOP": true,
      "BKPFGNPLDNJ": ""
    },
    "hasModel": true,
    "hasConnectTrigger": true,
    "navigation": {
      "$type": "HJBMCDCJFDM",
      "DMPPFNJCPED": 1.5499999523162842,
      "DLAJMKHACPK": 0.8500000238418579,
      "DMPOCDLBDHF": 1.0,
      "NBNJBFFMFIJ": "RootNode"
    },
    "combatTemplate": "",
    "abilities": [
      {
        "abilityID": "Scene_RockGadget_Summon_Detect",
        "abilityName": "Scene_RockGadget_Summon_Detect",
        "abilityOverride": ""
      }
    ]
  },
  "V4_8_FairyBook_ClockworkToy_Scene_01": {
    "$type": "CJKJIENLOHD",
    "model": {
      "bornEffect": "",
      "attachEffect": "",
      "setPerObjectShadowGroupID": true,
      "hasCharacterRenderering": true,
      "HBJIOPNMBOM": true,
      "KOCEMHIPJOP": true,
      "BKPFGNPLDNJ": ""
    },
    "hasModel": true,
    "hasConnectTrigger": true,
    "navigation": {
      "$type": "HJBMCDCJFDM",
      "DMPPFNJCPED": 1.7999999523162842,
      "DLAJMKHACPK": 1.2999999523162842,
      "DMPOCDLBDHF": 1.0,
      "NBNJBFFMFIJ": "RootNode"
    },
    "combat": {
      "property": {
        "hp": 99999.0,
        "attack": 20.0,
        "weight": 50.0,
        "isLockHP": true,
        "isGhostToAllied": true,
        "isGhostToEnemy": true,
        "ignoreDamageToSelf": true
      },
      "beHit": {
        "hitBloodEffect": "",
        "hitAutoRedirect": false,
        "muteAllHit": true,
        "muteAllHitEffect": true,
        "muteAllHitText": true
      },
      "combatLock": {
        "lockShape": "CircleLockEnemy",
        "denyLockOn": true,
        "lockType": "Gadget_Lv1"
      }
    },
    "combatTemplate": "",
    "abilities": [
      {
        "abilityID": "ability_01",
        "abilityName": "V4_8_FairyBook_ClockworkToy_Scene_01",
        "abilityOverride": ""
      },
      {
        "abilityID": "Scene_RockGadget_Summon_Detect",
        "abilityName": "Scene_RockGadget_Summon_Detect",
        "abilityOverride": ""
      }
    ]
  },
  "V4_8_FairyBook_ClockworkToy_Scene_02": {
    "$type": "CJKJIENLOHD",
    "model": {
      "bornEffect": "",
      "attachEffect": "",
      "setPerObjectShadowGroupID": true,
      "hasCharacterRenderering": true,
      "HBJIOPNMBOM": true,
      "KOCEMHIPJOP": true,
      "BKPFGNPLDNJ": ""
    },
    "globalValue": {
      "serverGlobalValues": ["SGV_Is_CapLight_Open"],
      "initServerGlobalValues": {
        "SGV_Is_CapLight_Open": 0.0
      }
    },
    "hasModel": true,
    "hasConnectTrigger": true,
    "navigation": {
      "$type": "HJBMCDCJFDM",
      "DMPPFNJCPED": 1.7999999523162842,
      "DLAJMKHACPK": 1.2999999523162842,
      "DMPOCDLBDHF": 1.0,
      "NBNJBFFMFIJ": "RootNode"
    },
    "combat": {
      "property": {
        "hp": 99999.0,
        "attack": 20.0,
        "weight": 50.0,
        "isLockHP": true,
        "isGhostToAllied": true,
        "isGhostToEnemy": true,
        "ignoreDamageToSelf": true
      },
      "beHit": {
        "hitBloodEffect": "",
        "hitAutoRedirect": false,
        "muteAllHit": true,
        "muteAllHitEffect": true,
        "muteAllHitText": true
      },
      "combatLock": {
        "lockShape": "CircleLockEnemy",
        "denyLockOn": true,
        "lockType": "Gadget_Lv1"
      }
    },
    "combatTemplate": "",
    "abilities": [
      {
        "abilityID": "ability_01",
        "abilityName": "V4_8_FairyBook_ClockworkToy_Scene_01",
        "abilityOverride": ""
      },
      {
        "abilityID": "Scene_RockGadget_Summon_Detect",
        "abilityName": "Scene_RockGadget_Summon_Detect",
        "abilityOverride": ""
      }
    ]
  },
  "V4_8_FairyBook_ClockworkToy_Anim_01": {
    "$type": "CJKJIENLOHD",
    "common": {
      "disableTickDistance": 100.0
    },
    "model": {
      "bornEffect": "",
      "attachEffect": "",
      "setPerObjectShadowGroupID": true,
      "hasCharacterRenderering": true,
      "HBJIOPNMBOM": true,
      "KOCEMHIPJOP": true,
      "BKPFGNPLDNJ": ""
    },
    "globalValue": {
      "serverGlobalValues": [
        "SGV_Is_Giant",
        "SGV_Tools_Visable",
        "SGV_Solider_Idle",
        "SGV_Is_Running",
        "SGV_Is_WorkLoop",
        "SGV_Is_CapLight_Open",
        "SGV_Emoji_Once",
        "SGV_Emoji_Persistent",
        "SGV_Emote_Scale"
      ],
      "initServerGlobalValues": {
        "SGV_Is_Giant": 0.0,
        "SGV_Tools_Visable": 0.0,
        "SGV_Solider_Idle": 0.0,
        "SGV_Is_Running": 0.0,
        "SGV_Is_WorkLoop": 0.0,
        "SGV_Is_CapLight_Open": 0.0,
        "SGV_Emoji_Once": 0.0,
        "SGV_Emoji_Persistent": 0.0,
        "SGV_Emote_Scale": 0.699999988079071
      }
    },
    "hasModel": true,
    "hasConnectTrigger": true,
    "navigation": {
      "$type": "HJBMCDCJFDM",
      "DMPPFNJCPED": 1.7999999523162842,
      "DLAJMKHACPK": 1.2999999523162842,
      "DMPOCDLBDHF": 1.0,
      "NBNJBFFMFIJ": "RootNode"
    },
    "combat": {
      "property": {
        "hp": 99999.0,
        "attack": 20.0,
        "weight": 50.0,
        "isLockHP": true,
        "isGhostToAllied": true,
        "isGhostToEnemy": true,
        "ignoreDamageToSelf": true
      },
      "beHit": {
        "hitBloodEffect": "",
        "hitAutoRedirect": false,
        "muteAllHitText": true
      },
      "combatLock": {
        "lockShape": "CircleLockEnemy",
        "denyLockOn": true,
        "lockType": "Gadget_Lv1"
      }
    },
    "combatTemplate": "",
    "abilities": [
      {
        "abilityID": "ability_01",
        "abilityName": "V4_8_FairyBook_ClockworkToy_Anim_01",
        "abilityOverride": ""
      },
      {
        "abilityID": "ability_02",
        "abilityName": "FairyBook_EmojiManager_Once",
        "abilityOverride": ""
      },
      {
        "abilityID": "ability_03",
        "abilityName": "FairyBook_EmojiManager_Persistent",
        "abilityOverride": ""
      },
      {
        "abilityID": "Scene_RockGadget_Summon_Detect",
        "abilityName": "Scene_RockGadget_Summon_Detect",
        "abilityOverride": ""
      },
      {
        "abilityID": "FairyBook_TalkBubble_01_Ability",
        "abilityName": "FairyBook_TalkBubble_01_Ability",
        "abilityOverride": ""
      }
    ],
    "move": {
      "$type": "OEFHHKHPMCJ"
    },
    "misc": {
      "escapeEffect": "",
      "targetIndicatorYOffset": 1.399999976158142
    },
    "stateLayers": {
      "defaultLayer": {
        "$type": "GBGJJIIEMBD",
        "layerIndexName": "",
        "CPAANEIJCGD": "",
        "stateIDs": {
          "ClockWork_Active": {
            "$type": "BEIEGKBABOF",
            "animatorStates": {
              "Wave": [],
              "Drink": [],
              "Working_BS": [],
              "WorkLoop": [],
              "Working_AS": [],
              "Working_Once": [],
              "StandUp": [],
              "Walk": [],
              "Run": [],
              "Jump": [],
              "TurnRight": [],
              "TurnLeft": []
            }
          },
          "ClockWork_Deactive": {
            "$type": "BEIEGKBABOF",
            "animatorStates": {
              "Idle": [],
              "Fall": [],
              "Prostrate": [],
              "Sit": []
            }
          }
        }
      }
    },
    "billboard": {
      "$type": "KMCIKEIBFAH",
      "attachPoint": "BillboardAttach",
      "offset": {
        "y": 1.2999999523162842
      },
      "forceHideAllBars": true
    }
  },
  "V4_8_FairyBook_ClockworkToy_Anim_02": {
    "$type": "CJKJIENLOHD",
    "common": {
      "disableTickDistance": 100000.0
    },
    "model": {
      "bornEffect": "",
      "attachEffect": "",
      "setPerObjectShadowGroupID": true,
      "hasCharacterRenderering": true,
      "HBJIOPNMBOM": true,
      "KOCEMHIPJOP": true,
      "BKPFGNPLDNJ": ""
    },
    "globalValue": {
      "serverGlobalValues": [
        "SGV_Is_Giant",
        "SGV_Tools_Visable",
        "SGV_Solider_Idle",
        "SGV_Is_Running",
        "SGV_Is_WorkLoop",
        "SGV_Emoji_Once",
        "SGV_Emoji_Persistent",
        "SGV_Emote_Scale"
      ],
      "initServerGlobalValues": {
        "SGV_Is_Giant": 1.0,
        "SGV_Tools_Visable": 0.0,
        "SGV_Solider_Idle": 0.0,
        "SGV_Is_Running": 0.0,
        "SGV_Is_WorkLoop": 0.0,
        "SGV_Emoji_Once": 0.0,
        "SGV_Emoji_Persistent": 0.0,
        "SGV_Emote_Scale": 1.399999976158142
      }
    },
    "hasModel": true,
    "hasConnectTrigger": true,
    "navigation": {
      "$type": "HJBMCDCJFDM",
      "DMPPFNJCPED": 3.0,
      "DLAJMKHACPK": 2.5,
      "DMPOCDLBDHF": 1.0,
      "NBNJBFFMFIJ": "RootNode"
    },
    "combat": {
      "property": {
        "hp": 99999.0,
        "attack": 20.0,
        "weight": 50.0,
        "isLockHP": true,
        "isGhostToAllied": true,
        "isGhostToEnemy": true,
        "ignoreDamageToSelf": true
      },
      "beHit": {
        "hitBloodEffect": "",
        "hitAutoRedirect": false,
        "muteAllHitText": true
      },
      "combatLock": {
        "lockShape": "CircleLockEnemy",
        "denyLockOn": true,
        "lockType": "Gadget_Lv1"
      }
    },
    "combatTemplate": "",
    "abilities": [
      {
        "abilityID": "ability_01",
        "abilityName": "V4_8_FairyBook_ClockworkToy_Anim_01",
        "abilityOverride": ""
      },
      {
        "abilityID": "ability_02",
        "abilityName": "FairyBook_EmojiManager_Once",
        "abilityOverride": ""
      },
      {
        "abilityID": "ability_03",
        "abilityName": "FairyBook_EmojiManager_Persistent",
        "abilityOverride": ""
      },
      {
        "abilityID": "Scene_RockGadget_Summon_Detect",
        "abilityName": "Scene_RockGadget_Summon_Detect",
        "abilityOverride": ""
      },
      {
        "abilityID": "FairyBook_TalkBubble_01_Ability",
        "abilityName": "FairyBook_TalkBubble_01_Ability",
        "abilityOverride": ""
      }
    ],
    "move": {
      "$type": "OEFHHKHPMCJ"
    },
    "stateLayers": {
      "defaultLayer": {
        "$type": "GBGJJIIEMBD",
        "layerIndexName": "",
        "CPAANEIJCGD": "",
        "stateIDs": {
          "ClockWork_Active": {
            "$type": "BEIEGKBABOF",
            "animatorStates": {
              "Wave": [],
              "Drink": [],
              "Working_BS": [],
              "WorkLoop": [],
              "Working_AS": [],
              "Working_Once": [],
              "StandUp": [],
              "Walk": [],
              "Run:": [],
              "Jump": [],
              "TurnRight": [],
              "TurnLeft": []
            }
          },
          "ClockWork_Deactive": {
            "$type": "BEIEGKBABOF",
            "animatorStates": {
              "Idle": [],
              "Fall": [],
              "Prostrate": [],
              "Sit": []
            }
          }
        }
      }
    },
    "billboard": {
      "$type": "KMCIKEIBFAH",
      "attachPoint": "BillboardAttach",
      "offset": {
        "y": 2.5999999046325684
      },
      "forceHideAllBars": true
    }
  },
  "V4_8_FairyBook_ClockworkToy_Anim_03": {
    "$type": "CJKJIENLOHD",
    "common": {
      "disableTickDistance": 100000.0
    },
    "model": {
      "bornEffect": "",
      "attachEffect": "",
      "setPerObjectShadowGroupID": true,
      "hasCharacterRenderering": true,
      "HBJIOPNMBOM": true,
      "KOCEMHIPJOP": true,
      "BKPFGNPLDNJ": ""
    },
    "globalValue": {
      "serverGlobalValues": [
        "SGV_Is_Giant",
        "SGV_Tools_Visable",
        "SGV_Solider_Idle",
        "SGV_Is_Running",
        "SGV_Is_WorkLoop",
        "SGV_Is_CapLight_Open",
        "SGV_Emoji_Once",
        "SGV_Emoji_Persistent",
        "SGV_Emote_Scale"
      ],
      "initServerGlobalValues": {
        "SGV_Is_Giant": 0.0,
        "SGV_Tools_Visable": 0.0,
        "SGV_Solider_Idle": 0.0,
        "SGV_Is_Running": 0.0,
        "SGV_Is_WorkLoop": 0.0,
        "SGV_Is_CapLight_Open": 0.0,
        "SGV_Emoji_Once": 0.0,
        "SGV_Emoji_Persistent": 0.0,
        "SGV_Emote_Scale": 0.699999988079071
      }
    },
    "hasModel": true,
    "hasConnectTrigger": true,
    "navigation": {
      "$type": "HJBMCDCJFDM",
      "DMPPFNJCPED": 1.7999999523162842,
      "DLAJMKHACPK": 1.2999999523162842,
      "DMPOCDLBDHF": 1.0,
      "NBNJBFFMFIJ": "RootNode"
    },
    "combat": {
      "property": {
        "hp": 99999.0,
        "attack": 20.0,
        "weight": 50.0,
        "isLockHP": true,
        "isGhostToAllied": true,
        "isGhostToEnemy": true,
        "ignoreDamageToSelf": true
      },
      "beHit": {
        "hitBloodEffect": "",
        "hitAutoRedirect": false,
        "muteAllHitText": true
      },
      "combatLock": {
        "lockShape": "CircleLockEnemy",
        "denyLockOn": true,
        "lockType": "Gadget_Lv1"
      }
    },
    "combatTemplate": "",
    "abilities": [
      {
        "abilityID": "ability_01",
        "abilityName": "V4_8_FairyBook_ClockworkToy_Anim_01",
        "abilityOverride": ""
      },
      {
        "abilityID": "ability_02",
        "abilityName": "FairyBook_EmojiManager_Once",
        "abilityOverride": ""
      },
      {
        "abilityID": "ability_03",
        "abilityName": "FairyBook_EmojiManager_Persistent",
        "abilityOverride": ""
      },
      {
        "abilityID": "Scene_RockGadget_Summon_Detect",
        "abilityName": "Scene_RockGadget_Summon_Detect",
        "abilityOverride": ""
      },
      {
        "abilityID": "FairyBook_TalkBubble_01_Ability",
        "abilityName": "FairyBook_TalkBubble_01_Ability",
        "abilityOverride": ""
      }
    ],
    "move": {
      "$type": "MMAPEFIEGAL",
      "target": "GroupGadgetEntity",
      "attachPoint": "",
      "followRotation": true,
      "syncTransToServer": true,
      "syncInterval": 0.5,
      "handleInLateTick": true,
      "LFOHLEKJFBI": ""
    },
    "misc": {
      "escapeEffect": "",
      "targetIndicatorYOffset": 1.399999976158142
    },
    "stateLayers": {
      "defaultLayer": {
        "$type": "GBGJJIIEMBD",
        "layerIndexName": "",
        "CPAANEIJCGD": "",
        "stateIDs": {
          "ClockWork_Active": {
            "$type": "BEIEGKBABOF",
            "animatorStates": {
              "Wave": [],
              "Drink": [],
              "Working_BS": [],
              "WorkLoop": [],
              "Working_AS": [],
              "Working_Once": [],
              "StandUp": [],
              "Walk": [],
              "Run:": [],
              "Jump": [],
              "TurnRight": [],
              "TurnLeft": []
            }
          },
          "ClockWork_Deactive": {
            "$type": "BEIEGKBABOF",
            "animatorStates": {
              "Idle": [],
              "Fall": [],
              "Prostrate": [],
              "Sit": []
            }
          }
        }
      }
    },
    "billboard": {
      "$type": "KMCIKEIBFAH",
      "attachPoint": "BillboardAttach",
      "offset": {
        "y": 1.2999999523162842
      },
      "forceHideAllBars": true
    }
  },
  "V4_8_FairyBook_Move_And_Freeze_Ghost_01": {
    "$type": "CJKJIENLOHD",
    "common": {
      "disableTickDistance": 100.0,
      "isForceRefreshAuthotiryToHost": true
    },
    "model": {
      "bornEffect": "",
      "attachEffect": "",
      "setPerObjectShadowGroupID": true,
      "hasCharacterRenderering": true,
      "HBJIOPNMBOM": true,
      "KOCEMHIPJOP": true,
      "BKPFGNPLDNJ": ""
    },
    "globalValue": {
      "serverGlobalValues": [
        "SGV_Turn_to_Front_Delay",
        "SGV_JumpTime",
        "SGV_Tri_Wave",
        "SGV_Wave_CD",
        "SGV_Tri_WorkOnce",
        "SGV_Intro_Delay",
        "SGV_Emoji_Once",
        "SGV_Emoji_Persistent",
        "SGV_Emote_Scale"
      ],
      "initServerGlobalValues": {
        "SGV_Turn_to_Front_Delay": 5.0,
        "SGV_JumpTime": 1.7000000476837158,
        "SGV_Tri_Wave": 0.0,
        "SGV_Wave_CD": 2.0999999046325684,
        "SGV_Tri_WorkOnce": 2.299999952316284,
        "SGV_Intro_Delay": 3.0,
        "SGV_Emoji_Once": 0.0,
        "SGV_Emoji_Persistent": 0.0,
        "SGV_Emote_Scale": 0.699999988079071
      }
    },
    "hasModel": true,
    "hasConnectTrigger": true,
    "navigation": {
      "$type": "HJBMCDCJFDM",
      "DMPPFNJCPED": 1.7999999523162842,
      "DLAJMKHACPK": 1.2999999523162842,
      "DMPOCDLBDHF": 1.0,
      "NBNJBFFMFIJ": "RootNode"
    },
    "combat": {
      "property": {
        "hp": 99999.0,
        "attack": 20.0,
        "weight": 50.0,
        "isLockHP": true,
        "isGhostToAllied": true,
        "isGhostToEnemy": true,
        "ignoreDamageToSelf": true
      },
      "beHit": {
        "hitBloodEffect": "",
        "hitAutoRedirect": false,
        "muteAllHitText": true
      },
      "combatLock": {
        "lockShape": "CircleLockEnemy",
        "denyLockOn": true,
        "lockType": "Gadget_Lv1"
      }
    },
    "combatTemplate": "",
    "abilities": [
      {
        "abilityID": "ability_01",
        "abilityName": "V4_8_FairyBook_Move_And_Freeze_Ghost_01",
        "abilityOverride": ""
      },
      {
        "abilityID": "ability_02",
        "abilityName": "V4_8_FairyBook_Move_And_Freeze_Ghost_Challenge_failed_01",
        "abilityOverride": ""
      },
      {
        "abilityID": "ability_03",
        "abilityName": "FairyBook_EmojiManager_Once",
        "abilityOverride": ""
      },
      {
        "abilityID": "ability_04",
        "abilityName": "FairyBook_EmojiManager_Persistent",
        "abilityOverride": ""
      },
      {
        "abilityID": "Scene_RockGadget_Summon_Detect",
        "abilityName": "Scene_RockGadget_Summon_Detect",
        "abilityOverride": ""
      },
      {
        "abilityID": "FairyBook_TalkBubble_01_Ability",
        "abilityName": "FairyBook_TalkBubble_01_Ability",
        "abilityOverride": ""
      }
    ],
    "field": {
      "concernType": "LocalAvatar",
      "shape": "CircleR2H2",
      "fromShape": "",
      "triggerInfinite": true,
      "lifeInfinite": true,
      "checkInterval": 0.5,
      "overwriteCampType": true,
      "campType": "SelfCamp",
      "colliderName": "",
      "fromColliderName": ""
    },
    "move": {
      "$type": "OEFHHKHPMCJ"
    },
    "misc": {
      "escapeEffect": "",
      "targetIndicatorYOffset": 1.399999976158142
    },
    "stateLayers": {
      "defaultLayer": {
        "$type": "GBGJJIIEMBD",
        "layerIndexName": "",
        "CPAANEIJCGD": "",
        "stateIDs": {
          "ClockWork_Active": {
            "$type": "BEIEGKBABOF",
            "animatorStates": {
              "Jump2B": [],
              "Jump2F": [],
              "Wave": []
            }
          },
          "ClockWork_Deactive": {
            "$type": "BEIEGKBABOF",
            "animatorStates": {
              "Idle_F": [],
              "Idle_B": []
            }
          }
        }
      }
    },
    "billboard": {
      "$type": "KMCIKEIBFAH",
      "attachPoint": "BillboardAttach",
      "offset": {
        "y": 1.2999999523162842
      },
      "forceHideAllBars": true
    }
  },
  "V4_8_FairyBook_MelodramaClockwork_Stone_01": {
    "$type": "CJKJIENLOHD",
    "common": {
      "disableTickDistance": 100000.0
    },
    "specialPoint": {
      "elementAbsorb": "RootNode",
      "elementPendant": "",
      "elementDrop": "RootNode",
      "bulletAim": "AimPoint"
    },
    "globalValue": {
      "serverGlobalValues": [
        "SGV_IS_CWS_Driver",
        "SGV_CWS_GroupTag",
        "SGV_Anim_Start_Progress",
        "SGV_Anim_Total_Progress",
        "SGV_Max_Turns_Rate",
        "SGV_DeltaPrg_PerHit",
        "SGV_LerpTime_PerHit",
        "SGV_Start_Turn_Back_Delay",
        "SGV_Turn_Back_Speed",
        "SGV_Clockwork_Platform_Type"
      ],
      "initServerGlobalValues": {
        "SGV_IS_CWS_Driver": 1.0,
        "SGV_CWS_GroupTag": 0.0,
        "SGV_Anim_Start_Progress": 0.0,
        "SGV_Anim_Total_Progress": 100000.0,
        "SGV_Max_Turns_Rate": 30000.0,
        "SGV_DeltaPrg_PerHit": 12000.0,
        "SGV_LerpTime_PerHit": 3.4000000953674316,
        "SGV_Start_Turn_Back_Delay": 2.0,
        "SGV_Turn_Back_Speed": 6000.0,
        "SGV_Clockwork_Platform_Type": 0.0
      }
    },
    "KJGJCNANPJP": true,
    "hasModel": true,
    "combat": {
      "property": {
        "hp": 99999.0,
        "attack": 20.0,
        "weight": 40.0,
        "isLockHP": true,
        "isGhostToAllied": true
      },
      "beHit": {
        "hitBloodEffect": "",
        "hitAutoRedirect": false,
        "muteAllHit": true,
        "muteAllHitText": true
      },
      "combatLock": {
        "lockShape": "CircleLockEnemy",
        "lockType": "Gadget_Lv1"
      }
    },
    "combatTemplate": "",
    "abilities": [
      {
        "abilityID": "ability_01",
        "abilityName": "V4_8_FairyBook_MelodramaClockwork_Stone_01",
        "abilityOverride": ""
      },
      {
        "abilityID": "ability_02",
        "abilityName": "V4_8_FairyBook_Clockwork_Anim_Logic",
        "abilityOverride": ""
      },
      {
        "abilityID": "ability_03",
        "abilityName": "V4_8_FairyBook_Clockwork_GV_Broadcast_StoneClockwork_SP",
        "abilityOverride": ""
      },
      {
        "abilityID": "Scene_RockGadget_Summon_Detect",
        "abilityName": "Scene_RockGadget_Summon_Detect",
        "abilityOverride": ""
      },
      {
        "abilityID": "V4_8_FairyBook_Common_StateResistance",
        "abilityName": "V4_8_FairyBook_Common_StateResistance",
        "abilityOverride": ""
      }
    ]
  },
  "V4_8_FairyBook_MelodramaClockwork_Stone_02": {
    "$type": "CJKJIENLOHD",
    "common": {
      "disableTickDistance": 100000.0
    },
    "specialPoint": {
      "elementAbsorb": "RootNode",
      "elementPendant": "",
      "elementDrop": "RootNode",
      "bulletAim": "AimPoint"
    },
    "hasModel": true,
    "combat": {
      "property": {
        "hp": 99999.0,
        "attack": 20.0,
        "weight": 40.0,
        "isLockHP": true,
        "isGhostToAllied": true
      },
      "beHit": {
        "hitBloodEffect": "",
        "hitAutoRedirect": false,
        "muteAllHitText": true
      },
      "combatLock": {
        "lockShape": "CircleLockEnemy",
        "lockType": "Gadget_Lv1"
      }
    },
    "combatTemplate": "",
    "abilities": [
      {
        "abilityID": "ability_01",
        "abilityName": "V4_8_FairyBook_MelodramaClockwork_Stone_02",
        "abilityOverride": ""
      },
      {
        "abilityID": "Scene_RockGadget_Summon_Detect",
        "abilityName": "Scene_RockGadget_Summon_Detect",
        "abilityOverride": ""
      },
      {
        "abilityID": "V4_8_FairyBook_Common_StateResistance",
        "abilityName": "V4_8_FairyBook_Common_StateResistance",
        "abilityOverride": ""
      }
    ]
  },
  "V4_8_FairyBook_Clockwork_StarNote_01": {
    "$type": "CJKJIENLOHD",
    "common": {
      "disableTickDistance": 100.0
    },
    "hasModel": true,
    "combatTemplate": "",
    "abilities": [
      {
        "abilityID": "ability_01",
        "abilityName": "V4_8_FairyBook_Clockwork_StarNote_01",
        "abilityOverride": ""
      },
      {
        "abilityID": "Scene_RockGadget_Summon_Detect",
        "abilityName": "Scene_RockGadget_Summon_Detect",
        "abilityOverride": ""
      }
    ]
  },
  "V4_8_FairyBook_Clockwork_StarNote_02": {
    "$type": "CJKJIENLOHD",
    "common": {
      "disableTickDistance": 100.0
    },
    "globalValue": {
      "serverGlobalValues": ["SGV_ExtraCol_On"],
      "initServerGlobalValues": {
        "SGV_ExtraCol_On": 0.0
      }
    },
    "hasModel": true,
    "combatTemplate": "",
    "abilities": [
      {
        "abilityID": "ability_01",
        "abilityName": "V4_8_FairyBook_Clockwork_StarNote_02",
        "abilityOverride": ""
      },
      {
        "abilityID": "Scene_RockGadget_Summon_Detect",
        "abilityName": "Scene_RockGadget_Summon_Detect",
        "abilityOverride": ""
      }
    ],
    "move": {
      "$type": "OEFHHKHPMCJ"
    }
  },
  "V4_8_FairyBook_ClockworkTown_SpecialCam_01": {
    "$type": "CJKJIENLOHD",
    "common": {},
    "hasModel": true,
    "combat": {
      "property": {
        "hp": 9999999.0,
        "isInvincible": true,
        "isLockHP": true,
        "isGhostToAllied": true,
        "isGhostToEnemy": true,
        "canTriggerBullet": false
      },
      "beHit": {
        "hitBloodEffect": "",
        "hitAutoRedirect": false,
        "muteAllHitText": true
      },
      "combatLock": {
        "lockShape": "CircleLockEnemy",
        "denyLockOn": true,
        "lockType": "Gadget_Lv1"
      }
    },
    "combatTemplate": "",
    "abilities": [
      {
        "abilityID": "V4_8_FairyBook_ClockworkTown_SpecialCam_01",
        "abilityName": "V4_8_FairyBook_ClockworkTown_SpecialCam_01",
        "abilityOverride": ""
      }
    ],
    "move": {
      "$type": "MMAPEFIEGAL",
      "target": "GroupGadgetEntity",
      "attachPoint": "",
      "LFOHLEKJFBI": ""
    },
    "cameraAdjust": {
      "priority": 1.0,
      "enterRadius": 3.0,
      "exitRadius": 4.25,
      "heightAdjust": 1.0,
      "fov": 45.0,
      "zoom": 9.0,
      "sphericalYUp": 30.0,
      "sphericalYDown": 20.0,
      "autoTurnStartMin": 0.0,
      "autoTurnStartMax": 0.0,
      "autoTurnEndMin": 55.0,
      "autoTurnEndMax": 60.0,
      "enterShape": "CircleR30",
      "exitShape": "CircleR40",
      "enterAngle": 360.0,
      "exitAngle": 999.0,
      "OEAICACKIFD": 1.5
    }
  },
  "V4_8_FairyBook_ClockworkTown_SpecialCam_02": {
    "$type": "CJKJIENLOHD",
    "common": {},
    "hasModel": true,
    "combat": {
      "property": {
        "hp": 9999999.0,
        "isInvincible": true,
        "isLockHP": true,
        "isGhostToAllied": true,
        "isGhostToEnemy": true,
        "canTriggerBullet": false
      },
      "beHit": {
        "hitBloodEffect": "",
        "hitAutoRedirect": false,
        "muteAllHitText": true
      },
      "combatLock": {
        "lockShape": "CircleLockEnemy",
        "denyLockOn": true,
        "lockType": "Gadget_Lv1"
      }
    },
    "combatTemplate": "",
    "abilities": [
      {
        "abilityID": "V4_8_FairyBook_ClockworkTown_SpecialCam_01",
        "abilityName": "V4_8_FairyBook_ClockworkTown_SpecialCam_01",
        "abilityOverride": ""
      }
    ],
    "move": {
      "$type": "MMAPEFIEGAL",
      "target": "GroupGadgetEntity",
      "attachPoint": "",
      "LFOHLEKJFBI": ""
    },
    "cameraAdjust": {
      "priority": 1.0,
      "enterRadius": 9.0,
      "exitRadius": 9.0,
      "heightAdjust": 1.0,
      "fov": 50.0,
      "zoom": 5.0,
      "sphericalY": -5.0,
      "sphericalYUp": 30.0,
      "sphericalYDown": 20.0,
      "autoTurnStartMin": 0.0,
      "autoTurnStartMax": 0.0,
      "autoTurnEndMin": 55.0,
      "autoTurnEndMax": 60.0,
      "enterShape": "CircleR30",
      "exitShape": "CircleR40",
      "enterAngle": 360.0,
      "exitAngle": 999.0,
      "OEAICACKIFD": 1.5
    }
  },
  "V4_8_FairyBook_ClockworkTown_SpecialCam_03": {
    "$type": "CJKJIENLOHD",
    "common": {},
    "hasModel": true,
    "combat": {
      "property": {
        "hp": 9999999.0,
        "isInvincible": true,
        "isLockHP": true,
        "isGhostToAllied": true,
        "isGhostToEnemy": true,
        "canTriggerBullet": false
      },
      "beHit": {
        "hitBloodEffect": "",
        "hitAutoRedirect": false,
        "muteAllHitText": true
      },
      "combatLock": {
        "lockShape": "CircleLockEnemy",
        "denyLockOn": true,
        "lockType": "Gadget_Lv1"
      }
    },
    "combatTemplate": "",
    "abilities": [
      {
        "abilityID": "V4_8_FairyBook_ClockworkTown_SpecialCam_01",
        "abilityName": "V4_8_FairyBook_ClockworkTown_SpecialCam_01",
        "abilityOverride": ""
      }
    ],
    "move": {
      "$type": "MMAPEFIEGAL",
      "target": "GroupGadgetEntity",
      "attachPoint": "",
      "LFOHLEKJFBI": ""
    },
    "cameraAdjust": {
      "priority": 1.0,
      "enterRadius": 9.0,
      "exitRadius": 9.0,
      "heightAdjust": 1.0,
      "fov": 50.0,
      "zoom": 5.0,
      "sphericalY": -5.0,
      "sphericalYUp": 30.0,
      "sphericalYDown": 20.0,
      "autoTurnStartMin": 0.0,
      "autoTurnStartMax": 0.0,
      "autoTurnEndMin": 55.0,
      "autoTurnEndMax": 60.0,
      "enterShape": "CircleR30",
      "exitShape": "CircleR40",
      "enterAngle": 360.0,
      "exitAngle": 999.0,
      "OEAICACKIFD": 1.5
    }
  },
  "V4_8_FairyBook_ClockworkTown_SpecialCam_04": {
    "$type": "CJKJIENLOHD",
    "common": {},
    "hasModel": true,
    "combat": {
      "property": {
        "hp": 9999999.0,
        "isInvincible": true,
        "isLockHP": true,
        "isGhostToAllied": true,
        "isGhostToEnemy": true,
        "canTriggerBullet": false
      },
      "beHit": {
        "hitBloodEffect": "",
        "hitAutoRedirect": false,
        "muteAllHitText": true
      },
      "combatLock": {
        "lockShape": "CircleLockEnemy",
        "denyLockOn": true,
        "lockType": "Gadget_Lv1"
      }
    },
    "combatTemplate": "",
    "abilities": [
      {
        "abilityID": "V4_8_FairyBook_ClockworkTown_SpecialCam_01",
        "abilityName": "V4_8_FairyBook_ClockworkTown_SpecialCam_01",
        "abilityOverride": ""
      }
    ],
    "move": {
      "$type": "MMAPEFIEGAL",
      "attachPoint": "",
      "LFOHLEKJFBI": ""
    },
    "cameraAdjust": {
      "priority": 1.0,
      "enterRadius": 15.0,
      "exitRadius": 15.0,
      "heightAdjust": 2.0,
      "fov": 55.0,
      "zoom": 8.0,
      "sphericalY": 20.0,
      "lockSphericalY": false,
      "sphericalYUp": 60.0,
      "autoTurnStartMin": 0.0,
      "autoTurnStartMax": 0.0,
      "autoTurnEndMin": 55.0,
      "autoTurnEndMax": 60.0,
      "enterShape": "CircleR30",
      "exitShape": "CircleR40",
      "enterAngle": 360.0,
      "exitAngle": 999.0,
      "OEAICACKIFD": 1.0
    }
  },
  "V4_8_FairyBook_ClockworkTown_SpecialCam_05": {
    "$type": "CJKJIENLOHD",
    "common": {},
    "hasModel": true,
    "combat": {
      "property": {
        "hp": 9999999.0,
        "isInvincible": true,
        "isLockHP": true,
        "isGhostToAllied": true,
        "isGhostToEnemy": true,
        "canTriggerBullet": false
      },
      "beHit": {
        "hitBloodEffect": "",
        "hitAutoRedirect": false,
        "muteAllHitText": true
      },
      "combatLock": {
        "lockShape": "CircleLockEnemy",
        "denyLockOn": true,
        "lockType": "Gadget_Lv1"
      }
    },
    "combatTemplate": "",
    "abilities": [
      {
        "abilityID": "V4_8_FairyBook_ClockworkTown_SpecialCam_01",
        "abilityName": "V4_8_FairyBook_ClockworkTown_SpecialCam_01",
        "abilityOverride": ""
      }
    ],
    "move": {
      "$type": "MMAPEFIEGAL",
      "attachPoint": "",
      "LFOHLEKJFBI": ""
    },
    "cameraAdjust": {
      "priority": 1.0,
      "enterRadius": 15.0,
      "exitRadius": 15.0,
      "heightAdjust": 2.0,
      "fov": 55.0,
      "zoom": 8.0,
      "sphericalY": 10.0,
      "lockSphericalY": false,
      "sphericalYUp": 40.0,
      "sphericalYDown": 10.0,
      "autoTurnStartMin": 0.0,
      "autoTurnStartMax": 0.0,
      "autoTurnEndMin": 55.0,
      "autoTurnEndMax": 60.0,
      "enterShape": "CircleR30",
      "exitShape": "CircleR40",
      "enterAngle": 360.0,
      "exitAngle": 999.0,
      "OEAICACKIFD": 1.0
    }
  },
  "V4_8_FairyBook_Clockwork_World_Button_Small": {
    "$type": "CJKJIENLOHD",
    "common": {
      "disableTickDistance": 100.0
    },
    "globalValue": {
      "serverGlobalValues": ["SGV_Button_Big"],
      "initServerGlobalValues": {
        "SGV_Button_Big": 0.0
      }
    },
    "hasModel": true,
    "combatTemplate": "",
    "abilities": [
      {
        "abilityID": "ability_01",
        "abilityName": "V4_8_FairyBook_Clockwork_World_Button",
        "abilityOverride": ""
      },
      {
        "abilityID": "Scene_RockGadget_Summon_Detect",
        "abilityName": "Scene_RockGadget_Summon_Detect",
        "abilityOverride": ""
      }
    ]
  },
  "V4_8_FairyBook_Clockwork_World_Button_Big": {
    "$type": "CJKJIENLOHD",
    "common": {
      "disableTickDistance": 100.0
    },
    "globalValue": {
      "serverGlobalValues": ["SGV_Button_Big"],
      "initServerGlobalValues": {
        "SGV_Button_Big": 1.0
      }
    },
    "hasModel": true,
    "combatTemplate": "",
    "abilities": [
      {
        "abilityID": "ability_01",
        "abilityName": "V4_8_FairyBook_Clockwork_World_Button",
        "abilityOverride": ""
      },
      {
        "abilityID": "Scene_RockGadget_Summon_Detect",
        "abilityName": "Scene_RockGadget_Summon_Detect",
        "abilityOverride": ""
      }
    ]
  },
  "V4_8_FairyBook_Talk_Gadget": {
    "$type": "CJKJIENLOHD",
    "common": {},
    "hasModel": true,
    "combatTemplate": "",
    "uiInteract": {
      "gadgetUIBtnCfgPath": "TEST/TEST_Chest_Btn",
      "uiName": "",
      "icon": "",
      "groupName": "",
      "confirmDialogTitle": "",
      "confirmDialogContent": "",
      "canInteractInCombat": false
    },
    "intee": {
      "triggerRadius": 2.0999999046325684,
      "triggerHeight": 3.0,
      "KAMIAMNMFCP": ""
    }
  },
  "V4_8_FairyBook_Common_Emote_Gadget": {
    "$type": "CJKJIENLOHD",
    "common": {
      "disableTickDistance": 100.0
    },
    "globalValue": {
      "serverGlobalValues": [
        "SGV_Emoji_Once",
        "SGV_Emoji_Persistent",
        "SGV_Emote_Scale"
      ],
      "initServerGlobalValues": {
        "SGV_Emoji_Once": 0.0,
        "SGV_Emoji_Persistent": 0.0,
        "SGV_Emote_Scale": 0.699999988079071
      }
    },
    "combat": {
      "property": {
        "hp": 9999999.0,
        "isInvincible": true,
        "isLockHP": true,
        "isGhostToAllied": true,
        "isGhostToEnemy": true,
        "canTriggerBullet": false
      },
      "beHit": {
        "hitBloodEffect": "",
        "hitAutoRedirect": false,
        "muteAllHitText": true
      },
      "combatLock": {
        "lockShape": "CircleLockEnemy",
        "denyLockOn": true,
        "lockType": "Gadget_Lv1"
      }
    },
    "combatTemplate": "",
    "abilities": [
      {
        "abilityID": "ability_01",
        "abilityName": "FairyBook_EmojiManager_Once",
        "abilityOverride": ""
      },
      {
        "abilityID": "ability_02",
        "abilityName": "FairyBook_EmojiManager_Persistent",
        "abilityOverride": ""
      }
    ]
  },
  "V4_8_FairyBook_ClockworkPlatform_Normal_01": {
    "$type": "CJKJIENLOHD",
    "common": {
      "disableTickDistance": 100000.0
    },
    "model": {
      "bornEffect": "",
      "attachEffect": "",
      "KOCEMHIPJOP": true,
      "BKPFGNPLDNJ": ""
    },
    "globalValue": {
      "serverGlobalValues": ["SGV_Show_Airscrew"],
      "initServerGlobalValues": {
        "SGV_Show_Airscrew": 1.0
      }
    },
    "hasModel": true,
    "combat": {
      "property": {
        "hp": 99999.0,
        "attack": 20.0,
        "weight": 40.0,
        "isLockHP": true,
        "isGhostToAllied": true,
        "isGhostToEnemy": true,
        "canTriggerBullet": false
      },
      "beHit": {
        "hitBloodEffect": "",
        "hitAutoRedirect": false,
        "muteAllHit": true,
        "muteAllHitEffect": true,
        "muteAllHitText": true
      },
      "die": {
        "dieEndTime": 1.0,
        "dieDisappearEffect": ""
      }
    },
    "combatTemplate": "",
    "abilities": [
      {
        "abilityID": "ability_01",
        "abilityName": "V4_8_FairyBook_Clockwork_Carriage_Airscrew_Control",
        "abilityOverride": ""
      },
      {
        "abilityID": "ability_02",
        "abilityName": "V4_8_FairyBook_ClockworkPlatform_Normal_DitherControl_01",
        "abilityOverride": ""
      },
      {
        "abilityID": "Scene_RockGadget_Summon_Detect",
        "abilityName": "Scene_RockGadget_Summon_Detect",
        "abilityOverride": ""
      }
    ],
    "move": {
      "$type": "OEFHHKHPMCJ"
    }
  },
  "V4_8_FairyBook_ClockworkCity_FdGate_01": {
    "$type": "CJKJIENLOHD",
    "common": {
      "disableTickDistance": 100.0
    },
    "globalValue": {
      "serverGlobalValues": ["SGV_GateScale"],
      "initServerGlobalValues": {
        "SGV_GateScale": 1.399999976158142
      }
    },
    "hasModel": true,
    "combat": {
      "property": {
        "hp": 99999.0,
        "isInvincible": true,
        "isLockHP": true,
        "isGhostToAllied": true,
        "isGhostToEnemy": true
      }
    },
    "combatTemplate": "",
    "abilities": [
      {
        "abilityID": "V4_8_FairyBook_ClockworkCity_FdGate_01",
        "abilityName": "V4_8_FairyBook_ClockworkCity_FdGate_01",
        "abilityOverride": ""
      }
    ],
    "stateLayers": {
      "defaultLayer": {
        "$type": "GBGJJIIEMBD",
        "layerIndexName": "",
        "CPAANEIJCGD": "",
        "stateIDs": {
          "All": {
            "$type": "BEIEGKBABOF",
            "animatorStates": {
              "Open": [],
              "Close": []
            },
            "cullingModelAlwaysAnimate": true
          }
        }
      }
    },
    "gadgetAction": {
      "gadgetStateActionList": [
        {
          "$type": "FJGKLJLPOGL",
          "intID": "GadgetState",
          "syncState": true
        }
      ]
    }
  },
  "SceneObj_Gather_NoEff": {
    "$type": "CJKJIENLOHD",
    "combatTemplate": "",
    "misc": {
      "pickup": {
        "pickType": "Select",
        "isStatic": true,
        "bornEffect": "",
        "dropEffect": "",
        "attractAudio": ""
      },
      "escapeEffect": ""
    }
  },
  "V4_8_FairyBook_ClockWorkCity_MultiLineTele_Camera_01": {
    "$type": "CJKJIENLOHD",
    "common": {},
    "hasModel": true,
    "combat": {
      "property": {
        "hp": 9999999.0,
        "isInvincible": true,
        "isLockHP": true,
        "isGhostToAllied": true,
        "isGhostToEnemy": true,
        "canTriggerBullet": false
      },
      "beHit": {
        "hitBloodEffect": "",
        "hitAutoRedirect": false,
        "muteAllHitText": true
      },
      "combatLock": {
        "lockShape": "CircleLockEnemy",
        "denyLockOn": true,
        "lockType": "Gadget_Lv1"
      }
    },
    "combatTemplate": "",
    "abilities": [
      {
        "abilityID": "V4_8_FairyBook_ClockWorkCity_MultiLineTele_Camera_01",
        "abilityName": "V4_8_FairyBook_ClockWorkCity_MultiLineTele_Camera_01",
        "abilityOverride": ""
      }
    ],
    "move": {
      "$type": "MMAPEFIEGAL",
      "attachPoint": "CameraLook",
      "followPositionSmoothedDampTime": 0.20000000298023224,
      "LFOHLEKJFBI": ""
    },
    "partControl": {
      "parts": [
        {
          "$type": "INCPGKCDCIO",
          "angularSpeed": 3600.0,
          "partRootName": "RootNode",
          "forwardBy": "NamedTransform",
          "rotateBy": "ForwardTransLocal",
          "forwardByTransName": "RootNode",
          "limitHorizontal": 360.0,
          "limitVertical": 0.0,
          "targetType": "ActionSetTarget",
          "KEAJBDBGBJE": true
        }
      ]
    }
  },
  "V4_8_FairyBook_ClockWorkCity_MultiLineTele_Camera_02": {
    "$type": "CJKJIENLOHD",
    "common": {},
    "specialPoint": {
      "elementAbsorb": "RootNode",
      "elementPendant": "",
      "elementDrop": "RootNode",
      "bulletAim": "AimPoint"
    },
    "hasModel": true,
    "combat": {
      "property": {
        "hp": 9999999.0,
        "isInvincible": true,
        "isLockHP": true,
        "isGhostToAllied": true,
        "isGhostToEnemy": true,
        "canTriggerBullet": false
      },
      "beHit": {
        "hitBloodEffect": "",
        "hitAutoRedirect": false,
        "muteAllHitText": true
      },
      "combatLock": {
        "lockShape": "CircleLockEnemy",
        "denyLockOn": true,
        "lockType": "Gadget_Lv1"
      }
    },
    "combatTemplate": "",
    "abilities": [
      {
        "abilityID": "V4_8_FairyBook_ClockWorkCity_MultiLineTele_Camera_02",
        "abilityName": "V4_8_FairyBook_ClockWorkCity_MultiLineTele_Camera_02",
        "abilityOverride": ""
      }
    ],
    "move": {
      "$type": "MMAPEFIEGAL",
      "target": "GroupGadgetEntity",
      "attachPoint": "",
      "LFOHLEKJFBI": ""
    }
  },
  "V4_8_FairyBook_KiraraWQ_CameraGadget": {
    "$type": "CJKJIENLOHD",
    "common": {
      "disableTickDistance": 100000.0,
      "isForceRefreshAuthotiryToHost": true
    },
    "hasModel": true,
    "combat": {
      "property": {
        "hp": 9999999.0,
        "isInvincible": true,
        "isLockHP": true,
        "isGhostToAllied": true,
        "isGhostToEnemy": true,
        "canTriggerBullet": false
      },
      "beHit": {
        "hitBloodEffect": "",
        "hitAutoRedirect": false,
        "muteAllHitText": true
      },
      "combatLock": {
        "lockShape": "CircleLockEnemy",
        "denyLockOn": true,
        "lockType": "Gadget_Lv1"
      }
    },
    "combatTemplate": "",
    "abilities": [
      {
        "abilityID": "V4_8_FairyBook_KiraraWQ_CameraGadget",
        "abilityName": "V4_8_FairyBook_KiraraWQ_CameraGadget",
        "abilityOverride": ""
      }
    ]
  }
}
