{
  "Gorou_Arrow_01": {
    "$type": "CJKJIENLOHD",
    "common": {
      "effectAttachShape": {
        "$type": "OMIODKONOMG",
        "scaleX": 0.5,
        "scaleY": 0.5
      },
      "affectedByWorld": true
    },
    "combat": {
      "property": {
        "useCreatorProperty": true,
        "isInvincible": true,
        "canTriggerBullet": false
      },
      "beHit": {
        "hitBloodEffect": "",
        "muteAllHit": true,
        "muteAllHitEffect": true,
        "muteAllHitText": true
      },
      "combatLock": {
        "lockShape": "CircleLockEnemy",
        "denyLockOn": true,
        "lockType": "Gadget_Lv1"
      },
      "animEvents": {
        "ATK01": {
          "attackPattern": {
            "$type": "ConfigAttackBox",
            "triggerType": "TriggerNoRepeat",
            "checkHitLayerType": "Both",
            "born": {
              "$type": "ConfigBornByCollisionPoint",
              "offset": {
                "x": 0.0,
                "y": 0.0,
                "z": -0.5
              }
            },
            "size": {
              "x": 0.10000000149011612,
              "y": 0.10000000149011612,
              "z": 1.0
            }
          },
          "attackInfo": {
            "attackTag": "NormalAttack_01",
            "attenuationTag": "",
            "attenuationGroup": "default",
            "attackProperty": {
              "actorGrassSubHurtDelta": 0.0,
              "actorWindSubHurtDelta": 0.0,
              "elementDurability": 100.0,
              "strikeType": "Pierce",
              "enBreak": 13.170000076293945,
              "GLKMCMDJBIK": 0.0
            },
            "hitPattern": {
              "onHitEffectName": "default",
              "hitImpulseY": "",
              "hitImpulseType": "LV1"
            },
            "cameraShake": {
              "shakeRange": 0.019999999552965164,
              "shakeTime": 0.10000000149011612
            },
            "canBeModifiedBy": "OriginOwner"
          }
        }
      }
    },
    "combatTemplate": "",
    "abilities": [
      {
        "abilityID": "Arrow_Material",
        "abilityName": "Avatar_Gorou_ShootArrow_Light_Material",
        "abilityOverride": ""
      },
      {
        "abilityID": "Arrow_Damage",
        "abilityName": "Avatar_Gorou_ShootArrow_Damage",
        "abilityOverride": ""
      }
    ],
    "timer": {
      "lifeTime": 8.0
    },
    "move": {
      "$type": "BFICFPAEFPB",
      "speed": 40.0,
      "DPAAFHNMHHN": {
        "$type": "IFAANDLLGLP"
      },
      "straightRange": 7.0,
      "gravityOfAcceleration": 15.0,
      "airResistance": 0.009999999776482582
    },
    "gadget": {
      "$type": "JENBBNKGGJP",
      "collision": {
        "targetType": "Enemy"
      },
      "triggerActions": [
        {
          "$type": "NMMEILICBAE",
          "attackEvent": "ATK01"
        },
        {
          "$type": "AILPBJHDHDG",
          "abilityName": "Avatar_Gorou_ShootArrow_Light_Material"
        }
      ],
      "fireAISoundEvent": true
    }
  },
  "Gorou_Arrow_02": {
    "$type": "CJKJIENLOHD",
    "common": {
      "effectAttachShape": {
        "$type": "OMIODKONOMG",
        "scaleX": 0.5,
        "scaleY": 0.5
      },
      "affectedByWorld": true
    },
    "combat": {
      "property": {
        "useCreatorProperty": true,
        "isInvincible": true,
        "canTriggerBullet": false
      },
      "beHit": {
        "hitBloodEffect": "",
        "muteAllHit": true,
        "muteAllHitEffect": true,
        "muteAllHitText": true
      },
      "combatLock": {
        "lockShape": "CircleLockEnemy",
        "denyLockOn": true,
        "lockType": "Gadget_Lv1"
      },
      "animEvents": {
        "ATK02": {
          "attackPattern": {
            "$type": "ConfigAttackBox",
            "triggerType": "TriggerNoRepeat",
            "checkHitLayerType": "Both",
            "born": {
              "$type": "ConfigBornByCollisionPoint",
              "offset": {
                "x": 0.0,
                "y": 0.0,
                "z": -0.5
              }
            },
            "size": {
              "x": 0.10000000149011612,
              "y": 0.10000000149011612,
              "z": 1.0
            }
          },
          "attackInfo": {
            "attackTag": "NormalAttack_02",
            "attenuationTag": "",
            "attenuationGroup": "default",
            "attackProperty": {
              "actorGrassSubHurtDelta": 0.0,
              "actorWindSubHurtDelta": 0.0,
              "elementDurability": 100.0,
              "strikeType": "Pierce",
              "enBreak": 12.960000038146973,
              "GLKMCMDJBIK": 0.0
            },
            "hitPattern": {
              "onHitEffectName": "default",
              "hitImpulseY": "",
              "hitImpulseType": "LV1"
            },
            "cameraShake": {
              "shakeRange": 0.019999999552965164,
              "shakeTime": 0.10000000149011612
            },
            "canBeModifiedBy": "OriginOwner"
          }
        }
      }
    },
    "combatTemplate": "",
    "abilities": [
      {
        "abilityID": "Arrow_Material",
        "abilityName": "Avatar_Gorou_ShootArrow_Light_Material",
        "abilityOverride": ""
      },
      {
        "abilityID": "Arrow_Damage",
        "abilityName": "Avatar_Gorou_ShootArrow_Damage",
        "abilityOverride": ""
      }
    ],
    "timer": {
      "lifeTime": 8.0
    },
    "move": {
      "$type": "BFICFPAEFPB",
      "speed": 40.0,
      "DPAAFHNMHHN": {
        "$type": "IFAANDLLGLP"
      },
      "straightRange": 7.0,
      "gravityOfAcceleration": 15.0,
      "airResistance": 0.009999999776482582
    },
    "gadget": {
      "$type": "JENBBNKGGJP",
      "collision": {
        "targetType": "Enemy"
      },
      "triggerActions": [
        {
          "$type": "NMMEILICBAE",
          "attackEvent": "ATK02"
        },
        {
          "$type": "AILPBJHDHDG",
          "abilityName": "Avatar_Gorou_ShootArrow_Light_Material"
        }
      ],
      "fireAISoundEvent": true
    }
  },
  "Gorou_Arrow_03": {
    "$type": "CJKJIENLOHD",
    "common": {
      "effectAttachShape": {
        "$type": "OMIODKONOMG",
        "scaleX": 0.5,
        "scaleY": 0.5
      },
      "affectedByWorld": true
    },
    "combat": {
      "property": {
        "useCreatorProperty": true,
        "isInvincible": true,
        "canTriggerBullet": false
      },
      "beHit": {
        "hitBloodEffect": "",
        "muteAllHit": true,
        "muteAllHitEffect": true,
        "muteAllHitText": true
      },
      "combatLock": {
        "lockShape": "CircleLockEnemy",
        "denyLockOn": true,
        "lockType": "Gadget_Lv1"
      },
      "animEvents": {
        "ATK03": {
          "attackPattern": {
            "$type": "ConfigAttackBox",
            "triggerType": "TriggerNoRepeat",
            "checkHitLayerType": "Both",
            "born": {
              "$type": "ConfigBornByCollisionPoint",
              "offset": {
                "x": 0.0,
                "y": 0.0,
                "z": -0.5
              }
            },
            "size": {
              "x": 0.10000000149011612,
              "y": 0.10000000149011612,
              "z": 1.0
            }
          },
          "attackInfo": {
            "attackTag": "NormalAttack_03",
            "attenuationTag": "",
            "attenuationGroup": "default",
            "attackProperty": {
              "actorGrassSubHurtDelta": 0.0,
              "actorWindSubHurtDelta": 0.0,
              "elementDurability": 100.0,
              "strikeType": "Pierce",
              "enBreak": 17.25,
              "GLKMCMDJBIK": 0.0
            },
            "hitPattern": {
              "onHitEffectName": "default",
              "hitImpulseY": "",
              "hitImpulseType": "LV1"
            },
            "cameraShake": {
              "shakeRange": 0.019999999552965164,
              "shakeTime": 0.10000000149011612
            },
            "canBeModifiedBy": "OriginOwner"
          }
        }
      }
    },
    "combatTemplate": "",
    "abilities": [
      {
        "abilityID": "Arrow_Material",
        "abilityName": "Avatar_Gorou_ShootArrow_Heavy_Material",
        "abilityOverride": ""
      },
      {
        "abilityID": "Arrow_Damage",
        "abilityName": "Avatar_Gorou_ShootArrow_Damage",
        "abilityOverride": ""
      }
    ],
    "timer": {
      "lifeTime": 8.0
    },
    "move": {
      "$type": "BFICFPAEFPB",
      "speed": 40.0,
      "DPAAFHNMHHN": {
        "$type": "IFAANDLLGLP"
      },
      "straightRange": 7.0,
      "gravityOfAcceleration": 15.0,
      "airResistance": 0.009999999776482582
    },
    "gadget": {
      "$type": "JENBBNKGGJP",
      "collision": {
        "targetType": "Enemy"
      },
      "triggerActions": [
        {
          "$type": "NMMEILICBAE",
          "attackEvent": "ATK03"
        },
        {
          "$type": "AILPBJHDHDG",
          "abilityName": "Avatar_Gorou_ShootArrow_Heavy_Material"
        }
      ],
      "fireAISoundEvent": true
    }
  },
  "Gorou_Arrow_04": {
    "$type": "CJKJIENLOHD",
    "common": {
      "effectAttachShape": {
        "$type": "OMIODKONOMG",
        "scaleX": 0.5,
        "scaleY": 0.5
      },
      "affectedByWorld": true
    },
    "combat": {
      "property": {
        "useCreatorProperty": true,
        "isInvincible": true,
        "canTriggerBullet": false
      },
      "beHit": {
        "hitBloodEffect": "",
        "muteAllHit": true,
        "muteAllHitEffect": true,
        "muteAllHitText": true
      },
      "combatLock": {
        "lockShape": "CircleLockEnemy",
        "denyLockOn": true,
        "lockType": "Gadget_Lv1"
      },
      "animEvents": {
        "ATK04": {
          "attackPattern": {
            "$type": "ConfigAttackBox",
            "triggerType": "TriggerNoRepeat",
            "checkHitLayerType": "Both",
            "born": {
              "$type": "ConfigBornByCollisionPoint",
              "offset": {
                "x": 0.0,
                "y": 0.0,
                "z": -0.5
              }
            },
            "size": {
              "x": 0.10000000149011612,
              "y": 0.10000000149011612,
              "z": 1.0
            }
          },
          "attackInfo": {
            "attackTag": "NormalAttack_04",
            "attenuationTag": "",
            "attenuationGroup": "default",
            "attackProperty": {
              "actorGrassSubHurtDelta": 0.0,
              "actorWindSubHurtDelta": 0.0,
              "elementDurability": 100.0,
              "strikeType": "Pierce",
              "enBreak": 20.579999923706055,
              "GLKMCMDJBIK": 0.0
            },
            "hitPattern": {
              "onHitEffectName": "default",
              "hitImpulseY": "",
              "hitImpulseType": "LV1"
            },
            "cameraShake": {
              "shakeRange": 0.019999999552965164,
              "shakeTime": 0.10000000149011612
            },
            "canBeModifiedBy": "OriginOwner"
          }
        }
      }
    },
    "combatTemplate": "",
    "abilities": [
      {
        "abilityID": "Arrow_Material",
        "abilityName": "Avatar_Gorou_ShootArrow_Heavy_Material",
        "abilityOverride": ""
      },
      {
        "abilityID": "Arrow_Damage",
        "abilityName": "Avatar_Gorou_ShootArrow_Damage",
        "abilityOverride": ""
      }
    ],
    "timer": {
      "lifeTime": 8.0
    },
    "move": {
      "$type": "BFICFPAEFPB",
      "speed": 40.0,
      "DPAAFHNMHHN": {
        "$type": "IFAANDLLGLP"
      },
      "straightRange": 7.0,
      "gravityOfAcceleration": 15.0,
      "airResistance": 0.009999999776482582
    },
    "gadget": {
      "$type": "JENBBNKGGJP",
      "collision": {
        "targetType": "Enemy"
      },
      "triggerActions": [
        {
          "$type": "NMMEILICBAE",
          "attackEvent": "ATK04"
        },
        {
          "$type": "AILPBJHDHDG",
          "abilityName": "Avatar_Gorou_ShootArrow_Heavy_Material"
        }
      ],
      "fireAISoundEvent": true
    }
  },
  "Gorou_Arrow_05": {
    "$type": "CJKJIENLOHD",
    "common": {
      "effectAttachShape": {
        "$type": "OMIODKONOMG",
        "scaleX": 0.5,
        "scaleY": 0.5
      },
      "affectedByWorld": true
    },
    "combat": {
      "property": {
        "useCreatorProperty": true,
        "isInvincible": true,
        "canTriggerBullet": false
      },
      "beHit": {
        "hitBloodEffect": "",
        "muteAllHit": true,
        "muteAllHitEffect": true,
        "muteAllHitText": true
      },
      "combatLock": {
        "lockShape": "CircleLockEnemy",
        "denyLockOn": true,
        "lockType": "Gadget_Lv1"
      },
      "animEvents": {
        "ATK05": {
          "attackPattern": {
            "$type": "ConfigAttackBox",
            "triggerType": "TriggerNoRepeat",
            "checkHitLayerType": "Both",
            "born": {
              "$type": "ConfigBornByCollisionPoint",
              "offset": {
                "x": 0.0,
                "y": 0.0,
                "z": -0.5
              }
            },
            "size": {
              "x": 0.10000000149011612,
              "y": 0.10000000149011612,
              "z": 1.0
            }
          },
          "attackInfo": {
            "attackTag": "NormalAttack_05",
            "attenuationTag": "",
            "attenuationGroup": "default",
            "attackProperty": {
              "actorGrassSubHurtDelta": 0.0,
              "actorWindSubHurtDelta": 0.0,
              "elementDurability": 100.0,
              "strikeType": "Pierce",
              "enBreak": 18.75,
              "GLKMCMDJBIK": 0.0
            },
            "hitPattern": {
              "onHitEffectName": "default",
              "hitImpulseY": "",
              "hitImpulseType": "LV1"
            },
            "cameraShake": {
              "shakeRange": 0.019999999552965164,
              "shakeTime": 0.10000000149011612
            },
            "canBeModifiedBy": "OriginOwner"
          }
        }
      }
    },
    "combatTemplate": "",
    "abilities": [
      {
        "abilityID": "Arrow_Material",
        "abilityName": "Avatar_Gorou_ShootArrow_Heavy_Material",
        "abilityOverride": ""
      },
      {
        "abilityID": "Arrow_Damage",
        "abilityName": "Avatar_Gorou_ShootArrow_Damage",
        "abilityOverride": ""
      }
    ],
    "timer": {
      "lifeTime": 8.0
    },
    "move": {
      "$type": "BFICFPAEFPB",
      "speed": 40.0,
      "DPAAFHNMHHN": {
        "$type": "IFAANDLLGLP"
      },
      "straightRange": 7.0,
      "gravityOfAcceleration": 15.0,
      "airResistance": 0.009999999776482582
    },
    "gadget": {
      "$type": "JENBBNKGGJP",
      "collision": {
        "targetType": "Enemy"
      },
      "triggerActions": [
        {
          "$type": "NMMEILICBAE",
          "attackEvent": "ATK05"
        },
        {
          "$type": "AILPBJHDHDG",
          "abilityName": "Avatar_Gorou_ShootArrow_Heavy_Material"
        }
      ],
      "fireAISoundEvent": true
    }
  },
  "Gorou_ElementalArt_FieldLand": {
    "$type": "CJKJIENLOHD",
    "common": {
      "effectAttachShape": {
        "$type": "OMIODKONOMG"
      }
    },
    "vodIntee": {
      "GIOMFJPNIDM": true,
      "FHNLFFCAKDM": true,
      "GHIJHHPHJLN": ""
    },
    "combat": {
      "property": {
        "endureType": "Monster_Boss_Humanoid",
        "useCreatorProperty": true,
        "isInvincible": true,
        "isGhostToAllied": true,
        "isGhostToEnemy": true
      },
      "beHit": {
        "hitBloodEffect": "",
        "muteAllHitText": true
      },
      "combatLock": {
        "lockShape": "CircleLockEnemy",
        "denyLockOn": true,
        "lockType": "Default"
      }
    },
    "combatTemplate": "",
    "abilities": [
      {
        "abilityID": "SkillObj_Gorou_FieldLand_LogicHanler",
        "abilityName": "SkillObj_Gorou_FieldLand_LogicHanler",
        "abilityOverride": ""
      },
      {
        "abilityID": "SkillObj_Gorou_FieldLand_EffectHanler",
        "abilityName": "SkillObj_Gorou_FieldLand_EffectHanler",
        "abilityOverride": ""
      }
    ],
    "timer": {
      "lifeTime": 35.0
    },
    "canRemoveByClient": true
  },
  "Gorou_ElementalArt_Bullet": {
    "$type": "CJKJIENLOHD",
    "common": {
      "effectAttachShape": {
        "$type": "OMIODKONOMG",
        "scaleX": 2.4000000953674316,
        "scaleY": 2.4000000953674316,
        "scaleZ": 2.4000000953674316
      },
      "affectedByWorld": true
    },
    "combat": {
      "property": {
        "useCreatorProperty": true,
        "isGhostToAllied": true,
        "isGhostToEnemy": true
      },
      "combatLock": {
        "lockShape": "CircleLockEnemy",
        "denyLockOn": true,
        "lockType": "Default"
      }
    },
    "combatTemplate": "",
    "abilities": [
      {
        "abilityID": "Gorou_ElementalArt_Bullet",
        "abilityName": "Gorou_ElementalArt_Bullet",
        "abilityOverride": ""
      },
      {
        "abilityID": "Gorou_ElementalArt_Bullet_LifeOver",
        "abilityName": "Gorou_ElementalArt_Bullet_LifeOver",
        "abilityOverride": ""
      }
    ],
    "timer": {
      "lifeTime": 0.20000000298023224
    },
    "move": {
      "$type": "GONNMCBKAOC",
      "speed": 50.0,
      "syncToRemote": true
    },
    "gadget": {
      "$type": "JENBBNKGGJP",
      "collision": {
        "ccd": {
          "damageRatio": "Always"
        },
        "targetType": "Enemy",
        "ignoreWater": true
      },
      "triggerActions": [
        {
          "$type": "AILPBJHDHDG",
          "abilityName": "Gorou_ElementalArt_Bullet"
        }
      ],
      "triggerLifeOverActions": [
        {
          "$type": "AILPBJHDHDG",
          "abilityName": "Gorou_ElementalArt_Bullet_LifeOver"
        }
      ]
    }
  },
  "Gorou_ElementalBurst_Dog": {
    "$type": "CJKJIENLOHD",
    "common": {
      "effectAttachShape": {
        "$type": "OMIODKONOMG"
      }
    },
    "combat": {
      "property": {
        "useCreatorProperty": true,
        "isInvincible": true,
        "isGhostToAllied": true,
        "isGhostToEnemy": true
      },
      "beHit": {
        "hitBloodEffect": "",
        "muteAllHitEffect": true,
        "muteAllHitText": true
      },
      "combatLock": {
        "lockShape": "CircleLockEnemy",
        "denyLockOn": true,
        "lockType": "Default"
      }
    },
    "combatTemplate": "",
    "abilities": [
      {
        "abilityID": "SkillObj_Gorou_BurstFieldLand_Dog",
        "abilityName": "SkillObj_Gorou_BurstFieldLand_Dog",
        "abilityOverride": ""
      }
    ],
    "timer": {
      "lifeTime": 15.0
    },
    "move": {
      "$type": "MMAPEFIEGAL",
      "attachPoint": "",
      "followRotation": true,
      "HOMINCCNFHE": {
        "z": 1.0
      },
      "syncTransToServer": true,
      "LFOHLEKJFBI": ""
    }
  },
  "Gorou_ElementalBurst_FieldLand": {
    "$type": "CJKJIENLOHD",
    "common": {
      "effectAttachShape": {
        "$type": "OMIODKONOMG"
      }
    },
    "vodIntee": {
      "GIOMFJPNIDM": true,
      "FHNLFFCAKDM": true,
      "GHIJHHPHJLN": ""
    },
    "combat": {
      "property": {
        "useCreatorProperty": true,
        "isInvincible": true,
        "isGhostToAllied": true,
        "isGhostToEnemy": true
      },
      "beHit": {
        "hitBloodEffect": "",
        "muteAllHitText": true
      },
      "combatLock": {
        "lockShape": "CircleLockEnemy",
        "denyLockOn": true,
        "lockType": "Default"
      }
    },
    "combatTemplate": "",
    "abilities": [
      {
        "abilityID": "SkillObj_Gorou_BurstFieldLand",
        "abilityName": "SkillObj_Gorou_BurstFieldLand",
        "abilityOverride": ""
      },
      {
        "abilityID": "SkillObj_Gorou_BurstFieldLand_Halo",
        "abilityName": "SkillObj_Gorou_BurstFieldLand_Halo",
        "abilityOverride": ""
      }
    ],
    "timer": {
      "lifeTime": 19.0
    },
    "move": {
      "$type": "MMAPEFIEGAL",
      "attachPoint": "",
      "syncTransToServer": true,
      "LFOHLEKJFBI": ""
    },
    "gadget": {
      "$type": "JENBBNKGGJP",
      "collision": {
        "triggerType": "TriggerAlways",
        "triggerCD": 0.30000001192092896,
        "targetType": "All",
        "ignoreScene": true,
        "ignoreWater": true,
        "bornWithTriggerEnabled": false
      },
      "triggerActions": [
        {
          "$type": "AILPBJHDHDG",
          "abilityName": "SkillObj_Gorou_BurstFieldLand"
        }
      ],
      "enableCollisionDelay": 0.6000000238418579
    },
    "canRemoveByClient": true
  },
  "Gorou_AimingArrow_WithoutRock": {
    "$type": "CJKJIENLOHD",
    "common": {
      "effectAttachShape": {
        "$type": "OMIODKONOMG",
        "scaleX": 0.5,
        "scaleY": 0.5
      },
      "affectedByWorld": true
    },
    "combat": {
      "property": {
        "useCreatorProperty": true,
        "isInvincible": true,
        "canTriggerBullet": false
      },
      "beHit": {
        "hitBloodEffect": "",
        "muteAllHit": true,
        "muteAllHitEffect": true,
        "muteAllHitText": true
      },
      "combatLock": {
        "lockShape": "CircleLockEnemy",
        "denyLockOn": true,
        "lockType": "Gadget_Lv1"
      }
    },
    "combatTemplate": "",
    "abilities": [
      {
        "abilityID": "Bullet_Gorou_AimingArrow_WithoutRock",
        "abilityName": "Bullet_Gorou_AimingArrow_WithoutRock",
        "abilityOverride": ""
      }
    ],
    "timer": {
      "lifeTime": 20.0
    },
    "move": {
      "$type": "BFICFPAEFPB",
      "speed": 50.0,
      "DPAAFHNMHHN": {
        "$type": "IFAANDLLGLP"
      },
      "straightRange": 25.0,
      "gravityOfAcceleration": 5.5,
      "airResistance": 0.009999999776482582
    },
    "gadget": {
      "$type": "JENBBNKGGJP",
      "collision": {
        "targetType": "Enemy"
      },
      "triggerActions": [
        {
          "$type": "AILPBJHDHDG",
          "abilityName": "Bullet_Gorou_AimingArrow_WithoutRock"
        }
      ],
      "fireAISoundEvent": true
    }
  },
  "Gorou_AimingArrow_Rock": {
    "$type": "CJKJIENLOHD",
    "common": {
      "effectAttachShape": {
        "$type": "OMIODKONOMG",
        "scaleX": 0.5,
        "scaleY": 0.5
      },
      "affectedByWorld": true
    },
    "combat": {
      "property": {
        "useCreatorProperty": true,
        "isInvincible": true,
        "canTriggerBullet": false
      },
      "beHit": {
        "hitBloodEffect": "",
        "muteAllHit": true,
        "muteAllHitEffect": true,
        "muteAllHitText": true
      },
      "combatLock": {
        "lockShape": "CircleLockEnemy",
        "denyLockOn": true,
        "lockType": "Gadget_Lv1"
      }
    },
    "combatTemplate": "",
    "abilities": [
      {
        "abilityID": "",
        "abilityName": "Bullet_Gorou_AimingArrow_Rock",
        "abilityOverride": ""
      }
    ],
    "timer": {
      "lifeTime": 20.0
    },
    "move": {
      "$type": "BFICFPAEFPB",
      "speed": 50.0,
      "DPAAFHNMHHN": {
        "$type": "IFAANDLLGLP"
      },
      "straightRange": 25.0,
      "gravityOfAcceleration": 5.5,
      "airResistance": 0.009999999776482582
    },
    "gadget": {
      "$type": "JENBBNKGGJP",
      "collision": {
        "targetType": "Enemy"
      },
      "triggerActions": [
        {
          "$type": "AILPBJHDHDG",
          "abilityName": "Bullet_Gorou_AimingArrow_Rock"
        }
      ]
    }
  }
}
