{
  "SceneObj_Area_Xm_Property_Ani_Prop_SlushaHitmanShooterFlower_01": {
    "$type": "CJKJIENLOHD",
    "common": {
      "disableTickDistance": 100000.0
    },
    "hasModel": true,
    "combatTemplate": "canBeAttacked",
    "abilities": [
      {
        "abilityID": "",
        "abilityName": "SceneObj_Area_Xm_Property_Ani_Prop_SlushaHitmanShooterFlower_01_Ability",
        "abilityOverride": ""
      }
    ],
    "stateLayers": {
      "defaultLayer": {
        "$type": "GBGJJIIEMBD",
        "layerIndexName": "",
        "CPAANEIJCGD": "",
        "stateIDs": {
          "Normal": {
            "$type": "BEIEGKBABOF",
            "animatorStates": {
              "Attack": ["SlushaHitmanShooterFlower_Attack"]
            }
          }
        }
      }
    }
  },
  "SceneObj_Area_Xm_Property_Ani_Prop_SlushaHitmanShooterFlower_01_Bullet": {
    "$type": "CJKJIENLOHD",
    "common": {
      "effectAttachShape": {
        "$type": "OMIODKONOMG"
      }
    },
    "combat": {
      "property": {
        "useCreatorProperty": true,
        "isGhostToAllied": true,
        "isGhostToEnemy": true,
        "canTriggerBullet": false
      },
      "beHit": {
        "hitBloodEffect": "",
        "muteAllHit": true,
        "muteAllHitEffect": true,
        "muteAllHitText": true
      },
      "combatLock": {
        "lockShape": "CircleLockEnemy",
        "denyLockOn": true,
        "lockType": "Default"
      },
      "die": {
        "hasAnimatorDie": true,
        "dieForceDisappearTime": 0.019999999552965164,
        "dieDisappearEffect": "Eff_SceneObj_Bouncing_Ball_Slusha_Disappear"
      }
    },
    "combatTemplate": "",
    "abilities": [
      {
        "abilityID": "",
        "abilityName": "SceneObj_Area_Xm_Property_Ani_Prop_SlushaHitmanShooterFlower_01_Bullet_Ability",
        "abilityOverride": ""
      }
    ],
    "timer": {
      "lifeTime": 5.0
    },
    "move": {
      "$type": "GONNMCBKAOC",
      "velocityForce": {
        "muteAll": true
      },
      "speed": 10.0,
      "maxSpeed": 60.0,
      "acceleration": 5.0,
      "DPAAFHNMHHN": {
        "$type": "IFAANDLLGLP"
      },
      "delay": 0.10000000149011612,
      "stickToGround": {
        "maxStepHeight": 20.0,
        "maxSlopeAngle": 60.0,
        "heightToGround": 1.0,
        "flexibleRange": 0.5,
        "isStickToWater": true,
        "ignoreBarrier": true,
        "unstickWhenDownSlide": "Keep"
      },
      "syncToRemote": true
    },
    "gadget": {
      "$type": "JENBBNKGGJP",
      "collision": {
        "triggerType": "TriggerNoRepeat",
        "targetType": "AllExceptSelf"
      },
      "triggerActions": [
        {
          "$type": "AILPBJHDHDG",
          "abilityName": "SceneObj_Area_Xm_Property_Ani_Prop_SlushaHitmanShooterFlower_01_Bullet_Ability"
        }
      ],
      "enableCollisionDelay": 0.10000000149011612
    }
  },
  "SceneObj_Area_Xm_Property_Ani_Prop_SlushaHitmanWoodenBox_01": {
    "$type": "CJKJIENLOHD",
    "hasModel": true,
    "combatTemplate": "canBeAttackedByAny",
    "abilities": [
      {
        "abilityID": "",
        "abilityName": "SceneObj_Area_Xm_Property_Ani_Prop_SlushaHitmanWoodenBox_01_Ability",
        "abilityOverride": ""
      }
    ]
  },
  "SceneObj_Area_Xm_Property_Ani_Prop_SlushaHitmanWoodenBarrel_01": {
    "$type": "CJKJIENLOHD",
    "hasModel": true,
    "combatTemplate": "canBeAttackedByAny",
    "abilities": [
      {
        "abilityID": "",
        "abilityName": "SceneObj_Area_Xm_Property_Ani_Prop_SlushaHitmanWoodenBarrel_01_Ability",
        "abilityOverride": ""
      }
    ]
  },
  "SceneObj_Area_Xm_Property_Ani_Prop_SlushaHitmanBonfire_01": {
    "$type": "CJKJIENLOHD",
    "hasModel": true,
    "combatTemplate": "canBeAttackedByAny",
    "abilities": [
      {
        "abilityID": "",
        "abilityName": "SceneObj_Area_Xm_Property_Ani_Prop_SlushaHitmanBonfire_01_Ability",
        "abilityOverride": ""
      }
    ]
  },
  "SceneObj_Area_Xm_Property_Ani_Prop_SlushaHitmanCookingPot_01": {
    "$type": "CJKJIENLOHD",
    "hasModel": true,
    "combatTemplate": "canBeAttackedByAny",
    "abilities": [
      {
        "abilityID": "",
        "abilityName": "SceneObj_Area_Xm_Property_Ani_Prop_SlushaHitmanCookingPot_01_Ability",
        "abilityOverride": ""
      }
    ]
  },
  "SceneObj_Area_Xm_Property_Ani_Prop_SlushaHitmanAmberWater_01": {
    "$type": "CJKJIENLOHD",
    "hasModel": true,
    "combatTemplate": "canBeAttackedByAny",
    "abilities": [
      {
        "abilityID": "",
        "abilityName": "SceneObj_Area_Xm_Property_Ani_Prop_SlushaHitmanAmberWater_01_Ability",
        "abilityOverride": ""
      }
    ]
  },
  "SceneObj_Area_Xm_Property_Ani_Prop_SlushaHitmanBrambleWall_01": {
    "$type": "CJKJIENLOHD",
    "common": {
      "effectAttachShape": {
        "$type": "OMCHDAEMBOG",
        "mesh": "EffectMesh"
      },
      "viewSize": 2.5,
      "affectedByWorld": true
    },
    "hasModel": true,
    "combatTemplate": "canBeAttackedByAny",
    "abilities": [
      {
        "abilityID": "",
        "abilityName": "SceneObj_Area_Xm_Property_Ani_Prop_SlushaHitmanBrambleWall_01_Ability",
        "abilityOverride": ""
      }
    ]
  },
  "SceneObj_Area_Xm_Property_Ani_Prop_SlushaHitmanBombBarrel_01": {
    "$type": "CJKJIENLOHD",
    "hasModel": true,
    "combatTemplate": "canBeAttackedByAny",
    "abilities": [
      {
        "abilityID": "",
        "abilityName": "SceneObj_Area_Xm_Property_Ani_Prop_SlushaHitmanBombBarrel_01_Ability",
        "abilityOverride": ""
      }
    ]
  },
  "SceneObj_Area_Xm_Property_Ani_Prop_SlushaHitmanThunerBarrel_01": {
    "$type": "CJKJIENLOHD",
    "hasModel": true,
    "combatTemplate": "canBeAttackedByAny",
    "abilities": [
      {
        "abilityID": "",
        "abilityName": "SceneObj_Area_Xm_Property_Ani_Prop_SlushaHitmanThunerBarrel_01_Ability",
        "abilityOverride": ""
      }
    ]
  },
  "SceneObj_Area_Xm_Property_Ani_Prop_SlushaHitmanPumpkinBomb_01": {
    "$type": "CJKJIENLOHD",
    "hasModel": true,
    "combatTemplate": "canBeAttackedByAny",
    "abilities": [
      {
        "abilityID": "",
        "abilityName": "SceneObj_Area_Xm_Property_Ani_Prop_SlushaHitmanPumpkinBomb_01_Ability",
        "abilityOverride": ""
      }
    ]
  },
  "SceneObj_Area_Xm_Property_Ani_Prop_SlushaHitmanOreElectricRock_01": {
    "$type": "CJKJIENLOHD",
    "hasModel": true,
    "combatTemplate": "canBeAttackedByAny",
    "abilities": [
      {
        "abilityID": "",
        "abilityName": "SceneObj_Area_Xm_Property_Ani_Prop_SlushaHitmanOreElectricRock_01_Ability",
        "abilityOverride": ""
      }
    ]
  },
  "SceneObj_Area_Xm_Property_Ani_Prop_SlushaHitmanTotem_01": {
    "$type": "CJKJIENLOHD",
    "combatTemplate": "canBeAttackedByAny",
    "abilities": [
      {
        "abilityID": "",
        "abilityName": "SceneObj_Area_Xm_Property_Ani_Prop_SlushaHitmanTotem_01_Ability",
        "abilityOverride": ""
      }
    ]
  },
  "SceneObj_Area_Xm_Property_Ani_Prop_SlushaHitmanRoadBlock_01": {
    "$type": "CJKJIENLOHD",
    "combatTemplate": "canBeAttackedByAny",
    "abilities": [
      {
        "abilityID": "",
        "abilityName": "SceneObj_Area_Xm_Property_Ani_Prop_SlushaHitmanRoadBlock_01_Ability",
        "abilityOverride": ""
      }
    ]
  },
  "SceneObj_Area_Xm_Property_Ani_Prop_SlushaHitmanTent_01": {
    "$type": "CJKJIENLOHD",
    "combatTemplate": "default"
  },
  "SceneObj_Area_Xm_Property_Ani_Prop_SlushaHitmanTent_02": {
    "$type": "CJKJIENLOHD",
    "combatTemplate": "default"
  },
  "SceneObj_Area_Xm_Property_Ani_Prop_SlushaHitmanQQTarget_01": {
    "$type": "CJKJIENLOHD",
    "combatTemplate": "default"
  }
}
