{
  "SceneObj_Area_Common_Property_Prop_QunyugeDebris_Lit_01": {
    "$type": "CJKJIENLOHD",
    "combat": {
      "property": {
        "hp": 99999.0,
        "isInvincible": true,
        "isLockHP": true,
        "isGhostToAllied": true,
        "isGhostToEnemy": true
      },
      "combatLock": {
        "lockShape": "CircleLockEnemy",
        "denyLockOn": true,
        "lockType": "Default"
      }
    },
    "combatTemplate": "",
    "abilities": [
      {
        "abilityID": "SceneObj_Area_Common_Property_Prop_QunyugeDebris_Lit_01",
        "abilityName": "SceneObj_Area_Common_Property_Prop_QunyugeDebris_Lit_01",
        "abilityOverride": ""
      }
    ],
    "field": {
      "concernType": "LocalAvatar",
      "shape": "CircleR5H5",
      "fromShape": "",
      "triggerInfinite": true,
      "lifeInfinite": true,
      "checkInterval": 0.20000000298023224,
      "overwriteCampType": true,
      "campType": "SelfCamp",
      "colliderName": "",
      "fromColliderName": ""
    },
    "radarHint": true
  },
  "SceneObj_Area_Common_Property_Prop_QunyugeDebris_Lit_02": {
    "$type": "CJKJIENLOHD",
    "combat": {
      "property": {
        "hp": 99999.0,
        "isInvincible": true,
        "isLockHP": true,
        "isGhostToAllied": true,
        "isGhostToEnemy": true
      },
      "combatLock": {
        "lockShape": "CircleLockEnemy",
        "denyLockOn": true,
        "lockType": "Default"
      }
    },
    "combatTemplate": "",
    "abilities": [
      {
        "abilityID": "SceneObj_Area_Common_Property_Prop_QunyugeDebris_Lit_02",
        "abilityName": "SceneObj_Area_Common_Property_Prop_QunyugeDebris_Lit_02",
        "abilityOverride": ""
      }
    ],
    "field": {
      "concernType": "LocalAvatar",
      "shape": "CircleR3H3",
      "fromShape": "",
      "triggerInfinite": true,
      "lifeInfinite": true,
      "checkInterval": 0.20000000298023224,
      "overwriteCampType": true,
      "campType": "SelfCamp",
      "colliderName": "",
      "fromColliderName": ""
    },
    "gadgetAction": {
      "gadgetStateActionList": [
        {
          "$type": "FJGKLJLPOGL",
          "intID": "State",
          "syncState": true
        }
      ]
    }
  },
  "SceneObj_Area_Common_Property_Prop_FirecrackerChest_01": {
    "$type": "CJKJIENLOHD",
    "hasModel": true,
    "combat": {
      "property": {
        "hp": 8000.0,
        "attack": 80.0,
        "weight": 80.0,
        "isGhostToAllied": true,
        "isGhostToEnemy": true,
        "canTriggerBullet": false
      }
    },
    "combatTemplate": "",
    "abilities": [
      {
        "abilityID": "SceneObj_Area_Common_Property_Prop_FirecrackerChest_01",
        "abilityName": "SceneObj_Area_Common_Property_Prop_FirecrackerChest_01",
        "abilityOverride": ""
      }
    ]
  },
  "SceneObj_Area_Common_Property_Prop_FirecrackerChest_Lit_01": {
    "$type": "CJKJIENLOHD",
    "globalValue": {
      "serverGlobalValues": ["SGV_Show_Mark"]
    },
    "hasModel": true,
    "combat": {
      "property": {
        "hp": 99999.0,
        "weight": 50.0,
        "isLockHP": true
      },
      "beHit": {
        "hitBloodEffect": "",
        "hitAutoRedirect": false,
        "muteAllHitText": true
      },
      "combatLock": {
        "lockShape": "CircleLockEnemy",
        "denyLockOn": true,
        "lockType": "Gadget_Lv1"
      }
    },
    "combatTemplate": "",
    "abilities": [
      {
        "abilityID": "SceneObj_Area_Common_Property_Prop_FirecrackerChest_Lit_01",
        "abilityName": "SceneObj_Area_Common_Property_Prop_FirecrackerChest_Lit_01",
        "abilityOverride": ""
      },
      {
        "abilityID": "Scene_RockGadget_Summon_Detect",
        "abilityName": "Scene_RockGadget_Summon_Detect",
        "abilityOverride": ""
      }
    ],
    "field": {
      "concernType": "LocalAvatar",
      "shape": "CircleR2H2",
      "fromShape": "",
      "triggerInfinite": true,
      "lifeInfinite": true,
      "checkInterval": 0.20000000298023224,
      "overwriteCampType": true,
      "campType": "SelfCamp",
      "colliderName": "",
      "fromColliderName": ""
    },
    "gadgetAction": {
      "gadgetStateActionList": [
        {
          "$type": "FJGKLJLPOGL",
          "intID": "State",
          "syncState": true
        }
      ]
    }
  },
  "SceneObj_Area_Common_Property_Ani_Prop_FireworksLauncher_01": {
    "$type": "CJKJIENLOHD",
    "hasModel": true,
    "combat": {
      "property": {
        "hp": 99999.0,
        "isInvincible": true,
        "isLockHP": true,
        "isGhostToAllied": true,
        "isGhostToEnemy": true
      },
      "combatLock": {
        "lockShape": "CircleLockEnemy",
        "denyLockOn": true,
        "lockType": "Default"
      }
    },
    "combatTemplate": "",
    "abilities": [
      {
        "abilityID": "SceneObj_Area_Common_Property_Ani_Prop_FireworksLauncher_01",
        "abilityName": "SceneObj_Area_Common_Property_Ani_Prop_FireworksLauncher_01",
        "abilityOverride": ""
      },
      {
        "abilityID": "Scene_RockGadget_Summon_Detect",
        "abilityName": "Scene_RockGadget_Summon_Detect",
        "abilityOverride": ""
      }
    ],
    "uiInteract": {
      "gadgetUIBtnCfgPath": "UI/open_activity_FireworkBagPage",
      "uiName": "UI_WIDGET_FIREWORKS_MAKE",
      "showCondTypes": ["NONE"],
      "icon": "",
      "groupName": "",
      "confirmDialogTitle": "",
      "confirmDialogContent": "",
      "gadgetUIExtraItems": [
        {
          "gadgetUIBtnCfgPath": "UI/open_activity_ShootFireworkPage",
          "uiName": "UI_WIDGET_FIREWORKS_LAUNCH",
          "showCondTypes": ["NONE"],
          "icon": "",
          "groupName": "",
          "confirmDialogTitle": "",
          "confirmDialogContent": "",
          "extraId": 2
        }
      ]
    },
    "intee": {
      "triggerRadius": 2.0,
      "triggerHeight": 4.0,
      "KAMIAMNMFCP": ""
    },
    "lowPriorityIntee": true
  },
  "SceneObj_Area_Common_Property_Ani_Prop_FireworksLauncher_Bullet_01": {
    "$type": "CJKJIENLOHD",
    "common": {
      "effectAttachShape": {
        "$type": "OMIODKONOMG",
        "scaleX": 0.5,
        "scaleY": 0.5
      },
      "affectedByWorld": true
    },
    "hasModel": true,
    "combat": {
      "property": {
        "useCreatorProperty": true,
        "isInvincible": true,
        "canTriggerBullet": false
      },
      "beHit": {
        "hitBloodEffect": "",
        "muteAllHit": true,
        "muteAllHitEffect": true,
        "muteAllHitText": true
      },
      "combatLock": {
        "lockShape": "CircleLockEnemy",
        "denyLockOn": true,
        "lockType": "Default"
      }
    },
    "combatTemplate": "",
    "abilities": [
      {
        "abilityID": "SceneObj_Area_Common_Property_Ani_Prop_FireworksLauncher_Bullet_01",
        "abilityName": "SceneObj_Area_Common_Property_Ani_Prop_FireworksLauncher_Bullet_01",
        "abilityOverride": ""
      }
    ],
    "timer": {
      "lifeTime": 20.0
    },
    "move": {
      "$type": "BFICFPAEFPB",
      "speed": 10.0,
      "DPAAFHNMHHN": {
        "$type": "IFAANDLLGLP"
      },
      "straightRange": 200.0,
      "gravityOfAcceleration": 0.009999999776482582,
      "airResistance": 0.009999999776482582
    },
    "gadget": {
      "$type": "JENBBNKGGJP",
      "collision": {
        "targetType": "Enemy"
      },
      "triggerActions": [
        {
          "$type": "AILPBJHDHDG",
          "abilityName": "SceneObj_Area_Common_Property_Ani_Prop_FireworksLauncher_Bullet_01"
        }
      ],
      "fireAISoundEvent": true
    }
  },
  "SceneObj_Area_Ly_Property_Prop_ProjectionOrgan_01": {
    "$type": "CJKJIENLOHD",
    "hasModel": true,
    "combatTemplate": "",
    "uiInteract": {
      "gadgetUIBtnCfgPath": "UI/open_projection_game_page",
      "uiName": "",
      "showCondTypes": ["NONE"],
      "icon": "",
      "groupName": "",
      "confirmDialogTitle": "",
      "confirmDialogContent": ""
    },
    "intee": {
      "triggerRadius": 2.0,
      "triggerHeight": 4.0,
      "KAMIAMNMFCP": ""
    },
    "lowPriorityIntee": true
  },
  "SceneObj_Area_Common_Property_Ani_Prop_SeekerCloseEye_01": {
    "$type": "CJKJIENLOHD",
    "hasModel": true,
    "combatTemplate": "",
    "abilities": [
      {
        "abilityID": "SceneObj_Area_Common_Property_Ani_Prop_SeekerCloseEye_01",
        "abilityName": "SceneObj_Area_Common_Property_Ani_Prop_SeekerCloseEye_01",
        "abilityOverride": ""
      }
    ],
    "gadgetAction": {
      "gadgetStateActionList": [
        {
          "$type": "FJGKLJLPOGL",
          "intID": "State",
          "syncState": true
        }
      ]
    }
  },
  "SceneObj_Area_Common_Property_Ani_Prop_FireworksLauncher_02": {
    "$type": "CJKJIENLOHD",
    "hasModel": true,
    "combat": {
      "property": {
        "hp": 99999.0,
        "isInvincible": true,
        "isLockHP": true,
        "isGhostToAllied": true,
        "isGhostToEnemy": true
      },
      "combatLock": {
        "lockShape": "CircleLockEnemy",
        "denyLockOn": true,
        "lockType": "Default"
      }
    },
    "combatTemplate": "",
    "abilities": [
      {
        "abilityID": "SceneObj_Area_Common_Property_Ani_Prop_FireworksLauncher_02",
        "abilityName": "SceneObj_Area_Common_Property_Ani_Prop_FireworksLauncher_02",
        "abilityOverride": ""
      }
    ]
  },
  "SceneObj_Area_Common_Property_Prop_SeaExplosiveBarrel_02": {
    "$type": "CJKJIENLOHD",
    "common": {
      "mass": 200.0,
      "disableTickDistance": 100000.0
    },
    "hasModel": true,
    "combat": {
      "property": {
        "hp": 8000.0,
        "attack": 80.0,
        "weight": 80.0
      },
      "beHit": {
        "hitBloodEffect": "",
        "hitAutoRedirect": false
      },
      "combatLock": {
        "lockShape": "CircleLockEnemy",
        "lockType": "Boss_Lv5",
        "overrideRange": 10.0
      },
      "die": {
        "dieEndTime": 0.10000000149011612,
        "dieForceDisappearTime": 0.20000000298023224,
        "dieDisappearEffect": ""
      }
    },
    "combatTemplate": "",
    "abilities": [
      {
        "abilityID": "SceneObj_Area_Common_Property_Prop_SeaExplosiveBarrel_02",
        "abilityName": "SceneObj_Area_Common_Property_Prop_SeaExplosiveBarrel_02",
        "abilityOverride": ""
      }
    ],
    "misc": {
      "escapeEffect": "",
      "targetIndicatorYOffset": 1.4500000476837158
    }
  },
  "SceneObj_Area_Common_Property_Ani_Prop_Jinyudeng_01": {
    "$type": "CJKJIENLOHD",
    "hasModel": true,
    "combat": {
      "property": {
        "hp": 99999.0,
        "isInvincible": true,
        "isLockHP": true,
        "isGhostToAllied": true,
        "isGhostToEnemy": true
      },
      "combatLock": {
        "lockShape": "CircleLockEnemy",
        "denyLockOn": true,
        "lockType": "Default"
      }
    },
    "combatTemplate": "",
    "abilities": [
      {
        "abilityID": "SceneObj_Area_Common_Property_Ani_Prop_Jinyudeng_01",
        "abilityName": "SceneObj_Area_Common_Property_Ani_Prop_Jinyudeng_01",
        "abilityOverride": ""
      }
    ],
    "gadgetAction": {
      "gadgetStateActionList": [
        {
          "$type": "FJGKLJLPOGL",
          "intID": "State",
          "syncState": true
        }
      ]
    }
  },
  "SceneObj_Area_Common_Property_Prop_Seaobstacles_SeaLampActivity": {
    "$type": "CJKJIENLOHD",
    "hasModel": true,
    "combat": {
      "property": {
        "hp": 400.0,
        "attack": 15.0,
        "weight": 50.0,
        "isLockHP": true
      },
      "beHit": {
        "hitBloodEffect": "Eff_Hit_QQObject_Immortal",
        "hitAutoRedirect": false,
        "muteAllHitText": true
      },
      "combatLock": {
        "lockShape": "CircleLockEnemy",
        "lockType": "Gadget_Lv1"
      }
    },
    "combatTemplate": "",
    "abilities": [
      {
        "abilityID": "SceneObj_Area_Common_Property_Prop_Seaobstacles_01",
        "abilityName": "SceneObj_Area_Common_Property_Prop_Seaobstacles_01",
        "abilityOverride": ""
      }
    ],
    "billboard": {
      "$type": "DNGNMAJBCNP",
      "attachPoint": "RootNode",
      "offset": {
        "y": 4.0
      },
      "radiusOffset": 1.0,
      "enableSelfAdapt": true,
      "showDistance": 48.0,
      "showHPBar": true,
      "size": "Grand"
    }
  },
  "SceneObj_Item_Hili_Cart_SeaLampActivity": {
    "$type": "CJKJIENLOHD",
    "common": {
      "effectAttachShape": {
        "$type": "OMCHDAEMBOG",
        "mesh": "EffectMesh"
      },
      "viewSize": 2.0,
      "disableTickDistance": 100000.0
    },
    "specialPoint": {
      "elementAbsorb": "RootNode",
      "elementPendant": "",
      "elementDrop": "RootNode",
      "bulletAim": "BulletAim"
    },
    "hasModel": true,
    "combat": {
      "property": {
        "hp": 15000.0,
        "attack": 50.0,
        "weight": 50.0,
        "denyElementStick": true
      },
      "beHit": {
        "hitBloodEffect": "",
        "hitAutoRedirect": false
      },
      "combatLock": {
        "lockShape": "CircleLockEnemy",
        "lockType": "Avatar&Monster_Lv4"
      },
      "die": {
        "dieEndTime": 0.10000000149011612,
        "dieForceDisappearTime": 1.0,
        "dieDisappearEffect": "Eff_SceneObj_Hili_Cart_Destory_01"
      }
    },
    "combatTemplate": "",
    "abilities": [
      {
        "abilityID": "SceneObj_Item_Hili_Cart",
        "abilityName": "SceneObj_Item_Hili_Cart",
        "abilityOverride": ""
      },
      {
        "abilityID": "SceneObj_Item_Hili_Cart_SeaLampActivity",
        "abilityName": "SceneObj_Item_Hili_Cart_SeaLampActivity",
        "abilityOverride": ""
      }
    ],
    "move": {
      "$type": "OEFHHKHPMCJ"
    },
    "uiInteract": {
      "gadgetUIBtnCfgPath": "TEST/TEST_Chest_Btn",
      "uiName": "",
      "icon": "",
      "groupName": "",
      "confirmDialogTitle": "",
      "confirmDialogContent": ""
    },
    "misc": {
      "escapeEffect": "",
      "targetIndicatorYOffset": 1.149999976158142
    },
    "stateLayers": {
      "defaultLayer": {
        "$type": "GBGJJIIEMBD",
        "layerIndexName": "",
        "CPAANEIJCGD": "",
        "stateIDs": {
          "All": {
            "$type": "BEIEGKBABOF",
            "animatorStates": {
              "Ani_Hili_Cart_01_Idle": ["Effect_Hili_Cart_Hitbox"],
              "Ani_Hili_Cart_01_Take_Off": ["Effect_Hili_Cart_Hitbox"],
              "Ani_Hili_Cart_01_Flight": ["Effect_Hili_Cart_Hitbox"],
              "Start": ["Hide_Hili_Cart_Hitbox"],
              "Ani_Hili_Cart_01_Failed": ["Hide_Hili_Cart_Hitbox"]
            }
          }
        }
      }
    },
    "gadgetAction": {
      "gadgetStateActionList": [
        {
          "$type": "FJGKLJLPOGL",
          "intID": "State",
          "syncState": true
        }
      ],
      "interactActionList": [
        {
          "$type": "DEMJBAICBKO",
          "predicate": {
            "$type": "JCENKAMEKHF"
          }
        },
        {
          "$type": "DEMJBAICBKO",
          "predicate": {
            "$type": "JCENKAMEKHF",
            "isEnableInteract": true
          }
        }
      ]
    },
    "billboard": {
      "$type": "DNGNMAJBCNP",
      "attachPoint": "RootNode",
      "offset": {
        "y": 3.799999952316284
      },
      "radiusOffset": 1.0,
      "enableSelfAdapt": true,
      "showDistance": 48.0,
      "showHPBar": true,
      "size": "Grand"
    }
  },
  "SceneObj_Area_Ly_Property_Prop_Raft_SeaLampActivity": {
    "$type": "CJKJIENLOHD",
    "globalValue": {
      "serverGlobalValues": ["SGV_Need_SLC"]
    },
    "hasModel": true,
    "combat": {
      "property": {
        "hp": 99999.0,
        "isInvincible": true,
        "isLockHP": true,
        "isGhostToAllied": true,
        "isGhostToEnemy": true
      },
      "combatLock": {
        "lockShape": "CircleLockEnemy",
        "denyLockOn": true,
        "lockType": "Default"
      }
    },
    "combatTemplate": "",
    "abilities": [
      {
        "abilityID": "SceneObj_Area_Ly_Property_Prop_Raft_SeaLampActivity",
        "abilityName": "SceneObj_Area_Ly_Property_Prop_Raft_SeaLampActivity",
        "abilityOverride": ""
      }
    ]
  }
}
