{
  "BoxMatch_Assistant_IceBomb_TargetPoint": {
    "$type": "CJKJIENLOHD",
    "combat": {
      "property": {
        "useCreatorProperty": true,
        "isInvincible": true,
        "isGhostToEnemy": true,
        "canTriggerBullet": false
      },
      "combatLock": {
        "lockShape": "CircleLockEnemy",
        "denyLockOn": true,
        "lockType": "Default"
      }
    },
    "combatTemplate": "",
    "abilities": [
      {
        "abilityID": "",
        "abilityName": "BoxMatch_IceBomb_BulletTarget",
        "abilityOverride": ""
      }
    ],
    "timer": {
      "lifeTime": 0.5
    }
  },
  "BoxMatch_Assistant_IceBomb_Decal": {
    "$type": "CJKJIENLOHD",
    "combat": {
      "property": {
        "useCreatorProperty": true,
        "isInvincible": true,
        "isGhostToEnemy": true,
        "canTriggerBullet": false
      },
      "combatLock": {
        "lockShape": "CircleLockEnemy",
        "denyLockOn": true,
        "lockType": "Default"
      }
    },
    "combatTemplate": "",
    "timer": {
      "lifeTime": 0.800000011920929
    }
  },
  "BoxMatch_Assistant_IceBomb_Lv1": {
    "$type": "CJKJIENLOHD",
    "combat": {
      "property": {
        "useCreatorProperty": true,
        "isLockHP": true
      },
      "beHit": {
        "hitBloodEffect": "",
        "muteAllHit": true,
        "muteAllHitEffect": true,
        "muteAllHitText": true
      },
      "combatLock": {
        "lockShape": "CircleLockEnemy",
        "denyLockOn": true,
        "lockType": "Default"
      }
    },
    "combatTemplate": "",
    "abilities": [
      {
        "abilityID": "",
        "abilityName": "BoxMatch_IceBomb_Bullet",
        "abilityOverride": ""
      }
    ],
    "timer": {
      "lifeTime": 3.5
    },
    "move": {
      "$type": "BFDBCCCADKH",
      "speed": 25.0,
      "DPAAFHNMHHN": {
        "$type": "IFAANDLLGLP"
      },
      "angleOffHor": 6.0,
      "gravityOfAcceleration": 25.0,
      "correction": {
        "$type": "FEHDIANJKBF",
        "deviation": 0.10000000149011612,
        "fixAngleOfVer": 15.0,
        "minSpeed": 5.0,
        "maxSpeed": 50.0
      },
      "GEBCKKDCGDP": "",
      "NKPHOKHJKGC": ""
    },
    "gadget": {
      "$type": "JENBBNKGGJP",
      "collision": {
        "ccd": {},
        "targetType": "Enemy"
      },
      "triggerActions": [
        {
          "$type": "AILPBJHDHDG",
          "abilityName": "BoxMatch_IceBomb_Bullet"
        }
      ]
    }
  },
  "BoxMatch_Assistant_IceBomb_Lv2": {
    "$type": "CJKJIENLOHD",
    "combat": {
      "property": {
        "useCreatorProperty": true,
        "isLockHP": true
      },
      "beHit": {
        "hitBloodEffect": "",
        "muteAllHit": true,
        "muteAllHitEffect": true,
        "muteAllHitText": true
      },
      "combatLock": {
        "lockShape": "CircleLockEnemy",
        "denyLockOn": true,
        "lockType": "Default"
      }
    },
    "combatTemplate": "",
    "abilities": [
      {
        "abilityID": "",
        "abilityName": "BoxMatch_IceBomb_Bullet_WithArkhe",
        "abilityOverride": ""
      }
    ],
    "timer": {
      "lifeTime": 3.5
    },
    "move": {
      "$type": "BFDBCCCADKH",
      "speed": 25.0,
      "DPAAFHNMHHN": {
        "$type": "IFAANDLLGLP"
      },
      "angleOffHor": 6.0,
      "gravityOfAcceleration": 25.0,
      "correction": {
        "$type": "FEHDIANJKBF",
        "deviation": 0.10000000149011612,
        "fixAngleOfVer": 15.0,
        "minSpeed": 5.0,
        "maxSpeed": 50.0
      },
      "GEBCKKDCGDP": "",
      "NKPHOKHJKGC": ""
    },
    "gadget": {
      "$type": "JENBBNKGGJP",
      "collision": {
        "ccd": {},
        "targetType": "Enemy"
      },
      "triggerActions": [
        {
          "$type": "AILPBJHDHDG",
          "abilityName": "BoxMatch_IceBomb_Bullet_WithArkhe"
        }
      ]
    }
  },
  "BoxMatch_Hatchet_FireWork_Lv1": {
    "$type": "CJKJIENLOHD",
    "combat": {
      "property": {
        "useCreatorProperty": true,
        "isInvincible": true,
        "isGhostToEnemy": true,
        "canTriggerBullet": false
      },
      "combatLock": {
        "lockShape": "CircleLockEnemy",
        "denyLockOn": true,
        "lockType": "Default"
      }
    },
    "combatTemplate": "",
    "abilities": [
      {
        "abilityID": "",
        "abilityName": "BoxMatch_Hatchet_FireWork_Lv1",
        "abilityOverride": ""
      }
    ],
    "timer": {
      "lifeTime": 0.800000011920929
    }
  },
  "BoxMatch_Hatchet_FireWork_Lv2": {
    "$type": "CJKJIENLOHD",
    "combat": {
      "property": {
        "useCreatorProperty": true,
        "isLockHP": true
      },
      "beHit": {
        "hitBloodEffect": "",
        "muteAllHit": true,
        "muteAllHitEffect": true,
        "muteAllHitText": true
      },
      "combatLock": {
        "lockShape": "CircleLockEnemy",
        "denyLockOn": true,
        "lockType": "Default"
      }
    },
    "combatTemplate": "",
    "abilities": [
      {
        "abilityID": "",
        "abilityName": "BoxMatch_FireWork_Lv2",
        "abilityOverride": ""
      }
    ],
    "timer": {
      "lifeTime": 3.5
    },
    "move": {
      "$type": "BFDBCCCADKH",
      "speed": 16.0,
      "DPAAFHNMHHN": {
        "$type": "IFAANDLLGLP"
      },
      "angleOffHor": 20.0,
      "gravityOfAcceleration": 36.0,
      "correction": {
        "$type": "FEHDIANJKBF",
        "deviation": 0.10000000149011612,
        "fixAngleOfVer": 15.0,
        "minSpeed": 5.0
      },
      "GEBCKKDCGDP": "",
      "NKPHOKHJKGC": ""
    },
    "gadget": {
      "$type": "JENBBNKGGJP",
      "collision": {
        "ccd": {},
        "targetType": "Enemy"
      },
      "triggerActions": [
        {
          "$type": "AILPBJHDHDG",
          "abilityName": "BoxMatch_FireWork_Lv2"
        }
      ]
    }
  },
  "BoxMatch_Hatchet_FireWork_Lv2_Attack": {
    "$type": "CJKJIENLOHD",
    "combat": {
      "property": {
        "useCreatorProperty": true,
        "isInvincible": true,
        "isGhostToEnemy": true,
        "canTriggerBullet": false
      },
      "combatLock": {
        "lockShape": "CircleLockEnemy",
        "denyLockOn": true,
        "lockType": "Default"
      }
    },
    "combatTemplate": "",
    "abilities": [
      {
        "abilityID": "",
        "abilityName": "BoxMatch_Hatchet_FireWork_Lv2_Attack",
        "abilityOverride": ""
      }
    ],
    "timer": {
      "lifeTime": 0.800000011920929
    }
  }
}
