{
  "Regisvine_PartControlTarget": {
    "$type": "CJKJIENLOHD",
    "combat": {
      "property": {
        "hp": 99999.0,
        "weight": 50.0,
        "isLockHP": true,
        "isGhostToAllied": true,
        "isGhostToEnemy": true,
        "canTriggerBullet": false
      },
      "beHit": {
        "hitBloodEffect": "",
        "muteAllHit": true,
        "muteAllHitEffect": true,
        "muteAllHitText": true
      },
      "combatLock": {
        "lockShape": "CircleLockEnemy",
        "denyLockOn": true,
        "lockType": "Default"
      }
    },
    "combatTemplate": "",
    "abilities": [
      {
        "abilityID": "",
        "abilityName": "Regisvine_PartControlTarget_GlobalValue",
        "abilityOverride": ""
      }
    ]
  },
  "Regisvine_FruitGadget": {
    "$type": "CJKJIENLOHD",
    "combat": {
      "property": {
        "useCreatorProperty": true,
        "hp": 999999.0,
        "attack": 15.0,
        "defense": 999999.0,
        "isLockHP": true,
        "canTriggerBullet": false,
        "DAIAKCFLDCC": true
      },
      "beHit": {
        "hitBloodEffect": "",
        "muteAllHitEffect": true
      },
      "combatLock": {
        "lockShape": "CircleLockEnemy",
        "lockType": "Boss_Lv5"
      }
    },
    "combatTemplate": "",
    "abilities": [
      {
        "abilityID": "ShieldBar",
        "abilityName": "Regisvine_FruitGadget",
        "abilityOverride": ""
      }
    ],
    "timer": {
      "lifeInfinite": true
    },
    "move": {
      "$type": "MMAPEFIEGAL",
      "target": "TargetEntity",
      "attachPoint": "Fruit",
      "LFOHLEKJFBI": ""
    },
    "billboard": {
      "$type": "DNGNMAJBCNP",
      "attachPoint": "BillboardAttach",
      "offset": {
        "y": 0.4000000059604645
      },
      "radiusOffset": 0.5,
      "showDistance": 48.0,
      "showHPBar": true,
      "size": "Big",
      "shieldBarOnly": true
    }
  },
  "Regisvine_CoreGadget": {
    "$type": "CJKJIENLOHD",
    "combat": {
      "property": {
        "useCreatorProperty": true,
        "hp": 999999.0,
        "attack": 15.0,
        "defense": 999999.0,
        "isLockHP": true,
        "canTriggerBullet": false,
        "DAIAKCFLDCC": true
      },
      "beHit": {
        "hitBloodEffect": "",
        "muteAllHitEffect": true
      },
      "combatLock": {
        "lockShape": "CircleLockEnemy",
        "lockType": "Boss_Lv5"
      }
    },
    "combatTemplate": "",
    "abilities": [
      {
        "abilityID": "ShieldBar",
        "abilityName": "Regisvine_CoreGadget",
        "abilityOverride": ""
      }
    ],
    "timer": {
      "lifeInfinite": true
    },
    "move": {
      "$type": "MMAPEFIEGAL",
      "target": "TargetEntity",
      "attachPoint": "Core",
      "followRotation": true,
      "LFOHLEKJFBI": ""
    },
    "billboard": {
      "$type": "DNGNMAJBCNP",
      "attachPoint": "BillboardAttach",
      "radiusOffset": 0.5,
      "showDistance": 48.0,
      "showHPBar": true,
      "size": "Big",
      "shieldBarOnly": true
    }
  },
  "Regisvine_RangedAttack01_Bullet": {
    "$type": "CJKJIENLOHD",
    "common": {
      "effectAttachShape": {
        "$type": "OMIODKONOMG",
        "scaleZ": 0.4000000059604645
      }
    },
    "combat": {
      "property": {
        "useCreatorProperty": true,
        "hp": 999999.0,
        "attack": 15.0,
        "defense": 999999.0,
        "isLockHP": true,
        "canTriggerBullet": false
      },
      "beHit": {
        "hitBloodEffect": "",
        "muteAllHit": true,
        "muteAllHitEffect": true,
        "muteAllHitText": true
      },
      "combatLock": {
        "lockShape": "CircleLockEnemy",
        "denyLockOn": true,
        "lockType": "Default"
      }
    },
    "combatTemplate": "",
    "abilities": [
      {
        "abilityID": "Bullet_Loop",
        "abilityName": "Regisvine_RangedAttack01_Bullet_Loop",
        "abilityOverride": ""
      },
      {
        "abilityID": "Bullet_Collide",
        "abilityName": "Regisvine_RangedAttack01_Bullet_Collide",
        "abilityOverride": ""
      }
    ],
    "timer": {
      "lifeTime": 3.0
    },
    "move": {
      "$type": "BFICFPAEFPB",
      "speed": 60.0,
      "DPAAFHNMHHN": {
        "$type": "IFAANDLLGLP"
      },
      "straightRange": 100.0,
      "gravityOfAcceleration": 2.0,
      "airResistance": 0.5
    },
    "gadget": {
      "$type": "JENBBNKGGJP",
      "collision": {
        "targetType": "Enemy"
      },
      "triggerActions": [
        {
          "$type": "AILPBJHDHDG",
          "abilityName": "Regisvine_RangedAttack01_Bullet_Collide"
        }
      ],
      "triggerLifeOverActions": [
        {
          "$type": "AILPBJHDHDG",
          "abilityName": "Regisvine_RangedAttack01_Bullet_Collide"
        }
      ],
      "killByOther": true
    }
  },
  "Regisvine_RangedAttack01_Guide": {
    "$type": "CJKJIENLOHD",
    "common": {
      "effectAttachShape": {
        "$type": "OMIODKONOMG",
        "scaleZ": 0.4000000059604645
      }
    },
    "combat": {
      "property": {
        "useCreatorProperty": true,
        "hp": 999999.0,
        "attack": 15.0,
        "defense": 999999.0,
        "isLockHP": true,
        "canTriggerBullet": false
      },
      "beHit": {
        "hitBloodEffect": "",
        "muteAllHit": true,
        "muteAllHitEffect": true,
        "muteAllHitText": true
      },
      "combatLock": {
        "lockShape": "CircleLockEnemy",
        "denyLockOn": true,
        "lockType": "Default"
      }
    },
    "combatTemplate": "",
    "abilities": [
      {
        "abilityID": "Hit",
        "abilityName": "Monster_Regisvine_Ice_BlizzardSpit_Hit",
        "abilityOverride": ""
      }
    ],
    "timer": {
      "lifeInfinite": true
    },
    "move": {
      "$type": "MMAPEFIEGAL",
      "target": "TargetEntity",
      "attachPoint": "BulletSourceCore",
      "followRotation": true,
      "LFOHLEKJFBI": ""
    },
    "gadget": {
      "$type": "KKJCBNGMKBL",
      "collision": {
        "triggerType": "TriggerAlways",
        "triggerCD": 1.0,
        "targetType": "Enemy",
        "ignoreScene": true
      },
      "collisionActions": [
        {
          "$type": "AILPBJHDHDG",
          "abilityName": "Monster_Regisvine_Ice_BlizzardSpit_Hit"
        }
      ],
      "thisColliderName": "Collider",
      "targetColliderName": "InteeTrigger"
    }
  },
  "Regisvine_RangedAttack01_GuideL": {
    "$type": "CJKJIENLOHD",
    "common": {
      "effectAttachShape": {
        "$type": "OMIODKONOMG",
        "scaleZ": 0.4000000059604645
      }
    },
    "combat": {
      "property": {
        "useCreatorProperty": true,
        "hp": 999999.0,
        "attack": 15.0,
        "defense": 999999.0,
        "isLockHP": true,
        "canTriggerBullet": false
      },
      "beHit": {
        "hitBloodEffect": "",
        "muteAllHit": true,
        "muteAllHitEffect": true,
        "muteAllHitText": true
      },
      "combatLock": {
        "lockShape": "CircleLockEnemy",
        "denyLockOn": true,
        "lockType": "Default"
      }
    },
    "combatTemplate": "",
    "abilities": [
      {
        "abilityID": "PartControlBullet_Bullet",
        "abilityName": "Monster_Regisvine_Ice_PartControlBullet_Bullet",
        "abilityOverride": ""
      },
      {
        "abilityID": "PartControlBulletL_GlobalValue",
        "abilityName": "Monster_Regisvine_Ice_PartControlBulletL_GlobalValue",
        "abilityOverride": ""
      }
    ],
    "timer": {
      "lifeTime": 2.0
    },
    "move": {
      "$type": "DMLAFKAOGID",
      "speed": 8.0,
      "maxSpeed": 50.0,
      "minSpeed": 2.0,
      "anglerVelocity": 240.0,
      "acceleration": 100.0,
      "DPAAFHNMHHN": {
        "$type": "IFAANDLLGLP",
        "traceLerpCoef": 360.0
      },
      "delay": 0.5,
      "stickToGround": {
        "maxStepHeight": 20.0,
        "maxSlopeAngle": 150.0,
        "flexibleRange": 0.5,
        "isStickToWater": true,
        "unstickWhenDownSlide": "Keep"
      },
      "guidanceSpeedChange": false,
      "guidanceMinAnglerVelocity": 180.0,
      "guidanceDuration": 0.20000000298023224
    },
    "gadget": {
      "$type": "JENBBNKGGJP",
      "collision": {
        "triggerType": "TriggerAlways",
        "triggerCD": 0.5,
        "targetType": "Enemy"
      },
      "triggerActions": [
        {
          "$type": "AILPBJHDHDG",
          "abilityName": "Monster_Regisvine_Ice_PartControlBullet_Bullet"
        }
      ],
      "killByOther": true
    }
  },
  "Regisvine_RangedAttack01_GuideR": {
    "$type": "CJKJIENLOHD",
    "common": {
      "effectAttachShape": {
        "$type": "OMIODKONOMG",
        "scaleZ": 0.4000000059604645
      }
    },
    "combat": {
      "property": {
        "useCreatorProperty": true,
        "hp": 999999.0,
        "attack": 15.0,
        "defense": 999999.0,
        "isLockHP": true,
        "canTriggerBullet": false
      },
      "beHit": {
        "hitBloodEffect": "",
        "muteAllHit": true,
        "muteAllHitEffect": true,
        "muteAllHitText": true
      },
      "combatLock": {
        "lockShape": "CircleLockEnemy",
        "denyLockOn": true,
        "lockType": "Default"
      }
    },
    "combatTemplate": "",
    "abilities": [
      {
        "abilityID": "PartControlBullet_Bullet",
        "abilityName": "Monster_Regisvine_Ice_PartControlBullet_Bullet",
        "abilityOverride": ""
      },
      {
        "abilityID": "PartControlBulletR_GlobalValue",
        "abilityName": "Monster_Regisvine_Ice_PartControlBulletR_GlobalValue",
        "abilityOverride": ""
      }
    ],
    "timer": {
      "lifeTime": 2.0
    },
    "move": {
      "$type": "DMLAFKAOGID",
      "speed": 8.0,
      "maxSpeed": 50.0,
      "minSpeed": 2.0,
      "anglerVelocity": 240.0,
      "acceleration": 100.0,
      "DPAAFHNMHHN": {
        "$type": "IFAANDLLGLP",
        "traceLerpCoef": 360.0
      },
      "delay": 0.5,
      "stickToGround": {
        "maxStepHeight": 20.0,
        "maxSlopeAngle": 150.0,
        "flexibleRange": 0.5,
        "isStickToWater": true,
        "unstickWhenDownSlide": "Keep"
      },
      "guidanceSpeedChange": false,
      "guidanceMinAnglerVelocity": 180.0,
      "guidanceDuration": 0.20000000298023224
    },
    "gadget": {
      "$type": "JENBBNKGGJP",
      "collision": {
        "triggerType": "TriggerAlways",
        "triggerCD": 0.5,
        "targetType": "Enemy"
      },
      "triggerActions": [
        {
          "$type": "AILPBJHDHDG",
          "abilityName": "Monster_Regisvine_Ice_PartControlBullet_Bullet"
        }
      ],
      "killByOther": true
    }
  },
  "Regisvine_RangedAttack02_Bomb": {
    "$type": "CJKJIENLOHD",
    "common": {
      "effectAttachShape": {
        "$type": "OMIODKONOMG",
        "scaleZ": 0.4000000059604645
      }
    },
    "combat": {
      "property": {
        "useCreatorProperty": true,
        "hp": 999999.0,
        "attack": 10.0,
        "defense": 999999.0,
        "isLockHP": true
      },
      "beHit": {
        "hitBloodEffect": "",
        "muteAllHit": true,
        "muteAllHitEffect": true,
        "muteAllHitText": true
      },
      "combatLock": {
        "lockShape": "CircleLockEnemy",
        "denyLockOn": true,
        "lockType": "Default"
      }
    },
    "combatTemplate": "",
    "abilities": [
      {
        "abilityID": "Bomb_Loop",
        "abilityName": "Regisvine_RangedAttack02_Bomb_Loop",
        "abilityOverride": ""
      },
      {
        "abilityID": "Bomb_Explode",
        "abilityName": "Regisvine_RangedAttack02_Bomb_Explode",
        "abilityOverride": ""
      }
    ],
    "timer": {
      "lifeTime": 8.0
    },
    "move": {
      "$type": "DMLAFKAOGID",
      "speed": 15.0,
      "maxSpeed": 60.0,
      "minSpeed": 7.5,
      "anglerVelocity": 90.0,
      "acceleration": -40.0,
      "DPAAFHNMHHN": {
        "$type": "IFAANDLLGLP"
      },
      "guidanceDelay": 0.4000000059604645,
      "guidanceSpeedChange": false,
      "guidanceMinAnglerVelocity": 120.0,
      "guidanceDuration": 2.0
    },
    "gadget": {
      "$type": "JENBBNKGGJP",
      "collision": {
        "targetType": "Enemy"
      },
      "triggerActions": [
        {
          "$type": "AILPBJHDHDG",
          "abilityName": "Regisvine_RangedAttack02_Bomb_Explode"
        }
      ],
      "triggerLifeOverActions": [
        {
          "$type": "AILPBJHDHDG",
          "abilityName": "Regisvine_RangedAttack02_Bomb_Explode"
        }
      ],
      "killByOther": true
    }
  },
  "Regisvine_RangedAttack02_BombOnGround": {
    "$type": "CJKJIENLOHD",
    "common": {
      "effectAttachShape": {
        "$type": "OMIODKONOMG",
        "scaleZ": 0.4000000059604645
      }
    },
    "combat": {
      "property": {
        "useCreatorProperty": true,
        "hp": 999999.0,
        "attack": 10.0,
        "defense": 999999.0,
        "isLockHP": true
      },
      "combatLock": {
        "lockShape": "CircleLockEnemy",
        "denyLockOn": true,
        "lockType": "Default"
      }
    },
    "combatTemplate": "",
    "abilities": [
      {
        "abilityID": "Bomb_Loop",
        "abilityName": "Regisvine_RangedAttack02_BombOnGround_Loop",
        "abilityOverride": ""
      },
      {
        "abilityID": "Bomb_Explode",
        "abilityName": "Regisvine_RangedAttack02_BombOnGround_Explode",
        "abilityOverride": ""
      }
    ],
    "timer": {
      "lifeTime": 4.0
    },
    "gadget": {
      "$type": "JENBBNKGGJP",
      "collision": {
        "bornWithTriggerEnabled": false
      },
      "triggerLifeOverActions": [
        {
          "$type": "AILPBJHDHDG",
          "abilityName": "Regisvine_RangedAttack02_BombOnGround_Explode"
        }
      ],
      "killByOther": true
    }
  },
  "Regisvine_RangedAttack02_MinorMissile": {
    "$type": "CJKJIENLOHD",
    "common": {
      "effectAttachShape": {
        "$type": "OMIODKONOMG"
      }
    },
    "combat": {
      "property": {
        "useCreatorProperty": true,
        "isGhostToAllied": true,
        "isGhostToEnemy": true,
        "canTriggerBullet": false
      },
      "beHit": {
        "hitBloodEffect": "",
        "muteAllHit": true,
        "muteAllHitEffect": true,
        "muteAllHitText": true
      },
      "combatLock": {
        "lockShape": "CircleLockEnemy",
        "denyLockOn": true,
        "lockType": "Default"
      }
    },
    "combatTemplate": "",
    "abilities": [
      {
        "abilityID": "MinorMissile",
        "abilityName": "Regisvine_RangedAttack02_MinorMissile",
        "abilityOverride": ""
      }
    ],
    "timer": {
      "lifeTime": 5.0
    },
    "move": {
      "$type": "DMLAFKAOGID",
      "speed": 2.0,
      "maxSpeed": 15.0,
      "minSpeed": 2.0,
      "anglerVelocity": 180.0,
      "acceleration": 15.0,
      "DPAAFHNMHHN": {
        "$type": "IFAANDLLGLP",
        "traceLerpCoef": 360.0
      },
      "guidanceDelay": 0.800000011920929,
      "guidanceMinAnglerVelocity": 180.0,
      "guidanceDuration": 1.2000000476837158
    },
    "gadget": {
      "$type": "JENBBNKGGJP",
      "collision": {
        "targetType": "Enemy"
      },
      "triggerActions": [
        {
          "$type": "AILPBJHDHDG",
          "abilityName": "Regisvine_RangedAttack02_MinorMissile"
        }
      ],
      "triggerLifeOverActions": [
        {
          "$type": "AILPBJHDHDG",
          "abilityName": "Regisvine_RangedAttack02_MinorMissile"
        }
      ]
    }
  },
  "Regisvine_MissileAttack_LargeMissile": {
    "$type": "CJKJIENLOHD",
    "combat": {
      "property": {
        "useCreatorProperty": true,
        "hp": 100.0,
        "attack": 10.0,
        "isInvincible": true,
        "isGhostToAllied": true,
        "isGhostToEnemy": true,
        "canTriggerBullet": false
      },
      "combatLock": {
        "lockShape": "CircleLockEnemy",
        "denyLockOn": true,
        "lockType": "Default"
      }
    },
    "combatTemplate": "",
    "abilities": [
      {
        "abilityID": "LargeMissile",
        "abilityName": "Regisvine_MissileAttack_LargeMissile",
        "abilityOverride": ""
      }
    ],
    "timer": {
      "lifeTime": 5.0
    }
  },
  "Regisvine_MissileAttack_OnGround": {
    "$type": "CJKJIENLOHD",
    "common": {
      "effectAttachShape": {
        "$type": "OMIODKONOMG",
        "scaleZ": 0.4000000059604645
      }
    },
    "combat": {
      "property": {
        "useCreatorProperty": true,
        "hp": 999999.0,
        "attack": 10.0,
        "defense": 999999.0,
        "isLockHP": true
      },
      "combatLock": {
        "lockShape": "CircleLockEnemy",
        "denyLockOn": true,
        "lockType": "Default"
      }
    },
    "combatTemplate": "",
    "abilities": [
      {
        "abilityID": "Bomb_Loop",
        "abilityName": "Regisvine_MissileAttack_OnGround_Loop",
        "abilityOverride": ""
      },
      {
        "abilityID": "Bomb_Explode",
        "abilityName": "Regisvine_MissileAttack_OnGround_Explode",
        "abilityOverride": ""
      }
    ],
    "timer": {
      "lifeTime": 1.0
    },
    "gadget": {
      "$type": "JENBBNKGGJP",
      "collision": {
        "bornWithTriggerEnabled": false
      },
      "triggerLifeOverActions": [
        {
          "$type": "AILPBJHDHDG",
          "abilityName": "Regisvine_MissileAttack_OnGround_Explode"
        }
      ],
      "killByOther": true
    }
  },
  "Regisvine_RangedAttack02_IceFog": {
    "$type": "CJKJIENLOHD",
    "common": {
      "effectAttachShape": {
        "$type": "OMIODKONOMG",
        "scaleZ": 0.4000000059604645
      }
    },
    "combat": {
      "property": {
        "useCreatorProperty": true,
        "hp": 999999.0,
        "attack": 10.0,
        "defense": 999999.0,
        "isInvincible": true,
        "isLockHP": true,
        "isGhostToAllied": true,
        "isGhostToEnemy": true,
        "canTriggerBullet": false
      },
      "combatLock": {
        "lockShape": "CircleLockEnemy",
        "denyLockOn": true,
        "lockType": "Default"
      }
    },
    "combatTemplate": "",
    "abilities": [
      {
        "abilityID": "IceFog",
        "abilityName": "Regisvine_RangedAttack02_IceFog",
        "abilityOverride": ""
      }
    ],
    "timer": {
      "lifeTime": 5.0
    }
  },
  "Regisvine_MeleeAttack03_IceFog": {
    "$type": "CJKJIENLOHD",
    "common": {
      "effectAttachShape": {
        "$type": "OMIODKONOMG",
        "scaleZ": 0.4000000059604645
      }
    },
    "combat": {
      "property": {
        "useCreatorProperty": true,
        "hp": 999999.0,
        "attack": 10.0,
        "defense": 999999.0,
        "isInvincible": true,
        "isLockHP": true,
        "isGhostToAllied": true,
        "isGhostToEnemy": true,
        "canTriggerBullet": false
      },
      "combatLock": {
        "lockShape": "CircleLockEnemy",
        "denyLockOn": true,
        "lockType": "Default"
      }
    },
    "combatTemplate": "",
    "abilities": [
      {
        "abilityID": "IceFog",
        "abilityName": "Regisvine_MeleeAttack03_IceFog",
        "abilityOverride": ""
      }
    ],
    "timer": {
      "lifeTime": 20.0
    }
  },
  "Regisvine_BlizzardSpit_IceFog": {
    "$type": "CJKJIENLOHD",
    "common": {
      "effectAttachShape": {
        "$type": "OMIODKONOMG",
        "scaleZ": 0.4000000059604645
      }
    },
    "combat": {
      "property": {
        "useCreatorProperty": true,
        "hp": 999999.0,
        "attack": 10.0,
        "defense": 999999.0,
        "isInvincible": true,
        "isLockHP": true,
        "isGhostToAllied": true,
        "isGhostToEnemy": true,
        "canTriggerBullet": false
      }
    },
    "combatTemplate": "",
    "abilities": [
      {
        "abilityID": "IceFog",
        "abilityName": "Regisvine_BlizzardSpit_IceFog",
        "abilityOverride": ""
      }
    ],
    "timer": {
      "lifeTime": 30.0
    }
  },
  "Regisvine_Ice_IceWave": {
    "$type": "CJKJIENLOHD",
    "common": {
      "effectAttachShape": {
        "$type": "OMIODKONOMG"
      }
    },
    "combat": {
      "property": {
        "useCreatorProperty": true,
        "hp": 999999.0,
        "attack": 10.0,
        "defense": 999999.0,
        "isInvincible": true,
        "isGhostToAllied": true,
        "isGhostToEnemy": true
      },
      "beHit": {
        "hitBloodEffect": "",
        "muteAllHit": true,
        "muteAllHitEffect": true,
        "muteAllHitText": true
      },
      "combatLock": {
        "lockShape": "CircleLockEnemy",
        "denyLockOn": true,
        "lockType": "Default"
      }
    },
    "combatTemplate": "",
    "abilities": [
      {
        "abilityID": "Wave",
        "abilityName": "Monster_Regisvine_Ice_IceWave",
        "abilityOverride": ""
      }
    ],
    "timer": {
      "lifeTime": 2.0
    },
    "move": {
      "$type": "GONNMCBKAOC",
      "speed": 20.0
    },
    "gadget": {
      "$type": "JENBBNKGGJP",
      "collision": {
        "triggerType": "TriggerNoRepeat",
        "targetType": "Enemy",
        "ignoreScene": true
      }
    }
  },
  "Regisvine_Fire_FruitGadget": {
    "$type": "CJKJIENLOHD",
    "combat": {
      "property": {
        "useCreatorProperty": true,
        "hp": 999999.0,
        "attack": 15.0,
        "defense": 999999.0,
        "isLockHP": true,
        "canTriggerBullet": false,
        "DAIAKCFLDCC": true
      },
      "beHit": {
        "hitBloodEffect": "",
        "muteAllHitEffect": true
      },
      "combatLock": {
        "lockShape": "CircleLockEnemy",
        "lockType": "Boss_Lv5"
      }
    },
    "combatTemplate": "",
    "abilities": [
      {
        "abilityID": "ShieldBar",
        "abilityName": "Regisvine_Fire_FruitGadget",
        "abilityOverride": ""
      }
    ],
    "timer": {
      "lifeInfinite": true
    },
    "move": {
      "$type": "MMAPEFIEGAL",
      "target": "TargetEntity",
      "attachPoint": "Fruit",
      "LFOHLEKJFBI": ""
    },
    "billboard": {
      "$type": "DNGNMAJBCNP",
      "attachPoint": "BillboardAttach",
      "offset": {
        "y": 0.4000000059604645
      },
      "radiusOffset": 0.5,
      "showDistance": 48.0,
      "showHPBar": true,
      "size": "Big",
      "shieldBarOnly": true
    }
  },
  "Regisvine_Fire_CoreGadget": {
    "$type": "CJKJIENLOHD",
    "combat": {
      "property": {
        "useCreatorProperty": true,
        "hp": 999999.0,
        "attack": 15.0,
        "defense": 999999.0,
        "isLockHP": true,
        "canTriggerBullet": false,
        "DAIAKCFLDCC": true
      },
      "beHit": {
        "hitBloodEffect": "",
        "muteAllHitEffect": true
      },
      "combatLock": {
        "lockShape": "CircleLockEnemy",
        "lockType": "Boss_Lv5"
      }
    },
    "combatTemplate": "",
    "abilities": [
      {
        "abilityID": "ShieldBar",
        "abilityName": "Regisvine_Fire_CoreGadget",
        "abilityOverride": ""
      }
    ],
    "timer": {
      "lifeInfinite": true
    },
    "move": {
      "$type": "MMAPEFIEGAL",
      "target": "TargetEntity",
      "attachPoint": "Core",
      "followRotation": true,
      "LFOHLEKJFBI": ""
    },
    "billboard": {
      "$type": "DNGNMAJBCNP",
      "attachPoint": "BillboardAttach",
      "radiusOffset": 0.5,
      "showDistance": 48.0,
      "showHPBar": true,
      "size": "Big",
      "shieldBarOnly": true
    }
  },
  "Regisvine_Fire_WillOWisp": {
    "$type": "CJKJIENLOHD",
    "common": {
      "effectAttachShape": {
        "$type": "OMIODKONOMG",
        "scaleZ": 0.4000000059604645
      }
    },
    "combat": {
      "property": {
        "useCreatorProperty": true,
        "hp": 999999.0,
        "attack": 10.0,
        "defense": 999999.0,
        "isLockHP": true
      },
      "beHit": {
        "hitBloodEffect": "",
        "muteAllHit": true,
        "muteAllHitEffect": true,
        "muteAllHitText": true
      },
      "combatLock": {
        "lockShape": "CircleLockEnemy",
        "denyLockOn": true,
        "lockType": "Default"
      }
    },
    "combatTemplate": "",
    "abilities": [
      {
        "abilityID": "Loop",
        "abilityName": "Regisvine_Fire_WillOWisp_Loop",
        "abilityOverride": ""
      },
      {
        "abilityID": "Explode",
        "abilityName": "Regisvine_Fire_WillOWisp_Explode",
        "abilityOverride": ""
      }
    ],
    "timer": {
      "lifeTime": 8.0
    },
    "move": {
      "$type": "DMLAFKAOGID",
      "speed": 13.0,
      "maxSpeed": 60.0,
      "minSpeed": 5.0,
      "anglerVelocity": 180.0,
      "acceleration": -10.0,
      "DPAAFHNMHHN": {
        "$type": "IFAANDLLGLP"
      },
      "itanoCircusStartAngler": 240.0,
      "guidanceDelay": 0.5,
      "guidanceMinAnglerVelocity": 60.0,
      "guidanceDuration": 4.0
    },
    "gadget": {
      "$type": "JENBBNKGGJP",
      "collision": {
        "targetType": "Enemy"
      },
      "triggerActions": [
        {
          "$type": "AILPBJHDHDG",
          "abilityName": "Regisvine_Fire_WillOWisp_Explode"
        }
      ],
      "triggerLifeOverActions": [
        {
          "$type": "AILPBJHDHDG",
          "abilityName": "Regisvine_Fire_WillOWisp_Explode"
        }
      ],
      "killByOther": true
    }
  },
  "Regisvine_Fire_FireWave": {
    "$type": "CJKJIENLOHD",
    "common": {
      "effectAttachShape": {
        "$type": "OMIODKONOMG"
      }
    },
    "combat": {
      "property": {
        "useCreatorProperty": true,
        "hp": 999999.0,
        "attack": 10.0,
        "defense": 999999.0,
        "isInvincible": true,
        "isGhostToAllied": true,
        "isGhostToEnemy": true
      },
      "beHit": {
        "hitBloodEffect": "",
        "muteAllHit": true,
        "muteAllHitEffect": true,
        "muteAllHitText": true
      },
      "combatLock": {
        "lockShape": "CircleLockEnemy",
        "denyLockOn": true,
        "lockType": "Default"
      }
    },
    "combatTemplate": "",
    "abilities": [
      {
        "abilityID": "Wave",
        "abilityName": "Monster_Regisvine_Fire_FireWave",
        "abilityOverride": ""
      }
    ],
    "timer": {
      "lifeTime": 2.0
    },
    "move": {
      "$type": "GONNMCBKAOC",
      "speed": 20.0
    },
    "gadget": {
      "$type": "JENBBNKGGJP",
      "collision": {
        "triggerType": "TriggerNoRepeat",
        "targetType": "Enemy",
        "ignoreScene": true
      }
    }
  },
  "Regisvine_Fire_MeleeAttack03_FireArea": {
    "$type": "CJKJIENLOHD",
    "common": {
      "effectAttachShape": {
        "$type": "OMIODKONOMG",
        "scaleZ": 0.4000000059604645
      }
    },
    "combat": {
      "property": {
        "useCreatorProperty": true,
        "hp": 999999.0,
        "attack": 10.0,
        "defense": 999999.0,
        "isInvincible": true,
        "isLockHP": true,
        "isGhostToAllied": true,
        "isGhostToEnemy": true,
        "canTriggerBullet": false
      },
      "combatLock": {
        "lockShape": "CircleLockEnemy",
        "denyLockOn": true,
        "lockType": "Default"
      }
    },
    "combatTemplate": "",
    "abilities": [
      {
        "abilityID": "FireArea",
        "abilityName": "Regisvine_Fire_MeleeAttack03_FireArea",
        "abilityOverride": ""
      }
    ],
    "timer": {
      "lifeTime": 12.0
    }
  },
  "Regisvine_Fire_SurroundingFire": {
    "$type": "CJKJIENLOHD",
    "common": {
      "effectAttachShape": {
        "$type": "OMIODKONOMG",
        "scaleZ": 0.4000000059604645
      }
    },
    "combat": {
      "property": {
        "useCreatorProperty": true,
        "hp": 999999.0,
        "attack": 15.0,
        "defense": 999999.0,
        "isInvincible": true,
        "isGhostToAllied": true,
        "isGhostToEnemy": true,
        "canTriggerBullet": false
      },
      "combatLock": {
        "lockShape": "CircleLockEnemy",
        "denyLockOn": true,
        "lockType": "Default"
      }
    },
    "combatTemplate": "",
    "abilities": [
      {
        "abilityID": "SurroundingFire",
        "abilityName": "Monster_Regisvine_Fire_SurroundingFire",
        "abilityOverride": ""
      }
    ],
    "timer": {
      "lifeTime": 3.0
    }
  },
  "Regisvine_Fire_SurroundingFire_CloseField": {
    "$type": "CJKJIENLOHD",
    "common": {
      "effectAttachShape": {
        "$type": "OMIODKONOMG",
        "scaleZ": 0.4000000059604645
      }
    },
    "combat": {
      "property": {
        "useCreatorProperty": true,
        "hp": 999999.0,
        "attack": 15.0,
        "defense": 999999.0,
        "isInvincible": true,
        "isGhostToAllied": true,
        "isGhostToEnemy": true,
        "canTriggerBullet": false
      },
      "combatLock": {
        "lockShape": "CircleLockEnemy",
        "denyLockOn": true,
        "lockType": "Default"
      }
    },
    "combatTemplate": "",
    "abilities": [
      {
        "abilityID": "CloseField",
        "abilityName": "Monster_Regisvine_Fire_SurroundingFire_CloseField",
        "abilityOverride": ""
      }
    ],
    "field": {
      "concernType": "AllAvatars",
      "shape": "CircleR8",
      "fromShape": "",
      "triggerInfinite": true,
      "checkInterval": 0.10000000149011612,
      "lifeTime": 9.0,
      "colliderName": "",
      "fromColliderName": ""
    },
    "timer": {
      "lifeTime": 9.0
    }
  },
  "Regisvine_Fire_FireBullet": {
    "$type": "CJKJIENLOHD",
    "common": {
      "effectAttachShape": {
        "$type": "OMIODKONOMG",
        "scaleZ": 0.4000000059604645
      }
    },
    "combat": {
      "property": {
        "useCreatorProperty": true,
        "hp": 999999.0,
        "attack": 10.0,
        "defense": 999999.0,
        "isLockHP": true
      },
      "beHit": {
        "hitBloodEffect": "",
        "muteAllHit": true,
        "muteAllHitEffect": true,
        "muteAllHitText": true
      },
      "combatLock": {
        "lockShape": "CircleLockEnemy",
        "denyLockOn": true,
        "lockType": "Default"
      }
    },
    "combatTemplate": "",
    "abilities": [
      {
        "abilityID": "Bullet_Loop",
        "abilityName": "Monster_Regisvine_Fire_FireBullet_Loop",
        "abilityOverride": ""
      },
      {
        "abilityID": "Bullet_Explode",
        "abilityName": "Monster_Regisvine_Fire_FireBullet_Explode",
        "abilityOverride": ""
      }
    ],
    "timer": {
      "lifeTime": 3.0
    },
    "move": {
      "$type": "BFICFPAEFPB",
      "speed": 30.0,
      "DPAAFHNMHHN": {
        "$type": "IFAANDLLGLP"
      },
      "straightRange": 100.0,
      "gravityOfAcceleration": 2.0,
      "airResistance": 0.5
    },
    "gadget": {
      "$type": "JENBBNKGGJP",
      "collision": {
        "targetType": "Enemy"
      },
      "triggerActions": [
        {
          "$type": "AILPBJHDHDG",
          "abilityName": "Monster_Regisvine_Fire_FireBullet_Explode"
        }
      ],
      "triggerLifeOverActions": [
        {
          "$type": "AILPBJHDHDG",
          "abilityName": "Monster_Regisvine_Fire_FireBullet_Explode"
        }
      ],
      "killByOther": true
    }
  },
  "Regisvine_Fire_BlazeSeed": {
    "$type": "CJKJIENLOHD",
    "hasModel": true,
    "combat": {
      "property": {
        "useCreatorProperty": true,
        "hp": 999999.0,
        "attack": 15.0,
        "defense": 999999.0,
        "isLockHP": true
      },
      "beHit": {
        "hitBloodEffect": "",
        "muteAllHitEffect": true
      },
      "combatLock": {
        "lockShape": "CircleLockEnemy",
        "lockType": "Boss_Lv5"
      },
      "die": {
        "dieEndTime": 2.0,
        "dieForceDisappearTime": 2.0,
        "dieDisappearEffect": ""
      }
    },
    "combatTemplate": "",
    "abilities": [
      {
        "abilityID": "BlazeSeedGadget",
        "abilityName": "Monster_Regisvine_Fire_BlazeSeedGadget",
        "abilityOverride": ""
      },
      {
        "abilityID": "Neutralize",
        "abilityName": "Monster_Regisvine_Fire_BlazeSeed_Neutralize",
        "abilityOverride": ""
      }
    ],
    "timer": {
      "lifeInfinite": true
    },
    "move": {
      "$type": "MMAPEFIEGAL",
      "target": "TargetEntity",
      "attachPoint": "Core",
      "LFOHLEKJFBI": ""
    },
    "billboard": {
      "$type": "DNGNMAJBCNP",
      "attachPoint": "BillboardAttach",
      "offset": {
        "y": 0.4000000059604645
      },
      "radiusOffset": 0.5,
      "showDistance": 48.0,
      "showHPBar": true,
      "size": "Big",
      "shieldBarOnly": true
    }
  },
  "Regisvine_Fire_BlazeSeed_FireArea": {
    "$type": "CJKJIENLOHD",
    "common": {
      "effectAttachShape": {
        "$type": "OMIODKONOMG",
        "scaleZ": 0.4000000059604645
      }
    },
    "combat": {
      "property": {
        "useCreatorProperty": true,
        "hp": 999999.0,
        "attack": 10.0,
        "defense": 999999.0,
        "isInvincible": true,
        "isLockHP": true,
        "isGhostToAllied": true,
        "isGhostToEnemy": true,
        "canTriggerBullet": false
      },
      "combatLock": {
        "lockShape": "CircleLockEnemy",
        "denyLockOn": true,
        "lockType": "Default"
      }
    },
    "combatTemplate": "",
    "abilities": [
      {
        "abilityID": "FireArea",
        "abilityName": "Regisvine_Fire_BlazeSeed_FireArea",
        "abilityOverride": ""
      },
      {
        "abilityID": "FireArea_Kill",
        "abilityName": "Regisvine_Fire_BlazeSeed_FireArea_Kill",
        "abilityOverride": ""
      }
    ],
    "timer": {
      "lifeTime": 40.0
    }
  },
  "Regisvine_Fire_BlazeSeed_Bullet": {
    "$type": "CJKJIENLOHD",
    "common": {
      "effectAttachShape": {
        "$type": "OMIODKONOMG",
        "scaleZ": 0.4000000059604645
      }
    },
    "combat": {
      "property": {
        "useCreatorProperty": true,
        "hp": 999999.0,
        "attack": 10.0,
        "defense": 999999.0,
        "isLockHP": true
      },
      "beHit": {
        "hitBloodEffect": "",
        "muteAllHit": true,
        "muteAllHitEffect": true,
        "muteAllHitText": true
      },
      "combatLock": {
        "lockShape": "CircleLockEnemy",
        "denyLockOn": true,
        "lockType": "Default"
      }
    },
    "combatTemplate": "",
    "abilities": [
      {
        "abilityID": "Bullet_Loop",
        "abilityName": "Monster_Regisvine_Fire_BlazeSeed_Bullet_Loop",
        "abilityOverride": ""
      },
      {
        "abilityID": "Bullet_Landed",
        "abilityName": "Monster_Regisvine_Fire_BlazeSeed_Bullet_Landed",
        "abilityOverride": ""
      }
    ],
    "timer": {
      "lifeTime": 3.0
    },
    "move": {
      "$type": "GONNMCBKAOC",
      "speed": 40.0
    },
    "gadget": {
      "$type": "JENBBNKGGJP",
      "collision": {
        "targetType": "Enemy"
      },
      "triggerActions": [
        {
          "$type": "AILPBJHDHDG",
          "abilityName": "Monster_Regisvine_Fire_BlazeSeed_Bullet_Landed"
        }
      ],
      "triggerLifeOverActions": [
        {
          "$type": "AILPBJHDHDG",
          "abilityName": "Monster_Regisvine_Fire_BlazeSeed_Bullet_Landed"
        }
      ],
      "killByOther": true
    }
  },
  "Regisvine_Fire_WillOWispLauncher": {
    "$type": "CJKJIENLOHD",
    "common": {
      "effectAttachShape": {
        "$type": "OMIODKONOMG",
        "scaleZ": 0.4000000059604645
      }
    },
    "combat": {
      "property": {
        "useCreatorProperty": true,
        "hp": 999999.0,
        "attack": 10.0,
        "defense": 999999.0,
        "isLockHP": true
      },
      "beHit": {
        "hitBloodEffect": "",
        "muteAllHit": true,
        "muteAllHitEffect": true,
        "muteAllHitText": true
      },
      "combatLock": {
        "lockShape": "CircleLockEnemy",
        "denyLockOn": true,
        "lockType": "Default"
      }
    },
    "combatTemplate": "",
    "abilities": [
      {
        "abilityID": "Loop",
        "abilityName": "Regisvine_Fire_WillOWispLauncher_Loop",
        "abilityOverride": ""
      },
      {
        "abilityID": "Explode",
        "abilityName": "Regisvine_Fire_WillOWispLauncher_Launch",
        "abilityOverride": ""
      }
    ],
    "timer": {
      "lifeTime": 1.7000000476837158
    },
    "gadget": {
      "$type": "JENBBNKGGJP",
      "collision": {
        "targetType": "Enemy"
      },
      "triggerLifeOverActions": [
        {
          "$type": "AILPBJHDHDG",
          "abilityName": "Regisvine_Fire_WillOWispLauncher_Launch"
        }
      ],
      "killByOther": true
    }
  },
  "Regisvine_Ice_Event_DropIce": {
    "$type": "CJKJIENLOHD",
    "combat": {
      "property": {
        "useCreatorProperty": true,
        "hp": 99999.0,
        "weight": 50.0,
        "isInvincible": true,
        "isLockHP": true,
        "isGhostToAllied": true,
        "isGhostToEnemy": true,
        "canTriggerBullet": false
      },
      "beHit": {
        "hitBloodEffect": "",
        "muteAllHit": true,
        "muteAllHitEffect": true,
        "muteAllHitText": true
      },
      "combatLock": {
        "lockShape": "CircleLockEnemy",
        "denyLockOn": true,
        "lockType": "Default"
      }
    },
    "combatTemplate": "",
    "abilities": [
      {
        "abilityID": "MissileAttack_Activity",
        "abilityName": "Monster_Regisvine_Ice_MissileAttack_Activity",
        "abilityOverride": ""
      }
    ]
  },
  "Regisvine_Ice_FruitGadget_Activity": {
    "$type": "CJKJIENLOHD",
    "combat": {
      "property": {
        "useCreatorProperty": true,
        "hp": 999999.0,
        "attack": 15.0,
        "defense": 999999.0,
        "isLockHP": true,
        "canTriggerBullet": false
      },
      "beHit": {
        "hitBloodEffect": "",
        "muteAllHitEffect": true
      },
      "combatLock": {
        "lockShape": "CircleLockEnemy",
        "lockType": "Boss_Lv5"
      }
    },
    "combatTemplate": "",
    "abilities": [
      {
        "abilityID": "ShieldBar",
        "abilityName": "Regisvine_FruitGadget",
        "abilityOverride": ""
      }
    ],
    "timer": {
      "lifeInfinite": true
    },
    "move": {
      "$type": "MMAPEFIEGAL",
      "target": "TargetEntity",
      "attachPoint": "Fruit",
      "LFOHLEKJFBI": ""
    },
    "billboard": {
      "$type": "DNGNMAJBCNP",
      "attachPoint": "BillboardAttach",
      "offset": {
        "y": 0.4000000059604645
      },
      "radiusOffset": 0.5,
      "showDistance": 48.0,
      "showHPBar": true,
      "size": "Big",
      "shieldBarOnly": true
    }
  },
  "Regisvine_Ice_CoreGadget_Activity": {
    "$type": "CJKJIENLOHD",
    "combat": {
      "property": {
        "useCreatorProperty": true,
        "hp": 999999.0,
        "attack": 15.0,
        "defense": 999999.0,
        "isLockHP": true,
        "canTriggerBullet": false
      },
      "beHit": {
        "hitBloodEffect": "",
        "muteAllHitEffect": true
      },
      "combatLock": {
        "lockShape": "CircleLockEnemy",
        "lockType": "Boss_Lv5"
      }
    },
    "combatTemplate": "",
    "abilities": [
      {
        "abilityID": "ShieldBar",
        "abilityName": "Regisvine_CoreGadget",
        "abilityOverride": ""
      }
    ],
    "timer": {
      "lifeInfinite": true
    },
    "move": {
      "$type": "MMAPEFIEGAL",
      "target": "TargetEntity",
      "attachPoint": "Core",
      "followRotation": true,
      "LFOHLEKJFBI": ""
    },
    "billboard": {
      "$type": "DNGNMAJBCNP",
      "attachPoint": "BillboardAttach",
      "radiusOffset": 0.5,
      "showDistance": 48.0,
      "showHPBar": true,
      "size": "Big",
      "shieldBarOnly": true
    }
  },
  "Regisvine_Electric_RangeAttack_Bullet_Cathode": {
    "$type": "CJKJIENLOHD",
    "common": {
      "effectAttachShape": {
        "$type": "OMIODKONOMG",
        "scaleZ": 0.4000000059604645
      }
    },
    "combat": {
      "property": {
        "useCreatorProperty": true,
        "hp": 999999.0,
        "attack": 10.0,
        "defense": 999999.0,
        "isLockHP": true
      },
      "beHit": {
        "hitBloodEffect": "",
        "muteAllHit": true,
        "muteAllHitEffect": true,
        "muteAllHitText": true
      },
      "combatLock": {
        "lockShape": "CircleLockEnemy",
        "denyLockOn": true,
        "lockType": "Default"
      }
    },
    "combatTemplate": "",
    "abilities": [
      {
        "abilityID": "Monster_Regisvine_RangeAttack_Bullet_Cathode",
        "abilityName": "Monster_Regisvine_RangeAttack_Bullet_Cathode",
        "abilityOverride": ""
      },
      {
        "abilityID": "Monster_Regisvine_RangeAttack_Bullet_Damage",
        "abilityName": "Monster_Regisvine_RangeAttack_Bullet_Damage",
        "abilityOverride": ""
      }
    ],
    "timer": {
      "lifeTime": 5.0
    },
    "move": {
      "$type": "BFICFPAEFPB",
      "speed": 30.0,
      "DPAAFHNMHHN": {
        "$type": "IFAANDLLGLP"
      },
      "delay": 0.44999998807907104,
      "straightRange": 100.0,
      "gravityOfAcceleration": 2.0,
      "airResistance": 0.5
    },
    "gadget": {
      "$type": "JENBBNKGGJP",
      "collision": {
        "targetType": "Enemy"
      },
      "triggerActions": [
        {
          "$type": "AILPBJHDHDG",
          "abilityName": "Monster_Regisvine_RangeAttack_Bullet_Damage"
        }
      ],
      "triggerLifeOverActions": [
        {
          "$type": "AILPBJHDHDG",
          "abilityName": "Monster_Regisvine_RangeAttack_Bullet_Damage"
        }
      ],
      "killByOther": true
    }
  },
  "Regisvine_Electric_ThunderNet_Cathode_Bullet": {
    "$type": "CJKJIENLOHD",
    "common": {
      "effectAttachShape": {
        "$type": "OMIODKONOMG",
        "scaleX": 1.2000000476837158,
        "scaleY": 1.2000000476837158,
        "scaleZ": 1.2000000476837158
      },
      "scale": 1.2000000476837158
    },
    "hasModel": true,
    "combat": {
      "property": {
        "useCreatorProperty": true,
        "hp": 999999.0,
        "attack": 15.0,
        "defense": 999999.0,
        "isInvincible": true,
        "isGhostToEnemy": true
      },
      "beHit": {
        "hitBloodEffect": "",
        "hitAutoRedirect": false,
        "muteAllHitText": true
      },
      "combatLock": {
        "lockShape": "CircleLockEnemy",
        "denyLockOn": true,
        "lockType": "Default"
      }
    },
    "combatTemplate": "",
    "timer": {
      "lifeTime": 3.0
    },
    "move": {
      "$type": "GONNMCBKAOC",
      "velocityForce": {
        "excludeForces": ["WindZoneType"]
      },
      "speed": 15.0,
      "minSpeed": 5.0,
      "acceleration": -10.0,
      "accelerationTime": 1.0,
      "DPAAFHNMHHN": {
        "$type": "IFAANDLLGLP",
        "traceLerpCoef": 360.0
      },
      "stickToGround": {
        "maxStepHeight": 0.5,
        "maxSlopeAngle": 60.0,
        "heightToGround": 0.20000000298023224,
        "flexibleRange": 0.30000001192092896,
        "isStickToWater": true,
        "ignoreBarrier": true,
        "unstickWhenDownSlide": "Keep",
        "unstickWhenUpSlide": "Keep"
      }
    }
  },
  "Regisvine_Electric_LaserAttack_Bullet": {
    "$type": "CJKJIENLOHD",
    "common": {
      "effectAttachShape": {
        "$type": "OMIODKONOMG",
        "scaleZ": 0.4000000059604645
      }
    },
    "combat": {
      "property": {
        "useCreatorProperty": true,
        "hp": 999999.0,
        "attack": 15.0,
        "defense": 999999.0,
        "isLockHP": true,
        "canTriggerBullet": false
      },
      "beHit": {
        "hitBloodEffect": "",
        "muteAllHit": true,
        "muteAllHitEffect": true,
        "muteAllHitText": true
      },
      "combatLock": {
        "lockShape": "CircleLockEnemy",
        "denyLockOn": true,
        "lockType": "Default"
      }
    },
    "combatTemplate": "",
    "timer": {
      "lifeTime": 2.0
    },
    "move": {
      "$type": "DMLAFKAOGID",
      "speed": 20.0,
      "maxSpeed": 20.0,
      "minSpeed": 2.0,
      "anglerVelocity": 240.0,
      "acceleration": 100.0,
      "DPAAFHNMHHN": {
        "$type": "IFAANDLLGLP",
        "traceLerpCoef": 180.0
      },
      "delay": 0.20000000298023224,
      "stickToGround": {
        "maxStepHeight": 20.0,
        "maxSlopeAngle": 150.0,
        "flexibleRange": 0.5,
        "isStickToWater": true,
        "unstickWhenDownSlide": "Keep"
      },
      "guidanceSpeedChange": false,
      "guidanceMinAnglerVelocity": 90.0,
      "guidanceDuration": 0.20000000298023224
    },
    "gadget": {
      "$type": "JENBBNKGGJP",
      "collision": {
        "triggerType": "TriggerAlways",
        "triggerCD": 0.5,
        "targetType": "Enemy"
      },
      "killByOther": true
    }
  },
  "Regisvine_Electric_Anode_Charge": {
    "$type": "CJKJIENLOHD",
    "common": {
      "effectAttachShape": {
        "$type": "OMIODKONOMG"
      }
    },
    "combat": {
      "property": {
        "useCreatorProperty": true,
        "hp": 999999.0,
        "attack": 15.0,
        "defense": 999999.0,
        "isLockHP": true
      },
      "beHit": {
        "hitBloodEffect": "",
        "muteAllHit": true,
        "muteAllHitEffect": true,
        "muteAllHitText": true
      },
      "combatLock": {
        "lockShape": "CircleLockEnemy",
        "lockType": "Avatar&Monster_Lv4"
      }
    },
    "combatTemplate": "",
    "abilities": [
      {
        "abilityID": "Monster_Regisvine_Anode_Charge_Ability",
        "abilityName": "Monster_Regisvine_Anode_Charge_Ability",
        "abilityOverride": ""
      }
    ],
    "timer": {
      "lifeTime": 200.0
    },
    "billboard": {
      "$type": "DNGNMAJBCNP",
      "attachPoint": "BillboardAttach",
      "offset": {
        "y": 0.4000000059604645
      },
      "radiusOffset": 0.5,
      "showDistance": 48.0,
      "showHPBar": true,
      "shieldBarOnly": true
    }
  },
  "Regisvine_Electric_Cathode_Charge": {
    "$type": "CJKJIENLOHD",
    "common": {
      "effectAttachShape": {
        "$type": "OMIODKONOMG"
      }
    },
    "combat": {
      "property": {
        "useCreatorProperty": true,
        "hp": 999999.0,
        "attack": 15.0,
        "defense": 999999.0,
        "isLockHP": true
      },
      "beHit": {
        "hitBloodEffect": "",
        "muteAllHit": true,
        "muteAllHitEffect": true,
        "muteAllHitText": true
      },
      "combatLock": {
        "lockShape": "CircleLockEnemy",
        "lockType": "Avatar&Monster_Lv4"
      }
    },
    "combatTemplate": "",
    "abilities": [
      {
        "abilityID": "Monster_Regisvine_Cathode_Charge_Ability",
        "abilityName": "Monster_Regisvine_Cathode_Charge_Ability",
        "abilityOverride": ""
      }
    ],
    "timer": {
      "lifeTime": 200.0
    },
    "billboard": {
      "$type": "DNGNMAJBCNP",
      "attachPoint": "BillboardAttach",
      "offset": {
        "y": 0.4000000059604645
      },
      "radiusOffset": 0.5,
      "showDistance": 48.0,
      "showHPBar": true,
      "shieldBarOnly": true
    }
  },
  "Regisvine_Electric_ThunderAttack_Gadget": {
    "$type": "CJKJIENLOHD",
    "combat": {
      "property": {
        "useCreatorProperty": true,
        "hp": 999999.0,
        "attack": 10.0,
        "isInvincible": true,
        "isGhostToAllied": true,
        "isGhostToEnemy": true
      },
      "combatLock": {
        "lockShape": "CircleLockEnemy",
        "denyLockOn": true,
        "lockType": "Default"
      }
    },
    "combatTemplate": "",
    "abilities": [
      {
        "abilityID": "Monster_Regisvine_Create_ThunaderDamageLogic",
        "abilityName": "Monster_Regisvine_Create_ThunaderDamageLogic",
        "abilityOverride": ""
      }
    ],
    "timer": {
      "lifeTime": 1.5
    },
    "canRemoveByClient": true
  },
  "Regisvine_Electric_ThunderAttack_Bullet": {
    "$type": "CJKJIENLOHD",
    "common": {
      "effectAttachShape": {
        "$type": "OMIODKONOMG"
      }
    },
    "combat": {
      "property": {
        "useCreatorProperty": true,
        "hp": 999999.0,
        "attack": 10.0,
        "defense": 999999.0,
        "isInvincible": true,
        "isGhostToAllied": true,
        "isGhostToEnemy": true
      },
      "beHit": {
        "hitBloodEffect": "",
        "muteAllHit": true,
        "muteAllHitEffect": true,
        "muteAllHitText": true
      },
      "combatLock": {
        "lockShape": "CircleLockEnemy",
        "denyLockOn": true,
        "lockType": "Default"
      }
    },
    "combatTemplate": "",
    "timer": {
      "lifeTime": 5.0
    },
    "move": {
      "$type": "BFDBCCCADKH",
      "speed": 20.0,
      "DPAAFHNMHHN": {
        "$type": "IFAANDLLGLP"
      },
      "angleOffHor": 45.0,
      "gravityOfAcceleration": 15.0,
      "GEBCKKDCGDP": "",
      "NKPHOKHJKGC": ""
    }
  },
  "Regisvine_Electric_MeleeAttack01_Wave_Anode": {
    "$type": "CJKJIENLOHD",
    "common": {
      "effectAttachShape": {
        "$type": "OMIODKONOMG"
      }
    },
    "combat": {
      "property": {
        "useCreatorProperty": true,
        "hp": 999999.0,
        "attack": 10.0,
        "defense": 999999.0,
        "isInvincible": true,
        "isGhostToAllied": true,
        "isGhostToEnemy": true
      },
      "beHit": {
        "hitBloodEffect": "",
        "muteAllHit": true,
        "muteAllHitEffect": true,
        "muteAllHitText": true
      },
      "combatLock": {
        "lockShape": "CircleLockEnemy",
        "denyLockOn": true,
        "lockType": "Default"
      }
    },
    "combatTemplate": "",
    "abilities": [
      {
        "abilityID": "Wave",
        "abilityName": "Monster_Regisvine_Anode_MeleeAttack_Wave_Ability",
        "abilityOverride": ""
      }
    ],
    "timer": {
      "lifeTime": 1.7000000476837158
    },
    "move": {
      "$type": "GONNMCBKAOC",
      "speed": 20.0
    },
    "gadget": {
      "$type": "JENBBNKGGJP",
      "collision": {
        "triggerType": "TriggerNoRepeat",
        "targetType": "Enemy",
        "ignoreScene": true
      }
    }
  },
  "Regisvine_Electric_MeleeAttack01_Wave_Cathode": {
    "$type": "CJKJIENLOHD",
    "common": {
      "effectAttachShape": {
        "$type": "OMIODKONOMG"
      }
    },
    "combat": {
      "property": {
        "useCreatorProperty": true,
        "hp": 999999.0,
        "attack": 10.0,
        "defense": 999999.0,
        "isInvincible": true,
        "isGhostToAllied": true,
        "isGhostToEnemy": true
      },
      "beHit": {
        "hitBloodEffect": "",
        "muteAllHit": true,
        "muteAllHitEffect": true,
        "muteAllHitText": true
      },
      "combatLock": {
        "lockShape": "CircleLockEnemy",
        "denyLockOn": true,
        "lockType": "Default"
      }
    },
    "combatTemplate": "",
    "abilities": [
      {
        "abilityID": "Wave",
        "abilityName": "Monster_Regisvine_Cathode_MeleeAttack_Wave_Ability",
        "abilityOverride": ""
      }
    ],
    "timer": {
      "lifeTime": 1.7000000476837158
    },
    "move": {
      "$type": "GONNMCBKAOC",
      "speed": 20.0
    },
    "gadget": {
      "$type": "JENBBNKGGJP",
      "collision": {
        "triggerType": "TriggerNoRepeat",
        "targetType": "Enemy",
        "ignoreScene": true
      }
    }
  },
  "Regisvine_Electric_FruitGadget": {
    "$type": "CJKJIENLOHD",
    "combat": {
      "property": {
        "useCreatorProperty": true,
        "hp": 999999.0,
        "attack": 15.0,
        "defense": 999999.0,
        "isLockHP": true,
        "canTriggerBullet": false,
        "DAIAKCFLDCC": true
      },
      "beHit": {
        "hitBloodEffect": "",
        "muteAllHitEffect": true
      },
      "combatLock": {
        "lockShape": "CircleLockEnemy",
        "lockType": "Boss_Lv5"
      }
    },
    "combatTemplate": "",
    "abilities": [
      {
        "abilityID": "ShieldBar",
        "abilityName": "Regisvine_Electric_CoreGadget",
        "abilityOverride": ""
      }
    ],
    "timer": {
      "lifeInfinite": true
    },
    "move": {
      "$type": "MMAPEFIEGAL",
      "target": "TargetEntity",
      "attachPoint": "Fruit",
      "LFOHLEKJFBI": ""
    },
    "billboard": {
      "$type": "DNGNMAJBCNP",
      "attachPoint": "BillboardAttach",
      "offset": {
        "y": 0.4000000059604645
      },
      "radiusOffset": 0.5,
      "showDistance": 48.0,
      "showHPBar": true,
      "size": "Big",
      "shieldBarOnly": true
    }
  },
  "Regisvine_Electric_CoreGadget": {
    "$type": "CJKJIENLOHD",
    "combat": {
      "property": {
        "useCreatorProperty": true,
        "hp": 999999.0,
        "attack": 15.0,
        "defense": 999999.0,
        "isLockHP": true,
        "canTriggerBullet": false,
        "DAIAKCFLDCC": true
      },
      "beHit": {
        "hitBloodEffect": "",
        "muteAllHitEffect": true
      },
      "combatLock": {
        "lockShape": "CircleLockEnemy",
        "lockType": "Avatar&Monster_Lv4"
      }
    },
    "combatTemplate": "",
    "abilities": [
      {
        "abilityID": "ShieldBar",
        "abilityName": "Regisvine_Electric_CoreGadget",
        "abilityOverride": ""
      }
    ],
    "timer": {
      "lifeInfinite": true
    },
    "move": {
      "$type": "MMAPEFIEGAL",
      "target": "TargetEntity",
      "attachPoint": "Core",
      "followRotation": true,
      "LFOHLEKJFBI": ""
    },
    "billboard": {
      "$type": "DNGNMAJBCNP",
      "attachPoint": "BillboardAttach",
      "radiusOffset": 0.5,
      "showDistance": 48.0,
      "showHPBar": true,
      "size": "Big",
      "shieldBarOnly": true
    }
  },
  "Regisvine_Electric_CathodeRings": {
    "$type": "CJKJIENLOHD",
    "combat": {
      "property": {
        "useCreatorProperty": true,
        "hp": 999999.0,
        "attack": 15.0,
        "defense": 999999.0,
        "isLockHP": true,
        "canTriggerBullet": false
      },
      "beHit": {
        "hitBloodEffect": "",
        "muteAllHitEffect": true
      },
      "combatLock": {
        "lockShape": "CircleLockEnemy",
        "lockType": "Boss_Lv5"
      }
    },
    "combatTemplate": "",
    "timer": {
      "lifeInfinite": true
    },
    "billboard": {
      "$type": "DNGNMAJBCNP",
      "attachPoint": "BillboardAttach",
      "radiusOffset": 0.5,
      "showDistance": 48.0,
      "showHPBar": true,
      "size": "Big",
      "shieldBarOnly": true
    }
  },
  "Regisvine_Electric_CollapseBullet_Anode": {
    "$type": "CJKJIENLOHD",
    "common": {
      "effectAttachShape": {
        "$type": "OMIODKONOMG"
      }
    },
    "combat": {
      "property": {
        "useCreatorProperty": true,
        "hp": 999999.0,
        "attack": 10.0,
        "defense": 999999.0,
        "isLockHP": true
      },
      "beHit": {
        "hitBloodEffect": "",
        "muteAllHit": true,
        "muteAllHitEffect": true,
        "muteAllHitText": true
      },
      "combatLock": {
        "lockShape": "CircleLockEnemy",
        "denyLockOn": true,
        "lockType": "Default"
      }
    },
    "combatTemplate": "",
    "abilities": [
      {
        "abilityID": "Anode_Charge_Collapse_Bullet",
        "abilityName": "Monster_Regisvine_Anode_Charge_Collapse_Bullet",
        "abilityOverride": ""
      }
    ],
    "timer": {
      "lifeTime": 5.0
    },
    "move": {
      "$type": "GONNMCBKAOC",
      "speed": 1.0,
      "maxSpeed": 25.0,
      "acceleration": 12.5,
      "accelerationTime": 2.0,
      "delay": 0.800000011920929,
      "syncToRemote": true
    },
    "gadget": {
      "$type": "JENBBNKGGJP",
      "collision": {
        "triggerType": "TriggerAlways",
        "triggerCD": 0.10000000149011612,
        "targetType": "Alliance",
        "ignoreScene": true
      },
      "triggerActions": [
        {
          "$type": "AILPBJHDHDG",
          "abilityName": "Monster_Regisvine_Anode_Charge_Collapse_Bullet"
        }
      ],
      "killByOther": true
    }
  },
  "Regisvine_Electric_CollapseBullet_Cathode": {
    "$type": "CJKJIENLOHD",
    "common": {
      "effectAttachShape": {
        "$type": "OMIODKONOMG"
      }
    },
    "combat": {
      "property": {
        "useCreatorProperty": true,
        "hp": 999999.0,
        "attack": 10.0,
        "defense": 999999.0,
        "isLockHP": true
      },
      "beHit": {
        "hitBloodEffect": "",
        "muteAllHit": true,
        "muteAllHitEffect": true,
        "muteAllHitText": true
      },
      "combatLock": {
        "lockShape": "CircleLockEnemy",
        "denyLockOn": true,
        "lockType": "Default"
      }
    },
    "combatTemplate": "",
    "abilities": [
      {
        "abilityID": "Cathode_Charge_Collapse_Bullet",
        "abilityName": "Monster_Regisvine_Cathode_Charge_Collapse_Bullet",
        "abilityOverride": ""
      }
    ],
    "timer": {
      "lifeTime": 5.0
    },
    "move": {
      "$type": "GONNMCBKAOC",
      "speed": 0.800000011920929,
      "maxSpeed": 25.0,
      "acceleration": 12.5,
      "accelerationTime": 2.0,
      "delay": 0.800000011920929,
      "syncToRemote": true
    },
    "gadget": {
      "$type": "JENBBNKGGJP",
      "collision": {
        "triggerType": "TriggerAlways",
        "triggerCD": 0.10000000149011612,
        "targetType": "Alliance",
        "ignoreScene": true,
        "ignoreWater": true
      },
      "triggerActions": [
        {
          "$type": "AILPBJHDHDG",
          "abilityName": "Monster_Regisvine_Cathode_Charge_Collapse_Bullet"
        }
      ],
      "killByOther": true
    }
  },
  "Regisvine_Electric_Collapse_Gadget": {
    "$type": "CJKJIENLOHD",
    "combat": {
      "property": {
        "useCreatorProperty": true,
        "hp": 999999.0,
        "attack": 10.0,
        "isInvincible": true,
        "isGhostToAllied": true,
        "isGhostToEnemy": true
      },
      "combatLock": {
        "lockShape": "CircleLockEnemy",
        "denyLockOn": true,
        "lockType": "Default"
      }
    },
    "combatTemplate": "",
    "abilities": [
      {
        "abilityID": "CollapseAttack",
        "abilityName": "Regisvine_Electric_CollapseAttack",
        "abilityOverride": ""
      }
    ],
    "timer": {
      "lifeTime": 2.0
    },
    "canRemoveByClient": true
  },
  "Regisvine_Electric_Swtich_SenceDamageGadget_Anode": {
    "$type": "CJKJIENLOHD",
    "combat": {
      "property": {
        "useCreatorProperty": true,
        "hp": 999999.0,
        "attack": 10.0,
        "isInvincible": true,
        "isGhostToAllied": true,
        "isGhostToEnemy": true
      },
      "combatLock": {
        "lockShape": "CircleLockEnemy",
        "denyLockOn": true,
        "lockType": "Default"
      }
    },
    "combatTemplate": "",
    "abilities": [
      {
        "abilityID": "CollapseAttack",
        "abilityName": "Regisvine_Electric_CollapseAttack",
        "abilityOverride": ""
      }
    ],
    "timer": {
      "lifeTime": 1.5
    },
    "canRemoveByClient": true
  },
  "Regisvine_Electric_Swtich_SenceDamageGadget_Cathode": {
    "$type": "CJKJIENLOHD",
    "combat": {
      "property": {
        "useCreatorProperty": true,
        "hp": 999999.0,
        "attack": 10.0,
        "isInvincible": true,
        "isGhostToAllied": true,
        "isGhostToEnemy": true
      },
      "combatLock": {
        "lockShape": "CircleLockEnemy",
        "denyLockOn": true,
        "lockType": "Default"
      }
    },
    "combatTemplate": "",
    "abilities": [
      {
        "abilityID": "CollapseAttack",
        "abilityName": "Regisvine_Electric_CollapseAttack",
        "abilityOverride": ""
      }
    ],
    "timer": {
      "lifeTime": 1.5
    },
    "canRemoveByClient": true
  },
  "Regisvine_Fire_BossEvent_HeadCore": {
    "$type": "CJKJIENLOHD",
    "combat": {
      "property": {
        "useCreatorProperty": true,
        "isLockHP": true,
        "canTriggerBullet": false,
        "DAIAKCFLDCC": true
      },
      "beHit": {
        "hitBloodEffect": "",
        "muteAllHitEffect": true,
        "muteAllHitText": true
      },
      "combatLock": {
        "lockShape": "CircleLockEnemy",
        "lockType": "Boss_Lv5"
      }
    },
    "combatTemplate": "",
    "abilities": [
      {
        "abilityID": "",
        "abilityName": "Monster_Regisvine_Fire_BossEvent_HeadCoreGadget",
        "abilityOverride": ""
      }
    ],
    "timer": {
      "lifeInfinite": true
    },
    "move": {
      "$type": "MMAPEFIEGAL",
      "target": "TargetEntity",
      "attachPoint": "Fruit",
      "LFOHLEKJFBI": ""
    },
    "billboard": {
      "$type": "DNGNMAJBCNP",
      "attachPoint": "BillboardAttach",
      "radiusOffset": 0.5,
      "showDistance": 48.0,
      "showHPBar": true,
      "forceShowDistance": 50.0,
      "size": "Big",
      "shieldBarOnly": true
    }
  },
  "Regisvine_Fire_BossEvent_FireStorm_LogicPoint": {
    "$type": "CJKJIENLOHD",
    "combat": {
      "property": {
        "useCreatorProperty": true,
        "isLockHP": true,
        "isGhostToEnemy": true
      },
      "beHit": {
        "hitBloodEffect": "",
        "muteAllHitEffect": true,
        "muteAllHitText": true
      },
      "combatLock": {
        "lockShape": "CircleLockEnemy",
        "denyLockOn": true,
        "lockType": "Default"
      }
    },
    "combatTemplate": "",
    "abilities": [
      {
        "abilityID": "",
        "abilityName": "Monster_Regisvine_Fire_BossEvent_SurroundingFire_Gadget",
        "abilityOverride": ""
      }
    ],
    "timer": {
      "lifeTime": 25.0
    }
  },
  "Regisvine_Fire_BossEvent_LavaLock_LogicPoint": {
    "$type": "CJKJIENLOHD",
    "combat": {
      "property": {
        "useCreatorProperty": true,
        "isLockHP": true,
        "isGhostToEnemy": true
      },
      "beHit": {
        "hitBloodEffect": "",
        "muteAllHitEffect": true,
        "muteAllHitText": true
      },
      "combatLock": {
        "lockShape": "CircleLockEnemy",
        "denyLockOn": true,
        "lockType": "Default"
      }
    },
    "combatTemplate": "",
    "timer": {
      "lifeTime": 1.0
    }
  },
  "Regisvine_Fire_BossEvent_RapidFire_Bullet": {
    "$type": "CJKJIENLOHD",
    "combat": {
      "property": {
        "useCreatorProperty": true,
        "isLockHP": true,
        "isGhostToEnemy": true
      },
      "combatLock": {
        "lockShape": "CircleLockEnemy",
        "denyLockOn": true,
        "lockType": "Default"
      }
    },
    "combatTemplate": "",
    "abilities": [
      {
        "abilityID": "",
        "abilityName": "Monster_Regisvine_Fire_BossEvent_RapidFire_BulletLogic",
        "abilityOverride": ""
      }
    ],
    "timer": {
      "lifeTime": 1.5
    },
    "move": {
      "$type": "BFICFPAEFPB",
      "speed": 40.0,
      "DPAAFHNMHHN": {
        "$type": "IFAANDLLGLP"
      },
      "straightRange": 50.0,
      "gravityOfAcceleration": 2.0,
      "airResistance": 0.5
    },
    "gadget": {
      "$type": "JENBBNKGGJP",
      "collision": {
        "ccd": {},
        "targetType": "Enemy"
      },
      "triggerActions": [
        {
          "$type": "AILPBJHDHDG",
          "abilityName": "Monster_Regisvine_Fire_BossEvent_RapidFire_BulletLogic"
        }
      ],
      "killByOther": true
    }
  },
  "Regisvine_Fire_BossEvent_LavaBlast_MultiBullet_Logic": {
    "$type": "CJKJIENLOHD",
    "combat": {
      "property": {
        "useCreatorProperty": true,
        "isInvincible": true,
        "isGhostToAllied": true,
        "isGhostToEnemy": true
      },
      "beHit": {
        "hitBloodEffect": "",
        "muteAllHit": true,
        "muteAllHitEffect": true,
        "muteAllHitText": true
      },
      "combatLock": {
        "lockShape": "CircleLockEnemy",
        "denyLockOn": true,
        "lockType": "Default"
      },
      "simulatePhysics": {
        "enable": true,
        "radius": 0.5
      }
    },
    "combatTemplate": "",
    "abilities": [
      {
        "abilityID": "",
        "abilityName": "Monster_Regisvine_Fire_BossEvent_LavaBlast_BulletLogic",
        "abilityOverride": ""
      }
    ],
    "timer": {
      "lifeTime": 8.0
    },
    "move": {
      "$type": "JGEFBHJPMOL",
      "velocityForce": {
        "excludeForces": ["WindZoneType"]
      }
    },
    "gadget": {
      "$type": "AKGCANNFFGI",
      "collision": {
        "targetType": "Enemy"
      },
      "triggerActions": [
        {
          "$type": "AILPBJHDHDG",
          "abilityName": "Monster_Regisvine_Fire_BossEvent_LavaBlast_BulletLogic"
        }
      ],
      "triggerLifeOverActions": [
        {
          "$type": "AILPBJHDHDG",
          "abilityName": "Monster_Regisvine_Fire_BossEvent_LavaBlast_BulletLogic"
        }
      ],
      "killByOther": true,
      "multiBulletConfig": {
        "$type": "OAKJCHGIBPC",
        "rotationDampTime": "Eff_Monster_Regisvine_Fire_BossEvent_LavaBlast_Attack_Trail"
      }
    },
    "useRetreatType": true
  }
}
