{
  "Gear_ElectricBall": {
    "$type": "CJKJIENLOHD",
    "common": {
      "effectAttachShape": {
        "$type": "OMIODKONOMG",
        "scaleZ": 0.4000000059604645
      }
    },
    "combat": {
      "property": {
        "useCreatorProperty": true,
        "hp": 999999.0,
        "attack": 10.0,
        "defense": 999999.0
      },
      "beHit": {
        "hitBloodEffect": "",
        "hitAutoRedirect": false,
        "muteAllHit": true,
        "muteAllHitEffect": true,
        "muteAllHitText": true
      },
      "animEvents": {
        "ATK01": {
          "attackPattern": {
            "$type": "ConfigAttackBox",
            "triggerType": "TriggerNoRepeat",
            "born": {
              "$type": "ConfigBornByTarget"
            },
            "size": {
              "x": 0.4000000059604645,
              "y": 0.4000000059604645,
              "z": 1.0
            }
          },
          "attackInfo": {
            "attackTag": "",
            "attenuationTag": "",
            "attenuationGroup": "default",
            "attackProperty": {
              "actorGrassSubHurtDelta": 0.5,
              "actorWindSubHurtDelta": 0.0,
              "elementType": "Electric",
              "elementDurability": 50.0,
              "GLKMCMDJBIK": 0.0
            },
            "hitPattern": {
              "onHitEffectName": "default",
              "hitImpulseY": "",
              "hitImpulseType": "LV2",
              "overrideHitImpulse": {
                "hitLevel": "Light",
                "IMIJMPGJOGG": 120.0,
                "BPCDKKBKOBM": 0.0
              },
              "hitHaltTime": 0.11999999731779099,
              "hitHaltTimeScale": 0.009999999776482582
            }
          }
        }
      }
    },
    "combatTemplate": "",
    "abilities": [
      {
        "abilityID": "Gear_ElectricBall",
        "abilityName": "Gear_Electric_ElectricBall_Loop",
        "abilityOverride": ""
      }
    ],
    "timer": {
      "lifeTime": 2.5
    },
    "move": {
      "$type": "GONNMCBKAOC",
      "speed": 15.0,
      "DPAAFHNMHHN": {
        "$type": "IFAANDLLGLP"
      }
    },
    "gadget": {
      "$type": "JENBBNKGGJP",
      "collision": {
        "targetType": "Enemy"
      },
      "triggerActions": [
        {
          "$type": "NMMEILICBAE",
          "attackEvent": "ATK01"
        }
      ]
    }
  },
  "Test_Rotation02": {
    "$type": "CJKJIENLOHD",
    "common": {
      "effectAttachShape": {
        "$type": "OMCHDAEMBOG",
        "mesh": "EffectMesh"
      },
      "affectedByWorld": true
    },
    "hasModel": true,
    "combat": {
      "property": {
        "hp": 99999.0,
        "attack": 10.0,
        "isLockHP": true,
        "isGhostToAllied": true,
        "ignorePurgeRate": true
      },
      "beHit": {
        "hitBloodEffect": "",
        "hitAutoRedirect": false,
        "muteAllHitText": true
      },
      "combatLock": {
        "lockShape": "CircleLockEnemy",
        "lockType": "Gadget_Lv1"
      },
      "die": {
        "dieForceDisappearTime": 3.0,
        "dieDisappearEffect": ""
      }
    },
    "combatTemplate": "",
    "abilities": [
      {
        "abilityID": "Ability_01",
        "abilityName": "Test_Rotation02_Interact",
        "abilityOverride": ""
      }
    ]
  },
  "SceneObj_Area_Common_Property_Prop_GCGInviteBoard_01": {
    "$type": "CJKJIENLOHD",
    "hasModel": true,
    "combat": {
      "property": {
        "hp": 99999.0,
        "attack": 20.0,
        "weight": 50.0,
        "isLockHP": true,
        "isGhostToAllied": true,
        "isGhostToEnemy": true,
        "ignoreDamageToSelf": true
      },
      "beHit": {
        "hitBloodEffect": "",
        "hitAutoRedirect": false,
        "muteAllHitText": true
      },
      "combatLock": {
        "lockShape": "CircleLockEnemy",
        "denyLockOn": true,
        "lockType": "Gadget_Lv1"
      }
    },
    "combatTemplate": "",
    "uiInteract": {
      "gadgetUIBtnCfgPath": "UI/open_gcg_invite_page",
      "uiName": "UI_GCG_INTEE_WHITE",
      "showCombType": "LOGIC_NOT",
      "showCondTypes": ["GCG_CHAR_CHALLENGE_NEW"],
      "icon": "",
      "groupName": "",
      "confirmDialogTitle": "",
      "confirmDialogContent": "",
      "canInteractInCombat": false,
      "gadgetUIExtraItems": [
        {
          "gadgetUIBtnCfgPath": "UI/open_gcg_invite_page",
          "uiName": "UI_GCG_INTEE_YELLOW",
          "showCombType": "LOGIC_AND",
          "showCondTypes": ["GCG_CHAR_CHALLENGE_NEW"],
          "icon": "",
          "groupName": "",
          "confirmDialogTitle": "",
          "confirmDialogContent": "",
          "extraId": 2
        },
        {
          "gadgetUIBtnCfgPath": "UI/open_gcg_pvp_page",
          "uiName": "UI_GCG_MATCH_OPTION",
          "icon": "",
          "groupName": "",
          "confirmDialogTitle": "",
          "confirmDialogContent": "",
          "extraId": 3
        },
        {
          "gadgetUIBtnCfgPath": "UI/open_gcg_specialmatch_page",
          "uiName": "UI_GCG_FESTIVAL_ENTER",
          "showCombType": "LOGIC_AND",
          "showCondTypes": ["GCG_FESTIVAL_OPEN"],
          "icon": "",
          "groupName": "",
          "confirmDialogTitle": "",
          "confirmDialogContent": "",
          "extraId": 4
        },
        {
          "gadgetUIBtnCfgPath": "UI/open_gcg_specialmatch_page",
          "uiName": "UI_GCG_FESTIVAL_ENTER_YELLOW",
          "showCombType": "LOGIC_AND",
          "showCondTypes": ["GCG_FESTIVAL_ENTRY_NEW"],
          "icon": "",
          "groupName": "",
          "confirmDialogTitle": "",
          "confirmDialogContent": "",
          "extraId": 5
        },
        {
          "gadgetUIBtnCfgPath": "UI/open_gcg_arena_page",
          "uiName": "UI_GCG_ARENA_ENTERTITLE",
          "showCombType": "LOGIC_AND",
          "showCondTypes": ["GCG_ARENA_ENTRY_OPEN"],
          "icon": "",
          "groupName": "",
          "confirmDialogTitle": "",
          "confirmDialogContent": "",
          "extraId": 6
        },
        {
          "gadgetUIBtnCfgPath": "UI/open_gcg_arena_page",
          "uiName": "UI_GCG_ARENA_ENTERTITLE_YELLOW",
          "showCombType": "LOGIC_AND",
          "showCondTypes": ["GCG_ARENA_ENTRY_NEW"],
          "icon": "",
          "groupName": "",
          "confirmDialogTitle": "",
          "confirmDialogContent": "",
          "extraId": 7
        }
      ]
    },
    "misc": {
      "escapeEffect": "",
      "guidePoint": true,
      "guidePointManagedByIndicator": true
    },
    "gadgetAction": {
      "gadgetStateActionList": [
        {
          "$type": "DEMJBAICBKO",
          "triggerID": "GearStop"
        },
        {
          "$type": "DEMJBAICBKO",
          "triggerID": "GearStart",
          "enable": true
        },
        {
          "$type": "DEMJBAICBKO",
          "enable": true
        }
      ]
    },
    "billboard": {
      "$type": "DNGNMAJBCNP",
      "attachPoint": "BillboardAttach",
      "offset": {
        "y": 2.0
      }
    },
    "intee": {
      "triggerRadius": 2.0,
      "triggerOffset": {
        "y": -2.0
      },
      "KAMIAMNMFCP": ""
    }
  },
  "SceneObj_Area_Common_Property_Prop_GCGInviteBoard_02": {
    "$type": "CJKJIENLOHD",
    "hasModel": true,
    "combat": {
      "property": {
        "hp": 99999.0,
        "attack": 20.0,
        "weight": 50.0,
        "isLockHP": true,
        "isGhostToAllied": true,
        "isGhostToEnemy": true,
        "ignoreDamageToSelf": true
      },
      "beHit": {
        "hitBloodEffect": "",
        "hitAutoRedirect": false,
        "muteAllHitText": true
      },
      "combatLock": {
        "lockShape": "CircleLockEnemy",
        "denyLockOn": true,
        "lockType": "Gadget_Lv1"
      }
    },
    "combatTemplate": "",
    "uiInteract": {
      "gadgetUIBtnCfgPath": "UI/open_gcg_invite_page",
      "uiName": "UI_GCG_INTEE_WHITE",
      "showCombType": "LOGIC_NOT",
      "showCondTypes": ["GCG_CHAR_CHALLENGE_NEW"],
      "icon": "",
      "groupName": "",
      "confirmDialogTitle": "",
      "confirmDialogContent": "",
      "canInteractInCombat": false,
      "gadgetUIExtraItems": [
        {
          "gadgetUIBtnCfgPath": "UI/open_gcg_invite_page",
          "uiName": "UI_GCG_INTEE_YELLOW",
          "showCombType": "LOGIC_AND",
          "showCondTypes": ["GCG_CHAR_CHALLENGE_NEW"],
          "icon": "",
          "groupName": "",
          "confirmDialogTitle": "",
          "confirmDialogContent": "",
          "extraId": 2
        }
      ]
    },
    "misc": {
      "escapeEffect": "",
      "guidePoint": true,
      "guidePointManagedByIndicator": true
    },
    "gadgetAction": {
      "gadgetStateActionList": [
        {
          "$type": "DEMJBAICBKO",
          "triggerID": "GearStop"
        },
        {
          "$type": "DEMJBAICBKO",
          "triggerID": "GearStart",
          "enable": true
        },
        {
          "$type": "DEMJBAICBKO",
          "enable": true
        }
      ]
    },
    "billboard": {
      "$type": "DNGNMAJBCNP",
      "attachPoint": "BillboardAttach",
      "offset": {
        "y": 2.0
      }
    },
    "intee": {
      "triggerRadius": 2.0,
      "triggerOffset": {
        "y": -2.0
      },
      "KAMIAMNMFCP": ""
    }
  },
  "WindDevice01": {
    "$type": "CJKJIENLOHD",
    "combat": {
      "property": {
        "hp": 99999.0,
        "attack": 20.0,
        "weight": 50.0,
        "isInvincible": true,
        "isLockHP": true
      },
      "beHit": {
        "hitBloodEffect": "",
        "hitAutoRedirect": false,
        "muteAllHitText": true
      },
      "combatLock": {
        "lockShape": "CircleLockEnemy",
        "denyLockOn": true,
        "lockType": "Gadget_Lv1"
      }
    },
    "combatTemplate": "",
    "abilities": [
      {
        "abilityID": "Ability_01",
        "abilityName": "WindDevice01_Interact",
        "abilityOverride": ""
      }
    ],
    "stateLayers": {
      "defaultLayer": {
        "$type": "GBGJJIIEMBD",
        "layerIndexName": "",
        "CPAANEIJCGD": "",
        "stateIDs": {
          "All": {
            "$type": "BEIEGKBABOF",
            "animatorStates": {
              "WindDevice_On": ["Audio_SceneObj_Gear_WindDevice_On"],
              "WindDevice_Off": []
            }
          }
        }
      }
    }
  },
  "SceneObj_Gear_WhiteBox_Weight": {
    "$type": "CJKJIENLOHD",
    "combat": {
      "property": {
        "hp": 1.0,
        "attack": 80.0,
        "weight": 80.0,
        "isLockHP": true
      },
      "beHit": {
        "hitBloodEffect": "",
        "hitAutoRedirect": false,
        "muteAllHit": true,
        "muteAllHitEffect": true,
        "muteAllHitText": true
      },
      "combatLock": {
        "lockShape": "CircleLockEnemy",
        "denyLockOn": true,
        "lockType": "Gadget_Lv1"
      }
    },
    "combatTemplate": "",
    "abilities": [
      {
        "abilityID": "SceneObj_Gear_WhiteBox_Weight",
        "abilityName": "SceneObj_Gear_WhiteBox_Weight",
        "abilityOverride": ""
      }
    ],
    "field": {
      "concernType": "CombatExcludeGWGO",
      "shape": "",
      "fromShape": "",
      "triggerInfinite": true,
      "lifeInfinite": true,
      "overwriteCampType": true,
      "campType": "All",
      "colliderName": "",
      "fromColliderName": ""
    }
  }
}
