{
  "Zhongli_Attack05": {
    "$type": "CJKJIENLOHD",
    "common": {
      "effectAttachShape": {
        "$type": "OMIODKONOMG"
      }
    },
    "combat": {
      "property": {
        "endureType": "Monster_Boss_Humanoid",
        "useCreatorProperty": true,
        "isInvincible": true,
        "isGhostToAllied": true,
        "isGhostToEnemy": true,
        "canTriggerBullet": false
      },
      "beHit": {
        "hitBloodEffect": "",
        "muteAllHit": true,
        "muteAllHitEffect": true,
        "muteAllHitText": true
      },
      "combatLock": {
        "lockShape": "CircleLockEnemy",
        "denyLockOn": true,
        "lockType": "Default"
      }
    },
    "combatTemplate": "",
    "abilities": [
      {
        "abilityID": "SkillObj_Zhongli_Attack05",
        "abilityName": "SkillObj_Zhongli_Attack05",
        "abilityOverride": ""
      }
    ],
    "timer": {
      "lifeTime": 1.0
    },
    "move": {
      "$type": "GONNMCBKAOC",
      "velocityForce": {
        "muteAll": true
      },
      "speed": 10.0,
      "acceleration": -20.0,
      "delay": 0.20000000298023224
    }
  },
  "Zhongli_PrimoPillar": {
    "$type": "CJKJIENLOHD",
    "common": {
      "effectAttachShape": {
        "$type": "OMIODKONOMG"
      }
    },
    "vodIntee": {
      "GIOMFJPNIDM": true,
      "GHIJHHPHJLN": ""
    },
    "combat": {
      "property": {
        "endureType": "Monster_Boss_Humanoid",
        "useCreatorProperty": true
      },
      "beHit": {
        "hitBloodEffect": "",
        "hitAutoRedirect": false,
        "muteAllHitText": true
      },
      "combatLock": {
        "lockShape": "CircleLockEnemy",
        "denyLockOn": true,
        "lockType": "Default"
      },
      "die": {
        "dieDisappearEffect": "Eff_Avatar_Male_Pole_Zhongli_RockStand_Die"
      }
    },
    "combatTemplate": "",
    "abilities": [
      {
        "abilityID": "SkillObj_Zhongli_PrimoPillar",
        "abilityName": "SkillObj_Zhongli_PrimoPillar",
        "abilityOverride": ""
      },
      {
        "abilityID": "RockGadget_Summon_Detect",
        "abilityName": "Avatar_RockGadget_Summon_Detect",
        "abilityOverride": ""
      },
      {
        "abilityID": "WeightRatio",
        "abilityName": "RocketGadget_WeightRatio",
        "abilityOverride": ""
      },
      {
        "abilityID": "",
        "abilityName": "Avatar_RockGadget_KillByBlunt",
        "abilityOverride": ""
      }
    ],
    "timer": {
      "lifeTime": 31.0
    }
  },
  "Zhongli_ExtraAttack": {
    "$type": "CJKJIENLOHD",
    "common": {
      "effectAttachShape": {
        "$type": "OMIODKONOMG"
      }
    },
    "combat": {
      "property": {
        "endureType": "Monster_Boss_Humanoid",
        "useCreatorProperty": true,
        "isInvincible": true,
        "isGhostToAllied": true,
        "isGhostToEnemy": true,
        "canTriggerBullet": false
      },
      "beHit": {
        "hitBloodEffect": "",
        "muteAllHit": true,
        "muteAllHitEffect": true,
        "muteAllHitText": true
      },
      "combatLock": {
        "lockShape": "CircleLockEnemy",
        "denyLockOn": true,
        "lockType": "Default"
      }
    },
    "combatTemplate": "",
    "abilities": [
      {
        "abilityID": "SkillObj_Zhongli_ExtraAttack",
        "abilityName": "SkillObj_Zhongli_ExtraAttack",
        "abilityOverride": ""
      }
    ],
    "timer": {
      "lifeTime": 0.6499999761581421
    },
    "move": {
      "$type": "MMAPEFIEGAL",
      "velocityForce": {
        "muteAll": true
      },
      "attachPoint": "",
      "HOMINCCNFHE": {
        "z": 1.0
      },
      "LFOHLEKJFBI": ""
    },
    "gadget": {
      "$type": "JENBBNKGGJP",
      "collision": {
        "ccd": {
          "damageRatio": "Always"
        },
        "triggerType": "TriggerNoRepeat",
        "targetType": "Enemy",
        "ignoreScene": true
      },
      "triggerActions": [
        {
          "$type": "AILPBJHDHDG",
          "abilityName": "SkillObj_Zhongli_ExtraAttack"
        }
      ]
    }
  }
}
