{
  "SceneObj_Environment_Collision_MeteoriteDebuffController": {
    "$type": "CJKJIENLOHD",
    "combat": {
      "property": {
        "hp": 5000.0,
        "weight": 50.0,
        "isLockHP": true,
        "isGhostToAllied": true,
        "isGhostToEnemy": true
      },
      "beHit": {
        "hitBloodEffect": "",
        "hitAutoRedirect": false,
        "muteAllHitText": true
      },
      "combatLock": {
        "lockShape": "CircleLockEnemy",
        "denyLockOn": true,
        "lockType": "Gadget_Lv1"
      },
      "die": {
        "dieEndTime": 1.0,
        "dieForceDisappearTime": 1.0,
        "dieDisappearEffect": ""
      }
    },
    "combatTemplate": "",
    "abilities": [
      {
        "abilityID": "Ability_01",
        "abilityName": "SceneObj_Environment_Collision_MeteoriteDebuffController",
        "abilityOverride": ""
      }
    ]
  },
  "SceneObj_Environment_Collision_MeteoriteSeal": {
    "$type": "CJKJIENLOHD",
    "combat": {
      "property": {
        "hp": 500.0,
        "weight": 50.0,
        "isLockHP": true
      },
      "beHit": {
        "hitBloodEffect": "",
        "hitAutoRedirect": false,
        "muteAllHitText": true
      },
      "combatLock": {
        "lockShape": "CircleLockEnemy",
        "denyLockOn": true,
        "lockType": "Gadget_Lv1"
      },
      "die": {
        "dieForceDisappearTime": 0.0,
        "dieDisappearEffect": ""
      }
    },
    "combatTemplate": "",
    "abilities": [
      {
        "abilityID": "Ability_01",
        "abilityName": "SceneObj_Environment_Collision_MeteoriteSeal",
        "abilityOverride": ""
      }
    ],
    "billboard": {
      "$type": "DNGNMAJBCNP",
      "attachPoint": "RootNode",
      "offset": {
        "y": 2.5
      },
      "radiusOffset": 3.0,
      "showDistance": 48.0,
      "showHPBar": true,
      "size": "Grand",
      "shieldBarOnly": true
    }
  },
  "SceneObj_Aster_BigAster": {
    "$type": "CJKJIENLOHD",
    "combat": {
      "property": {
        "hp": 500.0,
        "weight": 50.0,
        "isLockHP": true
      },
      "beHit": {
        "hitBloodEffect": "",
        "hitAutoRedirect": false
      },
      "combatLock": {
        "lockShape": "CircleLockEnemy",
        "denyLockOn": true,
        "lockType": "Gadget_Lv1"
      },
      "die": {
        "dieEndTime": 1.0,
        "dieForceDisappearTime": 1.0,
        "dieDisappearEffect": ""
      }
    },
    "combatTemplate": "",
    "abilities": [
      {
        "abilityID": "Ability_01",
        "abilityName": "SceneObj_Aster_BigAster",
        "abilityOverride": ""
      },
      {
        "abilityID": "Ability_02",
        "abilityName": "Activity_Aerolite_VisionResonance",
        "abilityOverride": ""
      }
    ],
    "uiInteract": {
      "gadgetUIBtnCfgPath": "UI/open_mp_aster_big_page",
      "uiName": "UI_ACTIVITY_ASTERMIDDLE_GAGDGET_BTN",
      "icon": "",
      "groupName": "",
      "confirmDialogTitle": "",
      "confirmDialogContent": ""
    },
    "gadgetAction": {
      "gadgetStateActionList": [
        {
          "$type": "FJGKLJLPOGL",
          "intID": "gadgetState",
          "syncState": true
        }
      ],
      "interactActionList": [
        {
          "$type": "DEMJBAICBKO",
          "predicate": {
            "$type": "JCENKAMEKHF"
          }
        },
        {
          "$type": "DEMJBAICBKO",
          "predicate": {
            "$type": "JCENKAMEKHF",
            "isEnableInteract": true
          },
          "enable": true
        }
      ]
    },
    "intee": {
      "triggerRadius": 5.0,
      "triggerHeight": 10.0,
      "KAMIAMNMFCP": ""
    }
  },
  "SceneObj_Aster_UpLoader": {
    "$type": "CJKJIENLOHD",
    "hasModel": true,
    "combat": {
      "property": {
        "hp": 999999.0,
        "attack": 15.0,
        "defense": 999999.0,
        "weight": 50.0,
        "isLockHP": true,
        "isGhostToAllied": true,
        "isGhostToEnemy": true,
        "canTriggerBullet": false
      },
      "beHit": {
        "hitBloodEffect": "",
        "muteAllHit": true,
        "muteAllHitEffect": true,
        "muteAllHitText": true
      },
      "combatLock": {
        "lockShape": "CircleLockEnemy",
        "denyLockOn": true,
        "lockType": "Gadget_Lv1"
      }
    },
    "combatTemplate": "",
    "abilities": [
      {
        "abilityID": "SceneObj_Aster_UpLoader",
        "abilityName": "SceneObj_Aster_UpLoader",
        "abilityOverride": ""
      }
    ],
    "field": {
      "concernType": "AllAvatars",
      "shape": "CircleR4",
      "fromShape": "",
      "triggerInfinite": true,
      "lifeInfinite": true,
      "checkInterval": 0.5,
      "overwriteCampType": true,
      "campType": "All",
      "colliderName": "",
      "fromColliderName": ""
    }
  },
  "SceneObj_Aster_UpLoader_Small": {
    "$type": "CJKJIENLOHD",
    "model": {
      "bornEffect": "",
      "attachEffect": "Eff_SceneObj_AsterLarge_Idle_2M",
      "BKPFGNPLDNJ": ""
    },
    "hasModel": true,
    "combat": {
      "property": {
        "hp": 999999.0,
        "attack": 15.0,
        "defense": 999999.0,
        "weight": 50.0,
        "isLockHP": true,
        "isGhostToAllied": true,
        "isGhostToEnemy": true,
        "canTriggerBullet": false
      },
      "beHit": {
        "hitBloodEffect": "",
        "muteAllHit": true,
        "muteAllHitEffect": true,
        "muteAllHitText": true
      },
      "combatLock": {
        "lockShape": "CircleLockEnemy",
        "denyLockOn": true,
        "lockType": "Gadget_Lv1"
      }
    },
    "combatTemplate": "",
    "abilities": [
      {
        "abilityID": "SceneObj_Aster_UpLoader_Small",
        "abilityName": "SceneObj_Aster_UpLoader_Small",
        "abilityOverride": ""
      }
    ],
    "field": {
      "concernType": "AllAvatars",
      "shape": "CircleR1",
      "fromShape": "",
      "triggerInfinite": true,
      "lifeInfinite": true,
      "checkInterval": 0.5,
      "overwriteCampType": true,
      "campType": "All",
      "colliderName": "",
      "fromColliderName": ""
    }
  },
  "SceneObj_Aster_ScoreDummy": {
    "$type": "CJKJIENLOHD",
    "combat": {
      "property": {
        "useCreatorProperty": true,
        "hp": 999999.0,
        "attack": 15.0,
        "defense": 999999.0,
        "weight": 50.0,
        "canTriggerBullet": false
      },
      "beHit": {
        "hitBloodEffect": "",
        "muteAllHit": true,
        "muteAllHitEffect": true,
        "muteAllHitText": true
      },
      "combatLock": {
        "lockShape": "CircleLockEnemy",
        "denyLockOn": true,
        "lockType": "Gadget_Lv1"
      }
    },
    "combatTemplate": "",
    "abilities": [
      {
        "abilityID": "SceneObj_Aster_ScoreDummy",
        "abilityName": "SceneObj_Aster_ScoreDummy",
        "abilityOverride": ""
      }
    ],
    "move": {
      "$type": "MMAPEFIEGAL",
      "attachPoint": "Neck",
      "LFOHLEKJFBI": ""
    },
    "billboard": {
      "$type": "DNGNMAJBCNP",
      "attachPoint": "BillboardAttach",
      "offset": {
        "y": 0.4000000059604645
      },
      "radiusOffset": 0.5,
      "showDistance": 48.0,
      "showHPBar": true,
      "size": "Big",
      "shieldBarOnly": true
    }
  },
  "SceneObj_Aster_PlayEntity_Esay": {
    "$type": "CJKJIENLOHD",
    "combat": {
      "property": {
        "hp": 5000.0,
        "weight": 50.0,
        "isLockHP": true
      },
      "beHit": {
        "hitBloodEffect": "",
        "hitAutoRedirect": false,
        "muteAllHitText": true
      },
      "combatLock": {
        "lockShape": "CircleLockEnemy",
        "denyLockOn": true,
        "lockType": "Gadget_Lv1"
      },
      "die": {
        "dieEndTime": 1.0,
        "dieForceDisappearTime": 1.0,
        "dieDisappearEffect": ""
      }
    },
    "combatTemplate": "",
    "abilities": [
      {
        "abilityID": "Ability_01",
        "abilityName": "SceneObj_Aster_PlayEntity_Esay",
        "abilityOverride": ""
      }
    ]
  },
  "SceneObj_Aster_PlayEntity_Normal": {
    "$type": "CJKJIENLOHD",
    "combat": {
      "property": {
        "hp": 5000.0,
        "weight": 50.0,
        "isLockHP": true
      },
      "beHit": {
        "hitBloodEffect": "",
        "hitAutoRedirect": false,
        "muteAllHitText": true
      },
      "combatLock": {
        "lockShape": "CircleLockEnemy",
        "denyLockOn": true,
        "lockType": "Gadget_Lv1"
      },
      "die": {
        "dieEndTime": 1.0,
        "dieForceDisappearTime": 1.0,
        "dieDisappearEffect": ""
      }
    },
    "combatTemplate": "",
    "abilities": [
      {
        "abilityID": "Ability_01",
        "abilityName": "SceneObj_Aster_PlayEntity_Normal",
        "abilityOverride": ""
      }
    ]
  },
  "SceneObj_Aster_PlayEntity_Hard": {
    "$type": "CJKJIENLOHD",
    "combat": {
      "property": {
        "hp": 5000.0,
        "weight": 50.0,
        "isLockHP": true
      },
      "beHit": {
        "hitBloodEffect": "",
        "hitAutoRedirect": false,
        "muteAllHitText": true
      },
      "combatLock": {
        "lockShape": "CircleLockEnemy",
        "denyLockOn": true,
        "lockType": "Gadget_Lv1"
      },
      "die": {
        "dieEndTime": 1.0,
        "dieForceDisappearTime": 1.0,
        "dieDisappearEffect": ""
      }
    },
    "combatTemplate": "",
    "abilities": [
      {
        "abilityID": "Ability_01",
        "abilityName": "SceneObj_Aster_PlayEntity_Hard",
        "abilityOverride": ""
      }
    ]
  },
  "SceneObj_Aster_PlayEntity_Single": {
    "$type": "CJKJIENLOHD",
    "combat": {
      "property": {
        "hp": 5000.0,
        "weight": 50.0,
        "isLockHP": true
      },
      "beHit": {
        "hitBloodEffect": "",
        "hitAutoRedirect": false,
        "muteAllHitText": true
      },
      "combatLock": {
        "lockShape": "CircleLockEnemy",
        "denyLockOn": true,
        "lockType": "Gadget_Lv1"
      },
      "die": {
        "dieEndTime": 1.0,
        "dieForceDisappearTime": 1.0,
        "dieDisappearEffect": ""
      }
    },
    "combatTemplate": "",
    "abilities": [
      {
        "abilityID": "Ability_01",
        "abilityName": "SceneObj_Aster_PlayEntity_Single",
        "abilityOverride": ""
      }
    ]
  }
}
