{
  "SceneObj_Gather_Element_Ball_Big_Common": {
    "$type": "CJKJIENLOHD",
    "common": {},
    "model": {
      "bornEffect": "",
      "attachEffect": "Eff_Item_Element_Orb_Common01_Lod0",
      "BKPFGNPLDNJ": ""
    },
    "hasModel": true,
    "combatTemplate": "",
    "timer": {
      "lifeTime": 10.0
    },
    "misc": {
      "pickup": {
        "pickType": "Auto",
        "bornEffect": "",
        "dropEffect": "",
        "attractAudio": ""
      },
      "escapeEffect": ""
    }
  },
  "SceneObj_Gather_Element_Ball_Big_Common_WithoutOffset": {
    "$type": "CJKJIENLOHD",
    "common": {},
    "model": {
      "bornEffect": "",
      "attachEffect": "Eff_Item_Element_Orb_Common01_Lod0",
      "BKPFGNPLDNJ": ""
    },
    "hasModel": true,
    "combatTemplate": "",
    "timer": {
      "lifeTime": 10.0
    },
    "misc": {
      "pickup": {
        "pickType": "Auto",
        "bornEffect": "",
        "dropEffect": "",
        "disableInitJump": true,
        "attractAudio": ""
      },
      "escapeEffect": ""
    }
  },
  "SceneObj_Gather_Element_Ball_Big_Fire": {
    "$type": "CJKJIENLOHD",
    "common": {},
    "model": {
      "bornEffect": "",
      "attachEffect": "Eff_Item_Element_Orb_Fire01_Lod0",
      "BKPFGNPLDNJ": ""
    },
    "hasModel": true,
    "combatTemplate": "",
    "timer": {
      "lifeTime": 10.0
    },
    "misc": {
      "pickup": {
        "pickType": "Auto",
        "bornEffect": "",
        "dropEffect": "",
        "attractAudio": ""
      },
      "escapeEffect": ""
    }
  },
  "SceneObj_Gather_Element_Ball_Big_Water": {
    "$type": "CJKJIENLOHD",
    "common": {},
    "model": {
      "bornEffect": "",
      "attachEffect": "Eff_Item_Element_Orb_Water01_Lod0",
      "BKPFGNPLDNJ": ""
    },
    "hasModel": true,
    "combatTemplate": "",
    "timer": {
      "lifeTime": 10.0
    },
    "misc": {
      "pickup": {
        "pickType": "Auto",
        "bornEffect": "",
        "dropEffect": "",
        "attractAudio": ""
      },
      "escapeEffect": ""
    }
  },
  "SceneObj_Gather_Element_Ball_Big_Grass": {
    "$type": "CJKJIENLOHD",
    "common": {},
    "model": {
      "bornEffect": "",
      "attachEffect": "Eff_Item_Element_Orb_Grass01_Lod0",
      "BKPFGNPLDNJ": ""
    },
    "hasModel": true,
    "combatTemplate": "",
    "timer": {
      "lifeTime": 10.0
    },
    "misc": {
      "pickup": {
        "pickType": "Auto",
        "bornEffect": "",
        "dropEffect": "",
        "attractAudio": ""
      },
      "escapeEffect": ""
    }
  },
  "SceneObj_Gather_Element_Ball_Big_Electric": {
    "$type": "CJKJIENLOHD",
    "common": {},
    "model": {
      "bornEffect": "",
      "attachEffect": "Eff_Item_Element_Orb_Electric01_Lod0",
      "BKPFGNPLDNJ": ""
    },
    "hasModel": true,
    "combatTemplate": "",
    "timer": {
      "lifeTime": 10.0
    },
    "misc": {
      "pickup": {
        "pickType": "Auto",
        "bornEffect": "",
        "dropEffect": "",
        "attractAudio": ""
      },
      "escapeEffect": ""
    }
  },
  "SceneObj_Gather_Element_Ball_Big_Wind": {
    "$type": "CJKJIENLOHD",
    "common": {},
    "model": {
      "bornEffect": "",
      "attachEffect": "Eff_Item_Element_Orb_Wind01_Lod0",
      "BKPFGNPLDNJ": ""
    },
    "hasModel": true,
    "combatTemplate": "",
    "timer": {
      "lifeTime": 10.0
    },
    "misc": {
      "pickup": {
        "pickType": "Auto",
        "bornEffect": "",
        "dropEffect": "",
        "attractAudio": ""
      },
      "escapeEffect": ""
    }
  },
  "SceneObj_Gather_Element_Ball_Big_Ice": {
    "$type": "CJKJIENLOHD",
    "common": {},
    "model": {
      "bornEffect": "",
      "attachEffect": "Eff_Item_Element_Orb_Ice01_Lod0",
      "BKPFGNPLDNJ": ""
    },
    "hasModel": true,
    "combatTemplate": "",
    "timer": {
      "lifeTime": 10.0
    },
    "misc": {
      "pickup": {
        "pickType": "Auto",
        "bornEffect": "",
        "dropEffect": "",
        "attractAudio": ""
      },
      "escapeEffect": ""
    }
  },
  "SceneObj_Gather_Element_Ball_Big_Rock": {
    "$type": "CJKJIENLOHD",
    "common": {},
    "model": {
      "bornEffect": "",
      "attachEffect": "Eff_Item_Element_Orb_Rock01_Lod0",
      "BKPFGNPLDNJ": ""
    },
    "hasModel": true,
    "combatTemplate": "",
    "timer": {
      "lifeTime": 10.0
    },
    "misc": {
      "pickup": {
        "pickType": "Auto",
        "bornEffect": "",
        "dropEffect": "",
        "attractAudio": ""
      },
      "escapeEffect": ""
    }
  },
  "SceneObj_Gather_Element_Ball_Small_Common": {
    "$type": "CJKJIENLOHD",
    "common": {},
    "model": {
      "bornEffect": "",
      "attachEffect": "Eff_Item_Element_Orb_Common02_Lod0",
      "BKPFGNPLDNJ": ""
    },
    "hasModel": true,
    "combatTemplate": "",
    "timer": {
      "lifeTime": 50.0
    },
    "misc": {
      "pickup": {
        "pickType": "Attract",
        "bornEffect": "",
        "dropEffect": "",
        "attractAudio": ""
      },
      "escapeEffect": ""
    }
  },
  "SceneObj_Gather_Element_Ball_Small_Fire": {
    "$type": "CJKJIENLOHD",
    "common": {},
    "model": {
      "bornEffect": "",
      "attachEffect": "Eff_Item_Element_Orb_Fire02_Lod0",
      "BKPFGNPLDNJ": ""
    },
    "hasModel": true,
    "combatTemplate": "",
    "timer": {
      "lifeTime": 50.0
    },
    "misc": {
      "pickup": {
        "pickType": "Attract",
        "bornEffect": "",
        "dropEffect": "",
        "attractAudio": ""
      },
      "escapeEffect": ""
    }
  },
  "SceneObj_Gather_Element_Ball_Small_Water": {
    "$type": "CJKJIENLOHD",
    "common": {},
    "model": {
      "bornEffect": "",
      "attachEffect": "Eff_Item_Element_Orb_Water02_Lod0",
      "BKPFGNPLDNJ": ""
    },
    "hasModel": true,
    "combatTemplate": "",
    "timer": {
      "lifeTime": 50.0
    },
    "misc": {
      "pickup": {
        "pickType": "Attract",
        "bornEffect": "",
        "dropEffect": "",
        "attractAudio": ""
      },
      "escapeEffect": ""
    }
  },
  "SceneObj_Gather_Element_Ball_Small_Grass": {
    "$type": "CJKJIENLOHD",
    "common": {},
    "model": {
      "bornEffect": "",
      "attachEffect": "Eff_Item_Element_Orb_Grass02_Lod0",
      "BKPFGNPLDNJ": ""
    },
    "hasModel": true,
    "combatTemplate": "",
    "timer": {
      "lifeTime": 50.0
    },
    "misc": {
      "pickup": {
        "pickType": "Attract",
        "bornEffect": "",
        "dropEffect": "",
        "attractAudio": ""
      },
      "escapeEffect": ""
    }
  },
  "SceneObj_Gather_Element_Ball_Small_Electric": {
    "$type": "CJKJIENLOHD",
    "common": {},
    "model": {
      "bornEffect": "",
      "attachEffect": "Eff_Item_Element_Orb_Electric02_Lod0",
      "BKPFGNPLDNJ": ""
    },
    "hasModel": true,
    "combatTemplate": "",
    "timer": {
      "lifeTime": 50.0
    },
    "misc": {
      "pickup": {
        "pickType": "Attract",
        "bornEffect": "",
        "dropEffect": "",
        "attractAudio": ""
      },
      "escapeEffect": ""
    }
  },
  "SceneObj_Gather_Element_Ball_Small_Wind": {
    "$type": "CJKJIENLOHD",
    "common": {},
    "model": {
      "bornEffect": "",
      "attachEffect": "Eff_Item_Element_Orb_Wind02_Lod0",
      "BKPFGNPLDNJ": ""
    },
    "hasModel": true,
    "combatTemplate": "",
    "timer": {
      "lifeTime": 50.0
    },
    "misc": {
      "pickup": {
        "pickType": "Attract",
        "bornEffect": "",
        "dropEffect": "",
        "attractAudio": ""
      },
      "escapeEffect": ""
    }
  },
  "SceneObj_Gather_Element_Ball_Small_Ice": {
    "$type": "CJKJIENLOHD",
    "common": {},
    "model": {
      "bornEffect": "",
      "attachEffect": "Eff_Item_Element_Orb_Ice02_Lod0",
      "BKPFGNPLDNJ": ""
    },
    "hasModel": true,
    "combatTemplate": "",
    "timer": {
      "lifeTime": 50.0
    },
    "misc": {
      "pickup": {
        "pickType": "Attract",
        "bornEffect": "",
        "dropEffect": "",
        "attractAudio": ""
      },
      "escapeEffect": ""
    }
  },
  "SceneObj_Gather_Element_Ball_Small_Rock": {
    "$type": "CJKJIENLOHD",
    "common": {},
    "model": {
      "bornEffect": "",
      "attachEffect": "Eff_Item_Element_Orb_Rock02_Lod0",
      "BKPFGNPLDNJ": ""
    },
    "hasModel": true,
    "combatTemplate": "",
    "timer": {
      "lifeTime": 50.0
    },
    "misc": {
      "pickup": {
        "pickType": "Attract",
        "bornEffect": "",
        "dropEffect": "",
        "attractAudio": ""
      },
      "escapeEffect": ""
    }
  }
}
