{
  "V4_8_FairyBook_BasicBrick_01": {
    "$type": "CJKJIENLOHD",
    "common": {
      "disableTickDistance": 80.0,
      "isForceRefreshAuthotiryToHost": true
    },
    "model": {
      "bornEffect": "",
      "attachEffect": "",
      "HBJIOPNMBOM": true,
      "KOCEMHIPJOP": true,
      "BKPFGNPLDNJ": ""
    },
    "globalValue": {
      "serverGlobalValues": [
        "SGV_BB_Piece_Type",
        "SGV_Gopher_Block_Group_Id",
        "SGV_Gopher_Block_Id",
        "SGV_ToyBrick_Region",
        "SGV_IS_TNT_Block",
        "SGV_ToyRing_Scale",
        "SGV_Default_Follow",
        "SGV_Follow_Scale",
        "SGV_TarDistance_Check_Value",
        "SGV_ToyBrick_Distance"
      ],
      "initServerGlobalValues": {
        "SGV_BB_Piece_Type": 0.0,
        "SGV_Gopher_Block_Group_Id": 0.0,
        "SGV_Gopher_Block_Id": 0.0,
        "SGV_ToyBrick_Region": 0.0,
        "SGV_IS_TNT_Block": 0.0,
        "SGV_ToyRing_Scale": 1.0,
        "SGV_Default_Follow": 0.0,
        "SGV_Follow_Scale": 0.30000001192092896,
        "SGV_TarDistance_Check_Value": 0.5,
        "SGV_ToyBrick_Distance": 0.0
      }
    },
    "hasModel": true,
    "combat": {
      "property": {
        "hp": 99999.0,
        "attack": 20.0,
        "weight": 50.0,
        "isLockHP": true,
        "isGhostToAllied": true,
        "isGhostToEnemy": true
      },
      "beHit": {
        "hitBloodEffect": "",
        "muteAllHit": true,
        "muteAllHitEffect": true,
        "muteAllHitText": true
      },
      "combatLock": {
        "lockShape": "CircleLockEnemy",
        "denyLockOn": true,
        "lockType": "Gadget_Lv1"
      },
      "die": {
        "dieEndTime": 0.30000001192092896,
        "dieDisappearEffect": ""
      }
    },
    "combatTemplate": "",
    "abilities": [
      {
        "abilityID": "ability_01",
        "abilityName": "V4_8_FairyBook_BasicBrick_Common_01",
        "abilityOverride": ""
      },
      {
        "abilityID": "ability_02",
        "abilityName": "V4_8_FairyBook_BasicBrick_Common_ResetSLC_01",
        "abilityOverride": ""
      },
      {
        "abilityID": "ability_03",
        "abilityName": "V4_8_FairyBook_BasicBrick_Common_Get_TempFollowTarget_01",
        "abilityOverride": ""
      },
      {
        "abilityID": "ability_04",
        "abilityName": "V4_8_FairyBook_BasicBrick_Common_Reset_TempFollowTarget_01",
        "abilityOverride": ""
      },
      {
        "abilityID": "Scene_RockGadget_Summon_Detect",
        "abilityName": "Scene_RockGadget_Summon_Detect",
        "abilityOverride": ""
      }
    ],
    "move": {
      "$type": "MMAPEFIEGAL",
      "target": "TargetKey",
      "followTargetEx": {
        "$type": "JJNAIOOLBOJ",
        "targetKey": "FollowRuntimeID"
      },
      "attachPoint": "",
      "followRotation": true,
      "offset": {
        "y": 0.25
      },
      "syncTransToServer": true,
      "syncInterval": 0.20000000298023224,
      "handleInLateTick": true,
      "LFOHLEKJFBI": "",
      "GIDLCCHLBHE": {
        "$type": "LGHKFJENENG",
        "GJCCBINCPHM": true,
        "arriveDistance": 0.10000000149011612,
        "speed": 24.0,
        "EDDIMBPLJEC": 0.0,
        "maxSpeed": 24.0,
        "FCKCAHBHNGD": false
      }
    }
  },
  "V4_8_FairyBook_BasicBrick_02": {
    "$type": "CJKJIENLOHD",
    "common": {
      "disableTickDistance": 80.0,
      "isForceRefreshAuthotiryToHost": true
    },
    "model": {
      "bornEffect": "",
      "attachEffect": "",
      "HBJIOPNMBOM": true,
      "KOCEMHIPJOP": true,
      "BKPFGNPLDNJ": ""
    },
    "globalValue": {
      "serverGlobalValues": [
        "SGV_BB_Piece_Type",
        "SGV_Gopher_Block_Group_Id",
        "SGV_Gopher_Block_Id",
        "SGV_ToyBrick_Region",
        "SGV_IS_TNT_Block",
        "SGV_ToyRing_Scale",
        "SGV_Default_Follow",
        "SGV_Follow_Scale",
        "SGV_TarDistance_Check_Value",
        "SGV_ToyBrick_Distance"
      ],
      "initServerGlobalValues": {
        "SGV_BB_Piece_Type": 0.0,
        "SGV_Gopher_Block_Group_Id": 0.0,
        "SGV_Gopher_Block_Id": 0.0,
        "SGV_ToyBrick_Region": 0.0,
        "SGV_IS_TNT_Block": 0.0,
        "SGV_ToyRing_Scale": 1.0,
        "SGV_Default_Follow": 0.0,
        "SGV_Follow_Scale": 0.20000000298023224,
        "SGV_TarDistance_Check_Value": 0.6000000238418579,
        "SGV_ToyBrick_Distance": 0.0
      }
    },
    "hasModel": true,
    "combat": {
      "property": {
        "hp": 99999.0,
        "attack": 20.0,
        "weight": 50.0,
        "isLockHP": true,
        "isGhostToAllied": true,
        "isGhostToEnemy": true
      },
      "beHit": {
        "hitBloodEffect": "",
        "muteAllHit": true,
        "muteAllHitEffect": true,
        "muteAllHitText": true
      },
      "combatLock": {
        "lockShape": "CircleLockEnemy",
        "denyLockOn": true,
        "lockType": "Gadget_Lv1"
      },
      "die": {
        "dieEndTime": 0.30000001192092896,
        "dieDisappearEffect": ""
      }
    },
    "combatTemplate": "",
    "abilities": [
      {
        "abilityID": "ability_01",
        "abilityName": "V4_8_FairyBook_BasicBrick_Common_01",
        "abilityOverride": ""
      },
      {
        "abilityID": "ability_02",
        "abilityName": "V4_8_FairyBook_BasicBrick_Common_ResetSLC_01",
        "abilityOverride": ""
      },
      {
        "abilityID": "ability_03",
        "abilityName": "V4_8_FairyBook_BasicBrick_Common_Get_TempFollowTarget_01",
        "abilityOverride": ""
      },
      {
        "abilityID": "ability_04",
        "abilityName": "V4_8_FairyBook_BasicBrick_Common_Reset_TempFollowTarget_01",
        "abilityOverride": ""
      },
      {
        "abilityID": "Scene_RockGadget_Summon_Detect",
        "abilityName": "Scene_RockGadget_Summon_Detect",
        "abilityOverride": ""
      }
    ],
    "move": {
      "$type": "MMAPEFIEGAL",
      "target": "TargetKey",
      "followTargetEx": {
        "$type": "JJNAIOOLBOJ",
        "targetKey": "FollowRuntimeID"
      },
      "attachPoint": "",
      "followRotation": true,
      "offset": {
        "y": 0.5
      },
      "syncTransToServer": true,
      "syncInterval": 0.20000000298023224,
      "handleInLateTick": true,
      "LFOHLEKJFBI": "",
      "GIDLCCHLBHE": {
        "$type": "LGHKFJENENG",
        "GJCCBINCPHM": true,
        "arriveDistance": 0.10000000149011612,
        "speed": 24.0,
        "EDDIMBPLJEC": 0.0,
        "maxSpeed": 24.0,
        "FCKCAHBHNGD": false
      }
    }
  },
  "V4_8_FairyBook_BasicBrick_SP_Train_01": {
    "$type": "CJKJIENLOHD",
    "model": {
      "bornEffect": "",
      "attachEffect": "",
      "KOCEMHIPJOP": true,
      "BKPFGNPLDNJ": ""
    },
    "hasModel": true,
    "combatTemplate": "",
    "abilities": [
      {
        "abilityID": "Scene_RockGadget_Summon_Detect",
        "abilityName": "Scene_RockGadget_Summon_Detect",
        "abilityOverride": ""
      }
    ]
  },
  "V4_8_FairyBook_BasicBrick_SP_01": {
    "$type": "CJKJIENLOHD",
    "common": {
      "disableTickDistance": 80.0,
      "isForceRefreshAuthotiryToHost": true
    },
    "globalValue": {
      "serverGlobalValues": [
        "SGV_BB_Piece_Type",
        "SGV_Gopher_Block_Group_Id",
        "SGV_Gopher_Block_Id",
        "SGV_ToyBrick_Region",
        "SGV_IS_TNT_Block",
        "SGV_ToyRing_Scale",
        "SGV_Default_Follow",
        "SGV_Follow_Scale",
        "SGV_TarDistance_Check_Value",
        "SGV_ToyBrick_Distance"
      ],
      "initServerGlobalValues": {
        "SGV_BB_Piece_Type": 0.0,
        "SGV_Gopher_Block_Group_Id": 0.0,
        "SGV_Gopher_Block_Id": 0.0,
        "SGV_ToyBrick_Region": 0.0,
        "SGV_IS_TNT_Block": 0.0,
        "SGV_ToyRing_Scale": 0.75,
        "SGV_Default_Follow": 0.0,
        "SGV_Follow_Scale": 0.14000000059604645,
        "SGV_TarDistance_Check_Value": 0.4000000059604645,
        "SGV_ToyBrick_Distance": 0.0
      }
    },
    "hasModel": true,
    "combat": {
      "property": {
        "hp": 99999.0,
        "attack": 20.0,
        "weight": 50.0,
        "isLockHP": true,
        "isGhostToAllied": true,
        "isGhostToEnemy": true
      },
      "beHit": {
        "hitBloodEffect": "",
        "muteAllHit": true,
        "muteAllHitEffect": true,
        "muteAllHitText": true
      },
      "combatLock": {
        "lockShape": "CircleLockEnemy",
        "denyLockOn": true,
        "lockType": "Gadget_Lv1"
      },
      "die": {
        "dieEndTime": 0.30000001192092896,
        "dieDisappearEffect": ""
      }
    },
    "combatTemplate": "",
    "abilities": [
      {
        "abilityID": "ability_01",
        "abilityName": "V4_8_FairyBook_BasicBrick_Common_01",
        "abilityOverride": ""
      },
      {
        "abilityID": "ability_02",
        "abilityName": "V4_8_FairyBook_BasicBrick_Common_ResetSLC_01",
        "abilityOverride": ""
      },
      {
        "abilityID": "ability_03",
        "abilityName": "V4_8_FairyBook_BasicBrick_Common_Get_TempFollowTarget_01",
        "abilityOverride": ""
      },
      {
        "abilityID": "ability_04",
        "abilityName": "V4_8_FairyBook_BasicBrick_Common_Reset_TempFollowTarget_01",
        "abilityOverride": ""
      },
      {
        "abilityID": "Scene_RockGadget_Summon_Detect",
        "abilityName": "Scene_RockGadget_Summon_Detect",
        "abilityOverride": ""
      }
    ],
    "move": {
      "$type": "MMAPEFIEGAL",
      "target": "TargetKey",
      "followTargetEx": {
        "$type": "JJNAIOOLBOJ",
        "targetKey": "FollowRuntimeID"
      },
      "attachPoint": "",
      "followRotation": true,
      "offset": {
        "y": 0.2669999897480011
      },
      "syncTransToServer": true,
      "syncInterval": 0.20000000298023224,
      "handleInLateTick": true,
      "LFOHLEKJFBI": "",
      "GIDLCCHLBHE": {
        "$type": "LGHKFJENENG",
        "GJCCBINCPHM": true,
        "arriveDistance": 0.10000000149011612,
        "speed": 24.0,
        "EDDIMBPLJEC": 0.0,
        "maxSpeed": 24.0,
        "FCKCAHBHNGD": false
      }
    }
  },
  "V4_8_FairyBook_BasicBrick_SP_03": {
    "$type": "CJKJIENLOHD",
    "common": {
      "disableTickDistance": 80.0,
      "isForceRefreshAuthotiryToHost": true
    },
    "globalValue": {
      "serverGlobalValues": [
        "SGV_BB_Piece_Type",
        "SGV_Gopher_Block_Group_Id",
        "SGV_Gopher_Block_Id",
        "SGV_ToyBrick_Region",
        "SGV_IS_TNT_Block",
        "SGV_ToyRing_Scale",
        "SGV_Default_Follow",
        "SGV_Follow_Scale",
        "SGV_TarDistance_Check_Value",
        "SGV_ToyBrick_Distance"
      ],
      "initServerGlobalValues": {
        "SGV_BB_Piece_Type": 0.0,
        "SGV_Gopher_Block_Group_Id": 0.0,
        "SGV_Gopher_Block_Id": 0.0,
        "SGV_ToyBrick_Region": 0.0,
        "SGV_IS_TNT_Block": 0.0,
        "SGV_ToyRing_Scale": 1.0,
        "SGV_Default_Follow": 0.0,
        "SGV_Follow_Scale": 0.17000000178813934,
        "SGV_TarDistance_Check_Value": 0.550000011920929,
        "SGV_ToyBrick_Distance": 0.0
      }
    },
    "hasModel": true,
    "combat": {
      "property": {
        "hp": 99999.0,
        "attack": 20.0,
        "weight": 50.0,
        "isLockHP": true,
        "isGhostToAllied": true,
        "isGhostToEnemy": true
      },
      "beHit": {
        "hitBloodEffect": "",
        "muteAllHit": true,
        "muteAllHitEffect": true,
        "muteAllHitText": true
      },
      "combatLock": {
        "lockShape": "CircleLockEnemy",
        "denyLockOn": true,
        "lockType": "Gadget_Lv1"
      },
      "die": {
        "dieEndTime": 0.30000001192092896,
        "dieDisappearEffect": ""
      }
    },
    "combatTemplate": "",
    "abilities": [
      {
        "abilityID": "ability_01",
        "abilityName": "V4_8_FairyBook_BasicBrick_Common_01",
        "abilityOverride": ""
      },
      {
        "abilityID": "ability_02",
        "abilityName": "V4_8_FairyBook_BasicBrick_Common_ResetSLC_01",
        "abilityOverride": ""
      },
      {
        "abilityID": "ability_03",
        "abilityName": "V4_8_FairyBook_BasicBrick_Common_Get_TempFollowTarget_01",
        "abilityOverride": ""
      },
      {
        "abilityID": "ability_04",
        "abilityName": "V4_8_FairyBook_BasicBrick_Common_Reset_TempFollowTarget_01",
        "abilityOverride": ""
      },
      {
        "abilityID": "Scene_RockGadget_Summon_Detect",
        "abilityName": "Scene_RockGadget_Summon_Detect",
        "abilityOverride": ""
      }
    ],
    "move": {
      "$type": "MMAPEFIEGAL",
      "target": "TargetKey",
      "followTargetEx": {
        "$type": "JJNAIOOLBOJ",
        "targetKey": "FollowRuntimeID"
      },
      "attachPoint": "",
      "followRotation": true,
      "offset": {
        "y": 0.4449999928474426,
        "z": 0.06800000369548798
      },
      "syncTransToServer": true,
      "syncInterval": 0.20000000298023224,
      "handleInLateTick": true,
      "LFOHLEKJFBI": "",
      "GIDLCCHLBHE": {
        "$type": "LGHKFJENENG",
        "GJCCBINCPHM": true,
        "arriveDistance": 0.10000000149011612,
        "speed": 24.0,
        "EDDIMBPLJEC": 0.0,
        "maxSpeed": 24.0,
        "FCKCAHBHNGD": false
      }
    }
  },
  "V4_8_FairyBook_BasicBrick_SP_04": {
    "$type": "CJKJIENLOHD",
    "common": {
      "disableTickDistance": 80.0,
      "isForceRefreshAuthotiryToHost": true
    },
    "globalValue": {
      "serverGlobalValues": [
        "SGV_BB_Piece_Type",
        "SGV_Gopher_Block_Group_Id",
        "SGV_Gopher_Block_Id",
        "SGV_ToyBrick_Region",
        "SGV_IS_TNT_Block",
        "SGV_ToyRing_Scale",
        "SGV_Default_Follow",
        "SGV_Follow_Scale",
        "SGV_TarDistance_Check_Value",
        "SGV_ToyBrick_Distance"
      ],
      "initServerGlobalValues": {
        "SGV_BB_Piece_Type": 0.0,
        "SGV_Gopher_Block_Group_Id": 0.0,
        "SGV_Gopher_Block_Id": 0.0,
        "SGV_ToyBrick_Region": 0.0,
        "SGV_IS_TNT_Block": 0.0,
        "SGV_ToyRing_Scale": 1.0,
        "SGV_Default_Follow": 0.0,
        "SGV_Follow_Scale": 0.12999999523162842,
        "SGV_TarDistance_Check_Value": 0.699999988079071,
        "SGV_ToyBrick_Distance": 0.0
      }
    },
    "hasModel": true,
    "combat": {
      "property": {
        "hp": 99999.0,
        "attack": 20.0,
        "weight": 50.0,
        "isLockHP": true,
        "isGhostToAllied": true,
        "isGhostToEnemy": true
      },
      "beHit": {
        "hitBloodEffect": "",
        "muteAllHit": true,
        "muteAllHitEffect": true,
        "muteAllHitText": true
      },
      "combatLock": {
        "lockShape": "CircleLockEnemy",
        "denyLockOn": true,
        "lockType": "Gadget_Lv1"
      },
      "die": {
        "dieEndTime": 0.30000001192092896,
        "dieDisappearEffect": ""
      }
    },
    "combatTemplate": "",
    "abilities": [
      {
        "abilityID": "ability_01",
        "abilityName": "V4_8_FairyBook_BasicBrick_Common_01",
        "abilityOverride": ""
      },
      {
        "abilityID": "ability_02",
        "abilityName": "V4_8_FairyBook_BasicBrick_Common_ResetSLC_01",
        "abilityOverride": ""
      },
      {
        "abilityID": "ability_03",
        "abilityName": "V4_8_FairyBook_BasicBrick_Common_Get_TempFollowTarget_01",
        "abilityOverride": ""
      },
      {
        "abilityID": "ability_04",
        "abilityName": "V4_8_FairyBook_BasicBrick_Common_Reset_TempFollowTarget_01",
        "abilityOverride": ""
      },
      {
        "abilityID": "Scene_RockGadget_Summon_Detect",
        "abilityName": "Scene_RockGadget_Summon_Detect",
        "abilityOverride": ""
      }
    ],
    "move": {
      "$type": "MMAPEFIEGAL",
      "target": "TargetKey",
      "followTargetEx": {
        "$type": "JJNAIOOLBOJ",
        "targetKey": "FollowRuntimeID"
      },
      "attachPoint": "",
      "followRotation": true,
      "offset": {
        "y": 0.6000000238418579
      },
      "syncTransToServer": true,
      "syncInterval": 0.20000000298023224,
      "handleInLateTick": true,
      "LFOHLEKJFBI": "",
      "GIDLCCHLBHE": {
        "$type": "LGHKFJENENG",
        "GJCCBINCPHM": true,
        "arriveDistance": 0.10000000149011612,
        "speed": 24.0,
        "EDDIMBPLJEC": 0.0,
        "maxSpeed": 24.0,
        "FCKCAHBHNGD": false
      }
    }
  },
  "V4_8_FairyBook_BasicBrick_SP_05": {
    "$type": "CJKJIENLOHD",
    "common": {
      "disableTickDistance": 80.0,
      "isForceRefreshAuthotiryToHost": true
    },
    "globalValue": {
      "serverGlobalValues": [
        "SGV_BB_Piece_Type",
        "SGV_Gopher_Block_Group_Id",
        "SGV_Gopher_Block_Id",
        "SGV_ToyBrick_Region",
        "SGV_IS_TNT_Block",
        "SGV_ToyRing_Scale",
        "SGV_Default_Follow",
        "SGV_Follow_Scale",
        "SGV_TarDistance_Check_Value",
        "SGV_ToyBrick_Distance"
      ],
      "initServerGlobalValues": {
        "SGV_BB_Piece_Type": 0.0,
        "SGV_Gopher_Block_Group_Id": 0.0,
        "SGV_Gopher_Block_Id": 0.0,
        "SGV_ToyBrick_Region": 0.0,
        "SGV_IS_TNT_Block": 0.0,
        "SGV_ToyRing_Scale": 1.0,
        "SGV_Default_Follow": 0.0,
        "SGV_Follow_Scale": 0.20000000298023224,
        "SGV_TarDistance_Check_Value": 0.550000011920929,
        "SGV_ToyBrick_Distance": 0.0
      }
    },
    "hasModel": true,
    "combat": {
      "property": {
        "hp": 99999.0,
        "attack": 20.0,
        "weight": 50.0,
        "isLockHP": true,
        "isGhostToAllied": true,
        "isGhostToEnemy": true
      },
      "beHit": {
        "hitBloodEffect": "",
        "muteAllHit": true,
        "muteAllHitEffect": true,
        "muteAllHitText": true
      },
      "combatLock": {
        "lockShape": "CircleLockEnemy",
        "denyLockOn": true,
        "lockType": "Gadget_Lv1"
      },
      "die": {
        "dieEndTime": 0.30000001192092896,
        "dieDisappearEffect": ""
      }
    },
    "combatTemplate": "",
    "abilities": [
      {
        "abilityID": "ability_01",
        "abilityName": "V4_8_FairyBook_BasicBrick_Common_01",
        "abilityOverride": ""
      },
      {
        "abilityID": "ability_02",
        "abilityName": "V4_8_FairyBook_BasicBrick_Common_ResetSLC_01",
        "abilityOverride": ""
      },
      {
        "abilityID": "ability_03",
        "abilityName": "V4_8_FairyBook_BasicBrick_Common_Get_TempFollowTarget_01",
        "abilityOverride": ""
      },
      {
        "abilityID": "ability_04",
        "abilityName": "V4_8_FairyBook_BasicBrick_Common_Reset_TempFollowTarget_01",
        "abilityOverride": ""
      },
      {
        "abilityID": "Scene_RockGadget_Summon_Detect",
        "abilityName": "Scene_RockGadget_Summon_Detect",
        "abilityOverride": ""
      }
    ],
    "move": {
      "$type": "MMAPEFIEGAL",
      "target": "TargetKey",
      "followTargetEx": {
        "$type": "JJNAIOOLBOJ",
        "targetKey": "FollowRuntimeID"
      },
      "attachPoint": "",
      "followRotation": true,
      "offset": {
        "y": 0.4699999988079071
      },
      "syncTransToServer": true,
      "syncInterval": 0.20000000298023224,
      "handleInLateTick": true,
      "LFOHLEKJFBI": "",
      "GIDLCCHLBHE": {
        "$type": "LGHKFJENENG",
        "GJCCBINCPHM": true,
        "arriveDistance": 0.10000000149011612,
        "speed": 24.0,
        "EDDIMBPLJEC": 0.0,
        "maxSpeed": 24.0,
        "FCKCAHBHNGD": false
      }
    }
  },
  "V4_8_FairyBook_BrickPoint_01": {
    "$type": "CJKJIENLOHD",
    "common": {
      "disableTickDistance": 100000.0,
      "isForceRefreshAuthotiryToHost": true
    },
    "globalValue": {
      "serverGlobalValues": [
        "SGV_BB_Piece_Type",
        "SGV_ToyBrick_Region",
        "SGV_Can_Be_Destroy",
        "SGV_Default_Follow_Block_Rid_ByRequire_0",
        "SGV_Default_Follow_Block_Rid_ByRequire_1"
      ],
      "initServerGlobalValues": {
        "SGV_BB_Piece_Type": 0.0,
        "SGV_ToyBrick_Region": 0.0,
        "SGV_Can_Be_Destroy": 0.0,
        "SGV_Default_Follow_Block_Rid_ByRequire_0": 0.0,
        "SGV_Default_Follow_Block_Rid_ByRequire_1": 0.0
      }
    },
    "hasModel": true,
    "combatTemplate": "",
    "abilities": [
      {
        "abilityID": "ability_01",
        "abilityName": "V4_8_FairyBook_BrickPoint_01",
        "abilityOverride": ""
      },
      {
        "abilityID": "ability_02",
        "abilityName": "V4_8_FairyBook_BrickPoint_TNT_Receiver",
        "abilityOverride": ""
      }
    ],
    "move": {
      "$type": "MMAPEFIEGAL",
      "target": "GroupGadgetEntity",
      "attachPoint": "AttachPoint",
      "followRotation": true,
      "LFOHLEKJFBI": ""
    }
  },
  "V4_8_FairyBook_ToyBrick_FollowMove_Logic_Gadget": {
    "$type": "CJKJIENLOHD",
    "common": {
      "disableTickDistance": 100.0
    },
    "hasModel": true,
    "combat": {
      "property": {
        "hp": 99999.0,
        "attack": 20.0,
        "weight": 50.0,
        "isLockHP": true,
        "isGhostToAllied": true,
        "isGhostToEnemy": true
      },
      "beHit": {
        "hitBloodEffect": "",
        "muteAllHit": true,
        "muteAllHitEffect": true,
        "muteAllHitText": true
      },
      "combatLock": {
        "lockShape": "CircleLockEnemy",
        "denyLockOn": true,
        "lockType": "Gadget_Lv1"
      }
    },
    "combatTemplate": "",
    "abilities": [
      {
        "abilityID": "ability_01",
        "abilityName": "V4_8_FairyBook_ToyBrick_FollowMove_Logic_Gadget",
        "abilityOverride": ""
      },
      {
        "abilityID": "ability_02",
        "abilityName": "V4_8_FairyBook_ToyBrick_FollowMove_Logic_Gadget_PartControl_01",
        "abilityOverride": ""
      },
      {
        "abilityID": "Scene_RockGadget_Summon_Detect",
        "abilityName": "Scene_RockGadget_Summon_Detect",
        "abilityOverride": ""
      }
    ],
    "move": {
      "$type": "MMAPEFIEGAL",
      "attachPoint": "CameraLook",
      "offset": {
        "y": -0.30000001192092896
      },
      "LFOHLEKJFBI": ""
    },
    "partControl": {
      "parts": [
        {
          "$type": "INCPGKCDCIO",
          "angularSpeed": 3600.0,
          "partRootName": "RootNode",
          "forwardBy": "NamedTransform",
          "rotateBy": "ForwardTransLocal",
          "forwardByTransName": "RootNode",
          "limitHorizontal": 360.0,
          "limitVertical": 0.0,
          "targetType": "ActionSetTarget",
          "KEAJBDBGBJE": true
        }
      ]
    }
  },
  "V4_8_FairyBook_ToyBrick_FollowMoveAim_Logic_Gadget": {
    "$type": "CJKJIENLOHD",
    "common": {
      "disableTickDistance": 100.0
    },
    "hasModel": true,
    "combatTemplate": "",
    "abilities": [
      {
        "abilityID": "ability_01",
        "abilityName": "V4_8_FairyBook_ToyBrick_FollowMoveAim_Logic_Gadget",
        "abilityOverride": ""
      }
    ],
    "move": {
      "$type": "MMAPEFIEGAL",
      "attachPoint": "FocusAnchor",
      "followRotation": true,
      "LFOHLEKJFBI": ""
    }
  },
  "V4_8_FairyBook_ToyBrick_SceneSucc_01": {
    "$type": "CJKJIENLOHD",
    "model": {
      "bornEffect": "",
      "attachEffect": "",
      "setPerObjectShadowGroupID": true,
      "HBJIOPNMBOM": true,
      "KOCEMHIPJOP": true,
      "BKPFGNPLDNJ": ""
    },
    "hasModel": true,
    "combatTemplate": "",
    "abilities": [
      {
        "abilityID": "Scene_RockGadget_Summon_Detect",
        "abilityName": "Scene_RockGadget_Summon_Detect",
        "abilityOverride": ""
      }
    ]
  },
  "V4_8_FairyBook_BrickBomb_01": {
    "$type": "CJKJIENLOHD",
    "common": {
      "disableTickDistance": 80.0,
      "isForceRefreshAuthotiryToHost": true
    },
    "globalValue": {
      "serverGlobalValues": [
        "SGV_BB_Piece_Type",
        "SGV_Gopher_Block_Group_Id",
        "SGV_Gopher_Block_Id",
        "SGV_ToyBrick_Region",
        "SGV_IS_TNT_Block",
        "SGV_IS_TNT_Block_DragonDungeon",
        "SGV_ToyBrick_Fake",
        "SGV_ToyRing_Scale",
        "SGV_Default_Follow",
        "SGV_Follow_Scale",
        "SGV_TarDistance_Check_Value",
        "SGV_ToyBrick_Distance"
      ],
      "initServerGlobalValues": {
        "SGV_BB_Piece_Type": 2.0,
        "SGV_Gopher_Block_Group_Id": 0.0,
        "SGV_Gopher_Block_Id": 0.0,
        "SGV_ToyBrick_Region": 0.0,
        "SGV_IS_TNT_Block": 1.0,
        "SGV_IS_TNT_Block_DragonDungeon": 0.0,
        "SGV_ToyBrick_Fake": 0.0,
        "SGV_ToyRing_Scale": 1.0,
        "SGV_Default_Follow": 0.0,
        "SGV_Follow_Scale": 0.25,
        "SGV_TarDistance_Check_Value": 0.5,
        "SGV_ToyBrick_Distance": 0.0
      }
    },
    "hasModel": true,
    "combatTemplate": "",
    "abilities": [
      {
        "abilityID": "ability_01",
        "abilityName": "V4_8_FairyBook_BasicBrick_Common_01",
        "abilityOverride": ""
      },
      {
        "abilityID": "ability_02",
        "abilityName": "V4_8_FairyBook_BasicBrick_Common_ResetSLC_01",
        "abilityOverride": ""
      },
      {
        "abilityID": "ability_03",
        "abilityName": "V4_8_FairyBook_BasicBrick_Common_Get_TempFollowTarget_01",
        "abilityOverride": ""
      },
      {
        "abilityID": "ability_04",
        "abilityName": "V4_8_FairyBook_BasicBrick_Common_Reset_TempFollowTarget_01",
        "abilityOverride": ""
      },
      {
        "abilityID": "ability_05",
        "abilityName": "V4_8_FairyBook_BrickBomb_Controller_01",
        "abilityOverride": ""
      },
      {
        "abilityID": "Scene_RockGadget_Summon_Detect",
        "abilityName": "Scene_RockGadget_Summon_Detect",
        "abilityOverride": ""
      }
    ],
    "move": {
      "$type": "MMAPEFIEGAL",
      "target": "TargetKey",
      "followTargetEx": {
        "$type": "JJNAIOOLBOJ",
        "targetKey": "FollowRuntimeID"
      },
      "attachPoint": "",
      "followRotation": true,
      "offset": {
        "y": 0.25
      },
      "handleInLateTick": true,
      "LFOHLEKJFBI": "",
      "GIDLCCHLBHE": {
        "$type": "LGHKFJENENG",
        "GJCCBINCPHM": true,
        "arriveDistance": 0.10000000149011612,
        "speed": 24.0,
        "EDDIMBPLJEC": 0.0,
        "maxSpeed": 24.0,
        "FCKCAHBHNGD": false
      }
    }
  },
  "V4_8_FairyBook_DestructibleBrick_01": {
    "$type": "CJKJIENLOHD",
    "common": {
      "disableTickDistance": 80.0,
      "isForceRefreshAuthotiryToHost": true
    },
    "hasModel": true,
    "combat": {
      "property": {
        "hp": 99999.0,
        "attack": 20.0,
        "weight": 50.0,
        "isLockHP": true,
        "isGhostToAllied": true,
        "isGhostToEnemy": true
      },
      "beHit": {
        "hitBloodEffect": "",
        "muteAllHit": true,
        "muteAllHitEffect": true,
        "muteAllHitText": true
      },
      "combatLock": {
        "lockShape": "CircleLockEnemy",
        "denyLockOn": true,
        "lockType": "Gadget_Lv1"
      },
      "die": {
        "dieEndTime": 0.30000001192092896,
        "dieForceDisappearTime": 0.30000001192092896,
        "dieDisappearEffect": ""
      }
    },
    "combatTemplate": "",
    "abilities": [
      {
        "abilityID": "ability_01",
        "abilityName": "V4_8_FairyBook_DestructibleBrick_01",
        "abilityOverride": ""
      },
      {
        "abilityID": "Scene_RockGadget_Summon_Detect",
        "abilityName": "Scene_RockGadget_Summon_Detect",
        "abilityOverride": ""
      }
    ]
  },
  "V4_8_FairyBook_ToyGophers_Normal_01": {
    "$type": "CJKJIENLOHD",
    "common": {
      "disableTickDistance": 100.0,
      "isForceRefreshAuthotiryToHost": true
    },
    "globalValue": {
      "serverGlobalValues": [
        "SGV_ToyCarryType",
        "SGV_ToyColor",
        "SGV_Fire_Bingo_When_Down",
        "SGV_Emoji_Once",
        "SGV_Emoji_Persistent",
        "SGV_Emote_Scale"
      ],
      "initServerGlobalValues": {
        "SGV_ToyCarryType": 0.0,
        "SGV_ToyColor": 0.0,
        "SGV_Fire_Bingo_When_Down": 1.0,
        "SGV_Emoji_Once": 0.0,
        "SGV_Emoji_Persistent": 0.0,
        "SGV_Emote_Scale": 0.699999988079071
      }
    },
    "hasModel": true,
    "combat": {
      "property": {
        "hp": 99999.0,
        "attack": 20.0,
        "weight": 50.0,
        "isLockHP": true,
        "isGhostToAllied": true,
        "isGhostToEnemy": true
      },
      "beHit": {
        "hitBloodEffect": "",
        "muteAllHit": true,
        "muteAllHitEffect": true,
        "muteAllHitText": true
      },
      "combatLock": {
        "lockShape": "CircleLockEnemy",
        "denyLockOn": true,
        "lockType": "Gadget_Lv1"
      }
    },
    "combatTemplate": "",
    "abilities": [
      {
        "abilityID": "ability_01",
        "abilityName": "V4_8_FairyBook_ToyGophers_Normal_01",
        "abilityOverride": ""
      },
      {
        "abilityID": "ability_02",
        "abilityName": "FairyBook_EmojiManager_Once",
        "abilityOverride": ""
      },
      {
        "abilityID": "ability_03",
        "abilityName": "FairyBook_EmojiManager_Persistent",
        "abilityOverride": ""
      },
      {
        "abilityID": "Scene_RockGadget_Summon_Detect",
        "abilityName": "Scene_RockGadget_Summon_Detect",
        "abilityOverride": ""
      },
      {
        "abilityID": "FairyBook_TalkBubble_01_Ability",
        "abilityName": "FairyBook_TalkBubble_01_Ability",
        "abilityOverride": ""
      }
    ],
    "billboard": {
      "$type": "KMCIKEIBFAH",
      "attachPoint": "BillboardAttach",
      "offset": {
        "y": 0.7960000038146973
      },
      "forceHideAllBars": true
    }
  },
  "V4_8_FairyBook_ToyGophers_Challenge_01": {
    "$type": "CJKJIENLOHD",
    "common": {
      "disableTickDistance": 100.0,
      "isForceRefreshAuthotiryToHost": true
    },
    "globalValue": {
      "serverGlobalValues": [
        "SGV_Cur_Slot_Target",
        "SGV_Fire_Bingo_When_Down",
        "SGV_Emoji_Once",
        "SGV_Emoji_Persistent",
        "SGV_Emote_Scale",
        "SGV_Base_State"
      ],
      "initServerGlobalValues": {
        "SGV_Cur_Slot_Target": 0.0,
        "SGV_Fire_Bingo_When_Down": 1.0,
        "SGV_Emoji_Once": 0.0,
        "SGV_Emoji_Persistent": 0.0,
        "SGV_Emote_Scale": 0.699999988079071,
        "SGV_Base_State": 1.0
      }
    },
    "hasModel": true,
    "combat": {
      "property": {
        "hp": 99999.0,
        "attack": 20.0,
        "weight": 50.0,
        "isLockHP": true,
        "isGhostToAllied": true,
        "isGhostToEnemy": true
      },
      "beHit": {
        "hitBloodEffect": "",
        "muteAllHit": true,
        "muteAllHitEffect": true,
        "muteAllHitText": true
      },
      "combatLock": {
        "lockShape": "CircleLockEnemy",
        "denyLockOn": true,
        "lockType": "Gadget_Lv1"
      }
    },
    "combatTemplate": "",
    "abilities": [
      {
        "abilityID": "ability_01",
        "abilityName": "V4_8_FairyBook_ToyGophers_Challenge_01",
        "abilityOverride": ""
      },
      {
        "abilityID": "ability_02",
        "abilityName": "FairyBook_EmojiManager_Once",
        "abilityOverride": ""
      },
      {
        "abilityID": "ability_03",
        "abilityName": "FairyBook_EmojiManager_Persistent",
        "abilityOverride": ""
      },
      {
        "abilityID": "Scene_RockGadget_Summon_Detect",
        "abilityName": "Scene_RockGadget_Summon_Detect",
        "abilityOverride": ""
      },
      {
        "abilityID": "FairyBook_TalkBubble_01_Ability",
        "abilityName": "FairyBook_TalkBubble_01_Ability",
        "abilityOverride": ""
      }
    ],
    "billboard": {
      "$type": "KMCIKEIBFAH",
      "attachPoint": "BillboardAttach",
      "offset": {
        "y": 0.7960000038146973
      },
      "forceHideAllBars": true
    }
  },
  "V4_8_FairyBook_Telelinestick_ToyBrick_01": {
    "$type": "CJKJIENLOHD",
    "common": {
      "disableTickDistance": 80.0,
      "isForceRefreshAuthotiryToHost": true
    },
    "globalValue": {
      "serverGlobalValues": [
        "SGV_BB_Piece_Type",
        "SGV_Gopher_Block_Group_Id",
        "SGV_Gopher_Block_Id",
        "SGV_ToyBrick_Region",
        "SGV_IS_TNT_Block",
        "SGV_ToyRing_Scale",
        "SGV_Default_Follow",
        "SGV_Follow_Scale",
        "SGV_TarDistance_Check_Value",
        "SGV_ToyBrick_Distance"
      ],
      "initServerGlobalValues": {
        "SGV_BB_Piece_Type": 0.0,
        "SGV_Gopher_Block_Group_Id": 0.0,
        "SGV_Gopher_Block_Id": 0.0,
        "SGV_ToyBrick_Region": 0.0,
        "SGV_IS_TNT_Block": 0.0,
        "SGV_ToyRing_Scale": 0.8500000238418579,
        "SGV_Default_Follow": 0.0,
        "SGV_Follow_Scale": 0.25,
        "SGV_TarDistance_Check_Value": 0.75,
        "SGV_ToyBrick_Distance": 0.0
      }
    },
    "hasModel": true,
    "combat": {
      "property": {
        "hp": 99999.0,
        "attack": 20.0,
        "weight": 50.0,
        "isLockHP": true,
        "isGhostToAllied": true,
        "isGhostToEnemy": true
      },
      "beHit": {
        "hitBloodEffect": "",
        "muteAllHit": true,
        "muteAllHitEffect": true,
        "muteAllHitText": true
      },
      "combatLock": {
        "lockShape": "CircleLockEnemy",
        "denyLockOn": true,
        "lockType": "Gadget_Lv1"
      },
      "die": {
        "dieEndTime": 0.10000000149011612,
        "dieDisappearEffect": ""
      }
    },
    "combatTemplate": "",
    "abilities": [
      {
        "abilityID": "ability_01",
        "abilityName": "V4_8_FairyBook_BasicBrick_Common_01",
        "abilityOverride": ""
      },
      {
        "abilityID": "ability_02",
        "abilityName": "V4_8_FairyBook_BasicBrick_Common_ResetSLC_01",
        "abilityOverride": ""
      },
      {
        "abilityID": "ability_03",
        "abilityName": "V4_8_FairyBook_BasicBrick_Common_Get_TempFollowTarget_01",
        "abilityOverride": ""
      },
      {
        "abilityID": "ability_04",
        "abilityName": "V4_8_FairyBook_BasicBrick_Common_Reset_TempFollowTarget_01",
        "abilityOverride": ""
      },
      {
        "abilityID": "ability_05",
        "abilityName": "V4_8_FairyBook_BasicBrick_Common_BonusEff_01",
        "abilityOverride": ""
      },
      {
        "abilityID": "Scene_RockGadget_Summon_Detect",
        "abilityName": "Scene_RockGadget_Summon_Detect",
        "abilityOverride": ""
      }
    ],
    "move": {
      "$type": "MMAPEFIEGAL",
      "target": "TargetKey",
      "followTargetEx": {
        "$type": "JJNAIOOLBOJ",
        "targetKey": "FollowRuntimeID"
      },
      "attachPoint": "",
      "followRotation": true,
      "offset": {
        "y": 0.6959999799728394
      },
      "handleInLateTick": true,
      "LFOHLEKJFBI": "",
      "GIDLCCHLBHE": {
        "$type": "LGHKFJENENG",
        "GJCCBINCPHM": true,
        "arriveDistance": 0.10000000149011612,
        "speed": 24.0,
        "EDDIMBPLJEC": 0.0,
        "maxSpeed": 24.0,
        "FCKCAHBHNGD": false
      }
    }
  },
  "V4_8_FairyBook_Telelinestick_ToyBrickBase_01": {
    "$type": "CJKJIENLOHD",
    "common": {
      "disableTickDistance": 80.0,
      "isForceRefreshAuthotiryToHost": true
    },
    "globalValue": {
      "serverGlobalValues": [
        "SGV_BB_Piece_Type",
        "SGV_ToyBrick_Region",
        "SGV_Can_Be_Destroy"
      ],
      "initServerGlobalValues": {
        "SGV_BB_Piece_Type": 0.0,
        "SGV_ToyBrick_Region": 0.0,
        "SGV_Can_Be_Destroy": 0.0
      }
    },
    "hasModel": true,
    "combatTemplate": "",
    "abilities": [
      {
        "abilityID": "ability_01",
        "abilityName": "V4_8_FairyBook_BrickPoint_01",
        "abilityOverride": ""
      },
      {
        "abilityID": "ability_02",
        "abilityName": "V4_8_FairyBook_BrickPoint_TNT_Receiver",
        "abilityOverride": ""
      },
      {
        "abilityID": "Scene_RockGadget_Summon_Detect",
        "abilityName": "Scene_RockGadget_Summon_Detect",
        "abilityOverride": ""
      }
    ],
    "move": {
      "$type": "MMAPEFIEGAL",
      "target": "GroupGadgetEntity",
      "attachPoint": "AttachPoint",
      "followRotation": true,
      "LFOHLEKJFBI": ""
    }
  },
  "V4_8_FairyBook_BrickFlower_01": {
    "$type": "CJKJIENLOHD",
    "common": {
      "disableTickDistance": 80.0,
      "isForceRefreshAuthotiryToHost": true
    },
    "model": {
      "bornEffect": "",
      "attachEffect": "",
      "HBJIOPNMBOM": true,
      "KOCEMHIPJOP": true,
      "BKPFGNPLDNJ": ""
    },
    "globalValue": {
      "serverGlobalValues": [
        "SGV_BB_Piece_Type",
        "SGV_Gopher_Block_Group_Id",
        "SGV_Gopher_Block_Id",
        "SGV_ToyBrick_Region",
        "SGV_IS_TNT_Block",
        "SGV_ToyRing_Scale",
        "SGV_Default_Follow",
        "SGV_Follow_Scale",
        "SGV_TarDistance_Check_Value",
        "SGV_Auto_Stop_Duration",
        "SGV_Keep_Rot_Succ",
        "SGV_Create_Require_WindField_Succ",
        "SGV_ToyBrick_Distance"
      ],
      "initServerGlobalValues": {
        "SGV_BB_Piece_Type": 0.0,
        "SGV_Gopher_Block_Group_Id": 0.0,
        "SGV_Gopher_Block_Id": 0.0,
        "SGV_ToyBrick_Region": 0.0,
        "SGV_IS_TNT_Block": 0.0,
        "SGV_ToyRing_Scale": 0.6399999856948853,
        "SGV_Default_Follow": 0.0,
        "SGV_Follow_Scale": 0.20000000298023224,
        "SGV_TarDistance_Check_Value": 0.6000000238418579,
        "SGV_Auto_Stop_Duration": 15.0,
        "SGV_Keep_Rot_Succ": 0.0,
        "SGV_Create_Require_WindField_Succ": 0.0,
        "SGV_ToyBrick_Distance": 0.0
      }
    },
    "hasModel": true,
    "combat": {
      "property": {
        "hp": 99999.0,
        "attack": 20.0,
        "weight": 50.0,
        "isLockHP": true,
        "isGhostToAllied": true
      },
      "beHit": {
        "hitBloodEffect": "",
        "hitAutoRedirect": false,
        "muteAllHitText": true
      },
      "combatLock": {
        "lockShape": "CircleLockEnemy",
        "denyLockOn": true,
        "lockType": "Gadget_Lv1"
      }
    },
    "combatTemplate": "",
    "abilities": [
      {
        "abilityID": "ability_01",
        "abilityName": "V4_8_FairyBook_BasicBrick_Common_01",
        "abilityOverride": ""
      },
      {
        "abilityID": "ability_02",
        "abilityName": "V4_8_FairyBook_BasicBrick_Common_ResetSLC_01",
        "abilityOverride": ""
      },
      {
        "abilityID": "ability_03",
        "abilityName": "V4_8_FairyBook_BasicBrick_Common_Get_TempFollowTarget_01",
        "abilityOverride": ""
      },
      {
        "abilityID": "ability_04",
        "abilityName": "V4_8_FairyBook_BasicBrick_Common_Reset_TempFollowTarget_01",
        "abilityOverride": ""
      },
      {
        "abilityID": "ability_05",
        "abilityName": "V4_8_FairyBook_BrickFlower_01",
        "abilityOverride": ""
      },
      {
        "abilityID": "Scene_RockGadget_Summon_Detect",
        "abilityName": "Scene_RockGadget_Summon_Detect",
        "abilityOverride": ""
      },
      {
        "abilityID": "V4_8_FairyBook_Common_StateResistance",
        "abilityName": "V4_8_FairyBook_Common_StateResistance",
        "abilityOverride": ""
      }
    ],
    "move": {
      "$type": "MMAPEFIEGAL",
      "target": "TargetKey",
      "followTargetEx": {
        "$type": "JJNAIOOLBOJ",
        "targetKey": "FollowRuntimeID"
      },
      "attachPoint": "",
      "followRotation": true,
      "offset": {
        "y": 0.5
      },
      "syncTransToServer": true,
      "syncInterval": 0.20000000298023224,
      "handleInLateTick": true,
      "LFOHLEKJFBI": "",
      "GIDLCCHLBHE": {
        "$type": "LGHKFJENENG",
        "GJCCBINCPHM": true,
        "arriveDistance": 0.10000000149011612,
        "speed": 24.0,
        "EDDIMBPLJEC": 0.0,
        "maxSpeed": 24.0,
        "FCKCAHBHNGD": false
      }
    }
  },
  "V4_8_FairyBook_BrickFlower_02": {
    "$type": "CJKJIENLOHD",
    "common": {
      "disableTickDistance": 80.0,
      "isForceRefreshAuthotiryToHost": true
    },
    "model": {
      "bornEffect": "",
      "attachEffect": "",
      "HBJIOPNMBOM": true,
      "KOCEMHIPJOP": true,
      "BKPFGNPLDNJ": ""
    },
    "globalValue": {
      "serverGlobalValues": [
        "SGV_BB_Piece_Type",
        "SGV_Gopher_Block_Group_Id",
        "SGV_Gopher_Block_Id",
        "SGV_ToyBrick_Region",
        "SGV_IS_TNT_Block",
        "SGV_ToyRing_Scale",
        "SGV_Default_Follow",
        "SGV_Follow_Scale",
        "SGV_TarDistance_Check_Value",
        "SGV_Auto_Stop_Duration",
        "SGV_Keep_Rot_Succ",
        "SGV_Create_Require_WindField_Succ",
        "SGV_Emoji_Once",
        "SGV_Emoji_Persistent",
        "SGV_Emote_Scale",
        "SGV_ToyBrick_Distance"
      ],
      "initServerGlobalValues": {
        "SGV_BB_Piece_Type": 0.0,
        "SGV_Gopher_Block_Group_Id": 0.0,
        "SGV_Gopher_Block_Id": 0.0,
        "SGV_ToyBrick_Region": 0.0,
        "SGV_IS_TNT_Block": 0.0,
        "SGV_ToyRing_Scale": 0.6399999856948853,
        "SGV_Default_Follow": 0.0,
        "SGV_Follow_Scale": 0.20000000298023224,
        "SGV_TarDistance_Check_Value": 0.6000000238418579,
        "SGV_Auto_Stop_Duration": 15.0,
        "SGV_Keep_Rot_Succ": 0.0,
        "SGV_Create_Require_WindField_Succ": 0.0,
        "SGV_Emoji_Once": 0.0,
        "SGV_Emoji_Persistent": 0.0,
        "SGV_Emote_Scale": 0.699999988079071,
        "SGV_ToyBrick_Distance": 0.0
      }
    },
    "hasModel": true,
    "combat": {
      "property": {
        "hp": 99999.0,
        "attack": 20.0,
        "weight": 50.0,
        "isLockHP": true,
        "isGhostToAllied": true
      },
      "beHit": {
        "hitBloodEffect": "",
        "hitAutoRedirect": false,
        "muteAllHitText": true
      },
      "combatLock": {
        "lockShape": "CircleLockEnemy",
        "denyLockOn": true,
        "lockType": "Gadget_Lv1"
      }
    },
    "combatTemplate": "",
    "abilities": [
      {
        "abilityID": "ability_01",
        "abilityName": "V4_8_FairyBook_BasicBrick_Common_01",
        "abilityOverride": ""
      },
      {
        "abilityID": "ability_02",
        "abilityName": "V4_8_FairyBook_BasicBrick_Common_ResetSLC_01",
        "abilityOverride": ""
      },
      {
        "abilityID": "ability_03",
        "abilityName": "V4_8_FairyBook_BasicBrick_Common_Get_TempFollowTarget_01",
        "abilityOverride": ""
      },
      {
        "abilityID": "ability_04",
        "abilityName": "V4_8_FairyBook_BasicBrick_Common_Reset_TempFollowTarget_01",
        "abilityOverride": ""
      },
      {
        "abilityID": "ability_05",
        "abilityName": "V4_8_FairyBook_BrickFlower_01",
        "abilityOverride": ""
      },
      {
        "abilityID": "ability_06",
        "abilityName": "V4_8_FairyBook_BrickFlower_IdleState_01",
        "abilityOverride": ""
      },
      {
        "abilityID": "ability_07",
        "abilityName": "FairyBook_EmojiManager_Once",
        "abilityOverride": ""
      },
      {
        "abilityID": "ability_08",
        "abilityName": "FairyBook_EmojiManager_Persistent",
        "abilityOverride": ""
      },
      {
        "abilityID": "Scene_RockGadget_Summon_Detect",
        "abilityName": "Scene_RockGadget_Summon_Detect",
        "abilityOverride": ""
      },
      {
        "abilityID": "FairyBook_TalkBubble_01_Ability",
        "abilityName": "FairyBook_TalkBubble_01_Ability",
        "abilityOverride": ""
      },
      {
        "abilityID": "V4_8_FairyBook_Common_StateResistance",
        "abilityName": "V4_8_FairyBook_Common_StateResistance",
        "abilityOverride": ""
      }
    ],
    "move": {
      "$type": "MMAPEFIEGAL",
      "target": "TargetKey",
      "followTargetEx": {
        "$type": "JJNAIOOLBOJ",
        "targetKey": "FollowRuntimeID"
      },
      "attachPoint": "",
      "followRotation": true,
      "offset": {
        "y": 0.5
      },
      "syncTransToServer": true,
      "syncInterval": 0.20000000298023224,
      "handleInLateTick": true,
      "LFOHLEKJFBI": "",
      "GIDLCCHLBHE": {
        "$type": "LGHKFJENENG",
        "GJCCBINCPHM": true,
        "arriveDistance": 0.10000000149011612,
        "speed": 24.0,
        "EDDIMBPLJEC": 0.0,
        "maxSpeed": 24.0,
        "FCKCAHBHNGD": false
      }
    },
    "billboard": {
      "$type": "KMCIKEIBFAH",
      "attachPoint": "BillboardAttach",
      "offset": {
        "y": 0.7960000038146973
      },
      "forceHideAllBars": true
    }
  },
  "V4_8_FairyBook_BrickFlower_03": {
    "$type": "CJKJIENLOHD",
    "common": {
      "disableTickDistance": 80.0,
      "isForceRefreshAuthotiryToHost": true
    },
    "model": {
      "bornEffect": "",
      "attachEffect": "",
      "HBJIOPNMBOM": true,
      "KOCEMHIPJOP": true,
      "BKPFGNPLDNJ": ""
    },
    "globalValue": {
      "serverGlobalValues": [
        "SGV_BB_Piece_Type",
        "SGV_Gopher_Block_Group_Id",
        "SGV_Gopher_Block_Id",
        "SGV_ToyBrick_Region",
        "SGV_IS_TNT_Block",
        "SGV_ToyRing_Scale",
        "SGV_Default_Follow",
        "SGV_Follow_Scale",
        "SGV_TarDistance_Check_Value",
        "SGV_Auto_Stop_Duration",
        "SGV_Keep_Rot_Succ",
        "SGV_Create_Require_WindField_Succ",
        "SGV_Emoji_Once",
        "SGV_Emoji_Persistent",
        "SGV_Emote_Scale"
      ],
      "initServerGlobalValues": {
        "SGV_BB_Piece_Type": 0.0,
        "SGV_Gopher_Block_Group_Id": 0.0,
        "SGV_Gopher_Block_Id": 0.0,
        "SGV_ToyBrick_Region": 0.0,
        "SGV_IS_TNT_Block": 0.0,
        "SGV_ToyRing_Scale": 0.6399999856948853,
        "SGV_Default_Follow": 0.0,
        "SGV_Follow_Scale": 0.20000000298023224,
        "SGV_TarDistance_Check_Value": 0.6000000238418579,
        "SGV_Auto_Stop_Duration": 15.0,
        "SGV_Keep_Rot_Succ": 0.0,
        "SGV_Create_Require_WindField_Succ": 0.0,
        "SGV_Emoji_Once": 0.0,
        "SGV_Emoji_Persistent": 0.0,
        "SGV_Emote_Scale": 0.699999988079071
      }
    },
    "hasModel": true,
    "combat": {
      "property": {
        "hp": 99999.0,
        "attack": 20.0,
        "weight": 50.0,
        "isLockHP": true,
        "isGhostToAllied": true,
        "isGhostToEnemy": true
      },
      "beHit": {
        "hitBloodEffect": "",
        "hitAutoRedirect": false,
        "muteAllHitText": true
      },
      "combatLock": {
        "lockShape": "CircleLockEnemy",
        "denyLockOn": true,
        "lockType": "Gadget_Lv1"
      }
    },
    "combatTemplate": "",
    "abilities": [
      {
        "abilityID": "ability_01",
        "abilityName": "V4_8_FairyBook_BrickFlower_03",
        "abilityOverride": ""
      },
      {
        "abilityID": "ability_02",
        "abilityName": "FairyBook_EmojiManager_Once",
        "abilityOverride": ""
      },
      {
        "abilityID": "ability_03",
        "abilityName": "FairyBook_EmojiManager_Persistent",
        "abilityOverride": ""
      },
      {
        "abilityID": "Scene_RockGadget_Summon_Detect",
        "abilityName": "Scene_RockGadget_Summon_Detect",
        "abilityOverride": ""
      },
      {
        "abilityID": "FairyBook_TalkBubble_01_Ability",
        "abilityName": "FairyBook_TalkBubble_01_Ability",
        "abilityOverride": ""
      }
    ],
    "move": {
      "$type": "MMAPEFIEGAL",
      "target": "TargetKey",
      "followTargetEx": {
        "$type": "JJNAIOOLBOJ",
        "targetKey": "FollowRuntimeID"
      },
      "attachPoint": "",
      "followRotation": true,
      "offset": {
        "y": 0.5
      },
      "syncTransToServer": true,
      "syncInterval": 0.20000000298023224,
      "LFOHLEKJFBI": "",
      "GIDLCCHLBHE": {
        "$type": "LGHKFJENENG",
        "GJCCBINCPHM": true,
        "arriveDistance": 0.10000000149011612,
        "speed": 24.0,
        "EDDIMBPLJEC": 0.0,
        "maxSpeed": 24.0,
        "FCKCAHBHNGD": false
      }
    },
    "billboard": {
      "$type": "KMCIKEIBFAH",
      "attachPoint": "BillboardAttach",
      "offset": {
        "y": 0.7960000038146973
      },
      "forceHideAllBars": true
    }
  },
  "V4_8_FairyBook_BrickMatch_01": {
    "$type": "CJKJIENLOHD",
    "common": {
      "disableTickDistance": 80.0,
      "isForceRefreshAuthotiryToHost": true
    },
    "globalValue": {
      "serverGlobalValues": [
        "SGV_BB_Piece_Type",
        "SGV_ToyBrick_Region",
        "SGV_Can_Be_Destroy",
        "SGV_Is_Red_Brick_Jointing",
        "SGV_Auto_Stop_Duration"
      ],
      "initServerGlobalValues": {
        "SGV_BB_Piece_Type": 0.0,
        "SGV_ToyBrick_Region": 0.0,
        "SGV_Can_Be_Destroy": 0.0,
        "SGV_Is_Red_Brick_Jointing": 0.0,
        "SGV_Auto_Stop_Duration": 10.0
      }
    },
    "hasModel": true,
    "combat": {
      "property": {
        "hp": 99999.0,
        "attack": 20.0,
        "weight": 50.0,
        "isLockHP": true,
        "isGhostToAllied": true
      },
      "beHit": {
        "hitBloodEffect": "",
        "hitAutoRedirect": false,
        "muteAllHitText": true
      }
    },
    "combatTemplate": "",
    "abilities": [
      {
        "abilityID": "ability_01",
        "abilityName": "V4_8_FairyBook_BrickPoint_01",
        "abilityOverride": ""
      },
      {
        "abilityID": "ability_02",
        "abilityName": "V4_8_FairyBook_BrickPoint_TNT_Receiver",
        "abilityOverride": ""
      },
      {
        "abilityID": "ability_03",
        "abilityName": "V4_8_FairyBook_BrickMatch_01",
        "abilityOverride": ""
      },
      {
        "abilityID": "Scene_RockGadget_Summon_Detect",
        "abilityName": "Scene_RockGadget_Summon_Detect",
        "abilityOverride": ""
      },
      {
        "abilityID": "V4_8_FairyBook_Common_StateResistance",
        "abilityName": "V4_8_FairyBook_Common_StateResistance",
        "abilityOverride": ""
      }
    ]
  },
  "V4_8_FairyBook_BrickLight_01": {
    "$type": "CJKJIENLOHD",
    "common": {
      "disableTickDistance": 80.0
    },
    "hasModel": true,
    "combat": {
      "property": {
        "hp": 99999.0,
        "attack": 20.0,
        "weight": 50.0,
        "isLockHP": true,
        "isGhostToAllied": true,
        "isGhostToEnemy": true
      },
      "beHit": {
        "hitBloodEffect": "",
        "hitAutoRedirect": false,
        "muteAllHitText": true
      }
    },
    "combatTemplate": "",
    "abilities": [
      {
        "abilityID": "ability_01",
        "abilityName": "V4_8_FairyBook_BrickLight_01",
        "abilityOverride": ""
      },
      {
        "abilityID": "Scene_RockGadget_Summon_Detect",
        "abilityName": "Scene_RockGadget_Summon_Detect",
        "abilityOverride": ""
      }
    ]
  },
  "V4_8_FairyBook_ToyBrickDragonPart_01": {
    "$type": "CJKJIENLOHD",
    "common": {
      "disableTickDistance": 80.0
    },
    "hasModel": true,
    "combat": {
      "property": {
        "hp": 99999.0,
        "attack": 20.0,
        "weight": 50.0,
        "isLockHP": true,
        "isGhostToAllied": true,
        "isGhostToEnemy": true
      },
      "beHit": {
        "hitBloodEffect": "",
        "hitAutoRedirect": false,
        "muteAllHitText": true
      }
    },
    "combatTemplate": "",
    "abilities": [
      {
        "abilityID": "ability_01",
        "abilityName": "V4_8_FairyBook_ToyBrickDragonPart_01",
        "abilityOverride": ""
      },
      {
        "abilityID": "Scene_RockGadget_Summon_Detect",
        "abilityName": "Scene_RockGadget_Summon_Detect",
        "abilityOverride": ""
      }
    ]
  },
  "V4_8_FairyBook_BrickDragonScale_01": {
    "$type": "CJKJIENLOHD",
    "common": {
      "disableTickDistance": 80.0
    },
    "hasModel": true,
    "combat": {
      "property": {
        "hp": 99999.0,
        "attack": 20.0,
        "weight": 50.0,
        "isLockHP": true,
        "isGhostToAllied": true,
        "isGhostToEnemy": true
      },
      "beHit": {
        "hitBloodEffect": "",
        "hitAutoRedirect": false,
        "muteAllHitText": true
      }
    },
    "combatTemplate": "",
    "abilities": [
      {
        "abilityID": "ability_01",
        "abilityName": "V4_8_FairyBook_BrickDragonScale_01",
        "abilityOverride": ""
      },
      {
        "abilityID": "Scene_RockGadget_Summon_Detect",
        "abilityName": "Scene_RockGadget_Summon_Detect",
        "abilityOverride": ""
      }
    ]
  },
  "V4_8_FairyBook_BrickPoint_02": {
    "$type": "CJKJIENLOHD",
    "common": {
      "disableTickDistance": 80.0,
      "isForceRefreshAuthotiryToHost": true
    },
    "hasModel": true,
    "combat": {
      "property": {
        "hp": 99999.0,
        "attack": 20.0,
        "weight": 50.0,
        "isLockHP": true,
        "isGhostToAllied": true,
        "isGhostToEnemy": true
      },
      "beHit": {
        "hitBloodEffect": "",
        "hitAutoRedirect": false,
        "muteAllHitText": true
      }
    },
    "combatTemplate": "",
    "abilities": [
      {
        "abilityID": "ability_01",
        "abilityName": "V4_8_FairyBook_BrickPoint_02",
        "abilityOverride": ""
      },
      {
        "abilityID": "Scene_RockGadget_Summon_Detect",
        "abilityName": "Scene_RockGadget_Summon_Detect",
        "abilityOverride": ""
      }
    ]
  },
  "V4_8_FairyBook_BrickBomb_WQ_01": {
    "$type": "CJKJIENLOHD",
    "common": {
      "disableTickDistance": 80.0,
      "isForceRefreshAuthotiryToHost": true
    },
    "globalValue": {
      "serverGlobalValues": [
        "SGV_BB_Piece_Type",
        "SGV_Gopher_Block_Group_Id",
        "SGV_Gopher_Block_Id",
        "SGV_ToyBrick_Region",
        "SGV_IS_TNT_Block",
        "SGV_ToyRing_Scale",
        "SGV_Default_Follow",
        "SGV_Follow_Scale",
        "SGV_TarDistance_Check_Value",
        "SGV_Use_In_WQ",
        "SGV_ToyBrick_Distance"
      ],
      "initServerGlobalValues": {
        "SGV_BB_Piece_Type": 2.0,
        "SGV_Gopher_Block_Group_Id": 0.0,
        "SGV_Gopher_Block_Id": 0.0,
        "SGV_ToyBrick_Region": 0.0,
        "SGV_IS_TNT_Block": 1.0,
        "SGV_ToyRing_Scale": 1.0,
        "SGV_Default_Follow": 0.0,
        "SGV_Follow_Scale": 0.25,
        "SGV_TarDistance_Check_Value": 0.5,
        "SGV_Use_In_WQ": 1.0,
        "SGV_ToyBrick_Distance": 0.0
      }
    },
    "hasModel": true,
    "combatTemplate": "",
    "abilities": [
      {
        "abilityID": "ability_01",
        "abilityName": "V4_8_FairyBook_BasicBrick_Common_01",
        "abilityOverride": ""
      },
      {
        "abilityID": "ability_02",
        "abilityName": "V4_8_FairyBook_BasicBrick_Common_ResetSLC_01",
        "abilityOverride": ""
      },
      {
        "abilityID": "ability_03",
        "abilityName": "V4_8_FairyBook_BasicBrick_Common_Get_TempFollowTarget_01",
        "abilityOverride": ""
      },
      {
        "abilityID": "ability_04",
        "abilityName": "V4_8_FairyBook_BasicBrick_Common_Reset_TempFollowTarget_01",
        "abilityOverride": ""
      },
      {
        "abilityID": "ability_05",
        "abilityName": "V4_8_FairyBook_BrickBomb_Controller_01",
        "abilityOverride": ""
      },
      {
        "abilityID": "Scene_RockGadget_Summon_Detect",
        "abilityName": "Scene_RockGadget_Summon_Detect",
        "abilityOverride": ""
      }
    ],
    "move": {
      "$type": "MMAPEFIEGAL",
      "target": "TargetKey",
      "followTargetEx": {
        "$type": "JJNAIOOLBOJ",
        "targetKey": "FollowRuntimeID"
      },
      "attachPoint": "",
      "followRotation": true,
      "offset": {
        "y": 0.25
      },
      "handleInLateTick": true,
      "LFOHLEKJFBI": "",
      "GIDLCCHLBHE": {
        "$type": "LGHKFJENENG",
        "GJCCBINCPHM": true,
        "arriveDistance": 0.10000000149011612,
        "speed": 24.0,
        "EDDIMBPLJEC": 0.0,
        "maxSpeed": 24.0,
        "FCKCAHBHNGD": false
      }
    }
  },
  "V4_8_FairyBook_OtherBrick_Brickstick_01": {
    "$type": "CJKJIENLOHD",
    "common": {
      "disableTickDistance": 100000.0
    },
    "hasModel": true,
    "combatTemplate": "",
    "move": {
      "$type": "OEFHHKHPMCJ"
    }
  },
  "V4_8_FairyBook_OtherBrick_Tramcar_01": {
    "$type": "CJKJIENLOHD",
    "common": {
      "disableTickDistance": 100000.0
    },
    "hasModel": true,
    "combatTemplate": "",
    "move": {
      "$type": "OEFHHKHPMCJ"
    }
  },
  "V4_8_FairyBook_OtherBrick_WaterGlideChampOrb_MovePlatform": {
    "$type": "CJKJIENLOHD",
    "model": {
      "bornEffect": "",
      "attachEffect": "Eff_SceneObj_FontaineGlideChampOrb_01_Follow",
      "BKPFGNPLDNJ": ""
    },
    "hasModel": true,
    "combat": {
      "property": {
        "hp": 99999.0,
        "attack": 50.0,
        "weight": 50.0,
        "isLockHP": true,
        "isGhostToAllied": true,
        "isGhostToEnemy": true
      },
      "beHit": {
        "hitBloodEffect": "",
        "hitAutoRedirect": false,
        "muteAllHitText": true
      },
      "combatLock": {
        "lockShape": "CircleLockEnemy",
        "denyLockOn": true,
        "lockType": "Gadget_Lv1"
      }
    },
    "combatTemplate": "",
    "abilities": [
      {
        "abilityID": "V4_8_FairyBook_OtherBrick_WaterGlideChampOrb_MovePlatform",
        "abilityName": "V4_8_FairyBook_OtherBrick_WaterGlideChampOrb_MovePlatform",
        "abilityOverride": ""
      }
    ],
    "field": {
      "concernType": "AllAvatars",
      "shape": "CircleR1.5H3",
      "fromShape": "",
      "triggerInfinite": true,
      "lifeInfinite": true,
      "checkInterval": 0.20000000298023224,
      "overwriteCampType": true,
      "campType": "All",
      "colliderName": "",
      "fromColliderName": ""
    },
    "move": {
      "$type": "OEFHHKHPMCJ"
    }
  },
  "V4_8_FairyBook_BrickMine_SPLight_01": {
    "$type": "CJKJIENLOHD",
    "common": {
      "disableTickDistance": 100.0
    },
    "combatTemplate": "",
    "abilities": [
      {
        "abilityID": "ability_01",
        "abilityName": "V4_8_FairyBook_BrickMine_SPLight_01",
        "abilityOverride": ""
      }
    ]
  },
  "V4_8_FairyBook_BrickMine_RollerCoaster_01": {
    "$type": "CJKJIENLOHD",
    "common": {
      "disableTickDistance": 100001.0,
      "isForceRefreshAuthotiryToHost": true
    },
    "model": {
      "bornEffect": "",
      "attachEffect": "",
      "BKPFGNPLDNJ": ""
    },
    "globalValue": {
      "serverGlobalValues": ["SGV_Turn", "SGV_DisableTurn", "SGV_DisableStart"],
      "initServerGlobalValues": {
        "SGV_Turn": 0.0,
        "SGV_DisableTurn": 0.0,
        "SGV_DisableStart": 0.0
      }
    },
    "hasModel": true,
    "combat": {
      "property": {
        "hp": 99999.0,
        "isInvincible": true,
        "isLockHP": true
      },
      "combatLock": {
        "lockShape": "CircleLockEnemy",
        "denyLockOn": true,
        "lockType": "Default"
      }
    },
    "combatTemplate": "",
    "abilities": [
      {
        "abilityID": "SceneObj_Penumbra_Common_Property_Ani_Prop_RollerCoaster_01",
        "abilityName": "SceneObj_Penumbra_Common_Property_Ani_Prop_RollerCoaster_01",
        "abilityOverride": ""
      },
      {
        "abilityID": "SceneObj_Penumbra_Common_Property_Ani_Prop_RollerCoaster_Turn",
        "abilityName": "SceneObj_Penumbra_Common_Property_Ani_Prop_RollerCoaster_Turn",
        "abilityOverride": ""
      },
      {
        "abilityID": "Scene_RockGadget_Summon_Detect",
        "abilityName": "Scene_RockGadget_Summon_Detect",
        "abilityOverride": ""
      }
    ]
  }
}
