{
  "Sylph_Wind_WindBullet_01": {
    "$type": "CJKJIENLOHD",
    "common": {
      "effectAttachShape": {
        "$type": "OMIODKONOMG"
      }
    },
    "combat": {
      "property": {
        "useCreatorProperty": true,
        "hp": 999999.0,
        "attack": 10.0,
        "defense": 999999.0,
        "isInvincible": true,
        "isGhostToAllied": true,
        "isGhostToEnemy": true
      },
      "beHit": {
        "hitBloodEffect": "",
        "muteAllHit": true,
        "muteAllHitEffect": true,
        "muteAllHitText": true
      },
      "combatLock": {
        "lockShape": "CircleLockEnemy",
        "denyLockOn": true,
        "lockType": "Default"
      }
    },
    "combatTemplate": "",
    "abilities": [
      {
        "abilityID": "",
        "abilityName": "Sylph_Wind_WindBullet_Hit",
        "abilityOverride": ""
      }
    ],
    "timer": {
      "lifeTime": 2.0
    },
    "move": {
      "$type": "DMLAFKAOGID",
      "speed": 18.0,
      "maxSpeed": 22.0,
      "minSpeed": 15.0,
      "anglerVelocity": 120.0,
      "acceleration": 2.0,
      "DPAAFHNMHHN": {
        "$type": "IFAANDLLGLP"
      },
      "guidanceDelay": 0.20000000298023224,
      "guidanceSpeedChange": false,
      "guidanceMinAnglerVelocity": 30.0,
      "guidanceDuration": 2.0
    },
    "gadget": {
      "$type": "JENBBNKGGJP",
      "collision": {
        "targetType": "Enemy"
      },
      "triggerActions": [
        {
          "$type": "AILPBJHDHDG",
          "abilityName": "Sylph_Wind_WindBullet_Hit"
        }
      ]
    }
  },
  "Sylph_Wind_WindBullet_02": {
    "$type": "CJKJIENLOHD",
    "common": {
      "effectAttachShape": {
        "$type": "OMIODKONOMG"
      }
    },
    "combat": {
      "property": {
        "useCreatorProperty": true,
        "hp": 999999.0,
        "attack": 10.0,
        "defense": 999999.0,
        "isInvincible": true,
        "isGhostToAllied": true,
        "isGhostToEnemy": true
      },
      "beHit": {
        "hitBloodEffect": "",
        "muteAllHit": true,
        "muteAllHitEffect": true,
        "muteAllHitText": true
      },
      "combatLock": {
        "lockShape": "CircleLockEnemy",
        "denyLockOn": true,
        "lockType": "Default"
      }
    },
    "combatTemplate": "",
    "abilities": [
      {
        "abilityID": "",
        "abilityName": "Sylph_Wind_WindBullet_Hit",
        "abilityOverride": ""
      }
    ],
    "timer": {
      "lifeTime": 2.0
    },
    "move": {
      "$type": "DMLAFKAOGID",
      "speed": 18.0,
      "maxSpeed": 22.0,
      "minSpeed": 15.0,
      "anglerVelocity": 120.0,
      "acceleration": 2.0,
      "DPAAFHNMHHN": {
        "$type": "IFAANDLLGLP"
      },
      "guidanceDelay": 0.20000000298023224,
      "guidanceSpeedChange": false,
      "guidanceMinAnglerVelocity": 30.0,
      "guidanceDuration": 2.0
    },
    "gadget": {
      "$type": "JENBBNKGGJP",
      "collision": {
        "targetType": "Enemy"
      },
      "triggerActions": [
        {
          "$type": "AILPBJHDHDG",
          "abilityName": "Sylph_Wind_WindBullet_Hit"
        }
      ]
    }
  },
  "Sylph_Wind_ElementBullet": {
    "$type": "CJKJIENLOHD",
    "common": {
      "effectAttachShape": {
        "$type": "OMIODKONOMG"
      }
    },
    "combat": {
      "property": {
        "useCreatorProperty": true,
        "hp": 999999.0,
        "defense": 999999.0,
        "isInvincible": true,
        "isGhostToAllied": true,
        "isGhostToEnemy": true
      },
      "beHit": {
        "hitBloodEffect": "",
        "muteAllHit": true,
        "muteAllHitEffect": true,
        "muteAllHitText": true
      },
      "combatLock": {
        "lockShape": "CircleLockEnemy",
        "denyLockOn": true,
        "lockType": "Default"
      }
    },
    "combatTemplate": "",
    "abilities": [
      {
        "abilityID": "",
        "abilityName": "Sylph_Wind_ElementBullet_Hit",
        "abilityOverride": ""
      }
    ],
    "timer": {
      "lifeTime": 5.0
    },
    "move": {
      "$type": "BFDBCCCADKH",
      "speed": 6.0,
      "DPAAFHNMHHN": {
        "$type": "IFAANDLLGLP"
      },
      "angleOffHor": -30.0,
      "gravityOfAcceleration": 8.0,
      "GEBCKKDCGDP": "",
      "NKPHOKHJKGC": ""
    },
    "gadget": {
      "$type": "JENBBNKGGJP",
      "collision": {
        "targetType": "Enemy"
      },
      "triggerActions": [
        {
          "$type": "AILPBJHDHDG",
          "abilityName": "Sylph_Wind_ElementBullet_Hit"
        }
      ]
    }
  },
  "Sylph_Wind_DeathPos": {
    "$type": "CJKJIENLOHD",
    "combat": {
      "property": {
        "useCreatorProperty": true,
        "hp": 100.0,
        "attack": 10.0,
        "isInvincible": true,
        "isGhostToAllied": true,
        "isGhostToEnemy": true,
        "canTriggerBullet": false
      },
      "combatLock": {
        "lockShape": "CircleLockEnemy",
        "denyLockOn": true,
        "lockType": "Default"
      }
    },
    "combatTemplate": "",
    "abilities": [
      {
        "abilityID": "",
        "abilityName": "Sylph_Wind_DeathPosAction",
        "abilityOverride": ""
      }
    ],
    "timer": {
      "lifeInfinite": true
    }
  },
  "Sylph_Wind_Activated_AirGun": {
    "$type": "CJKJIENLOHD",
    "common": {
      "effectAttachShape": {
        "$type": "OMIODKONOMG"
      }
    },
    "combat": {
      "property": {
        "useCreatorProperty": true,
        "hp": 999999.0,
        "attack": 10.0,
        "defense": 999999.0,
        "isInvincible": true,
        "isGhostToAllied": true,
        "isGhostToEnemy": true
      },
      "beHit": {
        "hitBloodEffect": "",
        "muteAllHit": true,
        "muteAllHitEffect": true,
        "muteAllHitText": true
      },
      "combatLock": {
        "lockShape": "CircleLockEnemy",
        "denyLockOn": true,
        "lockType": "Default"
      }
    },
    "combatTemplate": "",
    "abilities": [
      {
        "abilityID": "",
        "abilityName": "Sylph_Wind_Activated_AirGun_Hit",
        "abilityOverride": ""
      }
    ],
    "timer": {
      "lifeTime": 2.0
    },
    "move": {
      "$type": "GONNMCBKAOC",
      "speed": 20.0,
      "maxSpeed": 26.0,
      "minSpeed": 18.0,
      "acceleration": 4.0
    },
    "gadget": {
      "$type": "JENBBNKGGJP",
      "collision": {
        "targetType": "Enemy"
      },
      "triggerActions": [
        {
          "$type": "AILPBJHDHDG",
          "abilityName": "Sylph_Wind_Activated_AirGun_Hit"
        }
      ]
    }
  },
  "Sylph_Wind_Activated_DeathPos": {
    "$type": "CJKJIENLOHD",
    "combat": {
      "property": {
        "useCreatorProperty": true,
        "hp": 100.0,
        "attack": 10.0,
        "isInvincible": true,
        "isGhostToAllied": true,
        "isGhostToEnemy": true,
        "canTriggerBullet": false
      },
      "combatLock": {
        "lockShape": "CircleLockEnemy",
        "denyLockOn": true,
        "lockType": "Default"
      }
    },
    "combatTemplate": "",
    "abilities": [
      {
        "abilityID": "",
        "abilityName": "Sylph_Wind_Activated_DeathPosAction",
        "abilityOverride": ""
      }
    ],
    "timer": {
      "lifeInfinite": true
    }
  },
  "Sylph_Wind_Activated_WindZone": {
    "$type": "CJKJIENLOHD",
    "combat": {
      "property": {
        "useCreatorProperty": true,
        "hp": 100.0,
        "attack": 10.0,
        "isInvincible": true,
        "isGhostToAllied": true,
        "isGhostToEnemy": true,
        "canTriggerBullet": false
      },
      "combatLock": {
        "lockShape": "CircleLockEnemy",
        "denyLockOn": true,
        "lockType": "Default"
      }
    },
    "combatTemplate": "",
    "abilities": [
      {
        "abilityID": "",
        "abilityName": "Sylph_Wind_Activated_WindZone",
        "abilityOverride": ""
      }
    ],
    "timer": {
      "lifeTime": 10.0
    }
  },
  "Sylph_Water_WaterBullet": {
    "$type": "CJKJIENLOHD",
    "common": {
      "effectAttachShape": {
        "$type": "OMIODKONOMG"
      }
    },
    "combat": {
      "property": {
        "useCreatorProperty": true,
        "hp": 999999.0,
        "attack": 10.0,
        "defense": 999999.0,
        "isInvincible": true,
        "isGhostToAllied": true,
        "isGhostToEnemy": true
      },
      "beHit": {
        "hitBloodEffect": "",
        "muteAllHit": true,
        "muteAllHitEffect": true,
        "muteAllHitText": true
      },
      "combatLock": {
        "lockShape": "CircleLockEnemy",
        "denyLockOn": true,
        "lockType": "Default"
      }
    },
    "combatTemplate": "",
    "abilities": [
      {
        "abilityID": "",
        "abilityName": "Sylph_Water_WaterBullet_Hit",
        "abilityOverride": ""
      }
    ],
    "timer": {
      "lifeTime": 3.0
    },
    "move": {
      "$type": "DMLAFKAOGID",
      "speed": 5.0,
      "maxSpeed": 12.0,
      "minSpeed": 3.0,
      "anglerVelocity": 120.0,
      "acceleration": 2.0,
      "DPAAFHNMHHN": {
        "$type": "IFAANDLLGLP"
      },
      "stickToGround": {
        "maxStepHeight": 2.0,
        "maxSlopeAngle": 30.0,
        "heightToGround": 0.5,
        "flexibleRange": 0.10000000149011612,
        "unstickWhenDownSlide": "Keep",
        "unstickWhenUpSlide": "Keep"
      },
      "itanoCircusStartAngler": 120.0,
      "guidanceSpeedChange": false,
      "guidanceMinAnglerVelocity": 90.0,
      "guidanceDuration": 1.0
    },
    "gadget": {
      "$type": "JENBBNKGGJP",
      "collision": {
        "targetType": "Enemy"
      },
      "triggerActions": [
        {
          "$type": "AILPBJHDHDG",
          "abilityName": "Sylph_Water_WaterBullet_Hit"
        }
      ]
    }
  },
  "Sylph_Water_ElementBullet": {
    "$type": "CJKJIENLOHD",
    "common": {
      "effectAttachShape": {
        "$type": "OMIODKONOMG"
      }
    },
    "combat": {
      "property": {
        "useCreatorProperty": true,
        "hp": 999999.0,
        "defense": 999999.0,
        "isInvincible": true,
        "isGhostToAllied": true,
        "isGhostToEnemy": true
      },
      "beHit": {
        "hitBloodEffect": "",
        "muteAllHit": true,
        "muteAllHitEffect": true,
        "muteAllHitText": true
      },
      "combatLock": {
        "lockShape": "CircleLockEnemy",
        "denyLockOn": true,
        "lockType": "Default"
      }
    },
    "combatTemplate": "",
    "abilities": [
      {
        "abilityID": "",
        "abilityName": "Sylph_Water_ElementBullet_Hit",
        "abilityOverride": ""
      }
    ],
    "timer": {
      "lifeTime": 5.0
    },
    "move": {
      "$type": "BFDBCCCADKH",
      "speed": 6.0,
      "DPAAFHNMHHN": {
        "$type": "IFAANDLLGLP"
      },
      "angleOffHor": -30.0,
      "gravityOfAcceleration": 8.0,
      "GEBCKKDCGDP": "",
      "NKPHOKHJKGC": ""
    },
    "gadget": {
      "$type": "JENBBNKGGJP",
      "collision": {
        "targetType": "Enemy"
      },
      "triggerActions": [
        {
          "$type": "AILPBJHDHDG",
          "abilityName": "Sylph_Water_ElementBullet_Hit"
        }
      ]
    }
  },
  "Sylph_Water_HealArea": {
    "$type": "CJKJIENLOHD",
    "combat": {
      "property": {
        "useCreatorProperty": true,
        "hp": 100.0,
        "attack": 10.0,
        "isInvincible": true,
        "isGhostToAllied": true,
        "isGhostToEnemy": true,
        "canTriggerBullet": false
      },
      "combatLock": {
        "lockShape": "CircleLockEnemy",
        "denyLockOn": true,
        "lockType": "Default"
      }
    },
    "combatTemplate": "",
    "abilities": [
      {
        "abilityID": "",
        "abilityName": "Sylph_Water_HealArea",
        "abilityOverride": ""
      }
    ],
    "timer": {
      "lifeTime": 3.0
    }
  },
  "Sylph_Water_DeathPos": {
    "$type": "CJKJIENLOHD",
    "combat": {
      "property": {
        "useCreatorProperty": true,
        "hp": 100.0,
        "attack": 10.0,
        "isInvincible": true,
        "isGhostToAllied": true,
        "isGhostToEnemy": true,
        "canTriggerBullet": false
      },
      "combatLock": {
        "lockShape": "CircleLockEnemy",
        "denyLockOn": true,
        "lockType": "Default"
      }
    },
    "combatTemplate": "",
    "abilities": [
      {
        "abilityID": "",
        "abilityName": "Sylph_Water_DeathPosAction",
        "abilityOverride": ""
      }
    ],
    "timer": {
      "lifeInfinite": true
    }
  },
  "Sylph_Water_Activated_DeathPos": {
    "$type": "CJKJIENLOHD",
    "combat": {
      "property": {
        "useCreatorProperty": true,
        "hp": 100.0,
        "attack": 10.0,
        "isInvincible": true,
        "isGhostToAllied": true,
        "isGhostToEnemy": true,
        "canTriggerBullet": false
      },
      "combatLock": {
        "lockShape": "CircleLockEnemy",
        "denyLockOn": true,
        "lockType": "Default"
      }
    },
    "combatTemplate": "",
    "abilities": [
      {
        "abilityID": "",
        "abilityName": "Sylph_Water_Activated_DeathPosAction",
        "abilityOverride": ""
      }
    ],
    "timer": {
      "lifeTime": 10.0
    }
  },
  "Sylph_Water_Activated_DeathBullet": {
    "$type": "CJKJIENLOHD",
    "common": {
      "effectAttachShape": {
        "$type": "OMIODKONOMG"
      }
    },
    "combat": {
      "property": {
        "useCreatorProperty": true,
        "hp": 999999.0,
        "attack": 15.0,
        "defense": 999999.0,
        "isLockHP": true,
        "isGhostToAllied": true,
        "isGhostToEnemy": true,
        "canTriggerBullet": false
      },
      "beHit": {
        "hitBloodEffect": "",
        "muteAllHit": true,
        "muteAllHitEffect": true,
        "muteAllHitText": true
      },
      "combatLock": {
        "lockShape": "CircleLockEnemy",
        "denyLockOn": true,
        "lockType": "Default"
      }
    },
    "combatTemplate": "",
    "abilities": [
      {
        "abilityID": "",
        "abilityName": "Sylph_Water_Activated_DeathBullet_Hit",
        "abilityOverride": ""
      }
    ],
    "timer": {
      "lifeTime": 4.0
    },
    "move": {
      "$type": "GMOHNHFHLAO",
      "speed": 5.0,
      "anglerVelocity": 360.0,
      "acceleration": 2.5,
      "DPAAFHNMHHN": {
        "$type": "IFAANDLLGLP"
      },
      "traceOnYAxis": true
    },
    "gadget": {
      "$type": "JENBBNKGGJP",
      "collision": {
        "triggerType": "TriggerNoRepeat",
        "targetType": "AllExceptSelf"
      },
      "triggerActions": [
        {
          "$type": "AILPBJHDHDG",
          "abilityName": "Sylph_Water_Activated_DeathBullet_Hit"
        }
      ],
      "triggerLifeOverActions": [
        {
          "$type": "AILPBJHDHDG",
          "abilityName": "Sylph_Water_Activated_DeathBullet_Hit"
        }
      ],
      "killByOther": true,
      "enableCollisionDelay": 0.5
    }
  },
  "Sylph_Rock_RockBullet": {
    "$type": "CJKJIENLOHD",
    "common": {
      "effectAttachShape": {
        "$type": "OMIODKONOMG"
      }
    },
    "combat": {
      "property": {
        "useCreatorProperty": true,
        "hp": 999999.0,
        "attack": 10.0,
        "defense": 999999.0,
        "isInvincible": true,
        "isGhostToAllied": true,
        "isGhostToEnemy": true
      },
      "beHit": {
        "hitBloodEffect": "",
        "muteAllHit": true,
        "muteAllHitEffect": true,
        "muteAllHitText": true
      },
      "combatLock": {
        "lockShape": "CircleLockEnemy",
        "denyLockOn": true,
        "lockType": "Default"
      }
    },
    "combatTemplate": "",
    "abilities": [
      {
        "abilityID": "",
        "abilityName": "Sylph_Rock_RockBullet_Hit",
        "abilityOverride": ""
      }
    ],
    "timer": {
      "lifeTime": 5.0
    },
    "move": {
      "$type": "DMLAFKAOGID",
      "speed": 22.0,
      "maxSpeed": 24.0,
      "minSpeed": 18.0,
      "anglerVelocity": 90.0,
      "acceleration": 2.0,
      "DPAAFHNMHHN": {
        "$type": "IFAANDLLGLP"
      },
      "guidanceSpeedChange": false,
      "guidanceMinAnglerVelocity": 30.0,
      "guidanceDuration": 2.0
    },
    "gadget": {
      "$type": "JENBBNKGGJP",
      "collision": {
        "targetType": "Enemy"
      },
      "triggerActions": [
        {
          "$type": "AILPBJHDHDG",
          "abilityName": "Sylph_Rock_RockBullet_Hit"
        }
      ]
    }
  },
  "Sylph_Rock_FlyHor_FollowBullet": {
    "$type": "CJKJIENLOHD",
    "common": {
      "effectAttachShape": {
        "$type": "OMIODKONOMG"
      }
    },
    "combat": {
      "property": {
        "useCreatorProperty": true,
        "hp": 999999.0,
        "attack": 30.0,
        "defense": 999999.0,
        "isLockHP": true,
        "canTriggerBullet": false
      },
      "beHit": {
        "hitBloodEffect": "",
        "muteAllHit": true,
        "muteAllHitEffect": true,
        "muteAllHitText": true
      },
      "combatLock": {
        "lockShape": "CircleLockEnemy",
        "denyLockOn": true,
        "lockType": "Default"
      }
    },
    "combatTemplate": "",
    "abilities": [
      {
        "abilityID": "",
        "abilityName": "Sylph_Rock_FlyHor_FollowBullet_Hit",
        "abilityOverride": ""
      }
    ],
    "timer": {
      "lifeTime": 2.0
    },
    "move": {
      "$type": "MMAPEFIEGAL",
      "target": "TargetEntity",
      "attachPoint": "",
      "HOMINCCNFHE": {
        "z": 0.30000001192092896
      },
      "LFOHLEKJFBI": ""
    },
    "gadget": {
      "$type": "JENBBNKGGJP",
      "collision": {
        "triggerType": "TriggerNoRepeat",
        "targetType": "Enemy",
        "ignoreScene": true
      },
      "triggerActions": [
        {
          "$type": "AILPBJHDHDG",
          "abilityName": "Sylph_Rock_FlyHor_FollowBullet_Hit"
        }
      ]
    }
  },
  "Sylph_Rock_RockBall": {
    "$type": "CJKJIENLOHD",
    "common": {
      "effectAttachShape": {
        "$type": "OMIODKONOMG",
        "scaleX": 1.2000000476837158,
        "scaleY": 1.2000000476837158,
        "scaleZ": 1.2000000476837158
      }
    },
    "combat": {
      "property": {
        "useCreatorProperty": true,
        "hp": 999999.0,
        "attack": 15.0,
        "defense": 999999.0,
        "isGhostToAllied": true,
        "isGhostToEnemy": true
      },
      "beHit": {
        "hitBloodEffect": "",
        "hitAutoRedirect": false,
        "muteAllHitText": true
      },
      "combatLock": {
        "lockShape": "CircleLockEnemy",
        "denyLockOn": true,
        "lockType": "Default"
      }
    },
    "combatTemplate": "",
    "abilities": [
      {
        "abilityID": "",
        "abilityName": "Sylph_Rock_RockBall_Hit",
        "abilityOverride": ""
      }
    ],
    "timer": {
      "lifeTime": 3.0
    },
    "move": {
      "$type": "DMLAFKAOGID",
      "speed": 4.0,
      "maxSpeed": 12.0,
      "minSpeed": 2.0,
      "anglerVelocity": 240.0,
      "acceleration": 4.0,
      "DPAAFHNMHHN": {
        "$type": "IFAANDLLGLP"
      },
      "delay": 1.0,
      "stickToGround": {
        "maxStepHeight": 2.0,
        "maxSlopeAngle": 30.0,
        "heightToGround": 0.5,
        "flexibleRange": 0.10000000149011612,
        "unstickWhenDownSlide": "Keep",
        "unstickWhenUpSlide": "Keep"
      },
      "guidanceDelay": 0.20000000298023224,
      "guidanceSpeedChange": false,
      "guidanceMinAnglerVelocity": 60.0,
      "guidanceDuration": 3.0
    },
    "gadget": {
      "$type": "JENBBNKGGJP",
      "collision": {
        "targetType": "Enemy"
      },
      "triggerActions": [
        {
          "$type": "AILPBJHDHDG",
          "abilityName": "Sylph_Rock_RockBall_Hit"
        }
      ]
    }
  },
  "Sylph_Rock_DeathPos": {
    "$type": "CJKJIENLOHD",
    "combat": {
      "property": {
        "useCreatorProperty": true,
        "hp": 100.0,
        "attack": 10.0,
        "isInvincible": true,
        "isGhostToAllied": true,
        "isGhostToEnemy": true,
        "canTriggerBullet": false
      },
      "combatLock": {
        "lockShape": "CircleLockEnemy",
        "denyLockOn": true,
        "lockType": "Default"
      }
    },
    "combatTemplate": "",
    "abilities": [
      {
        "abilityID": "",
        "abilityName": "Sylph_Rock_DeathPosAction",
        "abilityOverride": ""
      }
    ],
    "timer": {
      "lifeInfinite": true
    }
  },
  "Sylph_Rock_Activated_EarthquakeBullet": {
    "$type": "CJKJIENLOHD",
    "common": {
      "effectAttachShape": {
        "$type": "OMIODKONOMG"
      }
    },
    "combat": {
      "property": {
        "useCreatorProperty": true,
        "hp": 999999.0,
        "defense": 999999.0,
        "isInvincible": true,
        "isGhostToAllied": true,
        "isGhostToEnemy": true
      },
      "beHit": {
        "hitBloodEffect": "",
        "muteAllHit": true,
        "muteAllHitEffect": true,
        "muteAllHitText": true
      },
      "combatLock": {
        "lockShape": "CircleLockEnemy",
        "denyLockOn": true,
        "lockType": "Default"
      }
    },
    "combatTemplate": "",
    "abilities": [
      {
        "abilityID": "",
        "abilityName": "Sylph_Rock_Activated_EarthquakeBullet_Hit",
        "abilityOverride": ""
      }
    ],
    "timer": {
      "lifeInfinite": true
    },
    "move": {
      "$type": "GONNMCBKAOC",
      "speed": 15.0
    },
    "gadget": {
      "$type": "JENBBNKGGJP",
      "collision": {
        "triggerType": "TriggerNoRepeat"
      },
      "triggerActions": [
        {
          "$type": "AILPBJHDHDG",
          "abilityName": "Sylph_Rock_Activated_EarthquakeBullet_Hit"
        }
      ]
    }
  },
  "Sylph_Rock_Activated_DeathPos": {
    "$type": "CJKJIENLOHD",
    "combat": {
      "property": {
        "useCreatorProperty": true,
        "hp": 100.0,
        "attack": 10.0,
        "isInvincible": true,
        "isGhostToAllied": true,
        "isGhostToEnemy": true,
        "canTriggerBullet": false
      },
      "combatLock": {
        "lockShape": "CircleLockEnemy",
        "denyLockOn": true,
        "lockType": "Default"
      }
    },
    "combatTemplate": "",
    "abilities": [
      {
        "abilityID": "",
        "abilityName": "Sylph_Rock_Activated_DeathPosAction",
        "abilityOverride": ""
      }
    ],
    "timer": {
      "lifeTime": 10.0
    }
  },
  "Sylph_Ice_IceBullet_01": {
    "$type": "CJKJIENLOHD",
    "common": {
      "effectAttachShape": {
        "$type": "OMIODKONOMG"
      }
    },
    "combat": {
      "property": {
        "useCreatorProperty": true,
        "hp": 999999.0,
        "attack": 10.0,
        "defense": 999999.0,
        "isInvincible": true,
        "isGhostToAllied": true,
        "isGhostToEnemy": true
      },
      "beHit": {
        "hitBloodEffect": "",
        "muteAllHit": true,
        "muteAllHitEffect": true,
        "muteAllHitText": true
      },
      "combatLock": {
        "lockShape": "CircleLockEnemy",
        "denyLockOn": true,
        "lockType": "Default"
      }
    },
    "combatTemplate": "",
    "abilities": [
      {
        "abilityID": "",
        "abilityName": "Sylph_Ice_IceBullet_Hit",
        "abilityOverride": ""
      }
    ],
    "timer": {
      "lifeTime": 6.0
    },
    "move": {
      "$type": "DMLAFKAOGID",
      "speed": 4.0,
      "maxSpeed": 8.0,
      "minSpeed": 3.0,
      "anglerVelocity": 180.0,
      "acceleration": 1.0,
      "DPAAFHNMHHN": {
        "$type": "IFAANDLLGLP"
      },
      "guidanceDelay": 0.10000000149011612,
      "guidanceSpeedChange": false,
      "guidanceMinAnglerVelocity": 45.0,
      "guidanceDuration": 2.0
    },
    "gadget": {
      "$type": "JENBBNKGGJP",
      "collision": {
        "targetType": "Enemy"
      },
      "triggerActions": [
        {
          "$type": "AILPBJHDHDG",
          "abilityName": "Sylph_Ice_IceBullet_Hit"
        }
      ]
    }
  },
  "Sylph_Ice_ElementBullet": {
    "$type": "CJKJIENLOHD",
    "common": {
      "effectAttachShape": {
        "$type": "OMIODKONOMG"
      }
    },
    "combat": {
      "property": {
        "useCreatorProperty": true,
        "hp": 999999.0,
        "defense": 999999.0,
        "isInvincible": true,
        "isGhostToAllied": true,
        "isGhostToEnemy": true
      },
      "beHit": {
        "hitBloodEffect": "",
        "muteAllHit": true,
        "muteAllHitEffect": true,
        "muteAllHitText": true
      },
      "combatLock": {
        "lockShape": "CircleLockEnemy",
        "denyLockOn": true,
        "lockType": "Default"
      }
    },
    "combatTemplate": "",
    "abilities": [
      {
        "abilityID": "",
        "abilityName": "Sylph_Ice_ElementBullet_Hit",
        "abilityOverride": ""
      }
    ],
    "timer": {
      "lifeTime": 5.0
    },
    "move": {
      "$type": "BFDBCCCADKH",
      "speed": 6.0,
      "DPAAFHNMHHN": {
        "$type": "IFAANDLLGLP"
      },
      "angleOffHor": -30.0,
      "gravityOfAcceleration": 9.800000190734863,
      "GEBCKKDCGDP": "",
      "NKPHOKHJKGC": ""
    },
    "gadget": {
      "$type": "JENBBNKGGJP",
      "collision": {
        "targetType": "Enemy"
      },
      "triggerActions": [
        {
          "$type": "AILPBJHDHDG",
          "abilityName": "Sylph_Ice_ElementBullet_Hit"
        }
      ]
    }
  },
  "Sylph_Ice_DeathPos": {
    "$type": "CJKJIENLOHD",
    "combat": {
      "property": {
        "useCreatorProperty": true,
        "hp": 100.0,
        "attack": 10.0,
        "isInvincible": true,
        "isGhostToAllied": true,
        "isGhostToEnemy": true,
        "canTriggerBullet": false
      },
      "combatLock": {
        "lockShape": "CircleLockEnemy",
        "denyLockOn": true,
        "lockType": "Default"
      }
    },
    "combatTemplate": "",
    "abilities": [
      {
        "abilityID": "",
        "abilityName": "Sylph_Ice_DeathPosAction",
        "abilityOverride": ""
      }
    ],
    "timer": {
      "lifeInfinite": true
    }
  },
  "Sylph_Ice_Activated_AirGun": {
    "$type": "CJKJIENLOHD",
    "common": {
      "effectAttachShape": {
        "$type": "OMIODKONOMG"
      }
    },
    "combat": {
      "property": {
        "useCreatorProperty": true,
        "hp": 999999.0,
        "attack": 10.0,
        "defense": 999999.0,
        "isInvincible": true,
        "isGhostToAllied": true,
        "isGhostToEnemy": true
      },
      "beHit": {
        "hitBloodEffect": "",
        "muteAllHit": true,
        "muteAllHitEffect": true,
        "muteAllHitText": true
      },
      "combatLock": {
        "lockShape": "CircleLockEnemy",
        "denyLockOn": true,
        "lockType": "Default"
      }
    },
    "combatTemplate": "",
    "abilities": [
      {
        "abilityID": "",
        "abilityName": "Sylph_Ice_Activated_AirGun_Hit",
        "abilityOverride": ""
      }
    ],
    "timer": {
      "lifeTime": 6.0
    },
    "move": {
      "$type": "BFDBCCCADKH",
      "speed": 10.0,
      "DPAAFHNMHHN": {
        "$type": "IFAANDLLGLP"
      },
      "angleOffHor": 40.0,
      "gravityOfAcceleration": 9.800000190734863,
      "correction": {
        "$type": "FEHDIANJKBF",
        "fixAngleOfVer": 60.0,
        "minSpeed": 0.10000000149011612,
        "maxSpeed": 24.0
      },
      "GEBCKKDCGDP": "",
      "NKPHOKHJKGC": ""
    },
    "gadget": {
      "$type": "JENBBNKGGJP",
      "collision": {
        "targetType": "Enemy"
      },
      "triggerActions": [
        {
          "$type": "AILPBJHDHDG",
          "abilityName": "Sylph_Ice_Activated_AirGun_Hit"
        }
      ]
    }
  },
  "Sylph_Ice_Activated_DeathPos": {
    "$type": "CJKJIENLOHD",
    "combat": {
      "property": {
        "useCreatorProperty": true,
        "hp": 100.0,
        "attack": 10.0,
        "isInvincible": true,
        "isGhostToAllied": true,
        "isGhostToEnemy": true,
        "canTriggerBullet": false
      },
      "combatLock": {
        "lockShape": "CircleLockEnemy",
        "denyLockOn": true,
        "lockType": "Default"
      }
    },
    "combatTemplate": "",
    "abilities": [
      {
        "abilityID": "",
        "abilityName": "Sylph_Ice_Activated_DeathPosAction",
        "abilityOverride": ""
      }
    ],
    "timer": {
      "lifeInfinite": true
    }
  },
  "Sylph_Ice_Activated_Zone": {
    "$type": "CJKJIENLOHD",
    "combat": {
      "property": {
        "useCreatorProperty": true,
        "hp": 100.0,
        "attack": 10.0,
        "isInvincible": true,
        "isGhostToAllied": true,
        "isGhostToEnemy": true,
        "canTriggerBullet": false
      },
      "combatLock": {
        "lockShape": "CircleLockEnemy",
        "denyLockOn": true,
        "lockType": "Default"
      }
    },
    "combatTemplate": "",
    "abilities": [
      {
        "abilityID": "",
        "abilityName": "Sylph_Ice_Activated_Zone",
        "abilityOverride": ""
      }
    ],
    "timer": {
      "lifeTime": 5.0
    }
  },
  "Sylph_Electric_FlyHor_FollowBullet": {
    "$type": "CJKJIENLOHD",
    "common": {
      "effectAttachShape": {
        "$type": "OMIODKONOMG"
      }
    },
    "combat": {
      "property": {
        "useCreatorProperty": true,
        "hp": 999999.0,
        "attack": 30.0,
        "defense": 999999.0,
        "isLockHP": true,
        "canTriggerBullet": false
      },
      "beHit": {
        "hitBloodEffect": "",
        "muteAllHit": true,
        "muteAllHitEffect": true,
        "muteAllHitText": true
      },
      "combatLock": {
        "lockShape": "CircleLockEnemy",
        "denyLockOn": true,
        "lockType": "Default"
      }
    },
    "combatTemplate": "",
    "abilities": [
      {
        "abilityID": "",
        "abilityName": "Sylph_Electric_FlyHor_FollowBullet_Hit",
        "abilityOverride": ""
      }
    ],
    "timer": {
      "lifeTime": 2.0
    },
    "move": {
      "$type": "MMAPEFIEGAL",
      "target": "TargetEntity",
      "attachPoint": "",
      "HOMINCCNFHE": {
        "z": 0.30000001192092896
      },
      "LFOHLEKJFBI": ""
    },
    "gadget": {
      "$type": "JENBBNKGGJP",
      "collision": {
        "triggerType": "TriggerNoRepeat",
        "targetType": "Enemy",
        "ignoreScene": true
      },
      "triggerActions": [
        {
          "$type": "AILPBJHDHDG",
          "abilityName": "Sylph_Electric_FlyHor_FollowBullet_Hit"
        }
      ]
    }
  },
  "Sylph_Electric_DeathPos": {
    "$type": "CJKJIENLOHD",
    "combat": {
      "property": {
        "useCreatorProperty": true,
        "hp": 100.0,
        "attack": 10.0,
        "isInvincible": true,
        "isGhostToAllied": true,
        "isGhostToEnemy": true,
        "canTriggerBullet": false
      },
      "combatLock": {
        "lockShape": "CircleLockEnemy",
        "denyLockOn": true,
        "lockType": "Default"
      }
    },
    "combatTemplate": "",
    "abilities": [
      {
        "abilityID": "",
        "abilityName": "Sylph_Electric_DeathPosAction",
        "abilityOverride": ""
      }
    ],
    "timer": {
      "lifeInfinite": true
    }
  },
  "Sylph_Electric_Activated_DeathPos": {
    "$type": "CJKJIENLOHD",
    "combat": {
      "property": {
        "useCreatorProperty": true,
        "hp": 100.0,
        "attack": 10.0,
        "isInvincible": true,
        "isGhostToAllied": true,
        "isGhostToEnemy": true,
        "canTriggerBullet": false
      },
      "combatLock": {
        "lockShape": "CircleLockEnemy",
        "denyLockOn": true,
        "lockType": "Default"
      }
    },
    "combatTemplate": "",
    "abilities": [
      {
        "abilityID": "",
        "abilityName": "Sylph_Electric_Activated_DeathPosAction",
        "abilityOverride": ""
      }
    ],
    "timer": {
      "lifeTime": 10.0
    }
  },
  "Sylph_Fire_FireBullet": {
    "$type": "CJKJIENLOHD",
    "common": {
      "effectAttachShape": {
        "$type": "OMIODKONOMG"
      }
    },
    "combat": {
      "property": {
        "useCreatorProperty": true,
        "hp": 999999.0,
        "attack": 10.0,
        "defense": 999999.0,
        "isInvincible": true,
        "isGhostToAllied": true,
        "isGhostToEnemy": true
      },
      "beHit": {
        "hitBloodEffect": "",
        "muteAllHit": true,
        "muteAllHitEffect": true,
        "muteAllHitText": true
      },
      "combatLock": {
        "lockShape": "CircleLockEnemy",
        "denyLockOn": true,
        "lockType": "Default"
      }
    },
    "combatTemplate": "",
    "abilities": [
      {
        "abilityID": "",
        "abilityName": "Sylph_Fire_FireBullet_Hit",
        "abilityOverride": ""
      }
    ],
    "timer": {
      "lifeTime": 8.0
    },
    "move": {
      "$type": "DMLAFKAOGID",
      "speed": 5.0,
      "maxSpeed": 60.0,
      "minSpeed": 4.0,
      "acceleration": 20.0,
      "DPAAFHNMHHN": {
        "$type": "IFAANDLLGLP"
      },
      "delay": 1.3799999952316284,
      "guidanceSpeedChange": false,
      "guidanceMinAnglerVelocity": 30.0,
      "guidanceDuration": 0.10000000149011612
    },
    "gadget": {
      "$type": "JENBBNKGGJP",
      "collision": {
        "targetType": "Enemy"
      },
      "triggerActions": [
        {
          "$type": "AILPBJHDHDG",
          "abilityName": "Sylph_Fire_FireBullet_Hit"
        }
      ]
    }
  },
  "Sylph_Fire_DeathPos": {
    "$type": "CJKJIENLOHD",
    "combat": {
      "property": {
        "useCreatorProperty": true,
        "hp": 100.0,
        "attack": 10.0,
        "isInvincible": true,
        "isGhostToAllied": true,
        "isGhostToEnemy": true,
        "canTriggerBullet": false
      },
      "combatLock": {
        "lockShape": "CircleLockEnemy",
        "denyLockOn": true,
        "lockType": "Default"
      }
    },
    "combatTemplate": "",
    "abilities": [
      {
        "abilityID": "",
        "abilityName": "Sylph_Fire_DeathPosAction",
        "abilityOverride": ""
      }
    ],
    "timer": {
      "lifeInfinite": true
    }
  },
  "Sylph_Fire_Activated_DeathPos": {
    "$type": "CJKJIENLOHD",
    "combat": {
      "property": {
        "useCreatorProperty": true,
        "hp": 100.0,
        "attack": 10.0,
        "isInvincible": true,
        "isGhostToAllied": true,
        "isGhostToEnemy": true,
        "canTriggerBullet": false
      },
      "combatLock": {
        "lockShape": "CircleLockEnemy",
        "denyLockOn": true,
        "lockType": "Default"
      }
    },
    "combatTemplate": "",
    "abilities": [
      {
        "abilityID": "",
        "abilityName": "Sylph_Fire_Activated_DeathPosAction",
        "abilityOverride": ""
      }
    ],
    "timer": {
      "lifeInfinite": true
    }
  },
  "Sylph_Fire_Activated_DeathSeed": {
    "$type": "CJKJIENLOHD",
    "combat": {
      "property": {
        "useCreatorProperty": true,
        "hp": 100.0,
        "attack": 10.0,
        "isInvincible": true,
        "isGhostToAllied": true,
        "isGhostToEnemy": true,
        "canTriggerBullet": false
      },
      "combatLock": {
        "lockShape": "CircleLockEnemy",
        "denyLockOn": true,
        "lockType": "Default"
      }
    },
    "combatTemplate": "",
    "abilities": [
      {
        "abilityID": "",
        "abilityName": "Sylph_Fire_Activated_DeathSeed",
        "abilityOverride": ""
      }
    ],
    "timer": {
      "lifeTime": 5.0
    }
  },
  "Sylph_Wind_Elite_Activated_DeathPos": {
    "$type": "CJKJIENLOHD",
    "combat": {
      "property": {
        "useCreatorProperty": true,
        "hp": 100.0,
        "attack": 10.0,
        "isInvincible": true,
        "isGhostToAllied": true,
        "isGhostToEnemy": true,
        "canTriggerBullet": false
      },
      "combatLock": {
        "lockShape": "CircleLockEnemy",
        "denyLockOn": true,
        "lockType": "Default"
      }
    },
    "combatTemplate": "",
    "abilities": [
      {
        "abilityID": "",
        "abilityName": "Sylph_Wind_Elite_Activated_DeathPosAction",
        "abilityOverride": ""
      }
    ],
    "timer": {
      "lifeInfinite": true
    }
  },
  "Sylph_Wind_Elite_Activated_WindZone": {
    "$type": "CJKJIENLOHD",
    "combat": {
      "property": {
        "useCreatorProperty": true,
        "hp": 100.0,
        "attack": 10.0,
        "isInvincible": true,
        "isGhostToAllied": true,
        "isGhostToEnemy": true,
        "canTriggerBullet": false
      },
      "combatLock": {
        "lockShape": "CircleLockEnemy",
        "denyLockOn": true,
        "lockType": "Default"
      }
    },
    "combatTemplate": "",
    "abilities": [
      {
        "abilityID": "",
        "abilityName": "Sylph_Wind_Elite_Activated_WindZone",
        "abilityOverride": ""
      }
    ],
    "timer": {
      "lifeInfinite": true
    }
  },
  "Sylph_Water_Elite_Activated_DeathPos": {
    "$type": "CJKJIENLOHD",
    "combat": {
      "property": {
        "useCreatorProperty": true,
        "hp": 100.0,
        "attack": 10.0,
        "isInvincible": true,
        "isGhostToAllied": true,
        "isGhostToEnemy": true,
        "canTriggerBullet": false
      },
      "combatLock": {
        "lockShape": "CircleLockEnemy",
        "denyLockOn": true,
        "lockType": "Default"
      }
    },
    "combatTemplate": "",
    "abilities": [
      {
        "abilityID": "",
        "abilityName": "Sylph_Water_Elite_Activated_DeathPosAction",
        "abilityOverride": ""
      }
    ],
    "timer": {
      "lifeTime": 10.0
    }
  },
  "Sylph_Rock_Elite_Activated_DeathPos": {
    "$type": "CJKJIENLOHD",
    "combat": {
      "property": {
        "useCreatorProperty": true,
        "hp": 100.0,
        "attack": 10.0,
        "isInvincible": true,
        "isGhostToAllied": true,
        "isGhostToEnemy": true,
        "canTriggerBullet": false
      },
      "combatLock": {
        "lockShape": "CircleLockEnemy",
        "denyLockOn": true,
        "lockType": "Default"
      }
    },
    "combatTemplate": "",
    "abilities": [
      {
        "abilityID": "",
        "abilityName": "Sylph_Rock_Elite_Activated_DeathPosAction",
        "abilityOverride": ""
      }
    ],
    "timer": {
      "lifeTime": 10.0
    }
  },
  "Sylph_Grass_GrassBullet": {
    "$type": "CJKJIENLOHD",
    "common": {
      "effectAttachShape": {
        "$type": "OMIODKONOMG"
      }
    },
    "combat": {
      "property": {
        "useCreatorProperty": true,
        "hp": 999999.0,
        "attack": 10.0,
        "defense": 999999.0,
        "isInvincible": true,
        "isGhostToAllied": true,
        "isGhostToEnemy": true
      },
      "beHit": {
        "hitBloodEffect": "",
        "muteAllHit": true,
        "muteAllHitEffect": true,
        "muteAllHitText": true
      },
      "combatLock": {
        "lockShape": "CircleLockEnemy",
        "denyLockOn": true,
        "lockType": "Default"
      }
    },
    "combatTemplate": "",
    "abilities": [
      {
        "abilityID": "",
        "abilityName": "Sylph_Grass_GrassBullet_Hit",
        "abilityOverride": ""
      }
    ],
    "timer": {
      "lifeTime": 3.0
    },
    "move": {
      "$type": "BFDBCCCADKH",
      "speed": 1.899999976158142,
      "acceleration": 0.6000000238418579,
      "accelerationTime": 10.0,
      "DPAAFHNMHHN": {
        "$type": "IFAANDLLGLP"
      },
      "angleOffHor": 60.0,
      "gravityOfAcceleration": 9.800000190734863,
      "correction": {
        "$type": "FEHDIANJKBF",
        "deviation": 0.5,
        "fixAngleOfVer": 180.0,
        "minSpeed": 0.10000000149011612,
        "maxSpeed": 8.0
      },
      "GEBCKKDCGDP": "",
      "NKPHOKHJKGC": ""
    },
    "gadget": {
      "$type": "JENBBNKGGJP",
      "collision": {
        "targetType": "Enemy"
      },
      "triggerActions": [
        {
          "$type": "AILPBJHDHDG",
          "abilityName": "Sylph_Grass_GrassBullet_Hit"
        }
      ]
    }
  },
  "Sylph_Grass_HealArea": {
    "$type": "CJKJIENLOHD",
    "combat": {
      "property": {
        "useCreatorProperty": true,
        "hp": 100.0,
        "attack": 10.0,
        "isInvincible": true,
        "isGhostToAllied": true,
        "isGhostToEnemy": true,
        "canTriggerBullet": false
      },
      "combatLock": {
        "lockShape": "CircleLockEnemy",
        "denyLockOn": true,
        "lockType": "Default"
      }
    },
    "combatTemplate": "",
    "abilities": [
      {
        "abilityID": "",
        "abilityName": "Sylph_Grass_HealArea",
        "abilityOverride": ""
      }
    ],
    "timer": {
      "lifeTime": 3.0
    }
  },
  "Sylph_Grass_HealArea_Bullet": {
    "$type": "CJKJIENLOHD",
    "common": {
      "effectAttachShape": {
        "$type": "OMIODKONOMG"
      }
    },
    "combat": {
      "property": {
        "useCreatorProperty": true,
        "hp": 999999.0,
        "attack": 15.0,
        "defense": 999999.0,
        "isLockHP": true,
        "isGhostToAllied": true,
        "isGhostToEnemy": true,
        "canTriggerBullet": false
      },
      "beHit": {
        "hitBloodEffect": "",
        "muteAllHit": true,
        "muteAllHitEffect": true,
        "muteAllHitText": true
      },
      "combatLock": {
        "lockShape": "CircleLockEnemy",
        "denyLockOn": true,
        "lockType": "Default"
      }
    },
    "combatTemplate": "",
    "abilities": [
      {
        "abilityID": "",
        "abilityName": "Sylph_Grass_HealArea_Hit",
        "abilityOverride": ""
      }
    ],
    "timer": {
      "lifeTime": 6.0
    },
    "move": {
      "$type": "GMOHNHFHLAO",
      "speed": 0.10000000149011612,
      "anglerVelocity": 360.0,
      "acceleration": 1.7999999523162842,
      "DPAAFHNMHHN": {
        "$type": "IFAANDLLGLP"
      },
      "traceOnYAxis": true
    },
    "gadget": {
      "$type": "JENBBNKGGJP",
      "collision": {
        "triggerType": "TriggerNoRepeat",
        "targetType": "AllExceptSelf"
      },
      "triggerActions": [
        {
          "$type": "AILPBJHDHDG",
          "abilityName": "Sylph_Grass_HealArea_Hit"
        }
      ],
      "killByOther": true,
      "enableCollisionDelay": 0.5
    }
  },
  "Sylph_Grass_DeathPos": {
    "$type": "CJKJIENLOHD",
    "combat": {
      "property": {
        "useCreatorProperty": true,
        "hp": 100.0,
        "attack": 10.0,
        "isInvincible": true,
        "isGhostToAllied": true,
        "isGhostToEnemy": true,
        "canTriggerBullet": false
      },
      "combatLock": {
        "lockShape": "CircleLockEnemy",
        "denyLockOn": true,
        "lockType": "Default"
      }
    },
    "combatTemplate": "",
    "abilities": [
      {
        "abilityID": "",
        "abilityName": "Sylph_Grass_DeathPosAction",
        "abilityOverride": ""
      }
    ],
    "timer": {
      "lifeInfinite": true
    }
  },
  "Sylph_Grass_Activated_DeathPos": {
    "$type": "CJKJIENLOHD",
    "combat": {
      "property": {
        "useCreatorProperty": true,
        "hp": 100.0,
        "attack": 10.0,
        "isInvincible": true,
        "isGhostToAllied": true,
        "isGhostToEnemy": true,
        "canTriggerBullet": false
      },
      "combatLock": {
        "lockShape": "CircleLockEnemy",
        "denyLockOn": true,
        "lockType": "Default"
      }
    },
    "combatTemplate": "",
    "abilities": [
      {
        "abilityID": "",
        "abilityName": "Sylph_Grass_Activated_DeathPosAction",
        "abilityOverride": ""
      }
    ],
    "timer": {
      "lifeTime": 10.0
    }
  },
  "Sylph_Grass_Activated_DeathBullet": {
    "$type": "CJKJIENLOHD",
    "common": {
      "effectAttachShape": {
        "$type": "OMIODKONOMG"
      }
    },
    "combat": {
      "property": {
        "useCreatorProperty": true,
        "hp": 999999.0,
        "attack": 15.0,
        "defense": 999999.0,
        "isLockHP": true,
        "isGhostToAllied": true,
        "isGhostToEnemy": true,
        "canTriggerBullet": false
      },
      "beHit": {
        "hitBloodEffect": "",
        "muteAllHit": true,
        "muteAllHitEffect": true,
        "muteAllHitText": true
      },
      "combatLock": {
        "lockShape": "CircleLockEnemy",
        "denyLockOn": true,
        "lockType": "Default"
      }
    },
    "combatTemplate": "",
    "abilities": [
      {
        "abilityID": "",
        "abilityName": "Sylph_Grass_Activated_DeathBullet_Hit",
        "abilityOverride": ""
      }
    ],
    "timer": {
      "lifeTime": 4.0
    },
    "move": {
      "$type": "GMOHNHFHLAO",
      "speed": 5.0,
      "anglerVelocity": 360.0,
      "acceleration": 2.5,
      "DPAAFHNMHHN": {
        "$type": "IFAANDLLGLP"
      },
      "traceOnYAxis": true
    },
    "gadget": {
      "$type": "JENBBNKGGJP",
      "collision": {
        "triggerType": "TriggerNoRepeat",
        "targetType": "AllExceptSelf"
      },
      "triggerActions": [
        {
          "$type": "AILPBJHDHDG",
          "abilityName": "Sylph_Grass_Activated_DeathBullet_Hit"
        }
      ],
      "triggerLifeOverActions": [
        {
          "$type": "AILPBJHDHDG",
          "abilityName": "Sylph_Grass_Activated_DeathBullet_Hit"
        }
      ],
      "killByOther": true,
      "enableCollisionDelay": 0.5
    }
  }
}
