{
  "Bullet_Navia_ElementArt_Shotgun": {
    "$type": "CJKJIENLOHD",
    "common": {
      "effectAttachShape": {
        "$type": "OMIODKONOMG"
      }
    },
    "combat": {
      "property": {
        "useCreatorProperty": true,
        "isInvincible": true,
        "isGhostToAllied": true,
        "isGhostToEnemy": true,
        "canTriggerBullet": false
      },
      "beHit": {
        "hitBloodEffect": "",
        "muteAllHit": true,
        "muteAllHitEffect": true,
        "muteAllHitText": true
      },
      "combatLock": {
        "lockShape": "CircleLockEnemy",
        "denyLockOn": true,
        "lockType": "Default"
      },
      "simulatePhysics": {
        "enable": true
      }
    },
    "combatTemplate": "",
    "abilities": [
      {
        "abilityID": "Avatar_Navia_ElementalArt_ShotGun_Bullet",
        "abilityName": "Avatar_Navia_ElementalArt_ShotGun_Bullet",
        "abilityOverride": ""
      }
    ],
    "timer": {
      "lifeTime": 4.0
    },
    "move": {
      "$type": "JGEFBHJPMOL"
    },
    "gadget": {
      "$type": "AKGCANNFFGI",
      "collision": {
        "ccd": {
          "damageRatio": "Always"
        },
        "triggerType": "TriggerNoRepeat",
        "targetType": "Enemy",
        "ignoreScene": true
      },
      "triggerActions": [
        {
          "$type": "AILPBJHDHDG",
          "abilityName": "Avatar_Navia_ElementalArt_ShotGun_Bullet"
        }
      ],
      "multiBulletConfig": {
        "$type": "OAKJCHGIBPC",
        "selectTargetDefaultType": "None",
        "rotationDampTime": "Eff_Avatar_Lady_Claymore_Navia_ShotGun_Bullet"
      }
    }
  },
  "Bullet_Navia_ElementArt_Shotgun_01": {
    "$type": "CJKJIENLOHD",
    "common": {
      "effectAttachShape": {
        "$type": "OMIODKONOMG"
      }
    },
    "combat": {
      "property": {
        "useCreatorProperty": true,
        "isInvincible": true,
        "isGhostToAllied": true,
        "isGhostToEnemy": true,
        "canTriggerBullet": false
      },
      "beHit": {
        "hitBloodEffect": "",
        "muteAllHit": true,
        "muteAllHitEffect": true,
        "muteAllHitText": true
      },
      "combatLock": {
        "lockShape": "CircleLockEnemy",
        "denyLockOn": true,
        "lockType": "Default"
      },
      "simulatePhysics": {
        "enable": true
      }
    },
    "combatTemplate": "",
    "abilities": [
      {
        "abilityID": "Avatar_Navia_ElementalArt_ShotGun_Bullet",
        "abilityName": "Avatar_Navia_ElementalArt_ShotGun_Bullet",
        "abilityOverride": ""
      }
    ],
    "timer": {
      "lifeTime": 4.0
    },
    "move": {
      "$type": "JGEFBHJPMOL"
    },
    "gadget": {
      "$type": "AKGCANNFFGI",
      "collision": {
        "ccd": {
          "damageRatio": "Always"
        },
        "triggerType": "TriggerNoRepeat",
        "targetType": "Enemy",
        "ignoreScene": true
      },
      "triggerActions": [
        {
          "$type": "AILPBJHDHDG",
          "abilityName": "Avatar_Navia_ElementalArt_ShotGun_Bullet"
        }
      ],
      "multiBulletConfig": {
        "$type": "OAKJCHGIBPC",
        "selectTargetDefaultType": "None",
        "rotationDampTime": "Eff_Avatar_Lady_Claymore_Navia_ShotGun_Bullet_01"
      }
    }
  },
  "Bullet_Navia_ElementArt_Shotgun_02": {
    "$type": "CJKJIENLOHD",
    "common": {
      "effectAttachShape": {
        "$type": "OMIODKONOMG"
      }
    },
    "combat": {
      "property": {
        "useCreatorProperty": true,
        "isInvincible": true,
        "isGhostToAllied": true,
        "isGhostToEnemy": true,
        "canTriggerBullet": false
      },
      "beHit": {
        "hitBloodEffect": "",
        "muteAllHit": true,
        "muteAllHitEffect": true,
        "muteAllHitText": true
      },
      "combatLock": {
        "lockShape": "CircleLockEnemy",
        "denyLockOn": true,
        "lockType": "Default"
      },
      "simulatePhysics": {
        "enable": true
      }
    },
    "combatTemplate": "",
    "abilities": [
      {
        "abilityID": "Avatar_Navia_ElementalArt_ShotGun_Bullet",
        "abilityName": "Avatar_Navia_ElementalArt_ShotGun_Bullet",
        "abilityOverride": ""
      }
    ],
    "timer": {
      "lifeTime": 4.0
    },
    "move": {
      "$type": "JGEFBHJPMOL"
    },
    "gadget": {
      "$type": "AKGCANNFFGI",
      "collision": {
        "ccd": {
          "damageRatio": "Always"
        },
        "triggerType": "TriggerNoRepeat",
        "targetType": "Enemy",
        "ignoreScene": true
      },
      "triggerActions": [
        {
          "$type": "AILPBJHDHDG",
          "abilityName": "Avatar_Navia_ElementalArt_ShotGun_Bullet"
        }
      ],
      "multiBulletConfig": {
        "$type": "OAKJCHGIBPC",
        "selectTargetDefaultType": "None",
        "rotationDampTime": "Eff_Avatar_Lady_Claymore_Navia_ShotGun_Bullet_02"
      }
    }
  },
  "Bullet_Navia_ElementArt_Shotgun_03": {
    "$type": "CJKJIENLOHD",
    "common": {
      "effectAttachShape": {
        "$type": "OMIODKONOMG"
      }
    },
    "combat": {
      "property": {
        "useCreatorProperty": true,
        "isInvincible": true,
        "isGhostToAllied": true,
        "isGhostToEnemy": true,
        "canTriggerBullet": false
      },
      "beHit": {
        "hitBloodEffect": "",
        "muteAllHit": true,
        "muteAllHitEffect": true,
        "muteAllHitText": true
      },
      "combatLock": {
        "lockShape": "CircleLockEnemy",
        "denyLockOn": true,
        "lockType": "Default"
      },
      "simulatePhysics": {
        "enable": true
      }
    },
    "combatTemplate": "",
    "abilities": [
      {
        "abilityID": "Avatar_Navia_ElementalArt_ShotGun_Bullet",
        "abilityName": "Avatar_Navia_ElementalArt_ShotGun_Bullet",
        "abilityOverride": ""
      }
    ],
    "timer": {
      "lifeTime": 4.0
    },
    "move": {
      "$type": "JGEFBHJPMOL"
    },
    "gadget": {
      "$type": "AKGCANNFFGI",
      "collision": {
        "ccd": {
          "damageRatio": "Always"
        },
        "triggerType": "TriggerNoRepeat",
        "targetType": "Enemy",
        "ignoreScene": true
      },
      "triggerActions": [
        {
          "$type": "AILPBJHDHDG",
          "abilityName": "Avatar_Navia_ElementalArt_ShotGun_Bullet"
        }
      ],
      "multiBulletConfig": {
        "$type": "OAKJCHGIBPC",
        "selectTargetDefaultType": "None",
        "rotationDampTime": "Eff_Avatar_Lady_Claymore_Navia_ShotGun_Bullet_03"
      }
    }
  },
  "Navia_Burst_Bullet_Upon": {
    "$type": "CJKJIENLOHD",
    "common": {
      "effectAttachShape": {
        "$type": "OMIODKONOMG",
        "scaleX": 0.5,
        "scaleY": 0.5
      },
      "affectedByWorld": true
    },
    "combat": {
      "property": {
        "useCreatorProperty": true,
        "isInvincible": true,
        "isGhostToAllied": true,
        "isGhostToEnemy": true,
        "canTriggerBullet": false
      },
      "beHit": {
        "hitBloodEffect": "",
        "muteAllHit": true,
        "muteAllHitEffect": true,
        "muteAllHitText": true
      },
      "combatLock": {
        "lockShape": "CircleLockEnemy",
        "denyLockOn": true,
        "lockType": "Default"
      }
    },
    "combatTemplate": "",
    "abilities": [
      {
        "abilityID": "Navia_Burst_Bullet_Upon",
        "abilityName": "Navia_Burst_Bullet_Upon",
        "abilityOverride": ""
      }
    ],
    "timer": {
      "lifeTime": 0.699999988079071
    },
    "move": {
      "$type": "GONNMCBKAOC",
      "velocityForce": {
        "muteAll": true
      },
      "speed": 35.0,
      "maxSpeed": 40.0,
      "acceleration": 30.0
    },
    "gadget": {
      "$type": "JENBBNKGGJP",
      "collision": {
        "triggerType": "TriggerNoRepeat",
        "targetType": "Enemy"
      },
      "triggerActions": [
        {
          "$type": "AILPBJHDHDG",
          "abilityName": "Navia_Burst_Bullet_Upon"
        }
      ],
      "fireAISoundEvent": true
    }
  },
  "Navia_Burst_Follow_Gadget": {
    "$type": "CJKJIENLOHD",
    "common": {
      "effectAttachShape": {
        "$type": "OMIODKONOMG"
      }
    },
    "combat": {
      "property": {
        "useCreatorProperty": true,
        "hp": 99999.0,
        "defense": 99999.0,
        "isInvincible": true,
        "isGhostToAllied": true,
        "isGhostToEnemy": true
      },
      "beHit": {
        "hitBloodEffect": "",
        "muteAllHit": true,
        "muteAllHitEffect": true,
        "muteAllHitText": true
      },
      "combatLock": {
        "lockShape": "CircleLockEnemy",
        "denyLockOn": true,
        "lockType": "Gadget_Lv1"
      }
    },
    "combatTemplate": "",
    "abilities": [
      {
        "abilityID": "Navia_Burst_Follow_Gadget",
        "abilityName": "Navia_Burst_Follow_Gadget",
        "abilityOverride": ""
      }
    ],
    "timer": {
      "lifeTime": 17.0
    },
    "move": {
      "$type": "MMAPEFIEGAL",
      "attachPoint": "RootNode",
      "LFOHLEKJFBI": ""
    }
  },
  "Navia_NormalAttack_3_Claymore": {
    "$type": "CJKJIENLOHD",
    "common": {
      "effectAttachShape": {
        "$type": "OMIODKONOMG"
      }
    },
    "combat": {
      "property": {
        "useCreatorProperty": true,
        "hp": 99999.0,
        "defense": 99999.0,
        "isInvincible": true,
        "isGhostToAllied": true,
        "isGhostToEnemy": true
      },
      "beHit": {
        "hitBloodEffect": "",
        "muteAllHit": true,
        "muteAllHitEffect": true,
        "muteAllHitText": true
      },
      "combatLock": {
        "lockShape": "CircleLockEnemy",
        "denyLockOn": true,
        "lockType": "Gadget_Lv1"
      }
    },
    "combatTemplate": "",
    "abilities": [
      {
        "abilityID": "Navia_NormalAttack_3_Claymore",
        "abilityName": "Navia_NormalAttack_3_Claymore",
        "abilityOverride": ""
      }
    ],
    "timer": {
      "lifeTime": 1.5
    }
  }
}
