{
  "Monster_Natsaurus_Mosasaurus_Normal_ShootAttackBullet": {
    "$type": "CJKJIENLOHD",
    "common": {
      "effectAttachShape": {
        "$type": "OMIODKONOMG",
        "scaleZ": 0.4000000059604645
      }
    },
    "combat": {
      "property": {
        "useCreatorProperty": true,
        "hp": 999999.0,
        "attack": 10.0,
        "defense": 999999.0,
        "isLockHP": true
      },
      "beHit": {
        "hitBloodEffect": "",
        "muteAllHit": true,
        "muteAllHitEffect": true,
        "muteAllHitText": true
      },
      "combatLock": {
        "lockShape": "CircleLockEnemy",
        "denyLockOn": true,
        "lockType": "Default"
      }
    },
    "combatTemplate": "",
    "abilities": [
      {
        "abilityID": "",
        "abilityName": "Monster_Natsaurus_Mosasaurus_Normal_ShootAttackBullet",
        "abilityOverride": ""
      }
    ],
    "timer": {
      "lifeTime": 5.0
    },
    "move": {
      "$type": "BFDBCCCADKH",
      "speed": 30.0,
      "DPAAFHNMHHN": {
        "$type": "IFAANDLLGLP"
      },
      "angleOffHor": 30.0,
      "gravityOfAcceleration": 15.0,
      "correction": {
        "$type": "FEHDIANJKBF",
        "deviation": 1.5,
        "fixAngleOfVer": 15.0,
        "minSpeed": 4.0,
        "maxSpeed": 24.0
      },
      "GEBCKKDCGDP": "",
      "NKPHOKHJKGC": ""
    },
    "gadget": {
      "$type": "JENBBNKGGJP",
      "collision": {
        "triggerType": "TriggerAlways",
        "targetType": "Enemy"
      },
      "triggerActions": [
        {
          "$type": "AILPBJHDHDG",
          "abilityName": "Monster_Natsaurus_Mosasaurus_Normal_ShootAttackBullet"
        }
      ],
      "killByOther": true
    }
  },
  "Monster_Natsaurus_Mosasaurus_Small_ShootAttackBullet": {
    "$type": "CJKJIENLOHD",
    "common": {
      "effectAttachShape": {
        "$type": "OMIODKONOMG",
        "scaleZ": 0.4000000059604645
      }
    },
    "combat": {
      "property": {
        "useCreatorProperty": true,
        "hp": 999999.0,
        "attack": 10.0,
        "defense": 999999.0,
        "isLockHP": true
      },
      "beHit": {
        "hitBloodEffect": "",
        "muteAllHit": true,
        "muteAllHitEffect": true,
        "muteAllHitText": true
      },
      "combatLock": {
        "lockShape": "CircleLockEnemy",
        "denyLockOn": true,
        "lockType": "Default"
      }
    },
    "combatTemplate": "",
    "abilities": [
      {
        "abilityID": "",
        "abilityName": "Monster_Natsaurus_Mosasaurus_Small_ShootAttackBullet",
        "abilityOverride": ""
      }
    ],
    "timer": {
      "lifeTime": 5.0
    },
    "move": {
      "$type": "BFDBCCCADKH",
      "speed": 30.0,
      "DPAAFHNMHHN": {
        "$type": "IFAANDLLGLP"
      },
      "angleOffHor": 30.0,
      "gravityOfAcceleration": 15.0,
      "correction": {
        "$type": "FEHDIANJKBF",
        "deviation": 1.5,
        "fixAngleOfVer": 15.0,
        "minSpeed": 4.0,
        "maxSpeed": 24.0
      },
      "GEBCKKDCGDP": "",
      "NKPHOKHJKGC": ""
    },
    "gadget": {
      "$type": "JENBBNKGGJP",
      "collision": {
        "triggerType": "TriggerAlways",
        "targetType": "Enemy"
      },
      "triggerActions": [
        {
          "$type": "AILPBJHDHDG",
          "abilityName": "Monster_Natsaurus_Mosasaurus_Small_ShootAttackBullet"
        }
      ],
      "killByOther": true
    }
  }
}
