{
  "Task_Trap": {
    "$type": "CJKJIENLOHD",
    "hasModel": true,
    "combat": {
      "property": {
        "hp": 999999.0,
        "attack": 100.0,
        "defense": 999999.0,
        "isLockHP": true
      },
      "beHit": {
        "hitBloodEffect": "",
        "muteAllHit": true,
        "muteAllHitEffect": true,
        "muteAllHitText": true
      }
    },
    "combatTemplate": "",
    "abilities": [
      {
        "abilityID": "SceneObj_Task_TrapHunter",
        "abilityName": "SceneObj_Task_TrapHunter",
        "abilityOverride": ""
      },
      {
        "abilityID": "Trap_Hunt_Attack",
        "abilityName": "Trap_Hunt_Attack",
        "abilityOverride": ""
      },
      {
        "abilityID": "Task_HuntTrap_GlobalValue",
        "abilityName": "Task_HuntTrap_GlobalValue",
        "abilityOverride": ""
      }
    ],
    "move": {
      "$type": "GONNMCBKAOC",
      "DPAAFHNMHHN": {
        "$type": "IFAANDLLGLP"
      }
    },
    "gadget": {
      "$type": "JENBBNKGGJP",
      "collision": {
        "triggerType": "TriggerAlways",
        "targetType": "Enemy"
      },
      "triggerActions": [
        {
          "$type": "AILPBJHDHDG",
          "abilityName": "Trap_Hunt_Attack"
        }
      ]
    }
  }
}
