[
  {
    "id": 1,
    "cityId": 1,
    "monsterIdList": [
      23030101,
      23040101
    ],
    "groupIdList": [
      133001229,
      133003412,
      133004217,
      133102520,
      133103376,
      133105009,
      133105223,
      133106094,
      133008640,
      133108039
    ],
    "unlockChapterIdList": [],
    "unlockWqParentQuestIdList": [],
    "wqAcceptHintTextMapHash": 474485041,
    "rewardPreviewId": 15503,
    "mapMarkCreateType": "NerverCreate",
    "mapMarkCreateCondition": {},
    "monsterCategory": "Elite",
    "nameTextMapHash": 2116056172,
    "icon": "UI_MonsterIcon_Fatuus_Summoner_01",
    "descTextMapHash": 2873961103,
    "lockDescTextMapHash": 1425803254,
    "occupiedQuestIdList": []
  },
  {
    "id": 2,
    "cityId": 1,
    "monsterIdList": [
      22010101,
      22010201,
      22010301
    ],
    "groupIdList": [
      133004369,
      133103031,
      133103326,
      133103327,
      133103331,
      133104441,
      133105113,
      133001430,
      133106234,
      133106084,
      133103342,
      133103424,
      133108027,
      133104260
    ],
    "unlockChapterIdList": [],
    "unlockWqParentQuestIdList": [],
    "wqAcceptHintTextMapHash": 1847382081,
    "rewardPreviewId": 15501,
    "mapMarkCreateType": "NerverCreate",
    "mapMarkCreateCondition": {},
    "monsterCategory": "Elite",
    "nameTextMapHash": 1211246492,
    "icon": "UI_MonsterIcon_Abyss_Water_01",
    "descTextMapHash": 3160129879,
    "lockDescTextMapHash": 371397750,
    "occupiedQuestIdList": []
  },
  {
    "id": 3,
    "cityId": 1,
    "monsterIdList": [
      24010101,
      24010301
    ],
    "groupIdList": [
      133003317,
      133004131,
      133104031,
      133105049,
      133106088,
      133220065,
      133220492,
      133007041,
      133104607
    ],
    "unlockChapterIdList": [],
    "unlockWqParentQuestIdList": [],
    "wqAcceptHintTextMapHash": 3358195073,
    "rewardPreviewId": 15504,
    "mapMarkCreateType": "NerverCreate",
    "mapMarkCreateCondition": {},
    "monsterCategory": "Elite",
    "nameTextMapHash": 7930300,
    "icon": "UI_MonsterIcon_Defender_Noner_01",
    "descTextMapHash": 3599879231,
    "lockDescTextMapHash": 4016562134,
    "occupiedQuestIdList": []
  },
  {
    "id": 4,
    "cityId": 1,
    "monsterIdList": [
      21020101,
      21020201,
      21020301,
      21020601,
      21020601
    ],
    "groupIdList": [
      133007239,
      133102337,
      133102619,
      133102729,
      133102734,
      133103328,
      133003097,
      133004018,
      133007201,
      133104363,
      133008209
    ],
    "unlockChapterIdList": [],
    "unlockWqParentQuestIdList": [],
    "wqAcceptHintTextMapHash": 2161128561,
    "rewardPreviewId": 15500,
    "mapMarkCreateType": "NerverCreate",
    "mapMarkCreateCondition": {},
    "monsterCategory": "Elite",
    "nameTextMapHash": 3562720660,
    "icon": "UI_MonsterIcon_Brute_None_01",
    "descTextMapHash": 2163980335,
    "lockDescTextMapHash": 914927254,
    "occupiedQuestIdList": []
  },
  {
    "id": 5,
    "cityId": 1,
    "monsterIdList": [
      23010101,
      23010201,
      23010301,
      23010401,
      23010501,
      23010601
    ],
    "groupIdList": [
      133001233,
      133001406,
      133002421,
      133102676,
      133106124,
      133106249,
      133107116
    ],
    "unlockChapterIdList": [],
    "unlockWqParentQuestIdList": [],
    "wqAcceptHintTextMapHash": 1313684513,
    "rewardPreviewId": 16007,
    "mapMarkCreateType": "NerverCreate",
    "mapMarkCreateCondition": {},
    "monsterCategory": "Common",
    "nameTextMapHash": 1740952220,
    "icon": "UI_MonsterIcon_Skirmisher_Male_Standard_Rifle_Fire_01",
    "descTextMapHash": 1364422791,
    "lockDescTextMapHash": 1462432238,
    "occupiedQuestIdList": []
  },
  {
    "id": 6,
    "cityId": 1,
    "monsterIdList": [
      20040101
    ],
    "groupIdList": [
      133001313
    ],
    "unlockChapterIdList": [],
    "unlockWqParentQuestIdList": [],
    "wqAcceptHintTextMapHash": 2791230489,
    "rewardPreviewId": 15100,
    "BAKDPCJEPMC": 40,
    "mapMarkCreateType": "ExtraConditions",
    "mapMarkCreateCondition": {
      "conditionType": "PlayerLevelGE",
      "conditionParam": 20
    },
    "monsterCategory": "Boss",
    "nameTextMapHash": 2296454212,
    "icon": "UI_MonsterIcon_Effigy_Electric",
    "descTextMapHash": 622146887,
    "lockDescTextMapHash": 4000482334,
    "occupiedQuestIdList": []
  },
  {
    "id": 7,
    "cityId": 1,
    "monsterIdList": [
      20040201
    ],
    "groupIdList": [
      133003482
    ],
    "unlockChapterIdList": [],
    "unlockWqParentQuestIdList": [],
    "wqAcceptHintTextMapHash": 2660363209,
    "rewardPreviewId": 15110,
    "BAKDPCJEPMC": 40,
    "mapMarkCreateType": "ExtraConditions",
    "mapMarkCreateCondition": {
      "conditionType": "PlayerLevelGE",
      "conditionParam": 20
    },
    "monsterCategory": "Boss",
    "nameTextMapHash": 3813394428,
    "icon": "UI_MonsterIcon_Effigy_Wind",
    "descTextMapHash": 1898332639,
    "lockDescTextMapHash": 1756062334,
    "occupiedQuestIdList": []
  },
  {
    "id": 8,
    "cityId": 1,
    "monsterIdList": [
      26020101
    ],
    "groupIdList": [
      133003543
    ],
    "unlockChapterIdList": [],
    "unlockWqParentQuestIdList": [],
    "wqAcceptHintTextMapHash": 1006015889,
    "rewardPreviewId": 15130,
    "BAKDPCJEPMC": 40,
    "mapMarkCreateType": "ExtraConditions",
    "mapMarkCreateCondition": {
      "conditionType": "PlayerLevelGE",
      "conditionParam": 20
    },
    "monsterCategory": "Boss",
    "nameTextMapHash": 525736108,
    "icon": "UI_MonsterIcon_Regisvine_Ice",
    "descTextMapHash": 894077983,
    "lockDescTextMapHash": 927437942,
    "occupiedQuestIdList": []
  },
  {
    "id": 9,
    "cityId": 1,
    "monsterIdList": [
      29020102
    ],
    "groupIdList": [
      133002259
    ],
    "unlockParentQuestId": 454,
    "unlockChapterIdList": [
      1001,
      1002,
      1003,
      2003,
      2005
    ],
    "unlockWqParentQuestIdList": [],
    "wqAcceptHintTextMapHash": 2382290441,
    "rewardPreviewId": 15010,
    "BAKDPCJEPMC": 60,
    "mapMarkCreateCondition": {},
    "monsterCategory": "Boss",
    "nameTextMapHash": 2324314052,
    "icon": "UI_MonsterIcon_LupiBoreas",
    "descTextMapHash": 2964908743,
    "lockDescTextMapHash": 1361566470,
    "occupiedQuestIdList": [
      800206,
      800207,
      800208,
      800209
    ]
  },
  {
    "id": 10,
    "cityId": 1,
    "monsterIdList": [
      23020101
    ],
    "groupIdList": [
      133104268,
      133105259,
      133106110,
      133106135,
      133106143,
      133106147,
      133008551,
      133108001
    ],
    "unlockChapterIdList": [],
    "unlockWqParentQuestIdList": [],
    "wqAcceptHintTextMapHash": 3453953129,
    "rewardPreviewId": 15502,
    "mapMarkCreateType": "NerverCreate",
    "mapMarkCreateCondition": {},
    "monsterCategory": "Elite",
    "nameTextMapHash": 1030983868,
    "icon": "UI_MonsterIcon_Fatuus_Fire_01",
    "descTextMapHash": 1163312791,
    "lockDescTextMapHash": 3576467670,
    "occupiedQuestIdList": []
  },
  {
    "id": 11,
    "cityId": 1,
    "monsterIdList": [
      24010201
    ],
    "groupIdList": [
      133103325,
      133105219,
      133106087,
      133106148,
      133106502,
      133220437
    ],
    "unlockChapterIdList": [],
    "unlockWqParentQuestIdList": [],
    "wqAcceptHintTextMapHash": 488316681,
    "rewardPreviewId": 15504,
    "mapMarkCreateType": "NerverCreate",
    "mapMarkCreateCondition": {},
    "monsterCategory": "Elite",
    "nameTextMapHash": 243568684,
    "icon": "UI_MonsterIcon_Formathr_None",
    "descTextMapHash": 3684190943,
    "lockDescTextMapHash": 973997142,
    "occupiedQuestIdList": []
  },
  {
    "id": 12,
    "cityId": 1,
    "monsterIdList": [
      26010101,
      26010201
    ],
    "groupIdList": [
      133002398,
      133102643,
      133104322,
      133104338,
      133105222,
      133107062,
      133104647,
      133001176
    ],
    "unlockChapterIdList": [],
    "unlockWqParentQuestIdList": [],
    "wqAcceptHintTextMapHash": 963828529,
    "rewardPreviewId": 16008,
    "mapMarkCreateType": "NerverCreate",
    "mapMarkCreateCondition": {},
    "monsterCategory": "Common",
    "nameTextMapHash": 562652100,
    "icon": "UI_MonsterIcon_Mimik_Ice",
    "descTextMapHash": 3558974463,
    "lockDescTextMapHash": 3262262566,
    "occupiedQuestIdList": []
  },
  {
    "id": 13,
    "cityId": 1,
    "monsterIdList": [
      20040301
    ],
    "groupIdList": [
      133108020
    ],
    "unlockChapterIdList": [],
    "unlockWqParentQuestIdList": [],
    "wqAcceptHintTextMapHash": 2998782569,
    "rewardPreviewId": 15120,
    "BAKDPCJEPMC": 40,
    "mapMarkCreateType": "ExtraConditions",
    "mapMarkCreateCondition": {
      "conditionType": "PlayerLevelGE",
      "conditionParam": 20
    },
    "monsterCategory": "Boss",
    "nameTextMapHash": 2498400124,
    "icon": "UI_MonsterIcon_Effigy_Rock",
    "descTextMapHash": 2273147727,
    "lockDescTextMapHash": 3627861054,
    "occupiedQuestIdList": []
  },
  {
    "id": 14,
    "cityId": 1,
    "monsterIdList": [
      20050101
    ],
    "groupIdList": [
      133102769
    ],
    "unlockChapterIdList": [],
    "unlockWqParentQuestIdList": [],
    "wqAcceptHintTextMapHash": 4017621113,
    "rewardPreviewId": 15150,
    "BAKDPCJEPMC": 40,
    "mapMarkCreateType": "ExtraConditions",
    "mapMarkCreateCondition": {
      "conditionType": "PlayerLevelGE",
      "conditionParam": 20
    },
    "monsterCategory": "Boss",
    "nameTextMapHash": 859677348,
    "icon": "UI_MonsterIcon_Oceanid",
    "descTextMapHash": 2848133519,
    "lockDescTextMapHash": 2573390758,
    "occupiedQuestIdList": []
  },
  {
    "id": 15,
    "cityId": 1,
    "monsterIdList": [
      26020201
    ],
    "groupIdList": [
      133104394
    ],
    "unlockChapterIdList": [],
    "unlockWqParentQuestIdList": [],
    "wqAcceptHintTextMapHash": 1547145569,
    "rewardPreviewId": 15140,
    "BAKDPCJEPMC": 40,
    "mapMarkCreateType": "ExtraConditions",
    "mapMarkCreateCondition": {
      "conditionType": "PlayerLevelGE",
      "conditionParam": 20
    },
    "monsterCategory": "Boss",
    "nameTextMapHash": 3427645324,
    "icon": "UI_MonsterIcon_Regisvine_Fire",
    "descTextMapHash": 3116937319,
    "lockDescTextMapHash": 1179122462,
    "occupiedQuestIdList": []
  },
  {
    "id": 16,
    "cityId": 1,
    "monsterIdList": [
      26030101
    ],
    "groupIdList": [
      133102504,
      133102056,
      133106215,
      133103542,
      133103541,
      133106305,
      133106306
    ],
    "unlockChapterIdList": [],
    "unlockWqParentQuestIdList": [],
    "wqAcceptHintTextMapHash": 3734043241,
    "rewardPreviewId": 15505,
    "mapMarkCreateType": "NerverCreate",
    "mapMarkCreateCondition": {},
    "monsterCategory": "Elite",
    "nameTextMapHash": 888016324,
    "icon": "UI_MonsterIcon_Wyrm_Rock",
    "descTextMapHash": 4137825743,
    "lockDescTextMapHash": 3126765454,
    "occupiedQuestIdList": []
  },
  {
    "id": 17,
    "cityId": 1,
    "monsterIdList": [
      21010401,
      21010501,
      21010901,
      21011001
    ],
    "groupIdList": [
      133004013,
      133004289,
      133007019,
      133007020,
      133007022,
      133007150,
      133007152,
      133007239,
      133101130,
      133101132,
      133103025,
      133103083,
      133103350,
      133106077,
      133106106,
      133106242,
      133106499,
      133106582,
      133107066,
      133108033
    ],
    "unlockChapterIdList": [],
    "unlockWqParentQuestIdList": [],
    "wqAcceptHintTextMapHash": 1711036305,
    "rewardPreviewId": 16005,
    "mapMarkCreateType": "NerverCreate",
    "mapMarkCreateCondition": {},
    "monsterCategory": "Common",
    "nameTextMapHash": 605593892,
    "icon": "UI_MonsterIcon_Hili_Electric_Range",
    "descTextMapHash": 4268108703,
    "lockDescTextMapHash": 598432798,
    "occupiedQuestIdList": []
  },
  {
    "id": 18,
    "cityId": 1,
    "monsterIdList": [
      21010101,
      21010201,
      21010301,
      21010601,
      21010701,
      21011201,
      21011301,
      21011401
    ],
    "groupIdList": [
      133001097,
      133001254,
      133002346,
      133102540,
      133102074,
      133105153,
      133105131,
      133105145,
      133106108,
      133108043,
      133107054,
      133002426,
      133008236,
      133105327
    ],
    "unlockChapterIdList": [],
    "unlockWqParentQuestIdList": [],
    "wqAcceptHintTextMapHash": 271573993,
    "rewardPreviewId": 16004,
    "mapMarkCreateType": "NerverCreate",
    "mapMarkCreateCondition": {},
    "monsterCategory": "Common",
    "nameTextMapHash": 1978754172,
    "icon": "UI_MonsterIcon_Hili_None_01",
    "descTextMapHash": 3867846519,
    "lockDescTextMapHash": 1600128438,
    "occupiedQuestIdList": []
  },
  {
    "id": 19,
    "cityId": 1,
    "monsterIdList": [
      21030101,
      21030201,
      21030301,
      21030401,
      21030501
    ],
    "groupIdList": [
      133002342,
      133004289,
      133007021,
      133007022,
      133007134,
      133007144,
      133007145,
      133007164,
      133007197,
      133007198,
      133007238,
      133008435
    ],
    "unlockChapterIdList": [],
    "unlockWqParentQuestIdList": [],
    "wqAcceptHintTextMapHash": 2076557481,
    "rewardPreviewId": 16006,
    "mapMarkCreateType": "NerverCreate",
    "mapMarkCreateCondition": {},
    "monsterCategory": "Common",
    "nameTextMapHash": 3793925636,
    "icon": "UI_MonsterIcon_Shaman_Wind_01",
    "descTextMapHash": 2152833887,
    "lockDescTextMapHash": 482563934,
    "occupiedQuestIdList": []
  },
  {
    "id": 20,
    "cityId": 1,
    "monsterIdList": [
      20010101,
      20010201,
      20010301,
      20010401,
      20010501,
      20010601,
      20010701,
      20010801,
      20010901,
      20011001,
      20011101,
      20011201,
      20011301,
      20011401,
      20011501
    ],
    "groupIdList": [
      133001358,
      133002323,
      133103344,
      133106643,
      133004195,
      133004246,
      133003308,
      133102502,
      133102669,
      133105266,
      133103382,
      133003326,
      133102670,
      133103421,
      133106216,
      133106242,
      133102741
    ],
    "unlockChapterIdList": [],
    "unlockWqParentQuestIdList": [],
    "wqAcceptHintTextMapHash": 3533964977,
    "rewardPreviewId": 16000,
    "mapMarkCreateType": "NerverCreate",
    "mapMarkCreateCondition": {},
    "monsterCategory": "Common",
    "nameTextMapHash": 3463468772,
    "icon": "UI_MonsterIcon_Slime_Water_03",
    "descTextMapHash": 2182239071,
    "lockDescTextMapHash": 3727808190,
    "occupiedQuestIdList": []
  },
  {
    "id": 21,
    "cityId": 1,
    "monsterIdList": [
      25010201,
      25010301,
      25010401,
      25010501,
      25010601,
      25010701,
      25020201,
      25030201,
      25030301,
      25060101,
      25070101
    ],
    "groupIdList": [
      133102652,
      133102672,
      133102721,
      133103349,
      133103383,
      133103384,
      133106223,
      133104552,
      133106044
    ],
    "unlockChapterIdList": [],
    "unlockWqParentQuestIdList": [],
    "wqAcceptHintTextMapHash": 4194505801,
    "rewardPreviewId": 16003,
    "mapMarkCreateType": "NerverCreate",
    "mapMarkCreateCondition": {},
    "monsterCategory": "Common",
    "nameTextMapHash": 1142558500,
    "icon": "UI_MonsterIcon_Thoarder_Male_Rogue_01",
    "descTextMapHash": 798059871,
    "lockDescTextMapHash": 2221217286,
    "occupiedQuestIdList": []
  },
  {
    "id": 22,
    "cityId": 1,
    "monsterIdList": [
      21020501,
      21020401
    ],
    "groupIdList": [
      133104304
    ],
    "unlockChapterIdList": [],
    "unlockWqParentQuestIdList": [],
    "wqAcceptHintTextMapHash": 526800897,
    "rewardPreviewId": 15506,
    "mapMarkCreateType": "NerverCreate",
    "mapMarkCreateCondition": {},
    "monsterCategory": "Elite",
    "nameTextMapHash": 1609885756,
    "icon": "UI_MonsterIcon_Brute_Rock_None",
    "descTextMapHash": 1276916615,
    "lockDescTextMapHash": 2099514902,
    "occupiedQuestIdList": []
  },
  {
    "id": 23,
    "cityId": 1,
    "monsterIdList": [
      26050101,
      26050201,
      26050301,
      26050401
    ],
    "groupIdList": [
      133103640
    ],
    "unlockChapterIdList": [],
    "unlockWqParentQuestIdList": [],
    "wqAcceptHintTextMapHash": 826310809,
    "rewardPreviewId": 15160,
    "BAKDPCJEPMC": 40,
    "mapMarkCreateType": "ExtraConditions",
    "mapMarkCreateCondition": {
      "conditionType": "PlayerLevelGE",
      "conditionParam": 20
    },
    "monsterCategory": "Boss",
    "nameTextMapHash": 3797091836,
    "icon": "UI_MonsterIcon_Drake_Primo_Rock",
    "descTextMapHash": 1184710679,
    "lockDescTextMapHash": 3121213006,
    "occupiedQuestIdList": []
  },
  {
    "id": 24,
    "cityId": 1,
    "monsterIdList": [
      26040101,
      26040102,
      26040103,
      26040104
    ],
    "groupIdList": [
      133101249,
      133101250,
      133103645,
      133103646,
      133103647,
      133103648,
      133103649,
      133104150
    ],
    "unlockChapterIdList": [],
    "unlockWqParentQuestIdList": [],
    "wqAcceptHintTextMapHash": 4190640001,
    "rewardPreviewId": 15509,
    "mapMarkCreateType": "NerverCreate",
    "mapMarkCreateCondition": {},
    "monsterCategory": "Elite",
    "nameTextMapHash": 3727063148,
    "icon": "UI_MonsterIcon_Drake_Rock",
    "descTextMapHash": 10157591,
    "lockDescTextMapHash": 889747054,
    "occupiedQuestIdList": []
  },
  {
    "id": 25,
    "cityId": 1,
    "monsterIdList": [
      20040501
    ],
    "groupIdList": [
      133008657
    ],
    "unlockParentQuestId": 396,
    "unlockChapterIdList": [
      1001,
      1002,
      1003
    ],
    "unlockWqParentQuestIdList": [
      70141
    ],
    "wqAcceptHintTextMapHash": 303692577,
    "rewardPreviewId": 15170,
    "BAKDPCJEPMC": 40,
    "mapMarkCreateCondition": {},
    "monsterCategory": "Boss",
    "nameTextMapHash": 2071681052,
    "icon": "UI_MonsterIcon_Effigy_Ice",
    "descTextMapHash": 3070647783,
    "lockDescTextMapHash": 3493708718,
    "occupiedQuestIdList": []
  },
  {
    "id": 26,
    "cityId": 1,
    "monsterIdList": [
      25090101
    ],
    "groupIdList": [
      133212378
    ],
    "unlockChapterIdList": [],
    "unlockWqParentQuestIdList": [],
    "wqAcceptHintTextMapHash": 750036065,
    "rewardPreviewId": 15171,
    "BAKDPCJEPMC": 40,
    "mapMarkCreateType": "ExtraConditions",
    "mapMarkCreateCondition": {
      "conditionType": "PlayerLevelGE",
      "conditionParam": 30
    },
    "monsterCategory": "Boss",
    "nameTextMapHash": 2151581004,
    "icon": "UI_MonsterIcon_Samurai_Ningyo",
    "descTextMapHash": 2280343023,
    "lockDescTextMapHash": 2908620662,
    "occupiedQuestIdList": []
  },
  {
    "id": 27,
    "cityId": 1,
    "monsterIdList": [
      20040601
    ],
    "groupIdList": [
      133213187
    ],
    "unlockChapterIdList": [],
    "unlockWqParentQuestIdList": [],
    "wqAcceptHintTextMapHash": 555675129,
    "rewardPreviewId": 15173,
    "BAKDPCJEPMC": 40,
    "mapMarkCreateType": "ExtraConditions",
    "mapMarkCreateCondition": {
      "conditionType": "PlayerLevelGE",
      "conditionParam": 30
    },
    "monsterCategory": "Boss",
    "nameTextMapHash": 832422796,
    "icon": "UI_MonsterIcon_Effigy_Fire",
    "descTextMapHash": 3259488015,
    "lockDescTextMapHash": 3865151206,
    "occupiedQuestIdList": []
  },
  {
    "id": 28,
    "cityId": 1,
    "monsterIdList": [
      24021101
    ],
    "groupIdList": [
      133220037
    ],
    "unlockChapterIdList": [],
    "unlockWqParentQuestIdList": [],
    "wqAcceptHintTextMapHash": 1950557337,
    "rewardPreviewId": 15172,
    "BAKDPCJEPMC": 40,
    "mapMarkCreateType": "ExtraConditions",
    "mapMarkCreateCondition": {
      "conditionType": "PlayerLevelGE",
      "conditionParam": 30
    },
    "monsterCategory": "Boss",
    "nameTextMapHash": 1727977044,
    "icon": "UI_MonsterIcon_Apparatus_Perpetual",
    "descTextMapHash": 2186659455,
    "lockDescTextMapHash": 4118988294,
    "occupiedQuestIdList": []
  },
  {
    "id": 29,
    "cityId": 1,
    "monsterIdList": [
      25080101,
      25080201,
      25080301,
      25100101,
      25100201
    ],
    "groupIdList": [
      133220657,
      133212313,
      133212522,
      133217214,
      133217218,
      133220593,
      133210008,
      133210132,
      133220514,
      133220361
    ],
    "unlockChapterIdList": [],
    "unlockWqParentQuestIdList": [],
    "wqAcceptHintTextMapHash": 1528499009,
    "rewardPreviewId": 16009,
    "mapMarkCreateType": "NerverCreate",
    "mapMarkCreateCondition": {},
    "monsterCategory": "Common",
    "nameTextMapHash": 1355468644,
    "icon": "UI_MonsterIcon_Samurai_Kairagi_02",
    "descTextMapHash": 1998355319,
    "lockDescTextMapHash": 3335300718,
    "occupiedQuestIdList": []
  },
  {
    "id": 30,
    "cityId": 1,
    "monsterIdList": [
      23050101
    ],
    "groupIdList": [
      133220497,
      133220549,
      133220281,
      133212388,
      133210036,
      133210062,
      133210117,
      133210315
    ],
    "unlockChapterIdList": [],
    "unlockWqParentQuestIdList": [],
    "wqAcceptHintTextMapHash": 3958413873,
    "rewardPreviewId": 15511,
    "mapMarkCreateType": "NerverCreate",
    "mapMarkCreateCondition": {},
    "monsterCategory": "Elite",
    "nameTextMapHash": 1113337244,
    "icon": "UI_MonsterIcon_Fatuus_Maiden_Water",
    "descTextMapHash": 117139007,
    "lockDescTextMapHash": 155840950,
    "occupiedQuestIdList": []
  },
  {
    "id": 31,
    "cityId": 1,
    "monsterIdList": [
      24020101,
      24020201,
      24020301,
      24020401
    ],
    "groupIdList": [
      133220660,
      133212269,
      133210169,
      133210256,
      133210258,
      133210259
    ],
    "unlockChapterIdList": [],
    "unlockWqParentQuestIdList": [],
    "wqAcceptHintTextMapHash": 360757921,
    "rewardPreviewId": 15510,
    "mapMarkCreateType": "NerverCreate",
    "mapMarkCreateCondition": {},
    "monsterCategory": "Elite",
    "nameTextMapHash": 3635803396,
    "icon": "UI_MonsterIcon_Apparatus_Enigma_BionicInsecta",
    "descTextMapHash": 1002475759,
    "lockDescTextMapHash": 2752709702,
    "occupiedQuestIdList": []
  },
  {
    "id": 32,
    "cityId": 1,
    "monsterIdList": [
      20040401
    ],
    "groupIdList": [
      133210237
    ],
    "unlockChapterIdList": [],
    "unlockWqParentQuestIdList": [],
    "wqAcceptHintTextMapHash": 3599820625,
    "rewardPreviewId": 15174,
    "BAKDPCJEPMC": 40,
    "mapMarkCreateType": "ExtraConditions",
    "mapMarkCreateCondition": {
      "conditionType": "PlayerLevelGE",
      "conditionParam": 30
    },
    "monsterCategory": "Boss",
    "nameTextMapHash": 2882330044,
    "icon": "UI_MonsterIcon_Effigy_Water",
    "descTextMapHash": 2592202711,
    "lockDescTextMapHash": 837744126,
    "occupiedQuestIdList": []
  },
  {
    "id": 33,
    "cityId": 1,
    "monsterIdList": [
      20070101
    ],
    "groupIdList": [
      133222181
    ],
    "unlockParentQuestId": 18000,
    "unlockChapterIdList": [
      1001,
      1002,
      1003,
      1101,
      1102,
      1103,
      1104,
      1105,
      1201
    ],
    "unlockWqParentQuestIdList": [
      2011,
      2012,
      2013,
      72155,
      72156,
      72157,
      72158
    ],
    "wqAcceptHintTextMapHash": 4035183641,
    "rewardPreviewId": 15175,
    "BAKDPCJEPMC": 40,
    "mapMarkCreateCondition": {
      "conditionType": "PlayerLevelGE",
      "conditionParam": 30
    },
    "monsterCategory": "Boss",
    "nameTextMapHash": 3574516420,
    "icon": "UI_MonsterIcon_Raijin",
    "descTextMapHash": 515157471,
    "lockDescTextMapHash": 2015445734,
    "occupiedQuestIdList": []
  },
  {
    "id": 34,
    "cityId": 1,
    "monsterIdList": [
      20060101,
      20060201,
      20060301,
      20060701
    ],
    "groupIdList": [
      133210023,
      133210064,
      133210090,
      133210091,
      133210178,
      133210255,
      133217207,
      133222127,
      133222129
    ],
    "unlockChapterIdList": [],
    "unlockWqParentQuestIdList": [],
    "wqAcceptHintTextMapHash": 1477881953,
    "rewardPreviewId": 16011,
    "BAKDPCJEPMC": 40,
    "mapMarkCreateType": "NerverCreate",
    "mapMarkCreateCondition": {},
    "monsterCategory": "Common",
    "nameTextMapHash": 3232038316,
    "icon": "UI_MonsterIcon_Sylph_Wind_01",
    "descTextMapHash": 374028479,
    "lockDescTextMapHash": 3493916862,
    "occupiedQuestIdList": []
  },
  {
    "id": 35,
    "cityId": 1,
    "monsterIdList": [
      22050101,
      22050201,
      22040101,
      22040201
    ],
    "groupIdList": [
      133225105,
      133223055,
      133223488,
      133225230,
      133225214,
      133225213,
      133225178,
      133225210
    ],
    "unlockChapterIdList": [],
    "unlockWqParentQuestIdList": [],
    "wqAcceptHintTextMapHash": 2042236209,
    "rewardPreviewId": 15513,
    "mapMarkCreateType": "NerverCreate",
    "mapMarkCreateCondition": {},
    "monsterCategory": "Elite",
    "nameTextMapHash": 614784292,
    "icon": "UI_MonsterIcon_Hound_Riftstalker_Rock",
    "descTextMapHash": 3856405135,
    "lockDescTextMapHash": 3323643558,
    "occupiedQuestIdList": []
  },
  {
    "id": 36,
    "cityId": 1,
    "monsterIdList": [
      22060101
    ],
    "groupIdList": [
      133225275
    ],
    "unlockChapterIdList": [],
    "unlockWqParentQuestIdList": [],
    "wqAcceptHintTextMapHash": 3348264737,
    "rewardPreviewId": 15176,
    "BAKDPCJEPMC": 40,
    "mapMarkCreateType": "ExtraConditions",
    "mapMarkCreateCondition": {
      "conditionType": "PlayerLevelGE",
      "conditionParam": 30
    },
    "monsterCategory": "Boss",
    "nameTextMapHash": 4062848028,
    "icon": "UI_MonsterIcon_Hound_Planelurker",
    "descTextMapHash": 3762017839,
    "lockDescTextMapHash": 306795822,
    "occupiedQuestIdList": []
  },
  {
    "id": 37,
    "cityId": 1,
    "monsterIdList": [
      26050701
    ],
    "groupIdList": [
      155005095
    ],
    "unlockParentQuestId": 18000,
    "unlockChapterIdList": [
      1001,
      1002,
      1003,
      1101,
      1102,
      1103,
      1104,
      1105
    ],
    "unlockWqParentQuestIdList": [
      72145,
      72146,
      72147,
      72148,
      72149,
      72233,
      72242,
      72177
    ],
    "wqAcceptHintTextMapHash": 3032726961,
    "rewardPreviewId": 15177,
    "BAKDPCJEPMC": 40,
    "mapMarkCreateType": "ExtraConditions",
    "mapMarkCreateCondition": {
      "conditionType": "PlayerLevelGE",
      "conditionParam": 30
    },
    "monsterCategory": "Boss",
    "nameTextMapHash": 2546599012,
    "icon": "UI_MonsterIcon_Drake_Deepsea_TwinBossFight",
    "descTextMapHash": 4107313847,
    "lockDescTextMapHash": 1217983390,
    "occupiedQuestIdList": []
  },
  {
    "id": 38,
    "cityId": 1,
    "monsterIdList": [
      26050601,
      26050901,
      26051001,
      26051101
    ],
    "groupIdList": [
      155005321,
      155007108,
      155007107,
      155007094
    ],
    "unlockChapterIdList": [],
    "unlockWqParentQuestIdList": [],
    "wqAcceptHintTextMapHash": 3588167401,
    "rewardPreviewId": 15509,
    "mapMarkCreateType": "NerverCreate",
    "mapMarkCreateCondition": {},
    "monsterCategory": "Elite",
    "nameTextMapHash": 2468058460,
    "icon": "UI_MonsterIcon_Drake_Deepsea_Water",
    "descTextMapHash": 247811999,
    "lockDescTextMapHash": 1841625726,
    "occupiedQuestIdList": []
  },
  {
    "id": 39,
    "cityId": 1,
    "monsterIdList": [
      24010401
    ],
    "groupIdList": [
      166001287
    ],
    "unlockParentQuestId": 1025,
    "unlockChapterIdList": [
      1001,
      1002,
      1003,
      1101,
      1102,
      1103
    ],
    "unlockWqParentQuestIdList": [
      71044
    ],
    "wqAcceptHintTextMapHash": 1188870225,
    "rewardPreviewId": 15178,
    "BAKDPCJEPMC": 40,
    "mapMarkCreateType": "ExtraConditions",
    "mapMarkCreateCondition": {
      "conditionType": "PlayerLevelGE",
      "conditionParam": 28
    },
    "monsterCategory": "Boss",
    "nameTextMapHash": 1493560740,
    "icon": "UI_MonsterIcon_Nithhoggr_None",
    "descTextMapHash": 813509223,
    "lockDescTextMapHash": 2925273550,
    "occupiedQuestIdList": []
  },
  {
    "id": 40,
    "cityId": 1,
    "monsterIdList": [
      22070101,
      22070102,
      22070201,
      22070202,
      22070301,
      22070302
    ],
    "groupIdList": [
      166001112,
      166001114,
      166001115,
      166001116,
      166001118,
      166001119
    ],
    "unlockChapterIdList": [],
    "unlockWqParentQuestIdList": [],
    "wqAcceptHintTextMapHash": 1937983185,
    "rewardPreviewId": 15515,
    "mapMarkCreateType": "NerverCreate",
    "mapMarkCreateCondition": {},
    "monsterCategory": "Elite",
    "nameTextMapHash": 4082729428,
    "icon": "UI_MonsterIcon_ForlornVessel_Strong_Warbanner_Fire",
    "descTextMapHash": 687048607,
    "lockDescTextMapHash": 347213606,
    "occupiedQuestIdList": []
  },
  {
    "id": 41,
    "cityId": 1,
    "monsterIdList": [
      26020301
    ],
    "groupIdList": [
      133315043
    ],
    "unlockChapterIdList": [],
    "unlockWqParentQuestIdList": [],
    "wqAcceptHintTextMapHash": 1498736137,
    "rewardPreviewId": 15180,
    "BAKDPCJEPMC": 40,
    "mapMarkCreateType": "ExtraConditions",
    "mapMarkCreateCondition": {
      "conditionType": "PlayerLevelGE",
      "conditionParam": 20
    },
    "monsterCategory": "Boss",
    "nameTextMapHash": 1519505956,
    "icon": "UI_MonsterIcon_Regisvine_Electric",
    "descTextMapHash": 2302915527,
    "lockDescTextMapHash": 3530499686,
    "occupiedQuestIdList": []
  },
  {
    "id": 42,
    "cityId": 1,
    "monsterIdList": [
      26110101
    ],
    "groupIdList": [
      133301272
    ],
    "unlockChapterIdList": [],
    "unlockWqParentQuestIdList": [],
    "wqAcceptHintTextMapHash": 724324257,
    "rewardPreviewId": 15179,
    "BAKDPCJEPMC": 40,
    "mapMarkCreateType": "ExtraConditions",
    "mapMarkCreateCondition": {
      "conditionType": "PlayerLevelGE",
      "conditionParam": 20
    },
    "monsterCategory": "Boss",
    "nameTextMapHash": 1939319708,
    "icon": "UI_MonsterIcon_Fungus_Raptor",
    "descTextMapHash": 1324083599,
    "lockDescTextMapHash": 1805149974,
    "occupiedQuestIdList": []
  },
  {
    "id": 43,
    "cityId": 1,
    "monsterIdList": [
      24030101,
      24030201
    ],
    "groupIdList": [
      133302494,
      133315160,
      133304240,
      133304241,
      133304014,
      133304242,
      133303528,
      133301553,
      133301328,
      133301493
    ],
    "unlockChapterIdList": [],
    "unlockWqParentQuestIdList": [],
    "wqAcceptHintTextMapHash": 157505705,
    "rewardPreviewId": 15518,
    "mapMarkCreateType": "NerverCreate",
    "mapMarkCreateCondition": {},
    "monsterCategory": "Elite",
    "nameTextMapHash": 2653939388,
    "icon": "UI_MonsterIcon_Gargoyle",
    "descTextMapHash": 2346128543,
    "lockDescTextMapHash": 1103490398,
    "occupiedQuestIdList": []
  },
  {
    "id": 44,
    "cityId": 1,
    "monsterIdList": [
      25210101,
      25210102,
      25210103,
      25210201,
      25210202,
      25210203,
      25210301,
      25210302,
      25210303,
      25210401,
      25210402,
      25210403,
      25210501,
      25210502,
      25210503,
      25310101,
      25310201,
      25310301
    ],
    "groupIdList": [
      133302054,
      133302182,
      133304295,
      133303108,
      133303109,
      133303146,
      133301478,
      133301014,
      133301385,
      133301413
    ],
    "unlockChapterIdList": [],
    "unlockWqParentQuestIdList": [],
    "wqAcceptHintTextMapHash": 1665444433,
    "rewardPreviewId": 16014,
    "mapMarkCreateType": "NerverCreate",
    "mapMarkCreateCondition": {},
    "monsterCategory": "Common",
    "nameTextMapHash": 1906390052,
    "icon": "UI_MonsterIcon_Eremite_Male_Standard_Glaive",
    "descTextMapHash": 668317647,
    "lockDescTextMapHash": 2566205262,
    "occupiedQuestIdList": []
  },
  {
    "id": 45,
    "cityId": 1,
    "monsterIdList": [
      26090201,
      26090401,
      26090501,
      26090701,
      26090801,
      26090901,
      26120101,
      26120201,
      26120301
    ],
    "groupIdList": [
      133302462,
      133315055,
      133302485,
      133315118,
      133303208,
      133303398,
      133303096,
      133304024,
      133304362,
      133304443,
      133301538,
      133301552
    ],
    "unlockChapterIdList": [],
    "unlockWqParentQuestIdList": [],
    "wqAcceptHintTextMapHash": 514961929,
    "rewardPreviewId": 15516,
    "mapMarkCreateType": "NerverCreate",
    "mapMarkCreateCondition": {},
    "monsterCategory": "Common",
    "nameTextMapHash": 506268972,
    "icon": "UI_MonsterIcon_Fungus_Un_Gamma_Water",
    "descTextMapHash": 423506559,
    "lockDescTextMapHash": 2135060918,
    "occupiedQuestIdList": []
  },
  {
    "id": 46,
    "cityId": 1,
    "monsterIdList": [
      24030301
    ],
    "groupIdList": [
      133304253
    ],
    "unlockChapterIdList": [],
    "unlockWqParentQuestIdList": [],
    "wqAcceptHintTextMapHash": 628968785,
    "rewardPreviewId": 15181,
    "BAKDPCJEPMC": 40,
    "mapMarkCreateType": "ExtraConditions",
    "mapMarkCreateCondition": {
      "conditionType": "PlayerLevelGE",
      "conditionParam": 20
    },
    "monsterCategory": "Boss",
    "nameTextMapHash": 3554162420,
    "icon": "UI_MonsterIcon_Gargoyle_Fafnir",
    "descTextMapHash": 669137191,
    "lockDescTextMapHash": 1076478350,
    "occupiedQuestIdList": []
  },
  {
    "id": 47,
    "cityId": 1,
    "monsterIdList": [
      24050101
    ],
    "groupIdList": [
      133309053
    ],
    "unlockChapterIdList": [],
    "unlockWqParentQuestIdList": [],
    "wqAcceptHintTextMapHash": 1785603489,
    "rewardPreviewId": 15182,
    "BAKDPCJEPMC": 40,
    "mapMarkCreateType": "ExtraConditions",
    "mapMarkCreateCondition": {
      "conditionType": "PlayerLevelGE",
      "conditionParam": 20
    },
    "monsterCategory": "Boss",
    "nameTextMapHash": 1979409620,
    "icon": "UI_MonsterIcon_Monolith_Starchild",
    "descTextMapHash": 1249383527,
    "lockDescTextMapHash": 121041574,
    "occupiedQuestIdList": []
  },
  {
    "id": 48,
    "cityId": 1,
    "monsterIdList": [
      24040101,
      24040201,
      24040301
    ],
    "groupIdList": [
      133309050,
      133309440,
      133310047,
      133309424,
      133308037,
      133309315,
      133309591,
      133307085,
      133310297,
      133310329
    ],
    "unlockChapterIdList": [],
    "unlockWqParentQuestIdList": [],
    "wqAcceptHintTextMapHash": 725025041,
    "rewardPreviewId": 15519,
    "mapMarkCreateType": "NerverCreate",
    "mapMarkCreateCondition": {},
    "monsterCategory": "Elite",
    "nameTextMapHash": 1853899828,
    "icon": "UI_MonsterIcon_Monolith_Ordinator",
    "descTextMapHash": 3142204727,
    "lockDescTextMapHash": 2345564286,
    "occupiedQuestIdList": []
  },
  {
    "id": 49,
    "cityId": 1,
    "monsterIdList": [
      20040701
    ],
    "groupIdList": [
      133305051
    ],
    "unlockChapterIdList": [],
    "unlockWqParentQuestIdList": [],
    "wqAcceptHintTextMapHash": 2173582761,
    "rewardPreviewId": 15183,
    "BAKDPCJEPMC": 40,
    "mapMarkCreateType": "ExtraConditions",
    "mapMarkCreateCondition": {
      "conditionType": "PlayerLevelGE",
      "conditionParam": 20
    },
    "monsterCategory": "Boss",
    "nameTextMapHash": 3093228236,
    "icon": "UI_MonsterIcon_Effigy_Grass",
    "descTextMapHash": 473918847,
    "lockDescTextMapHash": 789620134,
    "occupiedQuestIdList": []
  },
  {
    "id": 50,
    "cityId": 1,
    "monsterIdList": [
      26130101
    ],
    "groupIdList": [
      133314016
    ],
    "unlockChapterIdList": [],
    "unlockWqParentQuestIdList": [],
    "wqAcceptHintTextMapHash": 1017620017,
    "rewardPreviewId": 15184,
    "BAKDPCJEPMC": 40,
    "mapMarkCreateType": "ExtraConditions",
    "mapMarkCreateCondition": {
      "conditionType": "PlayerLevelGE",
      "conditionParam": 20
    },
    "monsterCategory": "Boss",
    "nameTextMapHash": 1557360244,
    "icon": "UI_MonsterIcon_Sandworm",
    "descTextMapHash": 4003938663,
    "lockDescTextMapHash": 2268305878,
    "occupiedQuestIdList": []
  },
  {
    "id": 51,
    "cityId": 1,
    "monsterIdList": [
      26100301,
      26100401,
      26100501
    ],
    "groupIdList": [
      133314277,
      133314556,
      133313503,
      133308745,
      133314176,
      133313374
    ],
    "unlockChapterIdList": [],
    "unlockWqParentQuestIdList": [],
    "wqAcceptHintTextMapHash": 221156657,
    "rewardPreviewId": 15520,
    "mapMarkCreateType": "NerverCreate",
    "mapMarkCreateCondition": {},
    "monsterCategory": "Elite",
    "nameTextMapHash": 2046904764,
    "icon": "UI_MonsterIcon_Vulture_Sacred_Fire",
    "descTextMapHash": 1324581999,
    "lockDescTextMapHash": 1646248790,
    "occupiedQuestIdList": []
  },
  {
    "id": 52,
    "cityId": 1,
    "monsterIdList": [
      21040101,
      21040201
    ],
    "groupIdList": [
      133316274,
      133316214,
      133316143,
      133316139,
      133316051,
      133316006,
      133316273,
      133316034,
      133316003,
      133316152
    ],
    "unlockChapterIdList": [],
    "unlockWqParentQuestIdList": [],
    "wqAcceptHintTextMapHash": 1209134089,
    "rewardPreviewId": 15521,
    "mapMarkCreateType": "NerverCreate",
    "mapMarkCreateCondition": {},
    "monsterCategory": "Elite",
    "nameTextMapHash": 12757692,
    "icon": "UI_MonsterIcon_Hilistray_Wind",
    "descTextMapHash": 4124504655,
    "lockDescTextMapHash": 2963261838,
    "occupiedQuestIdList": []
  },
  {
    "id": 53,
    "cityId": 1,
    "monsterIdList": [
      22100101,
      22100201,
      22100301,
      22100401
    ],
    "groupIdList": [
      133316134
    ],
    "unlockChapterIdList": [],
    "unlockWqParentQuestIdList": [],
    "wqAcceptHintTextMapHash": 1789358545,
    "rewardPreviewId": 15185,
    "BAKDPCJEPMC": 40,
    "mapMarkCreateType": "ExtraConditions",
    "mapMarkCreateCondition": {
      "conditionType": "PlayerLevelGE",
      "conditionParam": 20
    },
    "monsterCategory": "Boss",
    "nameTextMapHash": 3262865284,
    "icon": "UI_MonsterIcon_Invoker_Archdeacon",
    "descTextMapHash": 2649913591,
    "lockDescTextMapHash": 3761757982,
    "occupiedQuestIdList": []
  },
  {
    "id": 54,
    "cityId": 1,
    "monsterIdList": [
      24060101,
      24060102,
      24065101,
      24065102,
      24060201,
      24060202,
      24065201,
      24065202,
      24060301,
      24060302,
      24065301,
      24065302,
      24060401,
      24060402,
      24065401,
      24065402,
      24060501,
      24060502,
      24065501,
      24065502,
      24060701,
      24060702,
      24065701,
      24065702,
      24060801,
      24060802,
      24065801,
      24065802,
      24060901,
      24060902,
      24065901,
      24065902,
      24061001,
      24061002,
      24066001,
      24066002,
      24061101,
      24061102,
      24066101,
      24066102,
      24061105,
      24061106,
      24066105,
      24066106,
      24061201,
      24061202,
      24066201,
      24066202
    ],
    "groupIdList": [
      133403003,
      133403218,
      133403196,
      133403198,
      133403195,
      133401484,
      133403014,
      133401132
    ],
    "unlockChapterIdList": [],
    "unlockWqParentQuestIdList": [],
    "wqAcceptHintTextMapHash": 1409703913,
    "rewardPreviewId": 16019,
    "mapMarkCreateType": "NerverCreate",
    "mapMarkCreateCondition": {},
    "monsterCategory": "Common",
    "nameTextMapHash": 2468162060,
    "icon": "UI_MonsterIcon_MachinaIustitia_Ruggiero_01",
    "descTextMapHash": 3023100615,
    "lockDescTextMapHash": 3682271070,
    "occupiedQuestIdList": []
  },
  {
    "id": 55,
    "cityId": 1,
    "monsterIdList": [
      26151001,
      26151002,
      26151101,
      26151102,
      26152101,
      26152102,
      26152201,
      26152202,
      26153101,
      26153102,
      26154101,
      26154201,
      26154102,
      26154202,
      26155101,
      26155201,
      26155301,
      26156101,
      26156201,
      26157101,
      26157201,
      26160101,
      26160102,
      26160201,
      26160202,
      26160301,
      26160302
    ],
    "groupIdList": [
      133402016,
      133401663,
      133403177,
      133403492,
      133401724,
      133402174,
      133402412,
      133401098,
      133401142,
      133401182,
      133402148
    ],
    "unlockChapterIdList": [],
    "unlockWqParentQuestIdList": [],
    "wqAcceptHintTextMapHash": 3935035729,
    "rewardPreviewId": 16017,
    "mapMarkCreateType": "NerverCreate",
    "mapMarkCreateCondition": {},
    "monsterCategory": "Common",
    "nameTextMapHash": 2077793580,
    "icon": "UI_MonsterIcon_HermitCrab_Larva_01",
    "descTextMapHash": 3240260487,
    "lockDescTextMapHash": 2665821030,
    "occupiedQuestIdList": []
  },
  {
    "id": 56,
    "cityId": 1,
    "monsterIdList": [
      20051001,
      20051101
    ],
    "groupIdList": [
      133401042,
      133401548,
      133403106,
      133403397,
      133405014,
      133405055
    ],
    "unlockChapterIdList": [],
    "unlockWqParentQuestIdList": [],
    "wqAcceptHintTextMapHash": 523396009,
    "rewardPreviewId": 15522,
    "mapMarkCreateType": "NerverCreate",
    "mapMarkCreateCondition": {},
    "monsterCategory": "Elite",
    "nameTextMapHash": 1640861332,
    "icon": "UI_MonsterIcon_Necalevia_Normal",
    "descTextMapHash": 2622682463,
    "lockDescTextMapHash": 3207200062,
    "occupiedQuestIdList": []
  },
  {
    "id": 57,
    "cityId": 1,
    "monsterIdList": [
      22110101,
      22110201,
      22110301,
      22110402
    ],
    "groupIdList": [
      133403513,
      133403683,
      133403758,
      133403760
    ],
    "unlockChapterIdList": [],
    "unlockWqParentQuestIdList": [],
    "wqAcceptHintTextMapHash": 866006585,
    "rewardPreviewId": 15524,
    "mapMarkCreateType": "NerverCreate",
    "mapMarkCreateCondition": {},
    "monsterCategory": "Elite",
    "nameTextMapHash": 3528525012,
    "icon": "UI_MonsterIcon_Ovacua_Order_01",
    "descTextMapHash": 579999,
    "lockDescTextMapHash": 1859514470,
    "occupiedQuestIdList": []
  },
  {
    "id": 58,
    "cityId": 1,
    "monsterIdList": [
      24070101,
      24070102,
      24070201,
      24070202
    ],
    "groupIdList": [
      133402002
    ],
    "unlockChapterIdList": [],
    "unlockWqParentQuestIdList": [],
    "wqAcceptHintTextMapHash": 574238153,
    "rewardPreviewId": 15190,
    "BAKDPCJEPMC": 40,
    "mapMarkCreateType": "ExtraConditions",
    "mapMarkCreateCondition": {
      "conditionType": "PlayerLevelGE",
      "conditionParam": 20
    },
    "monsterCategory": "Boss",
    "nameTextMapHash": 1516751516,
    "icon": "UI_MonsterIcon_MachinaIustitia_Nutcracker",
    "descTextMapHash": 3113772791,
    "lockDescTextMapHash": 1798408430,
    "occupiedQuestIdList": []
  },
  {
    "id": 59,
    "cityId": 1,
    "monsterIdList": [
      26170101
    ],
    "groupIdList": [
      133403186
    ],
    "unlockChapterIdList": [],
    "unlockWqParentQuestIdList": [],
    "wqAcceptHintTextMapHash": 1468197425,
    "rewardPreviewId": 15193,
    "BAKDPCJEPMC": 40,
    "mapMarkCreateType": "ExtraConditions",
    "mapMarkCreateCondition": {
      "conditionType": "PlayerLevelGE",
      "conditionParam": 20
    },
    "monsterCategory": "Boss",
    "nameTextMapHash": 3738069748,
    "icon": "UI_MonsterIcon_HermitCrab_Primo",
    "descTextMapHash": 1939762895,
    "lockDescTextMapHash": 2307519862,
    "occupiedQuestIdList": []
  },
  {
    "id": 60,
    "cityId": 1,
    "monsterIdList": [
      23060101,
      23060201
    ],
    "groupIdList": [
      133408408,
      133408467,
      133408286,
      133408329,
      133408336,
      133408145,
      133408346,
      133409264
    ],
    "unlockChapterIdList": [],
    "unlockWqParentQuestIdList": [],
    "wqAcceptHintTextMapHash": 3658910929,
    "rewardPreviewId": 15525,
    "mapMarkCreateType": "NerverCreate",
    "mapMarkCreateCondition": {},
    "monsterCategory": "Elite",
    "nameTextMapHash": 3121910732,
    "icon": "UI_MonsterIcon_Fatuus_Escadron_Ice",
    "descTextMapHash": 602718767,
    "lockDescTextMapHash": 2792754174,
    "occupiedQuestIdList": []
  },
  {
    "id": 61,
    "cityId": 1,
    "monsterIdList": [
      24080101,
      24080102
    ],
    "groupIdList": [
      133408250
    ],
    "unlockChapterIdList": [],
    "unlockWqParentQuestIdList": [],
    "wqAcceptHintTextMapHash": 1145359721,
    "rewardPreviewId": 15194,
    "BAKDPCJEPMC": 40,
    "mapMarkCreateType": "ExtraConditions",
    "mapMarkCreateCondition": {
      "conditionType": "PlayerLevelGE",
      "conditionParam": 20
    },
    "monsterCategory": "Boss",
    "nameTextMapHash": 681219956,
    "icon": "UI_MonsterIcon_MachinaIustitia_Gravitas",
    "descTextMapHash": 2951314087,
    "lockDescTextMapHash": 1132747958,
    "occupiedQuestIdList": []
  },
  {
    "id": 62,
    "cityId": 1,
    "monsterIdList": [
      26180101
    ],
    "groupIdList": [
      133408174
    ],
    "unlockChapterIdList": [],
    "unlockWqParentQuestIdList": [],
    "wqAcceptHintTextMapHash": 4072972401,
    "rewardPreviewId": 15195,
    "BAKDPCJEPMC": 40,
    "mapMarkCreateType": "ExtraConditions",
    "mapMarkCreateCondition": {
      "conditionType": "PlayerLevelGE",
      "conditionParam": 20
    },
    "monsterCategory": "Boss",
    "nameTextMapHash": 660424828,
    "icon": "UI_MonsterIcon_SeaHorse_Primo_Electric",
    "descTextMapHash": 1266176695,
    "lockDescTextMapHash": 2469566462,
    "occupiedQuestIdList": []
  },
  {
    "id": 63,
    "cityId": 1,
    "monsterIdList": [
      20051201
    ],
    "groupIdList": [
      133406002
    ],
    "unlockChapterIdList": [],
    "unlockWqParentQuestIdList": [],
    "wqAcceptHintTextMapHash": 32744217,
    "rewardPreviewId": 15196,
    "BAKDPCJEPMC": 40,
    "mapMarkCreateType": "ExtraConditions",
    "mapMarkCreateCondition": {
      "conditionType": "PlayerLevelGE",
      "conditionParam": 20
    },
    "monsterCategory": "Boss",
    "nameTextMapHash": 3454949140,
    "icon": "UI_MonsterIcon_Narcissusborn_Normal_01",
    "descTextMapHash": 1145396015,
    "lockDescTextMapHash": 3583463126,
    "occupiedQuestIdList": []
  },
  {
    "id": 64,
    "cityId": 1,
    "monsterIdList": [
      26190101
    ],
    "groupIdList": [
      133116118
    ],
    "unlockChapterIdList": [],
    "unlockWqParentQuestIdList": [],
    "wqAcceptHintTextMapHash": 1747795361,
    "rewardPreviewId": 15197,
    "BAKDPCJEPMC": 40,
    "mapMarkCreateType": "ExtraConditions",
    "mapMarkCreateCondition": {
      "conditionType": "PlayerLevelGE",
      "conditionParam": 20
    },
    "monsterCategory": "Boss",
    "nameTextMapHash": 2046311356,
    "icon": "UI_MonsterIcon_Hermit",
    "descTextMapHash": 3757115927,
    "lockDescTextMapHash": 4282069206,
    "occupiedQuestIdList": []
  },
  {
    "id": 65,
    "cityId": 1,
    "monsterIdList": [
      26190201
    ],
    "groupIdList": [
      133101465,
      133101484,
      133114146,
      133116276,
      133101349,
      133101302
    ],
    "unlockChapterIdList": [],
    "unlockWqParentQuestIdList": [],
    "wqAcceptHintTextMapHash": 3313814825,
    "rewardPreviewId": 15527,
    "mapMarkCreateType": "NerverCreate",
    "mapMarkCreateCondition": {},
    "monsterCategory": "Elite",
    "nameTextMapHash": 966226812,
    "icon": "UI_MonsterIcon_Striped",
    "descTextMapHash": 403926895,
    "lockDescTextMapHash": 497294222,
    "occupiedQuestIdList": []
  },
  {
    "id": 66,
    "cityId": 1,
    "monsterIdList": [
      26140101
    ],
    "groupIdList": [
      133413002
    ],
    "unlockParentQuestId": 396,
    "unlockChapterIdList": [
      1001,
      1002,
      1003
    ],
    "unlockWqParentQuestIdList": [
      74184
    ],
    "wqAcceptHintTextMapHash": 3735266393,
    "rewardPreviewId": 15198,
    "BAKDPCJEPMC": 40,
    "mapMarkCreateType": "ExtraConditions",
    "mapMarkCreateCondition": {
      "conditionType": "PlayerLevelGE",
      "conditionParam": 20
    },
    "monsterCategory": "Boss",
    "nameTextMapHash": 360766924,
    "icon": "UI_MonsterIcon_Golem_Centaur",
    "descTextMapHash": 4227304231,
    "lockDescTextMapHash": 1446734382,
    "occupiedQuestIdList": []
  },
  {
    "id": 67,
    "cityId": 1,
    "monsterIdList": [
      26140201
    ],
    "groupIdList": [
      133413033,
      133413038,
      511010170,
      511010191,
      511020124,
      511010171
    ],
    "unlockChapterIdList": [],
    "unlockWqParentQuestIdList": [],
    "wqAcceptHintTextMapHash": 2075858425,
    "rewardPreviewId": 15528,
    "mapMarkCreateType": "NerverCreate",
    "mapMarkCreateCondition": {},
    "monsterCategory": "Elite",
    "nameTextMapHash": 3930891428,
    "icon": "UI_MonsterIcon_Golem_Legion",
    "descTextMapHash": 2021563615,
    "lockDescTextMapHash": 494395582,
    "occupiedQuestIdList": []
  },
  {
    "id": 68,
    "cityId": 1,
    "monsterIdList": [
      26220301
    ],
    "groupIdList": [
      133501079
    ],
    "unlockChapterIdList": [],
    "unlockWqParentQuestIdList": [],
    "wqAcceptHintTextMapHash": 334240129,
    "rewardPreviewId": 15200,
    "mapMarkCreateType": "ExtraConditions",
    "mapMarkCreateCondition": {
      "conditionType": "PlayerLevelGE",
      "conditionParam": 20
    },
    "monsterCategory": "Boss",
    "nameTextMapHash": 490461012,
    "icon": "UI_MonsterIcon_Natsaurus_Hookwalker_Primo",
    "descTextMapHash": 3606913967,
    "lockDescTextMapHash": 1106358374,
    "occupiedQuestIdList": []
  },
  {
    "id": 69,
    "cityId": 1,
    "monsterIdList": [
      26230301
    ],
    "groupIdList": [
      133501105
    ],
    "unlockChapterIdList": [],
    "unlockWqParentQuestIdList": [],
    "wqAcceptHintTextMapHash": 2453566777,
    "rewardPreviewId": 15199,
    "mapMarkCreateType": "ExtraConditions",
    "mapMarkCreateCondition": {
      "conditionType": "PlayerLevelGE",
      "conditionParam": 20
    },
    "monsterCategory": "Boss",
    "nameTextMapHash": 1758913604,
    "icon": "UI_MonsterIcon_Natsaurus_Flamingo_Primo",
    "descTextMapHash": 237686231,
    "lockDescTextMapHash": 788050110,
    "occupiedQuestIdList": []
  },
  {
    "id": 70,
    "cityId": 1,
    "monsterIdList": [
      26200101,
      26200201,
      26210101,
      26210201,
      26220101,
      26220201
    ],
    "groupIdList": [
      133504447,
      133504382,
      133503110,
      133502550,
      133502452,
      133502190,
      133501221,
      133501220
    ],
    "unlockChapterIdList": [],
    "unlockWqParentQuestIdList": [],
    "wqAcceptHintTextMapHash": 1529015673,
    "rewardPreviewId": 16021,
    "mapMarkCreateType": "NerverCreate",
    "mapMarkCreateCondition": {},
    "monsterCategory": "Common",
    "nameTextMapHash": 1626140788,
    "icon": "UI_MonsterIcon_Natsaurus_Drillhead_Normal",
    "descTextMapHash": 3987871159,
    "lockDescTextMapHash": 66398758,
    "occupiedQuestIdList": []
  },
  {
    "id": 71,
    "cityId": 1,
    "monsterIdList": [
      25500101,
      25500102,
      25501101,
      25501102,
      25501201,
      25501202,
      25501203,
      25502101,
      25502102,
      25502103,
      25502201,
      25502202,
      25503101,
      25503102,
      25503103,
      25504101,
      25504102,
      25505101,
      25505102,
      25505201,
      25505202,
      25510101,
      25510201,
      25510301,
      25510401,
      25510501,
      25510601
    ],
    "groupIdList": [
      133502499,
      133502256,
      133502189,
      133502042,
      133501127,
      133501216,
      133502405,
      133502418
    ],
    "unlockChapterIdList": [],
    "unlockWqParentQuestIdList": [],
    "wqAcceptHintTextMapHash": 1996420329,
    "rewardPreviewId": 16023,
    "mapMarkCreateType": "NerverCreate",
    "mapMarkCreateCondition": {},
    "monsterCategory": "Common",
    "nameTextMapHash": 53503204,
    "icon": "UI_MonsterIcon_Tribalwarrior_Powermaul_Drillhead",
    "descTextMapHash": 3242835895,
    "lockDescTextMapHash": 2260929126,
    "occupiedQuestIdList": []
  },
  {
    "id": 72,
    "cityId": 1,
    "monsterIdList": [
      26260101,
      26260201,
      26260301
    ],
    "groupIdList": [
      133503096,
      133502338,
      133502278,
      133501193,
      133501191,
      133501190,
      133501189
    ],
    "unlockChapterIdList": [],
    "unlockWqParentQuestIdList": [],
    "wqAcceptHintTextMapHash": 1267403529,
    "rewardPreviewId": 15529,
    "mapMarkCreateType": "NerverCreate",
    "mapMarkCreateCondition": {},
    "monsterCategory": "Elite",
    "nameTextMapHash": 287496180,
    "icon": "UI_MonsterIcon_Wayob_Drillhead",
    "descTextMapHash": 2727940935,
    "lockDescTextMapHash": 3627236638,
    "occupiedQuestIdList": []
  },
  {
    "id": 73,
    "cityId": 1,
    "monsterIdList": [
      26270101,
      26270201
    ],
    "groupIdList": [
      133501055,
      133504421,
      133503116,
      133503123,
      133502655,
      133502656,
      133501656,
      133501655
    ],
    "unlockChapterIdList": [],
    "unlockWqParentQuestIdList": [],
    "wqAcceptHintTextMapHash": 722332369,
    "rewardPreviewId": 15530,
    "mapMarkCreateType": "NerverCreate",
    "mapMarkCreateCondition": {},
    "monsterCategory": "Elite",
    "nameTextMapHash": 464708460,
    "icon": "UI_MonsterIcon_Lava_Liquid",
    "descTextMapHash": 598098999,
    "lockDescTextMapHash": 2774753166,
    "occupiedQuestIdList": []
  },
  {
    "id": 74,
    "cityId": 1,
    "monsterIdList": [
      24090101
    ],
    "groupIdList": [
      133502559,
      133502026,
      133502565,
      133502560,
      133502558,
      133502331,
      133501434,
      133501374,
      133501365,
      133501337
    ],
    "unlockChapterIdList": [],
    "unlockWqParentQuestIdList": [],
    "wqAcceptHintTextMapHash": 1469895265,
    "rewardPreviewId": 15531,
    "mapMarkCreateType": "NerverCreate",
    "mapMarkCreateCondition": {},
    "monsterCategory": "Elite",
    "nameTextMapHash": 4030929740,
    "icon": "UI_MonsterIcon_ToothTrap",
    "descTextMapHash": 1885322415,
    "lockDescTextMapHash": 1454271358,
    "occupiedQuestIdList": []
  }
]