[
  {
    "id": 101,
    "nameTextMapHash": 2173510696,
    "titleId": 1001,
    "specialNameLabId": 1001,
    "icon": "UI_MonsterIcon_Slime_Grass_02"
  },
  {
    "id": 102,
    "nameTextMapHash": 220962224,
    "titleId": 1011,
    "specialNameLabId": 1001,
    "icon": "UI_MonsterIcon_Slime_Grass_03"
  },
  {
    "id": 103,
    "nameTextMapHash": 1511587408,
    "titleId": 1002,
    "specialNameLabId": 1001,
    "icon": "UI_MonsterIcon_Slime_Wind_02"
  },
  {
    "id": 104,
    "nameTextMapHash": 1527751472,
    "titleId": 1021,
    "specialNameLabId": 1001,
    "icon": "UI_MonsterIcon_Slime_Wind_03"
  },
  {
    "id": 105,
    "nameTextMapHash": 960731328,
    "titleId": 1003,
    "specialNameLabId": 1001,
    "icon": "UI_MonsterIcon_Slime_Electric_02"
  },
  {
    "id": 106,
    "nameTextMapHash": 2835495304,
    "titleId": 1031,
    "specialNameLabId": 1001,
    "icon": "UI_MonsterIcon_Slime_Electric_03"
  },
  {
    "id": 107,
    "nameTextMapHash": 3389920104,
    "titleId": 1032,
    "specialNameLabId": 1001,
    "icon": "UI_MonsterIcon_Slime_Electric_03_Positive"
  },
  {
    "id": 108,
    "nameTextMapHash": 678013664,
    "titleId": 1004,
    "specialNameLabId": 1001,
    "icon": "UI_MonsterIcon_Slime_Ice_02"
  },
  {
    "id": 109,
    "nameTextMapHash": 2368926680,
    "titleId": 1041,
    "specialNameLabId": 1001,
    "icon": "UI_MonsterIcon_Slime_Ice_03"
  },
  {
    "id": 110,
    "nameTextMapHash": 1266302080,
    "titleId": 1005,
    "specialNameLabId": 1001,
    "icon": "UI_MonsterIcon_Slime_Water_02"
  },
  {
    "id": 111,
    "nameTextMapHash": 1883787496,
    "titleId": 1051,
    "specialNameLabId": 1001,
    "icon": "UI_MonsterIcon_Slime_Water_03"
  },
  {
    "id": 112,
    "nameTextMapHash": 3113209704,
    "titleId": 1006,
    "specialNameLabId": 1001,
    "icon": "UI_MonsterIcon_Slime_Fire_02"
  },
  {
    "id": 113,
    "nameTextMapHash": 3104668424,
    "titleId": 1061,
    "specialNameLabId": 1001,
    "icon": "UI_MonsterIcon_Slime_Fire_03"
  },
  {
    "id": 114,
    "nameTextMapHash": 1304425088,
    "titleId": 1007,
    "specialNameLabId": 1001,
    "icon": "UI_MonsterIcon_Slime_Rock_02"
  },
  {
    "id": 115,
    "nameTextMapHash": 2254956112,
    "titleId": 1071,
    "specialNameLabId": 1001,
    "icon": "UI_MonsterIcon_Slime_Rock_03"
  },
  {
    "id": 116,
    "nameTextMapHash": 544132088,
    "titleId": 1051,
    "specialNameLabId": 1001,
    "icon": "UI_MonsterIcon_Slime_Fire_02"
  },
  {
    "id": 117,
    "nameTextMapHash": 1415099112,
    "titleId": 1051,
    "specialNameLabId": 1001,
    "icon": "UI_MonsterIcon_Slime_Fire_03"
  },
  {
    "id": 118,
    "nameTextMapHash": 3935438856,
    "titleId": 1051,
    "specialNameLabId": 1001,
    "icon": "UI_MonsterIcon_Slime_Rock_02"
  },
  {
    "id": 119,
    "nameTextMapHash": 2540711056,
    "titleId": 1051,
    "specialNameLabId": 1001,
    "icon": "UI_MonsterIcon_Slime_Rock_03"
  },
  {
    "id": 201,
    "nameTextMapHash": 352893312,
    "titleId": 1201,
    "specialNameLabId": 1201,
    "icon": "UI_MonsterIcon_Elemental_Wind_01"
  },
  {
    "id": 401,
    "nameTextMapHash": 2576416432,
    "titleId": 2001,
    "specialNameLabId": 2001,
    "icon": "UI_MonsterIcon_Effigy_Electric"
  },
  {
    "id": 402,
    "nameTextMapHash": 1388893264,
    "titleId": 2002,
    "specialNameLabId": 2002,
    "icon": "UI_MonsterIcon_Effigy_Wind"
  },
  {
    "id": 403,
    "nameTextMapHash": 1590609280,
    "titleId": 2003,
    "specialNameLabId": 2003,
    "icon": "UI_MonsterIcon_Effigy_Rock"
  },
  {
    "id": 404,
    "nameTextMapHash": 2176969488,
    "titleId": 2004,
    "specialNameLabId": 2004,
    "icon": "UI_MonsterIcon_Effigy_Water"
  },
  {
    "id": 405,
    "nameTextMapHash": 937574560,
    "titleId": 2005,
    "specialNameLabId": 2005,
    "icon": "UI_MonsterIcon_Effigy_Ice"
  },
  {
    "id": 406,
    "nameTextMapHash": 374969768,
    "titleId": 2006,
    "specialNameLabId": 2006,
    "icon": "UI_MonsterIcon_Effigy_Fire"
  },
  {
    "id": 407,
    "nameTextMapHash": 2841278344,
    "titleId": 2007,
    "specialNameLabId": 2007,
    "icon": "UI_MonsterIcon_Effigy_Grass"
  },
  {
    "id": 501,
    "nameTextMapHash": 1194478280,
    "titleId": 2201,
    "specialNameLabId": 2201,
    "icon": "UI_MonsterIcon_Oceanid"
  },
  {
    "id": 502,
    "nameTextMapHash": 3750306112,
    "titleId": 2221,
    "specialNameLabId": 2221,
    "icon": "UI_MonsterIcon_Oceanid_Underling"
  },
  {
    "id": 503,
    "nameTextMapHash": 1411333056,
    "titleId": 2222,
    "specialNameLabId": 2221,
    "icon": "UI_MonsterIcon_Oceanid_Underling"
  },
  {
    "id": 504,
    "nameTextMapHash": 3859189664,
    "titleId": 2223,
    "specialNameLabId": 2221,
    "icon": "UI_MonsterIcon_Oceanid_Underling"
  },
  {
    "id": 505,
    "nameTextMapHash": 1517871784,
    "titleId": 2224,
    "specialNameLabId": 2221,
    "icon": "UI_MonsterIcon_Oceanid_Underling"
  },
  {
    "id": 506,
    "nameTextMapHash": 2454508744,
    "titleId": 2225,
    "specialNameLabId": 2221,
    "icon": "UI_MonsterIcon_Oceanid_Underling"
  },
  {
    "id": 507,
    "nameTextMapHash": 2695145104,
    "titleId": 2226,
    "specialNameLabId": 2221,
    "icon": "UI_MonsterIcon_Oceanid_Underling"
  },
  {
    "id": 508,
    "nameTextMapHash": 2270056128,
    "titleId": 2227,
    "specialNameLabId": 2221,
    "icon": "UI_MonsterIcon_Oceanid_Underling"
  },
  {
    "id": 509,
    "nameTextMapHash": 1727202056,
    "titleId": 2228,
    "specialNameLabId": 2221,
    "icon": "UI_MonsterIcon_Oceanid_Underling"
  },
  {
    "id": 510,
    "nameTextMapHash": 453148552,
    "titleId": 2231,
    "specialNameLabId": 2231,
    "icon": "UI_MonsterIcon_Necalevia_Normal"
  },
  {
    "id": 511,
    "nameTextMapHash": 3501806728,
    "titleId": 2232,
    "specialNameLabId": 2231,
    "icon": "UI_MonsterIcon_Necalevia_Big"
  },
  {
    "id": 512,
    "nameTextMapHash": 773794872,
    "titleId": 8083,
    "specialNameLabId": 8083,
    "icon": "UI_MonsterIcon_Narcissusborn_Normal_01"
  },
  {
    "id": 513,
    "nameTextMapHash": 1629142200,
    "titleId": 2228,
    "specialNameLabId": 2221,
    "icon": ""
  },
  {
    "id": 514,
    "nameTextMapHash": 2970448672,
    "titleId": 2231,
    "specialNameLabId": 2231,
    "icon": "UI_MonsterIcon_Necalevia_Normal"
  },
  {
    "id": 515,
    "nameTextMapHash": 3144622032,
    "titleId": 2232,
    "specialNameLabId": 2231,
    "icon": "UI_MonsterIcon_Necalevia_Big"
  },
  {
    "id": 516,
    "nameTextMapHash": 3679294512,
    "titleId": 2228,
    "specialNameLabId": 2221,
    "icon": "UI_MonsterIcon_Narcissusborn_Normal_01"
  },
  {
    "id": 601,
    "nameTextMapHash": 3055427504,
    "titleId": 1111,
    "specialNameLabId": 1111,
    "icon": "UI_MonsterIcon_Sylph_Water_01"
  },
  {
    "id": 602,
    "nameTextMapHash": 1129726256,
    "titleId": 1112,
    "specialNameLabId": 1111,
    "icon": "UI_MonsterIcon_Sylph_Rock_01"
  },
  {
    "id": 603,
    "nameTextMapHash": 1685659344,
    "titleId": 1113,
    "specialNameLabId": 1111,
    "icon": "UI_MonsterIcon_Sylph_Wind_01"
  },
  {
    "id": 604,
    "nameTextMapHash": 1061667664,
    "titleId": 1114,
    "specialNameLabId": 1111,
    "icon": "UI_MonsterIcon_Sylph_Ice_01"
  },
  {
    "id": 605,
    "nameTextMapHash": 4056559040,
    "titleId": 1115,
    "specialNameLabId": 1111,
    "icon": "UI_MonsterIcon_Sylph_Electric_01"
  },
  {
    "id": 606,
    "nameTextMapHash": 3663897528,
    "titleId": 1116,
    "specialNameLabId": 1111,
    "icon": "UI_MonsterIcon_Sylph_Fire_01"
  },
  {
    "id": 607,
    "nameTextMapHash": 2872478496,
    "titleId": 1117,
    "specialNameLabId": 1111,
    "icon": "UI_MonsterIcon_Sylph_Grass_01"
  },
  {
    "id": 701,
    "nameTextMapHash": 3258515928,
    "titleId": 2202,
    "specialNameLabId": 2202,
    "icon": "UI_MonsterIcon_Raijin"
  },
  {
    "id": 10101,
    "nameTextMapHash": 2823299104,
    "titleId": 3001,
    "specialNameLabId": 3001,
    "icon": "UI_MonsterIcon_Hili_None_01"
  },
  {
    "id": 10102,
    "nameTextMapHash": 1502883680,
    "titleId": 3001,
    "specialNameLabId": 3001,
    "icon": "UI_MonsterIcon_Hili_None_01"
  },
  {
    "id": 10103,
    "nameTextMapHash": 2491960152,
    "titleId": 3001,
    "specialNameLabId": 3001,
    "icon": "UI_MonsterIcon_Hili_None_01"
  },
  {
    "id": 10104,
    "nameTextMapHash": 3261111696,
    "titleId": 3011,
    "specialNameLabId": 3001,
    "icon": "UI_MonsterIcon_Hili_None_01"
  },
  {
    "id": 10105,
    "nameTextMapHash": 41061376,
    "titleId": 3011,
    "specialNameLabId": 3001,
    "icon": "UI_MonsterIcon_Hili_Fire_Range"
  },
  {
    "id": 10106,
    "nameTextMapHash": 4024598056,
    "titleId": 3001,
    "specialNameLabId": 3001,
    "icon": "UI_MonsterIcon_Hili_Fire_Range"
  },
  {
    "id": 10107,
    "nameTextMapHash": 3251673344,
    "titleId": 3001,
    "specialNameLabId": 3001,
    "icon": "UI_MonsterIcon_Hili_Fire_Range"
  },
  {
    "id": 10109,
    "nameTextMapHash": 2598026680,
    "titleId": 3011,
    "specialNameLabId": 3001,
    "icon": "UI_MonsterIcon_Hili_Ice_Range"
  },
  {
    "id": 10110,
    "nameTextMapHash": 2963928784,
    "titleId": 3011,
    "specialNameLabId": 3001,
    "icon": "UI_MonsterIcon_Hili_Electric_Range"
  },
  {
    "id": 10112,
    "nameTextMapHash": 1779087448,
    "titleId": 3001,
    "specialNameLabId": 3001,
    "icon": "UI_MonsterIcon_Hili_None_01"
  },
  {
    "id": 10113,
    "nameTextMapHash": 2456790112,
    "titleId": 3001,
    "specialNameLabId": 3001,
    "icon": "UI_MonsterIcon_Hili_Ice_Range"
  },
  {
    "id": 10114,
    "nameTextMapHash": 3034104928,
    "titleId": 3001,
    "specialNameLabId": 3001,
    "icon": "UI_MonsterIcon_Hili_None_01"
  },
  {
    "id": 10115,
    "nameTextMapHash": 1868726720,
    "titleId": 3090,
    "specialNameLabId": 3090,
    "icon": "UI_MonsterIcon_Hili_Wei"
  },
  {
    "id": 10116,
    "nameTextMapHash": 2167729272,
    "titleId": 3001,
    "specialNameLabId": 3001,
    "icon": "UI_MonsterIcon_Hili_Electric_Range"
  },
  {
    "id": 10201,
    "nameTextMapHash": 2998946096,
    "titleId": 3101,
    "specialNameLabId": 3101,
    "icon": "UI_MonsterIcon_Brute_None_01"
  },
  {
    "id": 10202,
    "nameTextMapHash": 2414837496,
    "titleId": 3102,
    "specialNameLabId": 3101,
    "icon": "UI_MonsterIcon_Brute_None_01"
  },
  {
    "id": 10203,
    "nameTextMapHash": 1611076776,
    "titleId": 3103,
    "specialNameLabId": 3101,
    "icon": "UI_MonsterIcon_Brute_None_01"
  },
  {
    "id": 10204,
    "nameTextMapHash": 3926747992,
    "titleId": 3112,
    "specialNameLabId": 3112,
    "icon": "UI_MonsterIcon_Brute_Ice_01"
  },
  {
    "id": 10205,
    "nameTextMapHash": 1204583624,
    "titleId": 3111,
    "specialNameLabId": 3111,
    "icon": "UI_MonsterIcon_Brute_Rock_None"
  },
  {
    "id": 10206,
    "nameTextMapHash": 3749655912,
    "titleId": 3104,
    "specialNameLabId": 3101,
    "icon": "UI_MonsterIcon_Brute_None_01"
  },
  {
    "id": 10207,
    "nameTextMapHash": 3382922248,
    "titleId": 3105,
    "specialNameLabId": 3101,
    "icon": "UI_MonsterIcon_Brute_None_01"
  },
  {
    "id": 10208,
    "nameTextMapHash": 805439664,
    "titleId": 3113,
    "specialNameLabId": 3113,
    "icon": "UI_MonsterIcon_Brute_Electric_01"
  },
  {
    "id": 10301,
    "nameTextMapHash": 1980056728,
    "titleId": 3201,
    "specialNameLabId": 3201,
    "icon": "UI_MonsterIcon_Shaman_Water_01"
  },
  {
    "id": 10302,
    "nameTextMapHash": 1473826984,
    "titleId": 3202,
    "specialNameLabId": 3202,
    "icon": "UI_MonsterIcon_Shaman_Grass_01"
  },
  {
    "id": 10303,
    "nameTextMapHash": 10553112,
    "titleId": 3203,
    "specialNameLabId": 3203,
    "icon": "UI_MonsterIcon_Shaman_Wind_01"
  },
  {
    "id": 10304,
    "nameTextMapHash": 3338079384,
    "titleId": 3204,
    "specialNameLabId": 3204,
    "icon": "UI_MonsterIcon_Shaman_Rock_01"
  },
  {
    "id": 10305,
    "nameTextMapHash": 1785924728,
    "titleId": 3205,
    "specialNameLabId": 3205,
    "icon": "UI_MonsterIcon_Shaman_Ice_01"
  },
  {
    "id": 10306,
    "nameTextMapHash": 1596748696,
    "titleId": 3206,
    "specialNameLabId": 3206,
    "icon": "UI_MonsterIcon_Shaman_Electric_01"
  },
  {
    "id": 10307,
    "nameTextMapHash": 4115780424,
    "titleId": 10370,
    "specialNameLabId": 3210,
    "icon": ""
  },
  {
    "id": 10401,
    "nameTextMapHash": 3952856048,
    "titleId": 3301,
    "specialNameLabId": 3301,
    "icon": "UI_MonsterIcon_Hilistray_Wind"
  },
  {
    "id": 10402,
    "nameTextMapHash": 2508757576,
    "titleId": 3302,
    "specialNameLabId": 3301,
    "icon": "UI_MonsterIcon_Hilistray_Water"
  },
  {
    "id": 20101,
    "nameTextMapHash": 2415438104,
    "titleId": 4001,
    "specialNameLabId": 4001,
    "icon": "UI_MonsterIcon_Abyss_Fire_01"
  },
  {
    "id": 20102,
    "nameTextMapHash": 1321463096,
    "titleId": 4002,
    "specialNameLabId": 4001,
    "icon": "UI_MonsterIcon_Abyss_Ice_01"
  },
  {
    "id": 20103,
    "nameTextMapHash": 2267848368,
    "titleId": 4003,
    "specialNameLabId": 4001,
    "icon": "UI_MonsterIcon_Abyss_Water_01"
  },
  {
    "id": 20104,
    "nameTextMapHash": 1299643312,
    "titleId": 4004,
    "specialNameLabId": 4001,
    "icon": "UI_MonsterIcon_Abyss_Electric_01"
  },
  {
    "id": 20201,
    "nameTextMapHash": 2159496136,
    "titleId": 4011,
    "specialNameLabId": 4011,
    "icon": "UI_MonsterIcon_Invoker_Herald_Water_01"
  },
  {
    "id": 20202,
    "nameTextMapHash": 1561834088,
    "titleId": 4012,
    "specialNameLabId": 4011,
    "icon": "UI_MonsterIcon_Invoker_Herald_Ice"
  },
  {
    "id": 20301,
    "nameTextMapHash": 626343048,
    "titleId": 4021,
    "specialNameLabId": 4021,
    "icon": "UI_MonsterIcon_Invoker_Deacon_Electric_01"
  },
  {
    "id": 20302,
    "nameTextMapHash": 1167557096,
    "titleId": 4022,
    "specialNameLabId": 4021,
    "icon": "UI_MonsterIcon_Invoker_Deacon_Fire"
  },
  {
    "id": 20401,
    "nameTextMapHash": 4040204456,
    "titleId": 4031,
    "specialNameLabId": 4031,
    "icon": "UI_MonsterIcon_Hound_Kanis_Rock"
  },
  {
    "id": 20402,
    "nameTextMapHash": 717375112,
    "titleId": 4031,
    "specialNameLabId": 4031,
    "icon": "UI_MonsterIcon_Hound_Kanis_Electric"
  },
  {
    "id": 20501,
    "nameTextMapHash": 2930642328,
    "titleId": 4032,
    "specialNameLabId": 4031,
    "icon": "UI_MonsterIcon_Hound_Riftstalker_Rock"
  },
  {
    "id": 20502,
    "nameTextMapHash": 2530429496,
    "titleId": 4032,
    "specialNameLabId": 4031,
    "icon": "UI_MonsterIcon_Hound_Riftstalker_Electric"
  },
  {
    "id": 20601,
    "nameTextMapHash": 2218442544,
    "titleId": 4041,
    "specialNameLabId": 4041,
    "icon": "UI_MonsterIcon_Hound_Planelurker"
  },
  {
    "id": 20701,
    "nameTextMapHash": 3775538896,
    "titleId": 4051,
    "specialNameLabId": 4051,
    "icon": "UI_MonsterIcon_ForlornVessel_Strong_Warbanner_Fire"
  },
  {
    "id": 20702,
    "nameTextMapHash": 1930273248,
    "titleId": 4051,
    "specialNameLabId": 4052,
    "icon": "UI_MonsterIcon_ForlornVessel_Strong_Lance_Water"
  },
  {
    "id": 20703,
    "nameTextMapHash": 784327392,
    "titleId": 4051,
    "specialNameLabId": 4053,
    "icon": "UI_MonsterIcon_ForlornVessel_Strong_Chargebow_Ice"
  },
  {
    "id": 20801,
    "nameTextMapHash": 3259944648,
    "titleId": 4061,
    "specialNameLabId": 4061,
    "icon": "UI_MonsterIcon_Darkwraith_Strong_Wind"
  },
  {
    "id": 20802,
    "nameTextMapHash": 2575257792,
    "titleId": 4062,
    "specialNameLabId": 4061,
    "icon": "UI_MonsterIcon_Darkwraith_Fat_Rock"
  },
  {
    "id": 20901,
    "nameTextMapHash": 4127518744,
    "titleId": 123,
    "specialNameLabId": 4031,
    "icon": "UI_MonsterIcon_Darkwraith_Strong_Wind"
  },
  {
    "id": 21001,
    "nameTextMapHash": 1414866248,
    "titleId": 4071,
    "specialNameLabId": 4071,
    "icon": "UI_MonsterIcon_Invoker_Archdeacon"
  },
  {
    "id": 21002,
    "nameTextMapHash": 1373576872,
    "titleId": 4071,
    "specialNameLabId": 4071,
    "icon": "UI_MonsterIcon_Invoker_Archdeacon"
  },
  {
    "id": 21003,
    "nameTextMapHash": 3745350432,
    "titleId": 4071,
    "specialNameLabId": 4071,
    "icon": "UI_MonsterIcon_Invoker_Archdeacon"
  },
  {
    "id": 21004,
    "nameTextMapHash": 3477599544,
    "titleId": 4071,
    "specialNameLabId": 4071,
    "icon": "UI_MonsterIcon_Invoker_Archdeacon"
  },
  {
    "id": 21005,
    "nameTextMapHash": 1840128168,
    "titleId": 4071,
    "specialNameLabId": 4071,
    "icon": "UI_MonsterIcon_Invoker_Archdeacon"
  },
  {
    "id": 21101,
    "nameTextMapHash": 3303466144,
    "titleId": 4083,
    "specialNameLabId": 4081,
    "icon": "UI_MonsterIcon_Ovacua_Order_01"
  },
  {
    "id": 21102,
    "nameTextMapHash": 3351302096,
    "titleId": 4084,
    "specialNameLabId": 4081,
    "icon": "UI_MonsterIcon_Ovacua_Order_02"
  },
  {
    "id": 21103,
    "nameTextMapHash": 1920243392,
    "titleId": 4081,
    "specialNameLabId": 4081,
    "icon": "UI_MonsterIcon_Ovacua_Chaos_01"
  },
  {
    "id": 21104,
    "nameTextMapHash": 3120151760,
    "titleId": 4082,
    "specialNameLabId": 4081,
    "icon": "UI_MonsterIcon_Ovacua_Chaos_02"
  },
  {
    "id": 30101,
    "nameTextMapHash": 995929064,
    "titleId": 5111,
    "specialNameLabId": 5001,
    "icon": "UI_MonsterIcon_Skirmisher_Male_Fat_SprayGun_Ice_01"
  },
  {
    "id": 30102,
    "nameTextMapHash": 12762888,
    "titleId": 5112,
    "specialNameLabId": 5001,
    "icon": "UI_MonsterIcon_Skirmisher_Male_Fat_SprayGun_Water_01"
  },
  {
    "id": 30103,
    "nameTextMapHash": 1919409584,
    "titleId": 5121,
    "specialNameLabId": 5001,
    "icon": "UI_MonsterIcon_Skirmisher_Male_Strong_GreatHammer_Electric_01"
  },
  {
    "id": 30104,
    "nameTextMapHash": 3627495392,
    "titleId": 5101,
    "specialNameLabId": 5001,
    "icon": "UI_MonsterIcon_Skirmisher_Male_Standard_Staff_Rock_01"
  },
  {
    "id": 30105,
    "nameTextMapHash": 1426306032,
    "titleId": 5122,
    "specialNameLabId": 5001,
    "icon": "UI_MonsterIcon_Skirmisher_Male_Strong_Gloves_Wind_01"
  },
  {
    "id": 30106,
    "nameTextMapHash": 1434878968,
    "titleId": 5102,
    "specialNameLabId": 5001,
    "icon": "UI_MonsterIcon_Skirmisher_Male_Standard_Rifle_Fire_01"
  },
  {
    "id": 30111,
    "nameTextMapHash": 3210971752,
    "titleId": 5111,
    "specialNameLabId": 5001,
    "icon": "UI_MonsterIcon_Skirmisher_Male_Fat_SprayGun_Ice_01"
  },
  {
    "id": 30113,
    "nameTextMapHash": 3243962240,
    "titleId": 5121,
    "specialNameLabId": 5001,
    "icon": "UI_MonsterIcon_Skirmisher_Male_Strong_GreatHammer_Electric_01"
  },
  {
    "id": 30116,
    "nameTextMapHash": 3443652720,
    "titleId": 5102,
    "specialNameLabId": 5001,
    "icon": "UI_MonsterIcon_Skirmisher_Male_Standard_Rifle_Fire_01"
  },
  {
    "id": 30201,
    "nameTextMapHash": 3750143024,
    "titleId": 5001,
    "specialNameLabId": 5001,
    "icon": "UI_MonsterIcon_Fatuus_Fire_01"
  },
  {
    "id": 30211,
    "nameTextMapHash": 1417724960,
    "titleId": 5001,
    "specialNameLabId": 5001,
    "icon": "UI_MonsterIcon_Fatuus_Fire_01"
  },
  {
    "id": 30301,
    "nameTextMapHash": 1010609776,
    "titleId": 5002,
    "specialNameLabId": 5002,
    "icon": "UI_MonsterIcon_Fatuus_Summoner_01"
  },
  {
    "id": 30401,
    "nameTextMapHash": 4010466472,
    "titleId": 5003,
    "specialNameLabId": 5002,
    "icon": "UI_MonsterIcon_Fatuus_Mage_Ice_01"
  },
  {
    "id": 30501,
    "nameTextMapHash": 1709717640,
    "titleId": 5004,
    "specialNameLabId": 5002,
    "icon": "UI_MonsterIcon_Fatuus_Maiden_Water"
  },
  {
    "id": 30601,
    "nameTextMapHash": 2059788056,
    "titleId": 5005,
    "specialNameLabId": 5002,
    "icon": "UI_MonsterIcon_Fatuus_Escadron_Ice"
  },
  {
    "id": 30602,
    "nameTextMapHash": 3887106408,
    "titleId": 5006,
    "specialNameLabId": 5002,
    "icon": "UI_MonsterIcon_Fatuus_Escadron_Wind"
  },
  {
    "id": 30603,
    "nameTextMapHash": 544837160,
    "titleId": 5005,
    "specialNameLabId": 5002,
    "icon": "UI_MonsterIcon_Fatuus_Escadron_Ice"
  },
  {
    "id": 30604,
    "nameTextMapHash": 3448422640,
    "titleId": 5006,
    "specialNameLabId": 5002,
    "icon": "UI_MonsterIcon_Fatuus_Escadron_Wind"
  },
  {
    "id": 40101,
    "nameTextMapHash": 1418628360,
    "titleId": 6001,
    "specialNameLabId": 6001,
    "icon": "UI_MonsterIcon_Defender_Noner_01"
  },
  {
    "id": 40102,
    "nameTextMapHash": 4243053360,
    "titleId": 6002,
    "specialNameLabId": 6002,
    "icon": "UI_MonsterIcon_Formathr_None"
  },
  {
    "id": 40103,
    "nameTextMapHash": 399632552,
    "titleId": 6003,
    "specialNameLabId": 6003,
    "icon": "UI_MonsterIcon_Konungmathr"
  },
  {
    "id": 40104,
    "nameTextMapHash": 2345695136,
    "titleId": 6004,
    "specialNameLabId": 6004,
    "icon": "UI_MonsterIcon_Nithhoggr_None"
  },
  {
    "id": 40201,
    "nameTextMapHash": 2360166000,
    "titleId": 6011,
    "specialNameLabId": 6011,
    "icon": "UI_MonsterIcon_Apparatus_Enigma_BionicDrone"
  },
  {
    "id": 40202,
    "nameTextMapHash": 2106038440,
    "titleId": 6012,
    "specialNameLabId": 6011,
    "icon": "UI_MonsterIcon_Apparatus_Enigma_BionicFlora"
  },
  {
    "id": 40203,
    "nameTextMapHash": 2390298952,
    "titleId": 6013,
    "specialNameLabId": 6011,
    "icon": "UI_MonsterIcon_Apparatus_Enigma_BionicInsecta"
  },
  {
    "id": 40204,
    "nameTextMapHash": 545245072,
    "titleId": 6014,
    "specialNameLabId": 6011,
    "icon": "UI_MonsterIcon_Apparatus_Enigma_BionicNettler"
  },
  {
    "id": 40211,
    "nameTextMapHash": 4062249480,
    "titleId": 6101,
    "specialNameLabId": 6101,
    "icon": "UI_MonsterIcon_Apparatus_Perpetual"
  },
  {
    "id": 40301,
    "nameTextMapHash": 1874960408,
    "titleId": 6005,
    "specialNameLabId": 6005,
    "icon": "UI_MonsterIcon_Gargoyle"
  },
  {
    "id": 40302,
    "nameTextMapHash": 745177296,
    "titleId": 6006,
    "specialNameLabId": 6005,
    "icon": "UI_MonsterIcon_Gargoyle"
  },
  {
    "id": 40303,
    "nameTextMapHash": 392391024,
    "titleId": 6007,
    "specialNameLabId": 6007,
    "icon": "UI_MonsterIcon_Gargoyle_Fafnir"
  },
  {
    "id": 40401,
    "nameTextMapHash": 3640705344,
    "titleId": 6111,
    "specialNameLabId": 6111,
    "icon": "UI_MonsterIcon_Monolith_Ordinator"
  },
  {
    "id": 40402,
    "nameTextMapHash": 3433160376,
    "titleId": 6112,
    "specialNameLabId": 6111,
    "icon": "UI_MonsterIcon_Monolith_Ordinator"
  },
  {
    "id": 40403,
    "nameTextMapHash": 960036488,
    "titleId": 6113,
    "specialNameLabId": 6111,
    "icon": "UI_MonsterIcon_Monolith_Ordinator"
  },
  {
    "id": 40501,
    "nameTextMapHash": 1856265352,
    "titleId": 6121,
    "specialNameLabId": 6121,
    "icon": "UI_MonsterIcon_Monolith_Starchild"
  },
  {
    "id": 40601,
    "nameTextMapHash": 4140776160,
    "titleId": 6131,
    "specialNameLabId": 6131,
    "icon": "UI_MonsterIcon_MachinaIustitia_Sentry"
  },
  {
    "id": 40651,
    "nameTextMapHash": 1256769200,
    "titleId": 6131,
    "specialNameLabId": 6131,
    "icon": "UI_MonsterIcon_MachinaIustitia_Sentry"
  },
  {
    "id": 40681,
    "nameTextMapHash": 2479279968,
    "titleId": 6131,
    "specialNameLabId": 6131,
    "icon": "UI_MonsterIcon_MachinaIustitia_Sentry"
  },
  {
    "id": 40602,
    "nameTextMapHash": 2485261272,
    "titleId": 6132,
    "specialNameLabId": 6131,
    "icon": "UI_MonsterIcon_MachinaIustitia_Pylon"
  },
  {
    "id": 40652,
    "nameTextMapHash": 269023824,
    "titleId": 6132,
    "specialNameLabId": 6131,
    "icon": "UI_MonsterIcon_MachinaIustitia_Pylon"
  },
  {
    "id": 40682,
    "nameTextMapHash": 1945068152,
    "titleId": 6132,
    "specialNameLabId": 6131,
    "icon": "UI_MonsterIcon_MachinaIustitia_Pylon"
  },
  {
    "id": 40603,
    "nameTextMapHash": 1066803048,
    "titleId": 6133,
    "specialNameLabId": 6131,
    "icon": "UI_MonsterIcon_MachinaIustitia_Recon"
  },
  {
    "id": 40653,
    "nameTextMapHash": 4205809176,
    "titleId": 6133,
    "specialNameLabId": 6131,
    "icon": "UI_MonsterIcon_MachinaIustitia_Recon"
  },
  {
    "id": 40683,
    "nameTextMapHash": 2641906440,
    "titleId": 6133,
    "specialNameLabId": 6131,
    "icon": "UI_MonsterIcon_MachinaIustitia_Recon"
  },
  {
    "id": 40604,
    "nameTextMapHash": 1094395920,
    "titleId": 6134,
    "specialNameLabId": 6131,
    "icon": "UI_MonsterIcon_MachinaIustitia_Probe"
  },
  {
    "id": 40654,
    "nameTextMapHash": 193809824,
    "titleId": 6134,
    "specialNameLabId": 6131,
    "icon": "UI_MonsterIcon_MachinaIustitia_Probe"
  },
  {
    "id": 40684,
    "nameTextMapHash": 1822391752,
    "titleId": 6134,
    "specialNameLabId": 6131,
    "icon": "UI_MonsterIcon_MachinaIustitia_Probe"
  },
  {
    "id": 40605,
    "nameTextMapHash": 1238666064,
    "titleId": 6135,
    "specialNameLabId": 6131,
    "icon": "UI_MonsterIcon_MachinaIustitia_Nautilus"
  },
  {
    "id": 40655,
    "nameTextMapHash": 1420341400,
    "titleId": 6135,
    "specialNameLabId": 6131,
    "icon": "UI_MonsterIcon_MachinaIustitia_Nautilus"
  },
  {
    "id": 40685,
    "nameTextMapHash": 723416032,
    "titleId": 6135,
    "specialNameLabId": 6131,
    "icon": "UI_MonsterIcon_MachinaIustitia_Nautilus"
  },
  {
    "id": 40606,
    "nameTextMapHash": 3995797928,
    "titleId": 6136,
    "specialNameLabId": 6131,
    "icon": "UI_MonsterIcon_MachinaIustitia_Frigate"
  },
  {
    "id": 40656,
    "nameTextMapHash": 3444415920,
    "titleId": 6136,
    "specialNameLabId": 6131,
    "icon": "UI_MonsterIcon_MachinaIustitia_Frigate"
  },
  {
    "id": 40686,
    "nameTextMapHash": 3481979704,
    "titleId": 6136,
    "specialNameLabId": 6131,
    "icon": "UI_MonsterIcon_MachinaIustitia_Frigate"
  },
  {
    "id": 40607,
    "nameTextMapHash": 1747337896,
    "titleId": 6137,
    "specialNameLabId": 6131,
    "icon": "UI_MonsterIcon_MachinaIustitia_Assimilator"
  },
  {
    "id": 40657,
    "nameTextMapHash": 3703841120,
    "titleId": 6137,
    "specialNameLabId": 6131,
    "icon": "UI_MonsterIcon_MachinaIustitia_Assimilator"
  },
  {
    "id": 40687,
    "nameTextMapHash": 2198763648,
    "titleId": 6137,
    "specialNameLabId": 6131,
    "icon": "UI_MonsterIcon_MachinaIustitia_Assimilator"
  },
  {
    "id": 40608,
    "nameTextMapHash": 4158727312,
    "titleId": 6138,
    "specialNameLabId": 6138,
    "icon": "UI_MonsterIcon_MachinaIustitia_Ruggiero_01"
  },
  {
    "id": 40658,
    "nameTextMapHash": 3334344744,
    "titleId": 6138,
    "specialNameLabId": 6138,
    "icon": "UI_MonsterIcon_MachinaIustitia_Ruggiero_01"
  },
  {
    "id": 40688,
    "nameTextMapHash": 68049912,
    "titleId": 6138,
    "specialNameLabId": 6138,
    "icon": "UI_MonsterIcon_MachinaIustitia_Ruggiero_01"
  },
  {
    "id": 40609,
    "nameTextMapHash": 630223608,
    "titleId": 6139,
    "specialNameLabId": 6139,
    "icon": "UI_MonsterIcon_MachinaIustitia_Ruggiero_02"
  },
  {
    "id": 40659,
    "nameTextMapHash": 564435304,
    "titleId": 6139,
    "specialNameLabId": 6139,
    "icon": "UI_MonsterIcon_MachinaIustitia_Ruggiero_02"
  },
  {
    "id": 40689,
    "nameTextMapHash": 1387101112,
    "titleId": 6139,
    "specialNameLabId": 6139,
    "icon": "UI_MonsterIcon_MachinaIustitia_Ruggiero_02"
  },
  {
    "id": 40610,
    "nameTextMapHash": 1470451960,
    "titleId": 6140,
    "specialNameLabId": 6140,
    "icon": "UI_MonsterIcon_MachinaIustitia_Bradamante"
  },
  {
    "id": 40660,
    "nameTextMapHash": 4102663072,
    "titleId": 6140,
    "specialNameLabId": 6140,
    "icon": "UI_MonsterIcon_MachinaIustitia_Bradamante"
  },
  {
    "id": 40690,
    "nameTextMapHash": 1733932512,
    "titleId": 6140,
    "specialNameLabId": 6140,
    "icon": "UI_MonsterIcon_MachinaIustitia_Bradamante"
  },
  {
    "id": 40611,
    "nameTextMapHash": 3919209288,
    "titleId": 6141,
    "specialNameLabId": 6131,
    "icon": "UI_MonsterIcon_MachinaIustitia_LengthShifter"
  },
  {
    "id": 40661,
    "nameTextMapHash": 2677499600,
    "titleId": 6141,
    "specialNameLabId": 6131,
    "icon": "UI_MonsterIcon_MachinaIustitia_LengthShifter"
  },
  {
    "id": 40691,
    "nameTextMapHash": 3720326080,
    "titleId": 6141,
    "specialNameLabId": 6131,
    "icon": "UI_MonsterIcon_MachinaIustitia_LengthShifter"
  },
  {
    "id": 40612,
    "nameTextMapHash": 892435448,
    "titleId": 6142,
    "specialNameLabId": 6141,
    "icon": "UI_MonsterIcon_MachinaIustitia_Excavator"
  },
  {
    "id": 40662,
    "nameTextMapHash": 2909631760,
    "titleId": 6142,
    "specialNameLabId": 6141,
    "icon": "UI_MonsterIcon_MachinaIustitia_Excavator"
  },
  {
    "id": 40692,
    "nameTextMapHash": 3581880152,
    "titleId": 6142,
    "specialNameLabId": 6141,
    "icon": "UI_MonsterIcon_MachinaIustitia_Excavator"
  },
  {
    "id": 40613,
    "nameTextMapHash": 381672496,
    "titleId": 6132,
    "specialNameLabId": 6131,
    "icon": "UI_MonsterIcon_MachinaIustitia_Pylon"
  },
  {
    "id": 40701,
    "nameTextMapHash": 2001226544,
    "titleId": 6152,
    "specialNameLabId": 6152,
    "icon": "UI_MonsterIcon_MachinaIustitia_Nutcracker"
  },
  {
    "id": 40702,
    "nameTextMapHash": 1043672848,
    "titleId": 6151,
    "specialNameLabId": 6151,
    "icon": "UI_MonsterIcon_MachinaIustitia_Nutcracker"
  },
  {
    "id": 40703,
    "nameTextMapHash": 242731664,
    "titleId": 6152,
    "specialNameLabId": 6152,
    "icon": "UI_MonsterIcon_MachinaIustitia_Nutcracker"
  },
  {
    "id": 40801,
    "nameTextMapHash": 3214543168,
    "titleId": 6161,
    "specialNameLabId": 6161,
    "icon": "UI_MonsterIcon_MachinaIustitia_Gravitas"
  },
  {
    "id": 40901,
    "nameTextMapHash": 1551385520,
    "titleId": 6171,
    "specialNameLabId": 6171,
    "icon": "UI_MonsterIcon_ToothTrap"
  },
  {
    "id": 48101,
    "nameTextMapHash": 3995841000,
    "titleId": 6111,
    "specialNameLabId": 6111,
    "icon": "UI_MonsterIcon_Monolith_Ordinator"
  },
  {
    "id": 48102,
    "nameTextMapHash": 1952925880,
    "titleId": 6111,
    "specialNameLabId": 6111,
    "icon": "UI_MonsterIcon_Monolith_Ordinator"
  },
  {
    "id": 48103,
    "nameTextMapHash": 2001019136,
    "titleId": 6111,
    "specialNameLabId": 6111,
    "icon": "UI_MonsterIcon_Monolith_Ordinator"
  },
  {
    "id": 48104,
    "nameTextMapHash": 973459312,
    "titleId": 6111,
    "specialNameLabId": 6111,
    "icon": "UI_MonsterIcon_Monolith_Ordinator"
  },
  {
    "id": 48105,
    "nameTextMapHash": 391056656,
    "titleId": 6111,
    "specialNameLabId": 6111,
    "icon": "UI_MonsterIcon_Monolith_Ordinator"
  },
  {
    "id": 48106,
    "nameTextMapHash": 693132112,
    "titleId": 6111,
    "specialNameLabId": 6111,
    "icon": "UI_MonsterIcon_Monolith_Ordinator"
  },
  {
    "id": 48107,
    "nameTextMapHash": 706010336,
    "titleId": 6111,
    "specialNameLabId": 6111,
    "icon": "UI_MonsterIcon_Monolith_Ordinator"
  },
  {
    "id": 48108,
    "nameTextMapHash": 3289322152,
    "titleId": 6111,
    "specialNameLabId": 6111,
    "icon": "UI_MonsterIcon_Monolith_Ordinator"
  },
  {
    "id": 48109,
    "nameTextMapHash": 4171513648,
    "titleId": 6111,
    "specialNameLabId": 6111,
    "icon": "UI_MonsterIcon_Monolith_Ordinator"
  },
  {
    "id": 48110,
    "nameTextMapHash": 146399424,
    "titleId": 6111,
    "specialNameLabId": 6111,
    "icon": "UI_MonsterIcon_Monolith_Ordinator"
  },
  {
    "id": 48111,
    "nameTextMapHash": 444889392,
    "titleId": 6111,
    "specialNameLabId": 6111,
    "icon": "UI_MonsterIcon_Monolith_Ordinator"
  },
  {
    "id": 49201,
    "nameTextMapHash": 1647913616,
    "titleId": 6111,
    "specialNameLabId": 6111,
    "icon": "UI_MonsterIcon_Monolith_Ordinator"
  },
  {
    "id": 49202,
    "nameTextMapHash": 2117269760,
    "titleId": 6112,
    "specialNameLabId": 6111,
    "icon": "UI_MonsterIcon_Monolith_Ordinator"
  },
  {
    "id": 49203,
    "nameTextMapHash": 652910120,
    "titleId": 6113,
    "specialNameLabId": 6111,
    "icon": "UI_MonsterIcon_Monolith_Ordinator"
  },
  {
    "id": 49901,
    "nameTextMapHash": 1390139448,
    "titleId": 6113,
    "specialNameLabId": 6111,
    "icon": "UI_MonsterIcon_Monolith_Ordinator"
  },
  {
    "id": 50101,
    "nameTextMapHash": 2720944320,
    "titleId": 7005,
    "specialNameLabId": 7005,
    "icon": "UI_MonsterIcon_Thoarder_Male_NoWeapon_01"
  },
  {
    "id": 50102,
    "nameTextMapHash": 3059200712,
    "titleId": 7001,
    "specialNameLabId": 7001,
    "icon": "UI_MonsterIcon_Thoarder_Male_Rogue_01"
  },
  {
    "id": 50103,
    "nameTextMapHash": 1087023424,
    "titleId": 7121,
    "specialNameLabId": 7001,
    "icon": "UI_MonsterIcon_Thoarder_Male_Chemist_Fire_01"
  },
  {
    "id": 50104,
    "nameTextMapHash": 3798548888,
    "titleId": 7122,
    "specialNameLabId": 7001,
    "icon": "UI_MonsterIcon_Thoarder_Male_Chemist_Water_01"
  },
  {
    "id": 50105,
    "nameTextMapHash": 1521590128,
    "titleId": 7123,
    "specialNameLabId": 7001,
    "icon": "UI_MonsterIcon_Thoarder_Male_Chemist_Electric_01"
  },
  {
    "id": 50106,
    "nameTextMapHash": 361009392,
    "titleId": 7124,
    "specialNameLabId": 7001,
    "icon": "UI_MonsterIcon_Thoarder_Male_Chemist_Ice_01"
  },
  {
    "id": 50107,
    "nameTextMapHash": 3123684272,
    "titleId": 7111,
    "specialNameLabId": 7001,
    "icon": "UI_MonsterIcon_Thoarder_Male_Rogue_Fat_01"
  },
  {
    "id": 50108,
    "nameTextMapHash": 2133536752,
    "titleId": 7121,
    "specialNameLabId": 7001,
    "icon": ""
  },
  {
    "id": 50201,
    "nameTextMapHash": 3627181320,
    "titleId": 7006,
    "specialNameLabId": 7006,
    "icon": "UI_MonsterIcon_Thoarder_Male_Crossbow_01"
  },
  {
    "id": 50202,
    "nameTextMapHash": 3413949720,
    "titleId": 7002,
    "specialNameLabId": 7001,
    "icon": "UI_MonsterIcon_Thoarder_Male_Hunter_01"
  },
  {
    "id": 50301,
    "nameTextMapHash": 531388104,
    "titleId": 7007,
    "specialNameLabId": 7007,
    "icon": "UI_MonsterIcon_Thoarder_Male_Shovel_01"
  },
  {
    "id": 50302,
    "nameTextMapHash": 28706096,
    "titleId": 7003,
    "specialNameLabId": 7001,
    "icon": "UI_MonsterIcon_Thoarder_Male_Rogue_Fat_02"
  },
  {
    "id": 50303,
    "nameTextMapHash": 1603081168,
    "titleId": 7112,
    "specialNameLabId": 7001,
    "icon": "UI_MonsterIcon_Thoarder_Male_Sailor_01"
  },
  {
    "id": 50401,
    "nameTextMapHash": 1914087968,
    "titleId": 7008,
    "specialNameLabId": 7008,
    "icon": "UI_MonsterIcon_Thoarder_Female_Hatchet_01"
  },
  {
    "id": 50501,
    "nameTextMapHash": 1541768712,
    "titleId": 7011,
    "specialNameLabId": 7011,
    "icon": "UI_MonsterIcon_Millelith_Male_01"
  },
  {
    "id": 50502,
    "nameTextMapHash": 4161693360,
    "titleId": 7012,
    "specialNameLabId": 7011,
    "icon": "UI_MonsterIcon_Millelith_Male_02"
  },
  {
    "id": 50503,
    "nameTextMapHash": 1175126584,
    "titleId": 7151,
    "specialNameLabId": 7151,
    "icon": "UI_MonsterIcon_Aahigaru_Male_01"
  },
  {
    "id": 50504,
    "nameTextMapHash": 1300846616,
    "titleId": 7152,
    "specialNameLabId": 7151,
    "icon": "UI_MonsterIcon_AahigaruTaisho_Male_01"
  },
  {
    "id": 50505,
    "nameTextMapHash": 2581117880,
    "titleId": 7153,
    "specialNameLabId": 7151,
    "icon": "UI_MonsterIcon_Millelith_Male_02"
  },
  {
    "id": 50601,
    "nameTextMapHash": 557874744,
    "titleId": 7131,
    "specialNameLabId": 7001,
    "icon": "UI_MonsterIcon_Thoarder_MuscleMan_Boxer_01"
  },
  {
    "id": 50602,
    "nameTextMapHash": 2178383936,
    "titleId": 7131,
    "specialNameLabId": 7001,
    "icon": "UI_MonsterIcon_Thoarder_MuscleMan_Boxer_01"
  },
  {
    "id": 50701,
    "nameTextMapHash": 2325739152,
    "titleId": 7132,
    "specialNameLabId": 7001,
    "icon": "UI_MonsterIcon_Thoarder_MuscleMan_Miner_01"
  },
  {
    "id": 50702,
    "nameTextMapHash": 4260216696,
    "titleId": 7006,
    "specialNameLabId": 7006,
    "icon": "UI_MonsterIcon_Thoarder_MuscleMan_Miner_01"
  },
  {
    "id": 50801,
    "nameTextMapHash": 2854295616,
    "titleId": 7141,
    "specialNameLabId": 7141,
    "icon": "UI_MonsterIcon_Samurai_Ronin_01"
  },
  {
    "id": 50802,
    "nameTextMapHash": 2410706536,
    "titleId": 7142,
    "specialNameLabId": 7141,
    "icon": "UI_MonsterIcon_Samurai_Ronin_02"
  },
  {
    "id": 50803,
    "nameTextMapHash": 628782592,
    "titleId": 7143,
    "specialNameLabId": 7141,
    "icon": "UI_MonsterIcon_Samurai_Ronin_03"
  },
  {
    "id": 50804,
    "nameTextMapHash": 2183303536,
    "titleId": 7146,
    "specialNameLabId": 7151,
    "icon": "UI_MonsterIcon_Samurai_Hatamoto_01"
  },
  {
    "id": 50901,
    "nameTextMapHash": 1759704776,
    "titleId": 7201,
    "specialNameLabId": 7201,
    "icon": "UI_MonsterIcon_Samurai_Ningyo"
  },
  {
    "id": 50902,
    "nameTextMapHash": 1312052256,
    "titleId": 10018,
    "specialNameLabId": 7201,
    "icon": "UI_MonsterIcon_Samurai_Ningyo_Wind"
  },
  {
    "id": 50903,
    "nameTextMapHash": 2743685832,
    "titleId": 10019,
    "specialNameLabId": 7201,
    "icon": "UI_MonsterIcon_Samurai_Ningyo_Ice"
  },
  {
    "id": 50904,
    "nameTextMapHash": 2823011544,
    "titleId": 10020,
    "specialNameLabId": 7201,
    "icon": "UI_MonsterIcon_Samurai_Ningyo_Mask"
  },
  {
    "id": 51001,
    "nameTextMapHash": 756201560,
    "titleId": 7144,
    "specialNameLabId": 7141,
    "icon": "UI_MonsterIcon_Samurai_Kairagi_01"
  },
  {
    "id": 51002,
    "nameTextMapHash": 2117605600,
    "titleId": 7145,
    "specialNameLabId": 7141,
    "icon": "UI_MonsterIcon_Samurai_Kairagi_02"
  },
  {
    "id": 51003,
    "nameTextMapHash": 3213672968,
    "titleId": 7147,
    "specialNameLabId": 7147,
    "icon": "UI_MonsterIcon_Samurai_Kairagi_01"
  },
  {
    "id": 51004,
    "nameTextMapHash": 3794652600,
    "titleId": 7148,
    "specialNameLabId": 7148,
    "icon": "UI_MonsterIcon_Samurai_Kairagi_02"
  },
  {
    "id": 51101,
    "nameTextMapHash": 1974811384,
    "titleId": 7335,
    "specialNameLabId": 7335,
    "icon": "UI_MonsterIcon_Eremite_Male_Strong_Katar"
  },
  {
    "id": 51102,
    "nameTextMapHash": 212096752,
    "titleId": 7334,
    "specialNameLabId": 7334,
    "icon": "UI_MonsterIcon_Eremite_Female_Standard_Longbow"
  },
  {
    "id": 51103,
    "nameTextMapHash": 1475388712,
    "titleId": 7336,
    "specialNameLabId": 7336,
    "icon": "UI_MonsterIcon_Samurai_Kairagi_05"
  },
  {
    "id": 51104,
    "nameTextMapHash": 2282634880,
    "titleId": 7337,
    "specialNameLabId": 7337,
    "icon": "UI_MonsterIcon_Samurai_Kairagi_05"
  },
  {
    "id": 52101,
    "nameTextMapHash": 4033438760,
    "titleId": 7301,
    "specialNameLabId": 7301,
    "icon": "UI_MonsterIcon_Eremite_Female_Hatchet"
  },
  {
    "id": 52102,
    "nameTextMapHash": 570914008,
    "titleId": 7302,
    "specialNameLabId": 7301,
    "icon": "UI_MonsterIcon_Eremite_Male_Standard_Crossbow"
  },
  {
    "id": 52103,
    "nameTextMapHash": 208498888,
    "titleId": 7303,
    "specialNameLabId": 7301,
    "icon": "UI_MonsterIcon_Eremite_Male_Standard_Pole"
  },
  {
    "id": 52104,
    "nameTextMapHash": 941545672,
    "titleId": 7304,
    "specialNameLabId": 7301,
    "icon": "UI_MonsterIcon_Eremite_MuscleMan_Gloves"
  },
  {
    "id": 52105,
    "nameTextMapHash": 2346894216,
    "titleId": 7305,
    "specialNameLabId": 7301,
    "icon": "UI_MonsterIcon_Eremite_MuscleMan_Simitar"
  },
  {
    "id": 52106,
    "nameTextMapHash": 2817463448,
    "titleId": 7201,
    "specialNameLabId": 7001,
    "icon": "UI_MonsterIcon_Thoarder_Male_Rogue_01"
  },
  {
    "id": 53101,
    "nameTextMapHash": 2370874928,
    "titleId": 7311,
    "specialNameLabId": 7311,
    "icon": "UI_MonsterIcon_Eremite_Female_Slim_PushDagger"
  },
  {
    "id": 53102,
    "nameTextMapHash": 3916342008,
    "titleId": 7321,
    "specialNameLabId": 7321,
    "icon": "UI_MonsterIcon_Eremite_Male_Standard_Glaive"
  },
  {
    "id": 53103,
    "nameTextMapHash": 3814441896,
    "titleId": 7331,
    "specialNameLabId": 7331,
    "icon": "UI_MonsterIcon_Eremite_Male_Standard_Polearm"
  },
  {
    "id": 54101,
    "nameTextMapHash": 3908443880,
    "titleId": 7332,
    "specialNameLabId": 7332,
    "icon": "UI_MonsterIcon_Eremite_Male_Strong_Katar"
  },
  {
    "id": 54102,
    "nameTextMapHash": 4217422888,
    "titleId": 7333,
    "specialNameLabId": 7333,
    "icon": "UI_MonsterIcon_Eremite_Female_Standard_Longbow"
  },
  {
    "id": 54103,
    "nameTextMapHash": 2089267960,
    "titleId": 7338,
    "specialNameLabId": 7338,
    "icon": "UI_MonsterIcon_Eremite_Female_Standard_Oracle"
  },
  {
    "id": 54104,
    "nameTextMapHash": 1917817184,
    "titleId": 7339,
    "specialNameLabId": 7339,
    "icon": "UI_MonsterIcon_Eremite_Female_Standard_Dancer"
  },
  {
    "id": 55001,
    "nameTextMapHash": 3423801600,
    "titleId": 7341,
    "specialNameLabId": 7341,
    "icon": "UI_MonsterIcon_Human_Female_NoWeapon_Mosasaurus"
  },
  {
    "id": 55011,
    "nameTextMapHash": 33272336,
    "titleId": 7343,
    "specialNameLabId": 7341,
    "icon": "UI_MonsterIcon_Human_Female_NoWeapon_Drillhead"
  },
  {
    "id": 55012,
    "nameTextMapHash": 1939260552,
    "titleId": 7344,
    "specialNameLabId": 7341,
    "icon": "UI_MonsterIcon_Human_Female_Sword_Hookwalker"
  },
  {
    "id": 55021,
    "nameTextMapHash": 2970321712,
    "titleId": 7347,
    "specialNameLabId": 7341,
    "icon": "UI_MonsterIcon_Human_Male_Sword_Hookwalker"
  },
  {
    "id": 55022,
    "nameTextMapHash": 930914872,
    "titleId": 7348,
    "specialNameLabId": 7341,
    "icon": "UI_MonsterIcon_Human_Male_Sword_Mosasaurus"
  },
  {
    "id": 55031,
    "nameTextMapHash": 2389441328,
    "titleId": 7351,
    "specialNameLabId": 7341,
    "icon": "UI_MonsterIcon_Human_Male_Claymore_Hookwalker"
  },
  {
    "id": 55041,
    "nameTextMapHash": 865186872,
    "titleId": 7353,
    "specialNameLabId": 7341,
    "icon": "UI_MonsterIcon_Human_MuscleMan_Claymore_Drillhead"
  },
  {
    "id": 55051,
    "nameTextMapHash": 3015752280,
    "titleId": 7356,
    "specialNameLabId": 7341,
    "icon": "UI_MonsterIcon_Human_Fat_NoWeapon_Drillhead"
  },
  {
    "id": 55052,
    "nameTextMapHash": 1683433088,
    "titleId": 7357,
    "specialNameLabId": 7341,
    "icon": "UI_MonsterIcon_Human_Fat_NoWeapon_Mosasaurus"
  },
  {
    "id": 55101,
    "nameTextMapHash": 2164040840,
    "titleId": 7361,
    "specialNameLabId": 7361,
    "icon": "UI_MonsterIcon_Tribalwarrior_Powermaul_Drillhead"
  },
  {
    "id": 55102,
    "nameTextMapHash": 3398657488,
    "titleId": 7362,
    "specialNameLabId": 7361,
    "icon": "UI_MonsterIcon_Tribalwarrior_Chainsword_Drillhead"
  },
  {
    "id": 55103,
    "nameTextMapHash": 3668070360,
    "titleId": 7363,
    "specialNameLabId": 7361,
    "icon": "UI_MonsterIcon_Tribalwarrior_Chainsword_Hookwalker"
  },
  {
    "id": 55104,
    "nameTextMapHash": 2621932064,
    "titleId": 7364,
    "specialNameLabId": 7361,
    "icon": "UI_MonsterIcon_Tribalwarrior_Launcher_Hookwalker"
  },
  {
    "id": 55105,
    "nameTextMapHash": 2325681400,
    "titleId": 7365,
    "specialNameLabId": 7361,
    "icon": "UI_MonsterIcon_Tribalwarrior_Slingshot_Mosasaurus"
  },
  {
    "id": 55106,
    "nameTextMapHash": 2156885544,
    "titleId": 7366,
    "specialNameLabId": 7361,
    "icon": "UI_MonsterIcon_Tribalwarrior_Launcher_Mosasaurus"
  },
  {
    "id": 55151,
    "nameTextMapHash": 957577384,
    "titleId": 8088,
    "specialNameLabId": 8088,
    "icon": "UI_MonsterIcon_Tribalwarrior_Chainsword_Drillhead"
  },
  {
    "id": 55152,
    "nameTextMapHash": 868772016,
    "titleId": 8088,
    "specialNameLabId": 8088,
    "icon": "UI_MonsterIcon_Tribalwarrior_Slingshot_Mosasaurus"
  },
  {
    "id": 55153,
    "nameTextMapHash": 3688215704,
    "titleId": 8088,
    "specialNameLabId": 8088,
    "icon": "UI_MonsterIcon_Tribalwarrior_Launcher_Hookwalker"
  },
  {
    "id": 55154,
    "nameTextMapHash": 3614015536,
    "titleId": 8088,
    "specialNameLabId": 8088,
    "icon": "UI_MonsterIcon_Thoarder_MuscleMan_Miner_01"
  },
  {
    "id": 55161,
    "nameTextMapHash": 897409496,
    "titleId": 8088,
    "specialNameLabId": 8088,
    "icon": "UI_MonsterIcon_Thoarder_MuscleMan_Miner_01"
  },
  {
    "id": 55501,
    "nameTextMapHash": 639804048,
    "titleId": 7359,
    "specialNameLabId": 9001,
    "icon": "UI_MonsterIcon_Thoarder_MuscleMan_Miner_01"
  },
  {
    "id": 55502,
    "nameTextMapHash": 407763552,
    "titleId": 7359,
    "specialNameLabId": 9001,
    "icon": "UI_MonsterIcon_Thoarder_MuscleMan_Miner_01"
  },
  {
    "id": 55503,
    "nameTextMapHash": 3712503560,
    "titleId": 7359,
    "specialNameLabId": 9001,
    "icon": "UI_MonsterIcon_Thoarder_MuscleMan_Miner_01"
  },
  {
    "id": 55504,
    "nameTextMapHash": 2239307744,
    "titleId": 7359,
    "specialNameLabId": 9001,
    "icon": "UI_MonsterIcon_Thoarder_MuscleMan_Miner_01"
  },
  {
    "id": 55505,
    "nameTextMapHash": 3182223264,
    "titleId": 7359,
    "specialNameLabId": 9001,
    "icon": "UI_MonsterIcon_Thoarder_MuscleMan_Miner_01"
  },
  {
    "id": 55506,
    "nameTextMapHash": 256851160,
    "titleId": 7359,
    "specialNameLabId": 9001,
    "icon": "UI_MonsterIcon_Thoarder_MuscleMan_Miner_01"
  },
  {
    "id": 55507,
    "nameTextMapHash": 3215220872,
    "titleId": 8088,
    "specialNameLabId": 8088,
    "icon": "UI_MonsterIcon_Thoarder_MuscleMan_Miner_01"
  },
  {
    "id": 60101,
    "nameTextMapHash": 883066616,
    "titleId": 2101,
    "specialNameLabId": 2101,
    "icon": "UI_MonsterIcon_Mimik_Ice"
  },
  {
    "id": 60102,
    "nameTextMapHash": 516009168,
    "titleId": 2102,
    "specialNameLabId": 2101,
    "icon": "UI_MonsterIcon_Mimik_Fire"
  },
  {
    "id": 60103,
    "nameTextMapHash": 235094848,
    "titleId": 2103,
    "specialNameLabId": 2101,
    "icon": "UI_MonsterIcon_Mimik_Electric"
  },
  {
    "id": 60201,
    "nameTextMapHash": 1058177408,
    "titleId": 2111,
    "specialNameLabId": 2111,
    "icon": "UI_MonsterIcon_Regisvine_Ice"
  },
  {
    "id": 60202,
    "nameTextMapHash": 184117072,
    "titleId": 2112,
    "specialNameLabId": 2112,
    "icon": "UI_MonsterIcon_Regisvine_Fire"
  },
  {
    "id": 60203,
    "nameTextMapHash": 3366866392,
    "titleId": 2113,
    "specialNameLabId": 2113,
    "icon": "UI_MonsterIcon_Regisvine_Electric"
  },
  {
    "id": 60301,
    "nameTextMapHash": 2176598456,
    "titleId": 8001,
    "specialNameLabId": 8001,
    "icon": "UI_MonsterIcon_Wyrm_Rock"
  },
  {
    "id": 60401,
    "nameTextMapHash": 94524776,
    "titleId": 8002,
    "specialNameLabId": 8002,
    "icon": "UI_MonsterIcon_Drake_Rock"
  },
  {
    "id": 60402,
    "nameTextMapHash": 1195283304,
    "titleId": 8002,
    "specialNameLabId": 8002,
    "icon": "UI_MonsterIcon_Drake_Rock"
  },
  {
    "id": 60403,
    "nameTextMapHash": 218690344,
    "titleId": 8002,
    "specialNameLabId": 8002,
    "icon": "UI_MonsterIcon_Drake_Rock"
  },
  {
    "id": 60501,
    "nameTextMapHash": 1057217072,
    "titleId": 8003,
    "specialNameLabId": 8003,
    "icon": "UI_MonsterIcon_Drake_Primo_Rock"
  },
  {
    "id": 60502,
    "nameTextMapHash": 2889994600,
    "titleId": 8003,
    "specialNameLabId": 8003,
    "icon": "UI_MonsterIcon_Drake_Primo_Rock"
  },
  {
    "id": 60503,
    "nameTextMapHash": 2849885272,
    "titleId": 8003,
    "specialNameLabId": 8003,
    "icon": "UI_MonsterIcon_Drake_Primo_Rock"
  },
  {
    "id": 60504,
    "nameTextMapHash": 118494128,
    "titleId": 8003,
    "specialNameLabId": 8003,
    "icon": "UI_MonsterIcon_Drake_Primo_Rock"
  },
  {
    "id": 60506,
    "nameTextMapHash": 2607892752,
    "titleId": 8004,
    "specialNameLabId": 8004,
    "icon": "UI_MonsterIcon_Drake_Deepsea_Water"
  },
  {
    "id": 60507,
    "nameTextMapHash": 1409593464,
    "titleId": 8005,
    "specialNameLabId": 8004,
    "icon": "UI_MonsterIcon_Drake_Deepsea_Ice"
  },
  {
    "id": 60508,
    "nameTextMapHash": 780741856,
    "titleId": 8006,
    "specialNameLabId": 8004,
    "icon": "UI_MonsterIcon_Drake_Deepsea_Electric"
  },
  {
    "id": 60509,
    "nameTextMapHash": 3368753712,
    "titleId": 8004,
    "specialNameLabId": 8004,
    "icon": "UI_MonsterIcon_Drake_Deepsea_Water"
  },
  {
    "id": 60510,
    "nameTextMapHash": 2861452928,
    "titleId": 8005,
    "specialNameLabId": 8004,
    "icon": "UI_MonsterIcon_Drake_Deepsea_Ice"
  },
  {
    "id": 60511,
    "nameTextMapHash": 3992097400,
    "titleId": 8006,
    "specialNameLabId": 8004,
    "icon": "UI_MonsterIcon_Drake_Deepsea_Electric"
  },
  {
    "id": 60512,
    "nameTextMapHash": 2327317008,
    "titleId": 8004,
    "specialNameLabId": 8004,
    "icon": "UI_MonsterIcon_Drake_Deepsea_Water"
  },
  {
    "id": 60601,
    "nameTextMapHash": 2662118744,
    "titleId": 1101,
    "specialNameLabId": 1101,
    "icon": "UI_MonsterIcon_Cicin_Thunder_01"
  },
  {
    "id": 60602,
    "nameTextMapHash": 5464472,
    "titleId": 1102,
    "specialNameLabId": 1102,
    "icon": "UI_MonsterIcon_Cicin_Water_01"
  },
  {
    "id": 60603,
    "nameTextMapHash": 1902456384,
    "titleId": 1103,
    "specialNameLabId": 1103,
    "icon": "UI_MonsterIcon_Cicin_Ice_01"
  },
  {
    "id": 60801,
    "nameTextMapHash": 4026370056,
    "titleId": 8011,
    "specialNameLabId": 10001,
    "icon": "UI_MonsterIcon_Cicin_Ice_01"
  },
  {
    "id": 60901,
    "nameTextMapHash": 2148393144,
    "titleId": 8021,
    "specialNameLabId": 8021,
    "icon": "UI_MonsterIcon_Fungus_Un_Gamma_Water"
  },
  {
    "id": 60902,
    "nameTextMapHash": 1307880752,
    "titleId": 8022,
    "specialNameLabId": 8021,
    "icon": "UI_MonsterIcon_Fungus_Un_Delta_Grass"
  },
  {
    "id": 60903,
    "nameTextMapHash": 3688247560,
    "titleId": 8023,
    "specialNameLabId": 8021,
    "icon": "UI_MonsterIcon_Fungus_Un_Delta_Wind"
  },
  {
    "id": 60904,
    "nameTextMapHash": 4191543160,
    "titleId": 8024,
    "specialNameLabId": 8022,
    "icon": "UI_MonsterIcon_Fungus_Trois_Epsilon_Electric"
  },
  {
    "id": 60905,
    "nameTextMapHash": 4127966472,
    "titleId": 8025,
    "specialNameLabId": 8022,
    "icon": "UI_MonsterIcon_Fungus_Trois_Alpha_Ice"
  },
  {
    "id": 60906,
    "nameTextMapHash": 1899331960,
    "titleId": 8026,
    "specialNameLabId": 8022,
    "icon": "UI_MonsterIcon_Fungus_Trois_Gamma_Fire"
  },
  {
    "id": 60907,
    "nameTextMapHash": 3502126912,
    "titleId": 8027,
    "specialNameLabId": 8023,
    "icon": "UI_MonsterIcon_Fungus_Deux_Alpha_Fire"
  },
  {
    "id": 60908,
    "nameTextMapHash": 2124724528,
    "titleId": 8028,
    "specialNameLabId": 8023,
    "icon": "UI_MonsterIcon_Fungus_Deux_Epsilon_Wind"
  },
  {
    "id": 60909,
    "nameTextMapHash": 2193662336,
    "titleId": 8029,
    "specialNameLabId": 8023,
    "icon": "UI_MonsterIcon_Fungus_Deux_Beta_Rock"
  },
  {
    "id": 60910,
    "nameTextMapHash": 3419745752,
    "titleId": 8030,
    "specialNameLabId": 8023,
    "icon": "UI_MonsterIcon_Fungus_Deux_Delta_Electric"
  },
  {
    "id": 61001,
    "nameTextMapHash": 2762852304,
    "titleId": 8054,
    "specialNameLabId": 8054,
    "icon": "UI_MonsterIcon_Gator_Sacred_Water"
  },
  {
    "id": 61002,
    "nameTextMapHash": 3698647272,
    "titleId": 8055,
    "specialNameLabId": 8055,
    "icon": "UI_MonsterIcon_Panther_Sacred_Grass"
  },
  {
    "id": 61003,
    "nameTextMapHash": 471079112,
    "titleId": 8051,
    "specialNameLabId": 8051,
    "icon": "UI_MonsterIcon_Vulture_Sacred_Fire"
  },
  {
    "id": 61004,
    "nameTextMapHash": 2093292568,
    "titleId": 8052,
    "specialNameLabId": 8052,
    "icon": "UI_MonsterIcon_Scorpion_Sacred_Electric"
  },
  {
    "id": 61005,
    "nameTextMapHash": 2495079336,
    "titleId": 8053,
    "specialNameLabId": 8053,
    "icon": "UI_MonsterIcon_Chrysopelea_Sacred_Wind"
  },
  {
    "id": 61101,
    "nameTextMapHash": 1551254368,
    "titleId": 8041,
    "specialNameLabId": 8041,
    "icon": "UI_MonsterIcon_Fungus_Raptor"
  },
  {
    "id": 61201,
    "nameTextMapHash": 3206484936,
    "titleId": 8031,
    "specialNameLabId": 8031,
    "icon": "UI_MonsterIcon_Fungus_Amanita_Unu_Anudatta_Grass"
  },
  {
    "id": 61202,
    "nameTextMapHash": 3547346360,
    "titleId": 8032,
    "specialNameLabId": 8031,
    "icon": "UI_MonsterIcon_Fungus_Amanita_Unu_Svarita_Ice"
  },
  {
    "id": 61203,
    "nameTextMapHash": 3396957208,
    "titleId": 8033,
    "specialNameLabId": 8031,
    "icon": "UI_MonsterIcon_Fungus_Amanita_Du_Anudatta_Water"
  },
  {
    "id": 61204,
    "nameTextMapHash": 46325200,
    "titleId": 8034,
    "specialNameLabId": 8031,
    "icon": "UI_MonsterIcon_Fungus_Amanita_Du_Udatta_Rock"
  },
  {
    "id": 61301,
    "nameTextMapHash": 4140228680,
    "titleId": 8045,
    "specialNameLabId": 8045,
    "icon": "UI_MonsterIcon_Sandworm"
  },
  {
    "id": 61401,
    "nameTextMapHash": 3250212056,
    "titleId": 8086,
    "specialNameLabId": 8086,
    "icon": "UI_MonsterIcon_Golem_Centaur"
  },
  {
    "id": 61402,
    "nameTextMapHash": 1323518088,
    "titleId": 8087,
    "specialNameLabId": 8087,
    "icon": "UI_MonsterIcon_Golem_Legion"
  },
  {
    "id": 61510,
    "nameTextMapHash": 1540072464,
    "titleId": 8061,
    "specialNameLabId": 8061,
    "icon": "UI_MonsterIcon_MantaRay_Larva_01"
  },
  {
    "id": 61511,
    "nameTextMapHash": 406666840,
    "titleId": 8061,
    "specialNameLabId": 8061,
    "icon": "UI_MonsterIcon_MantaRay_Larva_02"
  },
  {
    "id": 61521,
    "nameTextMapHash": 1684159544,
    "titleId": 8062,
    "specialNameLabId": 8061,
    "icon": "UI_MonsterIcon_HermitCrab_Larva_01"
  },
  {
    "id": 61522,
    "nameTextMapHash": 1876836496,
    "titleId": 8062,
    "specialNameLabId": 8061,
    "icon": "UI_MonsterIcon_HermitCrab_Larva_02"
  },
  {
    "id": 61531,
    "nameTextMapHash": 1164130192,
    "titleId": 8063,
    "specialNameLabId": 8061,
    "icon": "UI_MonsterIcon_Seal_Larva_01"
  },
  {
    "id": 61541,
    "nameTextMapHash": 2955045776,
    "titleId": 8064,
    "specialNameLabId": 8061,
    "icon": "UI_MonsterIcon_JellyFish_Larva_01"
  },
  {
    "id": 61542,
    "nameTextMapHash": 2145912744,
    "titleId": 8064,
    "specialNameLabId": 8061,
    "icon": "UI_MonsterIcon_JellyFish_Larva_02"
  },
  {
    "id": 61551,
    "nameTextMapHash": 2552310592,
    "titleId": 8065,
    "specialNameLabId": 8061,
    "icon": "UI_MonsterIcon_SeaHorse_Larva_01"
  },
  {
    "id": 61552,
    "nameTextMapHash": 2493399008,
    "titleId": 8065,
    "specialNameLabId": 8061,
    "icon": "UI_MonsterIcon_SeaHorse_Larva_02"
  },
  {
    "id": 61553,
    "nameTextMapHash": 297536392,
    "titleId": 8065,
    "specialNameLabId": 8061,
    "icon": "UI_MonsterIcon_SeaHorse_Larva_03"
  },
  {
    "id": 61561,
    "nameTextMapHash": 2667392352,
    "titleId": 8066,
    "specialNameLabId": 8061,
    "icon": "UI_MonsterIcon_Octopus_Larva_01"
  },
  {
    "id": 61562,
    "nameTextMapHash": 2227292832,
    "titleId": 8066,
    "specialNameLabId": 8061,
    "icon": "UI_MonsterIcon_Octopus_Larva_02"
  },
  {
    "id": 61571,
    "nameTextMapHash": 3467903536,
    "titleId": 8067,
    "specialNameLabId": 8061,
    "icon": "UI_MonsterIcon_Aplysia_Larva_01"
  },
  {
    "id": 61572,
    "nameTextMapHash": 2979417520,
    "titleId": 8067,
    "specialNameLabId": 8061,
    "icon": "UI_MonsterIcon_Aplysia_Larva_02"
  },
  {
    "id": 61601,
    "nameTextMapHash": 654631136,
    "titleId": 8071,
    "specialNameLabId": 8061,
    "icon": "UI_MonsterIcon_HermitCrab_Mature"
  },
  {
    "id": 61602,
    "nameTextMapHash": 4031845888,
    "titleId": 8072,
    "specialNameLabId": 8061,
    "icon": "UI_MonsterIcon_Aplysia_Mature"
  },
  {
    "id": 61603,
    "nameTextMapHash": 597164232,
    "titleId": 8073,
    "specialNameLabId": 8061,
    "icon": "UI_MonsterIcon_SeaHorse_Mature"
  },
  {
    "id": 61621,
    "nameTextMapHash": 1008315040,
    "titleId": 8062,
    "specialNameLabId": 8061,
    "icon": "UI_MonsterIcon_HermitCrab_Mature_02"
  },
  {
    "id": 61622,
    "nameTextMapHash": 2197390984,
    "titleId": 8061,
    "specialNameLabId": 8061,
    "icon": "UI_MonsterIcon_MantaRay_Larva_03"
  },
  {
    "id": 61623,
    "nameTextMapHash": 3222616904,
    "titleId": 8063,
    "specialNameLabId": 8061,
    "icon": "UI_MonsterIcon_Seal_Larva_02"
  },
  {
    "id": 61624,
    "nameTextMapHash": 2597609624,
    "titleId": 8072,
    "specialNameLabId": 8061,
    "icon": "UI_MonsterIcon_Aplysia_Mature"
  },
  {
    "id": 61625,
    "nameTextMapHash": 1353174704,
    "titleId": 10238,
    "specialNameLabId": 8061,
    "icon": "UI_MonsterIcon_Aplysia_Mature"
  },
  {
    "id": 61701,
    "nameTextMapHash": 2025251152,
    "titleId": 8081,
    "specialNameLabId": 8081,
    "icon": "UI_MonsterIcon_HermitCrab_Primo"
  },
  {
    "id": 61801,
    "nameTextMapHash": 1979419840,
    "titleId": 8082,
    "specialNameLabId": 8082,
    "icon": "UI_MonsterIcon_SeaHorse_Primo_Electric"
  },
  {
    "id": 61901,
    "nameTextMapHash": 3892364272,
    "titleId": 8084,
    "specialNameLabId": 8084,
    "icon": "UI_MonsterIcon_Hermit"
  },
  {
    "id": 61902,
    "nameTextMapHash": 1200705960,
    "titleId": 8085,
    "specialNameLabId": 8085,
    "icon": "UI_MonsterIcon_Striped"
  },
  {
    "id": 62001,
    "nameTextMapHash": 2094013856,
    "titleId": 8091,
    "specialNameLabId": 8091,
    "icon": "UI_MonsterIcon_Natsaurus_Drillhead_Small"
  },
  {
    "id": 62002,
    "nameTextMapHash": 2707723824,
    "titleId": 8092,
    "specialNameLabId": 8091,
    "icon": "UI_MonsterIcon_Natsaurus_Drillhead_Normal"
  },
  {
    "id": 62101,
    "nameTextMapHash": 3675450512,
    "titleId": 8093,
    "specialNameLabId": 8091,
    "icon": "UI_MonsterIcon_Natsaurus_Mosasaurus_Small"
  },
  {
    "id": 62102,
    "nameTextMapHash": 70228952,
    "titleId": 8094,
    "specialNameLabId": 8091,
    "icon": "UI_MonsterIcon_Natsaurus_Mosasaurus_Normal"
  },
  {
    "id": 62201,
    "nameTextMapHash": 3061287512,
    "titleId": 8095,
    "specialNameLabId": 8091,
    "icon": "UI_MonsterIcon_Natsaurus_Hookwalker_Small"
  },
  {
    "id": 62202,
    "nameTextMapHash": 1633214416,
    "titleId": 8096,
    "specialNameLabId": 8091,
    "icon": "UI_MonsterIcon_Natsaurus_Hookwalker_Normal"
  },
  {
    "id": 62203,
    "nameTextMapHash": 1628545064,
    "titleId": 8111,
    "specialNameLabId": 8111,
    "icon": "UI_MonsterIcon_Natsaurus_Hookwalker_Primo"
  },
  {
    "id": 62303,
    "nameTextMapHash": 413619280,
    "titleId": 8112,
    "specialNameLabId": 8112,
    "icon": "UI_MonsterIcon_Natsaurus_Flamingo_Primo"
  },
  {
    "id": 62601,
    "nameTextMapHash": 636886936,
    "titleId": 8121,
    "specialNameLabId": 8121,
    "icon": "UI_MonsterIcon_Wayob_Drillhead"
  },
  {
    "id": 62602,
    "nameTextMapHash": 3730683016,
    "titleId": 8122,
    "specialNameLabId": 8121,
    "icon": "UI_MonsterIcon_Wayob_Mosasaurus"
  },
  {
    "id": 62603,
    "nameTextMapHash": 2032996200,
    "titleId": 8123,
    "specialNameLabId": 8121,
    "icon": "UI_MonsterIcon_Wayob_Hookwalker"
  },
  {
    "id": 62604,
    "nameTextMapHash": 2316114856,
    "titleId": 8121,
    "specialNameLabId": 8121,
    "icon": "UI_MonsterIcon_Wayob_Drillhead"
  },
  {
    "id": 62605,
    "nameTextMapHash": 1795208920,
    "titleId": 8122,
    "specialNameLabId": 8121,
    "icon": "UI_MonsterIcon_Wayob_Mosasaurus"
  },
  {
    "id": 62606,
    "nameTextMapHash": 190145600,
    "titleId": 8123,
    "specialNameLabId": 8121,
    "icon": "UI_MonsterIcon_Wayob_Hookwalker"
  },
  {
    "id": 62701,
    "nameTextMapHash": 1380586696,
    "titleId": 8131,
    "specialNameLabId": 8131,
    "icon": "UI_MonsterIcon_Lava_Liquid"
  },
  {
    "id": 62702,
    "nameTextMapHash": 3620410352,
    "titleId": 8132,
    "specialNameLabId": 8131,
    "icon": "UI_MonsterIcon_Lava_Solid"
  },
  {
    "id": 80226,
    "nameTextMapHash": 3233941200,
    "titleId": 8088,
    "specialNameLabId": 8088,
    "icon": "UI_MonsterIcon_Raijin"
  },
  {
    "id": 90101,
    "nameTextMapHash": 390703016,
    "titleId": 101,
    "specialNameLabId": 101,
    "icon": "UI_MonsterIcon_Dvalin"
  },
  {
    "id": 90201,
    "nameTextMapHash": 1869267944,
    "titleId": 111,
    "specialNameLabId": 111,
    "icon": "UI_MonsterIcon_LupiBoreas"
  },
  {
    "id": 90301,
    "nameTextMapHash": 2530909488,
    "titleId": 121,
    "specialNameLabId": 121,
    "icon": "UI_MonsterIcon_Tartaglia"
  },
  {
    "id": 90401,
    "nameTextMapHash": 3423290768,
    "titleId": 131,
    "specialNameLabId": 131,
    "icon": "UI_MonsterIcon_Dahaka"
  },
  {
    "id": 90501,
    "nameTextMapHash": 1726738920,
    "titleId": 141,
    "specialNameLabId": 141,
    "icon": "UI_MonsterIcon_LaSignora"
  },
  {
    "id": 90601,
    "nameTextMapHash": 1928397248,
    "titleId": 151,
    "specialNameLabId": 151,
    "icon": "UI_MonsterIcon_Shougun_Mitakenarukami"
  },
  {
    "id": 90602,
    "nameTextMapHash": 976885856,
    "titleId": 153,
    "specialNameLabId": 153,
    "icon": "UI_MonsterIcon_Shougun_Mitakenarukami"
  },
  {
    "id": 90701,
    "nameTextMapHash": 2221926632,
    "titleId": 161,
    "specialNameLabId": 161,
    "icon": "UI_MonsterIcon_Nada"
  },
  {
    "id": 90801,
    "nameTextMapHash": 3115382544,
    "titleId": 171,
    "specialNameLabId": 171,
    "icon": "UI_MonsterIcon_Apep"
  },
  {
    "id": 90802,
    "nameTextMapHash": 1638498832,
    "titleId": 171,
    "specialNameLabId": 171,
    "icon": "UI_MonsterIcon_Hili_None_01"
  },
  {
    "id": 90803,
    "nameTextMapHash": 1151284056,
    "titleId": 171,
    "specialNameLabId": 171,
    "icon": "UI_MonsterIcon_Hili_None_01"
  },
  {
    "id": 90804,
    "nameTextMapHash": 1258525040,
    "titleId": 171,
    "specialNameLabId": 171,
    "icon": "UI_MonsterIcon_Hili_None_01"
  },
  {
    "id": 90805,
    "nameTextMapHash": 1663159512,
    "titleId": 171,
    "specialNameLabId": 171,
    "icon": "UI_MonsterIcon_Hili_None_01"
  },
  {
    "id": 90806,
    "nameTextMapHash": 4179505856,
    "titleId": 171,
    "specialNameLabId": 171,
    "icon": "UI_MonsterIcon_Hili_None_01"
  },
  {
    "id": 90807,
    "nameTextMapHash": 1154097192,
    "titleId": 171,
    "specialNameLabId": 171,
    "icon": "UI_MonsterIcon_Hili_None_01"
  },
  {
    "id": 90901,
    "nameTextMapHash": 2530298840,
    "titleId": 181,
    "specialNameLabId": 181,
    "icon": "UI_MonsterIcon_Ptahur_Devourer"
  },
  {
    "id": 90902,
    "nameTextMapHash": 3075407664,
    "titleId": 181,
    "specialNameLabId": 181,
    "icon": "UI_MonsterIcon_Hili_None_01"
  },
  {
    "id": 90903,
    "nameTextMapHash": 3863245096,
    "titleId": 181,
    "specialNameLabId": 181,
    "icon": "UI_MonsterIcon_Hili_None_01"
  },
  {
    "id": 91001,
    "nameTextMapHash": 4146578024,
    "titleId": 191,
    "specialNameLabId": 191,
    "icon": "UI_MonsterIcon_Nihil"
  }
]