{
  "common": {
    "effectAttachShape": {
      "$type": "FJNPJANPGGC",
      "mesh": "EffectMesh"
    },
    "mass": 10.0,
    "height": 1.5984700918197632,
    "modelHeight": 1.5800000429153442,
    "affectedByWorld": true,
    "checkInSurface": true
  },
  "headControl": {
    "$type": "KPIPDEBDPIH",
    "useHeadControl": true,
    "animStates": [
      "NormalStandby",
      "NormalMove/WalkToRun",
      "NormalMove/Walk",
      "NormalMove/RunToWalk",
      "NormalMove/Run",
      "NormalMove/RunToIdle",
      "NormalMove/WalkToIdle",
      "NormalMove/RunningTurn",
      "NormalMove/SprintToRun",
      "NormalMove/SprintToIdle",
      "Sprint",
      "Climb/ClimbIdle",
      "Ladder/LadderIdle",
      "Swim/SwimIdle",
      "NormalStandbyWeapon",
      "NormalMoveWeapon/WalkToRunWeapon",
      "NormalMoveWeapon/WalkWeapon",
      "NormalMoveWeapon/RunToWalkWeapon",
      "NormalMoveWeapon/RunWeapon",
      "NormalMoveWeapon/RunToIdleWeapon",
      "NormalMoveWeapon/WalkToIdleWeapon",
      "NormalMoveWeapon/RunningTurnWeapon"
    ]
  },
  "specialPoint": {
    "elementAbsorb": "PRIVATE_Pendant",
    "elementPendant": "PRIVATE_Pendant",
    "elementDrop": "RootNode",
    "bulletAim": "RootNode"
  },
  "combat": {
    "property": {
      "endureType": "Avatar_Claymore",
      "weight": 75.0
    },
    "beHit": {
      "hitBloodEffect": ""
    },
    "combatLock": {
      "lockShape": "CircleLockEnemyClose",
      "lockWeightYaxisParam": 0.20000000298023224,
      "lockWeightYaxisThreshold": 2.0,
      "lockType": "Avatar&Monster_Lv4"
    },
    "die": {
      "hasAnimatorDie": true,
      "dieEndTime": 1.5,
      "dieForceDisappearTime": 2.5,
      "dieDisappearEffect": "Eff_Death_Avatar_Common",
      "dieShaderData": "AvatarDie",
      "useRagDoll": true,
      "ragDollDieEndTimeDelay": 0.4000000059604645
    },
    "animEvents": {
      "ATK01": {
        "attackPattern": {
          "$type": "ConfigAttackCircle",
          "triggerType": "TriggerNoRepeat",
          "born": {
            "$type": "ConfigBornBySelf",
            "offset": {
              "x": 0.0,
              "y": 0.0,
              "z": 0.5
            }
          },
          "height": 1.7999999523162842,
          "fanAngle": 270.0,
          "radius": 2.0,
          "detectDirection": "Counterclockwise"
        },
        "attackInfo": {
          "attackTag": "NormalAttack_01",
          "attenuationTag": "NormalAttack",
          "attenuationGroup": "default",
          "attackProperty": {
            "actorGrassSubHurtDelta": 0.7799999713897705,
            "actorWindSubHurtDelta": 0.0,
            "elementDurability": 25.0,
            "overrideByWeapon": true,
            "strikeType": "Blunt",
            "enBreak": 96.5999984741211,
            "attackType": "Melee",
            "GLKMCMDJBIK": 0.0
          },
          "hitPattern": {
            "onHitEffectName": "default",
            "hitImpulseY": "",
            "hitImpulseType": "LV3",
            "hitHaltTime": 0.10000000149011612,
            "hitHaltTimeScale": 0.009999999776482582,
            "canBeDefenceHalt": true
          },
          "cameraShake": {
            "shakeType": "CustomVector",
            "shakeRange": 0.23999999463558197,
            "shakeTime": 0.11999999731779099,
            "shakeDistance": 30.0,
            "shakeDir": {
              "x": 0.30000001192092896,
              "y": -1.0
            }
          }
        }
      },
      "ATK02": {
        "attackPattern": {
          "$type": "ConfigAttackBox",
          "triggerType": "TriggerNoRepeat",
          "born": {
            "$type": "ConfigBornByTarget",
            "offset": {
              "x": 0.0,
              "y": 1.0,
              "z": 0.0
            }
          },
          "size": {
            "x": 2.0,
            "y": 2.0,
            "z": 2.5
          }
        },
        "attackInfo": {
          "attackTag": "NormalAttack_02",
          "attenuationTag": "NormalAttack",
          "attenuationGroup": "default",
          "attackProperty": {
            "actorGrassSubHurtDelta": 0.75,
            "actorWindSubHurtDelta": 0.0,
            "elementDurability": 25.0,
            "overrideByWeapon": true,
            "strikeType": "Blunt",
            "enBreak": 93.1500015258789,
            "attackType": "Melee",
            "GLKMCMDJBIK": 0.0
          },
          "hitPattern": {
            "onHitEffectName": "default",
            "hitImpulseY": "",
            "hitImpulseType": "LV3",
            "hitHaltTime": 0.10000000149011612,
            "hitHaltTimeScale": 0.009999999776482582,
            "canBeDefenceHalt": true
          },
          "forceCameraShake": true,
          "cameraShake": {
            "shakeType": "CustomVector",
            "shakeRange": 0.36000001430511475,
            "shakeTime": 0.11999999731779099,
            "shakeDistance": 30.0,
            "shakeDir": {
              "y": 1.0
            }
          }
        }
      },
      "ATK03": {
        "attackPattern": {
          "$type": "ConfigAttackCircle",
          "triggerType": "TriggerNoRepeat",
          "born": {
            "$type": "ConfigBornBySelf",
            "offset": {
              "x": 0.0,
              "y": 0.0,
              "z": 1.0
            }
          },
          "height": 1.5,
          "radius": 2.0,
          "detectDirection": "Counterclockwise"
        },
        "attackInfo": {
          "attackTag": "NormalAttack_03",
          "attenuationTag": "NormalAttack",
          "attenuationGroup": "default",
          "attackProperty": {
            "actorGrassSubHurtDelta": 0.9800000190734863,
            "actorWindSubHurtDelta": 0.0,
            "elementDurability": 25.0,
            "overrideByWeapon": true,
            "strikeType": "Blunt",
            "enBreak": 121.9000015258789,
            "attackType": "Melee",
            "GLKMCMDJBIK": 0.0
          },
          "hitPattern": {
            "onHitEffectName": "default",
            "hitImpulseY": "",
            "hitImpulseType": "LV3",
            "hitHaltTime": 0.11999999731779099,
            "hitHaltTimeScale": 0.009999999776482582,
            "canBeDefenceHalt": true
          },
          "cameraShake": {
            "shakeType": "CustomVector",
            "shakeRange": 0.36000001430511475,
            "shakeTime": 0.11999999731779099,
            "shakeDistance": 30.0,
            "shakeDir": {
              "x": 1.0,
              "y": -0.20000000298023224
            }
          }
        }
      },
      "ATK04": {
        "attackPattern": {
          "$type": "ConfigAttackCircle",
          "triggerType": "TriggerNoRepeat",
          "born": {
            "$type": "ConfigBornBySelf",
            "offset": {
              "x": 0.0,
              "y": 0.0,
              "z": 1.0
            },
            "direction": {
              "$type": "ConfigDirectionByEntity",
              "angleOffset": {
                "x": 0.0,
                "y": 30.0,
                "z": 0.0
              }
            }
          },
          "height": 1.5,
          "fanAngle": 270.0,
          "radius": 2.0,
          "detectDirection": "Counterclockwise"
        },
        "attackInfo": {
          "attackTag": "NormalAttack_04",
          "attenuationTag": "NormalAttack",
          "attenuationGroup": "default",
          "attackProperty": {
            "actorGrassSubHurtDelta": 1.1799999475479126,
            "actorWindSubHurtDelta": 0.0,
            "elementDurability": 25.0,
            "overrideByWeapon": true,
            "strikeType": "Blunt",
            "enBreak": 146.6300048828125,
            "attackType": "Melee",
            "GLKMCMDJBIK": 0.0
          },
          "hitPattern": {
            "onHitEffectName": "default",
            "hitImpulseY": "",
            "hitImpulseType": "LV5",
            "hitHaltTime": 0.11999999731779099,
            "hitHaltTimeScale": 0.009999999776482582,
            "canBeDefenceHalt": true
          },
          "cameraShake": {
            "shakeType": "CustomVector",
            "shakeRange": 0.47999998927116394,
            "shakeTime": 0.11999999731779099,
            "shakeDistance": 30.0,
            "shakeDir": {
              "x": -1.0,
              "y": 0.20000000298023224
            }
          }
        }
      },
      "ExtraAttack1": {
        "attackPattern": {
          "$type": "ConfigAttackCircle",
          "triggerType": "TriggerNoRepeat",
          "born": {
            "$type": "ConfigBornBySelf",
            "offset": {
              "x": 0.0,
              "y": 0.0,
              "z": 0.30000001192092896
            }
          },
          "height": 1.5,
          "radius": 3.0,
          "detectDirection": "Clockwise"
        },
        "attackInfo": {
          "attackTag": "ExtraAttack",
          "attenuationTag": "NormalAttack",
          "attenuationGroup": "default",
          "attackProperty": {
            "actorGrassSubHurtDelta": 0.800000011920929,
            "actorWindSubHurtDelta": 0.0,
            "elementDurability": 25.0,
            "overrideByWeapon": true,
            "strikeType": "Blunt",
            "enBreak": 60.0,
            "attackType": "Melee",
            "GLKMCMDJBIK": 0.0
          },
          "hitPattern": {
            "onHitEffectName": "default",
            "hitImpulseY": "",
            "hitImpulseType": "LV3",
            "hitHaltTime": 0.029999999329447746,
            "hitHaltTimeScale": 0.009999999776482582,
            "canBeDefenceHalt": true
          },
          "cameraShake": {
            "shakeType": "CustomVector",
            "shakeRange": 0.11999999731779099,
            "shakeTime": 0.07999999821186066,
            "shakeDistance": 30.0,
            "shakeDir": {
              "x": 1.0
            }
          }
        }
      },
      "ExtraAttack2": {
        "attackPattern": {
          "$type": "ConfigAttackCircle",
          "triggerType": "TriggerNoRepeat",
          "born": {
            "$type": "ConfigBornBySelf",
            "offset": {
              "x": 0.0,
              "y": 0.0,
              "z": 0.0
            }
          },
          "height": 1.5,
          "radius": 3.5,
          "detectDirection": "Clockwise"
        },
        "attackInfo": {
          "attackTag": "ExtraAttack",
          "attenuationTag": "NormalAttack",
          "attenuationGroup": "default",
          "attackProperty": {
            "actorGrassSubHurtDelta": 1.649999976158142,
            "actorWindSubHurtDelta": 0.0,
            "elementDurability": 25.0,
            "overrideByWeapon": true,
            "strikeType": "Blunt",
            "enBreak": 120.0,
            "attackType": "Melee",
            "GLKMCMDJBIK": 0.0
          },
          "hitPattern": {
            "onHitEffectName": "default",
            "hitImpulseY": "",
            "hitImpulseType": "LV5",
            "hitHaltTime": 0.15000000596046448,
            "hitHaltTimeScale": 0.009999999776482582,
            "canBeDefenceHalt": true
          },
          "cameraShake": {
            "shakeType": "CustomVector",
            "shakeRange": 0.47999998927116394,
            "shakeTime": 0.11999999731779099,
            "shakeDistance": 30.0,
            "shakeDir": {
              "x": 1.0
            }
          }
        }
      }
    }
  },
  "equipController": {
    "sheathPoint": "WeaponBackPut",
    "dissolveSheathFadeDelay": 0.07500000298023224,
    "dissolveSheathFadeTime": 2.0999999046325684,
    "attachPoints": {
      "equip01": "WeaponR",
      "equip02": "WeaponL",
      "equip03": "WeaponL"
    }
  },
  "abilities": [
    {
      "abilityID": "Avatar_Xinyan_NormalAttack_DamageHandler",
      "abilityName": "Avatar_Xinyan_NormalAttack_DamageHandler",
      "abilityOverride": ""
    },
    {
      "abilityID": "Avatar_Xinyan_ExtraAttack",
      "abilityName": "Avatar_Xinyan_ExtraAttack",
      "abilityOverride": ""
    },
    {
      "abilityID": "Avatar_Xinyan_FallingAnthem",
      "abilityName": "Avatar_Xinyan_FallingAnthem",
      "abilityOverride": ""
    },
    {
      "abilityID": "Avatar_Xinyan_ElementalArt",
      "abilityName": "Avatar_Xinyan_ElementalArt",
      "abilityOverride": ""
    },
    {
      "abilityID": "Avatar_Xinyan_ElementalArt_Hit",
      "abilityName": "Avatar_Xinyan_ElementalArt_Hit",
      "abilityOverride": ""
    },
    {
      "abilityID": "Avatar_Xinyan_ElementalArt_Shield_1",
      "abilityName": "Avatar_Xinyan_ElementalArt_Shield_1",
      "abilityOverride": ""
    },
    {
      "abilityID": "Avatar_Xinyan_ElementalArt_Shield_2",
      "abilityName": "Avatar_Xinyan_ElementalArt_Shield_2",
      "abilityOverride": ""
    },
    {
      "abilityID": "Avatar_Xinyan_ElementalArt_Shield_3",
      "abilityName": "Avatar_Xinyan_ElementalArt_Shield_3",
      "abilityOverride": ""
    },
    {
      "abilityID": "Avatar_Xinyan_ElementalArt_Shield_3_Explosion",
      "abilityName": "Avatar_Xinyan_ElementalArt_Shield_3_Explosion",
      "abilityOverride": ""
    },
    {
      "abilityID": "Avatar_Xinyan_ElementalBurst_Initiate",
      "abilityName": "Avatar_Xinyan_ElementalBurst_Initiate",
      "abilityOverride": ""
    },
    {
      "abilityID": "Avatar_Xinyan_ElementalBurst_Hit",
      "abilityName": "Avatar_Xinyan_ElementalBurst_Hit",
      "abilityOverride": ""
    },
    {
      "abilityID": "Avatar_Xinyan_ElementalBurst_Effect",
      "abilityName": "Avatar_Xinyan_ElementalBurst_Effect",
      "abilityOverride": ""
    },
    {
      "abilityID": "Avatar_Xinyan_ElementalBurst_Fire",
      "abilityName": "Avatar_Xinyan_ElementalBurst_Fire",
      "abilityOverride": ""
    },
    {
      "abilityID": "Avatar_Xinyan_ElementalBurst_CameraExit",
      "abilityName": "Avatar_Xinyan_ElementalBurst_CameraExit",
      "abilityOverride": ""
    },
    {
      "abilityID": "Avatar_Xinyan_HideWeapon",
      "abilityName": "Avatar_Xinyan_HideWeapon",
      "abilityOverride": ""
    }
  ],
  "stateLayers": {
    "defaultLayer": {
      "$type": "GBGJJIIEMBD",
      "layerIndexName": "",
      "CPAANEIJCGD": "",
      "stateIDs": {
        "NormalStandby": {
          "$type": "KBOPIKLCBOA",
          "animatorStates": {
            "Standby": ["Avatar_ResetFreeStyle"]
          },
          "canDoSkill": true,
          "massRatio": 100.0,
          "setAnimatorBoolean": [
            {
              "name": "&CanUseSkill"
            }
          ],
          "canChangeAvatar": [{}],
          "animatorTriggerOnLanded": "",
          "sheatheOnStart": true
        },
        "NormalMove": {
          "$type": "KBOPIKLCBOA",
          "animatorStates": {
            "ShowUp": ["Audio_Girl_Showup"],
            "WalkToRun": [
              "Audio_Girl_WalkToRun",
              "Audio_Girl_Foley_Twice_Xinyan"
            ],
            "Walk": [
              "Ani_WalkSprint01",
              "Audio_Girl_Walk",
              "WalkStepOnWater",
              "Audio_Girl_Foley_Twice_Xinyan"
            ],
            "RunToWalk": [
              "Audio_Girl_RunToWalk",
              "Audio_Girl_Foley_Twice_Xinyan"
            ],
            "Run": [
              "Ani_Run01",
              "Audio_Girl_Run",
              "Audio_Girl_Foley_Twice_Xinyan"
            ],
            "RunToIdle": [
              "Audio_Girl_RunToIdle",
              "Audio_Girl_Foley_Twice_Xinyan"
            ],
            "WalkToIdle": ["Audio_Girl_WalkToIdle"],
            "RunningTurn": [],
            "SprintToRun": [
              "Audio_Girl_SprintToRun",
              "Audio_Girl_Foley_Once_Xinyan"
            ],
            "SprintToIdle": [
              "Audio_Girl_SprintToIdle",
              "Emo_Girl_Sprint_AS",
              "Audio_Girl_Foley_Twice_Xinyan"
            ],
            "FallOnGround": [
              "Audio_Girl_FallOnGround",
              "Audio_Girl_Foley_Twice_Xinyan"
            ],
            "FallOnGroundLit": [
              "Audio_Girl_FallOnGroundLit",
              "Audio_Girl_Foley_Once_Xinyan"
            ],
            "FallToGroundRun": [
              "Audio_Girl_FallToGroundRun",
              "Audio_Girl_Foley_Twice_Xinyan"
            ],
            "FallToGroundRunHard": [
              "Audio_Girl_FallToGroundRunHard",
              "Audio_Girl_Foley_Twice_Xinyan"
            ],
            "FallToGroundSprint": [
              "Audio_Girl_FallToGroundSprint",
              "Audio_Girl_Foley_Twice_Xinyan"
            ]
          },
          "canDoSkill": true,
          "massRatio": 1.0,
          "setAnimatorBoolean": [
            {
              "name": "&CanUseSkill"
            }
          ],
          "canChangeAvatar": [{}],
          "animatorTriggerOnLanded": "",
          "sheatheOnStart": true
        },
        "SprintBS": {
          "$type": "KBOPIKLCBOA",
          "animatorStates": {
            "SprintBS": [
              "Audio_Girl_RunToSprint",
              "SprintBS_Invincible",
              "Emo_Girl_Sprint_BS",
              "Audio_Girl_Foley_ThreeTimes_Xinyan"
            ]
          },
          "canDoSkill": true,
          "resetAnimatorTriggerOnEnter": ["DoSkill", "AimEnd"],
          "setAnimatorBoolean": [
            {
              "name": "&CanUseSkill",
              "normalizeStart": 0.25999999046325684
            }
          ],
          "canChangeAvatar": [
            {
              "normalizeStart": 0.25999999046325684
            }
          ],
          "animatorTriggerOnLanded": "",
          "sheatheOnStart": true
        },
        "Sprint": {
          "$type": "KBOPIKLCBOA",
          "animatorStates": {
            "Sprint": [
              "Ani_WalkSprint01",
              "Audio_Girl_Sprint",
              "Emo_Girl_Sprint_Loop",
              "Audio_Girl_Foley_Twice_Xinyan"
            ]
          },
          "canDoSkill": true,
          "massRatio": 1.0,
          "setAnimatorBoolean": [
            {
              "name": "&CanUseSkill"
            }
          ],
          "canChangeAvatar": [{}],
          "animatorTriggerOnLanded": "",
          "sheatheOnStart": true
        },
        "Crouch": {
          "$type": "KBOPIKLCBOA",
          "animatorStates": {
            "CrouchIdle": [],
            "CrouchMove": ["Audio_Girl_CrouchMove"],
            "CrouchRoll": [
              "Audio_Girl_CrouchRoll",
              "Audio_Girl_Foley_Once_Xinyan"
            ]
          },
          "canDoSkill": true,
          "massRatio": 1.0,
          "setAnimatorBoolean": [
            {
              "name": "&CanUseSkill"
            }
          ],
          "canChangeAvatar": [{}],
          "actionPanelState": "Squat",
          "animatorTriggerOnLanded": "",
          "sheatheOnStart": true
        },
        "CrouchToStandby": {
          "$type": "KBOPIKLCBOA",
          "animatorStates": {
            "CrouchToStandby": [
              "Audio_Girl_CrouchToStandby",
              "Audio_Girl_Foley_Once_Xinyan"
            ]
          },
          "resetAnimatorTriggerOnEnter": ["DoSkill"],
          "animatorTriggerOnLanded": "",
          "sheatheOnStart": true
        },
        "SkiffNormal": {
          "$type": "KBOPIKLCBOA",
          "animatorStates": {
            "SkiffNormal": []
          },
          "massRatio": 100.0,
          "resetAnimatorTriggerOnExit": ["BeHit", "DoSkill", "Jump"],
          "animatorTriggerOnLanded": "",
          "sheatheOnStart": true
        },
        "Climb": {
          "$type": "KBOPIKLCBOA",
          "animatorStates": {
            "ClimbMove0": [
              "ClimbStep",
              "Audio_Girl_Climb",
              "Audio_Girl_Foley_ClimbMove_Xinyan"
            ],
            "ClimbMove1": [
              "ClimbStep",
              "Audio_Girl_Climb",
              "Audio_Girl_Foley_Twice_Xinyan"
            ],
            "ClimbIdle": [],
            "ClimbJump": [
              "Audio_Girl_ClimbDash",
              "Audio_Girl_Foley_Once_Xinyan"
            ],
            "JumpUpWallForStandby": [
              "Audio_Girl_JumpUpWallStandby",
              "Audio_Girl_Foley_Once_Xinyan"
            ],
            "Standby2ClimbB": [
              "Audio_Girl_Standby2ClimbB",
              "Audio_Girl_Foley_Once_Xinyan"
            ]
          },
          "resetAnimatorTriggerOnEnter": ["DoSkill"],
          "actionPanelState": "Climb",
          "animatorTriggerOnLanded": "",
          "sheatheOnStart": true
        },
        "ClimbTransient": {
          "$type": "KBOPIKLCBOA",
          "animatorStates": {
            "JumpWallReady": [],
            "Standby2ClimbA": [
              "Audio_Girl_Standby2ClimbA",
              "Audio_Girl_Foley_Once_Xinyan"
            ]
          },
          "resetAnimatorTriggerOnEnter": ["DoSkill"],
          "animatorTriggerOnLanded": "",
          "sheatheOnStart": true
        },
        "Upstairs": {
          "$type": "KBOPIKLCBOA",
          "animatorStates": {
            "Upstairs": ["Audio_Girl_Upstairs", "Audio_Girl_Foley_Once_Xinyan"]
          },
          "resetAnimatorTriggerOnEnter": ["DoSkill"],
          "setAnimatorBoolean": [
            {
              "name": "&CanUseSkill"
            }
          ],
          "animatorTriggerOnLanded": "",
          "sheatheOnStart": true
        },
        "Slip": {
          "$type": "KBOPIKLCBOA",
          "animatorStates": {
            "SlipFaceWall": ["Audio_Girl_Foley_ThreeTimes_Xinyan"],
            "SlipBackWall": ["Audio_Girl_Foley_ThreeTimes_Xinyan"]
          },
          "resetAnimatorTriggerOnEnter": ["DoSkill"],
          "animatorTriggerOnLanded": "",
          "sheatheOnStart": true
        },
        "Swim": {
          "$type": "KBOPIKLCBOA",
          "animatorStates": {
            "SwimIdle": ["Audio_Girl_SwimIdle"],
            "SwimMove": ["SwimStep", "Audio_Girl_SwimMove"],
            "SwimDash": [
              "Audio_Girl_SwimDash",
              "Avatar_Girl_SwimDash_Hand_Effect"
            ],
            "SwimJumpToWater": ["Audio_Girl_SwimJumpToWater"]
          },
          "resetAnimatorTriggerOnEnter": ["DoSkill"],
          "actionPanelState": "Swim",
          "animatorTriggerOnLanded": "",
          "sheatheOnStart": true
        },
        "Fly": {
          "$type": "KBOPIKLCBOA",
          "animatorStates": {
            "Fly": ["Audio_Girl_Fly", "Audio_Girl_Foley_Once_Xinyan"],
            "FlyStart": [
              "Audio_Girl_FlyStart",
              "FlyStart_Weapon",
              "Audio_Girl_Foley_Once_Xinyan"
            ]
          },
          "canDoSkill": true,
          "resetAnimatorTriggerOnEnter": ["DoSkill"],
          "setAnimatorBoolean": [
            {
              "name": "&CanUseAirSkill"
            }
          ],
          "actionPanelState": "Fly",
          "animatorTriggerOnLanded": "",
          "sheatheOnStart": true
        },
        "Jump": {
          "$type": "KBOPIKLCBOA",
          "animatorStates": {
            "Jump": ["Audio_Girl_Jump", "Audio_Girl_Foley_Once_Xinyan"],
            "JumpForRun": ["Audio_Girl_Jump", "Audio_Girl_Foley_Once_Xinyan"],
            "JumpForWalk": ["Audio_Girl_Jump", "Audio_Girl_Foley_Once_Xinyan"],
            "JumpForSprint": ["Audio_Girl_Jump", "Audio_Girl_Foley_Once_Xinyan"]
          },
          "canDoSkill": true,
          "resetAnimatorTriggerOnEnter": ["DoSkill", "AimEnd"],
          "setAnimatorBoolean": [
            {
              "name": "&CanUseAirSkill"
            }
          ],
          "actionPanelState": "Jump",
          "animatorTriggerOnLanded": "",
          "sheatheOnStart": true
        },
        "Fall": {
          "$type": "KBOPIKLCBOA",
          "animatorStates": {
            "JumpOffWall": ["Audio_Girl_Jump", "Audio_Girl_Foley_Once_Xinyan"],
            "SwimJump": ["Audio_Girl_SwimJump", "Audio_Girl_Foley_Once_Xinyan"],
            "SwimJumpDrop": ["Audio_Girl_Foley_ThreeTimes_Xinyan"],
            "DropDown": [
              "Audio_Girl_DropDown",
              "Audio_Girl_Foley_ThreeTimes_Xinyan"
            ],
            "DropDownLit": [],
            "WalkDropDownLit": []
          },
          "canDoSkill": true,
          "resetAnimatorTriggerOnEnter": ["DoSkill"],
          "setAnimatorBoolean": [
            {
              "name": "&CanUseAirSkill"
            }
          ],
          "animatorTriggerOnLanded": "",
          "sheatheOnStart": true
        },
        "NormalStandbyWeapon": {
          "$type": "KBOPIKLCBOA",
          "animatorStates": {
            "StandbyWeapon": []
          },
          "canDoSkill": true,
          "massRatio": 100.0,
          "setAnimatorBoolean": [
            {
              "name": "&CanUseSkill"
            }
          ],
          "canChangeAvatar": [{}],
          "animatorTriggerOnLanded": "",
          "battouOnStart": true
        },
        "NormalMoveWeapon": {
          "$type": "KBOPIKLCBOA",
          "animatorStates": {
            "WalkToRunWeapon": [
              "Girl_Sword_Putaway_RunBS",
              "Audio_Girl_WalkToRun"
            ],
            "WalkWeapon": ["Audio_Girl_Walk", "Audio_Girl_Foley_Twice_Xinyan"],
            "RunToWalkWeapon": ["Audio_Girl_RunToWalk"],
            "RunWeapon": ["Audio_Girl_Run", "Audio_Girl_Foley_Twice_Xinyan"],
            "RunToIdleWeapon": ["Audio_Girl_Foley_Twice_Xinyan"],
            "WalkToIdleWeapon": ["Audio_Girl_Foley_Twice_Xinyan"],
            "RunningTurnWeapon": [],
            "FallOnGroundWeapon": ["Audio_Girl_FallOnGround"],
            "FallOnGroundLitWeapon": ["Audio_Girl_FallOnGroundLit"],
            "FallOnGroundMiddleWeapon": ["Audio_Girl_FallOnGroundMiddle"],
            "FallToGroundRunWeapon": ["Audio_Girl_FallToGroundRun"],
            "FallToGroundRunHardWeapon": ["Audio_Girl_FallToGroundRunHard"]
          },
          "canDoSkill": true,
          "massRatio": 2.0,
          "setAnimatorBoolean": [
            {
              "name": "&CanUseSkill"
            }
          ],
          "canChangeAvatar": [{}],
          "animatorTriggerOnLanded": "",
          "battouOnStart": true
        },
        "NormalMoveWeaponPutaway": {
          "$type": "KBOPIKLCBOA",
          "animatorStates": {
            "WalkPutaway": [
              "Girl_Sword_Putaway_Walk",
              "Audio_Girl_Sword_WalkPutAway",
              "Audio_Girl_Foley_Twice_Xinyan"
            ],
            "RunPutaway": [
              "Girl_Sword_Putaway_Run",
              "Audio_Girl_Sword_RunPutAway",
              "Audio_Girl_Foley_Twice_Xinyan"
            ],
            "RunToSprintWeapon": [
              "Girl_Sword_Putaway_Sprint",
              "Audio_Girl_Sword_RunToSprintWeapon"
            ]
          },
          "canDoSkill": true,
          "massRatio": 2.0,
          "setAnimatorBoolean": [
            {
              "name": "&CanUseSkill"
            }
          ],
          "canChangeAvatar": [{}],
          "animatorTriggerOnLanded": "",
          "battouOnStart": true
        },
        "NormalMoveWeaponStandByPutaway": {
          "$type": "KBOPIKLCBOA",
          "animatorStates": {
            "StandbyPutaway": [
              "Girl_Claymore_Putaway_Standby",
              "Audio_Girl_StandbyPutaway_Noel",
              "Audio_Girl_Foley_Once_Xinyan"
            ]
          },
          "canDoSkill": true,
          "massRatio": 2.0,
          "setAnimatorBoolean": [
            {
              "name": "&CanUseSkill"
            }
          ],
          "canChangeAvatar": [{}],
          "equipReattach": [
            {
              "equip": "equip01",
              "targetPoint": "WeaponR2"
            }
          ],
          "animatorTriggerOnLanded": "",
          "battouOnStart": true
        },
        "NormalMoveWeaponOver": {
          "$type": "KBOPIKLCBOA",
          "animatorStates": {
            "StandbyPutawayOver": [],
            "WalkPutawayOver": ["Audio_Girl_Sword_WalkPutAwayOver"],
            "RunPutawayOver": ["Audio_Girl_Sword_RunPutAwayOver"],
            "RunToSprintWeaponOver": ["Audio_Girl_Sword_RunToSprintWeaponOver"]
          },
          "canDoSkill": true,
          "massRatio": 2.0,
          "setAnimatorBoolean": [
            {
              "name": "&CanUseSkill"
            }
          ],
          "canChangeAvatar": [{}],
          "animatorTriggerOnLanded": "",
          "sheatheOnStart": true
        },
        "JumpWeapon": {
          "$type": "KBOPIKLCBOA",
          "animatorStates": {
            "JumpWeapon": ["Audio_Girl_Jump", "Audio_Girl_Foley_Once_Xinyan"],
            "JumpForRunWeapon": [
              "Audio_Girl_Jump",
              "Audio_Girl_Foley_Once_Xinyan"
            ],
            "JumpForWalkWeapon": [
              "Audio_Girl_Jump",
              "Audio_Girl_Foley_Once_Xinyan"
            ]
          },
          "canDoSkill": true,
          "resetAnimatorTriggerOnEnter": ["DoSkill"],
          "setAnimatorBoolean": [
            {
              "name": "&CanUseAirSkill"
            }
          ],
          "canChangeAvatar": [{}],
          "actionPanelState": "Jump",
          "animatorTriggerOnLanded": "",
          "battouOnStart": true
        },
        "FallWeapon": {
          "$type": "KBOPIKLCBOA",
          "animatorStates": {
            "DropDownWeapon": [
              "Audio_Girl_DropDown",
              "Audio_Girl_Foley_ThreeTimes_Xinyan"
            ],
            "DropDownLitWeapon": [],
            "WalkDropDownLitWeapon": []
          },
          "canDoSkill": true,
          "resetAnimatorTriggerOnEnter": ["DoSkill"],
          "setAnimatorBoolean": [
            {
              "name": "&CanUseAirSkill"
            }
          ],
          "animatorTriggerOnLanded": "",
          "battouOnStart": true
        },
        "BeHit": {
          "$type": "KBOPIKLCBOA",
          "animatorStates": {
            "Hit_L": ["Audio_Girl_Hit_L", "Audio_Girl_Foley_Once_Xinyan"],
            "Hit_H": ["Audio_Girl_Hit_H", "Audio_Girl_Foley_Once_Xinyan"]
          },
          "MOKBIKEEHMJ": "combatMove",
          "resetAnimatorTriggerOnEnter": ["BeHit", "HitAir2HitDrop"],
          "resetAnimatorTriggerOnExit": ["DoSkill"],
          "cameraType": "combatBeHit",
          "jumpCancelEnd": 0.0,
          "animatorTriggerOnLanded": "",
          "battouOnStart": true
        },
        "HitThrow": {
          "$type": "KBOPIKLCBOA",
          "animatorStates": {
            "Hit_Throw_Ground": [
              "BeHitAir_Weapon",
              "Audio_Girl_Hit_Throw_Ground_Ambor"
            ]
          },
          "MOKBIKEEHMJ": "combatMove",
          "resetAnimatorTriggerOnEnter": ["BeHit", "HitAir2HitDrop"],
          "resetAnimatorTriggerOnExit": ["DoSkill"],
          "setAnimatorBoolean": [
            {
              "name": "&CanUseLiquid"
            }
          ],
          "cameraType": "combatBeHit",
          "jumpCancelEnd": 0.0,
          "animatorTriggerOnLanded": "",
          "sheatheOnStart": true
        },
        "BeHitAir": {
          "$type": "KBOPIKLCBOA",
          "animatorStates": {
            "Hit_Throw": [
              "Audio_Girl_Hit_Throw",
              "BeHitAir_Weapon",
              "Audio_Girl_Foley_Once_Xinyan"
            ],
            "Hit_ThrowAir": ["Audio_Girl_Hit_ThrowAir", "BeHitAir_Weapon"],
            "Struggle": [
              "BeHitAir_Weapon",
              "Audio_Girl_Foley_ThreeTimes_Xinyan"
            ]
          },
          "MOKBIKEEHMJ": "combatAir",
          "resetAnimatorTriggerOnEnter": ["BeHit"],
          "resetAnimatorTriggerOnExit": ["DoSkill"],
          "cameraType": "combatBeHit",
          "actionPanelState": "CombatAir",
          "jumpCancelEnd": 0.0,
          "animatorTriggerOnLanded": "",
          "sheatheOnStart": true
        },
        "Die": {
          "$type": "KBOPIKLCBOA",
          "animatorStates": {
            "DiveDie": ["Die", "Audio_Girl_Dive_Die"],
            "FallDie": ["Audio_Girl_Death"],
            "NormalDie": [
              "Die",
              "Audio_Girl_Death",
              "Audio_Girl_Foley_Once_Xinyan"
            ],
            "SwimDie": ["Swim_Die", "Audio_Girl_SwimDie"],
            "HitGroundDie": ["Die", "Audio_Girl_Death"]
          },
          "animatorTriggerOnLanded": ""
        },
        "Die_RagDoll": {
          "$type": "KBOPIKLCBOA",
          "animatorStates": {
            "FallDie_AS": []
          },
          "enableRagDoll": true,
          "animatorTriggerOnLanded": ""
        },
        "Attack01_BS": {
          "$type": "KBOPIKLCBOA",
          "animatorStates": {
            "Attack01_BS": [
              "Xinyan_Attack01_BS",
              "Interaction_Bad",
              "Audio_Girl_Xinyan_Attack01_BS",
              "Emo_Girl_Claymore_Xinyan_NormalAttack01_BS"
            ]
          },
          "MOKBIKEEHMJ": "combatMove",
          "canDoSkill": true,
          "resetAnimatorTriggerOnExit": ["BeHit"],
          "setAnimatorBoolean": [
            {
              "name": "&CanCancelSkill"
            },
            {
              "name": "&CanUseExtra"
            }
          ],
          "cameraType": "combatNormal",
          "canChangeAvatar": [{}],
          "animatorTriggerOnLanded": "",
          "battouOnStart": true
        },
        "Attack01": {
          "$type": "KBOPIKLCBOA",
          "animatorStates": {
            "Attack01": [
              "Xinyan_Attack01",
              "Interaction_Bad",
              "Audio_Girl_Xinyan_Attack01",
              "SetComboCount1",
              "Emo_Girl_Claymore_Xinyan_NormalAttack01"
            ]
          },
          "MOKBIKEEHMJ": "combatMove",
          "canDoSkill": true,
          "resetAnimatorTriggerOnExit": ["BeHit"],
          "setAnimatorBoolean": [
            {
              "name": "&CanCancelSkill"
            },
            {
              "name": "&CanUseExtra"
            }
          ],
          "cameraType": "combatNormal",
          "canChangeAvatar": [{}],
          "animatorTriggerOnLanded": "",
          "battouOnStart": true
        },
        "Attack02": {
          "$type": "KBOPIKLCBOA",
          "animatorStates": {
            "Attack02": [
              "Xinyan_Attack02",
              "Interaction_Bad",
              "Audio_Girl_Xinyan_Attack02",
              "SetComboCount2",
              "Emo_Girl_Claymore_Xinyan_NormalAttack02"
            ]
          },
          "MOKBIKEEHMJ": "combatMove",
          "canDoSkill": true,
          "resetAnimatorTriggerOnExit": ["BeHit"],
          "setAnimatorBoolean": [
            {
              "name": "&CanCancelSkill"
            },
            {
              "name": "&CanUseExtra"
            }
          ],
          "cameraType": "combatNormal",
          "canChangeAvatar": [{}],
          "animatorTriggerOnLanded": "",
          "battouOnStart": true
        },
        "Attack03": {
          "$type": "KBOPIKLCBOA",
          "animatorStates": {
            "Attack03": [
              "Xinyan_Attack03",
              "Interaction_Bad",
              "Audio_Girl_Xinyan_Attack03",
              "SetComboCount3",
              "Emo_Girl_Claymore_Xinyan_NormalAttack03"
            ]
          },
          "MOKBIKEEHMJ": "combatMove",
          "canDoSkill": true,
          "resetAnimatorTriggerOnExit": ["BeHit"],
          "setAnimatorBoolean": [
            {
              "name": "&CanCancelSkill"
            },
            {
              "name": "&CanUseExtra"
            }
          ],
          "cameraType": "combatNormal",
          "canChangeAvatar": [{}],
          "animatorTriggerOnLanded": "",
          "battouOnStart": true
        },
        "Attack04": {
          "$type": "KBOPIKLCBOA",
          "animatorStates": {
            "Attack04": [
              "Xinyan_Attack04",
              "Interaction_Bad",
              "Audio_Girl_Xinyan_Attack04",
              "SetComboCount4",
              "Emo_Girl_Claymore_Xinyan_NormalAttack04"
            ]
          },
          "MOKBIKEEHMJ": "combatMove",
          "canDoSkill": true,
          "resetAnimatorTriggerOnExit": ["BeHit"],
          "setAnimatorBoolean": [
            {
              "name": "&CanCancelSkill"
            },
            {
              "name": "&CanUseExtra"
            }
          ],
          "cameraType": "combatNormal",
          "canChangeAvatar": [{}],
          "animatorTriggerOnLanded": "",
          "battouOnStart": true
        },
        "ExtraAttack": {
          "$type": "KBOPIKLCBOA",
          "animatorStates": {
            "ExtraAttack": [
              "Xinyan_ExtraAttack",
              "Audio_Girl_Xinyan_ExtraAtk",
              "Interaction_Bad",
              "Emo_Girl_Claymore_Xinyan_ExtraAttack_BS"
            ]
          },
          "MOKBIKEEHMJ": "combatMove",
          "resetAnimatorTriggerOnExit": ["BeHit"],
          "cameraType": "combatNormal",
          "canChangeAvatar": [{}],
          "animatorTriggerOnLanded": "",
          "battouOnStart": true
        },
        "ExtraAttack1": {
          "$type": "KBOPIKLCBOA",
          "animatorStates": {
            "ExtraAttack1": [
              "Xinyan_ExtraAttack1",
              "Interaction_Bad",
              "Emo_Girl_Claymore_Xinyan_ExtraAttack_1"
            ]
          },
          "MOKBIKEEHMJ": "combatMove",
          "resetAnimatorTriggerOnExit": ["BeHit"],
          "canChangeAvatar": [{}],
          "animatorTriggerOnLanded": "",
          "battouOnStart": true
        },
        "ExtraAttack2": {
          "$type": "KBOPIKLCBOA",
          "animatorStates": {
            "ExtraAttack2": [
              "Xinyan_ExtraAttack2",
              "Audio_Girl_Xinyan_ExtraAtk2",
              "Interaction_Bad",
              "Emo_Girl_Claymore_Xinyan_ExtraAttack_2"
            ]
          },
          "MOKBIKEEHMJ": "combatMove",
          "resetAnimatorTriggerOnExit": ["BeHit"],
          "canChangeAvatar": [{}],
          "animatorTriggerOnLanded": "",
          "battouOnStart": true
        },
        "ExtraAttack3": {
          "$type": "KBOPIKLCBOA",
          "animatorStates": {
            "ExtraAttack3": [
              "Audio_Girl_Xinyan_ExtraAtk3",
              "Interaction_Bad",
              "Emo_Girl_Claymore_Xinyan_ExtraAttack_AS"
            ]
          },
          "MOKBIKEEHMJ": "combatMove",
          "canDoSkill": true,
          "resetAnimatorTriggerOnExit": ["BeHit"],
          "setAnimatorBoolean": [
            {
              "name": "&CanCancelSkill"
            }
          ],
          "canChangeAvatar": [{}],
          "animatorTriggerOnLanded": "",
          "battouOnStart": true
        },
        "Xinyan_ElementalArt": {
          "$type": "KBOPIKLCBOA",
          "animatorStates": {
            "Xinyan_ElementalArt": [
              "Xinyan_ElementalArt",
              "Audio_Girl_Xinyan_ElementalArt",
              "Emo_Girl_Claymore_Xinyan_ElementalSkill"
            ]
          },
          "MOKBIKEEHMJ": "combatMove",
          "addEndure": 0.6000000238418579,
          "resetAnimatorTriggerOnExit": ["BeHit"],
          "cameraType": "combatNormal",
          "jumpCancelEnd": -1.0,
          "sprintCancelEnd": -1.0,
          "animatorTriggerOnLanded": "",
          "battouOnStart": true,
          "sheatheOnEnd": true
        },
        "Xinyan_ElementalArt_AS": {
          "$type": "KBOPIKLCBOA",
          "animatorStates": {
            "Xinyan_ElementalArt_AS": [
              "Audio_Girl_Xinyan_ElementalArt_AS",
              "Emo_Girl_Claymore_Xinyan_ElementalSkill_AS"
            ]
          },
          "MOKBIKEEHMJ": "combatMove",
          "canDoSkill": true,
          "resetAnimatorTriggerOnExit": ["BeHit", "DoSkill", "Jump"],
          "setAnimatorBoolean": [
            {
              "name": "&CanUseSkill"
            }
          ],
          "cameraType": "combatNormal",
          "canChangeAvatar": [
            {
              "normalizeStart": 0.10000000149011612
            }
          ],
          "animatorTriggerOnLanded": ""
        },
        "Xinyan_ElementalBurst": {
          "$type": "KBOPIKLCBOA",
          "animatorStates": {
            "Xinyan_ElementalBurst": [
              "Xinyan_ElementalBurst",
              "Audio_Girl_Xinyan_ElementalBurst",
              "Emo_Girl_Claymore_Xinyan_ElementalBurst"
            ]
          },
          "MOKBIKEEHMJ": "combatMove",
          "addEndure": 0.0,
          "resetAnimatorTriggerOnExit": ["BeHit"],
          "cameraType": "combatNormal",
          "jumpCancelEnd": -1.0,
          "sprintCancelEnd": -1.0,
          "animatorTriggerOnLanded": "",
          "battouOnStart": true,
          "sheatheOnEnd": true
        },
        "Xinyan_ElementalBurst_AS": {
          "$type": "KBOPIKLCBOA",
          "animatorStates": {
            "Xinyan_ElementalBurst_AS": [
              "Audio_Girl_Xinyan_ElementalBurst_AS",
              "Emo_Girl_Claymore_Xinyan_ElementalBurst_AS"
            ]
          },
          "MOKBIKEEHMJ": "combatMove",
          "canDoSkill": true,
          "resetAnimatorTriggerOnExit": ["BeHit", "DoSkill", "Jump"],
          "setAnimatorBoolean": [
            {
              "name": "&CanUseSkill"
            }
          ],
          "cameraType": "combatNormal",
          "canChangeAvatar": [{}],
          "animatorTriggerOnLanded": ""
        },
        "FallingAnthem_BS": {
          "$type": "KBOPIKLCBOA",
          "animatorStates": {
            "FallingAnthem_BS_1": [
              "Audio_Girl_Claymore_Noel_FallingAnthem_BS_1",
              "Emo_Girl_Claymore_FallingAttack_BS_01"
            ],
            "FallingAnthem_BS_2": ["Emo_Girl_Claymore_FallingAttack_BS_02"]
          },
          "MOKBIKEEHMJ": "combatAir",
          "addEndure": 0.0,
          "resetAnimatorTriggerOnExit": ["BeHit", "DoSkill", "Jump"],
          "cameraType": "combatNormal",
          "actionPanelState": "Fly",
          "equipReattach": [
            {
              "equip": "equip01",
              "targetPoint": "WeaponR"
            }
          ],
          "jumpCancelEnd": -1.0,
          "animatorTriggerOnLanded": "HitAir2HitDrop",
          "battouOnStart": true
        },
        "FallingAnthem_Loop": {
          "$type": "KBOPIKLCBOA",
          "animatorStates": {
            "FallingAnthem_Loop": [],
            "FallingAnthem_Loop_Low": []
          },
          "MOKBIKEEHMJ": "combatAir",
          "addEndure": 0.0,
          "resetAnimatorTriggerOnExit": ["BeHit", "DoSkill", "Jump"],
          "actionPanelState": "Fly",
          "equipReattach": [
            {
              "equip": "equip01",
              "targetPoint": "WeaponR"
            }
          ],
          "animatorTriggerOnLanded": "HitAir2HitDrop",
          "battouOnStart": true
        },
        "FallingAnthem_AS_1": {
          "$type": "KBOPIKLCBOA",
          "animatorStates": {
            "FallingAnthem_AS_1": [
              "Xinyan_FallingAnthem_Strike",
              "Interaction_Bad",
              "Audio_Girl_Claymore_Noel_FallingAnthem_AS_1",
              "Emo_Girl_Claymore_FallingAttack_AS_01"
            ]
          },
          "MOKBIKEEHMJ": "combatMove",
          "canDoSkill": true,
          "resetAnimatorTriggerOnExit": ["BeHit", "DoSkill", "Jump"],
          "setAnimatorBoolean": [
            {
              "name": "&CanUseSkill",
              "normalizeStart": 0.550000011920929
            }
          ],
          "equipReattach": [
            {
              "equip": "equip01",
              "targetPoint": "WeaponR"
            }
          ],
          "jumpCancelEnd": -1.0,
          "animatorTriggerOnLanded": "",
          "battouOnStart": true
        },
        "FallingAnthem_AS_2": {
          "$type": "KBOPIKLCBOA",
          "animatorStates": {
            "FallingAnthem_AS_2": [
              "Audio_Girl_Claymore_Noel_FallingAnthem_AS_2",
              "Emo_Girl_Claymore_FallingAttack_AS_02"
            ]
          },
          "MOKBIKEEHMJ": "combatMove",
          "canDoSkill": true,
          "resetAnimatorTriggerOnExit": ["BeHit", "DoSkill", "Jump"],
          "setAnimatorBoolean": [
            {
              "name": "&CanUseSkill"
            }
          ],
          "canChangeAvatar": [{}],
          "equipReattach": [
            {
              "equip": "equip01",
              "targetPoint": "WeaponR"
            }
          ],
          "jumpCancelStart": 0.10000000149011612,
          "animatorTriggerOnLanded": "",
          "battouOnStart": true
        },
        "Sit": {
          "$type": "KBOPIKLCBOA",
          "animatorStates": {
            "SitDown": ["Audio_Girl_SitDown", "Audio_Girl_Sit_Xinyan"],
            "SitLoop": [],
            "SitUp": ["Audio_Girl_SitDown", "Audio_Girl_Sit_Xinyan"]
          },
          "MOKBIKEEHMJ": "performMove",
          "massRatio": 100.0,
          "actionPanelState": "Perform",
          "animatorTriggerOnLanded": "",
          "sheatheOnStart": true
        },
        "SitB": {
          "$type": "KBOPIKLCBOA",
          "animatorStates": {
            "SitBDown": ["Audio_Girl_SitDown", "Audio_Girl_Sit_Xinyan"],
            "SitBLoop": [],
            "SitBUp": ["Audio_Girl_SitDown", "Audio_Girl_Sit_Xinyan"]
          },
          "MOKBIKEEHMJ": "performMove",
          "massRatio": 100.0,
          "actionPanelState": "Perform",
          "animatorTriggerOnLanded": "",
          "sheatheOnStart": true
        },
        "StandbyShow": {
          "$type": "KBOPIKLCBOA",
          "animatorStates": {
            "StandbyVoice": ["Audio_Girl_StandbyVoice"],
            "StandbyShow_01": [
              "Manekin_Xinyan_Show01",
              "Audio_Girl_Xinyan_StandbyShow_01"
            ],
            "StandbyShow_02": [
              "Manekin_Xinyan_Show02",
              "Audio_Girl_Xinyan_StandbyShow_02"
            ]
          },
          "MOKBIKEEHMJ": "performMove",
          "canDoSkill": true,
          "massRatio": 100.0,
          "setAnimatorBoolean": [
            {
              "name": "&CanUseSkill"
            }
          ],
          "canChangeAvatar": [{}],
          "animatorTriggerOnLanded": "",
          "sheatheOnStart": true
        },
        "TakePhotos": {
          "$type": "KBOPIKLCBOA",
          "animatorStates": {
            "Think01BS": [],
            "Akimbo02BS": [],
            "Think01Loop": [],
            "Akimbo02Loop": [],
            "Think01AS": [],
            "Akimbo02AS": []
          },
          "animatorTriggerOnLanded": ""
        },
        "Channel_BS": {
          "$type": "KBOPIKLCBOA",
          "animatorStates": {
            "ChannelBS": ["Emo_Avatar_Common_Manekin_Default"]
          },
          "MOKBIKEEHMJ": "combatMove",
          "canDoSkill": true,
          "massRatio": 100.0,
          "resetAnimatorTriggerOnExit": ["BeHit", "DoSkill", "Jump"],
          "setAnimatorBoolean": [
            {
              "name": "&CanUseSkill"
            }
          ],
          "canChangeAvatar": [{}],
          "animatorTriggerOnLanded": "",
          "sheatheOnStart": true
        },
        "Channel_Loop": {
          "$type": "KBOPIKLCBOA",
          "animatorStates": {
            "ChannelLoop": []
          },
          "MOKBIKEEHMJ": "combatMove",
          "canDoSkill": true,
          "massRatio": 100.0,
          "resetAnimatorTriggerOnExit": ["BeHit", "DoSkill", "Jump"],
          "setAnimatorBoolean": [
            {
              "name": "&CanUseSkill"
            }
          ],
          "canChangeAvatar": [{}],
          "animatorTriggerOnLanded": "",
          "sheatheOnStart": true
        },
        "Channel_AS": {
          "$type": "KBOPIKLCBOA",
          "animatorStates": {
            "ChannelAS": []
          },
          "MOKBIKEEHMJ": "combatMove",
          "canDoSkill": true,
          "massRatio": 100.0,
          "resetAnimatorTriggerOnExit": ["BeHit", "DoSkill", "Jump"],
          "setAnimatorBoolean": [
            {
              "name": "&CanUseSkill"
            }
          ],
          "canChangeAvatar": [{}],
          "animatorTriggerOnLanded": "",
          "sheatheOnStart": true
        },
        "PlayMusic_Lyre": {
          "$type": "KBOPIKLCBOA",
          "animatorStates": {
            "PlayMusic_Lyre_BS": ["PlayMusic_Lyre_Girl"],
            "PlayMusic_Lyre_Loop": ["PlayMusic_Lyre_Girl_Loop"]
          },
          "MOKBIKEEHMJ": "combatMove",
          "massRatio": 100.0,
          "resetAnimatorTriggerOnExit": ["BeHit", "DoSkill", "Jump"],
          "animatorTriggerOnLanded": "",
          "sheatheOnStart": true
        },
        "PlayMusic_Lyre_AS": {
          "$type": "KBOPIKLCBOA",
          "animatorStates": {
            "PlayMusic_Lyre_AS": ["PlayMusic_Lyre_Girl_AS"]
          },
          "MOKBIKEEHMJ": "combatMove",
          "canDoSkill": true,
          "massRatio": 100.0,
          "resetAnimatorTriggerOnExit": ["BeHit", "DoSkill", "Jump"],
          "setAnimatorBoolean": [
            {
              "name": "&CanUseSkill"
            }
          ],
          "canChangeAvatar": [{}],
          "animatorTriggerOnLanded": "",
          "sheatheOnStart": true
        },
        "PlayMusic_Qin": {
          "$type": "KBOPIKLCBOA",
          "animatorStates": {
            "PlayMusic_Qin_BS": ["PlayMusic_Qin_Girl"],
            "PlayMusic_Qin_Loop": ["PlayMusic_Qin_Girl_Loop"]
          },
          "MOKBIKEEHMJ": "combatMove",
          "massRatio": 100.0,
          "resetAnimatorTriggerOnExit": ["BeHit", "DoSkill", "Jump"],
          "animatorTriggerOnLanded": "",
          "sheatheOnStart": true
        },
        "PlayMusic_Qin_AS": {
          "$type": "KBOPIKLCBOA",
          "animatorStates": {
            "PlayMusic_Qin_AS": ["PlayMusic_Qin_Girl_AS"]
          },
          "MOKBIKEEHMJ": "combatMove",
          "canDoSkill": true,
          "massRatio": 100.0,
          "resetAnimatorTriggerOnExit": ["BeHit", "DoSkill", "Jump"],
          "setAnimatorBoolean": [
            {
              "name": "&CanUseSkill"
            }
          ],
          "canChangeAvatar": [{}],
          "animatorTriggerOnLanded": "",
          "sheatheOnStart": true
        },
        "PlayMusic_Drum": {
          "$type": "KBOPIKLCBOA",
          "animatorStates": {
            "PlayMusic_Drum_BS": ["PlayMusic_Drum_Girl"],
            "PlayMusic_Drum_Loop": ["PlayMusic_Drum_Girl_Loop"]
          },
          "MOKBIKEEHMJ": "combatMove",
          "massRatio": 100.0,
          "resetAnimatorTriggerOnExit": ["BeHit", "DoSkill", "Jump"],
          "animatorTriggerOnLanded": "",
          "sheatheOnStart": true
        },
        "PlayMusic_Drum_AS": {
          "$type": "KBOPIKLCBOA",
          "animatorStates": {
            "PlayMusic_Drum_AS": ["PlayMusic_Drum_Girl_AS"]
          },
          "MOKBIKEEHMJ": "combatMove",
          "canDoSkill": true,
          "massRatio": 100.0,
          "resetAnimatorTriggerOnExit": ["BeHit", "DoSkill", "Jump"],
          "setAnimatorBoolean": [
            {
              "name": "&CanUseSkill"
            }
          ],
          "canChangeAvatar": [{}],
          "animatorTriggerOnLanded": "",
          "sheatheOnStart": true
        },
        "PlayMusic_FrenchHorn": {
          "$type": "KBOPIKLCBOA",
          "animatorStates": {
            "PlayMusic_FrenchHorn_BS": ["PlayMusic_Frenchhorn_Girl"],
            "PlayMusic_FrenchHorn_Loop": ["PlayMusic_Frenchhorn_Girl_Loop"]
          },
          "MOKBIKEEHMJ": "combatMove",
          "massRatio": 100.0,
          "resetAnimatorTriggerOnExit": ["BeHit", "DoSkill", "Jump"],
          "animatorTriggerOnLanded": "",
          "sheatheOnStart": true
        },
        "PlayMusic_FrenchHorn_AS": {
          "$type": "KBOPIKLCBOA",
          "animatorStates": {
            "PlayMusic_FrenchHorn_AS": ["PlayMusic_Frenchhorn_Girl_AS"]
          },
          "MOKBIKEEHMJ": "combatMove",
          "canDoSkill": true,
          "massRatio": 100.0,
          "resetAnimatorTriggerOnExit": ["BeHit", "DoSkill", "Jump"],
          "setAnimatorBoolean": [
            {
              "name": "&CanUseSkill"
            }
          ],
          "canChangeAvatar": [{}],
          "animatorTriggerOnLanded": "",
          "sheatheOnStart": true
        },
        "ActivitySkill_ElectricCoreFly": {
          "$type": "KBOPIKLCBOA",
          "animatorStates": {
            "ActivitySkill_ElectricCoreFly": []
          },
          "MOKBIKEEHMJ": "combatAir",
          "massRatio": 100.0,
          "resetAnimatorTriggerOnEnter": ["ElectricCoreFly_End"],
          "resetAnimatorTriggerOnExit": [
            "BeHit",
            "DoSkill",
            "Jump",
            "ElectricCoreFly_End"
          ],
          "animatorTriggerOnLanded": "",
          "sheatheOnStart": true
        },
        "ActivitySkill_GrapplingHook": {
          "$type": "KBOPIKLCBOA",
          "animatorStates": {
            "ActivitySkill_GrapplingHook": []
          },
          "MOKBIKEEHMJ": "combatAir",
          "massRatio": 100.0,
          "resetAnimatorTriggerOnEnter": ["GrapplingHook_Drop"],
          "resetAnimatorTriggerOnExit": [
            "BeHit",
            "DoSkill",
            "Jump",
            "GrapplingHook_Drop"
          ],
          "animatorTriggerOnLanded": "",
          "sheatheOnStart": true
        },
        "ActivitySkill_CustomSkill01": {
          "$type": "KBOPIKLCBOA",
          "animatorStates": {
            "ActivitySkill_CustomSkill01": []
          },
          "MOKBIKEEHMJ": "combatAir",
          "canDoSkill": true,
          "massRatio": 100.0,
          "resetAnimatorTriggerOnEnter": [
            "CustomSkill_End_Fly",
            "CustomSkill_End_Drop"
          ],
          "resetAnimatorTriggerOnExit": [
            "BeHit",
            "DoSkill",
            "Jump",
            "CustomSkill_End_Fly",
            "CustomSkill_End_Drop"
          ],
          "animatorTriggerOnLanded": "",
          "sheatheOnStart": true
        },
        "ActivitySkill_CustomSkill02": {
          "$type": "KBOPIKLCBOA",
          "animatorStates": {
            "ActivitySkill_CustomSkill02": []
          },
          "MOKBIKEEHMJ": "combatAir",
          "canDoSkill": true,
          "massRatio": 100.0,
          "resetAnimatorTriggerOnEnter": [
            "CustomSkill_End_Fly",
            "CustomSkill_End_Drop"
          ],
          "resetAnimatorTriggerOnExit": [
            "BeHit",
            "DoSkill",
            "Jump",
            "CustomSkill_End_Fly",
            "CustomSkill_End_Drop"
          ],
          "animatorTriggerOnLanded": "",
          "sheatheOnStart": true
        },
        "ActivitySkill_CommonMove": {
          "$type": "KBOPIKLCBOA",
          "animatorStates": {
            "ActivitySkill_CommonMove": []
          },
          "addEndure": 0.0,
          "massRatio": 100.0,
          "resetAnimatorTriggerOnExit": ["BeHit", "DoSkill", "Jump"],
          "enableBoneFollowMove": true,
          "jumpCancelStart": -1.0,
          "sprintCancelStart": -1.0,
          "animatorTriggerOnLanded": "",
          "sheatheOnStart": true
        },
        "DiveChannel_BS": {
          "$type": "KBOPIKLCBOA",
          "animatorStates": {
            "DiveChannelBS": [
              "Emo_Avatar_Common_Manekin_Default",
              "Audio_Girl_DiveChannel_BS"
            ]
          },
          "MOKBIKEEHMJ": "combatDive",
          "massRatio": 100.0,
          "resetAnimatorTriggerOnExit": ["BeHit", "DoSkill", "Jump"],
          "setAnimatorBoolean": [
            {
              "name": "&CanUseSkill"
            }
          ],
          "canChangeAvatar": [{}],
          "actionPanelState": "Dive",
          "sprintCancelEnd": -1.0,
          "animatorTriggerOnLanded": "",
          "sheatheOnStart": true
        },
        "DiveChannel_Loop": {
          "$type": "KBOPIKLCBOA",
          "animatorStates": {
            "DiveChannelLoop": []
          },
          "MOKBIKEEHMJ": "combatDive",
          "massRatio": 100.0,
          "resetAnimatorTriggerOnExit": ["BeHit", "DoSkill", "Jump"],
          "setAnimatorBoolean": [
            {
              "name": "&CanUseSkill"
            }
          ],
          "canChangeAvatar": [{}],
          "actionPanelState": "Dive",
          "sprintCancelEnd": -1.0,
          "animatorTriggerOnLanded": "",
          "sheatheOnStart": true
        },
        "DiveChannel_AS": {
          "$type": "KBOPIKLCBOA",
          "animatorStates": {
            "DiveChannelAS": ["Audio_Girl_DiveChannel_AS"]
          },
          "MOKBIKEEHMJ": "combatDive",
          "canDoSkill": true,
          "canDoSkillStart": 0.30000001192092896,
          "massRatio": 100.0,
          "resetAnimatorTriggerOnExit": ["BeHit", "DoSkill", "Jump"],
          "setAnimatorBoolean": [
            {
              "name": "&CanUseSkill"
            }
          ],
          "canChangeAvatar": [{}],
          "actionPanelState": "Dive",
          "sprintCancelStart": 0.11999999731779099,
          "animatorTriggerOnLanded": "",
          "sheatheOnStart": true
        },
        "DiveCast_BS": {
          "$type": "KBOPIKLCBOA",
          "animatorStates": {
            "DiveCast_BS": [
              "Emo_Avatar_Common_Manekin_Default",
              "Audio_Girl_DiveCast_BS"
            ]
          },
          "MOKBIKEEHMJ": "combatDive",
          "massRatio": 100.0,
          "resetAnimatorTriggerOnExit": ["BeHit", "DoSkill", "Jump"],
          "setAnimatorBoolean": [
            {
              "name": "&CanUseSkill"
            }
          ],
          "canChangeAvatar": [{}],
          "actionPanelState": "Dive",
          "sprintCancelEnd": -1.0,
          "animatorTriggerOnLanded": "",
          "sheatheOnStart": true
        },
        "DiveCast_Loop": {
          "$type": "KBOPIKLCBOA",
          "animatorStates": {
            "DiveCast_Loop": []
          },
          "MOKBIKEEHMJ": "combatDive",
          "massRatio": 100.0,
          "resetAnimatorTriggerOnExit": ["BeHit", "DoSkill", "Jump"],
          "setAnimatorBoolean": [
            {
              "name": "&CanUseSkill"
            }
          ],
          "canChangeAvatar": [{}],
          "actionPanelState": "Dive",
          "sprintCancelEnd": -1.0,
          "animatorTriggerOnLanded": "",
          "sheatheOnStart": true
        },
        "DiveCast_AS": {
          "$type": "KBOPIKLCBOA",
          "animatorStates": {
            "DiveCast_AS": ["Audio_Girl_DiveCast_AS"]
          },
          "MOKBIKEEHMJ": "combatDive",
          "canDoSkill": true,
          "canDoSkillStart": 0.10000000149011612,
          "massRatio": 100.0,
          "resetAnimatorTriggerOnExit": ["BeHit", "DoSkill", "Jump"],
          "setAnimatorBoolean": [
            {
              "name": "&CanUseSkill"
            }
          ],
          "canChangeAvatar": [{}],
          "actionPanelState": "Dive",
          "sprintCancelStart": 0.09000000357627869,
          "animatorTriggerOnLanded": "",
          "sheatheOnStart": true
        },
        "Dive": {
          "$type": "KBOPIKLCBOA",
          "animatorStates": {
            "DiveIdle": [],
            "DiveMoveBS": ["Audio_Girl_Dive_MoveBS"],
            "DiveMoveAS": ["Audio_Girl_Dive_MoveAS"],
            "DiveMoveU_A": ["Audio_Girl_Dive_MoveU_A"],
            "DiveMoveU_B": ["Audio_Girl_Dive_MoveU_B"],
            "DiveMoveF_A": [],
            "DiveMoveF_B": ["Audio_Girl_Dive_MoveF_B"],
            "DiveMoveD_A": ["Audio_Girl_Dive_MoveD_A"],
            "DiveMoveD_B": ["Audio_Girl_Dive_MoveD_B"],
            "DiveTurn": ["Audio_Girl_Dive_Turn"],
            "DiveTurnAS": ["Audio_Girl_Dive_Turn_AS"],
            "DiveTurn2": ["Audio_Girl_Dive_Turn"],
            "DiveTurnAS2": ["Audio_Girl_Dive_Turn_AS"],
            "DiveDashBS": ["Audio_Girl_Dive_Dash_BS"],
            "DiveDashAS": ["Audio_Girl_Dive_Dash_AS"],
            "DiveDash": [],
            "DiveDashB": ["Audio_Girl_Dive_Out_DashB"],
            "DiveSuperDash": ["Audio_Girl_Dive_SuperDash"],
            "DiveSuperDash2": ["Audio_Girl_Dive_SuperDash2"]
          },
          "canDoSkill": true,
          "resetAnimatorTriggerOnEnter": ["DoSkill"],
          "setAnimatorBoolean": [
            {
              "name": "&CanUseSkill"
            }
          ],
          "canChangeAvatar": [{}],
          "actionPanelState": "Dive",
          "animatorTriggerOnLanded": "",
          "sheatheOnStart": true
        },
        "Dive_In_Out": {
          "$type": "KBOPIKLCBOA",
          "animatorStates": {
            "Dive_In_Up": ["Audio_Girl_Dive_In_Up"],
            "Dive_In_Side": ["Audio_Girl_Dive_In_Side"],
            "Dive_In_Bottom": ["Audio_Girl_Dive_In_Bottom"],
            "Dive_Out_Side": ["Audio_Girl_Dive_Out_Side"],
            "Dive_Out_Bottom": ["Audio_Girl_Dive_Out_Bottom"],
            "Dive_Out_Up": ["Audio_Girl_Dive_Out_Up"]
          },
          "resetAnimatorTriggerOnEnter": ["DoSkill"],
          "setAnimatorBoolean": [
            {
              "name": "&CanUseSkill"
            }
          ],
          "actionPanelState": "Dive",
          "animatorTriggerOnLanded": "",
          "sheatheOnStart": true
        },
        "DiveStream": {
          "$type": "KBOPIKLCBOA",
          "animatorStates": {
            "DiveStreamIn": ["Audio_Girl_Dive_Stream_In"],
            "DiveStreamOut": ["Audio_Girl_Dive_Stream_Out"],
            "DiveStream": [],
            "DiveStreamRoll_L": ["Audio_Girl_Dive_Stream_Roll_L"],
            "DiveStreamRoll_R": ["Audio_Girl_Dive_Stream_Roll_R"]
          },
          "canDoSkill": true,
          "resetAnimatorTriggerOnEnter": ["DoSkill"],
          "setAnimatorBoolean": [
            {
              "name": "&CanUseSkill"
            }
          ],
          "actionPanelState": "Dive",
          "animatorTriggerOnLanded": "",
          "sheatheOnStart": true
        },
        "DiveJump": {
          "$type": "KBOPIKLCBOA",
          "animatorStates": {
            "Dive_Out_DashU": ["Audio_Girl_Dive_Out_DashU"],
            "Dive_Out_DashD": ["Audio_Girl_Dive_Out_DashD"],
            "Dive_Out_DashFBS": ["Audio_Girl_Dive_Out_DashFBS"],
            "Dive_Out_DashFAS": ["Audio_Girl_Dive_Out_DashFAS"],
            "Dive_Out_DashFLoop": []
          },
          "canDoSkill": true,
          "resetAnimatorTriggerOnEnter": ["DoSkill", "AimEnd"],
          "setAnimatorBoolean": [
            {
              "name": "&CanUseAirSkill"
            }
          ],
          "actionPanelState": "Jump",
          "animatorTriggerOnLanded": "",
          "sheatheOnStart": true
        },
        "BeHitDive": {
          "$type": "KBOPIKLCBOA",
          "animatorStates": {
            "BeHitDive": ["Audio_Girl_Dive_beHit"],
            "DiveStruggle": []
          },
          "MOKBIKEEHMJ": "combatDive",
          "resetAnimatorTriggerOnEnter": ["BeHit"],
          "resetAnimatorTriggerOnExit": ["DoSkill"],
          "cameraType": "combatBeHit",
          "actionPanelState": "Dive",
          "jumpCancelEnd": 0.0,
          "animatorTriggerOnLanded": "",
          "sheatheOnStart": true
        },
        "MultiOverride_01": {
          "$type": "KBOPIKLCBOA",
          "animatorStates": {
            "MultiOverrideBS_01": [],
            "MultiOverrideLoop_01": [],
            "MultiOverrideAS_01": []
          },
          "animatorTriggerOnLanded": ""
        },
        "MultiOverride2": {
          "$type": "KBOPIKLCBOA",
          "animatorStates": {
            "MultiOverrideBS_02": [],
            "MultiOverrideLoop_02": [],
            "MultiOverrideAS_02": []
          },
          "animatorTriggerOnLanded": ""
        },
        "MultiOverride3": {
          "$type": "KBOPIKLCBOA",
          "animatorStates": {
            "MultiOverrideBS_03": [],
            "MultiOverrideLoop_03": [],
            "MultiOverrideAS_03": []
          },
          "animatorTriggerOnLanded": ""
        },
        "MultiOverride": {
          "$type": "KBOPIKLCBOA",
          "INKINKDHODO": {
            "Ani_Avatar_Girl_Claymore_Xinyan_Photo01BS": [],
            "Ani_Avatar_Girl_Claymore_Xinyan_Photo01Loop": [],
            "Ani_Avatar_Girl_Claymore_Xinyan_Photo01AS": [],
            "Ani_Avatar_Girl_Claymore_Xinyan_Photo02BS": [],
            "Ani_Avatar_Girl_Claymore_Xinyan_Photo02Loop": [],
            "Ani_Avatar_Girl_Claymore_Xinyan_Photo02AS": []
          },
          "animatorTriggerOnLanded": ""
        }
      }
    },
    "diveLayer": {
      "$type": "GBGJJIIEMBD",
      "layerIndex": 5,
      "layerIndexName": "DiveLayer",
      "CPAANEIJCGD": ""
    }
  },
  "DADEGCDMOBD": false,
  "audio": {
    "overrideEmitterName": "",
    "animAudio": {
      "onTransitionIn": [
        {
          "currentStateName": "ExtraAttack1",
          "audioEvent": {
            "text": "Play_sfx_char_xinyan_claymore_extraAtk1"
          }
        },
        {
          "currentStateName": "ExtraAttack2",
          "audioEvent": {
            "text": "Play_sfx_char_xinyan_claymore_extraAtk2"
          }
        },
        {
          "currentStateName": "SlipFaceWall",
          "audioEvent": {
            "text": "Play_sfx_char_slipWall"
          }
        },
        {
          "currentStateName": "SlipBackWall",
          "audioEvent": {
            "text": "Play_sfx_char_slipWall"
          }
        },
        {
          "currentStateName": "Standby",
          "audioEvent": {
            "text": "Stop_sfx_char_fly"
          }
        },
        {
          "currentStateName": "SprintBS",
          "audioEvent": {
            "text": "Play_sfx_char_foley_flutter_heavy"
          }
        },
        {
          "currentStateName": "SwimJumpToWater",
          "audioEvent": {
            "text": "Stop_sfx_char_swim_dive"
          }
        },
        {
          "currentStateName": "SwimDash",
          "audioEvent": {
            "text": "Play_sfx_char_swim_dash"
          }
        },
        {
          "currentStateName": "DiveDash",
          "audioEvent": {
            "text": "Play_sfx_char_dive_dash_lp"
          },
          "otherStateNames": ["DiveDashBS"],
          "usage": "InSet"
        },
        {
          "currentStateName": "DiveStream",
          "audioEvent": {
            "text": "Play_sfx_char_dive_stream_lp"
          }
        },
        {
          "currentStateName": "Dive_Out_DashFLoop",
          "audioEvent": {
            "text": "Play_sfx_char_dive_out_dashFLoop"
          }
        },
        {
          "currentStateName": "DiveMoveF_A",
          "audioEvent": {
            "text": "Play_sfx_char_dive_moveF_A"
          }
        },
        {
          "currentStateName": "DiveChannel_Loop",
          "audioEvent": {
            "text": "Play_vfx_Avatar_Diving_Channel_LP"
          }
        }
      ],
      "onTransitionOut": [
        {
          "currentStateName": "ExtraAttack1",
          "audioEvent": {
            "text": "Stop_sfx_char_xinyan_claymore_extraAtk1"
          }
        },
        {
          "currentStateName": "ExtraAttack2",
          "audioEvent": {
            "text": "Stop_sfx_char_xinyan_claymore_extraAtk2"
          },
          "otherStateNames": ["ExtraAttack1", "ExtraAttack3"],
          "usage": "Except"
        },
        {
          "currentStateName": "ExtraAttack3",
          "audioEvent": {
            "text": "Stop_Play_sfx_char_xinyan_claymore_attack"
          }
        },
        {
          "currentStateName": "StandbyShow_01",
          "audioEvent": {
            "text": "Stop_sfx_standbyShow_xinyan_01"
          }
        },
        {
          "currentStateName": "StandbyShow_02",
          "audioEvent": {
            "text": "Stop_sfx_standbyShow_xinyan_02"
          }
        },
        {
          "currentStateName": "StandbyPutaway",
          "audioEvent": {
            "text": "Stop_sfx_weapon_1HSword_lady_putAwayStandby"
          }
        },
        {
          "currentStateName": "WalkPutaway",
          "audioEvent": {
            "text": "Stop_sfx_weapon_1HSword_lady_putAwayStandby"
          }
        },
        {
          "currentStateName": "RunPutaway",
          "audioEvent": {
            "text": "Stop_sfx_weapon_1HSword_lady_putAwayStandby"
          }
        },
        {
          "currentStateName": "SwimJumpDrop",
          "audioEvent": {
            "text": "Stop_sfx_char_swim_drop"
          }
        },
        {
          "currentStateName": "SwimJump",
          "audioEvent": {
            "text": "Stop_sfx_char_swim_drop"
          },
          "otherStateNames": ["SwimJumpDrop"],
          "usage": "Except"
        },
        {
          "currentStateName": "Fly",
          "audioEvent": {
            "text": "Play_sfx_char_land_climb"
          },
          "otherStateNames": [
            "ClimbIdle",
            "ClimbMove0",
            "ClimbMove1",
            "ClimbJump"
          ],
          "usage": "InSet"
        },
        {
          "currentStateName": "FlyStart",
          "audioEvent": {
            "text": "Play_sfx_char_land_climb"
          },
          "otherStateNames": [
            "ClimbIdle",
            "ClimbMove0",
            "ClimbMove1",
            "ClimbJump"
          ],
          "usage": "InSet"
        },
        {
          "currentStateName": "Fly",
          "audioEvent": {
            "text": "Stop_sfx_char_fly"
          }
        },
        {
          "currentStateName": "DropDownLit",
          "audioEvent": {
            "text": "Play_sfx_char_land_climb"
          },
          "otherStateNames": [
            "ClimbIdle",
            "ClimbMove0",
            "ClimbMove1",
            "ClimbJump"
          ],
          "usage": "InSet"
        },
        {
          "currentStateName": "DropDown",
          "audioEvent": {
            "text": "Play_sfx_char_land_climb"
          },
          "otherStateNames": [
            "ClimbIdle",
            "ClimbMove0",
            "ClimbMove1",
            "ClimbJump"
          ],
          "usage": "InSet"
        },
        {
          "currentStateName": "WalkDropDownLit",
          "audioEvent": {
            "text": "Play_sfx_char_land_climb"
          },
          "otherStateNames": [
            "ClimbIdle",
            "ClimbMove0",
            "ClimbMove1",
            "ClimbJump"
          ],
          "usage": "InSet"
        },
        {
          "currentStateName": "Jump",
          "audioEvent": {
            "text": "Play_sfx_char_land_climb"
          },
          "otherStateNames": [
            "ClimbIdle",
            "ClimbMove0",
            "ClimbMove1",
            "ClimbJump"
          ],
          "usage": "InSet"
        },
        {
          "currentStateName": "JumpForWalk",
          "audioEvent": {
            "text": "Play_sfx_char_land_climb"
          },
          "otherStateNames": [
            "ClimbIdle",
            "ClimbMove0",
            "ClimbMove1",
            "ClimbJump"
          ],
          "usage": "InSet"
        },
        {
          "currentStateName": "JumpForRun",
          "audioEvent": {
            "text": "Play_sfx_char_land_climb"
          },
          "otherStateNames": [
            "ClimbIdle",
            "ClimbMove0",
            "ClimbMove1",
            "ClimbJump"
          ],
          "usage": "InSet"
        },
        {
          "currentStateName": "JumpForSprint",
          "audioEvent": {
            "text": "Play_sfx_char_land_climb"
          },
          "otherStateNames": [
            "ClimbIdle",
            "ClimbMove0",
            "ClimbMove1",
            "ClimbJump"
          ],
          "usage": "InSet"
        },
        {
          "currentStateName": "JumpWeapon",
          "audioEvent": {
            "text": "Play_sfx_char_land_climb"
          },
          "otherStateNames": [
            "ClimbIdle",
            "ClimbMove0",
            "ClimbMove1",
            "ClimbJump"
          ],
          "usage": "InSet"
        },
        {
          "currentStateName": "JumpForWalkWeapon",
          "audioEvent": {
            "text": "Play_sfx_char_land_climb"
          },
          "otherStateNames": [
            "ClimbIdle",
            "ClimbMove0",
            "ClimbMove1",
            "ClimbJump"
          ],
          "usage": "InSet"
        },
        {
          "currentStateName": "JumpForRunWeapon",
          "audioEvent": {
            "text": "Play_sfx_char_land_climb"
          },
          "otherStateNames": [
            "ClimbIdle",
            "ClimbMove0",
            "ClimbMove1",
            "ClimbJump"
          ],
          "usage": "InSet"
        },
        {
          "currentStateName": "DropDownWeapon",
          "audioEvent": {
            "text": "Play_sfx_char_land_climb"
          },
          "otherStateNames": [
            "ClimbIdle",
            "ClimbMove0",
            "ClimbMove1",
            "ClimbJump"
          ],
          "usage": "InSet"
        },
        {
          "currentStateName": "DropDownLitWeapon",
          "audioEvent": {
            "text": "Play_sfx_char_land_climb"
          },
          "otherStateNames": [
            "ClimbIdle",
            "ClimbMove0",
            "ClimbMove1",
            "ClimbJump"
          ],
          "usage": "InSet"
        },
        {
          "currentStateName": "SlipFaceWall",
          "audioEvent": {
            "text": "Stop_sfx_char_slipWall"
          }
        },
        {
          "currentStateName": "SlipBackWall",
          "audioEvent": {
            "text": "Stop_sfx_char_slipWall"
          }
        },
        {
          "currentStateName": "SwimMove",
          "audioEvent": {
            "text": "Stop_sfx_char_swim"
          }
        },
        {
          "currentStateName": "ClimbMove0",
          "audioEvent": {
            "text": "Stop_vo_external_1P_3D"
          },
          "otherStateNames": ["ClimbIdle", "ClimbMove1"],
          "usage": "Except"
        },
        {
          "currentStateName": "DiveDash",
          "audioEvent": {
            "text": "Stop_sfx_char_dive_dash_lp"
          },
          "otherStateNames": ["DiveDashB", "DiveTurn", "DiveTurn2"],
          "usage": "Except"
        },
        {
          "currentStateName": "DiveStream",
          "audioEvent": {
            "text": "Stop_sfx_char_dive_stream_lp"
          },
          "otherStateNames": ["DiveStreamRoll_L", "DiveStreamRoll_R"],
          "usage": "Except"
        },
        {
          "currentStateName": "DiveMoveAS",
          "audioEvent": {
            "text": "Stop_sfx_char_dive_move_AS"
          }
        },
        {
          "currentStateName": "Dive_Out_DashFLoop",
          "audioEvent": {
            "text": "Stop_sfx_char_dive_out_dashFLoop"
          }
        },
        {
          "currentStateName": "DiveIdle",
          "audioEvent": {
            "text": "Stop_sfx_char_dive_dash_lp"
          }
        },
        {
          "currentStateName": "Dive_Out_Up",
          "audioEvent": {
            "text": "Stop_sfx_char_dive_moveF_A"
          }
        },
        {
          "currentStateName": "DiveChannel_Loop",
          "audioEvent": {
            "text": "Stop_vfx_Avatar_Diving_Channel_LP"
          }
        },
        {
          "currentStateName": "DiveMoveU_A",
          "audioEvent": {
            "text": "Stop_sfx_char_dive_moveU_A"
          }
        },
        {
          "currentStateName": "DiveMoveF_A",
          "audioEvent": {
            "text": "Stop_sfx_char_dive_moveF_A"
          },
          "otherStateNames": ["DiveMoveF_B"],
          "usage": "Except"
        }
      ],
      "recurrentSpeeches": {
        "Standby": {
          "start": {
            "upper": 28.0,
            "lower": 23.0
          },
          "interval": {
            "upper": 40.0,
            "lower": 34.0
          },
          "eventName": {
            "text": "Play_vo_char_explore_idle"
          }
        },
        "Walk": {
          "start": {
            "upper": 16.0,
            "lower": 13.0
          },
          "interval": {
            "upper": 14.0,
            "lower": 10.0
          },
          "eventName": {
            "text": ""
          }
        },
        "Run": {
          "start": {
            "upper": 13.0,
            "lower": 9.0
          },
          "interval": {
            "upper": 11.0,
            "lower": 8.0
          },
          "eventName": {
            "text": ""
          }
        },
        "Sprint": {
          "start": {
            "upper": 12.0,
            "lower": 7.0
          },
          "interval": {
            "upper": 9.0,
            "lower": 6.0
          },
          "eventName": {
            "text": ""
          }
        }
      }
    },
    "moveStateAudio": {
      "onStateBegin": [
        {
          "currentStateName": "Fly",
          "audioEvent": {
            "text": "Play_sfx_char_fly"
          }
        },
        {
          "currentStateName": "Air",
          "audioEvent": {
            "text": "Play_sfx_char_drop"
          },
          "otherStateNames": ["Fly"],
          "usage": "InSet"
        },
        {
          "currentStateName": "CombatDive",
          "audioEvent": {
            "text": "Play_sfx_char_dive_move_swim_idle"
          },
          "otherStateNames": ["Dive"],
          "usage": "Except"
        },
        {
          "currentStateName": "Dive",
          "audioEvent": {
            "text": "Play_sfx_char_dive_move_swim_idle"
          },
          "otherStateNames": ["CombatDive"],
          "usage": "Except"
        }
      ],
      "onStateEnd": [
        {
          "currentStateName": "Fly",
          "audioEvent": {
            "text": "Stop_sfx_char_fly"
          }
        },
        {
          "currentStateName": "Air",
          "audioEvent": {
            "text": "Stop_sfx_char_drop"
          }
        },
        {
          "currentStateName": "Dive",
          "audioEvent": {
            "text": "Stop_sfx_char_dive_move_swim_idle"
          },
          "otherStateNames": ["CombatDive"],
          "usage": "Except"
        },
        {
          "currentStateName": "CombatDive",
          "audioEvent": {
            "text": "Stop_sfx_char_dive_move_swim_idle"
          },
          "otherStateNames": ["Dive"],
          "usage": "Except"
        }
      ]
    },
    "voiceSwitch": {
      "text": "Switch_Xinyan"
    },
    "bodyTypeSwitch": {
      "text": "Switch_Girl"
    },
    "listenerLiftup": 1.5,
    "surfaceProberLiftup": 1.5
  },
  "ONIAJBGGJHD": "AvatarGirl",
  "perform": {
    "standby": {
      "minTime": 10.0,
      "maxTime": 20.0,
      "performIDs": [201, 202, 200, 200]
    }
  }
}
