[
  {
    "Default": {
      "$type": "ConfigAbility",
      "abilityName": "Monster_FauneAbyssale_MantaRay_Ult_NormalBullet",
      "abilityMixins": [
        {
          "$type": "MFGGKNJLABP",
          "PNAPPKMKAJP": ["NormalAttack", "NormalAttack_Mirror"],
          "endNormalizedTime": 0.3499999940395355,
          "GINJMMLNHIA": 70.0,
          "HIFACMDKHHK": -70.0,
          "angularSpeed": 120.0,
          "attackTrigger": ""
        }
      ],
      "onAbilityStart": [
        {
          "$type": "TriggerBullet",
          "bulletID": 42615015,
          "born": {
            "$type": "ConfigBornByAttachPoint",
            "direction": {
              "$type": "ConfigDirectionByAttackTarget",
              "maxAngle": 45.0,
              "startPoint": ""
            },
            "useRotation": true,
            "attachPointName": "Emit"
          }
        },
        {
          "$type": "EDLENJODHIM"
        }
      ]
    }
  },
  {
    "Default": {
      "$type": "ConfigAbility",
      "abilityName": "Monster_FauneAbyssale_MantaRay_Ult_Bullet01",
      "modifiers": {
        "DamageMonitor": {
          "modifierName": "",
          "elementDurability": 100.0,
          "onAttackLanded": [
            {
              "$type": "Predicated",
              "target": "Target",
              "targetPredicates": [
                {
                  "$type": "ByAttackTags",
                  "attackTags": ["BladeBullet_Ult"]
                },
                {
                  "$type": "ByEntityTypes",
                  "entityTypes": ["Avatar"]
                }
              ],
              "successActions": [
                {
                  "$type": "Predicated",
                  "target": "Target",
                  "targetPredicates": [
                    {
                      "$type": "BHFFBBOLCCP",
                      "target": "TargetTeam",
                      "modifierName": "BladeBullet_Cooldown"
                    }
                  ],
                  "successActions": [
                    {
                      "$type": "DamageByAttackValue",
                      "target": "Target",
                      "attackInfo": {
                        "attackTag": "",
                        "attenuationTag": "",
                        "attenuationGroup": "default",
                        "attackProperty": {
                          "actorGrassSubHurtDelta": 0.5,
                          "actorWindSubHurtDelta": 0.0,
                          "elementType": "Water",
                          "elementDurability": 0.0,
                          "strikeType": "Slash",
                          "enBreak": 0.0,
                          "GLKMCMDJBIK": 0.0
                        },
                        "hitPattern": {
                          "onHitEffectName": "default",
                          "hitImpulseY": "",
                          "hitImpulseType": "LV0"
                        }
                      }
                    }
                  ],
                  "failActions": [
                    {
                      "$type": "DamageByAttackValue",
                      "target": "Target",
                      "attackInfo": {
                        "attackTag": "",
                        "attenuationTag": "",
                        "attenuationGroup": "default",
                        "attackProperty": {
                          "actorGrassSubHurtDelta": 1.0,
                          "actorWindSubHurtDelta": 0.0,
                          "elementType": "Water",
                          "elementDurability": 0.0,
                          "strikeType": "Slash",
                          "enBreak": 0.0,
                          "GLKMCMDJBIK": 0.0
                        },
                        "hitPattern": {
                          "onHitEffectName": "default",
                          "hitImpulseY": "",
                          "hitImpulseType": "LV0"
                        },
                        "cameraShake": {
                          "shakeRange": 0.800000011920929,
                          "shakeTime": 0.30000001192092896
                        }
                      }
                    }
                  ]
                },
                {
                  "$type": "ApplyModifier",
                  "target": "TargetTeam",
                  "modifierName": "BladeBullet_Cooldown"
                }
              ]
            }
          ]
        },
        "BladeBullet_Cooldown": {
          "modifierName": "",
          "duration": 3.0,
          "elementDurability": 100.0
        }
      },
      "onAdded": [
        {
          "$type": "ApplyModifier",
          "modifierName": "DamageMonitor"
        }
      ],
      "onAbilityStart": [
        {
          "$type": "FireEffect",
          "rotationDampTime": "Eff_Monster_FauneAbyssale_MantaRay_Ult_UltBlade_Trigger",
          "born": {
            "$type": "ConfigBornByAttachPoint",
            "direction": {
              "$type": "ConfigDirectionByAttackTarget",
              "maxAngle": 45.0,
              "startPoint": ""
            },
            "useRotation": true,
            "attachPointName": "Emit"
          },
          "PPPDJGDDOGD": 1.0,
          "AJDILHJFNKE": -1.0
        },
        {
          "$type": "TriggerBullet",
          "bulletID": 42615016,
          "born": {
            "$type": "ConfigBornByAttachPoint",
            "direction": {
              "$type": "ConfigDirectionByAttackTarget",
              "maxAngle": 45.0,
              "startPoint": ""
            },
            "useRotation": true,
            "attachPointName": "Emit"
          }
        },
        {
          "$type": "ActCameraRadialBlur",
          "cameraRadialBlur": {
            "power": 0.699999988079071,
            "blurTime": 0.07000000029802322,
            "fadeTime": 0.23000000417232513
          }
        }
      ]
    }
  },
  {
    "Default": {
      "$type": "ConfigAbility",
      "abilityName": "Monster_FauneAbyssale_MantaRay_Ult_Alert",
      "modifiers": {
        "SlashPoint_Kill": {
          "modifierName": "",
          "duration": 0.10000000149011612,
          "elementDurability": 100.0,
          "onAdded": [
            {
              "$type": "SetGlobalValue",
              "value": 1.0,
              "key": "SLASH_POINT_STATUS",
              "maxValue": 0.0,
              "minValue": 0.0
            },
            {
              "$type": "FireEffect",
              "rotationDampTime": "Eff_Monster_FauneAbyssale_MantaRay_Ult_SlashPoint_Disappear",
              "PPPDJGDDOGD": 1.0,
              "AJDILHJFNKE": -1.0
            }
          ]
        }
      },
      "onAbilityStart": [
        {
          "$type": "ApplyModifier",
          "otherTargets": {
            "$type": "SelectTargetsByChildren",
            "configID": 42615018
          },
          "modifierName": "SlashPoint_Kill"
        },
        {
          "$type": "FireEffect",
          "rotationDampTime": "Eff_Monster_FauneAbyssale_MantaRay_Ult_Alert",
          "PPPDJGDDOGD": 1.0,
          "AJDILHJFNKE": -1.0
        }
      ],
      "onKill": [
        {
          "$type": "ApplyModifier",
          "otherTargets": {
            "$type": "SelectTargetsByChildren",
            "configID": 42615018
          },
          "modifierName": "SlashPoint_Kill"
        }
      ]
    }
  },
  {
    "Default": {
      "$type": "ConfigAbility",
      "abilityName": "Monster_FauneAbyssale_MantaRay_Ult_Bullet01_BulletVFX",
      "modifiers": {
        "BulletVFX": {
          "modifierName": "",
          "elementDurability": 100.0,
          "onAdded": [
            {
              "$type": "AttachEffect",
              "rotationDampTime": "Eff_Monster_FauneAbyssale_MantaRay_Ult_UltBlade_Bullet",
              "PPPDJGDDOGD": 1.0,
              "AJDILHJFNKE": -1.0
            }
          ]
        }
      },
      "onAdded": [
        {
          "$type": "AttachModifier",
          "modifierName": "BulletVFX"
        }
      ],
      "onAbilityStart": [
        {
          "$type": "FireEffect",
          "target": "Target",
          "rotationDampTime": "Eff_Monster_FauneAbyssale_MantaRay_Ult_UltBlade_Hit",
          "born": {
            "$type": "ConfigBornByHitPoint"
          },
          "PPPDJGDDOGD": 1.0,
          "AJDILHJFNKE": -1.0
        }
      ]
    }
  },
  {
    "Default": {
      "$type": "ConfigAbility",
      "abilityName": "Monster_FauneAbyssale_MantaRay_Ult_Bullet01_Weak_BulletVFX",
      "modifiers": {
        "BulletVFX": {
          "modifierName": "",
          "elementDurability": 100.0,
          "onAdded": [
            {
              "$type": "AttachEffect",
              "rotationDampTime": "Eff_Monster_FauneAbyssale_MantaRay_Ult_UltBlade_BulletWeak",
              "PPPDJGDDOGD": 1.0,
              "AJDILHJFNKE": -1.0
            }
          ]
        }
      },
      "onAdded": [
        {
          "$type": "AttachModifier",
          "modifierName": "BulletVFX"
        }
      ],
      "onAbilityStart": [
        {
          "$type": "FireEffect",
          "target": "Target",
          "rotationDampTime": "Eff_Monster_FauneAbyssale_MantaRay_Ult_UltBlade_Hit",
          "born": {
            "$type": "EHMNFOLDFOF"
          },
          "PPPDJGDDOGD": 1.0,
          "AJDILHJFNKE": -1.0
        }
      ]
    }
  },
  {
    "Default": {
      "$type": "ConfigAbility",
      "abilityName": "Monster_FauneAbyssale_MantaRay_Ult_Limbo",
      "abilityMixins": [
        {
          "$type": "LAPMOOFOPBM",
          "valueSteps": [0.012000000104308128],
          "modifierNameSteps": ["MantaRay_Ult_Dummy", "MantaRay_Ult_ReadyToDie"]
        }
      ],
      "modifiers": {
        "MantaRay_Ult_Limbo": {
          "modifierName": "",
          "elementDurability": 100.0,
          "properties": {
            "Actor_HpThresholdRatio": 0.009999999776482582
          },
          "state": "Limbo"
        },
        "MantaRay_Ult_Dummy": {
          "modifierName": "",
          "elementDurability": 100.0,
          "onAdded": [
            {
              "$type": "SetGlobalValue",
              "value": 0.0,
              "key": "MantaRay_Ult_ReadyToDie",
              "maxValue": 0.0,
              "minValue": 0.0
            }
          ]
        },
        "MantaRay_Ult_ReadyToDie": {
          "modifierName": "",
          "elementDurability": 100.0,
          "thinkInterval": 2.0,
          "onAdded": [
            {
              "$type": "SetGlobalValue",
              "value": 1.0,
              "key": "MantaRay_Ult_ReadyToDie",
              "maxValue": 0.0,
              "minValue": 0.0
            },
            {
              "$type": "Predicated",
              "otherTargets": {
                "$type": "SelectTargetsByShape",
                "entityTypePriority": ["Monster"],
                "shapeName": "CircleR70H70C",
                "campTargetType": "Alliance",
                "doOffStage": 1.0
              },
              "targetPredicates": [
                {
                  "$type": "BGMAGODJEMF",
                  "featureTagIDs": [4038, 4032]
                },
                {
                  "$type": "ByTargetGlobalValue",
                  "key": "MantaRay_Ult_ReadyToDie",
                  "value": 1.0
                }
              ],
              "successActions": [
                {
                  "$type": "ApplyModifier",
                  "target": "Target",
                  "modifierName": "MantaRay_Ult_KillTarget"
                },
                {
                  "$type": "RemoveModifier",
                  "modifierName": "MantaRay_Ult_Limbo"
                },
                {
                  "$type": "KillSelf"
                }
              ]
            }
          ],
          "onThinkInterval": [
            {
              "$type": "Predicated",
              "otherTargets": {
                "$type": "SelectTargetsByShape",
                "entityTypePriority": ["Monster"],
                "shapeName": "CircleR70H70C",
                "campTargetType": "Alliance",
                "doOffStage": 1.0
              },
              "targetPredicates": [
                {
                  "$type": "BGMAGODJEMF",
                  "featureTagIDs": [4038, 4032]
                },
                {
                  "$type": "ByTargetGlobalValue",
                  "key": "MantaRay_Ult_ReadyToDie",
                  "value": 1.0
                }
              ],
              "successActions": [
                {
                  "$type": "ApplyModifier",
                  "target": "Target",
                  "modifierName": "MantaRay_Ult_KillTarget"
                },
                {
                  "$type": "RemoveModifier",
                  "modifierName": "MantaRay_Ult_Limbo"
                },
                {
                  "$type": "KillSelf"
                }
              ]
            }
          ]
        },
        "MantaRay_Ult_KillTarget": {
          "modifierName": "",
          "duration": 0.10000000149011612,
          "elementDurability": 100.0,
          "onAdded": [
            {
              "$type": "RemoveModifier",
              "modifierName": "MantaRay_Ult_Limbo"
            },
            {
              "$type": "KillSelf",
              "configIdArray": [26162201]
            }
          ]
        }
      },
      "onAdded": [
        {
          "$type": "ApplyModifier",
          "modifierName": "MantaRay_Ult_Limbo"
        },
        {
          "$type": "NJCKNDLIGEB",
          "born": {
            "$type": "ConfigBornBySelf",
            "useRotation": true
          }
        }
      ]
    }
  },
  {
    "Default": {
      "$type": "ConfigAbility",
      "abilityName": "Monster_FauneAbyssale_MantaRay_CreateSlashPoint",
      "abilityMixins": [
        {
          "$type": "MFGGKNJLABP",
          "PNAPPKMKAJP": ["UltBlade_BS", "UltBlade_Mirror_BS"],
          "GINJMMLNHIA": 70.0,
          "HIFACMDKHHK": -70.0,
          "angularSpeed": 76.0,
          "attackTrigger": ""
        },
        {
          "$type": "AttachToStateIDMixin",
          "stateIDs": ["UltBlade_BS", "UltBlade_Mirror_BS"],
          "modifierName": "UltBlade_BS_VFX",
          "DGFCLAIDIFI": ""
        },
        {
          "$type": "DIDNLIKKLLF",
          "stateIDs": ["UltBlade_BS"],
          "enterActions": [
            {
              "$type": "SetAnimatorTrigger",
              "otherTargets": {
                "$type": "SelectTargetsByShape",
                "entityTypePriority": ["Monster"],
                "shapeName": "CircleR70H70C",
                "campTargetType": "Alliance",
                "doOffStage": 1.0
              },
              "predicates": [
                {
                  "$type": "BGMAGODJEMF",
                  "featureTagIDs": [4038, 4032]
                }
              ],
              "triggerID": "StartComboSkill"
            }
          ],
          "DGFCLAIDIFI": ""
        }
      ],
      "modifiers": {
        "UltBlade_BS_VFX": {
          "modifierName": "",
          "elementDurability": 100.0,
          "onAdded": [
            {
              "$type": "AttachEffect",
              "rotationDampTime": "Eff_Monster_FauneAbyssale_MantaRay_Ult_UltBlade_BS",
              "PPPDJGDDOGD": 1.0,
              "AJDILHJFNKE": -1.0
            },
            {
              "$type": "EDLENJODHIM"
            }
          ]
        }
      },
      "onAbilityStart": [
        {
          "$type": "DAMKJFHBDHN"
        },
        {
          "$type": "BGGLKMPBPIH",
          "posType": {
            "$type": "ConfigBornBySelf",
            "useRotation": true
          }
        },
        {
          "$type": "BGGLKMPBPIH",
          "otherTargets": {
            "$type": "SelectTargetsByShape",
            "entityTypePriority": ["Monster"],
            "shapeName": "CircleR70H70C",
            "campTargetType": "Alliance",
            "doOffStage": 1.0
          },
          "predicatesForeach": [
            {
              "$type": "BGMAGODJEMF",
              "featureTagIDs": [4038, 4032]
            }
          ],
          "posType": {
            "$type": "ConfigBornByTarget"
          }
        },
        {
          "$type": "AHDFLKKABJM",
          "key": "CENTER_POS"
        },
        {
          "$type": "CreateGadget",
          "born": {
            "$type": "ConfigBornByGlobalValue",
            "positionKey": "CENTER_POS",
            "directionKey": ""
          },
          "lifeByOwnerV2": true,
          "gadgetID": 42615018
        },
        {
          "$type": "DLEIPBPNAIM",
          "paramList": [0, 0, 0]
        }
      ]
    }
  },
  {
    "Default": {
      "$type": "ConfigAbility",
      "abilityName": "Monster_FauneAbyssale_MantaRay_SlashPoint",
      "abilityMixins": [
        {
          "$type": "AttachModifierToSelfGlobalValueMixin",
          "globalValueKey": "SLASH_POINT_STATUS",
          "gvInTalk": 0.0,
          "valueSteps": [-0.5, 0.5, 1.5],
          "modifierNameSteps": ["SlashPoint_Logic", "Kill_Handler"]
        }
      ],
      "modifiers": {
        "SlashPoint_Logic": {
          "modifierName": "",
          "elementDurability": 100.0,
          "onAdded": [
            {
              "$type": "AttachEffect",
              "rotationDampTime": "Eff_Monster_FauneAbyssale_MantaRay_Ult_SlashPoint",
              "PPPDJGDDOGD": 1.0,
              "AJDILHJFNKE": -1.0
            },
            {
              "$type": "Predicated",
              "otherTargets": {
                "$type": "SelectTargetsByShape",
                "entityTypePriority": ["Monster"],
                "shapeName": "CircleR70H70C",
                "campTargetType": "All",
                "doOffStage": 1.0
              },
              "predicatesForeach": [
                {
                  "$type": "BGMAGODJEMF",
                  "featureTagIDs": [4038, 4032]
                }
              ],
              "successActions": [
                {
                  "$type": "AttachModifier",
                  "target": "Target",
                  "modifierName": "SlashPoint_Line_VFX"
                }
              ]
            }
          ],
          "onBeingHit": [
            {
              "$type": "Predicated",
              "target": "Target",
              "targetPredicates": [
                {
                  "$type": "ByHitStrikeType",
                  "strikeType": "Slash"
                }
              ],
              "successActions": [
                {
                  "$type": "FireEffect",
                  "rotationDampTime": "Eff_Monster_FauneAbyssale_MantaRay_Ult_SlashPoint_Break",
                  "PPPDJGDDOGD": 1.0,
                  "AJDILHJFNKE": -1.0
                },
                {
                  "$type": "ApplyModifier",
                  "otherTargets": {
                    "$type": "SelectTargetsByShape",
                    "entityTypePriority": ["Monster"],
                    "shapeName": "CircleR70H70C",
                    "campTargetType": "Alliance",
                    "doOffStage": 1.0
                  },
                  "predicates": [
                    {
                      "$type": "BGMAGODJEMF",
                      "featureTagIDs": [4038, 4032]
                    }
                  ],
                  "modifierName": "SlashPoint_Broken_MantaRay"
                },
                {
                  "$type": "DLEIPBPNAIM",
                  "target": "Owner",
                  "paramList": [0, 0, 1]
                },
                {
                  "$type": "SetGlobalValue",
                  "value": 1.0,
                  "key": "SLASH_POINT_STATUS",
                  "maxValue": 0.0,
                  "minValue": 0.0
                }
              ]
            }
          ],
          "onReconnect": [
            {
              "$type": "SetGlobalValue",
              "value": 1.0,
              "key": "SLASH_POINT_STATUS",
              "maxValue": 0.0,
              "minValue": 0.0
            }
          ]
        },
        "SlashPoint_Broken_MantaRay": {
          "modifierName": "",
          "elementDurability": 100.0,
          "onAdded": [
            {
              "$type": "SetAnimatorTrigger",
              "triggerID": "BeAbsorbed",
              "mpTriggerOnRemote": true
            },
            {
              "$type": "LoseHP",
              "amountByCasterMaxHPRatio": 0.20000000298023224,
              "BJKGFBGEFPB": ""
            },
            {
              "$type": "FireEffect",
              "rotationDampTime": "Eff_Monster_FauneAbyssale_MantaRay_Ult_UltBlade_Break",
              "PPPDJGDDOGD": 1.0,
              "AJDILHJFNKE": -1.0
            }
          ]
        },
        "SlashPoint_Line_VFX": {
          "modifierName": "",
          "elementDurability": 100.0,
          "onAdded": [
            {
              "$type": "AttachEffect",
              "target": "Applier",
              "rotationDampTime": "Eff_Monster_FauneAbyssale_MantaRay_Ult_BladeLink",
              "PPPDJGDDOGD": 1.0,
              "AJDILHJFNKE": -1.0,
              "setSelfAsEffectPluginTarget": true
            }
          ]
        },
        "Kill_Handler": {
          "modifierName": "",
          "duration": 1.0,
          "elementDurability": 100.0,
          "onRemoved": [
            {
              "$type": "KillSelf"
            }
          ]
        }
      },
      "onAdded": [
        {
          "$type": "ApplyModifier",
          "modifierName": "SlashPoint_Logic"
        }
      ]
    }
  }
]
