[
  {
    "Default": {
      "$type": "ConfigAbility",
      "abilityName": "Fungus_Trois_BVB_Ice_Digging",
      "abilityMixins": [
        {
          "$type": "AttachToAnimatorStateIDMixin",
          "stateIDs": ["DigAttack_Loop"],
          "modifierName": "DigMoveLoopHandler",
          "DGFCLAIDIFI": ""
        },
        {
          "$type": "IILHMBGONGM",
          "steerStateIDs": ["NormalAttack"],
          "endNormalizedTime": 99.0,
          "angularSpeed": 240.0,
          "attackTrigger": "DigOutTrigger",
          "attackDistance": 2.0,
          "DGFCLAIDIFI": ""
        }
      ],
      "modifiers": {
        "DigMoveLoopHandler": {
          "modifierName": "",
          "elementDurability": 100.0,
          "onAdded": [
            {
              "$type": "AttachEffect",
              "rotationDampTime": "Eff_Monster_Fungus_Trois_Ice_DigAttack_Trail",
              "PPPDJGDDOGD": 1.0,
              "AJDILHJFNKE": -1.0
            },
            {
              "$type": "IEJIAEEJHGE"
            },
            {
              "$type": "EnablePushColliderName",
              "pushColliderNames": ["PushCollider"]
            },
            {
              "$type": "HBNEMPLJCMB",
              "hide": true
            }
          ],
          "onRemoved": [
            {
              "$type": "IEJIAEEJHGE",
              "castShadow": true
            },
            {
              "$type": "EnablePushColliderName",
              "pushColliderNames": ["PushCollider"],
              "setEnable": true
            },
            {
              "$type": "HBNEMPLJCMB"
            }
          ]
        }
      }
    }
  },
  {
    "Default": {
      "$type": "ConfigAbility",
      "abilityName": "Fungus_Trois_BVB_Ice_Bullet",
      "modifiers": {
        "Fungus_Trois_BVB_Ice_Bullet_Display": {
          "modifierName": "",
          "elementDurability": 100.0,
          "onAdded": [
            {
              "$type": "AttachEffect",
              "rotationDampTime": "Eff_Monster_Fungus_Trois_Ice_Bullet",
              "PPPDJGDDOGD": 1.0,
              "AJDILHJFNKE": -1.0
            }
          ]
        }
      },
      "onAdded": [
        {
          "$type": "ApplyModifier",
          "modifierName": "Fungus_Trois_BVB_Ice_Bullet_Display"
        }
      ]
    }
  },
  {
    "Default": {
      "$type": "ConfigAbility",
      "abilityName": "Fungus_Trois_BVB_Ice_Bullet_Fire",
      "abilityMixins": [
        {
          "$type": "IILHMBGONGM",
          "steerStateIDs": ["UnionBurst"],
          "angularSpeed": 120.0,
          "attackTrigger": "",
          "DGFCLAIDIFI": ""
        }
      ],
      "onAbilityStart": [
        {
          "$type": "TriggerBullet",
          "bulletID": 42609011,
          "born": {
            "$type": "ConfigBornBySelf",
            "offset": {
              "x": 0.0,
              "y": 1.2000000476837158,
              "z": -0.5
            },
            "useRotation": true
          }
        }
      ]
    }
  },
  {
    "Default": {
      "$type": "ConfigAbility",
      "abilityName": "Fungus_Trois_BVB_Ice_Blizzard",
      "modifiers": {
        "UNIQUE_ElementShield_Ice": {
          "modifierName": "",
          "forceTriggerWhenChangeAuthority": true,
          "elementDurability": 100.0,
          "modifierMixins": [
            {
              "$type": "AAPIOACHKCI",
              "elementType": "Frozen",
              "showDamageText": "",
              "DLBHHADKGJN": 360.0,
              "maxShieldByHPRatio": 1.0,
              "shieldAngle": 0.25
            }
          ],
          "onAdded": [
            {
              "$type": "SetGlobalValue",
              "value": 1.0,
              "key": "_IN_SHIELD_PROTECT",
              "maxValue": 0.0,
              "minValue": 0.0
            },
            {
              "$type": "AttachEffect",
              "rotationDampTime": "Eff_Monster_Fungus_Trois_Ice_FrozenShield",
              "PPPDJGDDOGD": 1.0,
              "AJDILHJFNKE": -1.0
            },
            {
              "$type": "AttachModifier",
              "modifierName": "Shield_Timer"
            }
          ],
          "onRemoved": [
            {
              "$type": "SetGlobalValue",
              "value": 0.0,
              "key": "_IN_SHIELD_PROTECT",
              "maxValue": 0.0,
              "minValue": 0.0
            },
            {
              "$type": "FireEffect",
              "rotationDampTime": "Eff_Monster_Fungus_Trois_Ice_FrozenShield_Break",
              "PPPDJGDDOGD": 1.0,
              "AJDILHJFNKE": -1.0
            }
          ]
        },
        "Shield_Timer": {
          "modifierName": "",
          "duration": 6.0,
          "elementDurability": 100.0,
          "onRemoved": [
            {
              "$type": "RemoveModifier",
              "modifierName": "UNIQUE_ElementShield_Ice"
            }
          ]
        }
      },
      "onAbilityStart": [
        {
          "$type": "RemoveUniqueModifier",
          "modifierName": "UNIQUE_State_Shield_Up"
        },
        {
          "$type": "ApplyModifier",
          "modifierName": "UNIQUE_ElementShield_Ice"
        },
        {
          "$type": "CreateGadget",
          "born": {
            "$type": "ConfigBornBySelf",
            "onGround": true,
            "useRotation": true
          },
          "gadgetID": 42609028
        }
      ]
    }
  },
  {
    "Default": {
      "$type": "ConfigAbility",
      "abilityName": "Fungus_Trois_BVB_Ice_Blizzard_Gadget",
      "modifiers": {
        "FrozenStorm_State": {
          "modifierName": "",
          "duration": 6.099999904632568,
          "elementDurability": 100.0,
          "thinkInterval": 1.0,
          "onAdded": [
            {
              "$type": "AttachEffect",
              "rotationDampTime": "Eff_Monster_Fungus_Trois_Ice_Blizzard",
              "PPPDJGDDOGD": 1.0,
              "AJDILHJFNKE": -1.0
            }
          ],
          "onRemoved": [
            {
              "$type": "KillSelf"
            }
          ],
          "onThinkInterval": [
            {
              "$type": "DamageByAttackValue",
              "otherTargets": {
                "$type": "SelectTargetsByShape",
                "shapeName": "FungusAOE_R5",
                "campTargetType": "Enemy",
                "doOffStage": 1.0
              },
              "attackInfo": {
                "attackTag": "",
                "attenuationTag": "FrozenStorm",
                "attenuationGroup": "FungusFightV2_Seq1",
                "attackProperty": {
                  "actorGrassSubHurtDelta": 1.5,
                  "actorWindSubHurtDelta": 0.0,
                  "elementType": "Ice",
                  "elementDurability": 25.0,
                  "enBreak": 20.0,
                  "attackType": "Range",
                  "GLKMCMDJBIK": 0.0
                },
                "hitPattern": {
                  "onHitEffectName": "default",
                  "hitImpulseY": "",
                  "hitImpulseType": "LV1"
                }
              }
            }
          ]
        }
      },
      "onAdded": [
        {
          "$type": "ApplyModifier",
          "modifierName": "FrozenStorm_State"
        }
      ]
    }
  },
  {
    "Default": {
      "$type": "ConfigAbility",
      "abilityName": "Fungus_Trois_BVB_Ice_Passive",
      "modifiers": {
        "Taunt_Logic": {
          "modifierName": "",
          "elementDurability": 100.0,
          "thinkInterval": 2.0,
          "onThinkInterval": [
            {
              "$type": "TriggerTaunt",
              "otherTargets": {
                "$type": "SelectTargetsByShape",
                "shapeName": "CircleR30H10",
                "campTargetType": "Enemy",
                "doOffStage": 1.0
              },
              "predicates": [
                {
                  "$type": "ByEntityTypes",
                  "entityTypes": ["Monster", "Partner"]
                }
              ],
              "tauntLevel": "Ability_TauntLevel_4",
              "careValue": 36.0
            }
          ]
        }
      },
      "onAdded": [
        {
          "$type": "ApplyModifier",
          "modifierName": "Taunt_Logic"
        }
      ]
    }
  }
]
