[
  {
    "Default": {
      "$type": "ConfigAbility",
      "abilityName": "Monster_Hili_Wei_LifeBarManager",
      "abilityMixins": [
        {
          "$type": "LEOGLBFIELL",
          "poseIDs": [1, 9002, 9003, 9004, 9005],
          "modifierName": "HideLifeBar"
        },
        {
          "$type": "LEOGLBFIELL",
          "poseIDs": [1001],
          "modifierName": "ShowLifeBar"
        }
      ],
      "modifiers": {
        "HideLifeBar": {
          "modifierName": "",
          "elementDurability": 100.0,
          "onAdded": [
            {
              "$type": "HBNEMPLJCMB",
              "hide": true
            },
            {
              "$type": "KNLIPAELJMN",
              "canBeHandledOnRecover": true,
              "fore": true
            }
          ]
        },
        "ShowLifeBar": {
          "modifierName": "",
          "elementDurability": 100.0,
          "onAdded": [
            {
              "$type": "HBNEMPLJCMB"
            },
            {
              "$type": "KNLIPAELJMN",
              "canBeHandledOnRecover": true,
              "show": true,
              "fore": true
            }
          ]
        }
      },
      "onAdded": [
        {
          "$type": "ApplyModifier",
          "modifierName": "HideLifeBar"
        }
      ]
    }
  },
  {
    "Default": {
      "$type": "ConfigAbility",
      "abilityName": "Hili_Wei_Invincible",
      "abilityMixins": [
        {
          "$type": "AttachToStateIDMixin",
          "stateIDs": ["Retreat", "Dodge"],
          "modifierName": "Hili_Wei_Invincible",
          "DGFCLAIDIFI": ""
        }
      ],
      "modifiers": {
        "Hili_Wei_Invincible": {
          "modifierName": "",
          "elementDurability": 100.0,
          "state": "Invincible"
        }
      }
    }
  },
  {
    "Default": {
      "$type": "ConfigAbility",
      "abilityName": "Hili_Wei_Die",
      "abilityMixins": [
        {
          "$type": "AttachToAnimatorStateIDMixin",
          "stateIDs": ["Die"],
          "modifierName": "Die_SuitcaseEffect",
          "DGFCLAIDIFI": ""
        },
        {
          "$type": "DIDNLIKKLLF",
          "stateIDs": ["SwimDie"],
          "enterActions": [
            {
              "$type": "ApplyModifier",
              "modifierName": "Hili_Wei_SwimDieEffectTimer"
            }
          ],
          "DGFCLAIDIFI": ""
        }
      ],
      "modifiers": {
        "Die_SuitcaseEffect": {
          "modifierName": "",
          "elementDurability": 100.0,
          "onAdded": [
            {
              "$type": "AttachEffect",
              "rotationDampTime": "Eff_Monster_Hili_Wei_NoWeapon_Die_01",
              "born": {
                "$type": "ConfigBornByTarget",
                "offset": {
                  "x": 0.0,
                  "y": 0.0,
                  "z": 0.0
                }
              },
              "PPPDJGDDOGD": 1.0,
              "AJDILHJFNKE": -1.0
            }
          ]
        },
        "Hili_Wei_SwimDieEffectTimer": {
          "modifierName": "",
          "duration": 1.5,
          "elementDurability": 100.0,
          "onRemoved": [
            {
              "$type": "FireEffect",
              "rotationDampTime": "Eff_Monster_Hili_Wei_NoWeapon_SwimDie_01",
              "PPPDJGDDOGD": 1.0,
              "AJDILHJFNKE": -1.0
            }
          ]
        }
      },
      "onKill": [
        {
          "$type": "SetAnimatorTrigger",
          "triggerID": "DieShaderTrigger",
          "mpTriggerOnRemote": true
        }
      ]
    }
  },
  {
    "Default": {
      "$type": "ConfigAbility",
      "abilityName": "Hili_Wei_IgnoreControlState",
      "modifiers": {
        "Hili_Wei_IgnoreControlState": {
          "modifierName": "",
          "elementDurability": 100.0,
          "onAdded": [
            {
              "$type": "AttachAbilityStateResistance",
              "resistanceListID": 13002
            }
          ]
        }
      },
      "onAdded": [
        {
          "$type": "ApplyModifier",
          "modifierName": "Hili_Wei_IgnoreControlState"
        }
      ]
    }
  },
  {
    "Default": {
      "$type": "ConfigAbility",
      "abilityName": "Hili_Wei_Retreat",
      "abilityMixins": [
        {
          "$type": "LEOGLBFIELL",
          "poseIDs": [901],
          "modifierName": "RetreatState"
        },
        {
          "$type": "AttachToAnimatorStateIDMixin",
          "stateIDs": ["Retreat"],
          "modifierName": "RetreatTimer",
          "DGFCLAIDIFI": ""
        },
        {
          "$type": "AttachToNormalizedTimeMixin",
          "stateID": "Retreat",
          "modifierName": "Retreat_SuitcaseEffect",
          "DGFCLAIDIFI": ""
        }
      ],
      "modifiers": {
        "RetreatState": {
          "modifierName": "",
          "elementDurability": 100.0,
          "state": "Invincible",
          "onAdded": [
            {
              "$type": "SetAnimatorTrigger",
              "triggerID": "RetreatTrigger",
              "mpTriggerOnRemote": true
            }
          ]
        },
        "RetreatTimer": {
          "modifierName": "",
          "elementDurability": 100.0,
          "state": "Invincible",
          "onAdded": [
            {
              "$type": "SetAnimatorBool",
              "boolID": "Retreat",
              "value": true
            },
            {
              "$type": "AKJOHBCCCIJ",
              "dieImmediately": true
            },
            {
              "$type": "KillSelf",
              "duration": 2.5,
              "banHPPercentageDrop": true,
              "killSelfType": "Disappear",
              "value": true,
              "banExp": true
            }
          ]
        },
        "Retreat_SuitcaseEffect": {
          "modifierName": "",
          "elementDurability": 100.0,
          "onAdded": [
            {
              "$type": "FireEffect",
              "rotationDampTime": "Eff_Monster_Hili_Wei_NoWeapon_Retreat_01",
              "born": {
                "$type": "ConfigBornByTarget",
                "offset": {
                  "x": 0.0,
                  "y": 0.0,
                  "z": 0.0
                }
              },
              "PPPDJGDDOGD": 1.0,
              "AJDILHJFNKE": -1.0
            }
          ],
          "onRemoved": [
            {
              "$type": "SendEffectTrigger",
              "parameter": "End",
              "attachPoint": "",
              "rotationDampTime": "Eff_Monster_Hili_Wei_NoWeapon_Retreat_01"
            }
          ]
        }
      }
    }
  },
  {
    "Default": {
      "$type": "ConfigAbility",
      "abilityName": "Hili_Wei_SleepEffectStart",
      "abilityMixins": [
        {
          "$type": "AttachToAnimatorStateIDMixin",
          "stateIDs": ["Sleep", "SleepFree01", "OutOfSleep"],
          "modifierName": "SleepFxAtOnce",
          "DGFCLAIDIFI": ""
        }
      ],
      "modifiers": {
        "UNIQUE_Hili_Wei_Sleep_SuitcaseEffect": {
          "stacking": "Unique",
          "modifierName": "",
          "forceTriggerWhenChangeAuthority": true,
          "elementDurability": 100.0,
          "onAdded": [
            {
              "$type": "AttachEffect",
              "rotationDampTime": "Eff_Monster_Hili_Wei_NoWeapon_Sleep_01",
              "born": {
                "$type": "ConfigBornByGlobalValue",
                "positionKey": "SleepSuitcasePos",
                "directionKey": ""
              },
              "PPPDJGDDOGD": 1.0,
              "AJDILHJFNKE": -1.0
            }
          ],
          "onRemoved": [
            {
              "$type": "SendEffectTrigger",
              "parameter": "End",
              "attachPoint": "",
              "rotationDampTime": "Eff_Monster_Hili_Wei_NoWeapon_Sleep_01"
            },
            {
              "$type": "SendEffectTrigger",
              "parameter": "EndFx",
              "attachPoint": "",
              "rotationDampTime": "Eff_Monster_Hili_Wei_NoWeapon_Sleep_01"
            },
            {
              "$type": "SetGlobalPos",
              "key": "SleepSuitcasePos",
              "born": {
                "$type": "ConfigBornBySelf",
                "offset": {
                  "x": 0.0,
                  "y": 0.0,
                  "z": 0.0
                }
              }
            }
          ]
        },
        "SleepFxAtOnce": {
          "modifierName": "",
          "elementDurability": 100.0,
          "onAdded": [
            {
              "$type": "SetGlobalPos",
              "key": "SleepSuitcasePos",
              "born": {
                "$type": "ConfigBornBySelf",
                "offset": {
                  "x": 0.0,
                  "y": 0.0,
                  "z": 0.8999999761581421
                }
              }
            },
            {
              "$type": "TriggerAbility",
              "abilityName": "Hili_Wei_SleepEffectStart"
            }
          ]
        }
      },
      "onAdded": [
        {
          "$type": "SetGlobalPos",
          "key": "SleepSuitcasePos",
          "born": {
            "$type": "ConfigBornBySelf",
            "offset": {
              "x": 0.0,
              "y": 0.0,
              "z": 0.0
            }
          }
        }
      ],
      "onAbilityStart": [
        {
          "$type": "ApplyModifier",
          "modifierName": "UNIQUE_Hili_Wei_Sleep_SuitcaseEffect"
        }
      ]
    }
  },
  {
    "Default": {
      "$type": "ConfigAbility",
      "abilityName": "Hili_Wei_SleepEffectEnd",
      "modifiers": {
        "Hili_Wei_Sleep_SuitcaseEffect_DelayedRemove": {
          "modifierName": "",
          "duration": 3.0,
          "elementDurability": 100.0,
          "onRemoved": [
            {
              "$type": "RemoveUniqueModifier",
              "modifierName": "UNIQUE_Hili_Wei_Sleep_SuitcaseEffect"
            }
          ]
        }
      },
      "onAbilityStart": [
        {
          "$type": "ApplyModifier",
          "modifierName": "Hili_Wei_Sleep_SuitcaseEffect_DelayedRemove"
        }
      ]
    }
  },
  {
    "Default": {
      "$type": "ConfigAbility",
      "abilityName": "Hili_Wei_SleepState",
      "abilityMixins": [
        {
          "$type": "AttachToAnimatorStateIDMixin",
          "stateIDs": ["TurnToSleep", "Sleep", "SleepFree01", "OutOfSleep"],
          "modifierName": "SleepState",
          "DGFCLAIDIFI": ""
        }
      ],
      "modifiers": {
        "SleepState": {
          "modifierName": "",
          "elementDurability": 100.0,
          "onRemoved": [
            {
              "$type": "TriggerAbility",
              "abilityName": "Hili_Wei_SleepEffectEnd"
            },
            {
              "$type": "SendEffectTrigger",
              "parameter": "EndAtOnce",
              "attachPoint": "",
              "rotationDampTime": "Eff_Monster_Hili_Wei_NoWeapon_Sleep_01"
            },
            {
              "$type": "SendEffectTrigger",
              "parameter": "EndAtOnceFx",
              "attachPoint": "",
              "rotationDampTime": "Eff_Monster_Hili_Wei_NoWeapon_Sleep_01"
            }
          ]
        }
      }
    }
  },
  {
    "Default": {
      "$type": "ConfigAbility",
      "abilityName": "Hili_Wei_Attack_Effect",
      "abilityMixins": [
        {
          "$type": "AttachToNormalizedTimeMixin",
          "stateID": "NoWeapon_Attack",
          "modifierName": "Attack_SuitcaseEffect",
          "normalizeStart": 0.25,
          "normalizeEnd": 0.699999988079071,
          "DGFCLAIDIFI": ""
        }
      ],
      "modifiers": {
        "Attack_SuitcaseEffect": {
          "modifierName": "",
          "elementDurability": 100.0,
          "onAdded": [
            {
              "$type": "FireEffect",
              "rotationDampTime": "Eff_Monster_Hili_Wei_NoWeapon_Attack_01",
              "PPPDJGDDOGD": 1.0,
              "AJDILHJFNKE": -1.0
            }
          ],
          "onRemoved": [
            {
              "$type": "SendEffectTrigger",
              "parameter": "End",
              "attachPoint": "",
              "rotationDampTime": "Eff_Monster_Hili_Wei_NoWeapon_Attack_01"
            }
          ]
        }
      }
    }
  },
  {
    "Default": {
      "$type": "ConfigAbility",
      "abilityName": "Hili_Wei_Alert_Effect",
      "abilityMixins": [
        {
          "$type": "AttachToNormalizedTimeMixin",
          "stateID": "Warning",
          "modifierName": "Hili_Wei_Alert_Effect",
          "normalizeStart": 0.23000000417232513,
          "DGFCLAIDIFI": ""
        }
      ],
      "modifiers": {
        "Hili_Wei_Alert_Effect": {
          "modifierName": "",
          "elementDurability": 100.0,
          "onAdded": [
            {
              "$type": "AttachEffect",
              "rotationDampTime": "Eff_Monster_Hili_Wei_NoWeapon_Alert_01",
              "PPPDJGDDOGD": 1.0,
              "AJDILHJFNKE": -1.0
            }
          ]
        }
      }
    }
  },
  {
    "Default": {
      "$type": "ConfigAbility",
      "abilityName": "Hili_Wei_NoWeapon_ThrowAttack",
      "abilityMixins": [
        {
          "$type": "IILHMBGONGM",
          "steerStateIDs": ["ThrowPebble"],
          "startNormalizedTime": 0.550000011920929,
          "endNormalizedTime": 0.6200000047683716,
          "angularSpeed": 320.0,
          "attackTrigger": "",
          "attackDistance": 3.75,
          "DGFCLAIDIFI": ""
        }
      ],
      "onAbilityStart": [
        {
          "$type": "Randomed",
          "chance": 0.6700000166893005,
          "successActions": [
            {
              "$type": "TriggerBullet",
              "bulletID": 42101020,
              "born": {
                "$type": "ConfigBornByAttachPoint",
                "offset": {
                  "x": 0.0,
                  "y": 0.0,
                  "z": 0.0
                },
                "direction": {
                  "$type": "ConfigDirectionByAttackTarget",
                  "maxAngleType": "Horizontal",
                  "maxAngle": 15.0,
                  "startPoint": ""
                },
                "attachPointName": "WeaponL"
              }
            }
          ],
          "failActions": [
            {
              "$type": "TriggerBullet",
              "bulletID": 42101021,
              "born": {
                "$type": "ConfigBornByAttachPoint",
                "offset": {
                  "x": 0.0,
                  "y": 0.0,
                  "z": 0.0
                },
                "direction": {
                  "$type": "ConfigDirectionByAttackTarget",
                  "maxAngleType": "Horizontal",
                  "maxAngle": 15.0,
                  "startPoint": ""
                },
                "attachPointName": "WeaponL"
              }
            }
          ]
        }
      ]
    }
  },
  {
    "Default": {
      "$type": "ConfigAbility",
      "abilityName": "Hili_Wei_ThrowAttack_Effect",
      "abilityMixins": [
        {
          "$type": "AttachToStateIDMixin",
          "stateIDs": ["ThrowPebble"],
          "modifierName": "ThrowAttack_Effect_Timer",
          "DGFCLAIDIFI": ""
        }
      ],
      "modifiers": {
        "ThrowAttack_Effect_Timer": {
          "modifierName": "",
          "elementDurability": 100.0,
          "onAdded": [
            {
              "$type": "ApplyModifier",
              "modifierName": "ThrowAttack_SuitcaseEffect"
            }
          ],
          "onRemoved": [
            {
              "$type": "ApplyModifier",
              "modifierName": "ThrowAttack_SuitcaseEffect_DelayedDelete"
            }
          ],
          "onKill": [
            {
              "$type": "ApplyModifier",
              "modifierName": "ThrowAttack_SuitcaseEffect_DelayedDelete"
            }
          ]
        },
        "ThrowAttack_SuitcaseEffect": {
          "modifierName": "",
          "elementDurability": 100.0,
          "onAdded": [
            {
              "$type": "AttachEffect",
              "rotationDampTime": "Eff_Monster_Hili_Wei_NoWeapon_ThrowAttack01_01",
              "born": {
                "$type": "ConfigBornByTarget"
              },
              "PPPDJGDDOGD": 1.0,
              "AJDILHJFNKE": -1.0
            }
          ]
        },
        "ThrowAttack_SuitcaseEffect_DelayedDelete": {
          "modifierName": "",
          "duration": 1.0,
          "elementDurability": 100.0,
          "thinkInterval": 0.5,
          "onAdded": [
            {
              "$type": "SendEffectTrigger",
              "parameter": "End",
              "attachPoint": "",
              "rotationDampTime": "Eff_Monster_Hili_Wei_NoWeapon_ThrowAttack01_01"
            }
          ],
          "onRemoved": [
            {
              "$type": "RemoveModifier",
              "modifierName": "ThrowAttack_SuitcaseEffect"
            }
          ],
          "onThinkInterval": [
            {
              "$type": "SendEffectTrigger",
              "parameter": "End",
              "attachPoint": "",
              "rotationDampTime": "Eff_Monster_Hili_Wei_NoWeapon_ThrowAttack01_01"
            }
          ]
        }
      }
    }
  },
  {
    "Default": {
      "$type": "ConfigAbility",
      "abilityName": "Hili_Wei_NoWeapon_ThrowAttack_Bullet01_Loop",
      "modifiers": {
        "BulletLoop": {
          "modifierName": "",
          "elementDurability": 100.0,
          "onAdded": [
            {
              "$type": "AttachEffect",
              "rotationDampTime": "Eff_Monster_Hili_Wei_NoWeapon_ThrowAttack01_Bullet01",
              "PPPDJGDDOGD": 1.0,
              "AJDILHJFNKE": -1.0
            },
            {
              "$type": "AttachEffect",
              "rotationDampTime": "Eff_Monster_Hili_Wei_NoWeapon_ThrowAttack01_Trail01",
              "PPPDJGDDOGD": 1.0,
              "AJDILHJFNKE": -1.0
            }
          ]
        }
      },
      "onAdded": [
        {
          "$type": "AttachModifier",
          "modifierName": "BulletLoop"
        }
      ],
      "onAbilityStart": [
        {
          "$type": "TriggerAttackEvent",
          "attackEvent": {
            "attackPattern": {
              "$type": "ConfigAttackBox",
              "triggerType": "TriggerNoRepeat",
              "born": {
                "$type": "ConfigBornByCollisionPoint"
              },
              "size": {
                "x": 0.10000000149011612,
                "y": 0.10000000149011612,
                "z": 1.0
              }
            },
            "attackInfo": {
              "attackTag": "",
              "attenuationTag": "",
              "attenuationGroup": "default",
              "attackProperty": {
                "actorGrassSubHurtDelta": 0.5,
                "actorWindSubHurtDelta": 0.0,
                "elementDurability": 100.0,
                "strikeType": "Blunt",
                "enBreak": 40.0,
                "attackType": "Range",
                "GLKMCMDJBIK": 0.0
              },
              "hitPattern": {
                "onHitEffectName": "",
                "hitImpulseY": "",
                "hitImpulseType": "LV2",
                "hitHaltTimeScale": 0.009999999776482582
              },
              "canBeModifiedBy": "OriginOwner"
            }
          },
          "targetType": "Enemy"
        },
        {
          "$type": "Predicated",
          "target": "Target",
          "targetPredicates": [
            {
              "$type": "ByEntityTypes",
              "entityTypes": ["Level"]
            }
          ],
          "successActions": [
            {
              "$type": "FireEffect",
              "rotationDampTime": "Eff_Monster_Hili_Wei_NoWeapon_ThrowAttack01_Bullet01_HitScene",
              "born": {
                "$type": "ConfigBornByCollisionPoint"
              },
              "PPPDJGDDOGD": 1.0,
              "AJDILHJFNKE": -1.0
            }
          ],
          "failActions": [
            {
              "$type": "FireEffect",
              "rotationDampTime": "Eff_Monster_Hili_Wei_NoWeapon_ThrowAttack01_Bullet01_Hit",
              "born": {
                "$type": "ConfigBornByCollisionPoint"
              },
              "PPPDJGDDOGD": 1.0,
              "AJDILHJFNKE": -1.0
            }
          ]
        }
      ]
    }
  },
  {
    "Default": {
      "$type": "ConfigAbility",
      "abilityName": "Hili_Wei_NoWeapon_ThrowAttack_Bullet02_Loop",
      "modifiers": {
        "BulletLoop": {
          "modifierName": "",
          "elementDurability": 100.0,
          "onAdded": [
            {
              "$type": "AttachEffect",
              "rotationDampTime": "Eff_Monster_Hili_Wei_NoWeapon_ThrowAttack01_Bullet02",
              "PPPDJGDDOGD": 1.0,
              "AJDILHJFNKE": -1.0
            },
            {
              "$type": "AttachEffect",
              "rotationDampTime": "Eff_Monster_Hili_Wei_NoWeapon_ThrowAttack01_Trail02",
              "PPPDJGDDOGD": 1.0,
              "AJDILHJFNKE": -1.0
            }
          ]
        }
      },
      "onAdded": [
        {
          "$type": "AttachModifier",
          "modifierName": "BulletLoop"
        }
      ],
      "onAbilityStart": [
        {
          "$type": "TriggerAttackEvent",
          "attackEvent": {
            "attackPattern": {
              "$type": "ConfigAttackBox",
              "triggerType": "TriggerNoRepeat",
              "born": {
                "$type": "ConfigBornByCollisionPoint"
              },
              "size": {
                "x": 0.10000000149011612,
                "y": 0.10000000149011612,
                "z": 1.0
              }
            },
            "attackInfo": {
              "attackTag": "",
              "attenuationTag": "",
              "attenuationGroup": "default",
              "attackProperty": {
                "actorGrassSubHurtDelta": 0.5,
                "actorWindSubHurtDelta": 0.0,
                "elementDurability": 100.0,
                "strikeType": "Blunt",
                "enBreak": 40.0,
                "attackType": "Range",
                "GLKMCMDJBIK": 0.0
              },
              "hitPattern": {
                "onHitEffectName": "",
                "hitImpulseY": "",
                "hitImpulseType": "LV2",
                "hitHaltTimeScale": 0.009999999776482582
              },
              "canBeModifiedBy": "OriginOwner"
            }
          },
          "targetType": "Enemy"
        },
        {
          "$type": "FireEffect",
          "rotationDampTime": "Eff_Monster_Hili_Wei_NoWeapon_ThrowAttack01_Bullet02_Hit",
          "born": {
            "$type": "ConfigBornByCollisionPoint"
          },
          "PPPDJGDDOGD": 1.0,
          "AJDILHJFNKE": -1.0
        }
      ]
    }
  },
  {
    "Default": {
      "$type": "ConfigAbility",
      "abilityName": "Hili_Wei_NoWeapon_ThrowAttack_Bullet03_Loop",
      "modifiers": {
        "BulletLoop": {
          "modifierName": "",
          "elementDurability": 100.0,
          "onAdded": [
            {
              "$type": "AttachEffect",
              "rotationDampTime": "Eff_Monster_Hili_Wei_NoWeapon_ThrowAttack01_Bullet02",
              "PPPDJGDDOGD": 1.0,
              "AJDILHJFNKE": -1.0
            },
            {
              "$type": "AttachEffect",
              "rotationDampTime": "Eff_Monster_Hili_Wei_NoWeapon_ThrowAttack01_Trail02",
              "PPPDJGDDOGD": 1.0,
              "AJDILHJFNKE": -1.0
            }
          ]
        }
      },
      "onAdded": [
        {
          "$type": "AttachModifier",
          "modifierName": "BulletLoop"
        }
      ],
      "onAbilityStart": [
        {
          "$type": "TriggerAttackEvent",
          "attackEvent": {
            "attackPattern": {
              "$type": "ConfigAttackBox",
              "triggerType": "TriggerNoRepeat",
              "born": {
                "$type": "ConfigBornByCollisionPoint"
              },
              "size": {
                "x": 0.10000000149011612,
                "y": 0.10000000149011612,
                "z": 1.0
              }
            },
            "attackInfo": {
              "attackTag": "",
              "attenuationTag": "",
              "attenuationGroup": "default",
              "attackProperty": {
                "actorGrassSubHurtDelta": 0.5,
                "actorWindSubHurtDelta": 0.0,
                "elementDurability": 100.0,
                "strikeType": "Blunt",
                "enBreak": 40.0,
                "attackType": "Range",
                "GLKMCMDJBIK": 0.0
              },
              "hitPattern": {
                "onHitEffectName": "default",
                "hitImpulseY": "",
                "hitImpulseType": "LV2",
                "hitHaltTimeScale": 0.009999999776482582
              },
              "canBeModifiedBy": "OriginOwner"
            }
          },
          "targetType": "Enemy"
        },
        {
          "$type": "FireHitEffect",
          "hitEntity": "",
          "hitScene": {
            "defaultEffect": "Eff_Monster_Hili_None_PebbleBullet_AS",
            "surfaceEffect": {
              "Water": "Eff_Monster_Hili_None_PebbleBullet_AS_Water"
            }
          }
        }
      ]
    }
  },
  {
    "Default": {
      "$type": "ConfigAbility",
      "abilityName": "Hili_Wei_ThrowBomb_BombCreate",
      "abilityMixins": [
        {
          "$type": "AttachToAnimatorStateIDMixin",
          "stateIDs": ["BombCreateAS"],
          "modifierName": "BombCreate",
          "DGFCLAIDIFI": ""
        }
      ],
      "modifiers": {
        "BombCreate": {
          "modifierName": "",
          "elementDurability": 100.0,
          "onAdded": [
            {
              "$type": "GNGMFJBIDNA",
              "gadgetID": 42101023,
              "equipPart": "equip03"
            },
            {
              "$type": "IDNGFEEBPAM",
              "boolID": "BombRun",
              "value": true
            },
            {
              "$type": "GFFKENEJFFB",
              "intID": "equip03",
              "value": 1
            },
            {
              "$type": "AddGlobalValue",
              "value": 0.0,
              "key": "_BOMBTHROWED_",
              "useLimitRange": true,
              "maxValue": 0.0,
              "minValue": 0.0
            }
          ]
        }
      }
    }
  },
  {
    "Default": {
      "$type": "ConfigAbility",
      "abilityName": "Hili_Wei_BombAttack_BombCreate_Effect",
      "abilityMixins": [
        {
          "$type": "AttachToStateIDMixin",
          "stateIDs": ["BombCreate", "BombThrow"],
          "modifierName": "BombCreate_Effect_Timer",
          "DGFCLAIDIFI": ""
        }
      ],
      "modifiers": {
        "BombCreate_Effect": {
          "modifierName": "",
          "duration": 1.5,
          "elementDurability": 100.0,
          "onAdded": [
            {
              "$type": "AttachEffect",
              "rotationDampTime": "Eff_Monster_Hili_Wei_NoWeapon_ThrowBomb01_02",
              "born": {
                "$type": "ConfigBornByTarget"
              },
              "PPPDJGDDOGD": 1.0,
              "AJDILHJFNKE": -1.0
            }
          ]
        },
        "BombCreate_Effect_Timer": {
          "modifierName": "",
          "elementDurability": 100.0,
          "onAdded": [
            {
              "$type": "ApplyModifier",
              "modifierName": "BombCreate_SuitcaseEffect"
            }
          ],
          "onRemoved": [
            {
              "$type": "RemoveModifier",
              "modifierName": "BombCreate_Effect"
            },
            {
              "$type": "ApplyModifier",
              "modifierName": "BombCreate_SuitcaseEffect_DelayedDelete"
            }
          ],
          "onKill": [
            {
              "$type": "ApplyModifier",
              "modifierName": "BombCreate_SuitcaseEffect_DelayedDelete"
            }
          ]
        },
        "BombCreate_SuitcaseEffect": {
          "modifierName": "",
          "elementDurability": 100.0,
          "onAdded": [
            {
              "$type": "AttachEffect",
              "rotationDampTime": "Eff_Monster_Hili_Wei_NoWeapon_ThrowBomb01_01",
              "born": {
                "$type": "ConfigBornByTarget"
              },
              "PPPDJGDDOGD": 1.0,
              "AJDILHJFNKE": -1.0
            }
          ]
        },
        "BombCreate_SuitcaseEffect_DelayedDelete": {
          "modifierName": "",
          "duration": 1.0,
          "elementDurability": 100.0,
          "thinkInterval": 0.5,
          "onAdded": [
            {
              "$type": "SendEffectTrigger",
              "parameter": "End",
              "attachPoint": "",
              "rotationDampTime": "Eff_Monster_Hili_Wei_NoWeapon_ThrowBomb01_01"
            }
          ],
          "onRemoved": [
            {
              "$type": "RemoveModifier",
              "modifierName": "BombCreate_SuitcaseEffect"
            }
          ],
          "onThinkInterval": [
            {
              "$type": "SendEffectTrigger",
              "parameter": "End",
              "attachPoint": "",
              "rotationDampTime": "Eff_Monster_Hili_Wei_NoWeapon_ThrowBomb01_01"
            }
          ]
        }
      },
      "onAbilityStart": [
        {
          "$type": "ApplyModifier",
          "modifierName": "BombCreate_Effect"
        }
      ]
    }
  },
  {
    "Default": {
      "$type": "ConfigAbility",
      "abilityName": "Hili_Wei_BombAttack_BombThrow",
      "abilityMixins": [
        {
          "$type": "AttachToNormalizedTimeMixin",
          "stateID": "BombThrow",
          "modifierName": "BombThrowAnimation",
          "normalizeEnd": 0.3499999940395355,
          "DGFCLAIDIFI": ""
        }
      ],
      "modifiers": {
        "BombThrowAnimation": {
          "modifierName": "",
          "elementDurability": 100.0,
          "onAdded": [
            {
              "$type": "TriggerAbility",
              "otherTargets": {
                "$type": "SelectTargetsByEquipParts",
                "equipPartNames": ["equip03"]
              },
              "abilityName": "Hili_Wei_ThrowAttack_Bullet_NextStateTrigger"
            }
          ],
          "onRemoved": [
            {
              "$type": "TriggerAbility",
              "otherTargets": {
                "$type": "SelectTargetsByEquipParts",
                "equipPartNames": ["equip03"]
              },
              "abilityName": "Hili_Wei_ThrowAttack_Bullet01_BombState"
            },
            {
              "$type": "TriggerAbility",
              "otherTargets": {
                "$type": "SelectTargetsByEquipParts",
                "equipPartNames": ["equip03"]
              },
              "abilityName": "Hili_Wei_ThrowAttack_Bullet_FlyTrigger"
            },
            {
              "$type": "TriggerAbility",
              "otherTargets": {
                "$type": "SelectTargetsByEquipParts",
                "equipPartNames": ["equip03"]
              },
              "abilityName": "Hili_Wei_ThrowAttack_Bullet_CollisionTrigger"
            },
            {
              "$type": "BFNNCJJCLNL",
              "equipPart": "equip03",
              "born": {
                "$type": "ConfigBornByTarget",
                "direction": {
                  "$type": "ConfigDirectionByAttackTarget",
                  "maxAngleType": "Horizontal",
                  "maxAngle": 30.0,
                  "startPoint": ""
                }
              }
            },
            {
              "$type": "IDNGFEEBPAM",
              "boolID": "BombRun"
            },
            {
              "$type": "GFFKENEJFFB",
              "intID": "equip03"
            },
            {
              "$type": "AddGlobalValue",
              "value": 1.0,
              "key": "_BOMBTHROWED_",
              "useLimitRange": true,
              "maxValue": 1.0,
              "minValue": 1.0
            }
          ]
        }
      },
      "onKill": [
        {
          "$type": "TriggerAbility",
          "otherTargets": {
            "$type": "SelectTargetsByChildren",
            "configID": 42101023
          },
          "predicates": [
            {
              "$type": "ByTargetGlobalValue",
              "key": "_HILI_WEI_BOMB01_THROWED",
              "value": 0.0,
              "compareType": "LessAndEqual"
            }
          ],
          "abilityName": "Hili_Wei_ThrowAttack_Bullet01_Explode"
        },
        {
          "$type": "IDNGFEEBPAM",
          "boolID": "BombRun"
        },
        {
          "$type": "GFFKENEJFFB",
          "intID": "equip03"
        },
        {
          "$type": "AddGlobalValue",
          "value": 1.0,
          "key": "_BOMBTHROWED_",
          "useLimitRange": true,
          "maxValue": 1.0,
          "minValue": 1.0
        }
      ]
    }
  },
  {
    "Default": {
      "$type": "ConfigAbility",
      "abilityName": "Hili_Wei_BombAttack_BombOnHand",
      "abilityMixins": [
        {
          "$type": "AttachToStateIDMixin",
          "stateIDs": [
            "BombCreate",
            "BombThrow",
            "NormalIdle",
            "NormalMove",
            "Turn_Bomb"
          ],
          "modifierName": "OnHand",
          "DGFCLAIDIFI": ""
        }
      ],
      "modifiers": {
        "OnHand": {
          "modifierName": "",
          "elementDurability": 100.0,
          "onRemoved": [
            {
              "$type": "TriggerAbility",
              "otherTargets": {
                "$type": "SelectTargetsByEquipParts",
                "equipPartNames": ["equip03"]
              },
              "abilityName": "Hili_Wei_ThrowAttack_Bullet01_Explode"
            },
            {
              "$type": "GFFKENEJFFB",
              "intID": "equip03"
            },
            {
              "$type": "IDNGFEEBPAM",
              "boolID": "BombRun"
            }
          ]
        }
      },
      "onAdded": [
        {
          "$type": "AddGlobalValue",
          "value": -1.0,
          "key": "_HILI_WEI_BOMBHOLDING",
          "useLimitRange": true,
          "maxValue": 1.0,
          "minValue": 0.0
        }
      ]
    }
  },
  {
    "Default": {
      "$type": "ConfigAbility",
      "abilityName": "Hili_Wei_ThrowAttack_Bullet_CollisionTrigger",
      "onAdded": [
        {
          "$type": "EnableBulletCollisionPluginTrigger"
        }
      ],
      "onAbilityStart": [
        {
          "$type": "EnableBulletCollisionPluginTrigger",
          "setEnable": true
        }
      ]
    }
  },
  {
    "Default": {
      "$type": "ConfigAbility",
      "abilityName": "Hili_Wei_ThrowAttack_Bullet_NextStateTrigger",
      "onAbilityStart": [
        {
          "$type": "SetAnimatorTrigger",
          "triggerID": "Next",
          "mpTriggerOnRemote": true
        },
        {
          "$type": "SetAnimatorTrigger",
          "triggerID": "ThrowShader",
          "mpTriggerOnRemote": true
        }
      ]
    }
  },
  {
    "Default": {
      "$type": "ConfigAbility",
      "abilityName": "Hili_Wei_ThrowAttack_Bullet_FlyTrigger",
      "onAbilityStart": [
        {
          "$type": "SetAnimatorTrigger",
          "triggerID": "Fly",
          "mpTriggerOnRemote": true
        }
      ]
    }
  },
  {
    "Default": {
      "$type": "ConfigAbility",
      "abilityName": "Hili_Wei_ThrowAttack_Bullet01_BombState",
      "modifiers": {
        "TimerModifier": {
          "modifierName": "",
          "duration": 7.75,
          "elementDurability": 100.0,
          "onRemoved": [
            {
              "$type": "TriggerAbility",
              "abilityName": "Hili_Wei_ThrowAttack_Bullet01_Explode"
            }
          ]
        }
      },
      "onAdded": [
        {
          "$type": "AddGlobalValue",
          "target": "Owner",
          "value": 1.0,
          "key": "_HILI_WEI_BOMBHOLDING",
          "useLimitRange": true,
          "maxValue": 1.0,
          "minValue": 0.0
        },
        {
          "$type": "AddGlobalValue",
          "value": -1.0,
          "key": "_HILI_WEI_BOMB01_THROWED",
          "useLimitRange": true,
          "maxValue": 1.0,
          "minValue": 0.0
        },
        {
          "$type": "ApplyModifier",
          "modifierName": "TimerModifier"
        }
      ],
      "onAbilityStart": [
        {
          "$type": "AddGlobalValue",
          "value": 1.0,
          "key": "_HILI_WEI_BOMB01_THROWED",
          "useLimitRange": true,
          "maxValue": 1.0,
          "minValue": 0.0
        }
      ],
      "onKill": [
        {
          "$type": "AddGlobalValue",
          "target": "Owner",
          "value": -1.0,
          "key": "_HILI_WEI_BOMBHOLDING",
          "useLimitRange": true,
          "maxValue": 1.0,
          "minValue": 0.0
        }
      ]
    }
  },
  {
    "Default": {
      "$type": "ConfigAbility",
      "abilityName": "Hili_Wei_ThrowAttack_Bullet01_Explode",
      "onAbilityStart": [
        {
          "$type": "FireEffect",
          "rotationDampTime": "Eff_Monster_Hili_Wei_NoWeapon_ThrowBomb_Explode",
          "born": {
            "$type": "ConfigBornBySelf",
            "offset": {
              "x": 0.0,
              "y": 0.0,
              "z": 0.0
            },
            "onGround": true,
            "alongGround": true
          },
          "PPPDJGDDOGD": 1.0,
          "AJDILHJFNKE": -1.0
        },
        {
          "$type": "TriggerAttackEvent",
          "attackEvent": {
            "attackPattern": {
              "$type": "ConfigAttackSphere",
              "triggerType": "TriggerNoRepeat",
              "born": {
                "$type": "ConfigBornByTarget"
              },
              "radius": 2.0
            },
            "attackInfo": {
              "attackTag": "",
              "attenuationTag": "",
              "attenuationGroup": "default",
              "attackProperty": {
                "actorGrassSubHurtDelta": 1.0,
                "actorWindSubHurtDelta": 0.0,
                "elementDurability": 100.0,
                "strikeType": "Blunt",
                "enBreak": 200.0,
                "GLKMCMDJBIK": 0.0
              },
              "hitPattern": {
                "onHitEffectName": "default",
                "hitImpulseY": "",
                "hitImpulseType": "LV5",
                "hitHaltTimeScale": 0.05000000074505806
              },
              "forceCameraShake": true,
              "cameraShake": {
                "shakeRange": 0.20000000298023224,
                "shakeTime": 0.15000000596046448,
                "shakeDistance": 35.0
              },
              "canBeModifiedBy": "OriginOwner"
            }
          },
          "targetType": "Enemy"
        },
        {
          "$type": "TriggerSetVisible"
        }
      ]
    }
  }
]
