[
  {
    "Default": {
      "$type": "ConfigAbility",
      "abilityName": "Monster_Apep_Underling_SeedOfArjuna_Default",
      "abilityMixins": [
        {
          "$type": "AttachModifierToSelfGlobalValueMixin",
          "globalValueKey": "_HASTARGET",
          "gvInTalk": 0.0,
          "valueSteps": [-0.5, 0.5, 1.5, 2.5],
          "modifierNameSteps": ["FindingTarget", "HasTarget", "CoolDown"]
        },
        {
          "$type": "RigidBodyFreezeMixin"
        }
      ],
      "modifiers": {
        "FindingTarget": {
          "modifierName": "",
          "elementDurability": 100.0,
          "thinkInterval": 0.5,
          "onThinkInterval": [
            {
              "$type": "SetGlobalValue",
              "value": 0.0,
              "key": "_HASTARGET_TempCount",
              "maxValue": 0.0,
              "minValue": 0.0
            },
            {
              "$type": "Predicated",
              "otherTargets": {
                "$type": "SelectTargetsByShape",
                "shapeName": "CircleR50",
                "campTargetType": "SelfCamp",
                "doOffStage": 1.0
              },
              "targetPredicates": [
                {
                  "$type": "NDELKJDCAAP"
                },
                {
                  "$type": "ByTargetGlobalValue",
                  "key": "_MONSTER_Apep_Underling_SeedOfKarna_Tag",
                  "value": 1.0
                }
              ],
              "successActions": [
                {
                  "$type": "AddGlobalValue",
                  "value": 1.0,
                  "key": "_HASTARGET_TempCount",
                  "maxValue": 0.0,
                  "minValue": 0.0
                }
              ]
            },
            {
              "$type": "SetGlobalValue",
              "predicates": [
                {
                  "$type": "ByTargetGlobalValue",
                  "key": "_HASTARGET_TempCount",
                  "value": 1.0,
                  "compareType": "MoreThanAndEqual"
                }
              ],
              "value": 1.0,
              "key": "_HASTARGET",
              "maxValue": 0.0,
              "minValue": 0.0
            }
          ]
        },
        "HasTarget": {
          "modifierName": "",
          "elementDurability": 100.0,
          "onAdded": [
            {
              "$type": "IDNGFEEBPAM",
              "boolID": "HasTarget",
              "value": true
            }
          ],
          "onRemoved": [
            {
              "$type": "IDNGFEEBPAM",
              "boolID": "HasTarget"
            }
          ]
        },
        "CoolDown": {
          "modifierName": "",
          "duration": 8.0,
          "elementDurability": 100.0,
          "onRemoved": [
            {
              "$type": "SetGlobalValue",
              "value": 0.0,
              "key": "_HASTARGET",
              "maxValue": 0.0,
              "minValue": 0.0
            }
          ]
        }
      }
    }
  },
  {
    "Default": {
      "$type": "ConfigAbility",
      "abilityName": "Monster_Apep_Underling_SeedOfArjuna_Chose",
      "abilityMixins": [
        {
          "$type": "AttachToAnimatorStateIDMixin",
          "stateIDs": ["SupportAttack_BS", "SupportAttack_Loop"],
          "modifierName": "Monster_Apep_Underling_SeedOfArjuna_SupportAttack_SelfEffect",
          "DGFCLAIDIFI": ""
        },
        {
          "$type": "DIDNLIKKLLF",
          "stateIDs": ["SupportAttack_BS", "SupportAttack_Loop"],
          "exitActions": [
            {
              "$type": "RemoveModifier",
              "otherTargets": {
                "$type": "SelectTargetsByShape",
                "sortType": "Nearest",
                "shapeName": "CircleR50",
                "campTargetType": "Alliance",
                "doOffStage": 1.0
              },
              "modifierName": "Monster_Apep_Underling_SeedOfArjuna_ChosenOne"
            },
            {
              "$type": "SendEffectTriggerToLineEffect",
              "parameter": "LineEnd",
              "attachPoint": "",
              "rotationDampTime": "Eff_Monster_Apep_Underling_SeedOfArjuna_SupportAttack_Line"
            }
          ],
          "DGFCLAIDIFI": ""
        },
        {
          "$type": "AttachToAnimatorStateIDMixin",
          "stateIDs": ["SupportAttack_Loop"],
          "modifierName": "State_Check",
          "DGFCLAIDIFI": ""
        }
      ],
      "modifiers": {
        "Monster_Apep_Underling_SeedOfArjuna_CoreEffect": {
          "modifierName": "",
          "elementDurability": 100.0,
          "onAdded": [
            {
              "$type": "AttachEffect",
              "rotationDampTime": "Eff_Monster_Apep_Underling_SeedOfArjuna_Core",
              "PPPDJGDDOGD": 1.0,
              "AJDILHJFNKE": -1.0
            }
          ]
        },
        "Monster_Apep_Underling_SeedOfArjuna_SupportAttack_SelfEffect": {
          "modifierName": "",
          "elementDurability": 100.0,
          "modifierMixins": [
            {
              "$type": "AttachModifierToSelfGlobalValueMixin",
              "globalValueKey": "_SELFENHANCE_Ready",
              "gvInTalk": 0.0,
              "valueSteps": [0.5, 1.5],
              "modifierNameSteps": [
                "Monster_Apep_Underling_SeedOfArjuna_SelfEnhance"
              ]
            }
          ],
          "onAdded": [
            {
              "$type": "AttachEffect",
              "rotationDampTime": "Eff_Monster_Apep_Underling_SeedOfArjuna_SupportAttack_BS",
              "PPPDJGDDOGD": 1.0,
              "AJDILHJFNKE": -1.0
            },
            {
              "$type": "AttachModifier",
              "modifierName": "Monster_Apep_Underling_SeedOfArjuna_SelfEnhance_CountDown"
            }
          ]
        },
        "Monster_Apep_Underling_SeedOfArjuna_SelfEnhance_CountDown": {
          "modifierName": "",
          "duration": 2.0,
          "elementDurability": 100.0,
          "thinkInterval": 1.5,
          "onThinkInterval": [
            {
              "$type": "SetGlobalValue",
              "value": 1.0,
              "key": "_SELFENHANCE_Ready",
              "maxValue": 0.0,
              "minValue": 0.0
            }
          ]
        },
        "Monster_Apep_Underling_SeedOfArjuna_SelfEnhance": {
          "modifierName": "",
          "elementDurability": 100.0,
          "modifierMixins": [
            {
              "$type": "DKEKMHHIDOB",
              "lockType": "Gear_Lv3"
            }
          ],
          "properties": {
            "Actor_EndureDelta": 0.009999999776482582,
            "Actor_PhysicalSubHurtDelta": 99.0,
            "Actor_FireSubHurtDelta": 99.0,
            "Actor_ElecSubHurtDelta": 99.0,
            "Actor_IceSubHurtDelta": 99.0,
            "Actor_WaterSubHurtDelta": 99.0,
            "Actor_GrassSubHurtDelta": 99.0,
            "Actor_WindSubHurtDelta": 99.0,
            "Actor_RockSubHurtDelta": 99.0
          },
          "onAdded": [
            {
              "$type": "AttachEffect",
              "rotationDampTime": "Eff_Monster_Apep_Underling_SeedOfArjuna_SelfEnhance",
              "PPPDJGDDOGD": 1.0,
              "AJDILHJFNKE": -1.0
            }
          ],
          "onRemoved": [
            {
              "$type": "SetGlobalValue",
              "value": 0.0,
              "key": "_SELFENHANCE_Ready",
              "maxValue": 0.0,
              "minValue": 0.0
            }
          ]
        },
        "State_Check": {
          "modifierName": "",
          "elementDurability": 100.0,
          "thinkInterval": 0.20000000298023224,
          "onThinkInterval": [
            {
              "$type": "SetGlobalValue",
              "value": 0.0,
              "key": "_CHECKED",
              "maxValue": 0.0,
              "minValue": 0.0
            },
            {
              "$type": "Predicated",
              "otherTargets": {
                "$type": "SelectTargetsByShape",
                "shapeName": "CircleR50",
                "campTargetType": "SelfCamp",
                "doOffStage": 1.0
              },
              "targetPredicates": [
                {
                  "$type": "ByTargetGlobalValue",
                  "key": "_MONSTER_Apep_Underling_SeedOfArjuna_ChosenOne",
                  "value": 1.0
                }
              ],
              "successActions": [
                {
                  "$type": "SetGlobalValue",
                  "value": 1.0,
                  "key": "_CHECKED",
                  "maxValue": 0.0,
                  "minValue": 0.0
                }
              ]
            },
            {
              "$type": "ApplyModifier",
              "target": "Applier",
              "predicates": [
                {
                  "$type": "ByTargetGlobalValue",
                  "key": "_CHECKED",
                  "value": 0.0
                }
              ],
              "modifierName": "SkillEnd"
            }
          ]
        },
        "Monster_Apep_Underling_SeedOfArjuna_ChosenOne": {
          "modifierName": "",
          "elementDurability": 100.0,
          "onAdded": [
            {
              "$type": "SetGlobalValue",
              "value": 1.0,
              "key": "_MONSTER_Apep_Underling_SeedOfArjuna_ChosenOne",
              "maxValue": 0.0,
              "minValue": 0.0
            }
          ],
          "onRemoved": [
            {
              "$type": "SetGlobalValue",
              "value": 0.0,
              "key": "_MONSTER_Apep_Underling_SeedOfArjuna_ChosenOne",
              "maxValue": 0.0,
              "minValue": 0.0
            }
          ],
          "onKill": [
            {
              "$type": "ApplyModifier",
              "target": "Caster",
              "modifierName": "EnhanceTarget_Killed"
            }
          ]
        },
        "SkillEnd": {
          "modifierName": "",
          "duration": 0.5,
          "elementDurability": 100.0,
          "onAdded": [
            {
              "$type": "SetAnimatorBool",
              "boolID": "SupportEnd",
              "value": true
            },
            {
              "$type": "LoseHP",
              "amountByCasterMaxHPRatio": 0.4000000059604645,
              "BJKGFBGEFPB": ""
            },
            {
              "$type": "SetGlobalValue",
              "value": 2.0,
              "key": "_HASTARGET",
              "maxValue": 0.0,
              "minValue": 0.0
            },
            {
              "$type": "KillSelf"
            }
          ]
        },
        "EnhanceTarget_Killed": {
          "modifierName": "",
          "duration": 0.10000000149011612,
          "elementDurability": 100.0,
          "onAdded": [
            {
              "$type": "LoseHP",
              "amountByCasterMaxHPRatio": 0.4000000059604645,
              "BJKGFBGEFPB": ""
            },
            {
              "$type": "FireEffect",
              "rotationDampTime": "Eff_Monster_Apep_Underling_SeedOfArjuna_SelfHit",
              "PPPDJGDDOGD": 1.0,
              "AJDILHJFNKE": -1.0
            },
            {
              "$type": "SetAnimatorTrigger",
              "triggerID": "Supprot_ShakeTrigger",
              "mpTriggerOnRemote": true
            }
          ]
        }
      },
      "onAdded": [
        {
          "$type": "ApplyModifier",
          "modifierName": "Monster_Apep_Underling_SeedOfArjuna_CoreEffect"
        }
      ],
      "onAbilityStart": [
        {
          "$type": "SetAnimatorBool",
          "boolID": "SupportEnd"
        },
        {
          "$type": "ApplyModifier",
          "otherTargets": {
            "$type": "SelectTargetsByShape",
            "topLimit": 3,
            "sortType": "Nearest",
            "shapeName": "CircleR50",
            "campTargetType": "Alliance",
            "doOffStage": 1.0
          },
          "predicates": [
            {
              "$type": "ByTargetGlobalValue",
              "key": "_MONSTER_Apep_Underling_SeedOfKarna_Tag",
              "value": 1.0
            },
            {
              "$type": "NDELKJDCAAP"
            }
          ],
          "modifierName": "Monster_Apep_Underling_SeedOfArjuna_ChosenOne"
        }
      ]
    }
  }
]
