[
  {
    "Default": {
      "$type": "ConfigAbility",
      "abilityName": "Monster_Fungus_Deux_Delta_Electric_Steer",
      "abilityMixins": [
        {
          "$type": "IILHMBGONGM",
          "steerStateIDs": ["Shoot_BS"],
          "angularSpeed": 720.0,
          "attackTrigger": "",
          "DGFCLAIDIFI": ""
        }
      ]
    }
  },
  {
    "Default": {
      "$type": "ConfigAbility",
      "abilityName": "Monster_Fungus_Deux_Delta_Electric_ShootNormal",
      "abilityMixins": [
        {
          "$type": "AttachToAnimatorStateIDMixin",
          "stateIDs": [
            "ShootNormal_BS",
            "ShootNormal_Loop",
            "ShootOverdose_BS",
            "ShootOverdose_Loop"
          ],
          "modifierName": "ShootNormalBSEffect",
          "DGFCLAIDIFI": ""
        },
        {
          "$type": "AttachToAnimatorStateIDMixin",
          "stateIDs": ["ShootDecay_BS", "ShootDecay_Loop"],
          "modifierName": "ShootDecayedBSEffect",
          "DGFCLAIDIFI": ""
        }
      ],
      "modifiers": {
        "ShootNormalBSEffect": {
          "modifierName": "",
          "elementDurability": 100.0,
          "onAdded": [
            {
              "$type": "AttachEffect",
              "rotationDampTime": "Eff_Monster_Fungus_Deux_Delta_Electric_ShootNormal_Loop",
              "PPPDJGDDOGD": 1.0,
              "AJDILHJFNKE": -1.0
            }
          ]
        },
        "ShootDecayedBSEffect": {
          "modifierName": "",
          "elementDurability": 100.0,
          "onAdded": [
            {
              "$type": "AttachEffect",
              "rotationDampTime": "Eff_Monster_Fungus_Deux_Delta_Electric_ShootDecay_Loop",
              "PPPDJGDDOGD": 1.0,
              "AJDILHJFNKE": -1.0
            }
          ]
        }
      },
      "onAbilityStart": [
        {
          "$type": "TriggerBullet",
          "bulletID": 42609009,
          "born": {
            "$type": "ConfigBornByAttachPoint",
            "attachPointName": "BulletSource"
          }
        }
      ]
    }
  },
  {
    "Default": {
      "$type": "ConfigAbility",
      "abilityName": "Monster_Fungus_Deux_Delta_Electric_ShootOverdose",
      "onAbilityStart": [
        {
          "$type": "TriggerBullet",
          "bulletID": 42609009,
          "born": {
            "$type": "ConfigBornByAttachPoint",
            "attachPointName": "BulletSource"
          }
        }
      ]
    }
  },
  {
    "Default": {
      "$type": "ConfigAbility",
      "abilityName": "Monster_Fungus_Deux_Delta_Electric_ShootDecayed",
      "onAbilityStart": [
        {
          "$type": "TriggerBullet",
          "bulletID": 42609010,
          "born": {
            "$type": "ConfigBornByAttachPoint",
            "direction": {
              "$type": "ConfigDirectionByAttackTarget",
              "startPoint": ""
            },
            "attachPointName": "BulletSource"
          }
        }
      ]
    }
  },
  {
    "Default": {
      "$type": "ConfigAbility",
      "abilityName": "Monster_Fungus_Deux_Delta_Electric_HitThrowDropToGround",
      "onAbilityStart": [
        {
          "$type": "Predicated",
          "targetPredicates": [
            {
              "$type": "BySceneSurfaceType",
              "filters": ["Water"]
            }
          ],
          "successActions": [
            {
              "$type": "FireEffect",
              "rotationDampTime": "Eff_Monster_Fungus_HitThrowToGround_Water",
              "PPPDJGDDOGD": 1.0,
              "AJDILHJFNKE": -1.0,
              "useRemoteSelfPos": true
            }
          ]
        }
      ]
    }
  },
  {
    "Default": {
      "$type": "ConfigAbility",
      "abilityName": "Fungus_Deux_Delta_Electric_BulletNormal_Loop",
      "modifiers": {
        "UNIQUE_BulletNormal_Loop": {
          "modifierName": "",
          "forceTriggerWhenChangeAuthority": true,
          "elementDurability": 100.0,
          "onAdded": [
            {
              "$type": "AttachEffect",
              "rotationDampTime": "Eff_Monster_Fungus_Deux_Delta_Electric_Shoot_BulletNormal",
              "PPPDJGDDOGD": 1.0,
              "AJDILHJFNKE": -1.0
            },
            {
              "$type": "AttachEffect",
              "rotationDampTime": "Eff_Monster_Fungus_Deux_Delta_Electric_Shoot_BulletNormal_Trail",
              "PPPDJGDDOGD": 1.0,
              "AJDILHJFNKE": -1.0
            }
          ],
          "onRemoved": [
            {
              "$type": "KillSelf"
            }
          ],
          "onBeingHit": [
            {
              "$type": "TriggerAbility",
              "predicates": [
                {
                  "$type": "EKJMHHOMFOP",
                  "hitImpulse": 0.0
                }
              ],
              "abilityName": "Fungus_Deux_Delta_Electric_BulletNormal_Explode"
            }
          ]
        }
      },
      "onAdded": [
        {
          "$type": "AttachModifier",
          "modifierName": "UNIQUE_BulletNormal_Loop"
        }
      ]
    }
  },
  {
    "Default": {
      "$type": "ConfigAbility",
      "abilityName": "Fungus_Deux_Delta_Electric_BulletNormal_Explode",
      "onAbilityStart": [
        {
          "$type": "RemoveUniqueModifier",
          "modifierName": "UNIQUE_BulletNormal_Loop"
        },
        {
          "$type": "FireEffect",
          "rotationDampTime": "Eff_Monster_Fungus_Deux_Delta_Electric_Shoot_HitNormal",
          "born": {
            "$type": "ConfigBornByAttachPoint",
            "attachPointName": "RootNode"
          },
          "PPPDJGDDOGD": 1.0,
          "AJDILHJFNKE": -1.0
        },
        {
          "$type": "TriggerAttackEvent",
          "attackEvent": {
            "attackPattern": {
              "$type": "ConfigAttackSphere",
              "triggerType": "TriggerNoRepeat",
              "born": {
                "$type": "ConfigBornBySelf",
                "offset": {
                  "x": 0.0,
                  "y": 0.0,
                  "z": 0.0
                }
              },
              "radius": 1.5
            },
            "attackInfo": {
              "attackTag": "",
              "attenuationTag": "",
              "attenuationGroup": "default",
              "attackProperty": {
                "actorGrassSubHurtDelta": 0.6000000238418579,
                "actorWindSubHurtDelta": 0.0,
                "elementType": "Electric",
                "elementDurability": 25.0,
                "strikeType": "Default",
                "enBreak": 20.0,
                "attackType": "Range",
                "GLKMCMDJBIK": 0.0
              },
              "hitPattern": {
                "onHitEffectName": "",
                "hitImpulseY": "",
                "hitImpulseType": "LV1",
                "hitHaltTimeScale": 0.05000000074505806
              },
              "canBeModifiedBy": "OriginOwner"
            }
          },
          "targetType": "Enemy"
        }
      ]
    }
  },
  {
    "Default": {
      "$type": "ConfigAbility",
      "abilityName": "Fungus_Deux_Delta_Electric_BulletDecayed_Loop",
      "modifiers": {
        "UNIQUE_BulletDecayed_Loop": {
          "modifierName": "",
          "forceTriggerWhenChangeAuthority": true,
          "elementDurability": 100.0,
          "onAdded": [
            {
              "$type": "AttachEffect",
              "rotationDampTime": "Eff_Monster_Fungus_Deux_Delta_Electric_Shoot_BulletDecayed",
              "PPPDJGDDOGD": 1.0,
              "AJDILHJFNKE": -1.0
            },
            {
              "$type": "AttachEffect",
              "rotationDampTime": "Eff_Monster_Fungus_Deux_Delta_Electric_Shoot_BulletDecayed_Trail",
              "PPPDJGDDOGD": 1.0,
              "AJDILHJFNKE": -1.0
            }
          ]
        }
      },
      "onAdded": [
        {
          "$type": "AttachModifier",
          "modifierName": "UNIQUE_BulletDecayed_Loop"
        }
      ]
    }
  },
  {
    "Default": {
      "$type": "ConfigAbility",
      "abilityName": "Fungus_Deux_Delta_Electric_BulletDecayed_Explode",
      "onAbilityStart": [
        {
          "$type": "RemoveUniqueModifier",
          "modifierName": "UNIQUE_BulletDecayed_Loop"
        },
        {
          "$type": "FireEffect",
          "rotationDampTime": "Eff_Monster_Fungus_Deux_Delta_Electric_Shoot_HitDecayed",
          "born": {
            "$type": "ConfigBornByAttachPoint",
            "attachPointName": "RootNode"
          },
          "PPPDJGDDOGD": 1.0,
          "AJDILHJFNKE": -1.0
        },
        {
          "$type": "TriggerAttackEvent",
          "attackEvent": {
            "attackPattern": {
              "$type": "ConfigAttackSphere",
              "triggerType": "TriggerNoRepeat",
              "born": {
                "$type": "ConfigBornBySelf",
                "offset": {
                  "x": 0.0,
                  "y": 0.0,
                  "z": 0.0
                }
              },
              "radius": 1.5
            },
            "attackInfo": {
              "attackTag": "",
              "attenuationTag": "",
              "attenuationGroup": "default",
              "attackProperty": {
                "actorGrassSubHurtDelta": 1.0,
                "actorWindSubHurtDelta": 0.0,
                "elementType": "Electric",
                "elementDurability": 25.0,
                "strikeType": "Default",
                "enBreak": 100.0,
                "attackType": "Range",
                "GLKMCMDJBIK": 0.0
              },
              "hitPattern": {
                "onHitEffectName": "",
                "hitImpulseY": "",
                "hitImpulseType": "LV3",
                "hitHaltTimeScale": 0.05000000074505806
              },
              "canBeModifiedBy": "OriginOwner"
            }
          },
          "targetType": "Enemy"
        }
      ]
    }
  }
]
