[
  {
    "Default": {
      "$type": "ConfigAbility",
      "abilityName": "Monster_Lava_Liquid_SteerAttack",
      "abilityMixins": [
        {
          "$type": "IILHMBGONGM",
          "steerStateIDs": ["TurnLeft"],
          "endNormalizedTime": 0.800000011920929,
          "angularSpeed": 60.0,
          "attackTrigger": "",
          "DGFCLAIDIFI": ""
        },
        {
          "$type": "IILHMBGONGM",
          "steerStateIDs": ["TurnRight"],
          "endNormalizedTime": 0.800000011920929,
          "angularSpeed": 60.0,
          "attackTrigger": "",
          "DGFCLAIDIFI": ""
        },
        {
          "$type": "IILHMBGONGM",
          "steerStateIDs": ["Alert"],
          "endNormalizedTime": 0.30000001192092896,
          "angularSpeed": 180.0,
          "attackTrigger": "",
          "attackDistance": 1.5,
          "DGFCLAIDIFI": ""
        },
        {
          "$type": "IILHMBGONGM",
          "steerStateIDs": ["GumAttack"],
          "endNormalizedTime": 0.19900000095367432,
          "angularSpeed": 180.0,
          "attackTrigger": "",
          "attackDistance": 1.5,
          "DGFCLAIDIFI": ""
        },
        {
          "$type": "IILHMBGONGM",
          "steerStateIDs": ["GumAttack"],
          "startNormalizedTime": 0.41999998688697815,
          "endNormalizedTime": 0.5699999928474426,
          "angularSpeed": 180.0,
          "attackTrigger": "",
          "attackDistance": 1.5,
          "DGFCLAIDIFI": ""
        },
        {
          "$type": "IILHMBGONGM",
          "steerStateIDs": ["GumAttack"],
          "endNormalizedTime": 0.19900000095367432,
          "angularSpeed": 180.0,
          "attackTrigger": "",
          "attackDistance": 1.5,
          "DGFCLAIDIFI": ""
        },
        {
          "$type": "IILHMBGONGM",
          "steerStateIDs": ["MagmaJet"],
          "endNormalizedTime": 0.699999988079071,
          "angularSpeed": 180.0,
          "attackTrigger": "",
          "attackDistance": 1.5,
          "DGFCLAIDIFI": ""
        },
        {
          "$type": "IILHMBGONGM",
          "steerStateIDs": ["SwirlAttack"],
          "endNormalizedTime": 0.5299999713897705,
          "angularSpeed": 180.0,
          "attackTrigger": "",
          "attackDistance": 1.5,
          "DGFCLAIDIFI": ""
        }
      ]
    }
  },
  {
    "Default": {
      "$type": "ConfigAbility",
      "abilityName": "Monster_Lava_Liquid_Init",
      "modifiers": {
        "ElementState": {
          "modifierName": "",
          "elementType": "Fire",
          "elementDurability": 25.0,
          "isElementDurabilityMutable": false,
          "modifierMixins": [
            {
              "$type": "AttachToAnimatorStateIDMixin",
              "stateIDs": ["Alert"],
              "modifierName": "AlertSkillEnd",
              "DGFCLAIDIFI": ""
            }
          ],
          "onBeingHit": [
            {
              "$type": "Predicated",
              "target": "Target",
              "targetPredicates": [
                {
                  "$type": "ByAny",
                  "predicates": [
                    {
                      "$type": "LBHMLHHIIOJ",
                      "element": "Water",
                      "compareType": "MoreThanAndEqual"
                    },
                    {
                      "$type": "LBHMLHHIIOJ",
                      "element": "Ice",
                      "compareType": "MoreThanAndEqual"
                    }
                  ]
                }
              ],
              "failActions": [
                {
                  "$type": "FireEffect",
                  "rotationDampTime": "Eff_Monster_Lava_Liquid_HitFire",
                  "PPPDJGDDOGD": 1.0,
                  "AJDILHJFNKE": -1.0
                }
              ]
            }
          ]
        },
        "AlertSkillEnd": {
          "modifierName": "",
          "elementDurability": 100.0,
          "onAdded": [
            {
              "$type": "IDNGFEEBPAM",
              "boolID": "AlertEnd",
              "value": true
            }
          ]
        }
      },
      "onAdded": [
        {
          "$type": "AttachModifier",
          "modifierName": "ElementState"
        }
      ]
    }
  },
  {
    "Default": {
      "$type": "ConfigAbility",
      "abilityName": "Monster_Lava_Liquid_FoundationControl",
      "abilityMixins": [
        {
          "$type": "AttachModifierToSelfGlobalValueMixin",
          "globalValueKey": "_MONSTER_Lava_Liquid_Foundation_Eff",
          "gvInTalk": 0.0,
          "valueSteps": [-0.5, 0.5],
          "modifierNameSteps": ["Monster_Lava_Liquid_Foundation_Eff"]
        },
        {
          "$type": "AttachModifierToSelfGlobalValueMixin",
          "globalValueKey": "_MONSTER_Lava_Liquid_Foundation_Decal",
          "gvInTalk": 0.0,
          "valueSteps": [-0.5, 0.5],
          "modifierNameSteps": ["Monster_Lava_Liquid_Foundation_Decal"]
        },
        {
          "$type": "AttachModifierToSelfGlobalValueMixin",
          "globalValueKey": "_MONSTER_Lava_Liquid_Foundation_Ani",
          "gvInTalk": 0.0,
          "valueSteps": [-0.5, 0.5],
          "modifierNameSteps": ["Monster_Lava_Liquid_Foundation_Ani"]
        },
        {
          "$type": "AttachToAnimatorStateIDMixin",
          "stateIDs": [
            "Alert",
            "Die",
            "SwirlAttack",
            "GumAttack",
            "MagmaJet",
            "CatchBall_BS",
            "CatchBall_Loop",
            "CatchBall_AS"
          ],
          "modifierName": "Monster_Lava_Liquid_Foundation_Ani_Deactive",
          "DGFCLAIDIFI": ""
        },
        {
          "$type": "JJIHJPCPPGO",
          "abilityStates": ["ElementPetrifaction"],
          "modifierName": "Decal_Effect_Disable"
        },
        {
          "$type": "AttachToAnimatorStateIDMixin",
          "stateIDs": ["Standby"],
          "modifierName": "Monster_Lava_Liquid_Foundation_Ani_Modify",
          "DGFCLAIDIFI": ""
        }
      ],
      "modifiers": {
        "Monster_Lava_Liquid_Foundation_Eff": {
          "modifierName": "",
          "elementDurability": 100.0,
          "onAdded": [
            {
              "$type": "AttachEffect",
              "rotationDampTime": "Eff_Monster_Lava_Liquid_Foundation",
              "PPPDJGDDOGD": 1.0,
              "AJDILHJFNKE": -1.0
            }
          ]
        },
        "Monster_Lava_Liquid_Foundation_Decal": {
          "modifierName": "",
          "elementDurability": 100.0,
          "onAdded": [
            {
              "$type": "AttachEffect",
              "rotationDampTime": "Eff_Monster_Lava_Liquid_Foundation_Decal",
              "PPPDJGDDOGD": 1.0,
              "AJDILHJFNKE": -1.0
            }
          ]
        },
        "Monster_Lava_Liquid_Foundation_Ani": {
          "modifierName": "",
          "elementDurability": 100.0,
          "onAdded": [
            {
              "$type": "SetAnimatorBool",
              "boolID": "LayerOn",
              "value": true
            }
          ],
          "onRemoved": [
            {
              "$type": "SetAnimatorBool",
              "boolID": "LayerOn"
            }
          ]
        },
        "Monster_Lava_Liquid_Foundation_Ani_Deactive": {
          "modifierName": "",
          "elementDurability": 100.0,
          "onAdded": [
            {
              "$type": "SetGlobalValue",
              "value": 1.0,
              "key": "_MONSTER_Lava_Liquid_Foundation_Ani",
              "maxValue": 0.0,
              "minValue": 0.0
            }
          ],
          "onRemoved": [
            {
              "$type": "SetGlobalValue",
              "value": 0.0,
              "key": "_MONSTER_Lava_Liquid_Foundation_Ani",
              "maxValue": 0.0,
              "minValue": 0.0
            }
          ]
        },
        "Decal_Effect_Disable": {
          "modifierName": "",
          "elementDurability": 100.0,
          "onAdded": [
            {
              "$type": "SetGlobalValue",
              "value": 1.0,
              "key": "_MONSTER_Lava_Liquid_Foundation_Decal",
              "maxValue": 0.0,
              "minValue": 0.0
            },
            {
              "$type": "SetGlobalValue",
              "value": 1.0,
              "key": "_MONSTER_Lava_Liquid_Foundation_Eff",
              "maxValue": 0.0,
              "minValue": 0.0
            }
          ],
          "onRemoved": [
            {
              "$type": "SetGlobalValue",
              "value": 0.0,
              "key": "_MONSTER_Lava_Liquid_Foundation_Decal",
              "maxValue": 0.0,
              "minValue": 0.0
            },
            {
              "$type": "SetGlobalValue",
              "value": 0.0,
              "key": "_MONSTER_Lava_Liquid_Foundation_Eff",
              "maxValue": 0.0,
              "minValue": 0.0
            }
          ]
        },
        "Monster_Lava_Liquid_Foundation_Ani_Modify": {
          "modifierName": "",
          "elementDurability": 100.0,
          "onAdded": [
            {
              "$type": "SetAnimatorFloat",
              "floatID": "FoundationRatio",
              "value": 0.4000000059604645
            }
          ],
          "onRemoved": [
            {
              "$type": "SetAnimatorFloat",
              "floatID": "FoundationRatio",
              "value": 1.0
            }
          ]
        }
      },
      "onKill": [
        {
          "$type": "RemoveModifier",
          "modifierName": "Monster_Lava_Liquid_Foundation_Eff"
        },
        {
          "$type": "RemoveModifier",
          "modifierName": "Monster_Lava_Liquid_Foundation_Decal"
        },
        {
          "$type": "IEJIAEEJHGE",
          "affectFakeShadow": true
        }
      ]
    }
  },
  {
    "Default": {
      "$type": "ConfigAbility",
      "abilityName": "Monster_Lava_Liquid_StoneState",
      "abilityMixins": [
        {
          "$type": "LEOGLBFIELL",
          "poseIDs": [901],
          "modifierName": "BigStoneState_Monitor"
        },
        {
          "$type": "LEOGLBFIELL",
          "poseIDs": [902],
          "modifierName": "SmallStoneState_Monitor"
        },
        {
          "$type": "LEOGLBFIELL",
          "poseIDs": [100, 201, 202],
          "modifierName": "StoneState_Active"
        }
      ],
      "modifiers": {
        "BigStoneState_Monitor": {
          "modifierName": "",
          "elementDurability": 100.0,
          "modifierMixins": [
            {
              "$type": "AttachModifierToSelfGlobalValueMixin",
              "globalValueKey": "SGV_Barrier_Inactive",
              "gvInTalk": 0.0,
              "valueSteps": [-0.5, 0.5, 1.5],
              "modifierNameSteps": ["Blank", "StoneState_Active_Latency"],
              "NMCLMHFBALJ": true
            },
            {
              "$type": "AttachModifierToSelfGlobalValueMixin",
              "globalValueKey": "_MONSTER_Lava_Liquid_StoneState_Active",
              "gvInTalk": 0.0,
              "valueSteps": [-0.5, 0.5, 1.5],
              "modifierNameSteps": ["StoneState_Inactive", "StoneState_Active"]
            }
          ]
        },
        "SmallStoneState_Monitor": {
          "modifierName": "",
          "elementDurability": 100.0,
          "modifierMixins": [
            {
              "$type": "AttachModifierToSelfGlobalValueMixin",
              "globalValueKey": "SGV_Barrier_Inactive",
              "gvInTalk": 0.0,
              "valueSteps": [-0.5, 0.5, 1.5],
              "modifierNameSteps": ["Blank", "StoneState_Active_Latency"],
              "NMCLMHFBALJ": true
            },
            {
              "$type": "AttachModifierToSelfGlobalValueMixin",
              "globalValueKey": "_MONSTER_Lava_Liquid_StoneState_Active",
              "gvInTalk": 0.0,
              "valueSteps": [-0.5, 0.5, 1.5],
              "modifierNameSteps": ["StoneState_Inactive", "StoneState_Active"]
            }
          ]
        },
        "StoneState_Active_Latency": {
          "modifierName": "",
          "duration": 0.10000000149011612,
          "elementDurability": 100.0,
          "onRemoved": [
            {
              "$type": "SetGlobalValue",
              "value": 1.0,
              "key": "_MONSTER_Lava_Liquid_StoneState_Active",
              "maxValue": 0.0,
              "minValue": 0.0
            }
          ]
        },
        "StoneState_Inactive": {
          "stacking": "Unique",
          "modifierName": "",
          "elementDurability": 100.0,
          "onAdded": [
            {
              "$type": "EnablePushColliderName",
              "pushColliderNames": ["PushCollider", "MoveCollider"]
            },
            {
              "$type": "AttachModifier",
              "modifierName": "StoneState_Invincible"
            },
            {
              "$type": "AttachModifier",
              "modifierName": "StoneState_IsGhostToAllied"
            },
            {
              "$type": "AttachModifier",
              "modifierName": "StoneState_IsGhostToEnemy"
            },
            {
              "$type": "AttachModifier",
              "modifierName": "StoneState_MuteTaunt"
            },
            {
              "$type": "HBNEMPLJCMB",
              "hide": true
            }
          ]
        },
        "StoneState_Active": {
          "stacking": "Unique",
          "modifierName": "",
          "elementDurability": 100.0,
          "onAdded": [
            {
              "$type": "EnablePushColliderName",
              "pushColliderNames": ["PushCollider", "MoveCollider"],
              "setEnable": true
            },
            {
              "$type": "GFFKENEJFFB",
              "intID": "StoneState"
            },
            {
              "$type": "HBNEMPLJCMB"
            }
          ]
        },
        "Blank": {
          "modifierName": "",
          "elementDurability": 100.0
        },
        "StoneState_Invincible": {
          "modifierName": "",
          "elementDurability": 100.0,
          "state": "Invincible"
        },
        "StoneState_IsGhostToAllied": {
          "modifierName": "",
          "elementDurability": 100.0,
          "state": "IsGhostToAllied"
        },
        "StoneState_IsGhostToEnemy": {
          "modifierName": "",
          "elementDurability": 100.0,
          "state": "IsGhostToEnemy"
        },
        "StoneState_MuteTaunt": {
          "modifierName": "",
          "elementDurability": 100.0,
          "state": "MuteTaunt"
        }
      }
    }
  },
  {
    "Default": {
      "$type": "ConfigAbility",
      "abilityName": "Monster_Lava_Liquid_GumAttack_Final",
      "onAbilityStart": [
        {
          "$type": "CreateGadget",
          "target": "SelfAttackActiveTarget",
          "born": {
            "$type": "ConfigBornByTarget",
            "offset": {
              "x": 0.0,
              "y": 0.0,
              "z": 0.0
            },
            "onGround": true
          },
          "lifeByOwnerV2": true,
          "gadgetID": 42008002,
          "campID": 4001
        }
      ]
    }
  },
  {
    "Default": {
      "$type": "ConfigAbility",
      "abilityName": "Lava_Liquid_GumAttack_DamageGadget",
      "modifiers": {
        "AttackTriger_Latency": {
          "modifierName": "",
          "duration": 0.5,
          "elementDurability": 100.0,
          "onAdded": [
            {
              "$type": "FireEffect",
              "rotationDampTime": "Eff_Monster_Lava_Liquid_GumAttack_Impulse_Alert",
              "PPPDJGDDOGD": 1.0,
              "AJDILHJFNKE": -1.0
            }
          ],
          "onRemoved": [
            {
              "$type": "FireEffect",
              "rotationDampTime": "Eff_Monster_Lava_Liquid_GumAttack_Impulse",
              "PPPDJGDDOGD": 1.0,
              "AJDILHJFNKE": -1.0
            },
            {
              "$type": "TriggerAttackEvent",
              "attackEvent": {
                "attackPattern": {
                  "$type": "ConfigAttackCircle",
                  "triggerType": "TriggerNoRepeat",
                  "born": {
                    "$type": "ConfigBornBySelf",
                    "offset": {
                      "x": 0.0,
                      "y": 0.0,
                      "z": 0.0
                    },
                    "useRotation": true
                  },
                  "height": 2.200000047683716,
                  "radius": 3.5
                },
                "attackInfo": {
                  "attackTag": "",
                  "attenuationTag": "Lava_Common",
                  "attenuationGroup": "Lava_Common",
                  "attackProperty": {
                    "actorGrassSubHurtDelta": 0.800000011920929,
                    "actorWindSubHurtDelta": 0.0,
                    "elementType": "Fire",
                    "elementDurability": 25.0,
                    "strikeType": "Blunt",
                    "enBreak": 50.0,
                    "GLKMCMDJBIK": 0.0
                  },
                  "hitPattern": {
                    "onHitEffectName": "default",
                    "hitImpulseY": "",
                    "hitImpulseType": "LV7"
                  },
                  "cameraShake": {
                    "shakeType": "CustomVector",
                    "shakeRange": 0.03999999910593033,
                    "shakeTime": 0.09000000357627869,
                    "shakeDir": {
                      "y": -1.0
                    }
                  },
                  "canBeModifiedBy": "OriginOwner"
                }
              },
              "targetType": "Enemy"
            },
            {
              "$type": "TriggerAttackEvent",
              "attackEvent": {
                "attackPattern": {
                  "$type": "ConfigAttackCircle",
                  "triggerType": "TriggerNoRepeat",
                  "born": {
                    "$type": "ConfigBornBySelf",
                    "offset": {
                      "x": 0.0,
                      "y": 0.0,
                      "z": 0.0
                    },
                    "useRotation": true
                  },
                  "height": 4.199999809265137,
                  "radius": 2.5
                },
                "attackInfo": {
                  "attackTag": "",
                  "attenuationTag": "Lava_Common",
                  "attenuationGroup": "Lava_Common",
                  "attackProperty": {
                    "actorGrassSubHurtDelta": 0.800000011920929,
                    "actorWindSubHurtDelta": 0.0,
                    "elementType": "Fire",
                    "elementDurability": 25.0,
                    "strikeType": "Blunt",
                    "enBreak": 50.0,
                    "GLKMCMDJBIK": 0.0
                  },
                  "hitPattern": {
                    "onHitEffectName": "default",
                    "hitImpulseY": "",
                    "hitImpulseType": "LV7"
                  },
                  "cameraShake": {
                    "shakeType": "CustomVector",
                    "shakeRange": 0.03999999910593033,
                    "shakeTime": 0.09000000357627869,
                    "shakeDir": {
                      "y": -1.0
                    }
                  },
                  "canBeModifiedBy": "OriginOwner"
                }
              },
              "targetType": "Enemy"
            }
          ]
        }
      },
      "onAdded": [
        {
          "$type": "ApplyModifier",
          "modifierName": "AttackTriger_Latency"
        }
      ]
    }
  },
  {
    "Default": {
      "$type": "ConfigAbility",
      "abilityName": "Monster_Lava_Liquid_MagmaJet",
      "onAbilityStart": [
        {
          "$type": "TriggerBullet",
          "target": "SelfAttackTarget",
          "bulletID": 42008003,
          "born": {
            "$type": "ConfigBornBySelf",
            "offset": {
              "x": 0.0,
              "y": 0.0,
              "z": 0.0
            },
            "useRotation": true
          }
        }
      ]
    }
  },
  {
    "Default": {
      "$type": "ConfigAbility",
      "abilityName": "Lava_Liquid_MagmaJet_Bullet",
      "onAbilityStart": [
        {
          "$type": "TriggerAttackEvent",
          "attackEvent": {
            "attackPattern": {
              "$type": "ConfigAttackSphere",
              "triggerType": "TriggerNoRepeat",
              "born": {
                "$type": "ConfigBornByCollisionPoint",
                "offset": {
                  "x": 0.0,
                  "y": 0.0,
                  "z": 0.0
                }
              },
              "radius": 0.800000011920929
            },
            "attackInfo": {
              "attackTag": "",
              "attenuationTag": "Lava_Liquid_MagmaJet",
              "attenuationGroup": "Lava_Liquid_MagmaJet",
              "attackProperty": {
                "actorGrassSubHurtDelta": 0.5,
                "actorWindSubHurtDelta": 0.0,
                "elementType": "Fire",
                "elementDurability": 25.0,
                "strikeType": "Default",
                "enBreak": 10.0,
                "GLKMCMDJBIK": 0.0
              },
              "hitPattern": {
                "onHitEffectName": "default",
                "hitImpulseY": "",
                "hitImpulseType": "LV2",
                "hitHaltTimeScale": 0.05000000074505806
              },
              "cameraShake": {
                "shakeType": "HitVector",
                "shakeRange": 0.05999999865889549,
                "shakeTime": 0.11999999731779099,
                "shakeDir": {
                  "z": 1.0
                }
              },
              "canBeModifiedBy": "OriginOwner"
            }
          },
          "targetType": "Enemy"
        },
        {
          "$type": "FireHitEffect",
          "hitEntity": "Eff_Monster_Lava_Liquid_MagmaJet_Hit",
          "hitScene": {
            "defaultEffect": "Eff_Monster_Lava_Liquid_MagmaJet_Explode"
          }
        }
      ]
    }
  },
  {
    "Default": {
      "$type": "ConfigAbility",
      "abilityName": "Monster_Lava_Liquid_CatchBall",
      "abilityMixins": [
        {
          "$type": "AttachToAnimatorStateIDMixin",
          "stateIDs": ["CatchBall_BS", "CatchBall_Underground", "CatchBall_AS"],
          "modifierName": "Monster_Lava_Liquid_CatchBall",
          "DGFCLAIDIFI": ""
        },
        {
          "$type": "AttachToAnimatorStateIDMixin",
          "stateIDs": ["CatchBall_Underground"],
          "modifierName": "Monster_Lava_Liquid_CatchBall_ModeManager",
          "DGFCLAIDIFI": ""
        },
        {
          "$type": "AttachToAnimatorStateIDMixin",
          "stateIDs": ["CatchBall_AS"],
          "modifierName": "Monster_Lava_Liquid_CatchBall_AS",
          "DGFCLAIDIFI": ""
        },
        {
          "$type": "AttachToNormalizedTimeMixin",
          "stateID": "CatchBall_AS",
          "modifierName": "Monster_Lava_Liquid_CatchBall_Foundation_Control",
          "normalizeStart": 0.10000000149011612,
          "normalizeEnd": 0.20000000298023224,
          "DGFCLAIDIFI": ""
        },
        {
          "$type": "AttachToAnimatorStateIDMixin",
          "stateIDs": ["Hit_L", "Hit_H"],
          "modifierName": "CatchBall_Reset",
          "DGFCLAIDIFI": ""
        }
      ],
      "modifiers": {
        "Monster_Lava_Liquid_CatchBall_ModeManager": {
          "modifierName": "",
          "elementDurability": 100.0,
          "onAdded": [
            {
              "$type": "ApplyModifier",
              "modifierName": "Monster_Lava_Liquid_CatchBall_Underground_CountDown"
            },
            {
              "$type": "ClearLockTarget",
              "target": "CurLocalAvatar"
            },
            {
              "$type": "Predicated",
              "targetPredicates": [
                {
                  "$type": "ByTargetGlobalValue",
                  "key": "_Monster_Lava_Liquid_DigMode",
                  "value": 0.0,
                  "compareType": "NoneOrEqual"
                }
              ],
              "successActions": [
                {
                  "$type": "ApplyModifier",
                  "modifierName": "Monster_Lava_Liquid_FindPosition_Near"
                }
              ],
              "failActions": [
                {
                  "$type": "ApplyModifier",
                  "modifierName": "Monster_Lava_Liquid_FindPosition_Far"
                }
              ]
            },
            {
              "$type": "SetGlobalValue",
              "value": 1.0,
              "key": "_MONSTER_Lava_Liquid_Foundation_Eff",
              "maxValue": 0.0,
              "minValue": 0.0
            },
            {
              "$type": "SetGlobalValue",
              "value": 1.0,
              "key": "_MONSTER_Lava_Liquid_Foundation_Decal",
              "maxValue": 0.0,
              "minValue": 0.0
            },
            {
              "$type": "AttachModifier",
              "modifierName": "Underground_Invincible"
            },
            {
              "$type": "AttachModifier",
              "modifierName": "Underground_DenyLockOn"
            }
          ]
        },
        "Monster_Lava_Liquid_CatchBall_Underground_CountDown": {
          "modifierName": "",
          "duration": 1.0,
          "elementDurability": 100.0,
          "onRemoved": [
            {
              "$type": "SetAnimatorBool",
              "boolID": "UndergroundEnd",
              "value": true
            }
          ]
        },
        "Monster_Lava_Liquid_CatchBall_Foundation_Control": {
          "modifierName": "",
          "elementDurability": 100.0,
          "onAdded": [
            {
              "$type": "SetGlobalValue",
              "value": 0.0,
              "key": "_MONSTER_Lava_Liquid_Foundation_Eff",
              "maxValue": 0.0,
              "minValue": 0.0
            },
            {
              "$type": "SetGlobalValue",
              "value": 0.0,
              "key": "_MONSTER_Lava_Liquid_Foundation_Decal",
              "maxValue": 0.0,
              "minValue": 0.0
            }
          ]
        },
        "Monster_Lava_Liquid_CatchBall": {
          "modifierName": "",
          "elementDurability": 100.0,
          "modifierMixins": [
            {
              "$type": "AttachActionToModifierMixin",
              "onAdded": [
                {
                  "$type": "EnablePushColliderName",
                  "pushColliderNames": ["PushCollider"]
                },
                {
                  "$type": "HBNEMPLJCMB",
                  "hide": true
                }
              ],
              "onRemoved": [
                {
                  "$type": "EnablePushColliderName",
                  "pushColliderNames": ["PushCollider"],
                  "setEnable": true
                },
                {
                  "$type": "HBNEMPLJCMB"
                }
              ]
            }
          ],
          "onAdded": [
            {
              "$type": "SetAnimatorBool",
              "boolID": "UndergroundEnd"
            }
          ],
          "onRemoved": [
            {
              "$type": "SetGlobalValue",
              "value": 0.0,
              "key": "_MONSTER_Lava_Liquid_Foundation_Eff",
              "maxValue": 0.0,
              "minValue": 0.0
            },
            {
              "$type": "SetGlobalValue",
              "value": 0.0,
              "key": "_MONSTER_Lava_Liquid_Foundation_Decal",
              "maxValue": 0.0,
              "minValue": 0.0
            },
            {
              "$type": "SetGlobalValue",
              "value": 0.0,
              "key": "_Monster_Lava_Liquid_DigMode",
              "maxValue": 0.0,
              "minValue": 0.0
            }
          ]
        },
        "Underground_Invincible": {
          "modifierName": "",
          "elementDurability": 100.0,
          "state": "Invincible"
        },
        "Underground_DenyLockOn": {
          "modifierName": "",
          "elementDurability": 100.0,
          "state": "DenyLockOn"
        },
        "Monster_Lava_Liquid_FindPosition_Near": {
          "modifierName": "",
          "duration": 1.0,
          "elementDurability": 100.0,
          "onAdded": [
            {
              "$type": "FIFEAMMHOIC",
              "target": "SelfAttackTarget",
              "forwardAngle": 360.0,
              "minRange": 1.0,
              "maxRange": 2.0,
              "ignoreWater": true
            },
            {
              "$type": "IFCMHHHOLCK"
            },
            {
              "$type": "FireEffect",
              "rotationDampTime": "Eff_Monster_Lava_Liquid_CatchBall_Alert",
              "PPPDJGDDOGD": 1.0,
              "AJDILHJFNKE": -1.0
            }
          ],
          "onRemoved": [
            {
              "$type": "SetAnimatorBool",
              "boolID": "UndergroundEnd",
              "value": true
            }
          ]
        },
        "Monster_Lava_Liquid_FindPosition_Far": {
          "modifierName": "",
          "duration": 1.0,
          "elementDurability": 100.0,
          "onAdded": [
            {
              "$type": "FIFEAMMHOIC",
              "target": "SelfAttackTarget",
              "forwardAngle": 360.0,
              "minRange": 10.0,
              "maxRange": 12.0,
              "ignoreWater": true
            },
            {
              "$type": "IFCMHHHOLCK"
            },
            {
              "$type": "FireEffect",
              "rotationDampTime": "Eff_Monster_Lava_Liquid_CatchBall_Alert",
              "PPPDJGDDOGD": 1.0,
              "AJDILHJFNKE": -1.0
            },
            {
              "$type": "IPMMJGMONCI",
              "skillIDs": [211]
            }
          ],
          "onRemoved": [
            {
              "$type": "SetAnimatorBool",
              "boolID": "UndergroundEnd",
              "value": true
            }
          ]
        },
        "Monster_Lava_Liquid_CatchBall_AS": {
          "modifierName": "",
          "elementDurability": 100.0,
          "onAdded": [
            {
              "$type": "TurnDirectionToPos",
              "target": "SelfAttackActiveTarget",
              "toPos": {
                "$type": "ConfigBornByTarget"
              }
            },
            {
              "$type": "SetAnimatorTrigger",
              "triggerID": "CoolDown",
              "mpTriggerOnRemote": true
            }
          ]
        },
        "CatchBall_Reset": {
          "modifierName": "",
          "elementDurability": 100.0,
          "onAdded": [
            {
              "$type": "IPMMJGMONCI",
              "skillIDs": [221, 232]
            },
            {
              "$type": "SetGlobalValue",
              "value": 1.0,
              "key": "_Monster_Lava_Liquid_DigMode",
              "maxValue": 0.0,
              "minValue": 0.0
            }
          ]
        }
      },
      "onAbilityStart": [
        {
          "$type": "TriggerAttackEvent",
          "attackEvent": {
            "attackPattern": {
              "$type": "ConfigAttackCircle",
              "triggerType": "TriggerNoRepeat",
              "born": {
                "$type": "ConfigBornBySelf",
                "offset": {
                  "x": 0.0,
                  "y": 0.0,
                  "z": 0.0
                },
                "useRotation": true
              },
              "radius": 5.0
            },
            "attackInfo": {
              "attackTag": "",
              "attenuationTag": "",
              "attenuationGroup": "default",
              "attackProperty": {
                "actorGrassSubHurtDelta": 1.0,
                "actorWindSubHurtDelta": 0.0,
                "elementType": "Fire",
                "elementDurability": 50.0,
                "strikeType": "Blunt",
                "enBreak": 100.0,
                "GLKMCMDJBIK": 0.0
              },
              "hitPattern": {
                "onHitEffectName": "default",
                "hitImpulseY": "",
                "hitImpulseType": "LV7"
              },
              "forceCameraShake": true,
              "cameraShake": {
                "shakeType": "CustomVector",
                "shakeRange": 0.23999999463558197,
                "shakeTime": 0.11999999731779099,
                "shakeDir": {
                  "y": -1.0
                }
              },
              "canBeModifiedBy": "OriginOwner"
            }
          },
          "targetType": "Enemy"
        }
      ]
    }
  }
]
