[
  {
    "Default": {
      "$type": "ConfigAbility",
      "abilityName": "Monster_Natsaurus_Drillhead_Normal_SteerManager",
      "abilityMixins": [
        {
          "$type": "IILHMBGONGM",
          "steerStateIDs": ["TurnLeft"],
          "angularSpeed": 270.0,
          "attackTrigger": "",
          "attackDistance": 3.75,
          "DGFCLAIDIFI": ""
        },
        {
          "$type": "IILHMBGONGM",
          "steerStateIDs": ["TurnRight"],
          "angularSpeed": 270.0,
          "attackTrigger": "",
          "attackDistance": 3.75,
          "DGFCLAIDIFI": ""
        },
        {
          "$type": "IILHMBGONGM",
          "steerStateIDs": ["Aware"],
          "endNormalizedTime": 0.10000000149011612,
          "angularSpeed": 360.0,
          "attackTrigger": "",
          "DGFCLAIDIFI": ""
        },
        {
          "$type": "IILHMBGONGM",
          "steerStateIDs": ["Aware"],
          "startNormalizedTime": 0.6700000166893005,
          "endNormalizedTime": 0.7599999904632568,
          "angularSpeed": 270.0,
          "attackTrigger": "",
          "DGFCLAIDIFI": ""
        },
        {
          "$type": "IILHMBGONGM",
          "steerStateIDs": ["Aware"],
          "startNormalizedTime": 0.8999999761581421,
          "angularSpeed": 270.0,
          "attackTrigger": "",
          "DGFCLAIDIFI": ""
        },
        {
          "$type": "IILHMBGONGM",
          "steerStateIDs": ["TauntAware01"],
          "startNormalizedTime": 0.10000000149011612,
          "endNormalizedTime": 0.18000000715255737,
          "angularSpeed": 270.0,
          "attackTrigger": "",
          "DGFCLAIDIFI": ""
        },
        {
          "$type": "IILHMBGONGM",
          "steerStateIDs": ["TauntAware01"],
          "startNormalizedTime": 0.8999999761581421,
          "angularSpeed": 270.0,
          "attackTrigger": "",
          "DGFCLAIDIFI": ""
        },
        {
          "$type": "IILHMBGONGM",
          "steerStateIDs": ["TauntAware02"],
          "startNormalizedTime": 0.05000000074505806,
          "endNormalizedTime": 0.15000000596046448,
          "angularSpeed": 270.0,
          "attackTrigger": "",
          "DGFCLAIDIFI": ""
        },
        {
          "$type": "IILHMBGONGM",
          "steerStateIDs": ["TauntAware02"],
          "startNormalizedTime": 0.8999999761581421,
          "angularSpeed": 270.0,
          "attackTrigger": "",
          "DGFCLAIDIFI": ""
        },
        {
          "$type": "IILHMBGONGM",
          "steerStateIDs": ["MeleeAttack01"],
          "endNormalizedTime": 0.25,
          "angularSpeed": 180.0,
          "attackTrigger": "",
          "DGFCLAIDIFI": ""
        },
        {
          "$type": "IILHMBGONGM",
          "steerStateIDs": ["MeleeAttack01"],
          "startNormalizedTime": 0.30000001192092896,
          "endNormalizedTime": 0.3499999940395355,
          "angularSpeed": 180.0,
          "attackTrigger": "",
          "DGFCLAIDIFI": ""
        },
        {
          "$type": "IILHMBGONGM",
          "steerStateIDs": ["MeleeAttack02"],
          "endNormalizedTime": 0.20000000298023224,
          "angularSpeed": 180.0,
          "attackTrigger": "",
          "DGFCLAIDIFI": ""
        },
        {
          "$type": "IILHMBGONGM",
          "steerStateIDs": ["Dig_BS"],
          "endNormalizedTime": 0.10000000149011612,
          "angularSpeed": 180.0,
          "attackTrigger": "",
          "DGFCLAIDIFI": ""
        },
        {
          "$type": "IILHMBGONGM",
          "steerStateIDs": ["Dig_Loop"],
          "endNormalizedTime": 99.0,
          "angularSpeed": 120.0,
          "attackTrigger": "DigAttackTrigger",
          "attackDistance": 6.0,
          "DGFCLAIDIFI": ""
        },
        {
          "$type": "IILHMBGONGM",
          "steerStateIDs": ["Dig_Loop02"],
          "endNormalizedTime": 99.0,
          "angularSpeed": 120.0,
          "attackTrigger": "",
          "DGFCLAIDIFI": ""
        },
        {
          "$type": "IILHMBGONGM",
          "steerStateIDs": ["Dig_Attack02"],
          "startNormalizedTime": 0.1899999976158142,
          "endNormalizedTime": 0.25,
          "angularSpeed": 180.0,
          "attackTrigger": "",
          "DGFCLAIDIFI": ""
        },
        {
          "$type": "LEOGLBFIELL",
          "poseIDs": [101],
          "modifierName": "AwareSteerManager"
        }
      ],
      "modifiers": {
        "AwareSteerManager": {
          "modifierName": "",
          "elementDurability": 100.0,
          "modifierMixins": [
            {
              "$type": "IILHMBGONGM",
              "steerStateIDs": ["NormalIdle"],
              "endNormalizedTime": 99.0,
              "angularSpeed": 90.0,
              "attackTrigger": "",
              "DGFCLAIDIFI": "",
              "LDPLGJLMMAA": true
            }
          ]
        }
      }
    }
  },
  {
    "Default": {
      "$type": "ConfigAbility",
      "abilityName": "Monster_Natsaurus_Drillhead_Normal_AwareStanceManager",
      "abilityMixins": [
        {
          "$type": "AttachToStateIDMixin",
          "stateIDs": [
            "Aware",
            "TauntAware",
            "TauntAware01",
            "TauntAware02",
            "TauntAware03",
            "TauntAware04",
            "TauntAware05",
            "TauntAware06",
            "TauntAware07"
          ],
          "modifierName": "IsInAwareSkill",
          "DGFCLAIDIFI": ""
        },
        {
          "$type": "LEOGLBFIELL",
          "poseIDs": [1, 101],
          "modifierName": "Natsaurus_Drillhead_Normal_ClearFreePose"
        }
      ],
      "modifiers": {
        "IsInAwareSkill": {
          "modifierName": "",
          "elementDurability": 100.0,
          "onAdded": [
            {
              "$type": "FNPMFLOOCDD",
              "value": 0.0,
              "key": "_NOT_IN_AWARE_SKILL",
              "maxValue": 0.0,
              "minValue": 0.0
            }
          ],
          "onRemoved": [
            {
              "$type": "FNPMFLOOCDD",
              "value": 1.0,
              "key": "_NOT_IN_AWARE_SKILL",
              "maxValue": 0.0,
              "minValue": 0.0
            }
          ]
        },
        "Natsaurus_Drillhead_Normal_ClearFreePose": {
          "modifierName": "",
          "elementDurability": 100.0,
          "onAdded": [
            {
              "$type": "GFFKENEJFFB",
              "predicates": [
                {
                  "$type": "ByNot",
                  "predicates": [
                    {
                      "$type": "ByTargetGlobalValue",
                      "key": "SGV_Monster_Natsaurus_Drillhead_MoveInterfaceState",
                      "value": -1.0
                    }
                  ]
                }
              ],
              "intID": "FreePoseMark",
              "value": 1001
            }
          ]
        }
      }
    }
  },
  {
    "Default": {
      "$type": "ConfigAbility",
      "abilityName": "Monster_Natsaurus_Drillhead_Normal_DigManager",
      "abilityMixins": [
        {
          "$type": "AttachToStateIDMixin",
          "stateIDs": ["Dig_Loop"],
          "modifierName": "Monster_Natsaurus_Drillhead_Normal_DigTrailEffect",
          "DGFCLAIDIFI": ""
        },
        {
          "$type": "AttachToStateIDMixin",
          "stateIDs": ["Dig_Loop02"],
          "modifierName": "Monster_Natsaurus_Drillhead_Normal_DigTrailEffect",
          "DGFCLAIDIFI": ""
        },
        {
          "$type": "AttachToAnimatorStateIDMixin",
          "stateIDs": ["DigMove"],
          "modifierName": "Monster_Natsaurus_Drillhead_Normal_DigTrailEffect",
          "DGFCLAIDIFI": ""
        },
        {
          "$type": "AttachToStateIDMixin",
          "stateIDs": ["DigMove_Jump"],
          "modifierName": "Monster_Natsaurus_Drillhead_Normal_DigMoveJumpEffect",
          "DGFCLAIDIFI": ""
        },
        {
          "$type": "AttachToStateIDMixin",
          "stateIDs": ["Dig_Attack01"],
          "modifierName": "Monster_Natsaurus_Drillhead_Normal_Dig_Breakable",
          "DGFCLAIDIFI": ""
        }
      ],
      "modifiers": {
        "Monster_Natsaurus_Drillhead_Normal_DigTrailEffect": {
          "modifierName": "",
          "elementDurability": 100.0,
          "modifierMixins": [
            {
              "$type": "LLCAHDLGAHO",
              "reason": "Mixin"
            }
          ],
          "onAdded": [
            {
              "$type": "AttachEffect",
              "rotationDampTime": "Eff_Monster_Natsaurus_Drillhead_Normal_Dig_Loop_01",
              "PPPDJGDDOGD": 1.0,
              "AJDILHJFNKE": -1.0
            },
            {
              "$type": "HBNEMPLJCMB",
              "hide": true
            },
            {
              "$type": "EnablePushColliderName",
              "pushColliderNames": ["PushCollider"],
              "setEnable": true
            }
          ],
          "onRemoved": [
            {
              "$type": "HBNEMPLJCMB"
            },
            {
              "$type": "EnablePushColliderName",
              "pushColliderNames": ["PushCollider"],
              "setEnable": true
            }
          ]
        },
        "Monster_Natsaurus_Drillhead_Normal_Dig_Breakable": {
          "modifierName": "",
          "elementDurability": 100.0,
          "modifierMixins": [
            {
              "$type": "RigidBodyFreezeMixin"
            }
          ],
          "onBeingHit": [
            {
              "$type": "Predicated",
              "target": "Target",
              "targetPredicates": [
                {
                  "$type": "ByAny",
                  "predicates": [
                    {
                      "$type": "ByHitEnBreak",
                      "logic": "GreaterOrEqual",
                      "enBreak": 50.0
                    }
                  ]
                }
              ],
              "successActions": [
                {
                  "$type": "SetAnimatorTrigger",
                  "triggerID": "DigBreak"
                }
              ]
            }
          ]
        },
        "Monster_Natsaurus_Drillhead_Normal_DigMoveJumpEffect": {
          "modifierName": "",
          "elementDurability": 100.0,
          "onAdded": [
            {
              "$type": "FireEffect",
              "rotationDampTime": "Eff_Vehicle_Natsaurus_Drillhead_DrillingJumpExit",
              "PPPDJGDDOGD": 1.0,
              "AJDILHJFNKE": -1.0
            },
            {
              "$type": "AttachEffect",
              "rotationDampTime": "Eff_Vehicle_Natsaurus_Drillhead_DrillingJumpDuring",
              "PPPDJGDDOGD": 1.0,
              "AJDILHJFNKE": -1.0
            }
          ]
        }
      }
    }
  },
  {
    "Default": {
      "$type": "ConfigAbility",
      "abilityName": "Monster_Natsaurus_Drillhead_Normal_MigrateManager",
      "abilityMixins": [
        {
          "$type": "DoActionOnGlobalValueChangeMixin",
          "globalValueKey": "SGV_Monster_Natsaurus_Drillhead_MoveInterfaceState",
          "actions": [
            {
              "$type": "GFFKENEJFFB",
              "predicates": [
                {
                  "$type": "ByTargetGlobalValue",
                  "key": "SGV_Monster_Natsaurus_Drillhead_MoveInterfaceState",
                  "value": -1.0
                }
              ],
              "intID": "FreePoseMark",
              "value": 1005
            }
          ]
        },
        {
          "$type": "LEOGLBFIELL",
          "poseIDs": [1005],
          "modifierName": "MigrateManager_MainLogic"
        },
        {
          "$type": "AttachToMultiNormalizedTimeMixin",
          "normalizedStateIDList": [
            {
              "stateID": "DigMove_Jump",
              "normalizeStart": 0.10000000149011612
            },
            {
              "stateID": "DigMove_JumpLand"
            }
          ],
          "modifierName": "DigMove_Jump_RushMove",
          "DGFCLAIDIFI": ""
        }
      ],
      "HKFPCGFFKMJ": ["SGV_Monster_Natsaurus_Drillhead_MoveInterfaceState"],
      "modifiers": {
        "MigrateManager_MainLogic": {
          "modifierName": "",
          "elementDurability": 100.0,
          "modifierMixins": [
            {
              "$type": "AttachModifierToSelfGlobalValueNoInitMixin",
              "globalValueKey": "_AIGV_SERVERROUTE_CLOSEFLAG_",
              "valueSteps": [0.5, 1.5],
              "modifierNameSteps": ["MigrateManager_CloseToNextPoint"]
            },
            {
              "$type": "AttachModifierToSelfGlobalValueNoInitMixin",
              "globalValueKey": "_AIGV_SERVERROUTE_REACHFLAG_",
              "valueSteps": [0.5, 1.5],
              "modifierNameSteps": ["MigrateManager_ReachPoint"]
            },
            {
              "$type": "DoActionOnGlobalValueChangeMixin",
              "globalValueKey": "_AIGV_SERVERROUTE_STARTFLAG_",
              "actions": [
                {
                  "$type": "Predicated",
                  "targetPredicates": [
                    {
                      "$type": "ByTargetGlobalValue",
                      "key": "_AIGV_SERVERROUTE_STARTFLAG_",
                      "value": 1.0
                    }
                  ],
                  "successActions": [
                    {
                      "$type": "Predicated",
                      "targetPredicates": [
                        {
                          "$type": "ByTargetGlobalValue",
                          "key": "_MONSTERGV_MIGRATE_LASTPOINTTYPE_",
                          "value": 2.0
                        }
                      ],
                      "successActions": [
                        {
                          "$type": "SetAnimatorTrigger",
                          "triggerID": "MigrateDrillingJumpTrigger"
                        }
                      ]
                    },
                    {
                      "$type": "CopyGlobalValue",
                      "srcTarget": "Self",
                      "dstTarget": "Self",
                      "srcKey": "RoutePointType",
                      "dstKey": "_MONSTERGV_MIGRATE_LASTPOINTTYPE_"
                    },
                    {
                      "$type": "SetGlobalValue",
                      "value": 0.0,
                      "key": "_AIGV_SERVERROUTE_STARTFLAG_",
                      "maxValue": 0.0,
                      "minValue": 0.0
                    }
                  ]
                }
              ],
              "KBAAABINCDL": true
            }
          ]
        },
        "MigrateManager_CloseToNextPoint": {
          "modifierName": "",
          "elementDurability": 100.0
        },
        "MigrateManager_ReachPoint": {
          "modifierName": "",
          "elementDurability": 100.0,
          "thinkInterval": 0.20000000298023224,
          "onAdded": [
            {
              "$type": "BGLDIBDIEDJ"
            }
          ],
          "onThinkInterval": [
            {
              "$type": "Predicated",
              "targetPredicates": [
                {
                  "$type": "ByTargetGlobalValue",
                  "key": "RoutePointType",
                  "value": 1.0
                }
              ],
              "successActions": [
                {
                  "$type": "GFFKENEJFFB",
                  "predicates": [
                    {
                      "$type": "ByTargetGlobalValue",
                      "key": "SGV_Monster_Natsaurus_Drillhead_MoveInterfaceState",
                      "value": 1.0
                    }
                  ],
                  "intID": "FreePoseMark",
                  "value": 1001
                },
                {
                  "$type": "GFFKENEJFFB",
                  "predicates": [
                    {
                      "$type": "ByTargetGlobalValue",
                      "key": "SGV_Monster_Natsaurus_Drillhead_MoveInterfaceState",
                      "value": 2.0
                    }
                  ],
                  "intID": "FreePoseMark",
                  "value": 1002
                },
                {
                  "$type": "GFFKENEJFFB",
                  "predicates": [
                    {
                      "$type": "ByTargetGlobalValue",
                      "key": "SGV_Monster_Natsaurus_Drillhead_MoveInterfaceState",
                      "value": 3.0
                    }
                  ],
                  "intID": "FreePoseMark",
                  "value": 1003
                },
                {
                  "$type": "GFFKENEJFFB",
                  "predicates": [
                    {
                      "$type": "ByTargetGlobalValue",
                      "key": "SGV_Monster_Natsaurus_Drillhead_MoveInterfaceState",
                      "value": 4.0
                    }
                  ],
                  "intID": "FreePoseMark",
                  "value": 1004
                },
                {
                  "$type": "SetAnimatorTrigger",
                  "predicates": [
                    {
                      "$type": "ByTargetGlobalValue",
                      "key": "SGV_Monster_Natsaurus_Drillhead_MoveInterfaceState",
                      "value": 5.0
                    }
                  ],
                  "triggerID": "ToRest"
                },
                {
                  "$type": "GFFKENEJFFB",
                  "predicates": [
                    {
                      "$type": "ByTargetGlobalValue",
                      "key": "SGV_Monster_Natsaurus_Drillhead_MoveInterfaceState",
                      "value": 5.0
                    }
                  ],
                  "intID": "FreePoseMark",
                  "value": 9001
                }
              ]
            }
          ]
        },
        "DigMove_Jump_RushMove": {
          "modifierName": "",
          "elementDurability": 100.0,
          "onAdded": [
            {
              "$type": "PAGFCBCKEBH",
              "toPos": {
                "$type": "ConfigBornByGlobalValue",
                "positionKey": "RoutePointPos",
                "directionKey": "RoutePointRot"
              },
              "NKPCHMCNNOK": 0.9599999785423279,
              "maxRange": -1.0,
              "animatorStateIDs": ["DigMove_Jump"],
              "overrideMoveCollider": ""
            }
          ]
        }
      },
      "onAdded": [
        {
          "$type": "SetGlobalValue",
          "value": 0.0,
          "key": "_MONSTERGV_MIGRATE_LASTPOINTTYPE_",
          "maxValue": 0.0,
          "minValue": 0.0
        },
        {
          "$type": "SetGlobalValue",
          "value": 0.0,
          "key": "_AIGV_SERVERROUTE_CLOSEFLAG_",
          "maxValue": 0.0,
          "minValue": 0.0
        },
        {
          "$type": "SetGlobalValue",
          "value": 0.0,
          "key": "_AIGV_SERVERROUTE_REACHFLAG_",
          "maxValue": 0.0,
          "minValue": 0.0
        },
        {
          "$type": "SetGlobalValue",
          "value": 0.0,
          "key": "_AIGV_SERVERROUTE_STARTFLAG_",
          "maxValue": 0.0,
          "minValue": 0.0
        },
        {
          "$type": "SetGlobalValue",
          "value": 0.0,
          "key": "RoutePointPos_0",
          "maxValue": 0.0,
          "minValue": 0.0
        },
        {
          "$type": "SetGlobalValue",
          "value": 0.0,
          "key": "RoutePointPos_1",
          "maxValue": 0.0,
          "minValue": 0.0
        },
        {
          "$type": "SetGlobalValue",
          "value": 0.0,
          "key": "RoutePointPos_2",
          "maxValue": 0.0,
          "minValue": 0.0
        },
        {
          "$type": "SetGlobalValue",
          "value": 0.0,
          "key": "RoutePointRot_0",
          "maxValue": 0.0,
          "minValue": 0.0
        },
        {
          "$type": "SetGlobalValue",
          "value": 0.0,
          "key": "RoutePointRot_1",
          "maxValue": 0.0,
          "minValue": 0.0
        },
        {
          "$type": "SetGlobalValue",
          "value": 0.0,
          "key": "RoutePointRot_2",
          "maxValue": 0.0,
          "minValue": 0.0
        },
        {
          "$type": "SetGlobalValue",
          "value": 0.0,
          "key": "RoutePointType",
          "maxValue": 0.0,
          "minValue": 0.0
        }
      ]
    }
  },
  {
    "Default": {
      "$type": "ConfigAbility",
      "abilityName": "Monster_Natsaurus_Drillhead_Small_DigManager",
      "abilityMixins": [
        {
          "$type": "AttachToStateIDMixin",
          "stateIDs": ["Dig_Loop"],
          "modifierName": "Monster_Natsaurus_Drillhead_Small_DigTrailEffect",
          "DGFCLAIDIFI": ""
        }
      ],
      "modifiers": {
        "Monster_Natsaurus_Drillhead_Small_DigTrailEffect": {
          "modifierName": "",
          "elementDurability": 100.0,
          "modifierMixins": [
            {
              "$type": "LLCAHDLGAHO",
              "reason": "Mixin"
            }
          ],
          "onAdded": [
            {
              "$type": "HBNEMPLJCMB",
              "hide": true
            },
            {
              "$type": "EnablePushColliderName",
              "pushColliderNames": ["PushCollider"]
            },
            {
              "$type": "AttachEffect",
              "rotationDampTime": "Eff_Monster_Natsaurus_Drillhead_Small_Dig_Loop_01",
              "PPPDJGDDOGD": 1.0,
              "AJDILHJFNKE": -1.0
            }
          ],
          "onRemoved": [
            {
              "$type": "HBNEMPLJCMB"
            },
            {
              "$type": "EnablePushColliderName",
              "pushColliderNames": ["PushCollider"],
              "setEnable": true
            }
          ]
        }
      }
    }
  },
  {
    "Default": {
      "$type": "ConfigAbility",
      "abilityName": "Partner_Natsaurus_Drillhead_Small_StateManager",
      "abilityMixins": [
        {
          "$type": "AttachModifierToSelfGlobalValueNoInitMixin",
          "globalValueKey": "GV_Natsaurus_Command",
          "valueSteps": [-0.5, 0.5, 1.5, 2.5, 3.5],
          "modifierNameSteps": [
            "State_Free",
            "State_FollowPath",
            "State_FollowAvatar",
            "State_ActionPoint"
          ],
          "NMCLMHFBALJ": true
        },
        {
          "$type": "AttachToAnimatorStateIDMixin",
          "stateIDs": [
            "Search_BS",
            "Search_BS02",
            "Search_Loop",
            "Search_Success",
            "Search_Success02",
            "Search_AS"
          ],
          "modifierName": "State_Search",
          "DGFCLAIDIFI": ""
        }
      ],
      "modifiers": {
        "State_Free": {
          "modifierName": "",
          "elementDurability": 100.0,
          "onAdded": [
            {
              "$type": "GFFKENEJFFB",
              "intID": "StateFlag"
            }
          ]
        },
        "State_FollowPath": {
          "modifierName": "",
          "elementDurability": 100.0,
          "onAdded": [
            {
              "$type": "GFFKENEJFFB",
              "intID": "StateFlag",
              "value": 1
            }
          ]
        },
        "State_FollowAvatar": {
          "modifierName": "",
          "elementDurability": 100.0,
          "onAdded": [
            {
              "$type": "GFFKENEJFFB",
              "intID": "StateFlag",
              "value": 2
            }
          ]
        },
        "State_ActionPoint": {
          "modifierName": "",
          "elementDurability": 100.0,
          "onAdded": [
            {
              "$type": "GFFKENEJFFB",
              "intID": "StateFlag",
              "value": 3
            }
          ]
        },
        "State_Search": {
          "modifierName": "",
          "elementDurability": 100.0,
          "modifierMixins": [
            {
              "$type": "GLLGBKNIFII",
              "mass": 100000.0
            }
          ],
          "properties": {
            "Entity_MassRatio": 10000.0
          }
        }
      }
    }
  },
  {
    "Default": {
      "$type": "ConfigAbility",
      "abilityName": "Partner_Natsaurus_Drillhead_Small_Response",
      "onAbilityStart": [
        {
          "$type": "SetGlobalValue",
          "target": "Owner",
          "value": 1.0,
          "key": "GV_Natsaurus_Response",
          "maxValue": 0.0,
          "minValue": 0.0
        }
      ]
    }
  },
  {
    "Default": {
      "$type": "ConfigAbility",
      "abilityName": "Partner_Natsaurus_Drillhead_Small_OutRangeManager",
      "abilityMixins": [
        {
          "$type": "LEOGLBFIELL",
          "poseIDs": [1003, 1040],
          "modifierName": "OutRanged_NormalRange"
        },
        {
          "$type": "LEOGLBFIELL",
          "poseIDs": [1],
          "modifierName": "OutRanged_LargerRange"
        }
      ],
      "modifiers": {
        "OutRanged_NormalRange": {
          "modifierName": "",
          "elementDurability": 100.0,
          "thinkInterval": 1.0,
          "onThinkInterval": [
            {
              "$type": "KillSelf",
              "predicates": [
                {
                  "$type": "ByTargetPositionToSelfPosition",
                  "target": "Owner",
                  "compareType": "XYZ",
                  "value": 10.0,
                  "DDALGNLEHOD": ""
                }
              ],
              "configIdArray": [70331534]
            }
          ]
        },
        "OutRanged_LargerRange": {
          "modifierName": "",
          "elementDurability": 100.0,
          "thinkInterval": 1.0,
          "onThinkInterval": [
            {
              "$type": "KillSelf",
              "predicates": [
                {
                  "$type": "ByTargetPositionToSelfPosition",
                  "target": "Owner",
                  "compareType": "XYZ",
                  "value": 20.0,
                  "DDALGNLEHOD": ""
                }
              ],
              "configIdArray": [70331534]
            }
          ]
        },
        "Drillhead_Small_Summopned_Notify": {
          "modifierName": "",
          "elementDurability": 100.0,
          "modifierMixins": [
            {
              "$type": "AttachActionToModifierMixin",
              "onAdded": [
                {
                  "$type": "SetTargetToTargetKey",
                  "target": "Applier",
                  "targetKey": "Drillhead_ID"
                },
                {
                  "$type": "FNPMFLOOCDD",
                  "value": 1.0,
                  "key": "GV_Drillhead_Summoned",
                  "maxValue": 0.0,
                  "minValue": 0.0
                }
              ],
              "onRemoved": [
                {
                  "$type": "FNPMFLOOCDD",
                  "value": 0.0,
                  "key": "GV_Drillhead_Summoned",
                  "maxValue": 0.0,
                  "minValue": 0.0
                }
              ]
            }
          ]
        }
      },
      "onAdded": [
        {
          "$type": "AttachModifier",
          "target": "Owner",
          "modifierName": "Drillhead_Small_Summopned_Notify"
        }
      ]
    }
  },
  {
    "Default": {
      "$type": "ConfigAbility",
      "abilityName": "Partner_Natsaurus_Drillhead_Small_OrderController",
      "modifiers": {
        "OrderController_LifeTime": {
          "modifierName": "",
          "elementDurability": 100.0,
          "onAdded": [
            {
              "$type": "DCKBKHHAFNO"
            }
          ]
        }
      },
      "onAdded": [
        {
          "$type": "ApplyModifier",
          "modifierName": "OrderController_LifeTime"
        }
      ]
    }
  },
  {
    "Default": {
      "$type": "ConfigAbility",
      "abilityName": "Monster_Natsaurus_Drillhead_Small_SteerManager",
      "abilityMixins": [
        {
          "$type": "IILHMBGONGM",
          "steerStateIDs": ["TurnLeft"],
          "angularSpeed": 180.0,
          "attackTrigger": "",
          "attackDistance": 3.75,
          "DGFCLAIDIFI": ""
        },
        {
          "$type": "IILHMBGONGM",
          "steerStateIDs": ["TurnRight"],
          "angularSpeed": 180.0,
          "attackTrigger": "",
          "attackDistance": 3.75,
          "DGFCLAIDIFI": ""
        },
        {
          "$type": "IILHMBGONGM",
          "steerStateIDs": ["MeleeAttack01"],
          "endNormalizedTime": 0.20000000298023224,
          "angularSpeed": 540.0,
          "attackTrigger": "",
          "DGFCLAIDIFI": ""
        },
        {
          "$type": "IILHMBGONGM",
          "steerStateIDs": ["Dig_Loop"],
          "endNormalizedTime": 99.0,
          "angularSpeed": 120.0,
          "attackTrigger": "DigAttackTrigger",
          "attackDistance": 3.0,
          "DGFCLAIDIFI": ""
        },
        {
          "$type": "IILHMBGONGM",
          "steerStateIDs": ["TauntAware02"],
          "angularSpeed": 90.0,
          "attackTrigger": "",
          "DGFCLAIDIFI": ""
        },
        {
          "$type": "IILHMBGONGM",
          "steerStateIDs": ["TauntAware03"],
          "angularSpeed": 90.0,
          "attackTrigger": "",
          "DGFCLAIDIFI": ""
        },
        {
          "$type": "IILHMBGONGM",
          "steerStateIDs": ["TauntAware05"],
          "angularSpeed": 90.0,
          "attackTrigger": "",
          "DGFCLAIDIFI": ""
        },
        {
          "$type": "IILHMBGONGM",
          "steerStateIDs": ["TauntAware06"],
          "angularSpeed": 90.0,
          "attackTrigger": "",
          "DGFCLAIDIFI": ""
        }
      ]
    }
  },
  {
    "Default": {
      "$type": "ConfigAbility",
      "abilityName": "Partner_Natsaurus_Drillhead_Small_WQ_SteerManager",
      "abilityMixins": [
        {
          "$type": "IILHMBGONGM",
          "steerStateIDs": ["TurnLeft"],
          "angularSpeed": 180.0,
          "attackTrigger": "",
          "attackDistance": 3.75,
          "DGFCLAIDIFI": ""
        },
        {
          "$type": "IILHMBGONGM",
          "steerStateIDs": ["TurnRight"],
          "angularSpeed": 180.0,
          "attackTrigger": "",
          "attackDistance": 3.75,
          "DGFCLAIDIFI": ""
        },
        {
          "$type": "IILHMBGONGM",
          "steerStateIDs": ["MeleeAttack01"],
          "endNormalizedTime": 0.20000000298023224,
          "angularSpeed": 540.0,
          "attackTrigger": "",
          "DGFCLAIDIFI": ""
        },
        {
          "$type": "LEOGLBFIELL",
          "poseIDs": [1, 3],
          "modifierName": "SteerModifier_Fight"
        },
        {
          "$type": "LEOGLBFIELL",
          "poseIDs": [2],
          "modifierName": "SteerModifier_Transform"
        }
      ],
      "modifiers": {
        "SteerModifier_Fight": {
          "modifierName": "",
          "elementDurability": 100.0,
          "modifierMixins": [
            {
              "$type": "IILHMBGONGM",
              "steerStateIDs": ["Dig_Loop"],
              "endNormalizedTime": 99.0,
              "angularSpeed": 120.0,
              "attackTrigger": "DigAttackTrigger",
              "attackDistance": 3.0,
              "DGFCLAIDIFI": "",
              "LDPLGJLMMAA": true
            }
          ]
        },
        "SteerModifier_Transform": {
          "modifierName": "",
          "elementDurability": 100.0,
          "modifierMixins": [
            {
              "$type": "IILHMBGONGM",
              "steerStateIDs": ["Dig_Loop"],
              "endNormalizedTime": 99.0,
              "angularSpeed": 120.0,
              "attackTrigger": "DigAttackTrigger",
              "attackDistance": 12.0,
              "DGFCLAIDIFI": "",
              "LDPLGJLMMAA": true
            }
          ]
        }
      }
    }
  },
  {
    "Default": {
      "$type": "ConfigAbility",
      "abilityName": "Partner_Natsaurus_Drillhead_Small_WQ_StateManager",
      "abilityMixins": [
        {
          "$type": "AttachModifierToSelfGlobalValueNoInitMixin",
          "globalValueKey": "GV_Natsaurus_Command",
          "valueSteps": [-0.5, 0.5, 1.5, 2.5],
          "modifierNameSteps": ["State_Empty", "State_Transform", "State_Rush"],
          "NMCLMHFBALJ": true
        }
      ],
      "modifiers": {
        "State_Empty": {
          "modifierName": "",
          "elementDurability": 100.0,
          "onAdded": [
            {
              "$type": "IDNGFEEBPAM",
              "boolID": "Transform"
            },
            {
              "$type": "IDNGFEEBPAM",
              "boolID": "Rush"
            }
          ]
        },
        "State_Transform": {
          "modifierName": "",
          "elementDurability": 100.0,
          "onAdded": [
            {
              "$type": "IDNGFEEBPAM",
              "boolID": "Transform",
              "value": true
            }
          ]
        },
        "State_Rush": {
          "modifierName": "",
          "elementDurability": 100.0,
          "onAdded": [
            {
              "$type": "IDNGFEEBPAM",
              "boolID": "Rush",
              "value": true
            }
          ]
        },
        "CommonState_Controller": {
          "modifierName": "",
          "elementDurability": 100.0,
          "thinkInterval": 2.0,
          "onThinkInterval": [
            {
              "$type": "NJCKNDLIGEB",
              "born": {
                "$type": "ConfigBornByGlobalValue",
                "positionKey": "GV_Natsaurus_CenterPos",
                "directionKey": ""
              }
            },
            {
              "$type": "Predicated",
              "shieldHP": true,
              "targetPredicates": [
                {
                  "$type": "ByAny",
                  "predicates": [
                    {
                      "$type": "GFPOLMJGMFG",
                      "logic": "GreaterOrEqual",
                      "value": 40.0,
                      "positionKey": "GV_Natsaurus_CenterPos"
                    },
                    {
                      "$type": "GFPOLMJGMFG",
                      "logic": "GreaterOrEqual",
                      "compareType": "Y",
                      "value": 5.0,
                      "positionKey": "GV_Natsaurus_CenterPos"
                    }
                  ]
                }
              ],
              "successActions": [
                {
                  "$type": "BHPDPACKKNI",
                  "shieldHP": true,
                  "born": {
                    "$type": "ConfigBornBySelfOwner",
                    "bornRandom": {
                      "$type": "BornRandomFromCenter",
                      "minRandomRange": 1.0,
                      "maxRandomRange": 2.0
                    },
                    "onGround": true,
                    "onGroundRaycastUpDist": 0.5,
                    "useRotation": true
                  },
                  "hitSceneTest": false,
                  "limitY": 2.5
                },
                {
                  "$type": "IFCMHHHOLCK"
                }
              ]
            }
          ]
        }
      },
      "onAdded": [
        {
          "$type": "SetGlobalValue",
          "value": 0.0,
          "key": "_DrillheadManager_Placeholder",
          "maxValue": 0.0,
          "minValue": 0.0
        },
        {
          "$type": "ApplyModifier",
          "modifierName": "CommonState_Controller"
        }
      ]
    }
  },
  {
    "Default": {
      "$type": "ConfigAbility",
      "abilityName": "Partner_Natsaurus_Drillhead_Small_WQ_Heal",
      "modifiers": {
        "UNIQUE_Avatar_Drillhead_Small_WQ_Revive_Handler": {
          "modifierName": "",
          "forceTriggerWhenChangeAuthority": true,
          "elementDurability": 100.0,
          "modifierMixins": [
            {
              "$type": "AttachModifierToSelfGlobalValueMixin",
              "globalValueKey": "_DRILLHEAD_SMALL_WQ_REVIVE",
              "gvInTalk": 0.0,
              "valueSteps": [0.5, 1.5, 2.5],
              "modifierNameSteps": [
                "UNIQUE_Avatar_Drillhead_Small_WQ_Revive",
                "UNIQUE_Avatar_Drillhead_Small_WQ_Heal_Handler"
              ]
            }
          ],
          "onAdded": [
            {
              "$type": "SetGlobalValue",
              "value": 1.0,
              "key": "_DRILLHEAD_SMALL_WQ_REVIVE",
              "maxValue": 0.0,
              "minValue": 0.0
            }
          ]
        },
        "UNIQUE_Avatar_Drillhead_Small_WQ_Revive": {
          "modifierName": "",
          "forceTriggerWhenChangeAuthority": true,
          "elementDurability": 100.0,
          "modifierMixins": [
            {
              "$type": "DoReviveMixin",
              "onKillActions": [
                {
                  "$type": "GODNEFOOJKH",
                  "target": "CurLocalAvatar",
                  "shieldHP": true,
                  "CKDBFHCIJEK": 1.0,
                  "cdRatio": ""
                }
              ],
              "onReviveActions": [
                {
                  "$type": "FireEffect",
                  "rotationDampTime": "Eff_Monster_Natsaurus_Drillhead_Small_WQ_Revive_Avatar",
                  "PPPDJGDDOGD": 1.0,
                  "AJDILHJFNKE": -1.0
                },
                {
                  "$type": "SetGlobalValue",
                  "value": 2.0,
                  "key": "_DRILLHEAD_SMALL_WQ_REVIVE",
                  "maxValue": 0.0,
                  "minValue": 0.0
                }
              ]
            }
          ]
        },
        "UNIQUE_Avatar_Drillhead_Small_WQ_Heal_Handler": {
          "modifierName": "",
          "forceTriggerWhenChangeAuthority": true,
          "elementDurability": 100.0,
          "modifierMixins": [
            {
              "$type": "CurLocalAvatarMixinV2",
              "modifierName": "UNIQUE_Avatar_Drillhead_Small_WQ_Heal_State"
            }
          ],
          "onAdded": [
            {
              "$type": "AttachEffect",
              "target": "Caster",
              "rotationDampTime": "Eff_Monster_Natsaurus_Drillhead_Small_WQ_Heal",
              "PPPDJGDDOGD": 1.0,
              "AJDILHJFNKE": -1.0
            }
          ]
        },
        "UNIQUE_Avatar_Drillhead_Small_WQ_Heal_State": {
          "modifierName": "",
          "forceTriggerWhenChangeAuthority": true,
          "elementDurability": 100.0,
          "thinkInterval": 3.0,
          "onAdded": [
            {
              "$type": "AttachEffect",
              "rotationDampTime": "Eff_Monster_Natsaurus_Drillhead_Small_WQ_Heal_Avatar",
              "PPPDJGDDOGD": 1.0,
              "AJDILHJFNKE": -1.0
            }
          ],
          "onThinkInterval": [
            {
              "$type": "HealHP",
              "CKDBFHCIJEK": 0.05000000074505806,
              "cdRatio": ""
            }
          ]
        }
      },
      "onAdded": [
        {
          "$type": "ApplyModifier",
          "target": "Team",
          "modifierName": "UNIQUE_Avatar_Drillhead_Small_WQ_Revive_Handler"
        }
      ],
      "onKill": [
        {
          "$type": "RemoveUniqueModifier",
          "target": "Team",
          "modifierName": "UNIQUE_Avatar_Drillhead_Small_WQ_Revive_Handler"
        },
        {
          "$type": "RemoveUniqueModifier",
          "target": "Team",
          "modifierName": "UNIQUE_Avatar_Drillhead_Small_WQ_Heal_Handler"
        }
      ]
    }
  },
  {
    "Default": {
      "$type": "ConfigAbility",
      "abilityName": "Partner_Natsaurus_Drillhead_Small_WQ_Transform",
      "abilityMixins": [
        {
          "$type": "AttachToStateIDMixin",
          "stateIDs": ["Transform"],
          "modifierName": "Transform_Charge",
          "DGFCLAIDIFI": ""
        },
        {
          "$type": "LEOGLBFIELL",
          "poseIDs": [2, 3],
          "modifierName": "Transform_State"
        }
      ],
      "modifiers": {
        "Transform_Charge": {
          "modifierName": "",
          "elementDurability": 100.0,
          "onAdded": [
            {
              "$type": "AttachEffect",
              "rotationDampTime": "Eff_Monster_Natsaurus_Drillhead_Small_WQ_SP_Charge_Loop",
              "PPPDJGDDOGD": 1.0,
              "AJDILHJFNKE": -1.0
            }
          ]
        },
        "Transform_State": {
          "modifierName": "",
          "elementDurability": 100.0,
          "thinkInterval": 10.0,
          "onThinkInterval": [
            {
              "$type": "ApplyModifier",
              "predicates": [
                {
                  "$type": "ByTargetGlobalValue",
                  "key": "_DRILLHEAD_SMALL_WQ_POWERUP_STATE",
                  "value": 0.0,
                  "compareType": "NoneOrEqual"
                }
              ],
              "modifierName": "UNIQUE_Natsaurus_Drillhead_Small_WQ_PowerUp"
            }
          ],
          "onReconnect": [
            {
              "$type": "ApplyModifier",
              "modifierName": "UNIQUE_Natsaurus_Drillhead_Small_WQ_PowerUp"
            }
          ]
        },
        "UNIQUE_Natsaurus_Drillhead_Small_WQ_PowerUp": {
          "stacking": "Unique",
          "modifierName": "",
          "forceTriggerWhenChangeAuthority": true,
          "elementDurability": 100.0,
          "modifierMixins": [
            {
              "$type": "ReplaceEventPatternMixin",
              "oldPatterns": [
                "Monster_Natsaurus_Drillhead_Small_MeleeAttack01",
                "Monster_Natsaurus_Drillhead_Small_Dig_Attack01"
              ],
              "newPatterns": [
                "Monster_Natsaurus_Drillhead_Small_WQ_MeleeAttack01",
                "Monster_Natsaurus_Drillhead_Small_WQ_Dig_Attack01"
              ]
            }
          ],
          "properties": {
            "Actor_EndureDelta": 0.0
          },
          "onAdded": [
            {
              "$type": "AttachEffect",
              "rotationDampTime": "Eff_Monster_Natsaurus_Drillhead_Small_WQ_SP_Loop",
              "PPPDJGDDOGD": 1.0,
              "AJDILHJFNKE": -1.0
            },
            {
              "$type": "SetGlobalValue",
              "value": 1.0,
              "key": "_DRILLHEAD_SMALL_WQ_POWERUP_STATE",
              "maxValue": 0.0,
              "minValue": 0.0
            }
          ],
          "onRemoved": [
            {
              "$type": "SetGlobalValue",
              "value": 0.0,
              "key": "_DRILLHEAD_SMALL_WQ_POWERUP_STATE",
              "maxValue": 0.0,
              "minValue": 0.0
            }
          ],
          "onHittingOther": [
            {
              "$type": "ActCameraShake",
              "cameraShake": {
                "shakeRange": 1.5,
                "shakeTime": 0.30000001192092896,
                "shakeDistance": 30.0
              }
            }
          ],
          "hittingOtherIgnoreDummy": true,
          "hittingOtherIgnoreElementReaction": true
        }
      },
      "onAbilityStart": [
        {
          "$type": "ApplyModifier",
          "modifierName": "UNIQUE_Natsaurus_Drillhead_Small_WQ_PowerUp"
        },
        {
          "$type": "FireEffect",
          "rotationDampTime": "Eff_Monster_Natsaurus_Drillhead_Small_WQ_SP_Charge_AS",
          "PPPDJGDDOGD": 1.0,
          "AJDILHJFNKE": -1.0
        }
      ]
    }
  },
  {
    "Default": {
      "$type": "ConfigAbility",
      "abilityName": "Monster_Natsaurus_Drillhead_Small_WQ_DigManager",
      "abilityMixins": [
        {
          "$type": "AttachToStateIDMixin",
          "stateIDs": ["Dig_Loop"],
          "modifierName": "Monster_Natsaurus_Drillhead_Small_WQ_DigTrailEffect",
          "DGFCLAIDIFI": ""
        }
      ],
      "modifiers": {
        "Monster_Natsaurus_Drillhead_Small_WQ_DigTrailEffect": {
          "modifierName": "",
          "elementDurability": 100.0,
          "modifierMixins": [
            {
              "$type": "LLCAHDLGAHO"
            }
          ],
          "onAdded": [
            {
              "$type": "HBNEMPLJCMB",
              "hide": true
            },
            {
              "$type": "EnablePushColliderName",
              "pushColliderNames": ["PushCollider"]
            },
            {
              "$type": "AttachEffect",
              "rotationDampTime": "Eff_Monster_Natsaurus_Drillhead_Small_Dig_Loop_01",
              "PPPDJGDDOGD": 1.0,
              "AJDILHJFNKE": -1.0
            }
          ],
          "onRemoved": [
            {
              "$type": "HBNEMPLJCMB"
            },
            {
              "$type": "EnablePushColliderName",
              "pushColliderNames": ["PushCollider"],
              "setEnable": true
            }
          ]
        }
      }
    }
  }
]
