[
  {
    "Default": {
      "$type": "ConfigAbility",
      "abilityName": "Fungus_Un_BVB_Wind_Bullet_Trigger",
      "abilityMixins": [
        {
          "$type": "AttachToAnimatorStateIDMixin",
          "stateIDs": ["Shoot_Loop"],
          "modifierName": "WindBullet_Charge_VFX",
          "DGFCLAIDIFI": ""
        },
        {
          "$type": "IILHMBGONGM",
          "steerStateIDs": ["NormalAttack"],
          "angularSpeed": 180.0,
          "attackTrigger": "",
          "DGFCLAIDIFI": ""
        }
      ],
      "modifiers": {
        "WindBullet_Charge_VFX": {
          "modifierName": "",
          "elementDurability": 100.0,
          "onAdded": [
            {
              "$type": "AttachEffect",
              "rotationDampTime": "Eff_Monster_Fungus_Un_Delta_Wind_ShootNormal_Loop",
              "PPPDJGDDOGD": 1.0,
              "AJDILHJFNKE": -1.0
            }
          ]
        }
      },
      "onAbilityStart": [
        {
          "$type": "TriggerBullet",
          "bulletID": 42609014,
          "born": {
            "$type": "ConfigBornByAttachPoint",
            "direction": {
              "$type": "ConfigDirectionByAttackTarget",
              "startPoint": ""
            },
            "attachPointName": "BulletSource",
            "attachPointTargetType": "Self"
          },
          "lifeByOwnerV2": true
        },
        {
          "$type": "FireEffect",
          "rotationDampTime": "Eff_Monster_Fungus_Un_Delta_Wind_ShootNormal_Attack",
          "PPPDJGDDOGD": 1.0,
          "AJDILHJFNKE": -1.0
        }
      ]
    }
  },
  {
    "Default": {
      "$type": "ConfigAbility",
      "abilityName": "Fungus_Un_BVB_Wind_Bullet",
      "modifiers": {
        "WindBullet_Display": {
          "modifierName": "",
          "elementType": "Wind",
          "elementDurability": 100.0,
          "onAdded": [
            {
              "$type": "AttachEffect",
              "rotationDampTime": "Eff_Monster_Fungus_Un_Delta_Wind_Shoot_BulletNormal",
              "PPPDJGDDOGD": 1.0,
              "AJDILHJFNKE": -1.0
            },
            {
              "$type": "AttachEffect",
              "rotationDampTime": "Eff_Monster_Fungus_Un_Delta_Wind_Shoot_BulletNormal_Trail",
              "PPPDJGDDOGD": 1.0,
              "AJDILHJFNKE": -1.0
            }
          ]
        }
      },
      "onAdded": [
        {
          "$type": "AttachModifier",
          "modifierName": "WindBullet_Display"
        }
      ],
      "onAbilityStart": [
        {
          "$type": "FireEffect",
          "rotationDampTime": "Eff_Monster_Fungus_Un_Delta_Wind_Shoot_HitNormal",
          "born": {
            "$type": "ConfigBornByAttachPoint",
            "attachPointName": "RootNode"
          },
          "PPPDJGDDOGD": 1.0,
          "AJDILHJFNKE": -1.0
        },
        {
          "$type": "TriggerAttackEvent",
          "attackEvent": {
            "attackPattern": {
              "$type": "ConfigAttackSphere",
              "triggerType": "TriggerNoRepeat",
              "born": {
                "$type": "ConfigBornByCollisionPoint"
              },
              "radius": 1.0
            },
            "attackInfo": {
              "attackTag": "",
              "attenuationTag": "",
              "attenuationGroup": "default",
              "attackProperty": {
                "actorGrassSubHurtDelta": 2.5,
                "actorWindSubHurtDelta": 0.0,
                "elementType": "Wind",
                "elementDurability": 25.0,
                "attackType": "Range",
                "GLKMCMDJBIK": 0.0
              },
              "hitPattern": {
                "onHitEffectName": "default",
                "hitImpulseY": "",
                "hitImpulseType": "LV1"
              },
              "canBeModifiedBy": "Owner"
            }
          },
          "targetType": "Enemy"
        }
      ]
    }
  },
  {
    "Default": {
      "$type": "ConfigAbility",
      "abilityName": "Fungus_Un_BVB_Wind_WindImpact_Trigger",
      "abilityMixins": [
        {
          "$type": "AttachToAnimatorStateIDMixin",
          "stateIDs": ["WindImpact_Loop"],
          "modifierName": "WindImpactBullet_Charge_Display",
          "DGFCLAIDIFI": ""
        },
        {
          "$type": "IILHMBGONGM",
          "steerStateIDs": ["UnionBurst"],
          "angularSpeed": 180.0,
          "attackTrigger": "",
          "DGFCLAIDIFI": ""
        }
      ],
      "modifiers": {
        "WindImpactBullet_Charge_Display": {
          "modifierName": "",
          "elementDurability": 100.0,
          "onAdded": [
            {
              "$type": "AttachEffect",
              "rotationDampTime": "Eff_Monster_Fungus_Un_Delta_Wind_ShootDecayed_Loop",
              "PPPDJGDDOGD": 1.0,
              "AJDILHJFNKE": -1.0
            }
          ]
        }
      },
      "onAbilityStart": [
        {
          "$type": "TriggerBullet",
          "bulletID": 42609015,
          "born": {
            "$type": "ConfigBornByAttachPoint",
            "attachPointName": "BulletSource",
            "attachPointTargetType": "Self"
          },
          "lifeByOwnerV2": true
        },
        {
          "$type": "FireEffect",
          "rotationDampTime": "Eff_Monster_Fungus_Un_Delta_Wind_ShootDecayed_Attack",
          "PPPDJGDDOGD": 1.0,
          "AJDILHJFNKE": -1.0
        }
      ]
    }
  },
  {
    "Default": {
      "$type": "ConfigAbility",
      "abilityName": "Fungus_Un_BVB_Wind_WindImpact_Bullet",
      "modifiers": {
        "WindImpactBullet_Display": {
          "modifierName": "",
          "elementType": "Wind",
          "elementDurability": 100.0,
          "onAdded": [
            {
              "$type": "AttachEffect",
              "rotationDampTime": "Eff_Monster_Fungus_Un_Wind_WindImpact_Bullet",
              "PPPDJGDDOGD": 1.0,
              "AJDILHJFNKE": -1.0
            },
            {
              "$type": "AttachEffect",
              "rotationDampTime": "Eff_Monster_Fungus_Un_Delta_Wind_Shoot_BulletDecayed_Trail",
              "PPPDJGDDOGD": 1.0,
              "AJDILHJFNKE": -1.0
            }
          ]
        }
      },
      "onAdded": [
        {
          "$type": "AttachModifier",
          "modifierName": "WindImpactBullet_Display"
        }
      ],
      "onAbilityStart": [
        {
          "$type": "FireEffect",
          "rotationDampTime": "Eff_Monster_Fungus_Un_Wind_WindImpact_Blast",
          "born": {
            "$type": "ConfigBornBySelf",
            "onGround": true,
            "alongGround": true,
            "useRotation": true
          },
          "PPPDJGDDOGD": 1.0,
          "AJDILHJFNKE": -1.0
        },
        {
          "$type": "CreateGadget",
          "ownerIs": "Owner",
          "born": {
            "$type": "ConfigBornBySelf",
            "onGround": true,
            "alongGround": true,
            "useRotation": true
          },
          "lifeByOwnerV2": true,
          "gadgetID": 42609023
        }
      ]
    }
  },
  {
    "Default": {
      "$type": "ConfigAbility",
      "abilityName": "Fungus_Un_BVB_Wind_WindImpact_Gadget",
      "modifiers": {
        "WindImpactGadget": {
          "modifierName": "",
          "duration": 0.30000001192092896,
          "elementDurability": 100.0,
          "onAdded": [
            {
              "$type": "TriggerAttackEvent",
              "attackEvent": {
                "attackPattern": {
                  "$type": "ConfigAttackSphere",
                  "triggerType": "TriggerNoRepeat",
                  "born": {
                    "$type": "ConfigBornBySelf"
                  },
                  "radius": 6.0
                },
                "attackInfo": {
                  "attackTag": "",
                  "attenuationTag": "",
                  "attenuationGroup": "default",
                  "attackProperty": {
                    "actorGrassSubHurtDelta": 6.0,
                    "actorWindSubHurtDelta": 0.0,
                    "elementType": "Wind",
                    "elementDurability": 25.0,
                    "enBreak": 90.0,
                    "GLKMCMDJBIK": 0.0
                  },
                  "hitPattern": {
                    "onHitEffectName": "default",
                    "hitImpulseY": "",
                    "hitImpulseType": "LV5"
                  }
                }
              },
              "targetType": "Enemy"
            }
          ],
          "onRemoved": [
            {
              "$type": "ApplyModifier",
              "modifierName": "WindZoneEffect"
            }
          ]
        },
        "WindZoneEffect": {
          "modifierName": "",
          "duration": 3.0,
          "elementDurability": 100.0,
          "modifierMixins": [
            {
              "$type": "WindZoneMixin",
              "shapeName": "CircleR15",
              "born": {
                "$type": "ConfigBornBySelf",
                "offset": {
                  "x": 0.0,
                  "y": 1.0,
                  "z": 0.0
                }
              },
              "strength": 4.0,
              "IAELBHDMINN": 0.699999988079071,
              "MMBCLAEOEFB": 0.5,
              "targetType": "Enemy",
              "predicates": [
                {
                  "$type": "ByEntityTypes",
                  "entityTypes": ["Monster", "Partner"]
                }
              ],
              "modifierName": ""
            }
          ],
          "onAdded": [
            {
              "$type": "AttachEffect",
              "rotationDampTime": "Eff_Monster_Fungus_Un_Wind_WindImpact_Zone",
              "PPPDJGDDOGD": 1.0,
              "AJDILHJFNKE": -1.0
            }
          ],
          "onRemoved": [
            {
              "$type": "KillSelf"
            }
          ]
        }
      },
      "onAdded": [
        {
          "$type": "ApplyModifier",
          "modifierName": "WindImpactGadget"
        }
      ]
    }
  },
  {
    "Default": {
      "$type": "ConfigAbility",
      "abilityName": "Fungus_Un_BVB_Wind_WindZone",
      "onAbilityStart": [
        {
          "$type": "CreateGadget",
          "target": "SelfAttackTarget",
          "lifeByOwnerV2": true,
          "gadgetID": 42609016
        }
      ]
    }
  },
  {
    "Default": {
      "$type": "ConfigAbility",
      "abilityName": "Fungus_Un_BVB_Wind_WindZone_Gadget",
      "modifiers": {
        "WindZoneGadget": {
          "modifierName": "",
          "duration": 3.0999999046325684,
          "elementDurability": 100.0,
          "thinkInterval": 1.0,
          "onAdded": [
            {
              "$type": "AttachEffect",
              "rotationDampTime": "Eff_Monster_Fungus_Un_Wind_WindZone",
              "PPPDJGDDOGD": 1.0,
              "AJDILHJFNKE": -1.0
            },
            {
              "$type": "DamageByAttackValue",
              "otherTargets": {
                "$type": "SelectTargetsByShape",
                "shapeName": "FungusAOE_R5",
                "campTargetType": "Enemy",
                "doOffStage": 1.0
              },
              "attackInfo": {
                "attackTag": "",
                "attenuationTag": "Fungus_WindZone",
                "attenuationGroup": "FungusFightV2_Seq1",
                "attackProperty": {
                  "actorGrassSubHurtDelta": 3.75,
                  "actorWindSubHurtDelta": 0.0,
                  "elementType": "Wind",
                  "elementDurability": 25.0,
                  "enBreak": 10.0,
                  "attackType": "Range",
                  "GLKMCMDJBIK": 0.0
                },
                "hitPattern": {
                  "onHitEffectName": "default",
                  "hitImpulseY": "",
                  "hitImpulseType": "LV1"
                }
              }
            }
          ],
          "onRemoved": [
            {
              "$type": "FireEffect",
              "rotationDampTime": "Eff_Monster_Fungus_Un_Wind_WindZone_EndingAttack",
              "PPPDJGDDOGD": 1.0,
              "AJDILHJFNKE": -1.0
            },
            {
              "$type": "KillSelf"
            }
          ],
          "onThinkInterval": [
            {
              "$type": "DamageByAttackValue",
              "otherTargets": {
                "$type": "SelectTargetsByShape",
                "shapeName": "FungusAOE_R5",
                "campTargetType": "Enemy",
                "doOffStage": 1.0
              },
              "attackInfo": {
                "attackTag": "",
                "attenuationTag": "Fungus_WindZone",
                "attenuationGroup": "FungusFightV2_Seq1",
                "attackProperty": {
                  "actorGrassSubHurtDelta": 3.75,
                  "actorWindSubHurtDelta": 0.0,
                  "elementType": "Wind",
                  "elementDurability": 25.0,
                  "enBreak": 10.0,
                  "attackType": "Range",
                  "GLKMCMDJBIK": 0.0
                },
                "hitPattern": {
                  "onHitEffectName": "default",
                  "hitImpulseY": "",
                  "hitImpulseType": "LV1"
                }
              }
            }
          ]
        }
      },
      "onAdded": [
        {
          "$type": "ApplyModifier",
          "modifierName": "WindZoneGadget"
        }
      ]
    }
  },
  {
    "Default": {
      "$type": "ConfigAbility",
      "abilityName": "Fungus_Un_BVB_Wind_Passive",
      "abilitySpecials": {
        "resist_down": -0.30000001192092896,
        "debuff_duration": 6.0
      },
      "modifiers": {
        "Fungus_Un_BVB_Wind_Passive_Handler": {
          "modifierName": "",
          "elementDurability": 100.0,
          "modifierMixins": [
            {
              "$type": "DoActionByElementReactionMixin",
              "entityTypes": ["Monster", "Avatar", "Partner"],
              "reactionTypes": ["SwirlFire"],
              "actions": [
                {
                  "$type": "ApplyModifier",
                  "target": "Other",
                  "modifierName": "Fungus_ElementFireDefDown"
                }
              ]
            },
            {
              "$type": "DoActionByElementReactionMixin",
              "entityTypes": ["Monster", "Avatar", "Partner"],
              "reactionTypes": ["SwirlWater"],
              "actions": [
                {
                  "$type": "ApplyModifier",
                  "target": "Other",
                  "modifierName": "Fungus_ElementWaterDefDown"
                }
              ]
            },
            {
              "$type": "DoActionByElementReactionMixin",
              "entityTypes": ["Monster", "Avatar", "Partner"],
              "reactionTypes": ["SwirlElectric"],
              "actions": [
                {
                  "$type": "ApplyModifier",
                  "target": "Other",
                  "modifierName": "Fungus_ElementElecDefDown"
                }
              ]
            },
            {
              "$type": "DoActionByElementReactionMixin",
              "entityTypes": ["Monster", "Avatar", "Partner"],
              "reactionTypes": ["SwirlIce"],
              "actions": [
                {
                  "$type": "ApplyModifier",
                  "target": "Other",
                  "modifierName": "Fungus_ElementIceDefDown"
                }
              ]
            }
          ],
          "onAttackLanded": [
            {
              "$type": "Predicated",
              "target": "Target",
              "targetPredicates": [
                {
                  "$type": "ByAttackTags",
                  "attackTags": [
                    "Swirl_FireDamage",
                    "Swirl_WaterDamage",
                    "Swirl_ElectricDamage",
                    "Swirl_IceDamage"
                  ]
                }
              ],
              "successActions": [
                {
                  "$type": "ApplyModifier",
                  "target": "Target",
                  "predicates": [
                    {
                      "$type": "ByHitElement",
                      "element": "Fire"
                    },
                    {
                      "$type": "ByEntityTypes",
                      "entityTypes": ["Monster", "Avatar", "Partner"]
                    }
                  ],
                  "modifierName": "Fungus_ElementFireDefDown"
                },
                {
                  "$type": "ApplyModifier",
                  "target": "Target",
                  "predicates": [
                    {
                      "$type": "ByHitElement",
                      "element": "Water"
                    },
                    {
                      "$type": "ByEntityTypes",
                      "entityTypes": ["Monster", "Avatar", "Partner"]
                    }
                  ],
                  "modifierName": "Fungus_ElementWaterDefDown"
                },
                {
                  "$type": "ApplyModifier",
                  "target": "Target",
                  "predicates": [
                    {
                      "$type": "ByHitElement",
                      "element": "Electric"
                    },
                    {
                      "$type": "ByEntityTypes",
                      "entityTypes": ["Monster", "Avatar", "Partner"]
                    }
                  ],
                  "modifierName": "Fungus_ElementElecDefDown"
                },
                {
                  "$type": "ApplyModifier",
                  "target": "Target",
                  "predicates": [
                    {
                      "$type": "ByHitElement",
                      "element": "Ice"
                    },
                    {
                      "$type": "ByEntityTypes",
                      "entityTypes": ["Monster", "Avatar", "Partner"]
                    }
                  ],
                  "modifierName": "Fungus_ElementIceDefDown"
                }
              ]
            }
          ]
        },
        "Fungus_ElementFireDefDown": {
          "modifierName": "",
          "duration": "debuff_duration",
          "elementDurability": 100.0,
          "properties": {
            "Actor_FireSubHurtDelta": "resist_down"
          },
          "state": "DefenseDown",
          "isLimitedProperties": true
        },
        "Fungus_ElementWaterDefDown": {
          "modifierName": "",
          "duration": "debuff_duration",
          "elementDurability": 100.0,
          "properties": {
            "Actor_WaterSubHurtDelta": "resist_down"
          },
          "state": "DefenseDown",
          "isLimitedProperties": true
        },
        "Fungus_ElementIceDefDown": {
          "modifierName": "",
          "duration": "debuff_duration",
          "elementDurability": 100.0,
          "properties": {
            "Actor_IceSubHurtDelta": "resist_down"
          },
          "state": "DefenseDown",
          "isLimitedProperties": true
        },
        "Fungus_ElementElecDefDown": {
          "modifierName": "",
          "duration": "debuff_duration",
          "elementDurability": 100.0,
          "properties": {
            "Actor_ElecSubHurtDelta": "resist_down"
          },
          "state": "DefenseDown",
          "isLimitedProperties": true
        }
      },
      "onAdded": [
        {
          "$type": "AttachModifier",
          "modifierName": "Fungus_Un_BVB_Wind_Passive_Handler"
        }
      ]
    }
  }
]
