[
  {
    "Default": {
      "$type": "ConfigAbility",
      "abilityName": "Monster_Fungus_Deux_Beta_Rock_Steer",
      "abilityMixins": [
        {
          "$type": "IILHMBGONGM",
          "steerStateIDs": ["FlyingBashNormal_BS"],
          "endNormalizedTime": 3.0,
          "angularSpeed": 540.0,
          "attackTrigger": "",
          "DGFCLAIDIFI": ""
        },
        {
          "$type": "IILHMBGONGM",
          "steerStateIDs": ["FlyingBashOverdose_BS"],
          "endNormalizedTime": 3.0,
          "angularSpeed": 540.0,
          "attackTrigger": "",
          "DGFCLAIDIFI": ""
        },
        {
          "$type": "IILHMBGONGM",
          "steerStateIDs": ["FlyingBashDecay_BS"],
          "endNormalizedTime": 3.0,
          "angularSpeed": 540.0,
          "attackTrigger": "",
          "DGFCLAIDIFI": ""
        },
        {
          "$type": "IILHMBGONGM",
          "steerStateIDs": ["FlyingBash"],
          "endNormalizedTime": 99.0,
          "angularSpeed": 30.0,
          "attackTrigger": "",
          "DGFCLAIDIFI": ""
        }
      ]
    }
  },
  {
    "Default": {
      "$type": "ConfigAbility",
      "abilityName": "Monster_Fungus_Deux_Beta_Rock_MeleeAttackNormal",
      "abilityMixins": [
        {
          "$type": "AttachToAnimatorStateIDMixin",
          "stateIDs": ["MeleeAttackDecay_BS", "MeleeAttackDecay_Loop"],
          "modifierName": "MeleeAttackBSEffect_Decayed",
          "DGFCLAIDIFI": ""
        }
      ],
      "modifiers": {
        "MeleeAttackBSEffect_Decayed": {
          "modifierName": "",
          "elementDurability": 100.0,
          "onAdded": [
            {
              "$type": "AttachEffect",
              "rotationDampTime": "Eff_Monster_Fungus_Deux_Beta_Rock_MeleeAttackDecayed_Loop",
              "PPPDJGDDOGD": 1.0,
              "AJDILHJFNKE": -1.0
            }
          ]
        }
      }
    }
  },
  {
    "Default": {
      "$type": "ConfigAbility",
      "abilityName": "Monster_Fungus_Deux_Beta_Rock_FlyingBashNormal",
      "abilityMixins": [
        {
          "$type": "AttachToAnimatorStateIDMixin",
          "stateIDs": ["FlyingBashDecay_BS", "FlyingBashDecay_Loop"],
          "modifierName": "FlyingBashBSEffect_Decayed",
          "DGFCLAIDIFI": ""
        },
        {
          "$type": "AttachToAnimatorStateIDMixin",
          "stateIDs": ["Standby", "StandbyFree"],
          "modifierName": "FlyingBashOverdoseStartHandler",
          "DGFCLAIDIFI": ""
        },
        {
          "$type": "AttachToAnimatorStateIDMixin",
          "stateIDs": ["FlyingBashOverdose_Attack"],
          "modifierName": "FlyingBashOverdoseHandler",
          "DGFCLAIDIFI": ""
        },
        {
          "$type": "AttachToAnimatorStateIDMixin",
          "stateIDs": [
            "FlyingBashNormal_Attack",
            "FlyingBashNormal_AS",
            "FlyingBashOverdose_Attack",
            "FlyingBashOverdose_AS"
          ],
          "modifierName": "FlyingBashAttackEffect_Normal",
          "DGFCLAIDIFI": ""
        },
        {
          "$type": "AttachToAnimatorStateIDMixin",
          "stateIDs": ["FlyingBashDecay_Attack", "FlyingBashDecay_AS"],
          "modifierName": "FlyingBashAttackEffect_Decayed",
          "DGFCLAIDIFI": ""
        }
      ],
      "abilitySpecials": {
        "FlyingBashOverdoseCount": 0.0
      },
      "modifiers": {
        "FlyingBashBSEffect_Decayed": {
          "modifierName": "",
          "elementDurability": 100.0,
          "onAdded": [
            {
              "$type": "AttachEffect",
              "rotationDampTime": "Eff_Monster_Fungus_Deux_Beta_Rock_FlyingBashDecayed_Loop",
              "PPPDJGDDOGD": 1.0,
              "AJDILHJFNKE": -1.0
            }
          ]
        },
        "FlyingBashOverdoseStartHandler": {
          "modifierName": "",
          "elementDurability": 100.0,
          "onAdded": [
            {
              "$type": "SetGlobalValue",
              "value": 0.0,
              "key": "_MONSTER_FUNGUS_DEUX_BETA_ROCK_FLYINGBASHOVERDOSECOUNT_",
              "maxValue": 0.0,
              "minValue": 0.0
            },
            {
              "$type": "SetGlobalValueToOverrideMap",
              "globalValueKey": "_MONSTER_FUNGUS_DEUX_BETA_ROCK_FLYINGBASHOVERDOSECOUNT_",
              "overrideMapKey": "FlyingBashOverdoseCount"
            },
            {
              "$type": "SetAnimatorInt",
              "intID": "FlyingBashOverdoseCount",
              "value": "FlyingBashOverdoseCount"
            }
          ]
        },
        "FlyingBashOverdoseHandler": {
          "modifierName": "",
          "elementDurability": 100.0,
          "onAdded": [
            {
              "$type": "AddGlobalValue",
              "value": 1.0,
              "key": "_MONSTER_FUNGUS_DEUX_BETA_ROCK_FLYINGBASHOVERDOSECOUNT_",
              "maxValue": 3.0,
              "minValue": 0.0
            },
            {
              "$type": "SetGlobalValueToOverrideMap",
              "globalValueKey": "_MONSTER_FUNGUS_DEUX_BETA_ROCK_FLYINGBASHOVERDOSECOUNT_",
              "overrideMapKey": "FlyingBashOverdoseCount"
            },
            {
              "$type": "SetAnimatorInt",
              "intID": "FlyingBashOverdoseCount",
              "value": "FlyingBashOverdoseCount"
            }
          ]
        },
        "FlyingBashAttackEffect_Normal": {
          "modifierName": "",
          "elementDurability": 100.0,
          "onAdded": [
            {
              "$type": "AttachEffect",
              "rotationDampTime": "Eff_Monster_Fungus_Deux_Beta_Rock_FlyingBashNormal_Attack",
              "PPPDJGDDOGD": 1.0,
              "AJDILHJFNKE": -1.0
            }
          ]
        },
        "FlyingBashAttackEffect_Decayed": {
          "modifierName": "",
          "elementDurability": 100.0,
          "onAdded": [
            {
              "$type": "AttachEffect",
              "rotationDampTime": "Eff_Monster_Fungus_Deux_Beta_Rock_FlyingBashDecayed_Attack",
              "PPPDJGDDOGD": 1.0,
              "AJDILHJFNKE": -1.0
            }
          ]
        }
      }
    }
  },
  {
    "Default": {
      "$type": "ConfigAbility",
      "abilityName": "Monster_Fungus_Deux_Beta_Rock_HitThrowDropToGround",
      "onAbilityStart": [
        {
          "$type": "Predicated",
          "targetPredicates": [
            {
              "$type": "BySceneSurfaceType",
              "filters": ["Water"]
            }
          ],
          "successActions": [
            {
              "$type": "FireEffect",
              "rotationDampTime": "Eff_Monster_Fungus_HitThrowToGround_Water",
              "PPPDJGDDOGD": 1.0,
              "AJDILHJFNKE": -1.0,
              "useRemoteSelfPos": true
            }
          ],
          "failActions": [
            {
              "$type": "FireEffect",
              "rotationDampTime": "Eff_Monster_Fungus_Deux_Beta_Rock_HitThrowToGround",
              "PPPDJGDDOGD": 1.0,
              "AJDILHJFNKE": -1.0,
              "useRemoteSelfPos": true
            }
          ]
        }
      ]
    }
  }
]
