[
  {
    "Default": {
      "$type": "ConfigAbility",
      "abilityName": "Human_Male_Pole_SteerAttack",
      "abilityMixins": [
        {
          "$type": "IILHMBGONGM",
          "steerStateIDs": ["Attack01"],
          "startNormalizedTime": 0.05000000074505806,
          "endNormalizedTime": 0.18000000715255737,
          "angularSpeed": 360.0,
          "attackTrigger": "",
          "attackDistance": 3.75,
          "DGFCLAIDIFI": ""
        },
        {
          "$type": "IILHMBGONGM",
          "steerStateIDs": ["Attack01"],
          "startNormalizedTime": 0.28999999165534973,
          "endNormalizedTime": 0.33000001311302185,
          "angularSpeed": 180.0,
          "attackTrigger": "",
          "attackDistance": 3.75,
          "DGFCLAIDIFI": ""
        },
        {
          "$type": "IILHMBGONGM",
          "steerStateIDs": ["GroupAttack01"],
          "startNormalizedTime": 0.05000000074505806,
          "endNormalizedTime": 0.18000000715255737,
          "angularSpeed": 360.0,
          "attackTrigger": "",
          "attackDistance": 3.75,
          "DGFCLAIDIFI": ""
        },
        {
          "$type": "IILHMBGONGM",
          "steerStateIDs": ["GroupAttack01"],
          "startNormalizedTime": 0.28999999165534973,
          "endNormalizedTime": 0.33000001311302185,
          "angularSpeed": 180.0,
          "attackTrigger": "",
          "attackDistance": 3.75,
          "DGFCLAIDIFI": ""
        },
        {
          "$type": "IILHMBGONGM",
          "steerStateIDs": ["BackSprintAttack"],
          "startNormalizedTime": 0.05000000074505806,
          "endNormalizedTime": 0.18000000715255737,
          "angularSpeed": 360.0,
          "attackTrigger": "",
          "attackDistance": 3.75,
          "DGFCLAIDIFI": ""
        },
        {
          "$type": "IILHMBGONGM",
          "steerStateIDs": ["BackSprintAttack"],
          "startNormalizedTime": 0.28999999165534973,
          "endNormalizedTime": 0.33000001311302185,
          "angularSpeed": 180.0,
          "attackTrigger": "",
          "attackDistance": 3.75,
          "DGFCLAIDIFI": ""
        },
        {
          "$type": "IILHMBGONGM",
          "steerStateIDs": ["Attack02"],
          "endNormalizedTime": 0.15000000596046448,
          "angularSpeed": 480.0,
          "attackTrigger": "",
          "attackDistance": 3.75,
          "DGFCLAIDIFI": ""
        },
        {
          "$type": "IILHMBGONGM",
          "steerStateIDs": ["GroupAttack02"],
          "endNormalizedTime": 0.15000000596046448,
          "angularSpeed": 480.0,
          "attackTrigger": "",
          "attackDistance": 3.75,
          "DGFCLAIDIFI": ""
        },
        {
          "$type": "IILHMBGONGM",
          "steerStateIDs": ["WildSlam"],
          "endNormalizedTime": 0.019999999552965164,
          "angularSpeed": 480.0,
          "attackTrigger": "",
          "attackDistance": 3.75,
          "DGFCLAIDIFI": ""
        },
        {
          "$type": "IILHMBGONGM",
          "steerStateIDs": ["WildSlam"],
          "startNormalizedTime": 0.20000000298023224,
          "endNormalizedTime": 0.2199999988079071,
          "angularSpeed": 640.0,
          "attackTrigger": "",
          "attackDistance": 3.75,
          "DGFCLAIDIFI": ""
        },
        {
          "$type": "IILHMBGONGM",
          "steerStateIDs": ["WildSlam"],
          "startNormalizedTime": 0.3199999928474426,
          "endNormalizedTime": 0.3400000035762787,
          "angularSpeed": 640.0,
          "attackTrigger": "",
          "attackDistance": 3.75,
          "DGFCLAIDIFI": ""
        },
        {
          "$type": "IILHMBGONGM",
          "steerStateIDs": ["WildSlam"],
          "startNormalizedTime": 0.46000000834465027,
          "endNormalizedTime": 0.47999998927116394,
          "angularSpeed": 640.0,
          "attackTrigger": "",
          "attackDistance": 3.75,
          "DGFCLAIDIFI": ""
        }
      ]
    }
  },
  {
    "Default": {
      "$type": "ConfigAbility",
      "abilityName": "Millelith_SteerMove",
      "abilityMixins": [
        {
          "$type": "IILHMBGONGM",
          "steerStateIDs": ["Turn"],
          "endNormalizedTime": 100.0,
          "angularSpeed": 150.0,
          "attackTrigger": "",
          "attackDistance": 3.75,
          "DGFCLAIDIFI": ""
        }
      ]
    }
  },
  {
    "Default": {
      "$type": "ConfigAbility",
      "abilityName": "Human_Male_Pole_Attack01_RushMove01",
      "onAbilityStart": [
        {
          "$type": "POLLHJCDPMK",
          "toPos": {
            "$type": "ConfigBornBySelf",
            "offset": {
              "x": 0.0,
              "y": 0.0,
              "z": 2.0
            }
          },
          "minRange": 0.75,
          "maxRange": 0.75,
          "timeRange": 0.05000000074505806
        }
      ]
    }
  },
  {
    "Default": {
      "$type": "ConfigAbility",
      "abilityName": "Human_Male_Pole_Attack02_RushMove01",
      "onAbilityStart": [
        {
          "$type": "POLLHJCDPMK",
          "toPos": {
            "$type": "ConfigBornBySelf",
            "offset": {
              "x": 0.0,
              "y": 0.0,
              "z": 2.0
            }
          },
          "minRange": 0.75,
          "maxRange": 0.75,
          "timeRange": 0.20000000298023224
        }
      ]
    }
  },
  {
    "Default": {
      "$type": "ConfigAbility",
      "abilityName": "Human_Male_Pole_WildSlam_RushMove01",
      "onAbilityStart": [
        {
          "$type": "POLLHJCDPMK",
          "toPos": {
            "$type": "ConfigBornBySelf",
            "offset": {
              "x": 0.0,
              "y": 0.0,
              "z": 2.0
            }
          },
          "minRange": 0.75,
          "maxRange": 0.75,
          "timeRange": 0.10000000149011612
        }
      ]
    }
  },
  {
    "Default": {
      "$type": "ConfigAbility",
      "abilityName": "Human_Male_Pole_WildSlam_RushMove02",
      "onAbilityStart": [
        {
          "$type": "POLLHJCDPMK",
          "toPos": {
            "$type": "ConfigBornBySelf",
            "offset": {
              "x": 0.0,
              "y": 0.0,
              "z": 2.0
            }
          },
          "minRange": 0.75,
          "maxRange": 0.75,
          "timeRange": 0.10000000149011612
        }
      ]
    }
  },
  {
    "Default": {
      "$type": "ConfigAbility",
      "abilityName": "Human_Male_Pole_WildSlam_RushMove03",
      "onAbilityStart": [
        {
          "$type": "POLLHJCDPMK",
          "toPos": {
            "$type": "ConfigBornBySelf",
            "offset": {
              "x": 0.0,
              "y": 0.0,
              "z": 2.0
            }
          },
          "minRange": 1.0,
          "maxRange": 1.0,
          "timeRange": 0.10000000149011612
        }
      ]
    }
  },
  {
    "Default": {
      "$type": "ConfigAbility",
      "abilityName": "Monster_Millelith_Pole_Male_AuxWeaponTrans",
      "abilityMixins": [
        {
          "$type": "LEOGLBFIELL",
          "poseIDs": [1001, 1002, 1003],
          "modifierName": "AuxWeaponTransManager"
        }
      ],
      "modifiers": {
        "AuxWeaponTransManager": {
          "modifierName": "",
          "elementDurability": 100.0,
          "modifierMixins": [
            {
              "$type": "AttachToStateIDMixin",
              "stateIDs": [
                "NormalIdle",
                "NormalMove",
                "Turn",
                "BeHit",
                "Attack01",
                "GroupAttack01",
                "BackSprint",
                "BackSprintAttack_BS",
                "BackSprintOrder_BS"
              ],
              "modifierName": "Pole_AuxWeaponTrans",
              "DGFCLAIDIFI": ""
            }
          ],
          "onRemoved": [
            {
              "$type": "RemoveModifier",
              "modifierName": "Pole_AuxWeaponTrans"
            }
          ]
        },
        "Pole_AuxWeaponTrans": {
          "modifierName": "",
          "elementDurability": 100.0,
          "onAdded": [
            {
              "$type": "JOELMCGODNA",
              "setEnable": true,
              "equipPart": "equip01"
            }
          ],
          "onRemoved": [
            {
              "$type": "JOELMCGODNA",
              "equipPart": "equip01"
            }
          ]
        }
      }
    }
  },
  {
    "Default": {
      "$type": "ConfigAbility",
      "abilityName": "Monster_Millelith_EndureModifier",
      "modifiers": {
        "EndureModifier": {
          "modifierName": "",
          "elementDurability": 100.0,
          "properties": {
            "Actor_EndureDelta": 0.5
          }
        }
      },
      "onAdded": [
        {
          "$type": "ApplyModifier",
          "modifierName": "EndureModifier"
        }
      ]
    }
  },
  {
    "Default": {
      "$type": "ConfigAbility",
      "abilityName": "Monster_Millelith_Pole_Male_BladeMaster2",
      "modifiers": {
        "Monster_Millelith_Pole_Male_Initial": {
          "modifierName": "",
          "elementDurability": 100.0,
          "properties": {
            "Actor_EndureDelta": 9.999999747378752e-5
          },
          "onAdded": [
            {
              "$type": "Predicated",
              "canBeHandledOnRecover": true,
              "targetPredicates": [
                {
                  "$type": "ByTargetGlobalValue",
                  "key": "_BLADEMASTER_LEVEL",
                  "value": 3.0
                }
              ],
              "successActions": [
                {
                  "$type": "OHPMBBJIJFG",
                  "canBeHandledOnRecover": true,
                  "value": 0.5
                }
              ]
            }
          ],
          "onBeingHit": [
            {
              "$type": "Predicated",
              "targetPredicates": [
                {
                  "$type": "ByAttackTags",
                  "attackTags": ["Avatar_Blocking"]
                }
              ],
              "successActions": [
                {
                  "$type": "SetAnimatorTrigger",
                  "triggerID": "AttackBreak"
                },
                {
                  "$type": "FireEffect",
                  "rotationDampTime": "Eff_Mosnter_GeneralSkill_BreakeDefendShield",
                  "PPPDJGDDOGD": 1.0,
                  "AJDILHJFNKE": -1.0
                }
              ]
            }
          ]
        }
      },
      "onAdded": [
        {
          "$type": "ApplyModifier",
          "modifierName": "Monster_Millelith_Pole_Male_Initial"
        }
      ]
    }
  }
]
