[
  {
    "Default": {
      "$type": "ConfigAbility",
      "abilityName": "Monster_MachinaIustitia_Sentry_Pose",
      "abilityMixins": [
        {
          "$type": "AttachModifierToSelfGlobalValueMixin",
          "globalValueKey": "_MACHINAIUSTITIA_STATIC_STATE_",
          "gvInTalk": 0.0,
          "valueSteps": [-1.5, -0.5, 0.5, 1.5],
          "modifierNameSteps": [
            "Pose_Init_Pneuma",
            "Pose_Init_Normal",
            "Pose_Init_Ousia"
          ]
        },
        {
          "$type": "AttachModifierToSelfGlobalValueMixin",
          "globalValueKey": "arkheGradeKey",
          "gvInTalk": 0.0,
          "valueSteps": [-1.5, -0.5, 0.5, 1.5],
          "modifierNameSteps": ["Pose_Pneuma_1", "Pose_Normal", "Pose_Ousia_1"]
        },
        {
          "$type": "CADNOOEAFHD",
          "actionQueue": [
            {
              "$type": "SetAnimatorTrigger",
              "predicates": [
                {
                  "$type": "ByEntityIsAlive",
                  "target": "Self"
                },
                {
                  "$type": "ByTargetGlobalValue",
                  "key": "arkheGradeKey",
                  "value": 0.0
                }
              ],
              "triggerID": "HitSpecialTrigger"
            },
            {
              "$type": "IDNGFEEBPAM",
              "boolID": "Sit"
            },
            {
              "$type": "IDNGFEEBPAM",
              "boolID": "NoSensing"
            }
          ]
        }
      ],
      "modifiers": {
        "Pose_Init_Pneuma": {
          "modifierName": "",
          "elementDurability": 100.0,
          "onAdded": [
            {
              "$type": "PILJLANJHMK",
              "value": -1.0,
              "key": "arkheGradeKey",
              "maxValue": 0.0,
              "minValue": 0.0
            }
          ]
        },
        "Pose_Init_Normal": {
          "modifierName": "",
          "elementDurability": 100.0,
          "onAdded": [
            {
              "$type": "PILJLANJHMK",
              "value": 0.0,
              "key": "arkheGradeKey",
              "maxValue": 0.0,
              "minValue": 0.0
            }
          ]
        },
        "Pose_Init_Ousia": {
          "modifierName": "",
          "elementDurability": 100.0,
          "onAdded": [
            {
              "$type": "PILJLANJHMK",
              "value": 1.0,
              "key": "arkheGradeKey",
              "maxValue": 0.0,
              "minValue": 0.0
            },
            {
              "$type": "AttachModifier",
              "modifierName": "Sentry_Ousia_EventPatternHandler"
            }
          ]
        },
        "Pose_Pneuma_1": {
          "modifierName": "",
          "elementDurability": 100.0,
          "onAdded": [
            {
              "$type": "GFFKENEJFFB",
              "intID": "StateTag",
              "value": -1
            },
            {
              "$type": "SetAnimatorInt",
              "intID": "StateTag",
              "value": -1.0
            },
            {
              "$type": "SetAnimatorInt",
              "intID": "EnergyTag",
              "value": -1.0
            },
            {
              "$type": "ResetAnimatorTrigger",
              "triggerID": "HitSpecialTrigger"
            },
            {
              "$type": "SetGlobalValue",
              "value": 0.0,
              "key": "_MACHINAIUSTITIA_NEEDREPAIR_",
              "maxValue": 0.0,
              "minValue": 0.0
            },
            {
              "$type": "RemoveModifier",
              "modifierName": "Sentry_SelfRepair_Delay"
            }
          ]
        },
        "Pose_Normal": {
          "modifierName": "",
          "elementDurability": 100.0,
          "onAdded": [
            {
              "$type": "GFFKENEJFFB",
              "intID": "StateTag"
            },
            {
              "$type": "SetAnimatorInt",
              "intID": "StateTag",
              "value": 0.0
            },
            {
              "$type": "SetAnimatorInt",
              "intID": "EnergyTag",
              "value": 0.0
            },
            {
              "$type": "AttachModifier",
              "modifierName": "Sentry_NeedRepair_Delay"
            },
            {
              "$type": "AttachModifier",
              "modifierName": "Sentry_SelfRepair_Delay"
            }
          ]
        },
        "Pose_Ousia_1": {
          "modifierName": "",
          "elementDurability": 100.0,
          "onAdded": [
            {
              "$type": "GFFKENEJFFB",
              "intID": "StateTag",
              "value": 1
            },
            {
              "$type": "SetAnimatorInt",
              "intID": "StateTag",
              "value": 1.0
            },
            {
              "$type": "SetAnimatorInt",
              "intID": "EnergyTag",
              "value": 1.0
            },
            {
              "$type": "ResetAnimatorTrigger",
              "triggerID": "HitSpecialTrigger"
            },
            {
              "$type": "SetGlobalValue",
              "value": 0.0,
              "key": "_MACHINAIUSTITIA_NEEDREPAIR_",
              "maxValue": 0.0,
              "minValue": 0.0
            },
            {
              "$type": "RemoveModifier",
              "modifierName": "Sentry_SelfRepair_Delay"
            }
          ]
        },
        "Sentry_Ousia_EventPatternHandler": {
          "modifierName": "",
          "elementDurability": 100.0,
          "modifierMixins": [
            {
              "$type": "ReplaceEventPatternMixin",
              "oldPatterns": [
                "Monster_MachinaIustitia_Sentry_EMP_Pneuma",
                "Monster_MachinaIustitia_Sentry_Recover_Pneuma"
              ],
              "newPatterns": [
                "Monster_MachinaIustitia_Sentry_EMP_Ousia",
                "Monster_MachinaIustitia_Sentry_Recover_Ousia"
              ]
            }
          ]
        },
        "Sentry_NeedRepair_Delay": {
          "modifierName": "",
          "duration": 4.0,
          "elementDurability": 100.0,
          "onRemoved": [
            {
              "$type": "SetGlobalValue",
              "value": 1.0,
              "key": "_MACHINAIUSTITIA_NEEDREPAIR_",
              "maxValue": 0.0,
              "minValue": 0.0
            }
          ]
        },
        "Sentry_SelfRepair_Delay": {
          "modifierName": "",
          "duration": 25.0,
          "elementDurability": 100.0,
          "onRemoved": [
            {
              "$type": "SetGlobalValue",
              "predicates": [
                {
                  "$type": "ByNot",
                  "predicates": [
                    {
                      "$type": "ByAnimatorFloat",
                      "logic": "Equal",
                      "value": 901.0,
                      "parameter": "PoseID"
                    },
                    {
                      "$type": "ByAnimatorFloat",
                      "logic": "Equal",
                      "value": 1.0,
                      "parameter": "PoseID"
                    },
                    {
                      "$type": "ByAnimatorFloat",
                      "logic": "Equal",
                      "value": 11.0,
                      "parameter": "PoseID"
                    },
                    {
                      "$type": "ByAnimatorFloat",
                      "logic": "Equal",
                      "value": 21.0,
                      "parameter": "PoseID"
                    },
                    {
                      "$type": "ByAnimatorFloat",
                      "logic": "Equal",
                      "value": 9001.0,
                      "parameter": "PoseID"
                    }
                  ]
                }
              ],
              "value": 1.0,
              "key": "_MACHINAIUSTITIA_SELFRECOVER_",
              "maxValue": 0.0,
              "minValue": 0.0
            }
          ]
        }
      }
    }
  },
  {
    "Default": {
      "$type": "ConfigAbility",
      "abilityName": "Monster_MachinaIustitia_Sentry_RepairPose",
      "abilityMixins": [
        {
          "$type": "AttachModifierToSelfGlobalValueMixin",
          "globalValueKey": "_MACHINAIUSTITIA_CHARGED_",
          "gvInTalk": 0.0,
          "valueSteps": [-0.5, 0.5, 1.5],
          "modifierNameSteps": ["Pose_NoRepair", "Pose_ReadyRepair"]
        }
      ],
      "modifiers": {
        "Pose_NoRepair": {
          "modifierName": "",
          "elementDurability": 100.0,
          "onAdded": [
            {
              "$type": "IDNGFEEBPAM",
              "boolID": "RepairTag"
            }
          ]
        },
        "Pose_ReadyRepair": {
          "modifierName": "",
          "elementDurability": 100.0,
          "onAdded": [
            {
              "$type": "IDNGFEEBPAM",
              "boolID": "RepairTag",
              "value": true
            },
            {
              "$type": "SetGlobalValue",
              "value": 0.0,
              "key": "_MACHINAIUSTITIA_NEEDREPAIR_",
              "maxValue": 0.0,
              "minValue": 0.0
            }
          ]
        }
      },
      "onAdded": [
        {
          "$type": "SetGlobalValue",
          "value": 0.0,
          "key": "_MACHINAIUSTITIA_NEEDREPAIR_",
          "maxValue": 0.0,
          "minValue": 0.0
        },
        {
          "$type": "SetGlobalValue",
          "value": 0.0,
          "key": "_MACHINAIUSTITIA_CHARGED_",
          "maxValue": 0.0,
          "minValue": 0.0
        },
        {
          "$type": "SetGlobalValue",
          "value": 0.0,
          "key": "_MACHINAIUSTITIA_SELFRECOVER_",
          "maxValue": 0.0,
          "minValue": 0.0
        }
      ]
    }
  },
  {
    "Default": {
      "$type": "ConfigAbility",
      "abilityName": "Monster_MachinaIustitia_Sentry_Recover_Pneuma",
      "onAbilityStart": [
        {
          "$type": "PILJLANJHMK",
          "value": -1.0,
          "key": "arkheGradeKey",
          "maxValue": 0.0,
          "minValue": 0.0
        },
        {
          "$type": "SetGlobalValue",
          "value": 0.0,
          "key": "_MACHINAIUSTITIA_CHARGED_",
          "maxValue": 0.0,
          "minValue": 0.0
        },
        {
          "$type": "SetGlobalValue",
          "value": 0.0,
          "key": "_MACHINAIUSTITIA_SELFRECOVER_",
          "maxValue": 0.0,
          "minValue": 0.0
        }
      ]
    }
  },
  {
    "Default": {
      "$type": "ConfigAbility",
      "abilityName": "Monster_MachinaIustitia_Sentry_RecoverEffect_Pneuma",
      "onAbilityStart": [
        {
          "$type": "RemoveUniqueModifier",
          "modifierName": "UNIQUE_MachinaIustitia_Charge_Effect_Pneuma"
        }
      ]
    }
  },
  {
    "Default": {
      "$type": "ConfigAbility",
      "abilityName": "Monster_MachinaIustitia_Sentry_Recover_Ousia",
      "onAbilityStart": [
        {
          "$type": "PILJLANJHMK",
          "value": 1.0,
          "key": "arkheGradeKey",
          "maxValue": 0.0,
          "minValue": 0.0
        },
        {
          "$type": "SetGlobalValue",
          "value": 0.0,
          "key": "_MACHINAIUSTITIA_CHARGED_",
          "maxValue": 0.0,
          "minValue": 0.0
        },
        {
          "$type": "SetGlobalValue",
          "value": 0.0,
          "key": "_MACHINAIUSTITIA_SELFRECOVER_",
          "maxValue": 0.0,
          "minValue": 0.0
        }
      ]
    }
  },
  {
    "Default": {
      "$type": "ConfigAbility",
      "abilityName": "Monster_MachinaIustitia_Sentry_RecoverEffect_Ousia",
      "onAbilityStart": [
        {
          "$type": "RemoveUniqueModifier",
          "modifierName": "UNIQUE_MachinaIustitia_Charge_Effect_Ousia"
        }
      ]
    }
  },
  {
    "Default": {
      "$type": "ConfigAbility",
      "abilityName": "Monster_MachinaIustitia_Sentry_CoilEffect",
      "abilityMixins": [
        {
          "$type": "AttachModifierToSelfGlobalValueMixin",
          "globalValueKey": "_MACHINAIUSTITIA_COIL_STATE_",
          "gvInTalk": -1.0,
          "valueSteps": [-1.5, -0.5, 0.5, 1.5],
          "modifierNameSteps": [
            "MachinaIustitia_Sentry_NoCoil",
            "MachinaIustitia_Sentry_CoilEffect01_Handler",
            "MachinaIustitia_Sentry_CoilEffect02_Handler"
          ]
        }
      ],
      "modifiers": {
        "MachinaIustitia_Sentry_NoCoil": {
          "modifierName": "",
          "elementDurability": 100.0
        },
        "MachinaIustitia_Sentry_CoilEffect01_Handler": {
          "modifierName": "",
          "elementDurability": 100.0,
          "modifierMixins": [
            {
              "$type": "AttachModifierToSelfGlobalValueMixin",
              "globalValueKey": "arkheGradeKey",
              "gvInTalk": 0.0,
              "valueSteps": [-1.5, -0.5, 0.5, 1.5],
              "modifierNameSteps": [
                "MachinaIustitia_Sentry_CoilEffect01_Pneuma",
                "Blank",
                "MachinaIustitia_Sentry_CoilEffect01_Ousia"
              ]
            }
          ]
        },
        "MachinaIustitia_Sentry_CoilEffect02_Handler": {
          "modifierName": "",
          "elementDurability": 100.0,
          "modifierMixins": [
            {
              "$type": "AttachModifierToSelfGlobalValueMixin",
              "globalValueKey": "arkheGradeKey",
              "gvInTalk": 0.0,
              "valueSteps": [-1.5, -0.5, 0.5, 1.5],
              "modifierNameSteps": [
                "MachinaIustitia_Sentry_CoilEffect02_Pneuma",
                "Blank",
                "MachinaIustitia_Sentry_CoilEffect02_Ousia"
              ]
            }
          ]
        },
        "MachinaIustitia_Sentry_CoilEffect01_Pneuma": {
          "modifierName": "",
          "elementDurability": 100.0,
          "onAdded": [
            {
              "$type": "AttachEffect",
              "rotationDampTime": "Eff_Monster_MachinaIustitia_Coil01_Pneuma",
              "born": {
                "$type": "ConfigBornByAttachPoint",
                "offset": {
                  "x": 0.0,
                  "y": 0.0,
                  "z": 0.0
                },
                "useRotation": true,
                "attachPointName": "CoilAttachPoint01"
              },
              "PPPDJGDDOGD": 1.5,
              "AJDILHJFNKE": -1.0
            }
          ]
        },
        "MachinaIustitia_Sentry_CoilEffect01_Ousia": {
          "modifierName": "",
          "elementDurability": 100.0,
          "onAdded": [
            {
              "$type": "AttachEffect",
              "rotationDampTime": "Eff_Monster_MachinaIustitia_Coil01_Ousia",
              "born": {
                "$type": "ConfigBornByAttachPoint",
                "offset": {
                  "x": 0.0,
                  "y": 0.0,
                  "z": 0.0
                },
                "useRotation": true,
                "attachPointName": "CoilAttachPoint01"
              },
              "PPPDJGDDOGD": 1.5,
              "AJDILHJFNKE": -1.0
            }
          ]
        },
        "MachinaIustitia_Sentry_CoilEffect02_Pneuma": {
          "modifierName": "",
          "elementDurability": 100.0,
          "onAdded": [
            {
              "$type": "AttachEffect",
              "rotationDampTime": "Eff_Monster_MachinaIustitia_Coil02_Pneuma",
              "born": {
                "$type": "ConfigBornByAttachPoint",
                "offset": {
                  "x": 0.0,
                  "y": 0.0,
                  "z": 0.0
                },
                "useRotation": true,
                "attachPointName": "CoilAttachPoint02"
              },
              "PPPDJGDDOGD": 1.5,
              "AJDILHJFNKE": -1.0
            }
          ]
        },
        "MachinaIustitia_Sentry_CoilEffect02_Ousia": {
          "modifierName": "",
          "elementDurability": 100.0,
          "onAdded": [
            {
              "$type": "AttachEffect",
              "rotationDampTime": "Eff_Monster_MachinaIustitia_Coil02_Ousia",
              "born": {
                "$type": "ConfigBornByAttachPoint",
                "offset": {
                  "x": 0.0,
                  "y": 0.0,
                  "z": 0.0
                },
                "useRotation": true,
                "attachPointName": "CoilAttachPoint02"
              },
              "PPPDJGDDOGD": 1.5,
              "AJDILHJFNKE": -1.0
            }
          ]
        },
        "Blank": {
          "modifierName": "",
          "elementDurability": 100.0
        }
      },
      "onKill": [
        {
          "$type": "RemoveModifier",
          "modifierName": "MachinaIustitia_Sentry_CoilEffect01_Pneuma"
        },
        {
          "$type": "RemoveModifier",
          "modifierName": "MachinaIustitia_Sentry_CoilEffect01_Ousia"
        },
        {
          "$type": "RemoveModifier",
          "modifierName": "MachinaIustitia_Sentry_CoilEffect02_Pneuma"
        },
        {
          "$type": "RemoveModifier",
          "modifierName": "MachinaIustitia_Sentry_CoilEffect02_Ousia"
        }
      ]
    }
  },
  {
    "Default": {
      "$type": "ConfigAbility",
      "abilityName": "Monster_MachinaIustitia_Sentry_RushAtk",
      "abilityMixins": [
        {
          "$type": "AttachToStateIDMixin",
          "stateIDs": ["RushAtk"],
          "modifierName": "Sentry_RushAtk_RushMove_Handler",
          "DGFCLAIDIFI": ""
        }
      ],
      "modifiers": {
        "Sentry_RushAtk_RushMove": {
          "modifierName": "",
          "elementDurability": 100.0,
          "onAdded": [
            {
              "$type": "Predicated",
              "target": "SelfAttackTarget",
              "targetPredicates": [
                {
                  "$type": "ByTargetPositionToSelfPosition",
                  "logic": "Lesser",
                  "value": 2.0,
                  "DDALGNLEHOD": ""
                }
              ],
              "successActions": [
                {
                  "$type": "POLLHJCDPMK",
                  "toPos": {
                    "$type": "ConfigBornBySelf",
                    "offset": {
                      "x": 0.0,
                      "y": 0.0,
                      "z": 2.0
                    },
                    "onGround": true,
                    "useRotation": true
                  },
                  "timeRange": 0.10999999940395355
                }
              ],
              "failActions": [
                {
                  "$type": "POLLHJCDPMK",
                  "toPos": {
                    "$type": "ConfigBornBySelf",
                    "offset": {
                      "x": 0.0,
                      "y": 0.0,
                      "z": 3.0
                    },
                    "onGround": true,
                    "useRotation": true
                  },
                  "timeRange": 0.10999999940395355
                }
              ]
            }
          ]
        },
        "Sentry_RushAtk_RushMove_Handler": {
          "modifierName": "",
          "elementDurability": 100.0,
          "onAdded": [
            {
              "$type": "SetGlobalValue",
              "value": 0.0,
              "key": "_SENTRY_RUSHATK_FOLLOWBULLET_",
              "maxValue": 0.0,
              "minValue": 0.0
            }
          ],
          "onRemoved": [
            {
              "$type": "RemoveModifier",
              "modifierName": "Sentry_RushAtk_RushMove"
            },
            {
              "$type": "SetGlobalValue",
              "value": 1.0,
              "key": "_SENTRY_RUSHATK_FOLLOWBULLET_",
              "maxValue": 0.0,
              "minValue": 0.0
            }
          ]
        }
      },
      "onAdded": [
        {
          "$type": "SetGlobalValue",
          "value": 0.0,
          "key": "_SENTRY_RUSHATK_FOLLOWBULLET_",
          "maxValue": 0.0,
          "minValue": 0.0
        }
      ],
      "onAbilityStart": [
        {
          "$type": "ApplyModifier",
          "modifierName": "Sentry_RushAtk_RushMove"
        },
        {
          "$type": "TriggerBullet",
          "bulletID": 42406015,
          "born": {
            "$type": "ConfigBornBySelf",
            "offset": {
              "x": 0.0,
              "y": 0.0,
              "z": 0.0
            },
            "useRotation": true
          },
          "trackTarget": "Self",
          "lifeByOwnerV2": true
        }
      ]
    }
  },
  {
    "Default": {
      "$type": "ConfigAbility",
      "abilityName": "Monster_MachinaIustitia_Sentry_RushAtk_KillBullet",
      "onAbilityStart": [
        {
          "$type": "SetGlobalValue",
          "value": 1.0,
          "key": "_SENTRY_RUSHATK_FOLLOWBULLET_",
          "maxValue": 0.0,
          "minValue": 0.0
        }
      ]
    }
  },
  {
    "Default": {
      "$type": "ConfigAbility",
      "abilityName": "MachinaIustitia_Sentry_RushAtk_FollowBullet",
      "abilityMixins": [
        {
          "$type": "AttachModifierToGlobalValueMixin",
          "globalValueTarget": "OriginOwner",
          "globalValueKey": "_SENTRY_RUSHATK_FOLLOWBULLET_",
          "valueSteps": [-0.5, 0.5, 1.5],
          "modifierNameSteps": ["Blank", "Sentry_RushAtk_FollowBullet_Kill"]
        }
      ],
      "modifiers": {
        "Sentry_RushAtk_FollowBullet_Kill": {
          "modifierName": "",
          "elementDurability": 100.0,
          "onAdded": [
            {
              "$type": "KillSelf"
            }
          ]
        },
        "Blank": {
          "modifierName": "",
          "elementDurability": 100.0
        }
      },
      "onAbilityStart": [
        {
          "$type": "TriggerAttackEvent",
          "attackEvent": {
            "attackPattern": {
              "$type": "ConfigAttackSphere",
              "triggerType": "TriggerNoRepeat",
              "born": {
                "$type": "ConfigBornByCollisionPoint"
              },
              "radius": 1.0
            },
            "attackInfo": {
              "attackTag": "",
              "attenuationTag": "",
              "attenuationGroup": "default",
              "attackProperty": {
                "actorGrassSubHurtDelta": 0.6000000238418579,
                "actorWindSubHurtDelta": 0.0,
                "elementDurability": 0.0,
                "strikeType": "Blunt",
                "enBreak": 50.0,
                "attackType": "Melee",
                "GLKMCMDJBIK": 0.0
              },
              "hitPattern": {
                "onHitEffectName": "default",
                "hitImpulseY": "",
                "hitImpulseType": "LV3",
                "retreatType": "ByHitDirection",
                "hitHaltTimeScale": 0.05000000074505806
              },
              "canBeModifiedBy": "OriginOwner"
            }
          },
          "targetType": "Enemy"
        }
      ]
    }
  },
  {
    "Default": {
      "$type": "ConfigAbility",
      "abilityName": "Monster_MachinaIustitia_Sentry_EMP_Pneuma",
      "onAbilityStart": [
        {
          "$type": "FireEffect",
          "rotationDampTime": "Eff_Monster_MachinaIustitia_Sentry_EMP_Pneuma_Fire",
          "born": {
            "$type": "ConfigBornByAttachPoint",
            "useRotation": true,
            "attachPointName": "EMPPoint"
          },
          "PPPDJGDDOGD": 1.0,
          "AJDILHJFNKE": -1.0
        },
        {
          "$type": "TriggerBullet",
          "bulletID": 42406011,
          "born": {
            "$type": "ConfigBornByAttachPoint",
            "useRotation": true,
            "attachPointName": "EMPPoint"
          },
          "lifeByOwnerV2": true
        }
      ]
    }
  },
  {
    "Default": {
      "$type": "ConfigAbility",
      "abilityName": "Monster_MachinaIustitia_Sentry_EMP_Ousia",
      "onAbilityStart": [
        {
          "$type": "FireEffect",
          "rotationDampTime": "Eff_Monster_MachinaIustitia_Sentry_EMP_Ousia_Fire",
          "born": {
            "$type": "ConfigBornByAttachPoint",
            "useRotation": true,
            "attachPointName": "EMPPoint"
          },
          "PPPDJGDDOGD": 1.0,
          "AJDILHJFNKE": -1.0
        },
        {
          "$type": "TriggerBullet",
          "bulletID": 42406013,
          "born": {
            "$type": "ConfigBornByAttachPoint",
            "useRotation": true,
            "attachPointName": "EMPPoint"
          },
          "lifeByOwnerV2": true
        }
      ]
    }
  },
  {
    "Default": {
      "$type": "ConfigAbility",
      "abilityName": "MachinaIustitia_Sentry_EMP_Pneuma_Bullet",
      "modifiers": {
        "Sentry_EMP_Pneuma_Bullet_Effect": {
          "modifierName": "",
          "elementDurability": 100.0,
          "onAdded": [
            {
              "$type": "AttachEffect",
              "rotationDampTime": "Eff_Monster_MachinaIustitia_Sentry_EMP_Pneuma_Bullet",
              "PPPDJGDDOGD": 1.0,
              "AJDILHJFNKE": -1.0
            }
          ]
        }
      },
      "onAdded": [
        {
          "$type": "AttachModifier",
          "modifierName": "Sentry_EMP_Pneuma_Bullet_Effect"
        }
      ],
      "onAbilityStart": [
        {
          "$type": "CreateGadget",
          "predicates": [
            {
              "$type": "ByTargetGlobalValue",
              "target": "OriginOwner",
              "key": "_SENTRY_PARTNER_TAG_",
              "value": 0.0,
              "compareType": "NoneOrEqual"
            }
          ],
          "ownerIs": "Owner",
          "born": {
            "$type": "ConfigBornBySelf",
            "onGround": true,
            "alongGround": true,
            "useRotation": true
          },
          "lifeByOwnerV2": true,
          "gadgetID": 42406012,
          "campID": 4001,
          "campTargetType": "Enemy"
        },
        {
          "$type": "CreateGadget",
          "predicates": [
            {
              "$type": "ByTargetGlobalValue",
              "target": "OriginOwner",
              "key": "_SENTRY_PARTNER_TAG_",
              "value": 1.0
            }
          ],
          "ownerIs": "Owner",
          "born": {
            "$type": "ConfigBornBySelf",
            "onGround": true,
            "alongGround": true,
            "useRotation": true
          },
          "lifeByOwnerV2": true,
          "gadgetID": 42406012,
          "campID": 3001,
          "campTargetType": "Enemy"
        },
        {
          "$type": "FireEffect",
          "rotationDampTime": "Eff_Monster_MachinaIustitia_Sentry_EMP_Pneuma_Bullet_AS",
          "PPPDJGDDOGD": 1.0,
          "AJDILHJFNKE": -1.0
        },
        {
          "$type": "EnableBulletCollisionPluginTrigger"
        },
        {
          "$type": "KillSelf",
          "duration": 0.10000000149011612
        }
      ]
    }
  },
  {
    "Default": {
      "$type": "ConfigAbility",
      "abilityName": "MachinaIustitia_Sentry_EMP_Pneuma_Bomb",
      "modifiers": {
        "Sentry_EMP_Pneuma_Bomb_Effect": {
          "modifierName": "",
          "elementDurability": 100.0,
          "onAdded": [
            {
              "$type": "AttachEffect",
              "rotationDampTime": "Eff_Monster_MachinaIustitia_Sentry_EMP_Pneuma_Damage",
              "PPPDJGDDOGD": 1.0,
              "AJDILHJFNKE": -1.0
            }
          ]
        },
        "Sentry_EMP_Pneuma_Bomb_Damage": {
          "modifierName": "",
          "elementDurability": 100.0,
          "thinkInterval": 0.5,
          "onAdded": [
            {
              "$type": "TriggerAttackEvent",
              "attackEvent": {
                "attackPattern": {
                  "$type": "ConfigAttackSphere",
                  "triggerType": "TriggerNoRepeat",
                  "checkHitLayerType": "Both",
                  "born": {
                    "$type": "ConfigBornBySelf",
                    "useRotation": true
                  },
                  "radius": 3.0
                },
                "attackInfo": {
                  "attackTag": "",
                  "attenuationTag": "",
                  "attenuationGroup": "default",
                  "attackProperty": {
                    "actorGrassSubHurtDelta": 0.25,
                    "actorWindSubHurtDelta": 0.0,
                    "elementType": "Electric",
                    "elementDurability": 25.0,
                    "strikeType": "Default",
                    "enBreak": 50.0,
                    "attackType": "Range",
                    "GLKMCMDJBIK": 0.0
                  },
                  "hitPattern": {
                    "onHitEffectName": "default",
                    "hitImpulseY": "",
                    "hitImpulseType": "LV3",
                    "hitHaltTimeScale": 0.009999999776482582
                  },
                  "canBeModifiedBy": "OriginOwner"
                }
              },
              "targetType": "Enemy"
            }
          ],
          "onThinkInterval": [
            {
              "$type": "TriggerAttackEvent",
              "attackEvent": {
                "attackPattern": {
                  "$type": "ConfigAttackSphere",
                  "triggerType": "TriggerNoRepeat",
                  "checkHitLayerType": "Both",
                  "born": {
                    "$type": "ConfigBornBySelf",
                    "useRotation": true
                  },
                  "radius": 3.0
                },
                "attackInfo": {
                  "attackTag": "",
                  "attenuationTag": "",
                  "attenuationGroup": "default",
                  "attackProperty": {
                    "actorGrassSubHurtDelta": 0.25,
                    "actorWindSubHurtDelta": 0.0,
                    "elementType": "Electric",
                    "elementDurability": 10.0,
                    "strikeType": "Default",
                    "enBreak": 1.0,
                    "attackType": "Range",
                    "GLKMCMDJBIK": 0.0
                  },
                  "hitPattern": {
                    "onHitEffectName": "default",
                    "hitImpulseY": "",
                    "hitImpulseType": "LV2",
                    "hitHaltTimeScale": 0.009999999776482582
                  },
                  "canBeModifiedBy": "OriginOwner"
                }
              },
              "targetType": "Enemy"
            }
          ]
        },
        "Sentry_EMP_Pneuma_Bomb_Life": {
          "modifierName": "",
          "duration": 2.9000000953674316,
          "elementDurability": 100.0,
          "onRemoved": [
            {
              "$type": "FireEffect",
              "rotationDampTime": "Eff_Monster_MachinaIustitia_Sentry_EMP_Pneuma_FinalDamage",
              "PPPDJGDDOGD": 1.0,
              "AJDILHJFNKE": -1.0
            },
            {
              "$type": "TriggerAttackEvent",
              "attackEvent": {
                "attackPattern": {
                  "$type": "ConfigAttackSphere",
                  "triggerType": "TriggerNoRepeat",
                  "checkHitLayerType": "Both",
                  "born": {
                    "$type": "ConfigBornBySelf",
                    "useRotation": true
                  },
                  "radius": 3.0
                },
                "attackInfo": {
                  "attackTag": "",
                  "attenuationTag": "",
                  "attenuationGroup": "default",
                  "attackProperty": {
                    "actorGrassSubHurtDelta": 0.5,
                    "actorWindSubHurtDelta": 0.0,
                    "elementType": "Electric",
                    "elementDurability": 25.0,
                    "strikeType": "Default",
                    "enBreak": 25.0,
                    "attackType": "Range",
                    "GLKMCMDJBIK": 0.0
                  },
                  "hitPattern": {
                    "onHitEffectName": "default",
                    "hitImpulseY": "",
                    "hitImpulseType": "LV2",
                    "hitHaltTimeScale": 0.009999999776482582
                  },
                  "canBeModifiedBy": "OriginOwner"
                }
              },
              "targetType": "Enemy"
            },
            {
              "$type": "KillSelf"
            }
          ]
        }
      },
      "onAdded": [
        {
          "$type": "AttachModifier",
          "modifierName": "Sentry_EMP_Pneuma_Bomb_Effect"
        },
        {
          "$type": "AttachModifier",
          "modifierName": "Sentry_EMP_Pneuma_Bomb_Damage"
        },
        {
          "$type": "AttachModifier",
          "modifierName": "Sentry_EMP_Pneuma_Bomb_Life"
        }
      ]
    }
  },
  {
    "Default": {
      "$type": "ConfigAbility",
      "abilityName": "MachinaIustitia_Sentry_EMP_Ousia_Bullet",
      "modifiers": {
        "Sentry_EMP_Ousia_Bullet_Effect": {
          "modifierName": "",
          "elementDurability": 100.0,
          "onAdded": [
            {
              "$type": "AttachEffect",
              "rotationDampTime": "Eff_Monster_MachinaIustitia_Sentry_EMP_Ousia_Bullet",
              "PPPDJGDDOGD": 1.0,
              "AJDILHJFNKE": -1.0
            }
          ]
        }
      },
      "onAdded": [
        {
          "$type": "AttachModifier",
          "modifierName": "Sentry_EMP_Ousia_Bullet_Effect"
        }
      ],
      "onAbilityStart": [
        {
          "$type": "CreateGadget",
          "predicates": [
            {
              "$type": "ByTargetGlobalValue",
              "target": "OriginOwner",
              "key": "_SENTRY_PARTNER_TAG_",
              "value": 0.0,
              "compareType": "NoneOrEqual"
            }
          ],
          "ownerIs": "Owner",
          "born": {
            "$type": "ConfigBornBySelf",
            "onGround": true,
            "alongGround": true,
            "useRotation": true
          },
          "lifeByOwnerV2": true,
          "gadgetID": 42406014,
          "campID": 4001,
          "campTargetType": "Enemy"
        },
        {
          "$type": "CreateGadget",
          "predicates": [
            {
              "$type": "ByTargetGlobalValue",
              "target": "OriginOwner",
              "key": "_SENTRY_PARTNER_TAG_",
              "value": 1.0
            }
          ],
          "ownerIs": "Owner",
          "born": {
            "$type": "ConfigBornBySelf",
            "onGround": true,
            "alongGround": true,
            "useRotation": true
          },
          "lifeByOwnerV2": true,
          "gadgetID": 42406014,
          "campID": 3001,
          "campTargetType": "Enemy"
        },
        {
          "$type": "FireEffect",
          "rotationDampTime": "Eff_Monster_MachinaIustitia_Sentry_EMP_Ousia_Bullet_AS",
          "PPPDJGDDOGD": 1.0,
          "AJDILHJFNKE": -1.0
        },
        {
          "$type": "EnableBulletCollisionPluginTrigger"
        },
        {
          "$type": "KillSelf",
          "duration": 0.10000000149011612
        }
      ]
    }
  },
  {
    "Default": {
      "$type": "ConfigAbility",
      "abilityName": "MachinaIustitia_Sentry_EMP_Ousia_Bomb",
      "modifiers": {
        "Sentry_EMP_Ousia_Bomb_Effect": {
          "modifierName": "",
          "elementDurability": 100.0,
          "onAdded": [
            {
              "$type": "AttachEffect",
              "rotationDampTime": "Eff_Monster_MachinaIustitia_Sentry_EMP_Ousia_Alert",
              "PPPDJGDDOGD": 1.0,
              "AJDILHJFNKE": -1.0
            }
          ]
        },
        "Sentry_EMP_Ousia_Bomb_Life": {
          "modifierName": "",
          "duration": 3.0,
          "elementDurability": 100.0,
          "onRemoved": [
            {
              "$type": "FireEffect",
              "rotationDampTime": "Eff_Monster_MachinaIustitia_Sentry_EMP_Ousia_Explode",
              "PPPDJGDDOGD": 1.0,
              "AJDILHJFNKE": -1.0
            },
            {
              "$type": "TriggerAttackEvent",
              "attackEvent": {
                "attackPattern": {
                  "$type": "ConfigAttackSphere",
                  "triggerType": "TriggerNoRepeat",
                  "checkHitLayerType": "Both",
                  "born": {
                    "$type": "ConfigBornBySelf",
                    "useRotation": true
                  },
                  "radius": 4.0
                },
                "attackInfo": {
                  "attackTag": "",
                  "attenuationTag": "",
                  "attenuationGroup": "default",
                  "attackProperty": {
                    "actorGrassSubHurtDelta": 1.0,
                    "actorWindSubHurtDelta": 0.0,
                    "elementType": "Electric",
                    "elementDurability": 25.0,
                    "strikeType": "Default",
                    "enBreak": 100.0,
                    "attackType": "Range",
                    "GLKMCMDJBIK": 0.0
                  },
                  "hitPattern": {
                    "onHitEffectName": "default",
                    "hitImpulseY": "",
                    "hitImpulseType": "LV4",
                    "hitHaltTimeScale": 0.009999999776482582
                  },
                  "canBeModifiedBy": "OriginOwner"
                }
              },
              "targetType": "Enemy"
            },
            {
              "$type": "KillSelf"
            }
          ]
        }
      },
      "onAdded": [
        {
          "$type": "AttachModifier",
          "modifierName": "Sentry_EMP_Ousia_Bomb_Effect"
        },
        {
          "$type": "AttachModifier",
          "modifierName": "Sentry_EMP_Ousia_Bomb_Life"
        }
      ]
    }
  },
  {
    "Default": {
      "$type": "ConfigAbility",
      "abilityName": "Monster_MachinaIustitia_Sentry_Steer",
      "abilityMixins": [
        {
          "$type": "IILHMBGONGM",
          "steerStateIDs": ["NormalMove"],
          "endNormalizedTime": 999.0,
          "angularSpeed": 60.0,
          "attackTrigger": "",
          "JGOMHKMFHIO": true,
          "DGFCLAIDIFI": ""
        },
        {
          "$type": "IILHMBGONGM",
          "steerStateIDs": ["Turn"],
          "endNormalizedTime": 0.6669999957084656,
          "angularSpeed": 180.0,
          "attackTrigger": "",
          "JGOMHKMFHIO": true,
          "DGFCLAIDIFI": ""
        },
        {
          "$type": "IILHMBGONGM",
          "steerStateIDs": ["RushAtk"],
          "startNormalizedTime": 0.04800000041723251,
          "endNormalizedTime": 0.08900000154972076,
          "angularSpeed": 360.0,
          "attackTrigger": "",
          "DGFCLAIDIFI": ""
        },
        {
          "$type": "IILHMBGONGM",
          "steerStateIDs": ["EMP"],
          "startNormalizedTime": 0.039000000804662704,
          "endNormalizedTime": 0.15700000524520874,
          "angularSpeed": 270.0,
          "attackTrigger": "",
          "DGFCLAIDIFI": ""
        }
      ]
    }
  },
  {
    "Default": {
      "$type": "ConfigAbility",
      "abilityName": "Monster_MachinaIustitia_Sentry_ExitBattle",
      "abilityMixins": [
        {
          "$type": "LEOGLBFIELL",
          "poseIDs": [901],
          "modifierName": "ExitBattle"
        }
      ],
      "modifiers": {
        "ExitBattle": {
          "modifierName": "",
          "elementDurability": 100.0,
          "onAdded": [
            {
              "$type": "SetGlobalValue",
              "value": 0.0,
              "key": "_MACHINAIUSTITIA_NEEDREPAIR_",
              "maxValue": 0.0,
              "minValue": 0.0
            },
            {
              "$type": "SetGlobalValue",
              "value": 0.0,
              "key": "_MACHINAIUSTITIA_CHARGED_",
              "maxValue": 0.0,
              "minValue": 0.0
            },
            {
              "$type": "RemoveUniqueModifier",
              "modifierName": "UNIQUE_MachinaIustitia_Charge_Effect_Pneuma"
            },
            {
              "$type": "RemoveUniqueModifier",
              "modifierName": "UNIQUE_MachinaIustitia_Charge_Effect_Ousia"
            }
          ],
          "onRemoved": [
            {
              "$type": "SetGlobalValue",
              "value": 0.0,
              "key": "_MACHINAIUSTITIA_NEEDREPAIR_",
              "maxValue": 0.0,
              "minValue": 0.0
            },
            {
              "$type": "SetGlobalValue",
              "value": 0.0,
              "key": "_MACHINAIUSTITIA_CHARGED_",
              "maxValue": 0.0,
              "minValue": 0.0
            },
            {
              "$type": "PILJLANJHMK",
              "predicates": [
                {
                  "$type": "ByTargetGlobalValue",
                  "key": "_MACHINAIUSTITIA_STATIC_STATE_",
                  "value": -1.0
                }
              ],
              "value": -1.0,
              "key": "arkheGradeKey",
              "maxValue": 0.0,
              "minValue": 0.0
            },
            {
              "$type": "PILJLANJHMK",
              "predicates": [
                {
                  "$type": "ByTargetGlobalValue",
                  "key": "_MACHINAIUSTITIA_STATIC_STATE_",
                  "value": 1.0
                }
              ],
              "value": 1.0,
              "key": "arkheGradeKey",
              "maxValue": 0.0,
              "minValue": 0.0
            },
            {
              "$type": "RemoveUniqueModifier",
              "modifierName": "UNIQUE_MachinaIustitia_Charge_Effect_Pneuma"
            },
            {
              "$type": "RemoveUniqueModifier",
              "modifierName": "UNIQUE_MachinaIustitia_Charge_Effect_Ousia"
            }
          ]
        }
      }
    }
  },
  {
    "Default": {
      "$type": "ConfigAbility",
      "abilityName": "Monster_MachinaIustitia_Sentry_Alert",
      "abilityMixins": [
        {
          "$type": "AttachToStateIDMixin",
          "stateIDs": ["Alert"],
          "modifierName": "Sentry_AlertHandler",
          "DGFCLAIDIFI": ""
        },
        {
          "$type": "AOKOIIHJJPJ",
          "alertness": [2],
          "modifierName": "Sentry_ForceAlertDelay"
        }
      ],
      "modifiers": {
        "Sentry_AlertHandler": {
          "modifierName": "",
          "elementDurability": 100.0,
          "onRemoved": [
            {
              "$type": "IDNGFEEBPAM",
              "boolID": "Sit"
            },
            {
              "$type": "SetGlobalValue",
              "value": 1.0,
              "key": "_MACHINAIUSTITIA_SENTRY_SIT_ALERT_",
              "maxValue": 0.0,
              "minValue": 0.0
            }
          ]
        },
        "Sentry_ForceAlertDelay": {
          "modifierName": "",
          "elementDurability": 100.0,
          "onAdded": [
            {
              "$type": "ApplyModifier",
              "predicates": [
                {
                  "$type": "ByTargetGlobalValue",
                  "key": "_MACHINAIUSTITIA_SENTRY_SIT_ALERT_",
                  "value": 0.0,
                  "compareType": "NoneOrEqual"
                }
              ],
              "modifierName": "Sentry_ForceAlert"
            }
          ],
          "onReconnect": [
            {
              "$type": "IDNGFEEBPAM",
              "boolID": "Sit"
            },
            {
              "$type": "SetGlobalValue",
              "value": 1.0,
              "key": "_MACHINAIUSTITIA_SENTRY_SIT_ALERT_",
              "maxValue": 0.0,
              "minValue": 0.0
            }
          ]
        },
        "Sentry_ForceAlert": {
          "modifierName": "",
          "duration": 2.0,
          "elementDurability": 100.0,
          "onRemoved": [
            {
              "$type": "IDNGFEEBPAM",
              "boolID": "Sit"
            }
          ]
        },
        "Sentry_ForceHitAlert": {
          "modifierName": "",
          "elementDurability": 100.0,
          "modifierMixins": [
            {
              "$type": "APJKOLPHCGH",
              "stateIDs": ["BeHit"],
              "enterActions": [
                {
                  "$type": "IDNGFEEBPAM",
                  "predicates": [
                    {
                      "$type": "ByTargetGlobalValue",
                      "key": "_MACHINAIUSTITIA_SENTRY_SIT_ALERT_",
                      "value": 0.0,
                      "compareType": "NoneOrEqual"
                    }
                  ],
                  "boolID": "Sit"
                },
                {
                  "$type": "SetGlobalValue",
                  "value": 1.0,
                  "key": "_MACHINAIUSTITIA_SENTRY_SIT_ALERT_",
                  "maxValue": 0.0,
                  "minValue": 0.0
                }
              ],
              "DGFCLAIDIFI": ""
            }
          ]
        }
      },
      "onAdded": [
        {
          "$type": "SetGlobalValue",
          "value": 0.0,
          "key": "_MACHINAIUSTITIA_SENTRY_SIT_ALERT_",
          "maxValue": 0.0,
          "minValue": 0.0
        },
        {
          "$type": "ApplyModifier",
          "modifierName": "Sentry_ForceHitAlert"
        }
      ],
      "onAbilityStart": [
        {
          "$type": "IDNGFEEBPAM",
          "boolID": "Sit"
        }
      ]
    }
  },
  {
    "Default": {
      "$type": "ConfigAbility",
      "abilityName": "Monster_MachinaIustitia_Sentry_HitSpecial",
      "abilityMixins": [
        {
          "$type": "AttachToNormalizedTimeMixin",
          "stateID": "HitSpecial",
          "modifierName": "Sentry_HitSpecial",
          "normalizeEnd": 0.5799999833106995,
          "DGFCLAIDIFI": ""
        }
      ],
      "modifiers": {
        "Sentry_HitSpecial": {
          "modifierName": "",
          "elementDurability": 100.0,
          "onAdded": [
            {
              "$type": "AttachEffect",
              "rotationDampTime": "Eff_Monster_MachinaIustitia_HitSpecial",
              "PPPDJGDDOGD": 1.0,
              "AJDILHJFNKE": -1.0
            }
          ]
        }
      }
    }
  },
  {
    "Default": {
      "$type": "ConfigAbility",
      "abilityName": "Monster_MachinaIustitia_EscapePrison_Patrol_Alert",
      "onAbilityStart": [
        {
          "$type": "IDNGFEEBPAM",
          "boolID": "PatrolOnlyAlert",
          "value": true
        }
      ]
    }
  },
  {
    "Default": {
      "$type": "ConfigAbility",
      "abilityName": "Monster_MachinaIustitia_EscapePrison_Patrol_TurnIdle",
      "abilityMixins": [
        {
          "$type": "AttachToStateIDMixin",
          "stateIDs": ["TurnIdle"],
          "modifierName": "BoxMatch_TurnIdle",
          "DGFCLAIDIFI": ""
        }
      ],
      "modifiers": {
        "BoxMatch_TurnIdle": {
          "modifierName": "",
          "elementDurability": 100.0,
          "onAdded": [
            {
              "$type": "IDNGFEEBPAM",
              "boolID": "PatrolOnlyAlert"
            }
          ]
        }
      }
    }
  }
]
