[
  {
    "Default": {
      "$type": "ConfigAbility",
      "abilityName": "FauneAbyssale_SeaHorse_Primo_BossEvent_Annihilation",
      "abilityMixins": [
        {
          "$type": "AttachToStateIDMixin",
          "stateIDs": ["Annihilation_Loop"],
          "modifierName": "Annihilation_Thunder_Handler",
          "DGFCLAIDIFI": ""
        },
        {
          "$type": "AttachToStateIDMixin",
          "stateIDs": ["Annihilation_Cast", "Annihilation_Loop"],
          "modifierName": "Annihilation_Handler",
          "DGFCLAIDIFI": ""
        }
      ],
      "modifiers": {
        "Annihilation_Thunder_Handler": {
          "modifierName": "",
          "elementDurability": 100.0,
          "thinkInterval": 19.0,
          "onAdded": [
            {
              "$type": "AttachModifier",
              "modifierName": "Annihilation_Thunder"
            }
          ],
          "onThinkInterval": [
            {
              "$type": "DLEIPBPNAIM",
              "paramList": [4, 1, 3]
            },
            {
              "$type": "SetAnimatorTrigger",
              "triggerID": "EndAnnihilation",
              "mpTriggerOnRemote": true
            },
            {
              "$type": "Predicated",
              "otherTargets": {
                "$type": "SelectTargetsByChildren",
                "configID": 42601129
              },
              "successActions": [
                {
                  "$type": "TriggerAbility",
                  "otherTargets": {
                    "$type": "SelectTargetsByChildren",
                    "topLimit": 1,
                    "sortType": "Nearest",
                    "configID": 42601132
                  },
                  "abilityName": "FauneAbyssale_SeaHorse_Primo_BossEvent_PearlGadget_PlusElement"
                }
              ]
            },
            {
              "$type": "Predicated",
              "otherTargets": {
                "$type": "SelectTargetsByChildren",
                "configID": 42601130
              },
              "successActions": [
                {
                  "$type": "TriggerAbility",
                  "otherTargets": {
                    "$type": "SelectTargetsByChildren",
                    "topLimit": 1,
                    "sortType": "Nearest",
                    "configID": 42601132
                  },
                  "abilityName": "FauneAbyssale_SeaHorse_Primo_BossEvent_PearlGadget_PlusElement"
                }
              ]
            },
            {
              "$type": "Predicated",
              "otherTargets": {
                "$type": "SelectTargetsByChildren",
                "configID": 42601131
              },
              "successActions": [
                {
                  "$type": "TriggerAbility",
                  "otherTargets": {
                    "$type": "SelectTargetsByChildren",
                    "topLimit": 1,
                    "sortType": "Nearest",
                    "configID": 42601132
                  },
                  "abilityName": "FauneAbyssale_SeaHorse_Primo_BossEvent_PearlGadget_PlusElement"
                }
              ]
            },
            {
              "$type": "Predicated",
              "otherTargets": {
                "$type": "SelectTargetsByChildren",
                "configID": 42601133
              },
              "successActions": [
                {
                  "$type": "TriggerAbility",
                  "otherTargets": {
                    "$type": "SelectTargetsByChildren",
                    "topLimit": 1,
                    "sortType": "Nearest",
                    "configID": 42601132
                  },
                  "abilityName": "FauneAbyssale_SeaHorse_Primo_BossEvent_PearlGadget_PlusElement"
                }
              ]
            },
            {
              "$type": "SetGlobalValue",
              "value": 1.0,
              "key": "_SEA_DRAGON_STAGE_",
              "maxValue": 0.0,
              "minValue": 0.0
            }
          ]
        },
        "Annihilation_Thunder": {
          "modifierName": "",
          "elementDurability": 100.0,
          "thinkInterval": 3.299999952316284,
          "onAdded": [
            {
              "$type": "Predicated",
              "otherTargets": {
                "$type": "SelectTargetsByShape",
                "topLimit": 1,
                "entityTypePriority": ["Avatar"],
                "sortType": "Random",
                "shapeName": "CircleR28H15C",
                "campTargetType": "Enemy",
                "doOffStage": 1.0
              },
              "predicatesForeach": [
                {
                  "$type": "ByEntityTypes",
                  "entityTypes": ["Avatar"]
                }
              ],
              "successActions": [
                {
                  "$type": "CreateGadget",
                  "target": "Target",
                  "born": {
                    "$type": "MPCGPEHJNNH",
                    "onGround": true,
                    "timeForPredictive": 0.30000001192092896
                  },
                  "gadgetID": 42601118
                }
              ]
            }
          ],
          "onThinkInterval": [
            {
              "$type": "Predicated",
              "otherTargets": {
                "$type": "SelectTargetsByShape",
                "topLimit": 1,
                "entityTypePriority": ["Avatar"],
                "sortType": "Random",
                "shapeName": "CircleR28H15C",
                "campTargetType": "Enemy",
                "doOffStage": 1.0
              },
              "predicatesForeach": [
                {
                  "$type": "ByEntityTypes",
                  "entityTypes": ["Avatar"]
                }
              ],
              "successActions": [
                {
                  "$type": "CreateGadget",
                  "target": "Target",
                  "born": {
                    "$type": "MPCGPEHJNNH",
                    "onGround": true,
                    "timeForPredictive": 0.30000001192092896
                  },
                  "gadgetID": 42601118
                }
              ]
            }
          ]
        },
        "Annihilation_Handler": {
          "modifierName": "",
          "elementDurability": 100.0,
          "modifierMixins": [
            {
              "$type": "DKEKMHHIDOB",
              "lockType": "Default",
              "overrideRange": 0.009999999776482582,
              "overrideCombatPri": 0.20000000298023224
            },
            {
              "$type": "AttachActionToModifierMixin",
              "onAdded": [
                {
                  "$type": "EnablePushColliderName",
                  "pushColliderNames": ["FlyPushCollider"],
                  "setEnable": true
                }
              ],
              "onRemoved": [
                {
                  "$type": "EnablePushColliderName",
                  "pushColliderNames": ["FlyPushCollider"]
                }
              ]
            }
          ],
          "onAdded": [
            {
              "$type": "SetGlobalValue",
              "value": 1.0,
              "key": "_DISABLE_ANNIHILATION_",
              "maxValue": 0.0,
              "minValue": 0.0
            },
            {
              "$type": "SetGlobalValue",
              "value": 0.0,
              "key": "_CORAL_GADGET_NOT_EXIST_",
              "maxValue": 0.0,
              "minValue": 0.0
            },
            {
              "$type": "TriggerAbility",
              "otherTargets": {
                "$type": "SelectTargetsByChildren",
                "topLimit": 1,
                "sortType": "Nearest",
                "configID": 42601132
              },
              "abilityName": "FauneAbyssale_SeaHorse_Primo_BossEvent_PearlGadget"
            },
            {
              "$type": "CreateGadget",
              "born": {
                "$type": "ConfigBornByAttachPoint",
                "useRotation": true,
                "attachPointName": "CoralGadget_Pos1"
              },
              "sightGroupWithOwner": true,
              "lifeByOwnerV2": true,
              "gadgetID": 42601129,
              "byServer": true
            },
            {
              "$type": "CreateGadget",
              "born": {
                "$type": "ConfigBornByAttachPoint",
                "useRotation": true,
                "attachPointName": "CoralGadget_Pos2"
              },
              "sightGroupWithOwner": true,
              "lifeByOwnerV2": true,
              "gadgetID": 42601130,
              "byServer": true
            },
            {
              "$type": "CreateGadget",
              "born": {
                "$type": "ConfigBornByAttachPoint",
                "useRotation": true,
                "attachPointName": "CoralGadget_Pos3"
              },
              "sightGroupWithOwner": true,
              "lifeByOwnerV2": true,
              "gadgetID": 42601131,
              "byServer": true
            },
            {
              "$type": "CreateGadget",
              "born": {
                "$type": "ConfigBornByAttachPoint",
                "useRotation": true,
                "attachPointName": "CoralGadget_Pos4"
              },
              "sightGroupWithOwner": true,
              "lifeByOwnerV2": true,
              "gadgetID": 42601133,
              "byServer": true
            },
            {
              "$type": "ActCameraRadialBlur",
              "cameraRadialBlur": {
                "power": 1.2000000476837158,
                "blurTime": 0.11999999731779099,
                "fadeTime": 0.5
              }
            },
            {
              "$type": "AttachEffect",
              "rotationDampTime": "Eff_Monster_FauneAbyssale_SeaHorse_Primo_Annihilation_TeslaCoil",
              "born": {
                "$type": "ConfigBornByAttachPoint",
                "direction": {
                  "$type": "ConfigDirectionByEntity"
                },
                "alongGround": true,
                "useRotation": true,
                "attachPointName": "TeslaCoil"
              },
              "PPPDJGDDOGD": 1.0,
              "AJDILHJFNKE": -1.0
            },
            {
              "$type": "AttachEffect",
              "rotationDampTime": "Eff_Monster_FauneAbyssale_SeaHorse_Primo_Annihilation_Ripple_LoopB",
              "PPPDJGDDOGD": 1.0,
              "AJDILHJFNKE": -1.0
            },
            {
              "$type": "TriggerBullet",
              "bulletID": 42601119,
              "born": {
                "$type": "ConfigBornByAttachPoint",
                "onGround": true,
                "alongGround": true,
                "useRotation": true,
                "attachPointName": "Motion_Root"
              }
            },
            {
              "$type": "DLEIPBPNAIM",
              "paramList": [4, 1, 1]
            }
          ],
          "onRemoved": [
            {
              "$type": "DLEIPBPNAIM",
              "paramList": [4, 1, 2]
            },
            {
              "$type": "GCHLGDKBHCC",
              "gadgetInfo": {
                "configID": 42601119
              }
            },
            {
              "$type": "SetGlobalValue",
              "predicates": [
                {
                  "$type": "ByTargetGlobalValue",
                  "key": "_CORAL_GADGET_NOT_EXIST_",
                  "value": 0.0
                }
              ],
              "value": 1.0,
              "key": "_CORAL_GADGET_NOT_EXIST_",
              "maxValue": 0.0,
              "minValue": 0.0
            },
            {
              "$type": "IBACDLDFCND",
              "enable": true,
              "specialCameraName": "BasicView",
              "frameDelay": 1,
              "lockTrans": ""
            },
            {
              "$type": "IBACDLDFCND",
              "predicates": [
                {
                  "$type": "ByTargetGlobalValue",
                  "key": "_SEA_DRAGON_STAGE_",
                  "value": 3.0
                }
              ],
              "enable": true,
              "specialCameraName": "StunFocus",
              "frameDelay": 1,
              "lockTrans": ""
            }
          ]
        }
      }
    }
  },
  {
    "Default": {
      "$type": "ConfigAbility",
      "abilityName": "FauneAbyssale_SeaHorse_Primo_BossEvent_CoralGadget",
      "abilityMixins": [
        {
          "$type": "AttachModifierToGlobalValueMixin",
          "globalValueTarget": "Owner",
          "globalValueKey": "_CORAL_GADGET_NOT_EXIST_",
          "valueSteps": [-0.5, 0.5, 1.5],
          "modifierNameSteps": ["Coral_Dummy", "Coral_KillSelf"]
        }
      ],
      "modifiers": {
        "Coral_BornTimer": {
          "modifierName": "",
          "duration": 0.36000001430511475,
          "elementDurability": 100.0,
          "modifierMixins": [
            {
              "$type": "WindZoneMixin",
              "shapeName": "CircleR2H3",
              "strength": -10.0,
              "IAELBHDMINN": 5.0,
              "MMBCLAEOEFB": 0.0,
              "targetType": "Enemy",
              "modifierName": ""
            },
            {
              "$type": "AttachActionToModifierMixin",
              "onAdded": [
                {
                  "$type": "EnableHitBoxByName",
                  "hitBoxNames": ["HitBox"]
                },
                {
                  "$type": "EnablePushColliderName",
                  "pushColliderNames": ["PushCollider"]
                }
              ],
              "onRemoved": [
                {
                  "$type": "EnableHitBoxByName",
                  "hitBoxNames": ["HitBox"],
                  "setEnable": true
                },
                {
                  "$type": "EnablePushColliderName",
                  "pushColliderNames": ["PushCollider"],
                  "setEnable": true
                }
              ]
            }
          ],
          "state": "DenyLockOn",
          "onAdded": [
            {
              "$type": "FireEffect",
              "rotationDampTime": "Eff_Monster_FauneAbyssale_SeaHorse_Primo_BossEvent_Annihilation_Coral_Born",
              "PPPDJGDDOGD": 1.0,
              "AJDILHJFNKE": -1.0
            }
          ],
          "onRemoved": [
            {
              "$type": "ApplyModifier",
              "modifierName": "Coral_ELementalHandler"
            }
          ]
        },
        "Coral_ELementalHandler": {
          "modifierName": "",
          "elementType": "Electric",
          "elementDurability": 10.0,
          "modifierMixins": [
            {
              "$type": "ShieldBarMixin",
              "onShieldBroken": [
                {
                  "$type": "DLEIPBPNAIM",
                  "target": "Owner",
                  "paramList": [4, 2, 1]
                },
                {
                  "$type": "ApplyModifier",
                  "target": "Owner",
                  "modifierName": "SeaDragon_Coral_Broken"
                },
                {
                  "$type": "FireEffect",
                  "rotationDampTime": "Eff_Monster_FauneAbyssale_SeaHorse_Primo_Annihilation_Coral_Destroy",
                  "PPPDJGDDOGD": 1.0,
                  "AJDILHJFNKE": -1.0
                },
                {
                  "$type": "KillSelf"
                }
              ],
              "showDamageText": "",
              "barElementType": "Electric"
            }
          ],
          "onAdded": [
            {
              "$type": "AttachEffect",
              "rotationDampTime": "Eff_Monster_FauneAbyssale_SeaHorse_Primo_BossEvent_Annihilation_Coral",
              "PPPDJGDDOGD": 1.0,
              "AJDILHJFNKE": -1.0
            },
            {
              "$type": "AttachModifier",
              "modifierName": "Coral_Line_VFX"
            }
          ]
        },
        "Coral_Line_VFX": {
          "modifierName": "",
          "elementDurability": 100.0,
          "onAdded": [
            {
              "$type": "AttachEffect",
              "target": "Owner",
              "rotationDampTime": "Eff_Monster_FauneAbyssale_SeaHorse_Primo_Annihilation_Coral_Line",
              "born": {
                "$type": "ConfigBornByAttachPoint",
                "direction": {
                  "$type": "ConfigDirectionByAttachPoint",
                  "attachPointName": "LinePoint",
                  "attachPointTargetType": "Caster"
                },
                "useRotation": true,
                "attachPointName": "Horn"
              },
              "PPPDJGDDOGD": 1.0,
              "AJDILHJFNKE": -1.0,
              "setSelfAsEffectPluginTarget": true
            }
          ]
        },
        "SeaDragon_Coral_Broken": {
          "stacking": "Multiple",
          "modifierName": "",
          "duration": 0.10000000149011612,
          "elementDurability": 100.0,
          "onAdded": [
            {
              "$type": "TriggerAbility",
              "otherTargets": {
                "$type": "SelectTargetsByChildren",
                "topLimit": 1,
                "sortType": "Nearest",
                "configID": 42601132
              },
              "abilityName": "FauneAbyssale_SeaHorse_Primo_BossEvent_PearlGadget_MinusElement"
            }
          ]
        },
        "Coral_KillSelf": {
          "modifierName": "",
          "elementDurability": 100.0,
          "onAdded": [
            {
              "$type": "FireEffect",
              "rotationDampTime": "Eff_Monster_FauneAbyssale_SeaHorse_Primo_Annihilation_Coral_Destroy",
              "PPPDJGDDOGD": 1.0,
              "AJDILHJFNKE": -1.0
            },
            {
              "$type": "KillSelf"
            }
          ]
        },
        "Coral_Dummy": {
          "modifierName": "",
          "elementDurability": 100.0
        },
        "Kill_Summon_Gadget": {
          "modifierName": "",
          "elementDurability": 100.0,
          "onAdded": [
            {
              "$type": "KillSelf"
            }
          ]
        }
      },
      "onAdded": [
        {
          "$type": "ApplyModifier",
          "modifierName": "Coral_BornTimer"
        },
        {
          "$type": "ApplyModifier",
          "otherTargets": {
            "$type": "SelectTargetsByShape",
            "shapeName": "CircleR4H4",
            "campTargetType": "All",
            "doOffStage": 1.0
          },
          "predicates": [
            {
              "$type": "ByTargetGlobalValue",
              "key": "_COMMON_GADGET_ISSUMMON",
              "value": 0.0,
              "compareType": "MoreThan"
            }
          ],
          "modifierName": "Kill_Summon_Gadget"
        }
      ]
    }
  },
  {
    "Default": {
      "$type": "ConfigAbility",
      "abilityName": "FauneAbyssale_SeaHorse_Primo_BossEvent_PearlStateManager",
      "abilityMixins": [
        {
          "$type": "AttachModifierToSelfGlobalValueMixin",
          "globalValueKey": "_SEA_DRAGON_STAGE_",
          "gvInTalk": 0.0,
          "valueSteps": [-0.5, 0.5, 2.5, 4.5],
          "modifierNameSteps": [
            "SeaDragon_BeforeBattle",
            "SeaDragon_PearlState",
            "SeaDragon_Broken"
          ]
        },
        {
          "$type": "AttachModifierToGlobalValueMixin",
          "globalValueKey": "_SEA_DRAGON_STAGE_",
          "valueSteps": [-0.5, 1.5, 2.5, 3.5, 4.5],
          "modifierNameSteps": [
            "SeaDragon_Stage_PearlShield_1",
            "SeaDragon_Stage_TryAnnihilation_2",
            "SeaDragon_Stage_Broken_3",
            "SeaDragon_Stage_TryRecover_4"
          ]
        },
        {
          "$type": "EAKJOFAIAPH",
          "poseIDs": [901],
          "enterActions": [
            {
              "$type": "SetGlobalValue",
              "value": 0.0,
              "key": "_SEA_DRAGON_STAGE_",
              "maxValue": 0.0,
              "minValue": 0.0
            },
            {
              "$type": "SetGlobalValue",
              "value": 1.0,
              "key": "_CORAL_GADGET_NOT_EXIST_",
              "maxValue": 0.0,
              "minValue": 0.0
            },
            {
              "$type": "SetGlobalValue",
              "value": 0.0,
              "key": "_SHIELD_RECOVERED_",
              "maxValue": 0.0,
              "minValue": 0.0
            },
            {
              "$type": "SetGlobalValue",
              "value": 0.0,
              "key": "_DISABLE_ANNIHILATION_",
              "maxValue": 0.0,
              "minValue": 0.0
            },
            {
              "$type": "IDNGFEEBPAM",
              "boolID": "AlertConfirm"
            },
            {
              "$type": "SetAnimatorTrigger",
              "triggerID": "ReturnToBorn",
              "mpTriggerOnRemote": true
            }
          ]
        }
      ],
      "abilitySpecials": {
        "sub_hurt_delta_positive": 0.0,
        "sub_hurt_delta_positive_before_battle": 2.0,
        "broken_state_duration": 0.0
      },
      "modifiers": {
        "SeaDragon_BeforeBattle": {
          "modifierName": "",
          "elementDurability": 100.0,
          "properties": {
            "Actor_EndureDelta": 0.0010000000474974513,
            "Actor_PhysicalSubHurtDelta": "sub_hurt_delta_positive_before_battle",
            "Actor_FireSubHurtDelta": "sub_hurt_delta_positive_before_battle",
            "Actor_ElecSubHurtDelta": "sub_hurt_delta_positive_before_battle",
            "Actor_IceSubHurtDelta": "sub_hurt_delta_positive_before_battle",
            "Actor_WaterSubHurtDelta": "sub_hurt_delta_positive_before_battle",
            "Actor_GrassSubHurtDelta": "sub_hurt_delta_positive_before_battle",
            "Actor_WindSubHurtDelta": "sub_hurt_delta_positive_before_battle",
            "Actor_RockSubHurtDelta": "sub_hurt_delta_positive_before_battle"
          },
          "onAdded": [
            {
              "$type": "HMIDGKNOHJM",
              "canBeHandledOnRecover": true,
              "renderNames": ["Chest", "Horn", "Shell", "Pearl"],
              "setEnable": true
            }
          ],
          "onRemoved": [
            {
              "$type": "Predicated",
              "targetPredicates": [
                {
                  "$type": "ByTargetGlobalValue",
                  "key": "SGV_EffigyChallenge_V5_AssistOptionSelected_3",
                  "value": 1.0
                }
              ],
              "successActions": [
                {
                  "$type": "SetOverrideMapValue",
                  "value": 30.0,
                  "overrideMapKey": "broken_state_duration",
                  "maxValue": 0.0,
                  "minValue": 0.0
                }
              ],
              "failActions": [
                {
                  "$type": "SetOverrideMapValue",
                  "value": 18.0,
                  "overrideMapKey": "broken_state_duration",
                  "maxValue": 0.0,
                  "minValue": 0.0
                }
              ]
            },
            {
              "$type": "Predicated",
              "targetPredicates": [
                {
                  "$type": "ByTargetGlobalValue",
                  "key": "SGV_EffigyChallenge_V5_AssistOptionSelected_4",
                  "value": 1.0
                }
              ],
              "successActions": [
                {
                  "$type": "SetOverrideMapValue",
                  "value": 0.800000011920929,
                  "overrideMapKey": "sub_hurt_delta_positive",
                  "maxValue": 0.0,
                  "minValue": 0.0
                }
              ],
              "failActions": [
                {
                  "$type": "SetOverrideMapValue",
                  "value": 1.350000023841858,
                  "overrideMapKey": "sub_hurt_delta_positive",
                  "maxValue": 0.0,
                  "minValue": 0.0
                }
              ]
            }
          ]
        },
        "SeaDragon_PearlState": {
          "modifierName": "",
          "elementDurability": 100.0,
          "properties": {
            "Actor_EndureDelta": 0.0010000000474974513,
            "Actor_PhysicalSubHurtDelta": "sub_hurt_delta_positive",
            "Actor_FireSubHurtDelta": "sub_hurt_delta_positive",
            "Actor_ElecSubHurtDelta": "sub_hurt_delta_positive",
            "Actor_IceSubHurtDelta": "sub_hurt_delta_positive",
            "Actor_WaterSubHurtDelta": "sub_hurt_delta_positive",
            "Actor_GrassSubHurtDelta": "sub_hurt_delta_positive",
            "Actor_WindSubHurtDelta": "sub_hurt_delta_positive",
            "Actor_RockSubHurtDelta": "sub_hurt_delta_positive"
          },
          "onAdded": [
            {
              "$type": "HMIDGKNOHJM",
              "canBeHandledOnRecover": true,
              "renderNames": ["Chest", "Horn", "Shell", "Pearl"],
              "setEnable": true
            },
            {
              "$type": "AttachEffect",
              "rotationDampTime": "Eff_Monster_FauneAbyssale_SeaHorse_Primo_Common_Pearl",
              "PPPDJGDDOGD": 1.0,
              "AJDILHJFNKE": -1.0
            },
            {
              "$type": "AttachEffect",
              "rotationDampTime": "Eff_Monster_FauneAbyssale_SeaHorse_Primo_Common_TrailWeak",
              "PPPDJGDDOGD": 1.0,
              "AJDILHJFNKE": -1.0
            }
          ],
          "onReconnect": [
            {
              "$type": "GCHLGDKBHCC",
              "gadgetInfo": {
                "configID": 42601119
              }
            },
            {
              "$type": "SetGlobalValue",
              "predicates": [
                {
                  "$type": "ByTargetGlobalValue",
                  "key": "_CORAL_GADGET_NOT_EXIST_",
                  "value": 0.0
                }
              ],
              "value": 1.0,
              "key": "_CORAL_GADGET_NOT_EXIST_",
              "maxValue": 0.0,
              "minValue": 0.0
            }
          ]
        },
        "SeaDragon_Broken": {
          "modifierName": "",
          "elementDurability": 100.0,
          "modifierMixins": [
            {
              "$type": "ReplaceEventPatternMixin",
              "oldPatterns": [
                "FauneAbyssale_SeaHorse_Primo_TailWhip01",
                "FauneAbyssale_SeaHorse_Primo_TailWhip02"
              ],
              "newPatterns": [
                "FauneAbyssale_SeaHorse_Primo_TailWhip01_NoElement",
                "FauneAbyssale_SeaHorse_Primo_TailWhip02_NoElement"
              ]
            }
          ],
          "onAdded": [
            {
              "$type": "HMIDGKNOHJM",
              "canBeHandledOnRecover": true,
              "renderNames": ["Chest", "Horn", "Shell", "Pearl"]
            }
          ]
        },
        "SeaDragon_Stage_PearlShield_1": {
          "modifierName": "",
          "elementDurability": 100.0,
          "onAdded": [
            {
              "$type": "GFFKENEJFFB",
              "intID": "StateControl",
              "value": 1
            },
            {
              "$type": "SetGlobalValue",
              "predicates": [
                {
                  "$type": "ByTargetGlobalValue",
                  "key": "_CORAL_GADGET_NOT_EXIST_",
                  "value": 0.0
                }
              ],
              "value": 1.0,
              "key": "_CORAL_GADGET_NOT_EXIST_",
              "maxValue": 0.0,
              "minValue": 0.0
            }
          ]
        },
        "SeaDragon_Stage_TryAnnihilation_2": {
          "modifierName": "",
          "elementDurability": 100.0,
          "onAdded": [
            {
              "$type": "GFFKENEJFFB",
              "intID": "StateControl",
              "value": 2
            }
          ],
          "onRemoved": [
            {
              "$type": "SetGlobalValue",
              "predicates": [
                {
                  "$type": "ByTargetGlobalValue",
                  "key": "_CORAL_GADGET_NOT_EXIST_",
                  "value": 0.0
                }
              ],
              "value": 1.0,
              "key": "_CORAL_GADGET_NOT_EXIST_",
              "maxValue": 0.0,
              "minValue": 0.0
            }
          ]
        },
        "SeaDragon_Stage_Broken_3": {
          "modifierName": "",
          "elementDurability": 100.0,
          "thinkInterval": "broken_state_duration",
          "onAdded": [
            {
              "$type": "GFFKENEJFFB",
              "intID": "StateControl",
              "value": 3
            },
            {
              "$type": "IBACDLDFCND",
              "enable": true,
              "specialCameraName": "BasicView",
              "frameDelay": 1,
              "lockTrans": ""
            },
            {
              "$type": "SetGlobalValue",
              "predicates": [
                {
                  "$type": "ByTargetGlobalValue",
                  "key": "_CORAL_GADGET_NOT_EXIST_",
                  "value": 0.0
                }
              ],
              "value": 1.0,
              "key": "_CORAL_GADGET_NOT_EXIST_",
              "maxValue": 0.0,
              "minValue": 0.0
            }
          ],
          "onThinkInterval": [
            {
              "$type": "SetGlobalValue",
              "value": 4.0,
              "key": "_SEA_DRAGON_STAGE_",
              "maxValue": 0.0,
              "minValue": 0.0
            }
          ]
        },
        "SeaDragon_Stage_TryRecover_4": {
          "modifierName": "",
          "elementDurability": 100.0,
          "onAdded": [
            {
              "$type": "GFFKENEJFFB",
              "intID": "StateControl",
              "value": 4
            },
            {
              "$type": "SetGlobalValue",
              "value": 1.0,
              "key": "_SHIELD_RECOVERED_",
              "maxValue": 0.0,
              "minValue": 0.0
            }
          ]
        }
      },
      "onAdded": [
        {
          "$type": "SetGlobalValue",
          "value": 0.0,
          "key": "_SHIELD_RECOVERED_",
          "maxValue": 0.0,
          "minValue": 0.0
        },
        {
          "$type": "SetGlobalValue",
          "value": 0.0,
          "key": "_DISABLE_ANNIHILATION_",
          "maxValue": 0.0,
          "minValue": 0.0
        },
        {
          "$type": "SetGlobalValue",
          "value": 1.0,
          "key": "_CORAL_GADGET_NOT_EXIST_",
          "maxValue": 0.0,
          "minValue": 0.0
        },
        {
          "$type": "AttachAbilityStateResistance",
          "shieldHP": true,
          "resistanceBuffDebuffs": [
            "ElementFreeze",
            "Struggle",
            "ElementPetrifaction"
          ]
        },
        {
          "$type": "CreateGadget",
          "sightGroupWithOwner": true,
          "lifeByOwnerV2": true,
          "gadgetID": 42601132,
          "byServer": true
        }
      ],
      "onAbilityStart": [
        {
          "$type": "DLEIPBPNAIM",
          "paramList": [4, 0, 1]
        },
        {
          "$type": "AHPEKICBIIL",
          "luaCallType": "CurGalleryControlGroup",
          "funcName": "SLC_EffigyChallenge_V5_SubChallengeAchieve",
          "param1": 0.0,
          "MGAMDEHMCOL": 0.0,
          "MMHOHAOGPLP": 0.0
        },
        {
          "$type": "SetGlobalValue",
          "value": 3.0,
          "key": "_SEA_DRAGON_STAGE_",
          "maxValue": 0.0,
          "minValue": 0.0
        },
        {
          "$type": "SetAnimatorTrigger",
          "triggerID": "BreakingTrigger"
        },
        {
          "$type": "FireEffect",
          "rotationDampTime": "Eff_Monster_FauneAbyssale_SeaHorse_Primo_Shield_Break",
          "PPPDJGDDOGD": 1.0,
          "AJDILHJFNKE": -1.0
        },
        {
          "$type": "DamageByAttackValue",
          "attackInfo": {
            "attackTag": "",
            "attenuationTag": "",
            "attenuationGroup": "default",
            "hitPattern": {
              "onHitEffectName": "default",
              "hitImpulseY": "",
              "hitImpulseType": "LV0",
              "hitHaltTime": 0.10000000149011612,
              "hitHaltTimeScale": 0.05000000074505806
            }
          }
        }
      ]
    }
  },
  {
    "Default": {
      "$type": "ConfigAbility",
      "abilityName": "FauneAbyssale_SeaHorse_Primo_BossEvent_PearlGadget",
      "abilityMixins": [
        {
          "$type": "AttachModifierToGlobalValueMixin",
          "globalValueTarget": "Owner",
          "globalValueKey": "_SEA_DRAGON_STAGE_",
          "valueSteps": [-0.5, 0.5, 2.5, 4.5],
          "modifierNameSteps": [
            "PearlGadget_Broken",
            "UNIQUE_PearlGadget_BossEvent_Handler",
            "PearlGadget_Broken"
          ],
          "removeAppliedModifierTargetDisappear": false
        },
        {
          "$type": "AttachModifierToGlobalValueMixin",
          "globalValueTarget": "Owner",
          "globalValueKey": "_SHIELD_RECOVERED_",
          "valueSteps": [-0.5, 0.5, 1.5],
          "modifierNameSteps": [
            "Shield_Recovered_False",
            "Shield_Recovered_True"
          ]
        }
      ],
      "abilitySpecials": {
        "element_durability_max": 475.0,
        "element_durability_threshold": 175.0,
        "element_durability_weaken_ratio": 1.0
      },
      "modifiers": {
        "UNIQUE_PearlGadget_BossEvent_Handler": {
          "stacking": "Unique",
          "modifierName": "",
          "forceTriggerWhenChangeAuthority": true,
          "elementType": "Electric",
          "elementDurability": [
            "element_durability_max",
            "element_durability_weaken_ratio",
            "MUL"
          ],
          "modifierMixins": [
            {
              "$type": "ShieldBarMixin",
              "onShieldBroken": [
                {
                  "$type": "TriggerAbility",
                  "target": "Owner",
                  "abilityName": "FauneAbyssale_SeaHorse_Primo_BossEvent_PearlStateManager"
                }
              ],
              "showDamageText": "",
              "barElementType": "Electric"
            },
            {
              "$type": "AttachModifierToElementDurabilityMixin",
              "valueSteps": [
                0.10000000149011612,
                [
                  "element_durability_threshold",
                  "element_durability_weaken_ratio",
                  "MUL"
                ],
                ["element_durability_max", 1.0, "ADD"]
              ],
              "modifierNameSteps": ["Elem_LowDuration", "Elem_Dummy"]
            },
            {
              "$type": "JEBJLNFFPBC",
              "attackTags": [
                "Swirl_ElectricDamage",
                "Swirl_WaterDamage",
                "Swirl_IceDamage",
                "Swirl_FireDamage"
              ]
            }
          ],
          "onAdded": [
            {
              "$type": "EnableHitBoxByName",
              "hitBoxNames": ["HitBox"],
              "setEnable": true
            },
            {
              "$type": "HBNEMPLJCMB"
            },
            {
              "$type": "RemoveModifier",
              "target": "Owner",
              "modifierName": "SeaDragon_ToStage2"
            }
          ],
          "onBeingHit": [
            {
              "$type": "Predicated",
              "target": "Target",
              "targetPredicates": [
                {
                  "$type": "ByAny",
                  "predicates": [
                    {
                      "$type": "ByHitElement",
                      "target": "Self",
                      "element": "Ice"
                    },
                    {
                      "$type": "ByHitElement",
                      "target": "Self",
                      "element": "Grass"
                    },
                    {
                      "$type": "ByHitElement",
                      "target": "Self",
                      "element": "Fire"
                    }
                  ]
                }
              ],
              "successActions": [
                {
                  "$type": "ActCameraShake",
                  "cameraShake": {
                    "shakeRange": 0.3499999940395355,
                    "shakeTime": 0.20000000298023224,
                    "shakeDistance": 10.0
                  }
                },
                {
                  "$type": "FireEffect",
                  "rotationDampTime": "Eff_Monster_FauneAbyssale_SeaHorse_Primo_Shield_CorrectElementHit",
                  "born": {
                    "$type": "ConfigBornByAttachPoint",
                    "useRotation": true,
                    "attachPointName": "RootNode"
                  },
                  "PPPDJGDDOGD": 1.0,
                  "AJDILHJFNKE": -1.0
                }
              ]
            }
          ],
          "forceSyncToRemote": true
        },
        "PearlGadget_Broken": {
          "modifierName": "",
          "elementDurability": 100.0,
          "state": "IsGhostToEnemy",
          "onAdded": [
            {
              "$type": "EnableHitBoxByName",
              "hitBoxNames": ["HitBox"]
            },
            {
              "$type": "HBNEMPLJCMB",
              "hide": true
            }
          ],
          "onRemoved": [
            {
              "$type": "SetOverrideMapValue",
              "value": 475.0,
              "overrideMapKey": "element_durability_max",
              "maxValue": 0.0,
              "minValue": 0.0
            },
            {
              "$type": "SetGlobalValue",
              "value": [
                "element_durability_max",
                "element_durability_weaken_ratio",
                "MUL"
              ],
              "key": "MAX_SHIELD_DURABILITY",
              "maxValue": 0.0,
              "minValue": 0.0
            }
          ]
        },
        "Shield_Recovered_False": {
          "modifierName": "",
          "elementDurability": 100.0,
          "onAdded": [
            {
              "$type": "SetOverrideMapValue",
              "value": 1.0,
              "overrideMapKey": "element_durability_weaken_ratio",
              "maxValue": 0.0,
              "minValue": 0.0
            },
            {
              "$type": "SetGlobalValue",
              "value": [
                "element_durability_max",
                "element_durability_weaken_ratio",
                "MUL"
              ],
              "key": "MAX_SHIELD_DURABILITY",
              "maxValue": 0.0,
              "minValue": 0.0
            }
          ]
        },
        "Shield_Recovered_True": {
          "modifierName": "",
          "elementDurability": 100.0,
          "onAdded": [
            {
              "$type": "SetOverrideMapValue",
              "value": 0.699999988079071,
              "overrideMapKey": "element_durability_weaken_ratio",
              "maxValue": 0.0,
              "minValue": 0.0
            },
            {
              "$type": "SetGlobalValue",
              "value": [
                "element_durability_max",
                "element_durability_weaken_ratio",
                "MUL"
              ],
              "key": "MAX_SHIELD_DURABILITY",
              "maxValue": 0.0,
              "minValue": 0.0
            }
          ]
        },
        "Elem_Dummy": {
          "modifierName": "",
          "elementDurability": 100.0
        },
        "Elem_LowDuration": {
          "modifierName": "",
          "elementDurability": 100.0,
          "onAdded": [
            {
              "$type": "ApplyModifier",
              "target": "Owner",
              "modifierName": "SeaDragon_ToStage2"
            }
          ]
        },
        "SeaDragon_ToStage2": {
          "stacking": "Unique",
          "modifierName": "",
          "elementDurability": 100.0,
          "onAdded": [
            {
              "$type": "Predicated",
              "targetPredicates": [
                {
                  "$type": "ByTargetGlobalValue",
                  "key": "_DISABLE_ANNIHILATION_",
                  "value": 1.0
                }
              ],
              "successActions": [
                {
                  "$type": "SetGlobalValue",
                  "value": 0.0,
                  "key": "_DISABLE_ANNIHILATION_",
                  "maxValue": 0.0,
                  "minValue": 0.0
                }
              ],
              "failActions": [
                {
                  "$type": "SetGlobalValue",
                  "value": 2.0,
                  "key": "_SEA_DRAGON_STAGE_",
                  "maxValue": 0.0,
                  "minValue": 0.0
                }
              ]
            }
          ]
        }
      },
      "onAdded": [
        {
          "$type": "SetGlobalValue",
          "value": 0.0,
          "key": "_CURRENT_SHIELD_DURABILITY_",
          "maxValue": 0.0,
          "minValue": 0.0
        }
      ],
      "onAbilityStart": [
        {
          "$type": "ONHNLNNAJBN",
          "globalValueKey": "_CURRENT_SHIELD_DURABILITY_",
          "maxValue": 0.0,
          "minValue": 0.0,
          "modifierName": "UNIQUE_PearlGadget_BossEvent_Handler"
        }
      ]
    }
  },
  {
    "Default": {
      "$type": "ConfigAbility",
      "abilityName": "FauneAbyssale_SeaHorse_Primo_BossEvent_PearlGadget_PlusElement",
      "abilitySpecials": {
        "current_shield_durability": 0.0,
        "max_shield_durability": 0.0
      },
      "onAbilityStart": [
        {
          "$type": "SetGlobalValueToOverrideMap",
          "globalValueKey": "_CURRENT_SHIELD_DURABILITY_",
          "overrideMapKey": "current_shield_durability"
        },
        {
          "$type": "SetGlobalValueToOverrideMap",
          "globalValueKey": "MAX_SHIELD_DURABILITY",
          "overrideMapKey": "max_shield_durability"
        },
        {
          "$type": "AddElementDurability",
          "value": ["current_shield_durability", 4.0, "DIV", 50.0, "ADD"],
          "modifierName": "UNIQUE_PearlGadget_BossEvent_Handler",
          "useLimitRange": true,
          "maxValue": "max_shield_durability",
          "minValue": 0.0
        }
      ]
    }
  },
  {
    "Default": {
      "$type": "ConfigAbility",
      "abilityName": "FauneAbyssale_SeaHorse_Primo_BossEvent_PearlGadget_MinusElement",
      "abilitySpecials": {
        "current_shield_durability": 0.0,
        "max_shield_durability": 0.0
      },
      "onAbilityStart": [
        {
          "$type": "SetGlobalValueToOverrideMap",
          "globalValueKey": "_CURRENT_SHIELD_DURABILITY_",
          "overrideMapKey": "current_shield_durability"
        },
        {
          "$type": "SetGlobalValueToOverrideMap",
          "globalValueKey": "MAX_SHIELD_DURABILITY",
          "overrideMapKey": "max_shield_durability"
        },
        {
          "$type": "AddElementDurability",
          "value": [
            0.0,
            1.0,
            "current_shield_durability",
            "MUL",
            4.0,
            "DIV",
            "SUB",
            0.009999999776482582,
            "SUB"
          ],
          "modifierName": "UNIQUE_PearlGadget_BossEvent_Handler",
          "useLimitRange": true,
          "maxValue": "max_shield_durability",
          "minValue": 0.0
        }
      ]
    }
  },
  {
    "Default": {
      "$type": "ConfigAbility",
      "abilityName": "FauneAbyssale_SeaHorse_Primo_BossEvent_CameraManager",
      "abilityMixins": [
        {
          "$type": "AOKOIIHJJPJ",
          "alertness": [2, 3],
          "modifierName": "Camera_Manager"
        }
      ],
      "modifiers": {
        "Camera_Manager": {
          "modifierName": "",
          "elementDurability": 100.0,
          "modifierMixins": [
            {
              "$type": "APJKOLPHCGH",
              "stateIDs": ["Standby", "LeapingStab_AS"],
              "enterActions": [
                {
                  "$type": "IBACDLDFCND",
                  "enable": true,
                  "specialCameraName": "BasicView",
                  "frameDelay": 1,
                  "lockTrans": ""
                }
              ],
              "DGFCLAIDIFI": ""
            },
            {
              "$type": "DIDNLIKKLLF",
              "stateIDs": [
                "Annihilation_BS",
                "Annihilation_Jump",
                "Annihilation_FarJump",
                "Annihilation_JumpEnd",
                "Annihilation_Cast",
                "Annihilation_Loop"
              ],
              "enterActions": [
                {
                  "$type": "IBACDLDFCND",
                  "enable": true,
                  "specialCameraName": "AnnihilationView",
                  "frameDelay": 1,
                  "lockTrans": ""
                }
              ],
              "DGFCLAIDIFI": ""
            },
            {
              "$type": "APJKOLPHCGH",
              "stateIDs": ["LeapingStab_03"],
              "enterActions": [
                {
                  "$type": "IBACDLDFCND",
                  "enable": true,
                  "specialCameraName": "LeapingStabView",
                  "frameDelay": 1,
                  "lockTrans": ""
                }
              ],
              "DGFCLAIDIFI": ""
            },
            {
              "$type": "APJKOLPHCGH",
              "stateIDs": ["ShieldRecover"],
              "enterActions": [
                {
                  "$type": "IBACDLDFCND",
                  "enable": true,
                  "specialCameraName": "ShieldRecoverView",
                  "frameDelay": 1,
                  "lockTrans": ""
                }
              ],
              "DGFCLAIDIFI": ""
            }
          ],
          "onAdded": [
            {
              "$type": "IBACDLDFCND",
              "enable": true,
              "specialCameraName": "BasicView",
              "frameDelay": 1,
              "lockTrans": ""
            }
          ],
          "onReconnect": [
            {
              "$type": "IBACDLDFCND",
              "enable": true,
              "specialCameraName": "BasicView",
              "frameDelay": 1,
              "lockTrans": ""
            }
          ]
        }
      },
      "onAbilityStart": [
        {
          "$type": "IBACDLDFCND",
          "enable": true,
          "specialCameraName": "BasicView",
          "frameDelay": 1,
          "lockTrans": ""
        }
      ]
    }
  },
  {
    "Default": {
      "$type": "ConfigAbility",
      "abilityName": "FauneAbyssale_SeaHorse_Primo_BossEvent_FlyPoseManager",
      "abilityMixins": [
        {
          "$type": "LCMONECFEBO",
          "steerStateIDs": ["Annihilation_BS"],
          "endNormalizedTime": 0.4000000059604645,
          "angularSpeed": 250.0,
          "attackTrigger": "",
          "DGFCLAIDIFI": "",
          "globalPosKey": "_CENTER_POS"
        },
        {
          "$type": "DIDNLIKKLLF",
          "stateIDs": ["Annihilation_Jump"],
          "enterActions": [
            {
              "$type": "TurnDirectionToPos",
              "toPos": {
                "$type": "ConfigBornByGlobalValue",
                "positionKey": "_CENTER_POS",
                "directionKey": ""
              }
            },
            {
              "$type": "PAGFCBCKEBH",
              "toPos": {
                "$type": "ConfigBornByGlobalValue",
                "positionKey": "_CENTER_POS",
                "directionKey": ""
              },
              "NKPCHMCNNOK": 1.1200000047683716,
              "maxRange": -1.0,
              "animatorStateIDs": ["Annihilation_Jump", "Annihilation_JumpEnd"],
              "overrideMoveCollider": ""
            }
          ],
          "DGFCLAIDIFI": ""
        },
        {
          "$type": "DIDNLIKKLLF",
          "stateIDs": ["Annihilation_FarJump"],
          "enterActions": [
            {
              "$type": "TurnDirectionToPos",
              "toPos": {
                "$type": "ConfigBornByGlobalValue",
                "positionKey": "_CENTER_POS",
                "directionKey": ""
              }
            },
            {
              "$type": "PAGFCBCKEBH",
              "toPos": {
                "$type": "ConfigBornByGlobalValue",
                "positionKey": "_CENTER_POS",
                "directionKey": ""
              },
              "NKPCHMCNNOK": 1.6200000047683716,
              "maxRange": -1.0,
              "animatorStateIDs": [
                "Annihilation_FarJump",
                "Annihilation_JumpEnd"
              ],
              "overrideMoveCollider": ""
            }
          ],
          "DGFCLAIDIFI": ""
        },
        {
          "$type": "AttachToStateIDMixin",
          "stateIDs": [
            "Annihilation_BS",
            "Annihilation_Jump",
            "Annihilation_JumpEnd",
            "Annihilation_Cast",
            "Annihilation_Loop"
          ],
          "modifierName": "Annihilation_Change_Weather_Handler",
          "DGFCLAIDIFI": ""
        },
        {
          "$type": "IILHMBGONGM",
          "steerStateIDs": ["Annihilation_AS"],
          "startNormalizedTime": 0.4429999887943268,
          "endNormalizedTime": 0.7099999785423279,
          "angularSpeed": 55.0,
          "attackTrigger": "",
          "DGFCLAIDIFI": ""
        },
        {
          "$type": "IILHMBGONGM",
          "steerStateIDs": ["Alert"],
          "startNormalizedTime": 0.37299999594688416,
          "endNormalizedTime": 0.44999998807907104,
          "angularSpeed": 160.0,
          "attackTrigger": "",
          "DGFCLAIDIFI": ""
        },
        {
          "$type": "IILHMBGONGM",
          "steerStateIDs": ["Alert"],
          "startNormalizedTime": 0.44999998807907104,
          "endNormalizedTime": 0.7099999785423279,
          "angularSpeed": 60.0,
          "attackTrigger": "",
          "DGFCLAIDIFI": ""
        },
        {
          "$type": "IILHMBGONGM",
          "steerStateIDs": ["TailWhip01"],
          "startNormalizedTime": 0.05000000074505806,
          "endNormalizedTime": 0.20000000298023224,
          "angularSpeed": 90.0,
          "attackTrigger": "",
          "DGFCLAIDIFI": ""
        },
        {
          "$type": "IILHMBGONGM",
          "steerStateIDs": ["TailWhip01"],
          "startNormalizedTime": 0.27000001072883606,
          "endNormalizedTime": 0.8999999761581421,
          "angularSpeed": 360.0,
          "attackTrigger": "",
          "DGFCLAIDIFI": ""
        },
        {
          "$type": "IILHMBGONGM",
          "steerStateIDs": ["TailWhip01"],
          "startNormalizedTime": 0.5199999809265137,
          "endNormalizedTime": 0.6899999976158142,
          "angularSpeed": 90.0,
          "attackTrigger": "",
          "DGFCLAIDIFI": ""
        },
        {
          "$type": "IILHMBGONGM",
          "steerStateIDs": ["TailWhipTrans"],
          "angularSpeed": 400.0,
          "attackTrigger": "",
          "DGFCLAIDIFI": ""
        },
        {
          "$type": "IILHMBGONGM",
          "steerStateIDs": ["TailWhip02"],
          "startNormalizedTime": 0.10000000149011612,
          "endNormalizedTime": 0.18700000643730164,
          "angularSpeed": 120.0,
          "attackTrigger": "",
          "DGFCLAIDIFI": ""
        },
        {
          "$type": "IILHMBGONGM",
          "steerStateIDs": ["TailWhip02"],
          "startNormalizedTime": 0.23199999332427979,
          "endNormalizedTime": 0.3100000023841858,
          "angularSpeed": 410.0,
          "attackTrigger": "",
          "DGFCLAIDIFI": ""
        },
        {
          "$type": "IILHMBGONGM",
          "steerStateIDs": ["TailWhip02"],
          "startNormalizedTime": 0.3499999940395355,
          "endNormalizedTime": 0.5669999718666077,
          "angularSpeed": 60.0,
          "attackTrigger": "",
          "DGFCLAIDIFI": ""
        },
        {
          "$type": "IILHMBGONGM",
          "steerStateIDs": ["FishBarrage"],
          "endNormalizedTime": 0.699999988079071,
          "angularSpeed": 75.0,
          "attackTrigger": "",
          "DGFCLAIDIFI": ""
        },
        {
          "$type": "IILHMBGONGM",
          "steerStateIDs": ["ElectronCharge_BS"],
          "startNormalizedTime": 0.20999999344348907,
          "angularSpeed": 120.0,
          "attackTrigger": "",
          "DGFCLAIDIFI": ""
        },
        {
          "$type": "IILHMBGONGM",
          "steerStateIDs": ["ElectronCharge"],
          "endNormalizedTime": 0.2800000011920929,
          "angularSpeed": 60.0,
          "attackTrigger": "",
          "DGFCLAIDIFI": ""
        },
        {
          "$type": "IILHMBGONGM",
          "steerStateIDs": ["ElectronChargeWeak"],
          "endNormalizedTime": 0.30000001192092896,
          "angularSpeed": 36.0,
          "attackTrigger": "",
          "DGFCLAIDIFI": ""
        },
        {
          "$type": "IILHMBGONGM",
          "steerStateIDs": ["LeapingStab_01"],
          "startNormalizedTime": 0.5,
          "angularSpeed": 160.0,
          "attackTrigger": "",
          "DGFCLAIDIFI": ""
        },
        {
          "$type": "IILHMBGONGM",
          "steerStateIDs": ["LeapingStab_01"],
          "startNormalizedTime": 0.7900000214576721,
          "angularSpeed": 75.0,
          "attackTrigger": "",
          "DGFCLAIDIFI": ""
        },
        {
          "$type": "IILHMBGONGM",
          "steerStateIDs": ["LeapingStab_02"],
          "angularSpeed": 75.0,
          "attackTrigger": "",
          "DGFCLAIDIFI": ""
        },
        {
          "$type": "LCMONECFEBO",
          "steerStateIDs": ["LeapingStab_03"],
          "endNormalizedTime": 0.4000000059604645,
          "angularSpeed": 400.0,
          "attackTrigger": "",
          "DGFCLAIDIFI": "",
          "globalPosKey": "_STAB_POS"
        },
        {
          "$type": "IILHMBGONGM",
          "steerStateIDs": ["LeapingStab_AS"],
          "startNormalizedTime": 0.3310000002384186,
          "endNormalizedTime": 0.4000000059604645,
          "angularSpeed": 250.0,
          "attackTrigger": "",
          "DGFCLAIDIFI": ""
        },
        {
          "$type": "IILHMBGONGM",
          "steerStateIDs": ["LeapingStab_AS"],
          "startNormalizedTime": 0.4000000059604645,
          "angularSpeed": 40.0,
          "attackTrigger": "",
          "DGFCLAIDIFI": ""
        },
        {
          "$type": "IILHMBGONGM",
          "steerStateIDs": ["ShieldRecover"],
          "endNormalizedTime": 0.6119999885559082,
          "angularSpeed": 45.0,
          "attackTrigger": "",
          "DGFCLAIDIFI": ""
        },
        {
          "$type": "IILHMBGONGM",
          "steerStateIDs": ["ShieldRecover"],
          "startNormalizedTime": 0.6119999885559082,
          "endNormalizedTime": 0.6700000166893005,
          "angularSpeed": 600.0,
          "attackTrigger": "",
          "DGFCLAIDIFI": ""
        },
        {
          "$type": "IILHMBGONGM",
          "steerStateIDs": ["ShieldRecover"],
          "startNormalizedTime": 0.7860000133514404,
          "endNormalizedTime": 0.9100000262260437,
          "angularSpeed": 40.0,
          "attackTrigger": "",
          "DGFCLAIDIFI": ""
        },
        {
          "$type": "DIDNLIKKLLF",
          "stateIDs": ["LeapingStab_03"],
          "enterActions": [
            {
              "$type": "SetGlobalPos",
              "target": "SelfAttackActiveTarget",
              "key": "_STAB_POS",
              "born": {
                "$type": "ConfigBornByTargetLinearPoint",
                "linearOffset": 0.5,
                "linearMin": 0.0,
                "linearMax": 15.0
              },
              "setTarget": false
            },
            {
              "$type": "FireEffect",
              "rotationDampTime": "Eff_Monster_FauneAbyssale_SeaHorse_Primo_LeapingStab_WarningCircle",
              "born": {
                "$type": "ConfigBornByGlobalValue",
                "positionKey": "_STAB_POS",
                "directionKey": ""
              },
              "PPPDJGDDOGD": 1.0,
              "AJDILHJFNKE": -1.0
            }
          ],
          "DGFCLAIDIFI": ""
        },
        {
          "$type": "DIDNLIKKLLF",
          "stateIDs": ["LeapingStab_AS"],
          "enterActions": [
            {
              "$type": "Predicated",
              "targetPredicates": [
                {
                  "$type": "ByTargetGlobalValue",
                  "target": "Self",
                  "key": "_IS_IN_ABYSS",
                  "value": 1.0
                }
              ],
              "successActions": [
                {
                  "$type": "NCJONJCDFEA",
                  "tileName": "Monster_FauneAbyssale_Seahorse_Primo_Tile_Dungeon",
                  "attackPattern": {
                    "$type": "ConfigAttackSphere",
                    "triggerType": "TriggerNoRepeat",
                    "radius": 6.599999904632568
                  }
                }
              ],
              "failActions": [
                {
                  "$type": "NCJONJCDFEA",
                  "tileName": "Monster_FauneAbyssale_Seahorse_Primo_Tile",
                  "attackPattern": {
                    "$type": "ConfigAttackSphere",
                    "triggerType": "TriggerNoRepeat",
                    "radius": 6.599999904632568
                  }
                }
              ]
            }
          ],
          "DGFCLAIDIFI": ""
        },
        {
          "$type": "AttachToAnimatorStateIDMixin",
          "stateIDs": [
            "LeapingStab_02",
            "LeapingStab_03",
            "Annihilation_Jump",
            "Annihilation_FarJump"
          ],
          "modifierName": "Trail_VFX",
          "DGFCLAIDIFI": ""
        },
        {
          "$type": "AttachToAnimatorStateIDMixin",
          "stateIDs": ["LeapingStab_03"],
          "modifierName": "Elbow_VFX",
          "DGFCLAIDIFI": ""
        }
      ],
      "modifiers": {
        "Trail_VFX": {
          "modifierName": "",
          "elementDurability": 100.0,
          "onAdded": [
            {
              "$type": "AttachEffect",
              "rotationDampTime": "Eff_Monster_FauneAbyssale_SeaHorse_Primo_Common_Trail",
              "PPPDJGDDOGD": 1.0,
              "AJDILHJFNKE": -1.0
            }
          ]
        },
        "Elbow_VFX": {
          "modifierName": "",
          "elementDurability": 100.0,
          "onAdded": [
            {
              "$type": "AttachEffect",
              "rotationDampTime": "Eff_Monster_FauneAbyssale_SeaHorse_Primo_LeapingStab_BS",
              "PPPDJGDDOGD": 1.0,
              "AJDILHJFNKE": -1.0
            },
            {
              "$type": "MAHNJJFLACM",
              "followPath": "ElbowR",
              "rotationDampTime": "Eff_Monster_FauneAbyssale_SeaHorse_Primo_LeapingStab_BS",
              "attachPoint": ""
            },
            {
              "$type": "AttachEffect",
              "rotationDampTime": "Eff_Monster_FauneAbyssale_SeaHorse_Primo_LeapingStab_BS",
              "PPPDJGDDOGD": 1.0,
              "AJDILHJFNKE": -1.0
            }
          ]
        },
        "Annihilation_Change_Weather_Handler": {
          "modifierName": "",
          "elementDurability": 100.0,
          "onAdded": [
            {
              "$type": "AttachModifier",
              "target": "AllTeams",
              "predicates": [
                {
                  "$type": "ByIsCombat"
                }
              ],
              "modifierName": "Annihilation_Change_Weather"
            }
          ]
        },
        "Annihilation_Change_Weather": {
          "modifierName": "",
          "elementDurability": 100.0,
          "modifierMixins": [
            {
              "$type": "TriggerWeatherMixin",
              "damageRatio": "Skill",
              "weatherPattern": "Weather_Monster_SeaHorse_Primo_Annihilation"
            }
          ]
        }
      },
      "onAdded": [
        {
          "$type": "SetGlobalPos",
          "key": "_CENTER_POS",
          "born": {
            "$type": "ConfigBornBySelf",
            "useRotation": true
          }
        }
      ],
      "onAbilityStart": [
        {
          "$type": "PAGFCBCKEBH",
          "toPos": {
            "$type": "ConfigBornByGlobalValue",
            "positionKey": "_STAB_POS",
            "directionKey": ""
          },
          "NKPCHMCNNOK": 0.36000001430511475,
          "maxRange": -1.0,
          "animatorStateIDs": ["LeapingStab_03"],
          "overrideMoveCollider": "",
          "exactArrive": true
        },
        {
          "$type": "DOANGHCALGB",
          "skillIDs": [701, 702]
        }
      ]
    }
  },
  {
    "Default": {
      "$type": "ConfigAbility",
      "abilityName": "FauneAbyssale_SeaHorse_Primo_BossEvent_Alert",
      "onAbilityStart": [
        {
          "$type": "SetGlobalValue",
          "value": 1.0,
          "key": "_SEA_DRAGON_STAGE_",
          "maxValue": 0.0,
          "minValue": 0.0
        },
        {
          "$type": "IDNGFEEBPAM",
          "boolID": "AlertConfirm",
          "value": true
        },
        {
          "$type": "DLEIPBPNAIM",
          "paramList": [4, 0, 2]
        }
      ]
    }
  }
]
