[
  {
    "Default": {
      "$type": "ConfigAbility",
      "abilityName": "Monster_Apep_Underling_SeedOfKarna_CommonState",
      "abilityMixins": [
        {
          "$type": "AttachModifierToSelfGlobalValueMixin",
          "globalValueKey": "_MONSTER_Apep_Underling_SeedOfKarna_AttackMode",
          "gvInTalk": 0.0,
          "valueSteps": [0.5, 1.5, 2.5],
          "modifierNameSteps": ["MeleeMode", "RangeMode"]
        },
        {
          "$type": "AttachModifierToSelfGlobalValueNoInitMixin",
          "globalValueKey": "SGV_Apep_Underling_AttackMode",
          "valueSteps": [0.5, 1.5, 2.5],
          "modifierNameSteps": ["MeleeMode_LevelSet", "RangeMode_LevelSet"]
        },
        {
          "$type": "AttachModifierToSelfGlobalValueMixin",
          "globalValueKey": "_MONSTER_Apep_Underling_QuestTag",
          "gvInTalk": 0.0,
          "valueSteps": [-0.5, 0.5, 1.5],
          "modifierNameSteps": ["Empty", "MeleeMode_QuestSet"]
        }
      ],
      "modifiers": {
        "Monster_Apep_Underling_SeedOfKarna_CommonState": {
          "modifierName": "",
          "elementDurability": 100.0,
          "onAdded": [
            {
              "$type": "SetGlobalValue",
              "value": 1.0,
              "key": "_MONSTER_Apep_Underling_SeedOfKarna_Tag",
              "maxValue": 0.0,
              "minValue": 0.0
            }
          ]
        },
        "MeleeMode": {
          "modifierName": "",
          "elementDurability": 100.0,
          "onAdded": [
            {
              "$type": "IDNGFEEBPAM",
              "boolID": "MeleeMode",
              "value": true
            }
          ]
        },
        "RangeMode": {
          "modifierName": "",
          "elementDurability": 100.0,
          "onAdded": [
            {
              "$type": "IDNGFEEBPAM",
              "boolID": "MeleeMode"
            }
          ]
        },
        "MeleeMode_LevelSet": {
          "modifierName": "",
          "elementDurability": 100.0,
          "onAdded": [
            {
              "$type": "SetGlobalValue",
              "value": 1.0,
              "key": "_MONSTER_Apep_Underling_SeedOfKarna_AttackMode",
              "maxValue": 0.0,
              "minValue": 0.0
            }
          ]
        },
        "RangeMode_LevelSet": {
          "modifierName": "",
          "elementDurability": 100.0,
          "onAdded": [
            {
              "$type": "SetGlobalValue",
              "value": 2.0,
              "key": "_MONSTER_Apep_Underling_SeedOfKarna_AttackMode",
              "maxValue": 0.0,
              "minValue": 0.0
            }
          ]
        },
        "Empty": {
          "modifierName": "",
          "elementDurability": 100.0
        },
        "MeleeMode_QuestSet": {
          "modifierName": "",
          "elementDurability": 100.0,
          "onAdded": [
            {
              "$type": "SetGlobalValue",
              "value": 1.0,
              "key": "_MONSTER_Apep_Underling_SeedOfKarna_AttackMode",
              "maxValue": 0.0,
              "minValue": 0.0
            }
          ]
        }
      },
      "onAdded": [
        {
          "$type": "AttachModifier",
          "modifierName": "Monster_Apep_Underling_SeedOfKarna_CommonState"
        }
      ]
    }
  },
  {
    "Default": {
      "$type": "ConfigAbility",
      "abilityName": "Monster_Apep_Underling_SeedOfKarna_RangeAttack",
      "abilityMixins": [
        {
          "$type": "AttachToAnimatorStateIDMixin",
          "stateIDs": [
            "RangeAttack_BS2",
            "RangeAttack_Loop",
            "RangeAttack_Attack1"
          ],
          "modifierName": "Monster_Apep_Underling_SeedOfKarna_RangeAttack_Eff",
          "DGFCLAIDIFI": ""
        },
        {
          "$type": "IILHMBGONGM",
          "steerStateIDs": ["RangeAttack_BS"],
          "angularSpeed": 90.0,
          "attackTrigger": "",
          "DGFCLAIDIFI": ""
        },
        {
          "$type": "IILHMBGONGM",
          "steerStateIDs": ["MeleeAttack"],
          "endNormalizedTime": 0.5,
          "angularSpeed": 90.0,
          "attackTrigger": "",
          "DGFCLAIDIFI": ""
        }
      ],
      "modifiers": {
        "Monster_Apep_Underling_SeedOfKarna_RangeAttack_Eff": {
          "modifierName": "",
          "elementDurability": 100.0,
          "onAdded": [
            {
              "$type": "AttachEffect",
              "rotationDampTime": "Eff_Monster_Apep_Underling_SeedOfKarna_RangeAttack_BS",
              "PPPDJGDDOGD": 1.0,
              "AJDILHJFNKE": -1.0
            }
          ]
        }
      },
      "onAbilityStart": [
        {
          "$type": "TriggerBullet",
          "bulletID": 42908203,
          "born": {
            "$type": "ConfigBornByAttachPoint",
            "offset": {
              "x": 0.0,
              "y": 0.0,
              "z": 0.0
            },
            "direction": {
              "$type": "ConfigDirectionByAttachPoint",
              "attachPointName": "BulletPos"
            },
            "useRotation": true,
            "attachPointName": "BulletPos"
          }
        }
      ]
    }
  },
  {
    "Default": {
      "$type": "ConfigAbility",
      "abilityName": "Apep_Underling_SeedOfKarna_Bullet",
      "modifiers": {
        "Apep_Underling_SeedOfKarna_Bullet_Effect": {
          "modifierName": "",
          "elementDurability": 100.0,
          "onAdded": [
            {
              "$type": "Predicated",
              "target": "Owner",
              "targetPredicates": [
                {
                  "$type": "BHFFBBOLCCP",
                  "target": "Owner",
                  "modifierName": "Monster_Apep_Underling_SeedOfKarna_ChosenByArjuna"
                }
              ],
              "successActions": [
                {
                  "$type": "AttachEffect",
                  "rotationDampTime": "Eff_Monster_Apep_Underling_SeedOfKarna_RangeAttack_Bullet02",
                  "PPPDJGDDOGD": 1.0,
                  "AJDILHJFNKE": -1.0
                }
              ],
              "failActions": [
                {
                  "$type": "AttachEffect",
                  "rotationDampTime": "Eff_Monster_Apep_Underling_SeedOfKarna_RangeAttack_Bullet",
                  "PPPDJGDDOGD": 1.0,
                  "AJDILHJFNKE": -1.0
                }
              ]
            }
          ]
        }
      },
      "onAdded": [
        {
          "$type": "AttachModifier",
          "modifierName": "Apep_Underling_SeedOfKarna_Bullet_Effect"
        }
      ],
      "onAbilityStart": [
        {
          "$type": "FireHitEffect",
          "hitEntity": "",
          "hitScene": {
            "defaultEffect": "Eff_Hit_Grass_Blunt_Small"
          }
        },
        {
          "$type": "Predicated",
          "target": "Owner",
          "targetPredicates": [
            {
              "$type": "BHFFBBOLCCP",
              "modifierName": "Monster_Apep_Underling_SeedOfKarna_ChosenByArjuna"
            }
          ],
          "successActions": [
            {
              "$type": "TriggerAttackEvent",
              "attackEvent": {
                "attackPattern": {
                  "$type": "ConfigAttackSphere",
                  "triggerType": "TriggerNoRepeat",
                  "born": {
                    "$type": "ConfigBornByCollisionPoint"
                  },
                  "radius": 0.30000001192092896
                },
                "attackInfo": {
                  "attackTag": "Apep_UnderlingAttack_Type2",
                  "attenuationTag": "",
                  "attenuationGroup": "default",
                  "attackProperty": {
                    "actorGrassSubHurtDelta": 0.800000011920929,
                    "actorWindSubHurtDelta": 0.0,
                    "elementType": "Grass",
                    "elementDurability": 25.0,
                    "strikeType": "Blunt",
                    "enBreak": 100.0,
                    "GLKMCMDJBIK": 0.0
                  },
                  "hitPattern": {
                    "onHitEffectName": "default",
                    "hitImpulseY": "",
                    "hitImpulseType": "LV1",
                    "hitHaltTimeScale": 0.009999999776482582
                  },
                  "canBeModifiedBy": "OriginOwner"
                }
              },
              "targetType": "Enemy"
            }
          ],
          "failActions": [
            {
              "$type": "TriggerAttackEvent",
              "attackEvent": {
                "attackPattern": {
                  "$type": "ConfigAttackSphere",
                  "triggerType": "TriggerNoRepeat",
                  "born": {
                    "$type": "ConfigBornByCollisionPoint"
                  },
                  "radius": 0.30000001192092896
                },
                "attackInfo": {
                  "attackTag": "Apep_UnderlingAttack_Type1",
                  "attenuationTag": "",
                  "attenuationGroup": "default",
                  "attackProperty": {
                    "actorGrassSubHurtDelta": 0.6000000238418579,
                    "actorWindSubHurtDelta": 0.0,
                    "elementType": "Grass",
                    "elementDurability": 25.0,
                    "strikeType": "Blunt",
                    "enBreak": 100.0,
                    "GLKMCMDJBIK": 0.0
                  },
                  "hitPattern": {
                    "onHitEffectName": "default",
                    "hitImpulseY": "",
                    "hitImpulseType": "LV1",
                    "hitHaltTimeScale": 0.009999999776482582
                  },
                  "canBeModifiedBy": "OriginOwner"
                }
              },
              "targetType": "Enemy"
            }
          ]
        }
      ]
    }
  },
  {
    "Default": {
      "$type": "ConfigAbility",
      "abilityName": "Monster_Apep_Underling_SeedOfKarna_SpecialState",
      "abilityMixins": [
        {
          "$type": "AttachModifierToSelfGlobalValueMixin",
          "globalValueKey": "_MONSTER_Apep_Underling_SeedOfArjuna_ChosenOne",
          "gvInTalk": 0.0,
          "valueSteps": [0.5, 1.5],
          "modifierNameSteps": [
            "Monster_Apep_Underling_SeedOfKarna_ChosenByArjuna"
          ]
        },
        {
          "$type": "AttachModifierToSelfGlobalValueMixin",
          "globalValueKey": "_SeedOfArjuna_ChosenOne_Scale",
          "gvInTalk": 0.0,
          "valueSteps": [0.5, 1.5],
          "modifierNameSteps": [
            "Monster_Apep_Underling_SeedOfKarna_ChosenByArjuna_Scale"
          ]
        },
        {
          "$type": "AttachModifierToSelfGlobalValueMixin",
          "globalValueKey": "_SeedOfArjuna_ChosenOne_Line",
          "gvInTalk": 0.0,
          "valueSteps": [0.5, 1.5],
          "modifierNameSteps": [
            "Monster_Apep_Underling_SeedOfKarna_ChosenByArjuna_Line"
          ]
        },
        {
          "$type": "AttachModifierToSelfGlobalValueMixin",
          "globalValueKey": "_MONSTER_Apep_Underling_SeedOfBrahma_ChosenOne",
          "gvInTalk": 0.0,
          "valueSteps": [0.5, 1.5],
          "modifierNameSteps": [
            "Monster_Apep_Underling_SeedOfKarna_ChosenByBrahma_Manager"
          ]
        },
        {
          "$type": "AttachModifierToSelfGlobalValueMixin",
          "globalValueKey": "_MONSTER_Apep_Underling_SeedOfAshura_TriggerTaunt",
          "gvInTalk": 0.0,
          "valueSteps": [0.5, 1.5],
          "modifierNameSteps": [
            "Monster_Apep_Underling_SeedOfKarna_ChosenByAshura"
          ]
        },
        {
          "$type": "AttachModifierToSelfGlobalValueMixin",
          "globalValueKey": "_MONSTER_Apep_Underling_SeedOfAshura_SwallowTarget",
          "gvInTalk": 0.0,
          "valueSteps": [-0.5, 0.5],
          "modifierNameSteps": ["Monster_Apep_Underling_SeedOfKarna_NormalDie"]
        }
      ],
      "modifiers": {
        "Monster_Apep_Underling_SeedOfKarna_ChosenByArjuna": {
          "modifierName": "",
          "elementDurability": 100.0,
          "modifierMixins": [
            {
              "$type": "ReplaceEventPatternMixin",
              "oldPatterns": [
                "Monster_Apep_Underling_SeedOfKarna_MeleeAttack",
                "Monster_Apep_Underling_SeedOfKarna_RangeAttack_Attack"
              ],
              "newPatterns": [
                "Monster_Apep_Underling_SeedOfKarna_MeleeAttack_Enhanced",
                "Monster_Apep_Underling_SeedOfKarna_RangeAttack_Attack_Enhanced"
              ]
            }
          ],
          "properties": {
            "Actor_WeightDelta": 150.0,
            "Actor_EndureDelta": 0.009999999776482582
          },
          "onAdded": [
            {
              "$type": "SetGlobalValue",
              "value": 1.0,
              "key": "_SeedOfArjuna_ChosenOne_Line",
              "maxValue": 0.0,
              "minValue": 0.0
            },
            {
              "$type": "ApplyModifier",
              "modifierName": "SeedOfArjuna_SupportAttack_Scale_Latency"
            }
          ],
          "onRemoved": [
            {
              "$type": "ApplyModifier",
              "modifierName": "SeedOfArjuna_SupportAttack_Line_RemoveLatency"
            },
            {
              "$type": "SetGlobalValue",
              "value": 0.0,
              "key": "_SeedOfArjuna_ChosenOne_Scale",
              "maxValue": 0.0,
              "minValue": 0.0
            }
          ]
        },
        "SeedOfArjuna_SupportAttack_Scale_Latency": {
          "modifierName": "",
          "duration": 0.5,
          "elementDurability": 100.0,
          "thinkInterval": 0.30000001192092896,
          "onThinkInterval": [
            {
              "$type": "SetGlobalValue",
              "value": 1.0,
              "key": "_SeedOfArjuna_ChosenOne_Scale",
              "maxValue": 0.0,
              "minValue": 0.0
            }
          ]
        },
        "SeedOfArjuna_SupportAttack_Line_RemoveLatency": {
          "modifierName": "",
          "duration": 0.550000011920929,
          "elementDurability": 100.0,
          "onRemoved": [
            {
              "$type": "SetGlobalValue",
              "value": 0.0,
              "key": "_SeedOfArjuna_ChosenOne_Line",
              "maxValue": 0.0,
              "minValue": 0.0
            }
          ]
        },
        "Monster_Apep_Underling_SeedOfKarna_ChosenByArjuna_Scale": {
          "modifierName": "",
          "elementDurability": 100.0,
          "onAdded": [
            {
              "$type": "ELKFEEMFJFI",
              "canBeHandledOnRecover": true,
              "scale": 1.7999999523162842
            },
            {
              "$type": "AttachEffect",
              "rotationDampTime": "Eff_Monster_Apep_Underling_SeedOfArjuna_TargetEnhance",
              "PPPDJGDDOGD": 1.0,
              "AJDILHJFNKE": -1.0
            },
            {
              "$type": "SetGlobalValue",
              "value": 2.0,
              "key": "_MONSTER_Apep_Underling_SeedOfKarna_AttackMode",
              "maxValue": 0.0,
              "minValue": 0.0
            }
          ],
          "onRemoved": [
            {
              "$type": "ELKFEEMFJFI",
              "canBeHandledOnRecover": true,
              "scale": 1.2999999523162842
            }
          ]
        },
        "Monster_Apep_Underling_SeedOfKarna_ChosenByArjuna_Line": {
          "modifierName": "",
          "elementDurability": 100.0,
          "onAdded": [
            {
              "$type": "AttachEffect",
              "rotationDampTime": "Eff_Monster_Apep_Underling_SeedOfArjuna_SupportAttack_Target",
              "PPPDJGDDOGD": 1.0,
              "AJDILHJFNKE": -1.0
            }
          ]
        },
        "Monster_Apep_Underling_SeedOfKarna_ChosenByBrahma_Manager": {
          "modifierName": "",
          "elementDurability": 100.0,
          "thinkInterval": 0.5,
          "onAdded": [
            {
              "$type": "AttachModifier",
              "modifierName": "Monster_Apep_Underling_SeedOfKarna_ChosenByBrahma"
            }
          ],
          "onThinkInterval": [
            {
              "$type": "AttachModifier",
              "modifierName": "Monster_Apep_Underling_SeedOfKarna_ChosenByBrahma"
            },
            {
              "$type": "AddElementDurability",
              "value": 200.0,
              "modifierName": "Monster_Apep_Underling_SeedOfKarna_ChosenByBrahma",
              "elementType": "Grass",
              "useLimitRange": true,
              "useMutiPlayerFixData": true,
              "maxValue": 200.0
            }
          ]
        },
        "Monster_Apep_Underling_SeedOfKarna_ChosenByBrahma": {
          "stacking": "Unique",
          "modifierName": "",
          "elementType": "Grass",
          "elementDurability": 200.0,
          "modifierMixins": [
            {
              "$type": "AAPIOACHKCI",
              "elementType": "Grass",
              "showDamageText": "",
              "DLBHHADKGJN": 360.0,
              "maxShieldByHPRatio": 1.0,
              "shieldAngle": 0.20000000298023224,
              "useMutiPlayerFixData": true,
              "updateShieldByMaxHp": true
            },
            {
              "$type": "CIBMLJJLANN",
              "excludeForces": ["WindZoneType"]
            }
          ],
          "properties": {
            "Actor_EndureDelta": 0.0
          },
          "onAdded": [
            {
              "$type": "AttachEffect",
              "rotationDampTime": "Eff_Monster_Apep_Underling_SeedOfBrahma_Shield",
              "PPPDJGDDOGD": 1.0,
              "AJDILHJFNKE": -1.0
            },
            {
              "$type": "AttachAbilityStateResistance",
              "resistanceListID": 14001
            }
          ],
          "onRemoved": [
            {
              "$type": "FireEffect",
              "rotationDampTime": "Eff_Monster_Apep_Underling_SeedOfBrahma_ShieldBreak",
              "PPPDJGDDOGD": 1.0,
              "AJDILHJFNKE": -1.0
            }
          ]
        },
        "Monster_Apep_Underling_SeedOfKarna_ChosenByAshura": {
          "modifierName": "",
          "elementDurability": 100.0,
          "thinkInterval": 0.5,
          "onAdded": [
            {
              "$type": "TriggerTaunt",
              "otherTargets": {
                "$type": "SelectTargetsByShape",
                "shapeName": "CircleR50",
                "campTargetType": "SelfCamp",
                "doOffStage": 1.0
              },
              "predicates": [
                {
                  "$type": "ByTargetGlobalValue",
                  "key": "_MONSTER_Apep_Underling_SeedOfAshura_Tag",
                  "value": 1.0
                }
              ],
              "tauntLevel": "Ability_TauntLevel_5"
            }
          ],
          "onThinkInterval": [
            {
              "$type": "TriggerTaunt",
              "otherTargets": {
                "$type": "SelectTargetsByShape",
                "shapeName": "CircleR50",
                "campTargetType": "SelfCamp",
                "doOffStage": 1.0
              },
              "predicates": [
                {
                  "$type": "ByTargetGlobalValue",
                  "key": "_MONSTER_Apep_Underling_SeedOfAshura_Tag",
                  "value": 1.0
                }
              ],
              "tauntLevel": "Ability_TauntLevel_5"
            }
          ]
        },
        "Monster_Apep_Underling_SeedOfKarna_NormalDie": {
          "modifierName": "",
          "elementDurability": 100.0,
          "modifierMixins": [
            {
              "$type": "IBPGGPHEDLF",
              "gadgetIDList": [42908211],
              "campID": 1001,
              "campTargetType": "Enemy"
            }
          ]
        }
      }
    }
  },
  {
    "Default": {
      "$type": "ConfigAbility",
      "abilityName": "Apep_Underling_SeedOfKarna_Die",
      "onAdded": [
        {
          "$type": "SetGlobalValue",
          "value": 1.0,
          "key": "_MONSTER_Apep_Underling_SpecialGadget",
          "maxValue": 0.0,
          "minValue": 0.0
        },
        {
          "$type": "AHPEKICBIIL",
          "otherTargets": {
            "$type": "SelectTargetsByShape",
            "topLimit": 1,
            "sortType": "Nearest",
            "shapeName": "CircleR50",
            "campTargetType": "SelfCamp",
            "doOffStage": 1.0
          },
          "predicates": [
            {
              "$type": "ByTargetGlobalValue",
              "key": "SGV_Show_Bar",
              "value": 1.0
            }
          ],
          "luaCallType": "FromGroup",
          "isTarget": true,
          "funcName": "SLC_UpdateProtectScore",
          "paramNum": 1,
          "param1": 35.0,
          "MGAMDEHMCOL": 0.0,
          "MMHOHAOGPLP": 0.0
        },
        {
          "$type": "KillSelf",
          "duration": 2.0
        }
      ]
    }
  }
]
