[
  {
    "Default": {
      "$type": "ConfigAbility",
      "abilityName": "Monster_Mimik_Fire_DigOut_Alert",
      "abilityMixins": [
        {
          "$type": "AttachToNormalizedTimeMixin",
          "stateID": "DigOut_BS",
          "modifierName": "DigOut_Alert",
          "normalizeEnd": 0.4000000059604645,
          "DGFCLAIDIFI": ""
        }
      ],
      "modifiers": {
        "DigOut_Alert": {
          "modifierName": "",
          "elementDurability": 100.0,
          "onAdded": [
            {
              "$type": "FireEffect",
              "rotationDampTime": "Eff_Monster_Mimik_Fire_DigOutAttack_Warning",
              "born": {
                "$type": "ConfigBornBySelf"
              },
              "PPPDJGDDOGD": 1.0,
              "AJDILHJFNKE": -1.0
            }
          ]
        }
      }
    }
  },
  {
    "Default": {
      "$type": "ConfigAbility",
      "abilityName": "Monster_Mimik_Fire_Attack02_Effect",
      "modifiers": {
        "Attack02_Effect": {
          "modifierName": "",
          "duration": 3.0,
          "elementDurability": 100.0,
          "onAdded": [
            {
              "$type": "AttachEffect",
              "rotationDampTime": "Eff_Monster_Mimik_Fire_Attack02_01",
              "PPPDJGDDOGD": 1.0,
              "AJDILHJFNKE": -1.0
            }
          ]
        }
      },
      "onAbilityStart": [
        {
          "$type": "ApplyModifier",
          "modifierName": "Attack02_Effect"
        }
      ],
      "onKill": [
        {
          "$type": "RemoveModifier",
          "modifierName": "Attack02_Effect"
        }
      ]
    }
  },
  {
    "Default": {
      "$type": "ConfigAbility",
      "abilityName": "Monster_Mimik_Fire_FruitManager",
      "abilityMixins": [
        {
          "$type": "RejectAttackMixin",
          "attackTag": "BurningDamage"
        },
        {
          "$type": "LEOGLBFIELL",
          "poseIDs": [
            1, 2101, 2201, 2301, 3101, 3201, 3301, 1101, 1201, 1301, 5101, 5201,
            5301, 6101, 6201, 6301, 7101, 7201, 7301, 8101, 8102, 8201, 8202,
            8301, 8302
          ],
          "modifierName": "UNIQUE_Fruit01"
        },
        {
          "$type": "LEOGLBFIELL",
          "poseIDs": [
            1, 2201, 2301, 3201, 3301, 1201, 1301, 5201, 5301, 6201, 6301, 7201,
            7301, 8201, 8202, 8301, 8302
          ],
          "modifierName": "UNIQUE_Fruit02"
        },
        {
          "$type": "LEOGLBFIELL",
          "poseIDs": [1, 2301, 3301, 1301, 5301, 6301, 7301, 8301, 8302],
          "modifierName": "UNIQUE_Fruit03"
        }
      ],
      "abilitySpecials": {
        "FruitCount": 3.0
      },
      "modifiers": {
        "UNIQUE_Fruit01": {
          "modifierName": "",
          "forceTriggerWhenChangeAuthority": true,
          "elementDurability": 100.0,
          "onAdded": [
            {
              "$type": "TriggerSetRenderersEnable",
              "renderNames": ["Lights01"],
              "setEnable": true
            },
            {
              "$type": "AttachEffect",
              "rotationDampTime": "Eff_Monster_Mimik_Fire_Fruit01_Idle",
              "PPPDJGDDOGD": 1.0,
              "AJDILHJFNKE": -1.0
            },
            {
              "$type": "FireEffect",
              "rotationDampTime": "Eff_Monster_Mimik_Fire_Fruit_Appear",
              "born": {
                "$type": "ConfigBornByAttachPoint",
                "attachPointName": "Fruit01"
              },
              "PPPDJGDDOGD": 1.0,
              "AJDILHJFNKE": -1.0
            }
          ],
          "onRemoved": [
            {
              "$type": "Predicated",
              "otherTargets": {
                "$type": "SelectTargetsByChildren",
                "configID": 42601005
              },
              "targetPredicates": [
                {
                  "$type": "ByTargetGlobalValue",
                  "key": "_MONSTER_MIMIK_IS_FRUITMOVETARGET",
                  "value": 1.0,
                  "compareType": "NoneOrEqual"
                }
              ],
              "successActions": [
                {
                  "$type": "FireEffect",
                  "rotationDampTime": "Eff_Monster_Mimik_Fire_Fruit_Bullet",
                  "born": {
                    "$type": "ConfigBornByAttachPoint",
                    "direction": {
                      "$type": "ConfigDirectionByAttachPoint",
                      "angleOffset": {
                        "x": 0.0,
                        "y": 180.0,
                        "z": 0.0
                      },
                      "attachPointName": "Fruit01",
                      "attachPointTargetType": "Self"
                    },
                    "attachPointName": "Fruit01"
                  },
                  "PPPDJGDDOGD": 1.0,
                  "AJDILHJFNKE": -1.0
                },
                {
                  "$type": "FireEffect",
                  "rotationDampTime": "Eff_Monster_Mimik_Fire_Fruit_Disappear",
                  "born": {
                    "$type": "ConfigBornByAttachPoint",
                    "attachPointName": "Fruit01"
                  },
                  "PPPDJGDDOGD": 1.0,
                  "AJDILHJFNKE": -1.0
                }
              ]
            },
            {
              "$type": "TriggerSetRenderersEnable",
              "renderNames": ["Lights01"]
            }
          ]
        },
        "UNIQUE_Fruit02": {
          "modifierName": "",
          "forceTriggerWhenChangeAuthority": true,
          "elementDurability": 100.0,
          "onAdded": [
            {
              "$type": "TriggerSetRenderersEnable",
              "renderNames": ["Lights02"],
              "setEnable": true
            },
            {
              "$type": "AttachEffect",
              "rotationDampTime": "Eff_Monster_Mimik_Fire_Fruit02_Idle",
              "PPPDJGDDOGD": 1.0,
              "AJDILHJFNKE": -1.0
            },
            {
              "$type": "FireEffect",
              "rotationDampTime": "Eff_Monster_Mimik_Fire_Fruit_Appear",
              "born": {
                "$type": "ConfigBornByAttachPoint",
                "attachPointName": "Fruit02"
              },
              "PPPDJGDDOGD": 1.0,
              "AJDILHJFNKE": -1.0
            }
          ],
          "onRemoved": [
            {
              "$type": "Predicated",
              "otherTargets": {
                "$type": "SelectTargetsByChildren",
                "configID": 42601005
              },
              "targetPredicates": [
                {
                  "$type": "ByTargetGlobalValue",
                  "key": "_MONSTER_MIMIK_IS_FRUITMOVETARGET",
                  "value": 1.0,
                  "compareType": "NoneOrEqual"
                }
              ],
              "successActions": [
                {
                  "$type": "FireEffect",
                  "rotationDampTime": "Eff_Monster_Mimik_Fire_Fruit_Bullet",
                  "born": {
                    "$type": "ConfigBornByAttachPoint",
                    "direction": {
                      "$type": "ConfigDirectionByAttachPoint",
                      "angleOffset": {
                        "x": 0.0,
                        "y": 180.0,
                        "z": 0.0
                      },
                      "attachPointName": "Fruit02",
                      "attachPointTargetType": "Self"
                    },
                    "attachPointName": "Fruit02"
                  },
                  "PPPDJGDDOGD": 1.0,
                  "AJDILHJFNKE": -1.0
                },
                {
                  "$type": "FireEffect",
                  "rotationDampTime": "Eff_Monster_Mimik_Fire_Fruit_Disappear",
                  "born": {
                    "$type": "ConfigBornByAttachPoint",
                    "attachPointName": "Fruit02"
                  },
                  "PPPDJGDDOGD": 1.0,
                  "AJDILHJFNKE": -1.0
                }
              ]
            },
            {
              "$type": "TriggerSetRenderersEnable",
              "renderNames": ["Lights02"]
            }
          ]
        },
        "UNIQUE_Fruit03": {
          "modifierName": "",
          "forceTriggerWhenChangeAuthority": true,
          "elementDurability": 100.0,
          "onAdded": [
            {
              "$type": "TriggerSetRenderersEnable",
              "renderNames": ["Lights03"],
              "setEnable": true
            },
            {
              "$type": "AttachEffect",
              "rotationDampTime": "Eff_Monster_Mimik_Fire_Fruit03_Idle",
              "PPPDJGDDOGD": 1.0,
              "AJDILHJFNKE": -1.0
            },
            {
              "$type": "FireEffect",
              "rotationDampTime": "Eff_Monster_Mimik_Fire_Fruit_Appear",
              "born": {
                "$type": "ConfigBornByAttachPoint",
                "attachPointName": "Fruit03"
              },
              "PPPDJGDDOGD": 1.0,
              "AJDILHJFNKE": -1.0
            }
          ],
          "onRemoved": [
            {
              "$type": "Predicated",
              "otherTargets": {
                "$type": "SelectTargetsByChildren",
                "configID": 42601005
              },
              "targetPredicates": [
                {
                  "$type": "ByTargetGlobalValue",
                  "key": "_MONSTER_MIMIK_IS_FRUITMOVETARGET",
                  "value": 1.0,
                  "compareType": "NoneOrEqual"
                }
              ],
              "successActions": [
                {
                  "$type": "FireEffect",
                  "rotationDampTime": "Eff_Monster_Mimik_Fire_Fruit_Bullet",
                  "born": {
                    "$type": "ConfigBornByAttachPoint",
                    "direction": {
                      "$type": "ConfigDirectionByAttachPoint",
                      "angleOffset": {
                        "x": 0.0,
                        "y": 180.0,
                        "z": 0.0
                      },
                      "attachPointName": "Fruit03",
                      "attachPointTargetType": "Self"
                    },
                    "attachPointName": "Fruit03"
                  },
                  "PPPDJGDDOGD": 1.0,
                  "AJDILHJFNKE": -1.0
                },
                {
                  "$type": "FireEffect",
                  "rotationDampTime": "Eff_Monster_Mimik_Fire_Fruit_Disappear",
                  "born": {
                    "$type": "ConfigBornByAttachPoint",
                    "attachPointName": "Fruit03"
                  },
                  "PPPDJGDDOGD": 1.0,
                  "AJDILHJFNKE": -1.0
                }
              ]
            },
            {
              "$type": "TriggerSetRenderersEnable",
              "renderNames": ["Lights03"]
            }
          ]
        }
      },
      "onAdded": [
        {
          "$type": "AddGlobalValue",
          "value": 3.0,
          "key": "_MONSTER_MIMIK_FRUITCOUNT",
          "useLimitRange": true,
          "maxValue": 3.0,
          "minValue": 0.0
        }
      ]
    }
  },
  {
    "Default": {
      "$type": "ConfigAbility",
      "abilityName": "Monster_Mimik_Fire_ElementState_On",
      "onAbilityStart": [
        {
          "$type": "SetAnimatorTrigger",
          "target": "Caster",
          "triggerID": "NonetoStage1",
          "mpTriggerOnRemote": true
        }
      ]
    }
  },
  {
    "Default": {
      "$type": "ConfigAbility",
      "abilityName": "Monster_Mimik_Fire_ElementState_Off",
      "onAbilityStart": [
        {
          "$type": "SetAnimatorTrigger",
          "target": "Caster",
          "triggerID": "Stage1toNone",
          "mpTriggerOnRemote": true
        }
      ]
    }
  },
  {
    "Default": {
      "$type": "ConfigAbility",
      "abilityName": "Monster_Mimik_Fire_Fruit_Effect",
      "modifiers": {
        "UNIQUE_Mimik_Fire_Fruit_Effect": {
          "stacking": "Unique",
          "modifierName": "",
          "forceTriggerWhenChangeAuthority": true,
          "elementDurability": 100.0,
          "onAdded": [
            {
              "$type": "EnableHitBoxByName",
              "hitBoxNames": ["HitBox_Fruit"],
              "setEnable": true
            },
            {
              "$type": "EnableHitBoxByName",
              "hitBoxNames": ["HitBox", "HeadBox"]
            }
          ],
          "onRemoved": [
            {
              "$type": "EnableHitBoxByName",
              "hitBoxNames": ["HitBox_Fruit"]
            },
            {
              "$type": "EnableHitBoxByName",
              "hitBoxNames": ["HitBox", "HeadBox"],
              "setEnable": true
            }
          ]
        }
      },
      "onAbilityStart": [
        {
          "$type": "AttachModifier",
          "modifierName": "UNIQUE_Mimik_Fire_Fruit_Effect"
        }
      ]
    }
  },
  {
    "Default": {
      "$type": "ConfigAbility",
      "abilityName": "Monster_Mimik_Fire_AbsorbFruit_WeightManager",
      "abilityMixins": [
        {
          "$type": "AttachToStateIDMixin",
          "stateIDs": ["AbsorbFruit", "AbsorbFruit_Loop", "UpperShoot02"],
          "modifierName": "AddWeight",
          "DGFCLAIDIFI": ""
        }
      ],
      "modifiers": {
        "AddWeight": {
          "modifierName": "",
          "elementDurability": 100.0,
          "properties": {
            "Entity_WeightRatio": 5.0
          }
        }
      }
    }
  },
  {
    "Default": {
      "$type": "ConfigAbility",
      "abilityName": "Monster_Mimik_Fire_AbsorbFruit",
      "abilityMixins": [
        {
          "$type": "AttachToStateIDMixin",
          "stateIDs": ["AbsorbFruit_Loop"],
          "modifierName": "UNIQUE_Mimik_Fire_Fruit",
          "DGFCLAIDIFI": ""
        }
      ],
      "modifiers": {
        "UNIQUE_Mimik_Fire_Fruit": {
          "stacking": "Unique",
          "modifierName": "",
          "forceTriggerWhenChangeAuthority": true,
          "elementType": "Fire",
          "elementDurability": 50.0,
          "modifierMixins": [
            {
              "$type": "ShieldBarMixin",
              "onShieldBroken": [
                {
                  "$type": "ActCameraShake",
                  "cameraShake": {
                    "shakeRange": 0.20000000298023224,
                    "shakeTime": 0.11999999731779099,
                    "shakeDistance": 30.0,
                    "extension": {
                      "baseOnCamera": true
                    }
                  }
                },
                {
                  "$type": "TriggerAbility",
                  "target": "Caster",
                  "abilityName": "Monster_Mimik_Fire_DownManager"
                },
                {
                  "$type": "IDNGFEEBPAM",
                  "target": "Caster",
                  "boolID": "Down",
                  "value": true
                },
                {
                  "$type": "SetAnimatorTrigger",
                  "target": "Caster",
                  "triggerID": "DownTrigger",
                  "mpTriggerOnRemote": true
                }
              ],
              "showDamageText": ""
            }
          ],
          "onAdded": [
            {
              "$type": "AddGlobalValue",
              "value": 1.0,
              "key": "_ABILITY_MIMIK_FIRE_FRUIT",
              "useLimitRange": true,
              "maxValue": 1.0,
              "minValue": 0.0
            },
            {
              "$type": "TriggerAbility",
              "abilityName": "Monster_Mimik_Fire_Fruit_Effect"
            },
            {
              "$type": "AttachEffect",
              "rotationDampTime": "Eff_Monster_Mimik_Fire_AbsorbFruit_Loop_01",
              "PPPDJGDDOGD": 1.0,
              "AJDILHJFNKE": -1.0
            }
          ],
          "onRemoved": [
            {
              "$type": "AddGlobalValue",
              "value": -1.0,
              "key": "_ABILITY_MIMIK_FIRE_FRUIT",
              "useLimitRange": true,
              "maxValue": 1.0,
              "minValue": 0.0
            },
            {
              "$type": "RemoveUniqueModifier",
              "modifierName": "UNIQUE_Mimik_Fire_Fruit_Effect"
            }
          ],
          "onKill": [
            {
              "$type": "RemoveUniqueModifier",
              "modifierName": "UNIQUE_Mimik_Fire_Fruit"
            }
          ],
          "forceSyncToRemote": true
        }
      }
    }
  },
  {
    "Default": {
      "$type": "ConfigAbility",
      "abilityName": "Monster_Mimik_Fire_DownManager",
      "abilityMixins": [
        {
          "$type": "AttachToAnimatorStateIDMixin",
          "stateIDs": ["Down_AS"],
          "modifierName": "RecoverManager",
          "DGFCLAIDIFI": ""
        }
      ],
      "modifiers": {
        "UNIQUE_DownTimer": {
          "modifierName": "",
          "forceTriggerWhenChangeAuthority": true,
          "duration": 15.0,
          "elementDurability": 100.0,
          "onAdded": [
            {
              "$type": "AttachEffect",
              "rotationDampTime": "Eff_Monster_Mimik_Fire_Down_01",
              "PPPDJGDDOGD": 1.0,
              "AJDILHJFNKE": -1.0
            },
            {
              "$type": "AttachEffect",
              "rotationDampTime": "Eff_Monster_Mimik_Fire_Down_02",
              "PPPDJGDDOGD": 1.0,
              "AJDILHJFNKE": -1.0
            },
            {
              "$type": "IDNGFEEBPAM",
              "boolID": "Recover",
              "value": true
            }
          ],
          "onRemoved": [
            {
              "$type": "IDNGFEEBPAM",
              "boolID": "Down"
            },
            {
              "$type": "SetAnimatorTrigger",
              "triggerID": "RecoverTrigger",
              "mpTriggerOnRemote": true
            }
          ],
          "forceSyncToRemote": true
        },
        "RecoverManager": {
          "modifierName": "",
          "duration": 1.5,
          "elementDurability": 100.0,
          "onRemoved": [
            {
              "$type": "IDNGFEEBPAM",
              "boolID": "Recover"
            },
            {
              "$type": "DOANGHCALGB",
              "skillIDs": [301, 311, 312]
            }
          ],
          "forceSyncToRemote": true
        }
      },
      "onAbilityStart": [
        {
          "$type": "AttachModifier",
          "modifierName": "UNIQUE_DownTimer"
        }
      ]
    }
  },
  {
    "Default": {
      "$type": "ConfigAbility",
      "abilityName": "Mimik_Fire_AbsorbFruit_DoFruitMoveEffect",
      "abilityMixins": [
        {
          "$type": "AttachToAnimatorStateIDMixin",
          "stateIDs": ["AbsorbFruit_BS"],
          "modifierName": "Effect",
          "DGFCLAIDIFI": ""
        }
      ],
      "modifiers": {
        "Effect": {
          "modifierName": "",
          "elementDurability": 100.0,
          "onAdded": [
            {
              "$type": "CreateGadget",
              "born": {
                "$type": "ConfigBornByAttachPoint",
                "offset": {
                  "x": 0.0,
                  "y": 0.0,
                  "z": 0.0
                },
                "attachPointName": "BulletSource",
                "attachPointTargetType": "Self"
              },
              "lifeByOwnerV2": true,
              "gadgetID": 42601005,
              "campID": 4001,
              "campTargetType": "Self"
            },
            {
              "$type": "GPDAIGICDKI",
              "partRootNames": ["Fruit01", "Fruit02", "Fruit03"]
            },
            {
              "$type": "KGKOLOLDKHH",
              "partRootNames": ["Fruit01", "Fruit02", "Fruit03"],
              "enable": true
            }
          ],
          "onRemoved": [
            {
              "$type": "KillGadget",
              "gadgetInfo": {
                "configID": 42601005
              }
            },
            {
              "$type": "KGKOLOLDKHH",
              "partRootNames": ["Fruit01", "Fruit02", "Fruit03"]
            }
          ]
        }
      }
    }
  },
  {
    "Default": {
      "$type": "ConfigAbility",
      "abilityName": "Mimik_AbsorbFruit_Fire_FruitMoveEffect",
      "modifiers": {
        "Effect": {
          "modifierName": "",
          "duration": 0.75,
          "elementDurability": 100.0,
          "onAdded": [
            {
              "$type": "AttachEffect",
              "rotationDampTime": "Eff_Monster_Mimik_Fire_Fruit_Bullet",
              "PPPDJGDDOGD": 1.0,
              "AJDILHJFNKE": -1.0
            }
          ],
          "onRemoved": [
            {
              "$type": "KillSelf"
            }
          ]
        }
      },
      "onAdded": [
        {
          "$type": "ApplyModifier",
          "modifierName": "Effect"
        }
      ]
    }
  },
  {
    "Default": {
      "$type": "ConfigAbility",
      "abilityName": "Monster_Mimik_Fire_FruitReborn_Effect",
      "abilityMixins": [
        {
          "$type": "AttachToAnimatorStateIDMixin",
          "stateIDs": ["FruitReborn_Act"],
          "modifierName": "FruitReborn_Effect",
          "DGFCLAIDIFI": ""
        }
      ],
      "modifiers": {
        "FruitReborn_Effect": {
          "modifierName": "",
          "elementDurability": 100.0,
          "onAdded": [
            {
              "$type": "AttachEffect",
              "rotationDampTime": "Eff_Monster_Mimik_Fire_FruitReborn_UnderGround",
              "PPPDJGDDOGD": 1.0,
              "AJDILHJFNKE": -1.0
            }
          ]
        }
      }
    }
  },
  {
    "Default": {
      "$type": "ConfigAbility",
      "abilityName": "Monster_Mimik_Fire_RangedAttack01",
      "onAbilityStart": [
        {
          "$type": "FireEffect",
          "rotationDampTime": "Eff_Monster_Mimik_Fire_RangedAttack01_02",
          "born": {
            "$type": "ConfigBornBySelf",
            "offset": {
              "x": 0.0,
              "y": 1.7000000476837158,
              "z": 0.5
            }
          },
          "PPPDJGDDOGD": 1.0,
          "AJDILHJFNKE": -1.0
        },
        {
          "$type": "TriggerBullet",
          "bulletID": 42601008,
          "born": {
            "$type": "ConfigBornBySelf",
            "offset": {
              "x": 0.0,
              "y": 1.7000000476837158,
              "z": 0.5
            },
            "direction": {
              "$type": "ConfigDirectionByEntity",
              "angleOffset": {
                "x": -45.0,
                "y": 0.0,
                "z": 0.0
              }
            }
          }
        }
      ]
    }
  },
  {
    "Default": {
      "$type": "ConfigAbility",
      "abilityName": "Monster_Mimik_RangedAttack01_TriggerShaderEffect01",
      "onAbilityStart": [
        {
          "$type": "SetAnimatorTrigger",
          "triggerID": "RangedAttack01Glow01Trigger",
          "mpTriggerOnRemote": true
        }
      ]
    }
  },
  {
    "Default": {
      "$type": "ConfigAbility",
      "abilityName": "Monster_Mimik_RangedAttack01_TriggerShaderEffect02",
      "onAbilityStart": [
        {
          "$type": "SetAnimatorTrigger",
          "triggerID": "RangedAttack01Glow02Trigger",
          "mpTriggerOnRemote": true
        }
      ]
    }
  },
  {
    "Default": {
      "$type": "ConfigAbility",
      "abilityName": "Monster_Mimik_Fire_UpperShoot02",
      "onAbilityStart": [
        {
          "$type": "TriggerBullet",
          "bulletID": 42601009,
          "born": {
            "$type": "ConfigBornByAttachPoint",
            "offset": {
              "x": 0.0,
              "y": 0.0,
              "z": 0.0
            },
            "direction": {
              "$type": "ConfigDirectionByAttackTarget",
              "maxAngleType": "Horizontal",
              "maxAngle": 15.0,
              "startPoint": ""
            },
            "attachPointName": "BulletSource"
          }
        }
      ]
    }
  },
  {
    "Default": {
      "$type": "ConfigAbility",
      "abilityName": "Monster_Mimik_Fire_Bomb_Loop",
      "modifiers": {
        "UNIQUE_Mimik_Fire_Bomb_Loop": {
          "modifierName": "",
          "forceTriggerWhenChangeAuthority": true,
          "elementDurability": 100.0,
          "onAdded": [
            {
              "$type": "AttachEffect",
              "rotationDampTime": "Eff_Monster_Mimik_Fire_Bomb_Bullet_01",
              "PPPDJGDDOGD": 1.0,
              "AJDILHJFNKE": -1.0
            },
            {
              "$type": "AttachEffect",
              "rotationDampTime": "Eff_Monster_Mimik_Fire_Bomb_Bullet_01_Trail",
              "PPPDJGDDOGD": 1.0,
              "AJDILHJFNKE": -1.0
            }
          ],
          "onRemoved": [
            {
              "$type": "KillSelf"
            }
          ]
        }
      },
      "onAdded": [
        {
          "$type": "AttachModifier",
          "modifierName": "UNIQUE_Mimik_Fire_Bomb_Loop"
        }
      ]
    }
  },
  {
    "Default": {
      "$type": "ConfigAbility",
      "abilityName": "Monster_Mimik_Fire_Bomb_Explode",
      "onAbilityStart": [
        {
          "$type": "FireEffect",
          "rotationDampTime": "Eff_Monster_Mimik_Fire_Bomb_Bullet_01_Hit",
          "born": {
            "$type": "ConfigBornBySelf",
            "offset": {
              "x": 0.0,
              "y": 0.0,
              "z": 0.0
            },
            "onGround": true,
            "alongGround": true
          },
          "PPPDJGDDOGD": 1.0,
          "AJDILHJFNKE": -1.0
        },
        {
          "$type": "RemoveUniqueModifier",
          "modifierName": "UNIQUE_Mimik_Fire_Bomb_Loop"
        },
        {
          "$type": "TriggerAttackEvent",
          "attackEvent": {
            "attackPattern": {
              "$type": "ConfigAttackSphere",
              "triggerType": "TriggerNoRepeat",
              "massiveAttackRatio": 0.5,
              "born": {
                "$type": "ConfigBornBySelf",
                "offset": {
                  "x": 0.0,
                  "y": 0.0,
                  "z": 0.0
                },
                "onGround": true,
                "alongGround": true
              },
              "radius": 3.0
            },
            "attackInfo": {
              "attackTag": "",
              "attenuationTag": "",
              "attenuationGroup": "default",
              "attackProperty": {
                "actorGrassSubHurtDelta": 0.4000000059604645,
                "actorWindSubHurtDelta": 0.0,
                "elementType": "Fire",
                "elementDurability": 100.0,
                "strikeType": "Default",
                "enBreak": 70.0,
                "attackType": "Range",
                "GLKMCMDJBIK": 0.0
              },
              "hitPattern": {
                "onHitEffectName": "",
                "hitImpulseY": "",
                "hitImpulseType": "LV4",
                "hitHaltTimeScale": 0.05000000074505806
              },
              "canBeModifiedBy": "OriginOwner"
            }
          },
          "targetType": "Enemy"
        }
      ]
    }
  },
  {
    "Default": {
      "$type": "ConfigAbility",
      "abilityName": "Mimik_Fire_WilloWisp_Loop",
      "modifiers": {
        "UNIQUE_Mimik_Fire_WilloWisp_Loop": {
          "modifierName": "",
          "forceTriggerWhenChangeAuthority": true,
          "elementDurability": 100.0,
          "onAdded": [
            {
              "$type": "AttachEffect",
              "rotationDampTime": "Eff_Monster_Mimik_Fire_WilloWisp_Bullet",
              "PPPDJGDDOGD": 1.0,
              "AJDILHJFNKE": -1.0
            }
          ],
          "onRemoved": [
            {
              "$type": "KillSelf"
            }
          ]
        }
      },
      "onAdded": [
        {
          "$type": "AttachModifier",
          "modifierName": "UNIQUE_Mimik_Fire_WilloWisp_Loop"
        }
      ]
    }
  },
  {
    "Default": {
      "$type": "ConfigAbility",
      "abilityName": "Mimik_Fire_WilloWisp_Explode",
      "onAbilityStart": [
        {
          "$type": "FireEffect",
          "rotationDampTime": "Eff_Monster_Mimik_Fire_WilloWisp_Explode",
          "born": {
            "$type": "ConfigBornBySelf",
            "offset": {
              "x": 0.0,
              "y": 0.0,
              "z": 0.0
            }
          },
          "PPPDJGDDOGD": 1.0,
          "AJDILHJFNKE": -1.0
        },
        {
          "$type": "RemoveUniqueModifier",
          "modifierName": "UNIQUE_Mimik_Fire_WilloWisp_Loop"
        },
        {
          "$type": "TriggerAttackEvent",
          "attackEvent": {
            "attackPattern": {
              "$type": "ConfigAttackSphere",
              "triggerType": "TriggerNoRepeat",
              "massiveAttackRatio": 0.25,
              "born": {
                "$type": "ConfigBornBySelf",
                "offset": {
                  "x": 0.0,
                  "y": 0.0,
                  "z": 0.0
                }
              },
              "radius": 1.5
            },
            "attackInfo": {
              "attackTag": "",
              "attenuationTag": "",
              "attenuationGroup": "default",
              "attackProperty": {
                "actorGrassSubHurtDelta": 0.2199999988079071,
                "actorWindSubHurtDelta": 0.0,
                "elementType": "Fire",
                "elementDurability": 50.0,
                "strikeType": "Blunt",
                "enBreak": 25.0,
                "GLKMCMDJBIK": 0.0
              },
              "hitPattern": {
                "onHitEffectName": "",
                "hitImpulseY": "",
                "hitImpulseType": "LV3",
                "hitHaltTimeScale": 0.05000000074505806
              },
              "cameraShake": {
                "shakeRange": 0.05999999865889549,
                "shakeTime": 0.09000000357627869
              },
              "canBeModifiedBy": "OriginOwner"
            }
          },
          "targetType": "Enemy"
        }
      ]
    }
  }
]
