[
  {
    "Default": {
      "$type": "ConfigAbility",
      "abilityName": "Monster_Oceanid_Crab_02_LifeAlert",
      "modifiers": {
        "Monster_Oceanid_Crab_02_LifeAlert": {
          "modifierName": "",
          "duration": 8.0,
          "elementDurability": 100.0,
          "onRemoved": [
            {
              "$type": "IDNGFEEBPAM",
              "boolID": "Fight",
              "value": true
            }
          ]
        }
      },
      "onAdded": [
        {
          "$type": "ApplyModifier",
          "modifierName": "Monster_Oceanid_Crab_02_LifeAlert"
        }
      ]
    }
  },
  {
    "Default": {
      "$type": "ConfigAbility",
      "abilityName": "Animal_Oceanid_Crab_02_BubbleAtkTimer",
      "modifiers": {
        "Animal_Oceanid_Crab_02_BeHitFight": {
          "modifierName": "",
          "elementDurability": 100.0,
          "onBeingHit": [
            {
              "$type": "IDNGFEEBPAM",
              "boolID": "BeHitFight",
              "value": true
            }
          ]
        }
      },
      "onAdded": [
        {
          "$type": "ApplyModifier",
          "modifierName": "Animal_Oceanid_Crab_02_BeHitFight"
        }
      ]
    }
  },
  {
    "Default": {
      "$type": "ConfigAbility",
      "abilityName": "Oceanid_Crab_Bubble_Explode",
      "modifiers": {
        "Oceanid_Crab_Bubble_Explode_Tail": {
          "modifierName": "",
          "elementDurability": 100.0
        },
        "Oceanid_Crab_Bubble_Explode_OpenColliderDelay": {
          "modifierName": "",
          "duration": 0.10000000149011612,
          "elementDurability": 100.0,
          "onRemoved": [
            {
              "$type": "EnableBulletCollisionPluginTrigger",
              "setEnable": true
            }
          ]
        }
      },
      "onAdded": [
        {
          "$type": "AttachModifier",
          "modifierName": "Oceanid_Crab_Bubble_Explode_Tail"
        },
        {
          "$type": "AttachModifier",
          "modifierName": "Oceanid_Crab_Bubble_Explode_OpenColliderDelay"
        }
      ],
      "onAbilityStart": [
        {
          "$type": "RemoveModifier",
          "modifierName": "Oceanid_Crab_Bubble_Explode_Tail"
        },
        {
          "$type": "TriggerAttackEvent",
          "attackEvent": {
            "attackPattern": {
              "$type": "ConfigAttackSphere",
              "triggerType": "TriggerNoRepeat",
              "born": {
                "$type": "ConfigBornByCollisionPoint"
              },
              "radius": 0.5
            },
            "attackInfo": {
              "attackTag": "SnowBallAttack",
              "attenuationTag": "SnowBall_Damage",
              "attenuationGroup": "Skirmisher_Fat_SprayGun_Ice",
              "attackProperty": {
                "actorGrassSubHurtDelta": 1.0,
                "actorWindSubHurtDelta": 0.0,
                "elementType": "Water",
                "elementDurability": 50.0,
                "strikeType": "Blunt",
                "enBreak": 50.0,
                "GLKMCMDJBIK": 0.0
              },
              "hitPattern": {
                "onHitEffectName": "default",
                "hitImpulseY": "",
                "hitImpulseType": "LV4",
                "retreatType": "ByHitDirection",
                "hitHaltTimeScale": 0.05000000074505806
              }
            }
          },
          "targetType": "Enemy"
        }
      ]
    }
  },
  {
    "Default": {
      "$type": "ConfigAbility",
      "abilityName": "Monster_Oceanid_Crab_WaterBubble",
      "abilityMixins": [
        {
          "$type": "AttachToStateIDMixin",
          "stateIDs": ["NormalMove"],
          "modifierName": "WaterStreamHandler",
          "DGFCLAIDIFI": ""
        },
        {
          "$type": "AttachModifierToSelfGlobalValueMixin",
          "globalValueKey": "_WATERSTREAM_STATE_",
          "gvInTalk": 0.0,
          "valueSteps": [-0.5, 0.5, 1.5],
          "modifierNameSteps": ["Empty", "WaterStream"]
        },
        {
          "$type": "JJIHJPCPPGO",
          "abilityStates": ["ElementFrozen", "ElementPetrifaction"],
          "modifierName": "SpecialStateDetect"
        }
      ],
      "modifiers": {
        "WaterStream": {
          "modifierName": "",
          "elementDurability": 100.0,
          "thinkInterval": 0.20000000298023224,
          "onAdded": [
            {
              "$type": "AttachEffect",
              "predicates": [
                {
                  "$type": "ByAny",
                  "predicates": [
                    {
                      "$type": "ByAnimatorFloat",
                      "logic": "Equal",
                      "value": 2.0,
                      "parameter": "PoseID"
                    },
                    {
                      "$type": "ByAnimatorFloat",
                      "logic": "Equal",
                      "value": 101.0,
                      "parameter": "PoseID"
                    }
                  ]
                }
              ],
              "rotationDampTime": "Eff_Monster_Oceanid_Crab_BubbleStream",
              "PPPDJGDDOGD": 1.0,
              "AJDILHJFNKE": -1.0
            }
          ],
          "onThinkInterval": [
            {
              "$type": "TriggerAttackEvent",
              "predicates": [
                {
                  "$type": "ByAny",
                  "predicates": [
                    {
                      "$type": "ByAnimatorFloat",
                      "logic": "Equal",
                      "value": 2.0,
                      "parameter": "PoseID"
                    },
                    {
                      "$type": "ByAnimatorFloat",
                      "logic": "Equal",
                      "value": 101.0,
                      "parameter": "PoseID"
                    }
                  ]
                }
              ],
              "attackEvent": {
                "attackPattern": {
                  "$type": "ConfigAttackBox",
                  "triggerType": "TriggerNoRepeat",
                  "born": {
                    "$type": "ConfigBornByAttachPoint",
                    "offset": {
                      "x": 0.0,
                      "y": 0.0,
                      "z": -0.5
                    },
                    "attachPointName": "BulletAttachPoint"
                  },
                  "size": {
                    "x": 1.5,
                    "y": 1.5,
                    "z": 8.0
                  }
                },
                "attackInfo": {
                  "attackTag": "",
                  "attenuationTag": "",
                  "attenuationGroup": "default",
                  "attackProperty": {
                    "actorGrassSubHurtDelta": 0.10000000149011612,
                    "actorWindSubHurtDelta": 0.0,
                    "elementType": "Water",
                    "elementDurability": 25.0,
                    "strikeType": "Default",
                    "enBreak": 1.0,
                    "GLKMCMDJBIK": 0.0
                  },
                  "hitPattern": {
                    "onHitEffectName": "default",
                    "hitImpulseY": "",
                    "hitImpulseType": "LV1",
                    "hitHaltTimeScale": 0.05000000074505806
                  }
                }
              },
              "targetType": "Enemy"
            }
          ]
        },
        "SpecialStateDetect": {
          "modifierName": "",
          "elementDurability": 100.0,
          "onAdded": [
            {
              "$type": "AddGlobalValue",
              "value": 0.0,
              "key": "_WATERSTREAM_STATE_",
              "useLimitRange": true,
              "maxValue": 0.0,
              "minValue": 0.0
            }
          ]
        },
        "WaterStreamHandler": {
          "modifierName": "",
          "elementDurability": 100.0,
          "onAdded": [
            {
              "$type": "AddGlobalValue",
              "value": 1.0,
              "key": "_WATERSTREAM_STATE_",
              "useLimitRange": true,
              "maxValue": 1.0,
              "minValue": 1.0
            }
          ],
          "onRemoved": [
            {
              "$type": "AddGlobalValue",
              "value": 0.0,
              "key": "_WATERSTREAM_STATE_",
              "useLimitRange": true,
              "maxValue": 0.0,
              "minValue": 0.0
            }
          ]
        },
        "Empty": {
          "modifierName": "",
          "elementDurability": 100.0
        }
      }
    }
  },
  {
    "Default": {
      "$type": "ConfigAbility",
      "abilityName": "Crab_WaterBubble_Explode",
      "onAdded": [
        {
          "$type": "AttachEffect",
          "rotationDampTime": "Eff_Monster_Oceanid_Crab_BubbleLoop",
          "PPPDJGDDOGD": 1.0,
          "AJDILHJFNKE": -1.0
        }
      ],
      "onAbilityStart": [
        {
          "$type": "FireEffect",
          "rotationDampTime": "Eff_Monster_Oceanid_Crab_BubbleAS",
          "PPPDJGDDOGD": 1.0,
          "AJDILHJFNKE": -1.0
        },
        {
          "$type": "TriggerAttackEvent",
          "attackEvent": {
            "attackPattern": {
              "$type": "ConfigAttackSphere",
              "triggerType": "TriggerNoRepeat",
              "born": {
                "$type": "ConfigBornBySelf",
                "offset": {
                  "x": 0.0,
                  "y": 0.0,
                  "z": 0.0
                }
              },
              "radius": 0.5
            },
            "attackInfo": {
              "attackTag": "",
              "attenuationTag": "",
              "attenuationGroup": "default",
              "attackProperty": {
                "actorGrassSubHurtDelta": 1.0,
                "actorWindSubHurtDelta": 0.0,
                "elementType": "Water",
                "elementDurability": 25.0,
                "strikeType": "Default",
                "enBreak": 1.0,
                "GLKMCMDJBIK": 0.0
              },
              "hitPattern": {
                "onHitEffectName": "default",
                "hitImpulseY": "",
                "hitImpulseType": "LV1",
                "hitHaltTimeScale": 0.05000000074505806
              }
            }
          },
          "targetType": "Enemy"
        },
        {
          "$type": "KillSelf"
        }
      ]
    }
  },
  {
    "Default": {
      "$type": "ConfigAbility",
      "abilityName": "Monster_Oceanid_Crab_ElementState",
      "modifiers": {
        "UNIQUE_ElementState": {
          "modifierName": "",
          "forceTriggerWhenChangeAuthority": true,
          "elementType": "Water",
          "elementDurability": 100.0,
          "isElementDurabilityMutable": false
        },
        "Monster_Oceanid_Crab_CommonEffect": {
          "modifierName": "",
          "elementDurability": 100.0,
          "onAdded": [
            {
              "$type": "AttachEffect",
              "rotationDampTime": "Eff_Monster_Oceanid_Crab_CommonEffectLoop",
              "PPPDJGDDOGD": 1.0,
              "AJDILHJFNKE": -1.0
            }
          ]
        }
      },
      "onAdded": [
        {
          "$type": "ApplyModifier",
          "modifierName": "UNIQUE_ElementState"
        },
        {
          "$type": "AttachAbilityStateResistance",
          "resistanceBuffDebuffs": ["ElementWet", "Struggle"]
        },
        {
          "$type": "ApplyModifier",
          "predicates": [
            {
              "$type": "ByNot",
              "predicates": [
                {
                  "$type": "ByTargetGlobalValue",
                  "key": "_MONSTERAFFIX_OCEANID_ANIMAL_FOOTEFFECT_OFF",
                  "value": 1.0
                }
              ]
            }
          ],
          "modifierName": "Monster_Oceanid_Crab_CommonEffect"
        }
      ]
    }
  },
  {
    "Default": {
      "$type": "ConfigAbility",
      "abilityName": "Monster_Oceanid_Crab_BeingHit",
      "abilityMixins": [
        {
          "$type": "AttachModifierToSelfGlobalValueMixin",
          "globalValueKey": "_BEINGHITSTATE_",
          "gvInTalk": 1.0,
          "valueSteps": [-0.5, 0.5, 1.5],
          "modifierNameSteps": ["Empty", "BeingHit"]
        },
        {
          "$type": "JJIHJPCPPGO",
          "abilityStates": ["ElementPetrifaction", "ElementFreeze"],
          "modifierName": "ChangeBeingHitState"
        }
      ],
      "modifiers": {
        "BeingHit": {
          "modifierName": "",
          "elementDurability": 100.0,
          "onBeingHit": [
            {
              "$type": "FireEffect",
              "rotationDampTime": "Eff_Monster_Oceanid_AnimalBeHitSpecial",
              "born": {
                "$type": "ConfigBornByHitPoint",
                "offset": {
                  "x": 0.0,
                  "y": 0.0,
                  "z": 0.10000000149011612
                }
              },
              "PPPDJGDDOGD": 1.0,
              "AJDILHJFNKE": -1.0
            }
          ]
        },
        "ChangeBeingHitState": {
          "modifierName": "",
          "elementDurability": 100.0,
          "onAdded": [
            {
              "$type": "AddGlobalValue",
              "value": 0.0,
              "key": "_BEINGHITSTATE_",
              "useLimitRange": true,
              "maxValue": 0.0,
              "minValue": 0.0
            }
          ],
          "onRemoved": [
            {
              "$type": "AddGlobalValue",
              "value": 1.0,
              "key": "_BEINGHITSTATE_",
              "useLimitRange": true,
              "maxValue": 1.0,
              "minValue": 1.0
            }
          ]
        },
        "Empty": {
          "modifierName": "",
          "elementDurability": 100.0
        }
      }
    }
  },
  {
    "Default": {
      "$type": "ConfigAbility",
      "abilityName": "Monster_Oceanid_Crab_02_FearFallAttack",
      "modifiers": {
        "Monster_Oceanid_Crab_02_Watcher": {
          "modifierName": "",
          "duration": 3.0,
          "elementDurability": 100.0,
          "onAdded": [
            {
              "$type": "AHPEKICBIIL",
              "luaCallType": "FromGroup",
              "callParamList": [133102112],
              "funcName": "SLC_FallingAttack_Crab",
              "param1": 0.0,
              "MGAMDEHMCOL": 0.0,
              "MMHOHAOGPLP": 0.0
            }
          ]
        }
      },
      "onAdded": [
        {
          "$type": "AddGlobalValue",
          "value": 1.0,
          "key": "_MONSTER_OCEANID_CRAB_FEARFALLATK",
          "useLimitRange": true,
          "maxValue": 1.0,
          "minValue": 0.0
        }
      ]
    }
  },
  {
    "Default": {
      "$type": "ConfigAbility",
      "abilityName": "Monster_Oceanid_Crab_HealHp_Challenge",
      "abilityMixins": [
        {
          "$type": "AttachModifierToSelfGlobalValueMixin",
          "globalValueKey": "_HEALHP_STATE_",
          "gvInTalk": 1.0,
          "valueSteps": [-0.5, 0.5, 1.5],
          "modifierNameSteps": ["Empty", "UNIQUE_Crab_Water_HealHp"]
        }
      ],
      "abilitySpecials": {
        "HealHPHigh": 0.15000000596046448
      },
      "modifiers": {
        "UNIQUE_Crab_Water_HealHp": {
          "modifierName": "",
          "forceTriggerWhenChangeAuthority": true,
          "elementDurability": 100.0,
          "thinkInterval": 1.5,
          "onBeingHit": [
            {
              "$type": "Predicated",
              "targetPredicates": [
                {
                  "$type": "ByTargetGlobalValue",
                  "key": "_MONSTERAFFIX_OCEANID_02_ANIMALHEAL_UP",
                  "value": 1.0
                }
              ],
              "successActions": [
                {
                  "$type": "ApplyModifier",
                  "modifierName": "HealHP_Pause_AffixUp"
                }
              ],
              "failActions": [
                {
                  "$type": "ApplyModifier",
                  "modifierName": "HealHP_Pause"
                }
              ]
            }
          ],
          "onThinkInterval": [
            {
              "$type": "Predicated",
              "targetPredicates": [
                {
                  "$type": "ByTargetGlobalValue",
                  "key": "_MONSTERAFFIX_OCEANID_02_ANIMALHEAL_UP",
                  "value": 1.0
                }
              ],
              "successActions": [
                {
                  "$type": "HealHP",
                  "amountByCasterMaxHPRatio": "HealHPHigh",
                  "cdRatio": ""
                },
                {
                  "$type": "FireEffect",
                  "rotationDampTime": "Eff_Monster_Oceanid_Boar_Heal",
                  "PPPDJGDDOGD": 1.0,
                  "AJDILHJFNKE": -1.0
                }
              ]
            }
          ]
        },
        "HealHP_Pause": {
          "modifierName": "",
          "duration": 3.0,
          "elementDurability": 100.0,
          "onAdded": [
            {
              "$type": "AddGlobalValue",
              "value": 0.0,
              "key": "_HEALHP_STATE_",
              "useLimitRange": true,
              "maxValue": 0.0,
              "minValue": 0.0
            }
          ],
          "onRemoved": [
            {
              "$type": "AddGlobalValue",
              "value": 1.0,
              "key": "_HEALHP_STATE_",
              "useLimitRange": true,
              "maxValue": 1.0,
              "minValue": 1.0
            }
          ]
        },
        "HealHP_Pause_AffixUp": {
          "modifierName": "",
          "duration": 1.5,
          "elementDurability": 100.0,
          "onAdded": [
            {
              "$type": "AddGlobalValue",
              "value": 0.0,
              "key": "_HEALHP_STATE_",
              "useLimitRange": true,
              "maxValue": 0.0,
              "minValue": 0.0
            }
          ],
          "onRemoved": [
            {
              "$type": "AddGlobalValue",
              "value": 1.0,
              "key": "_HEALHP_STATE_",
              "useLimitRange": true,
              "maxValue": 1.0,
              "minValue": 1.0
            }
          ]
        },
        "Empty": {
          "modifierName": "",
          "elementDurability": 100.0
        }
      }
    }
  }
]
