[
  {
    "Default": {
      "$type": "ConfigAbility",
      "abilityName": "Monster_AutoMachine_SlimeBalloon_Label",
      "abilityMixins": [
        {
          "$type": "AttachToStateIDMixin",
          "stateIDs": ["Standby", "WalkForward"],
          "modifierName": "MoveEffect1",
          "DGFCLAIDIFI": ""
        }
      ],
      "modifiers": {
        "MoveEffect1": {
          "modifierName": "",
          "elementDurability": 100.0,
          "onAdded": [
            {
              "$type": "AttachEffect",
              "rotationDampTime": "Eff_SceneObj_SlimeBalloon_Move_01",
              "born": {
                "$type": "ConfigBornByAttachPoint",
                "useRotation": true,
                "attachPointName": "TailEffectPoint"
              },
              "PPPDJGDDOGD": 1.0,
              "AJDILHJFNKE": -1.0
            }
          ]
        }
      },
      "onAdded": [
        {
          "$type": "FireEffect",
          "rotationDampTime": "Eff_SceneObj_SlimeBalloon_Appear_01",
          "PPPDJGDDOGD": 1.0,
          "AJDILHJFNKE": -1.0
        },
        {
          "$type": "SetGlobalValue",
          "value": 1.0,
          "key": "_SlimeBalloon_",
          "maxValue": 0.0,
          "minValue": 0.0
        },
        {
          "$type": "SetGlobalValue",
          "value": 0.0,
          "key": "PacMan_Monster_Destroy",
          "maxValue": 0.0,
          "minValue": 0.0
        }
      ]
    }
  },
  {
    "Default": {
      "$type": "ConfigAbility",
      "abilityName": "Monster_AutoMachine_FungusBalloon_Label",
      "abilityMixins": [
        {
          "$type": "AttachToStateIDMixin",
          "stateIDs": ["Standby", "WalkForward"],
          "modifierName": "MoveEffect2",
          "DGFCLAIDIFI": ""
        }
      ],
      "modifiers": {
        "MoveEffect2": {
          "modifierName": "",
          "elementDurability": 100.0,
          "onAdded": [
            {
              "$type": "AttachEffect",
              "rotationDampTime": "Eff_SceneObj_FungusBalloon_Move_01",
              "PPPDJGDDOGD": 1.0,
              "AJDILHJFNKE": -1.0
            }
          ]
        }
      },
      "onAdded": [
        {
          "$type": "FireEffect",
          "rotationDampTime": "Eff_SceneObj_FungusBalloon_Appear_01",
          "PPPDJGDDOGD": 1.0,
          "AJDILHJFNKE": -1.0
        },
        {
          "$type": "SetGlobalValue",
          "value": 1.0,
          "key": "_FungusBalloon_",
          "maxValue": 0.0,
          "minValue": 0.0
        }
      ]
    }
  },
  {
    "Default": {
      "$type": "ConfigAbility",
      "abilityName": "Monster_AutoMachine_Balloon_Dither",
      "modifiers": {
        "DitherCheck": {
          "modifierName": "",
          "elementDurability": 100.0,
          "thinkInterval": 0.5,
          "onThinkInterval": [
            {
              "$type": "Predicated",
              "otherTargets": {
                "$type": "SelectTargetsByShape",
                "topLimit": 1,
                "entityTypePriority": ["Monster"],
                "sortType": "Random",
                "shapeName": "CircleR3",
                "campTargetType": "AllExceptSelf",
                "doOffStage": 1.0
              },
              "predicates": [
                {
                  "$type": "ByTargetGlobalValue",
                  "key": "_PacMan_Balloon_",
                  "value": 1.0
                }
              ],
              "successActions": [
                {
                  "$type": "ApplyModifier",
                  "modifierName": "UNIQUE_Balloon_Dither"
                }
              ],
              "failActions": [
                {
                  "$type": "RemoveUniqueModifier",
                  "modifierName": "UNIQUE_Balloon_Dither"
                }
              ]
            }
          ]
        },
        "UNIQUE_Balloon_Dither": {
          "stacking": "Unique",
          "modifierName": "",
          "forceTriggerWhenChangeAuthority": true,
          "duration": 1.0,
          "elementDurability": 100.0,
          "onAdded": [
            {
              "$type": "AKIIMECIGKE",
              "duration": 1.0
            }
          ],
          "onRemoved": [
            {
              "$type": "AKIIMECIGKE",
              "duration": 0.10000000149011612,
              "reverse": true
            }
          ]
        }
      },
      "onAdded": [
        {
          "$type": "SetGlobalValue",
          "value": 1.0,
          "key": "_PacMan_Balloon_",
          "maxValue": 0.0,
          "minValue": 0.0
        },
        {
          "$type": "ApplyModifier",
          "modifierName": "DitherCheck"
        }
      ]
    }
  },
  {
    "Default": {
      "$type": "ConfigAbility",
      "abilityName": "Monster_AutoMachine_Balloon_Effect",
      "abilityMixins": [
        {
          "$type": "AttachModifierToGlobalValueMixin",
          "globalValueKey": "SGV_PacMan_Monster_Flee",
          "valueSteps": [-0.5, 0.5, 1.5],
          "modifierNameSteps": ["Circle_Logic", "Empty"]
        }
      ],
      "modifiers": {
        "Circle_Logic": {
          "modifierName": "",
          "elementDurability": 100.0,
          "thinkInterval": 0.20000000298023224,
          "onAdded": [
            {
              "$type": "EnablePushColliderName",
              "pushColliderNames": ["PushCollider"],
              "setEnable": true
            },
            {
              "$type": "AttachModifier",
              "predicates": [
                {
                  "$type": "ByTargetGlobalValue",
                  "key": "PacMan_Monster_Destroy",
                  "value": 0.0,
                  "compareType": "NoneOrEqual"
                },
                {
                  "$type": "ByTargetGlobalValue",
                  "key": "_SlimeBalloonBlink_",
                  "value": 0.0,
                  "compareType": "NoneOrEqual"
                }
              ],
              "modifierName": "NormalCircleEffect"
            },
            {
              "$type": "AttachModifier",
              "predicates": [
                {
                  "$type": "ByTargetGlobalValue",
                  "key": "PacMan_Monster_Destroy",
                  "value": 1.0
                },
                {
                  "$type": "ByTargetGlobalValue",
                  "key": "_SlimeBalloonBlink_",
                  "value": 0.0,
                  "compareType": "NoneOrEqual"
                }
              ],
              "modifierName": "SpecialCircleEffect"
            }
          ],
          "onThinkInterval": [
            {
              "$type": "AttachModifier",
              "predicates": [
                {
                  "$type": "BGOKEHHCFHG",
                  "predicates": [
                    {
                      "$type": "ByTargetGlobalValue",
                      "key": "PacMan_Monster_Destroy",
                      "value": 0.0,
                      "compareType": "NoneOrEqual"
                    },
                    {
                      "$type": "ByTargetGlobalValue",
                      "key": "_SlimeBalloonBlink_",
                      "value": 0.0,
                      "compareType": "NoneOrEqual"
                    }
                  ]
                }
              ],
              "modifierName": "NormalCircleEffect"
            },
            {
              "$type": "RemoveModifier",
              "predicates": [
                {
                  "$type": "ByAny",
                  "predicates": [
                    {
                      "$type": "ByTargetGlobalValue",
                      "key": "PacMan_Monster_Destroy",
                      "value": 0.0,
                      "compareType": "NoneOrEqual"
                    },
                    {
                      "$type": "ByTargetGlobalValue",
                      "key": "_SlimeBalloonBlink_",
                      "value": 1.0
                    }
                  ]
                }
              ],
              "modifierName": "SpecialCircleEffect"
            },
            {
              "$type": "AttachModifier",
              "predicates": [
                {
                  "$type": "BGOKEHHCFHG",
                  "predicates": [
                    {
                      "$type": "ByTargetGlobalValue",
                      "key": "PacMan_Monster_Destroy",
                      "value": 1.0
                    },
                    {
                      "$type": "ByTargetGlobalValue",
                      "key": "_SlimeBalloonBlink_",
                      "value": 0.0,
                      "compareType": "NoneOrEqual"
                    }
                  ]
                }
              ],
              "modifierName": "SpecialCircleEffect"
            },
            {
              "$type": "RemoveModifier",
              "predicates": [
                {
                  "$type": "ByAny",
                  "predicates": [
                    {
                      "$type": "ByTargetGlobalValue",
                      "key": "PacMan_Monster_Destroy",
                      "value": 1.0
                    },
                    {
                      "$type": "ByTargetGlobalValue",
                      "key": "_SlimeBalloonBlink_",
                      "value": 1.0
                    }
                  ]
                }
              ],
              "modifierName": "NormalCircleEffect"
            }
          ]
        },
        "NormalCircleEffect": {
          "modifierName": "",
          "elementDurability": 100.0,
          "onAdded": [
            {
              "$type": "AttachEffect",
              "rotationDampTime": "Eff_SceneObj_MonsterBalloon_Attack_Appear",
              "PPPDJGDDOGD": 1.0,
              "AJDILHJFNKE": -1.0
            }
          ],
          "onRemoved": [
            {
              "$type": "FireEffect",
              "rotationDampTime": "Eff_SceneObj_MonsterBalloon_Attack_Disappear",
              "PPPDJGDDOGD": 1.0,
              "AJDILHJFNKE": -1.0
            }
          ]
        },
        "SpecialCircleEffect": {
          "modifierName": "",
          "elementDurability": 100.0,
          "onAdded": [
            {
              "$type": "AttachEffect",
              "rotationDampTime": "Eff_SceneObj_MonsterBalloon_Change_Appear",
              "PPPDJGDDOGD": 1.0,
              "AJDILHJFNKE": -1.0
            }
          ],
          "onRemoved": [
            {
              "$type": "FireEffect",
              "rotationDampTime": "Eff_SceneObj_MonsterBalloon_Change_Disappear",
              "PPPDJGDDOGD": 1.0,
              "AJDILHJFNKE": -1.0
            }
          ]
        },
        "Empty": {
          "modifierName": "",
          "elementDurability": 100.0,
          "onAdded": [
            {
              "$type": "EnablePushColliderName",
              "pushColliderNames": ["PushCollider"]
            },
            {
              "$type": "RemoveUniqueModifier",
              "modifierName": "UNIQUE_DestroyLogic"
            }
          ]
        }
      }
    }
  },
  {
    "Default": {
      "$type": "ConfigAbility",
      "abilityName": "Monster_AutoMachine_Balloon_Destroy",
      "abilityMixins": [
        {
          "$type": "AttachToStateIDMixin",
          "stateIDs": ["DestroyAtk"],
          "modifierName": "DestroySkill",
          "DGFCLAIDIFI": ""
        }
      ],
      "modifiers": {
        "DestroySkill": {
          "modifierName": "",
          "elementDurability": 100.0,
          "onAdded": [
            {
              "$type": "ApplyModifier",
              "modifierName": "UNIQUE_DestroyLogic"
            }
          ]
        },
        "UNIQUE_DestroyLogic": {
          "modifierName": "",
          "forceTriggerWhenChangeAuthority": true,
          "duration": 8.0,
          "elementDurability": 100.0,
          "thinkInterval": 0.20000000298023224,
          "onAdded": [
            {
              "$type": "SetGlobalValue",
              "value": 1.0,
              "key": "PacMan_Monster_Destroy",
              "maxValue": 0.0,
              "minValue": 0.0
            }
          ],
          "onRemoved": [
            {
              "$type": "SetGlobalValue",
              "value": 0.0,
              "key": "PacMan_Monster_Destroy",
              "maxValue": 0.0,
              "minValue": 0.0
            }
          ],
          "onThinkInterval": [
            {
              "$type": "Predicated",
              "otherTargets": {
                "$type": "SelectTargetsByShape",
                "topLimit": 10,
                "entityTypePriority": ["Gadget"],
                "sortType": "Nearest",
                "shapeName": "CircleR2_2H3",
                "campTargetType": "AllExceptSelf",
                "doOffStage": 1.0
              },
              "predicates": [
                {
                  "$type": "ByTargetGlobalValue",
                  "key": "Is_PacMan_Move_Wall",
                  "value": 1.0
                }
              ],
              "successActions": [
                {
                  "$type": "ApplyModifier",
                  "target": "Target",
                  "modifierName": "PacMan_Gadget_KillSelf"
                }
              ]
            }
          ]
        },
        "PacMan_Gadget_KillSelf": {
          "modifierName": "",
          "duration": 0.10000000149011612,
          "elementDurability": 100.0,
          "onAdded": [
            {
              "$type": "KillSelf",
              "configIdArray": [70290843]
            }
          ]
        }
      }
    }
  },
  {
    "Default": {
      "$type": "ConfigAbility",
      "abilityName": "Monster_AutoMachine_Balloon_Blink",
      "abilityMixins": [
        {
          "$type": "AttachToStateIDMixin",
          "stateIDs": ["NormalAtk"],
          "modifierName": "Blink_Control",
          "DGFCLAIDIFI": ""
        },
        {
          "$type": "AttachToStateIDMixin",
          "stateIDs": ["NormalAtk_AS"],
          "modifierName": "Blink_Effect",
          "DGFCLAIDIFI": ""
        }
      ],
      "modifiers": {
        "Blink_Control": {
          "modifierName": "",
          "elementDurability": 100.0,
          "onAdded": [
            {
              "$type": "SetGlobalValue",
              "value": 1.0,
              "key": "_SlimeBalloonBlink_",
              "maxValue": 0.0,
              "minValue": 0.0
            },
            {
              "$type": "BHPDPACKKNI",
              "target": "SelfAttackTarget",
              "born": {
                "$type": "JGJAMOPGDLN",
                "onGround": true,
                "predicates": [
                  {
                    "$type": "MOICGDHOAPE"
                  }
                ],
                "actionPointType": "PacManBlinkPoint",
                "selectType": {
                  "$type": "GFCGAMAMPCO"
                }
              },
              "hitSceneTest": false,
              "limitY": 2.5
            },
            {
              "$type": "FireEffect",
              "rotationDampTime": "Eff_SceneObj_MonsterBalloon_Warning",
              "born": {
                "$type": "DNEKFAOHKBC"
              },
              "PPPDJGDDOGD": 1.0,
              "AJDILHJFNKE": -1.0
            }
          ],
          "onRemoved": [
            {
              "$type": "IFCMHHHOLCK"
            },
            {
              "$type": "SetGlobalValue",
              "value": 0.0,
              "key": "_SlimeBalloonBlink_",
              "maxValue": 0.0,
              "minValue": 0.0
            }
          ]
        },
        "Blink_Effect": {
          "modifierName": "",
          "duration": 0.10000000149011612,
          "elementDurability": 100.0,
          "onRemoved": [
            {
              "$type": "FireEffect",
              "rotationDampTime": "Eff_SceneObj_SlimeBalloon_Transform_01",
              "PPPDJGDDOGD": 1.0,
              "AJDILHJFNKE": -1.0
            }
          ]
        }
      }
    }
  }
]
