[
  {
    "Default": {
      "$type": "ConfigAbility",
      "abilityName": "Monster_Megamoth_EnhanceVersion",
      "modifiers": {
        "EnhanceValue": {
          "modifierName": "",
          "elementDurability": 100.0,
          "properties": {
            "Actor_AttackRatio": 0.5,
            "Actor_MaxHPRatio": 1.0
          }
        }
      },
      "onAdded": [
        {
          "$type": "ApplyModifier",
          "modifierName": "EnhanceValue"
        },
        {
          "$type": "OHPMBBJIJFG",
          "value": 1.0
        }
      ],
      "isDynamicAbility": true
    }
  },
  {
    "Default": {
      "$type": "ConfigAbility",
      "abilityName": "Monster_Megamoth_AdultSize",
      "onAdded": [
        {
          "$type": "SetGlobalValue",
          "value": 1.0,
          "key": "MegamothSize",
          "maxValue": 0.0,
          "minValue": 0.0
        },
        {
          "$type": "HNGKOKDJKDL",
          "skillEliteSetID": 2
        }
      ],
      "isDynamicAbility": true
    }
  },
  {
    "Default": {
      "$type": "ConfigAbility",
      "abilityName": "Monster_Megamoth_GiantSize",
      "abilityMixins": [
        {
          "$type": "AttachToStateIDMixin",
          "stateIDs": ["Walk", "Run"],
          "modifierName": "SpeedDown",
          "DGFCLAIDIFI": ""
        }
      ],
      "modifiers": {
        "SpeedDown": {
          "modifierName": "",
          "elementDurability": 100.0,
          "properties": {
            "Animator_MoveSpeedRatio": -0.5
          }
        }
      },
      "onAdded": [
        {
          "$type": "SetGlobalValue",
          "value": 2.0,
          "key": "MegamothSize",
          "maxValue": 0.0,
          "minValue": 0.0
        },
        {
          "$type": "HNGKOKDJKDL",
          "skillEliteSetID": 2
        }
      ],
      "isDynamicAbility": true
    }
  },
  {
    "Default": {
      "$type": "ConfigAbility",
      "abilityName": "Monster_Megamoth_Accessory_Fatuus",
      "onAdded": [
        {
          "$type": "TriggerSetRenderersEnable",
          "renderNames": ["SkillObj_Monster_Megamoth_Accessory_Fatuus_01"],
          "setEnable": true
        },
        {
          "$type": "EnablePushColliderName",
          "pushColliderNames": ["PushCollider_Extra"],
          "setEnable": true
        },
        {
          "$type": "SetGlobalValue",
          "value": 2.0,
          "key": "MegamothSize",
          "maxValue": 0.0,
          "minValue": 0.0
        },
        {
          "$type": "HNGKOKDJKDL",
          "skillEliteSetID": 3
        },
        {
          "$type": "SetGlobalValue",
          "value": 3.0,
          "key": "MegamothBag",
          "maxValue": 0.0,
          "minValue": 0.0
        }
      ],
      "isDynamicAbility": true
    }
  },
  {
    "Default": {
      "$type": "ConfigAbility",
      "abilityName": "Monster_Megamoth_Accessory_Thoarder",
      "onAdded": [
        {
          "$type": "TriggerSetRenderersEnable",
          "renderNames": ["SkillObj_Monster_Megamoth_Accessory_Thoarder"],
          "setEnable": true
        },
        {
          "$type": "EnablePushColliderName",
          "pushColliderNames": ["PushCollider_Extra"],
          "setEnable": true
        },
        {
          "$type": "SetGlobalValue",
          "value": 1.0,
          "key": "MegamothSize",
          "maxValue": 0.0,
          "minValue": 0.0
        },
        {
          "$type": "HNGKOKDJKDL",
          "skillEliteSetID": 3
        },
        {
          "$type": "SetGlobalValue",
          "value": 2.0,
          "key": "MegamothBag",
          "maxValue": 0.0,
          "minValue": 0.0
        }
      ],
      "isDynamicAbility": true
    }
  },
  {
    "Default": {
      "$type": "ConfigAbility",
      "abilityName": "Monster_Megamoth_Accessory_Hili01",
      "onAdded": [
        {
          "$type": "TriggerSetRenderersEnable",
          "renderNames": ["SkillObj_Monster_Megamoth_Accessory_Hili_01_Model"],
          "setEnable": true
        },
        {
          "$type": "EnablePushColliderName",
          "pushColliderNames": ["PushCollider_Extra"],
          "setEnable": true
        },
        {
          "$type": "HNGKOKDJKDL",
          "skillEliteSetID": 1
        },
        {
          "$type": "SetGlobalValue",
          "value": 1.0,
          "key": "MegamothBag",
          "maxValue": 0.0,
          "minValue": 0.0
        }
      ],
      "isDynamicAbility": true
    }
  },
  {
    "Default": {
      "$type": "ConfigAbility",
      "abilityName": "Monster_Megamoth_Accessory_Hili02",
      "onAdded": [
        {
          "$type": "TriggerSetRenderersEnable",
          "renderNames": ["SkillObj_Monster_Megamoth_Accessory_Hili_02_Model"],
          "setEnable": true
        },
        {
          "$type": "EnablePushColliderName",
          "pushColliderNames": ["PushCollider_Extra"],
          "setEnable": true
        },
        {
          "$type": "HNGKOKDJKDL",
          "skillEliteSetID": 1
        },
        {
          "$type": "SetGlobalValue",
          "value": 1.0,
          "key": "MegamothBag",
          "maxValue": 0.0,
          "minValue": 0.0
        }
      ],
      "isDynamicAbility": true
    }
  },
  {
    "Default": {
      "$type": "ConfigAbility",
      "abilityName": "Monster_Megamoth_None_Steer",
      "abilityMixins": [
        {
          "$type": "IILHMBGONGM",
          "steerStateIDs": ["Alert"],
          "startNormalizedTime": 0.05999999865889549,
          "endNormalizedTime": 0.1599999964237213,
          "angularSpeed": 360.0,
          "attackTrigger": "",
          "DGFCLAIDIFI": ""
        },
        {
          "$type": "IILHMBGONGM",
          "steerStateIDs": ["Attack01_Turn_L"],
          "startNormalizedTime": 0.15000000596046448,
          "endNormalizedTime": 0.8999999761581421,
          "angularSpeed": 135.0,
          "attackTrigger": "",
          "DGFCLAIDIFI": ""
        },
        {
          "$type": "IILHMBGONGM",
          "steerStateIDs": ["Attack01_Turn_R"],
          "startNormalizedTime": 0.15000000596046448,
          "endNormalizedTime": 0.8999999761581421,
          "angularSpeed": 135.0,
          "attackTrigger": "",
          "DGFCLAIDIFI": ""
        },
        {
          "$type": "IILHMBGONGM",
          "steerStateIDs": ["Attack01_Turn_L_HitScence"],
          "startNormalizedTime": 0.15000000596046448,
          "endNormalizedTime": 0.8999999761581421,
          "angularSpeed": 135.0,
          "attackTrigger": "",
          "DGFCLAIDIFI": ""
        },
        {
          "$type": "IILHMBGONGM",
          "steerStateIDs": ["Attack01_Turn_R_HitScence"],
          "startNormalizedTime": 0.15000000596046448,
          "endNormalizedTime": 0.8999999761581421,
          "angularSpeed": 135.0,
          "attackTrigger": "",
          "DGFCLAIDIFI": ""
        },
        {
          "$type": "HMDNADDDAJA",
          "steerStateIDs": ["Attack01_Run"],
          "endNormalizedTime": 9999.0,
          "attackTrigger": "",
          "DGFCLAIDIFI": ""
        },
        {
          "$type": "IILHMBGONGM",
          "steerStateIDs": ["Attack01_Loop"],
          "endNormalizedTime": 9999.0,
          "angularSpeed": 45.0,
          "FPKOAHFHKEG": 90.0,
          "attackTrigger": "AttackLoopStop",
          "attackDistance": 100.0,
          "DGFCLAIDIFI": ""
        },
        {
          "$type": "IILHMBGONGM",
          "steerStateIDs": ["Attack01_Loop_Extra"],
          "endNormalizedTime": 5.0,
          "angularSpeed": 15.0,
          "attackTrigger": "",
          "DGFCLAIDIFI": ""
        },
        {
          "$type": "IILHMBGONGM",
          "steerStateIDs": ["Attack02_Turn_L"],
          "startNormalizedTime": 0.15000000596046448,
          "endNormalizedTime": 0.8999999761581421,
          "angularSpeed": 135.0,
          "attackTrigger": "",
          "DGFCLAIDIFI": ""
        },
        {
          "$type": "IILHMBGONGM",
          "steerStateIDs": ["Attack02_Turn_R"],
          "startNormalizedTime": 0.15000000596046448,
          "endNormalizedTime": 0.8999999761581421,
          "angularSpeed": 135.0,
          "attackTrigger": "",
          "DGFCLAIDIFI": ""
        },
        {
          "$type": "IILHMBGONGM",
          "steerStateIDs": ["Attack02_Turn_L_HitScence"],
          "startNormalizedTime": 0.15000000596046448,
          "endNormalizedTime": 0.8999999761581421,
          "angularSpeed": 135.0,
          "attackTrigger": "",
          "DGFCLAIDIFI": ""
        },
        {
          "$type": "IILHMBGONGM",
          "steerStateIDs": ["Attack02_Turn_R_HitScence"],
          "startNormalizedTime": 0.15000000596046448,
          "endNormalizedTime": 0.8999999761581421,
          "angularSpeed": 135.0,
          "attackTrigger": "",
          "DGFCLAIDIFI": ""
        },
        {
          "$type": "HMDNADDDAJA",
          "steerStateIDs": ["Attack02_Run"],
          "endNormalizedTime": 9999.0,
          "attackTrigger": "",
          "DGFCLAIDIFI": ""
        },
        {
          "$type": "IILHMBGONGM",
          "steerStateIDs": ["Attack02_Loop"],
          "endNormalizedTime": 9999.0,
          "angularSpeed": 30.0,
          "FPKOAHFHKEG": 90.0,
          "attackTrigger": "AttackLoopStop",
          "attackDistance": 100.0,
          "DGFCLAIDIFI": ""
        },
        {
          "$type": "IILHMBGONGM",
          "steerStateIDs": ["Attack02_Loop_Extra"],
          "endNormalizedTime": 5.0,
          "angularSpeed": 15.0,
          "attackTrigger": "",
          "DGFCLAIDIFI": ""
        }
      ]
    }
  },
  {
    "Default": {
      "$type": "ConfigAbility",
      "abilityName": "Monster_Megamoth_None_LeftBack_Foot_Eff",
      "onAbilityStart": [
        {
          "$type": "Predicated",
          "targetPredicates": [
            {
              "$type": "ByTargetGlobalValue",
              "key": "MegamothSize",
              "value": 2.0
            }
          ],
          "successActions": [
            {
              "$type": "FireEffect",
              "rotationDampTime": "Eff_Monster_Megamoth_None_WalkSmoke_L",
              "born": {
                "$type": "ConfigBornByAttachPoint",
                "attachPointName": "Bone_Leg03_L"
              },
              "PPPDJGDDOGD": 1.0,
              "AJDILHJFNKE": -1.0
            }
          ]
        }
      ]
    }
  },
  {
    "Default": {
      "$type": "ConfigAbility",
      "abilityName": "Monster_Megamoth_None_LeftFront_Foot_Eff",
      "onAbilityStart": [
        {
          "$type": "Predicated",
          "targetPredicates": [
            {
              "$type": "ByTargetGlobalValue",
              "key": "MegamothSize",
              "value": 2.0
            }
          ],
          "successActions": [
            {
              "$type": "FireEffect",
              "rotationDampTime": "Eff_Monster_Megamoth_None_WalkSmoke_L",
              "born": {
                "$type": "ConfigBornByAttachPoint",
                "attachPointName": "Bone_Arm04_L"
              },
              "PPPDJGDDOGD": 1.0,
              "AJDILHJFNKE": -1.0
            }
          ]
        }
      ]
    }
  },
  {
    "Default": {
      "$type": "ConfigAbility",
      "abilityName": "Monster_Megamoth_None_RightBack_Foot_Eff",
      "onAbilityStart": [
        {
          "$type": "Predicated",
          "targetPredicates": [
            {
              "$type": "ByTargetGlobalValue",
              "key": "MegamothSize",
              "value": 2.0
            }
          ],
          "successActions": [
            {
              "$type": "FireEffect",
              "rotationDampTime": "Eff_Monster_Megamoth_None_WalkSmoke_L",
              "born": {
                "$type": "ConfigBornByAttachPoint",
                "attachPointName": "Bone_Leg03_R"
              },
              "PPPDJGDDOGD": 1.0,
              "AJDILHJFNKE": -1.0
            }
          ]
        }
      ]
    }
  },
  {
    "Default": {
      "$type": "ConfigAbility",
      "abilityName": "Monster_Megamoth_None_RightFront_Foot_Eff",
      "onAbilityStart": [
        {
          "$type": "Predicated",
          "targetPredicates": [
            {
              "$type": "ByTargetGlobalValue",
              "key": "MegamothSize",
              "value": 2.0
            }
          ],
          "successActions": [
            {
              "$type": "FireEffect",
              "rotationDampTime": "Eff_Monster_Megamoth_None_WalkSmoke_L",
              "born": {
                "$type": "ConfigBornByAttachPoint",
                "attachPointName": "Bone_Arm04_R"
              },
              "PPPDJGDDOGD": 1.0,
              "AJDILHJFNKE": -1.0
            }
          ]
        }
      ]
    }
  },
  {
    "Default": {
      "$type": "ConfigAbility",
      "abilityName": "Monster_Megamoth_None_EffAdapter",
      "abilityMixins": [
        {
          "$type": "AOKOIIHJJPJ",
          "alertness": [2],
          "modifierName": "Megamoth_InCombat"
        },
        {
          "$type": "AOKOIIHJJPJ",
          "alertness": [0],
          "modifierName": "Megamoth_OutCombat"
        },
        {
          "$type": "AttachToStateIDMixin",
          "stateIDs": ["Alert"],
          "modifierName": "Alert_Eff",
          "DGFCLAIDIFI": ""
        },
        {
          "$type": "AttachModifierToGlobalValueMixin",
          "globalValueKey": "InCombat",
          "valueSteps": [-0.5, 0.5, 1.5],
          "modifierNameSteps": ["EatGrass_Control", "Empty"]
        },
        {
          "$type": "AttachToStateIDMixin",
          "stateIDs": ["Attack01_Loop", "Attack01_Loop_Extra", "Attack01_Run"],
          "modifierName": "Attack01Loop_Eff",
          "DGFCLAIDIFI": ""
        },
        {
          "$type": "AttachToStateIDMixin",
          "stateIDs": ["Attack01_AS"],
          "modifierName": "Attack01AS_Eff",
          "DGFCLAIDIFI": ""
        },
        {
          "$type": "AttachToStateIDMixin",
          "stateIDs": ["Attack01_BS"],
          "modifierName": "Attack01BS_Eff",
          "DGFCLAIDIFI": ""
        },
        {
          "$type": "AttachToStateIDMixin",
          "stateIDs": ["Attack02_Loop", "Attack02_Loop_Extra", "Attack02_Run"],
          "modifierName": "Attack02Loop_Eff",
          "DGFCLAIDIFI": ""
        },
        {
          "$type": "AttachToStateIDMixin",
          "stateIDs": ["Attack02_AS"],
          "modifierName": "Attack02AS_Eff",
          "DGFCLAIDIFI": ""
        },
        {
          "$type": "AttachToStateIDMixin",
          "stateIDs": ["Attack02_BS"],
          "modifierName": "Attack02BS_Eff",
          "DGFCLAIDIFI": ""
        },
        {
          "$type": "AttachToStateIDMixin",
          "stateIDs": ["Personality1"],
          "modifierName": "Personality1_Eff",
          "DGFCLAIDIFI": ""
        },
        {
          "$type": "AttachToStateIDMixin",
          "stateIDs": ["Personality3_BS"],
          "modifierName": "Personality3_BS_Eff",
          "DGFCLAIDIFI": ""
        },
        {
          "$type": "AttachToStateIDMixin",
          "stateIDs": ["Personality4_BS"],
          "modifierName": "Personality4_BS_Eff",
          "DGFCLAIDIFI": ""
        },
        {
          "$type": "AttachToStateIDMixin",
          "stateIDs": ["Personality4_Play"],
          "modifierName": "Personality4_Eff",
          "DGFCLAIDIFI": ""
        }
      ],
      "modifiers": {
        "Megamoth_InCombat": {
          "modifierName": "",
          "elementDurability": 100.0,
          "onAdded": [
            {
              "$type": "SetGlobalValue",
              "value": 1.0,
              "key": "InCombat",
              "maxValue": 0.0,
              "minValue": 0.0
            }
          ]
        },
        "Megamoth_OutCombat": {
          "modifierName": "",
          "elementDurability": 100.0,
          "onAdded": [
            {
              "$type": "SetGlobalValue",
              "value": 0.0,
              "key": "InCombat",
              "maxValue": 0.0,
              "minValue": 0.0
            }
          ]
        },
        "Empty": {
          "modifierName": "",
          "elementDurability": 100.0
        },
        "EatGrass_Control": {
          "modifierName": "",
          "elementDurability": 100.0,
          "modifierMixins": [
            {
              "$type": "AttachToStateIDMixin",
              "stateIDs": ["NormalIdle", "Walk"],
              "modifierName": "EatGrass_Eff",
              "DGFCLAIDIFI": ""
            }
          ]
        },
        "EatGrass_Eff": {
          "modifierName": "",
          "elementDurability": 100.0,
          "onAdded": [
            {
              "$type": "Predicated",
              "targetPredicates": [
                {
                  "$type": "ByTargetGlobalValue",
                  "key": "MegamothSize",
                  "value": 0.0,
                  "compareType": "NoneOrEqual"
                }
              ],
              "successActions": [
                {
                  "$type": "AttachEffect",
                  "rotationDampTime": "Eff_Monster_Megamoth_None_EatGrass_S",
                  "born": {
                    "$type": "ConfigBornByAttachPoint",
                    "attachPointName": "Head"
                  },
                  "PPPDJGDDOGD": 1.0,
                  "AJDILHJFNKE": -1.0
                }
              ]
            },
            {
              "$type": "Predicated",
              "targetPredicates": [
                {
                  "$type": "ByTargetGlobalValue",
                  "key": "MegamothSize",
                  "value": 1.0
                }
              ],
              "successActions": [
                {
                  "$type": "AttachEffect",
                  "rotationDampTime": "Eff_Monster_Megamoth_None_EatGrass_M",
                  "born": {
                    "$type": "ConfigBornByAttachPoint",
                    "attachPointName": "Head"
                  },
                  "PPPDJGDDOGD": 1.0,
                  "AJDILHJFNKE": -1.0
                }
              ]
            },
            {
              "$type": "Predicated",
              "targetPredicates": [
                {
                  "$type": "ByTargetGlobalValue",
                  "key": "MegamothSize",
                  "value": 2.0
                }
              ],
              "successActions": [
                {
                  "$type": "AttachEffect",
                  "rotationDampTime": "Eff_Monster_Megamoth_None_EatGrass_L",
                  "born": {
                    "$type": "ConfigBornByAttachPoint",
                    "attachPointName": "Head"
                  },
                  "PPPDJGDDOGD": 1.0,
                  "AJDILHJFNKE": -1.0
                }
              ]
            }
          ]
        },
        "Alert_Eff": {
          "modifierName": "",
          "elementDurability": 100.0,
          "onAdded": [
            {
              "$type": "Predicated",
              "targetPredicates": [
                {
                  "$type": "ByTargetGlobalValue",
                  "key": "MegamothSize",
                  "value": 0.0,
                  "compareType": "NoneOrEqual"
                }
              ],
              "successActions": [
                {
                  "$type": "FireEffect",
                  "rotationDampTime": "Eff_Monster_Megamoth_None_Alert_S",
                  "PPPDJGDDOGD": 1.0,
                  "AJDILHJFNKE": -1.0
                }
              ]
            },
            {
              "$type": "Predicated",
              "targetPredicates": [
                {
                  "$type": "ByTargetGlobalValue",
                  "key": "MegamothSize",
                  "value": 1.0
                }
              ],
              "successActions": [
                {
                  "$type": "FireEffect",
                  "rotationDampTime": "Eff_Monster_Megamoth_None_Alert_M",
                  "PPPDJGDDOGD": 1.0,
                  "AJDILHJFNKE": -1.0
                }
              ]
            },
            {
              "$type": "Predicated",
              "targetPredicates": [
                {
                  "$type": "ByTargetGlobalValue",
                  "key": "MegamothSize",
                  "value": 2.0
                }
              ],
              "successActions": [
                {
                  "$type": "FireEffect",
                  "rotationDampTime": "Eff_Monster_Megamoth_None_Alert_L",
                  "PPPDJGDDOGD": 1.0,
                  "AJDILHJFNKE": -1.0
                }
              ]
            }
          ]
        },
        "Attack01Loop_Eff": {
          "modifierName": "",
          "elementDurability": 100.0,
          "onAdded": [
            {
              "$type": "Predicated",
              "targetPredicates": [
                {
                  "$type": "ByTargetGlobalValue",
                  "key": "MegamothSize",
                  "value": 0.0,
                  "compareType": "NoneOrEqual"
                }
              ],
              "successActions": [
                {
                  "$type": "AttachEffect",
                  "rotationDampTime": "Eff_Monster_Megamoth_None_Attack01_Run_S",
                  "PPPDJGDDOGD": 1.0,
                  "AJDILHJFNKE": -1.0
                }
              ]
            },
            {
              "$type": "Predicated",
              "targetPredicates": [
                {
                  "$type": "ByTargetGlobalValue",
                  "key": "MegamothSize",
                  "value": 1.0
                }
              ],
              "successActions": [
                {
                  "$type": "AttachEffect",
                  "rotationDampTime": "Eff_Monster_Megamoth_None_Attack01_Run_M",
                  "PPPDJGDDOGD": 1.0,
                  "AJDILHJFNKE": -1.0
                }
              ]
            },
            {
              "$type": "Predicated",
              "targetPredicates": [
                {
                  "$type": "ByTargetGlobalValue",
                  "key": "MegamothSize",
                  "value": 2.0
                }
              ],
              "successActions": [
                {
                  "$type": "AttachEffect",
                  "rotationDampTime": "Eff_Monster_Megamoth_None_Attack01_Run_L",
                  "PPPDJGDDOGD": 1.0,
                  "AJDILHJFNKE": -1.0
                }
              ]
            }
          ]
        },
        "Attack01AS_Eff": {
          "modifierName": "",
          "elementDurability": 100.0,
          "onAdded": [
            {
              "$type": "Predicated",
              "targetPredicates": [
                {
                  "$type": "ByTargetGlobalValue",
                  "key": "MegamothSize",
                  "value": 0.0,
                  "compareType": "NoneOrEqual"
                }
              ],
              "successActions": [
                {
                  "$type": "AttachEffect",
                  "rotationDampTime": "Eff_Monster_Megamoth_None_Attack01_AS_S",
                  "PPPDJGDDOGD": 1.0,
                  "AJDILHJFNKE": -1.0
                }
              ]
            },
            {
              "$type": "Predicated",
              "targetPredicates": [
                {
                  "$type": "ByTargetGlobalValue",
                  "key": "MegamothSize",
                  "value": 1.0
                }
              ],
              "successActions": [
                {
                  "$type": "AttachEffect",
                  "rotationDampTime": "Eff_Monster_Megamoth_None_Attack01_AS_M",
                  "PPPDJGDDOGD": 1.0,
                  "AJDILHJFNKE": -1.0
                }
              ]
            },
            {
              "$type": "Predicated",
              "targetPredicates": [
                {
                  "$type": "ByTargetGlobalValue",
                  "key": "MegamothSize",
                  "value": 2.0
                }
              ],
              "successActions": [
                {
                  "$type": "AttachEffect",
                  "rotationDampTime": "Eff_Monster_Megamoth_None_Attack01_AS_L",
                  "PPPDJGDDOGD": 1.0,
                  "AJDILHJFNKE": -1.0
                }
              ]
            }
          ]
        },
        "Attack01BS_Eff": {
          "modifierName": "",
          "elementDurability": 100.0,
          "onAdded": [
            {
              "$type": "Predicated",
              "targetPredicates": [
                {
                  "$type": "ByTargetGlobalValue",
                  "key": "MegamothSize",
                  "value": 0.0,
                  "compareType": "NoneOrEqual"
                }
              ],
              "successActions": [
                {
                  "$type": "FireEffect",
                  "rotationDampTime": "Eff_Monster_Megamoth_None_Attack01_BS_S",
                  "PPPDJGDDOGD": 1.0,
                  "AJDILHJFNKE": -1.0
                }
              ]
            },
            {
              "$type": "Predicated",
              "targetPredicates": [
                {
                  "$type": "ByTargetGlobalValue",
                  "key": "MegamothSize",
                  "value": 1.0
                }
              ],
              "successActions": [
                {
                  "$type": "FireEffect",
                  "rotationDampTime": "Eff_Monster_Megamoth_None_Attack01_BS_M",
                  "PPPDJGDDOGD": 1.0,
                  "AJDILHJFNKE": -1.0
                }
              ]
            },
            {
              "$type": "Predicated",
              "targetPredicates": [
                {
                  "$type": "ByTargetGlobalValue",
                  "key": "MegamothSize",
                  "value": 2.0
                }
              ],
              "successActions": [
                {
                  "$type": "FireEffect",
                  "rotationDampTime": "Eff_Monster_Megamoth_None_Attack01_BS_L",
                  "PPPDJGDDOGD": 1.0,
                  "AJDILHJFNKE": -1.0
                }
              ]
            }
          ]
        },
        "Attack02Loop_Eff": {
          "modifierName": "",
          "elementDurability": 100.0,
          "onAdded": [
            {
              "$type": "Predicated",
              "targetPredicates": [
                {
                  "$type": "ByTargetGlobalValue",
                  "key": "MegamothSize",
                  "value": 0.0,
                  "compareType": "NoneOrEqual"
                }
              ],
              "successActions": [
                {
                  "$type": "AttachEffect",
                  "rotationDampTime": "Eff_Monster_Megamoth_None_Attack02_Run_S",
                  "PPPDJGDDOGD": 1.0,
                  "AJDILHJFNKE": -1.0
                },
                {
                  "$type": "AttachEffect",
                  "rotationDampTime": "Eff_Monster_Megamoth_None_Attack02_Smoke_S",
                  "PPPDJGDDOGD": 1.0,
                  "AJDILHJFNKE": -1.0
                }
              ]
            },
            {
              "$type": "Predicated",
              "targetPredicates": [
                {
                  "$type": "ByTargetGlobalValue",
                  "key": "MegamothSize",
                  "value": 1.0
                }
              ],
              "successActions": [
                {
                  "$type": "AttachEffect",
                  "rotationDampTime": "Eff_Monster_Megamoth_None_Attack02_Run_M",
                  "PPPDJGDDOGD": 1.0,
                  "AJDILHJFNKE": -1.0
                },
                {
                  "$type": "AttachEffect",
                  "rotationDampTime": "Eff_Monster_Megamoth_None_Attack02_Smoke_M",
                  "PPPDJGDDOGD": 1.0,
                  "AJDILHJFNKE": -1.0
                }
              ]
            },
            {
              "$type": "Predicated",
              "targetPredicates": [
                {
                  "$type": "ByTargetGlobalValue",
                  "key": "MegamothSize",
                  "value": 2.0
                }
              ],
              "successActions": [
                {
                  "$type": "AttachEffect",
                  "rotationDampTime": "Eff_Monster_Megamoth_None_Attack02_Run_L",
                  "PPPDJGDDOGD": 1.0,
                  "AJDILHJFNKE": -1.0
                },
                {
                  "$type": "AttachEffect",
                  "rotationDampTime": "Eff_Monster_Megamoth_None_Attack02_Smoke_L",
                  "PPPDJGDDOGD": 1.0,
                  "AJDILHJFNKE": -1.0
                }
              ]
            }
          ]
        },
        "Attack02AS_Eff": {
          "modifierName": "",
          "elementDurability": 100.0,
          "onAdded": [
            {
              "$type": "Predicated",
              "targetPredicates": [
                {
                  "$type": "ByTargetGlobalValue",
                  "key": "MegamothSize",
                  "value": 0.0,
                  "compareType": "NoneOrEqual"
                }
              ],
              "successActions": [
                {
                  "$type": "AttachEffect",
                  "rotationDampTime": "Eff_Monster_Megamoth_None_Attack02_AS_S",
                  "PPPDJGDDOGD": 1.0,
                  "AJDILHJFNKE": -1.0
                }
              ]
            },
            {
              "$type": "Predicated",
              "targetPredicates": [
                {
                  "$type": "ByTargetGlobalValue",
                  "key": "MegamothSize",
                  "value": 1.0
                }
              ],
              "successActions": [
                {
                  "$type": "AttachEffect",
                  "rotationDampTime": "Eff_Monster_Megamoth_None_Attack02_AS_M",
                  "PPPDJGDDOGD": 1.0,
                  "AJDILHJFNKE": -1.0
                }
              ]
            },
            {
              "$type": "Predicated",
              "targetPredicates": [
                {
                  "$type": "ByTargetGlobalValue",
                  "key": "MegamothSize",
                  "value": 2.0
                }
              ],
              "successActions": [
                {
                  "$type": "AttachEffect",
                  "rotationDampTime": "Eff_Monster_Megamoth_None_Attack02_AS_L",
                  "PPPDJGDDOGD": 1.0,
                  "AJDILHJFNKE": -1.0
                }
              ]
            }
          ]
        },
        "Attack02BS_Eff": {
          "modifierName": "",
          "elementDurability": 100.0,
          "onAdded": [
            {
              "$type": "Predicated",
              "targetPredicates": [
                {
                  "$type": "ByTargetGlobalValue",
                  "key": "MegamothSize",
                  "value": 0.0,
                  "compareType": "NoneOrEqual"
                }
              ],
              "successActions": [
                {
                  "$type": "FireEffect",
                  "rotationDampTime": "Eff_Monster_Megamoth_None_Attack02_BS_S",
                  "PPPDJGDDOGD": 1.0,
                  "AJDILHJFNKE": -1.0
                }
              ]
            },
            {
              "$type": "Predicated",
              "targetPredicates": [
                {
                  "$type": "ByTargetGlobalValue",
                  "key": "MegamothSize",
                  "value": 1.0
                }
              ],
              "successActions": [
                {
                  "$type": "FireEffect",
                  "rotationDampTime": "Eff_Monster_Megamoth_None_Attack02_BS_M",
                  "PPPDJGDDOGD": 1.0,
                  "AJDILHJFNKE": -1.0
                }
              ]
            },
            {
              "$type": "Predicated",
              "targetPredicates": [
                {
                  "$type": "ByTargetGlobalValue",
                  "key": "MegamothSize",
                  "value": 2.0
                }
              ],
              "successActions": [
                {
                  "$type": "FireEffect",
                  "rotationDampTime": "Eff_Monster_Megamoth_None_Attack02_BS_L",
                  "PPPDJGDDOGD": 1.0,
                  "AJDILHJFNKE": -1.0
                }
              ]
            }
          ]
        },
        "Personality1_Eff": {
          "modifierName": "",
          "elementDurability": 100.0,
          "onAdded": [
            {
              "$type": "Predicated",
              "targetPredicates": [
                {
                  "$type": "ByTargetGlobalValue",
                  "key": "MegamothSize",
                  "value": 0.0,
                  "compareType": "NoneOrEqual"
                }
              ],
              "successActions": [
                {
                  "$type": "FireEffect",
                  "rotationDampTime": "Eff_Monster_Megamoth_None_Personality01_S",
                  "PPPDJGDDOGD": 1.0,
                  "AJDILHJFNKE": -1.0
                }
              ]
            },
            {
              "$type": "Predicated",
              "targetPredicates": [
                {
                  "$type": "ByTargetGlobalValue",
                  "key": "MegamothSize",
                  "value": 1.0
                }
              ],
              "successActions": [
                {
                  "$type": "FireEffect",
                  "rotationDampTime": "Eff_Monster_Megamoth_None_Personality01_M",
                  "PPPDJGDDOGD": 1.0,
                  "AJDILHJFNKE": -1.0
                }
              ]
            },
            {
              "$type": "Predicated",
              "targetPredicates": [
                {
                  "$type": "ByTargetGlobalValue",
                  "key": "MegamothSize",
                  "value": 2.0
                }
              ],
              "successActions": [
                {
                  "$type": "FireEffect",
                  "rotationDampTime": "Eff_Monster_Megamoth_None_Personality01_L",
                  "PPPDJGDDOGD": 1.0,
                  "AJDILHJFNKE": -1.0
                }
              ]
            }
          ]
        },
        "Personality3_BS_Eff": {
          "modifierName": "",
          "elementDurability": 100.0,
          "onAdded": [
            {
              "$type": "Predicated",
              "targetPredicates": [
                {
                  "$type": "ByTargetGlobalValue",
                  "key": "MegamothSize",
                  "value": 0.0,
                  "compareType": "NoneOrEqual"
                }
              ],
              "successActions": [
                {
                  "$type": "AttachEffect",
                  "rotationDampTime": "Eff_Monster_Megamoth_None_Personality03_S",
                  "PPPDJGDDOGD": 1.0,
                  "AJDILHJFNKE": -1.0
                }
              ]
            },
            {
              "$type": "Predicated",
              "targetPredicates": [
                {
                  "$type": "ByTargetGlobalValue",
                  "key": "MegamothSize",
                  "value": 1.0
                }
              ],
              "successActions": [
                {
                  "$type": "AttachEffect",
                  "rotationDampTime": "Eff_Monster_Megamoth_None_Personality03_M",
                  "PPPDJGDDOGD": 1.0,
                  "AJDILHJFNKE": -1.0
                }
              ]
            },
            {
              "$type": "Predicated",
              "targetPredicates": [
                {
                  "$type": "ByTargetGlobalValue",
                  "key": "MegamothSize",
                  "value": 2.0
                }
              ],
              "successActions": [
                {
                  "$type": "AttachEffect",
                  "rotationDampTime": "Eff_Monster_Megamoth_None_Personality03_L",
                  "PPPDJGDDOGD": 1.0,
                  "AJDILHJFNKE": -1.0
                }
              ]
            }
          ]
        },
        "Personality4_BS_Eff": {
          "modifierName": "",
          "elementDurability": 100.0,
          "onAdded": [
            {
              "$type": "Predicated",
              "targetPredicates": [
                {
                  "$type": "ByTargetGlobalValue",
                  "key": "MegamothSize",
                  "value": 0.0,
                  "compareType": "NoneOrEqual"
                }
              ],
              "successActions": [
                {
                  "$type": "AttachEffect",
                  "rotationDampTime": "Eff_Monster_Megamoth_None_Personality04_BS_S",
                  "PPPDJGDDOGD": 1.0,
                  "AJDILHJFNKE": -1.0
                }
              ]
            },
            {
              "$type": "Predicated",
              "targetPredicates": [
                {
                  "$type": "ByTargetGlobalValue",
                  "key": "MegamothSize",
                  "value": 1.0
                }
              ],
              "successActions": [
                {
                  "$type": "AttachEffect",
                  "rotationDampTime": "Eff_Monster_Megamoth_None_Personality04_BS_M",
                  "PPPDJGDDOGD": 1.0,
                  "AJDILHJFNKE": -1.0
                }
              ]
            },
            {
              "$type": "Predicated",
              "targetPredicates": [
                {
                  "$type": "ByTargetGlobalValue",
                  "key": "MegamothSize",
                  "value": 2.0
                }
              ],
              "successActions": [
                {
                  "$type": "AttachEffect",
                  "rotationDampTime": "Eff_Monster_Megamoth_None_Personality04_BS_L",
                  "PPPDJGDDOGD": 1.0,
                  "AJDILHJFNKE": -1.0
                }
              ]
            }
          ]
        },
        "Personality4_Eff": {
          "modifierName": "",
          "elementDurability": 100.0,
          "onAdded": [
            {
              "$type": "Predicated",
              "targetPredicates": [
                {
                  "$type": "ByTargetGlobalValue",
                  "key": "MegamothSize",
                  "value": 0.0,
                  "compareType": "NoneOrEqual"
                }
              ],
              "successActions": [
                {
                  "$type": "FireEffect",
                  "rotationDampTime": "Eff_Monster_Megamoth_None_Personality04_S",
                  "PPPDJGDDOGD": 1.0,
                  "AJDILHJFNKE": -1.0
                }
              ]
            },
            {
              "$type": "Predicated",
              "targetPredicates": [
                {
                  "$type": "ByTargetGlobalValue",
                  "key": "MegamothSize",
                  "value": 1.0
                }
              ],
              "successActions": [
                {
                  "$type": "FireEffect",
                  "rotationDampTime": "Eff_Monster_Megamoth_None_Personality04_M",
                  "PPPDJGDDOGD": 1.0,
                  "AJDILHJFNKE": -1.0
                }
              ]
            },
            {
              "$type": "Predicated",
              "targetPredicates": [
                {
                  "$type": "ByTargetGlobalValue",
                  "key": "MegamothSize",
                  "value": 2.0
                }
              ],
              "successActions": [
                {
                  "$type": "FireEffect",
                  "rotationDampTime": "Eff_Monster_Megamoth_None_Personality04_L",
                  "PPPDJGDDOGD": 1.0,
                  "AJDILHJFNKE": -1.0
                }
              ]
            }
          ]
        }
      }
    }
  },
  {
    "Default": {
      "$type": "ConfigAbility",
      "abilityName": "Monster_Megamoth_None_ChewControl",
      "abilityMixins": [
        {
          "$type": "AttachToStateIDMixin",
          "stateIDs": ["NormalIdle", "Walk"],
          "modifierName": "ChewControl",
          "DGFCLAIDIFI": ""
        }
      ],
      "modifiers": {
        "ChewControl": {
          "modifierName": "",
          "elementDurability": 100.0,
          "onAdded": [
            {
              "$type": "ApplyModifier",
              "modifierName": "ChewStart"
            }
          ],
          "onRemoved": [
            {
              "$type": "RemoveModifier",
              "modifierName": "ChewStart"
            },
            {
              "$type": "SetAnimatorBool",
              "boolID": "ChewControl"
            }
          ]
        },
        "ChewStart": {
          "modifierName": "",
          "duration": 0.6000000238418579,
          "elementDurability": 100.0,
          "onRemoved": [
            {
              "$type": "SetAnimatorBool",
              "boolID": "ChewControl",
              "value": true
            }
          ]
        }
      }
    }
  },
  {
    "Default": {
      "$type": "ConfigAbility",
      "abilityName": "Monster_Megamoth_None_Personality03",
      "abilityMixins": [
        {
          "$type": "AttachToStateIDMixin",
          "stateIDs": ["Personality3_BS", "Personality3_Loop"],
          "modifierName": "Personality03_StateControl",
          "DGFCLAIDIFI": ""
        }
      ],
      "modifiers": {
        "Personality03_StateControl": {
          "modifierName": "",
          "elementDurability": 100.0,
          "onAdded": [
            {
              "$type": "IDNGFEEBPAM",
              "boolID": "Sit",
              "value": true
            }
          ],
          "onRemoved": [
            {
              "$type": "IDNGFEEBPAM",
              "boolID": "Sit"
            }
          ]
        }
      }
    }
  },
  {
    "Default": {
      "$type": "ConfigAbility",
      "abilityName": "Monster_Megamoth_None_Personality04",
      "abilityMixins": [
        {
          "$type": "AttachToStateIDMixin",
          "stateIDs": ["Personality4_BS", "Personality4_Loop"],
          "modifierName": "Personality04_StateControl",
          "DGFCLAIDIFI": ""
        }
      ],
      "modifiers": {
        "Personality04_StateControl": {
          "modifierName": "",
          "elementDurability": 100.0,
          "onAdded": [
            {
              "$type": "IDNGFEEBPAM",
              "boolID": "Sleep",
              "value": true
            },
            {
              "$type": "SetAnimatorBool",
              "boolID": "Sleep",
              "value": true
            }
          ],
          "onRemoved": [
            {
              "$type": "IDNGFEEBPAM",
              "boolID": "Sleep"
            },
            {
              "$type": "SetAnimatorBool",
              "boolID": "Sleep"
            }
          ]
        }
      }
    }
  },
  {
    "Default": {
      "$type": "ConfigAbility",
      "abilityName": "Monster_Megamoth_None_RCMethod",
      "abilityMixins": [
        {
          "$type": "AttachToStateIDMixin",
          "stateIDs": [
            "Attack01_BS",
            "Attack02_BS",
            "Personality3_BS",
            "Personality4_BS"
          ],
          "modifierName": "RCReset",
          "DGFCLAIDIFI": ""
        },
        {
          "$type": "AttachToStateIDMixin",
          "stateIDs": [
            "Attack01_Loop",
            "Attack01_Run",
            "Attack02_Loop",
            "Attack02_Run",
            "Personality3_Loop",
            "Personality4_Loop"
          ],
          "modifierName": "RCChecker",
          "DGFCLAIDIFI": ""
        }
      ],
      "modifiers": {
        "RCReset": {
          "modifierName": "",
          "elementDurability": 100.0,
          "onAdded": [
            {
              "$type": "ResetAnimatorTrigger",
              "triggerID": "SkillRC"
            }
          ]
        },
        "RCChecker": {
          "modifierName": "",
          "elementDurability": 100.0,
          "onReconnect": [
            {
              "$type": "SetAnimatorTrigger",
              "triggerID": "SkillRC"
            },
            {
              "$type": "DOANGHCALGB",
              "skillIDs": [201, 211, 221, 231, 241]
            }
          ]
        }
      }
    }
  },
  {
    "Default": {
      "$type": "ConfigAbility",
      "abilityName": "Monster_Megamoth_None_Attack01",
      "abilityMixins": [
        {
          "$type": "AttachToStateIDMixin",
          "stateIDs": ["Attack01_Loop", "Attack01_Loop_Extra"],
          "modifierName": "Attack01LoopHit",
          "DGFCLAIDIFI": ""
        },
        {
          "$type": "AttachToStateIDMixin",
          "stateIDs": [
            "Attack01_Turn_L",
            "Attack01_Turn_R",
            "Attack01_Run",
            "Attack01_Run_Extra",
            "Attack01_Turn_L_HitScence",
            "Attack01_Turn_R_HitScence"
          ],
          "modifierName": "Attack01RunHit",
          "DGFCLAIDIFI": ""
        },
        {
          "$type": "AttachToStateIDMixin",
          "stateIDs": ["Attack01_Loop"],
          "modifierName": "Attack01LoopCount",
          "DGFCLAIDIFI": ""
        },
        {
          "$type": "AttachToStateIDMixin",
          "stateIDs": ["Attack01_AS", "Attack01_AS_HitScence"],
          "modifierName": "Attack01ParamReset",
          "DGFCLAIDIFI": ""
        },
        {
          "$type": "AttachToStateIDMixin",
          "stateIDs": ["Attack01_Run"],
          "modifierName": "Attack01RunCheck",
          "DGFCLAIDIFI": ""
        },
        {
          "$type": "CGANCPEKBPF",
          "onHittingScene": [
            {
              "$type": "SetAnimatorInt",
              "intID": "HitScence",
              "value": 1.0
            },
            {
              "$type": "AddGlobalValue",
              "value": 1.0,
              "key": "HitScenceCount",
              "useLimitRange": true,
              "maxValue": 6.0,
              "minValue": 0.0
            },
            {
              "$type": "SetAnimatorTrigger",
              "predicates": [
                {
                  "$type": "ByTargetGlobalValue",
                  "target": "Self",
                  "key": "HitScenceCount",
                  "value": 6.0,
                  "compareType": "MoreThanAndEqual"
                }
              ],
              "triggerID": "HitTooMany"
            }
          ],
          "animEventIDs": ["Megamoth_HitScene"]
        },
        {
          "$type": "AttachToStateIDMixin",
          "stateIDs": [
            "Attack01_Turn_L_HitScence",
            "Attack01_Turn_R_HitScence"
          ],
          "modifierName": "Attack01HitScenceReset",
          "DGFCLAIDIFI": ""
        }
      ],
      "abilitySpecials": {
        "AttackRatio": 1.0,
        "AttackCycle": 2.0
      },
      "modifiers": {
        "Attack01LoopHit": {
          "modifierName": "",
          "elementDurability": 100.0,
          "thinkInterval": 0.18000000715255737,
          "onThinkInterval": [
            {
              "$type": "TriggerAttackEvent",
              "attackEvent": {
                "attackPattern": {
                  "$type": "ConfigAttackBox",
                  "triggerType": "TriggerNoRepeat",
                  "born": {
                    "$type": "ConfigBornBySelf",
                    "offset": {
                      "x": 0.0,
                      "y": 1.0,
                      "z": 0.0
                    }
                  },
                  "size": {
                    "x": [2.200000047683716, "AttackRatio", "MUL"],
                    "y": [2.0, "AttackRatio", "MUL"],
                    "z": [3.0, "AttackRatio", "MUL"]
                  }
                },
                "attackInfo": {
                  "attackTag": "",
                  "attenuationTag": "Animal_Boar_03_RushAttack",
                  "attenuationGroup": "Animal_Boar_03_RushAttack",
                  "attackProperty": {
                    "actorGrassSubHurtDelta": 1.0,
                    "actorWindSubHurtDelta": 0.0,
                    "elementDurability": 100.0,
                    "strikeType": "Blunt",
                    "enBreak": 200.0,
                    "GLKMCMDJBIK": 0.0
                  },
                  "hitPattern": {
                    "onHitEffectName": "default",
                    "hitImpulseY": "",
                    "hitImpulseType": "LV4",
                    "retreatType": "ByTangent",
                    "hitHaltTimeScale": 0.05000000074505806
                  }
                }
              },
              "targetType": "Enemy"
            }
          ]
        },
        "Attack01RunHit": {
          "modifierName": "",
          "elementDurability": 100.0,
          "thinkInterval": 0.30000001192092896,
          "onThinkInterval": [
            {
              "$type": "TriggerAttackEvent",
              "attackEvent": {
                "attackPattern": {
                  "$type": "ConfigAttackBox",
                  "triggerType": "TriggerNoRepeat",
                  "born": {
                    "$type": "ConfigBornBySelf",
                    "offset": {
                      "x": 0.0,
                      "y": 1.0,
                      "z": 0.0
                    }
                  },
                  "size": {
                    "x": [2.200000047683716, "AttackRatio", "MUL"],
                    "y": [2.0, "AttackRatio", "MUL"],
                    "z": [3.0, "AttackRatio", "MUL"]
                  }
                },
                "attackInfo": {
                  "attackTag": "",
                  "attenuationTag": "Animal_Boar_03_RushAttack",
                  "attenuationGroup": "Animal_Boar_03_RushAttack",
                  "attackProperty": {
                    "actorGrassSubHurtDelta": 0.10000000149011612,
                    "actorWindSubHurtDelta": 0.0,
                    "elementDurability": 100.0,
                    "strikeType": "Blunt",
                    "enBreak": 200.0,
                    "GLKMCMDJBIK": 0.0
                  },
                  "hitPattern": {
                    "onHitEffectName": "default",
                    "hitImpulseY": "",
                    "hitImpulseType": "LV4",
                    "retreatType": "ByTangent",
                    "hitHaltTimeScale": 0.05000000074505806
                  }
                }
              },
              "targetType": "Enemy"
            }
          ]
        },
        "Attack01RunCheck": {
          "modifierName": "",
          "elementDurability": 100.0,
          "thinkInterval": 0.10000000149011612,
          "onThinkInterval": [
            {
              "$type": "Predicated",
              "target": "SelfAttackTarget",
              "targetPredicates": [
                {
                  "$type": "ByTargetPositionToSelfPosition",
                  "logic": "LesserOrEqual",
                  "value": 9.0,
                  "DDALGNLEHOD": ""
                }
              ],
              "successActions": [
                {
                  "$type": "SetAnimatorInt",
                  "intID": "AttackTarget",
                  "value": 1.0
                }
              ],
              "failActions": [
                {
                  "$type": "SetAnimatorInt",
                  "intID": "AttackTarget",
                  "value": 0.0
                }
              ]
            }
          ]
        },
        "Attack01LoopCount": {
          "modifierName": "",
          "elementDurability": 100.0,
          "onAdded": [
            {
              "$type": "AddGlobalValue",
              "value": 1.0,
              "key": "Attack01LoopCount",
              "useLimitRange": true,
              "maxValue": 3.0,
              "minValue": 0.0
            },
            {
              "$type": "SetAnimatorInt",
              "predicates": [
                {
                  "$type": "ByTargetGlobalValue",
                  "target": "Self",
                  "key": "Attack01LoopCount",
                  "value": "AttackCycle",
                  "compareType": "MoreThanAndEqual"
                }
              ],
              "intID": "AttackCycleEnd",
              "value": 1.0
            }
          ]
        },
        "Attack01ParamReset": {
          "modifierName": "",
          "duration": 0.5,
          "elementDurability": 100.0,
          "onRemoved": [
            {
              "$type": "ResetAnimatorTrigger",
              "triggerID": "AttackLoopStop"
            },
            {
              "$type": "SetAnimatorInt",
              "intID": "AttackCycleEnd",
              "value": 0.0
            },
            {
              "$type": "SetGlobalValue",
              "value": 0.0,
              "key": "Attack01LoopCount",
              "maxValue": 0.0,
              "minValue": 0.0
            },
            {
              "$type": "SetAnimatorInt",
              "intID": "HitScence",
              "value": 0.0
            },
            {
              "$type": "ResetAnimatorTrigger",
              "triggerID": "HitTooMany"
            },
            {
              "$type": "SetGlobalValue",
              "value": 0.0,
              "key": "HitScenceCount",
              "maxValue": 0.0,
              "minValue": 0.0
            },
            {
              "$type": "AddGlobalValue",
              "value": 1.0,
              "key": "AttackTimes",
              "maxValue": 0.0,
              "minValue": 0.0
            }
          ]
        },
        "Attack01HitScenceReset": {
          "modifierName": "",
          "duration": 0.5,
          "elementDurability": 100.0,
          "onRemoved": [
            {
              "$type": "SetAnimatorInt",
              "intID": "HitScence",
              "value": 0.0
            }
          ]
        }
      },
      "onAdded": [
        {
          "$type": "Predicated",
          "targetPredicates": [
            {
              "$type": "ByTargetGlobalValue",
              "key": "MegamothSize",
              "value": 1.0
            }
          ],
          "successActions": [
            {
              "$type": "SetOverrideMapValue",
              "value": 1.2999999523162842,
              "overrideMapKey": "AttackRatio",
              "maxValue": 0.0,
              "minValue": 0.0
            }
          ]
        },
        {
          "$type": "Predicated",
          "targetPredicates": [
            {
              "$type": "ByTargetGlobalValue",
              "key": "MegamothSize",
              "value": 2.0
            }
          ],
          "successActions": [
            {
              "$type": "SetOverrideMapValue",
              "value": 1.600000023841858,
              "overrideMapKey": "AttackRatio",
              "maxValue": 0.0,
              "minValue": 0.0
            }
          ]
        }
      ]
    }
  },
  {
    "Default": {
      "$type": "ConfigAbility",
      "abilityName": "Monster_Megamoth_None_Attack02",
      "abilityMixins": [
        {
          "$type": "AttachToStateIDMixin",
          "stateIDs": ["Attack02_Loop", "Attack02_Loop_Extra"],
          "modifierName": "Attack02LoopHit",
          "DGFCLAIDIFI": ""
        },
        {
          "$type": "AttachToStateIDMixin",
          "stateIDs": [
            "Attack02_Turn_L",
            "Attack02_Turn_R",
            "Attack02_Run",
            "Attack02_Run_Extra",
            "Attack02_Turn_L_HitScence",
            "Attack02_Turn_R_HitScence"
          ],
          "modifierName": "Attack02RunHit",
          "DGFCLAIDIFI": ""
        },
        {
          "$type": "AttachToStateIDMixin",
          "stateIDs": ["Attack02_Loop"],
          "modifierName": "Attack02LoopCount",
          "DGFCLAIDIFI": ""
        },
        {
          "$type": "AttachToStateIDMixin",
          "stateIDs": ["Attack02_AS", "Attack02_AS_HitScence"],
          "modifierName": "Attack02ParamReset",
          "DGFCLAIDIFI": ""
        },
        {
          "$type": "AttachToStateIDMixin",
          "stateIDs": ["Attack02_Run"],
          "modifierName": "Attack02RunCheck",
          "DGFCLAIDIFI": ""
        },
        {
          "$type": "AttachToStateIDMixin",
          "stateIDs": [
            "Attack02_Turn_L_HitScence",
            "Attack02_Turn_R_HitScence"
          ],
          "modifierName": "Attack02HitScenceReset",
          "DGFCLAIDIFI": ""
        }
      ],
      "abilitySpecials": {
        "AttackRatio": 1.0,
        "AttackCycle": 2.0,
        "AttackFrequency": 0.30000001192092896
      },
      "modifiers": {
        "Attack02LoopHit": {
          "modifierName": "",
          "elementDurability": 100.0,
          "thinkInterval": "AttackFrequency",
          "onThinkInterval": [
            {
              "$type": "TriggerAttackEvent",
              "attackEvent": {
                "attackPattern": {
                  "$type": "ConfigAttackBox",
                  "triggerType": "TriggerNoRepeat",
                  "born": {
                    "$type": "ConfigBornBySelf",
                    "offset": {
                      "x": 0.0,
                      "y": 1.0,
                      "z": 0.0
                    }
                  },
                  "size": {
                    "x": [2.200000047683716, "AttackRatio", "MUL"],
                    "y": [2.0, "AttackRatio", "MUL"],
                    "z": [3.0, "AttackRatio", "MUL"]
                  }
                },
                "attackInfo": {
                  "attackTag": "",
                  "attenuationTag": "Animal_Boar_03_RushAttack",
                  "attenuationGroup": "Animal_Boar_03_RushAttack",
                  "attackProperty": {
                    "actorGrassSubHurtDelta": 1.0,
                    "actorWindSubHurtDelta": 0.0,
                    "elementDurability": 100.0,
                    "strikeType": "Blunt",
                    "enBreak": 200.0,
                    "GLKMCMDJBIK": 0.0
                  },
                  "hitPattern": {
                    "onHitEffectName": "default",
                    "hitImpulseY": "",
                    "hitImpulseType": "LV5",
                    "retreatType": "ByTangent",
                    "hitHaltTimeScale": 0.05000000074505806
                  }
                }
              },
              "targetType": "Enemy"
            }
          ]
        },
        "Attack02RunHit": {
          "modifierName": "",
          "elementDurability": 100.0,
          "thinkInterval": 0.6000000238418579,
          "onThinkInterval": [
            {
              "$type": "TriggerAttackEvent",
              "attackEvent": {
                "attackPattern": {
                  "$type": "ConfigAttackBox",
                  "triggerType": "TriggerNoRepeat",
                  "born": {
                    "$type": "ConfigBornBySelf",
                    "offset": {
                      "x": 0.0,
                      "y": 1.0,
                      "z": 0.0
                    }
                  },
                  "size": {
                    "x": [2.200000047683716, "AttackRatio", "MUL"],
                    "y": [2.0, "AttackRatio", "MUL"],
                    "z": [3.0, "AttackRatio", "MUL"]
                  }
                },
                "attackInfo": {
                  "attackTag": "",
                  "attenuationTag": "Animal_Boar_03_RushAttack",
                  "attenuationGroup": "Animal_Boar_03_RushAttack",
                  "attackProperty": {
                    "actorGrassSubHurtDelta": 0.10000000149011612,
                    "actorWindSubHurtDelta": 0.0,
                    "elementDurability": 100.0,
                    "strikeType": "Blunt",
                    "enBreak": 200.0,
                    "GLKMCMDJBIK": 0.0
                  },
                  "hitPattern": {
                    "onHitEffectName": "default",
                    "hitImpulseY": "",
                    "hitImpulseType": "LV4",
                    "retreatType": "ByTangent",
                    "hitHaltTimeScale": 0.05000000074505806
                  }
                }
              },
              "targetType": "Enemy"
            }
          ]
        },
        "Attack02RunCheck": {
          "modifierName": "",
          "elementDurability": 100.0,
          "thinkInterval": 0.10000000149011612,
          "onThinkInterval": [
            {
              "$type": "Predicated",
              "target": "SelfAttackTarget",
              "targetPredicates": [
                {
                  "$type": "ByTargetPositionToSelfPosition",
                  "logic": "LesserOrEqual",
                  "value": 14.0,
                  "DDALGNLEHOD": ""
                }
              ],
              "successActions": [
                {
                  "$type": "SetAnimatorInt",
                  "intID": "AttackTarget",
                  "value": 1.0
                }
              ],
              "failActions": [
                {
                  "$type": "SetAnimatorInt",
                  "intID": "AttackTarget",
                  "value": 0.0
                }
              ]
            }
          ]
        },
        "Attack02LoopCount": {
          "modifierName": "",
          "elementDurability": 100.0,
          "onAdded": [
            {
              "$type": "AddGlobalValue",
              "value": 1.0,
              "key": "Attack02LoopCount",
              "useLimitRange": true,
              "maxValue": 4.0,
              "minValue": 0.0
            },
            {
              "$type": "SetAnimatorInt",
              "predicates": [
                {
                  "$type": "ByTargetGlobalValue",
                  "target": "Self",
                  "key": "Attack02LoopCount",
                  "value": "AttackCycle",
                  "compareType": "MoreThanAndEqual"
                }
              ],
              "intID": "AttackCycleEnd",
              "value": 1.0
            }
          ]
        },
        "Attack02ParamReset": {
          "modifierName": "",
          "duration": 0.5,
          "elementDurability": 100.0,
          "onRemoved": [
            {
              "$type": "ResetAnimatorTrigger",
              "triggerID": "AttackLoopStop"
            },
            {
              "$type": "SetAnimatorInt",
              "intID": "AttackCycleEnd",
              "value": 0.0
            },
            {
              "$type": "SetGlobalValue",
              "value": 0.0,
              "key": "Attack02LoopCount",
              "maxValue": 0.0,
              "minValue": 0.0
            },
            {
              "$type": "SetAnimatorInt",
              "intID": "HitScence",
              "value": 0.0
            },
            {
              "$type": "ResetAnimatorTrigger",
              "triggerID": "HitTooMany"
            },
            {
              "$type": "SetGlobalValue",
              "value": 0.0,
              "key": "HitScenceCount",
              "maxValue": 0.0,
              "minValue": 0.0
            },
            {
              "$type": "AddGlobalValue",
              "value": 1.0,
              "key": "AttackTimes",
              "maxValue": 0.0,
              "minValue": 0.0
            }
          ]
        },
        "Attack02HitScenceReset": {
          "modifierName": "",
          "duration": 0.5,
          "elementDurability": 100.0,
          "onRemoved": [
            {
              "$type": "SetAnimatorInt",
              "intID": "HitScence",
              "value": 0.0
            }
          ]
        }
      },
      "onAdded": [
        {
          "$type": "Predicated",
          "targetPredicates": [
            {
              "$type": "ByTargetGlobalValue",
              "key": "MegamothSize",
              "value": 1.0
            }
          ],
          "successActions": [
            {
              "$type": "SetOverrideMapValue",
              "value": 1.2999999523162842,
              "overrideMapKey": "AttackRatio",
              "maxValue": 0.0,
              "minValue": 0.0
            },
            {
              "$type": "SetOverrideMapValue",
              "value": 0.20000000298023224,
              "overrideMapKey": "%AttackFrequency",
              "maxValue": 0.0,
              "minValue": 0.0
            },
            {
              "$type": "SetOverrideMapValue",
              "value": 2.0,
              "overrideMapKey": "AttackCycle",
              "maxValue": 0.0,
              "minValue": 0.0
            }
          ]
        },
        {
          "$type": "Predicated",
          "targetPredicates": [
            {
              "$type": "ByTargetGlobalValue",
              "key": "MegamothSize",
              "value": 2.0
            }
          ],
          "successActions": [
            {
              "$type": "SetOverrideMapValue",
              "value": 1.600000023841858,
              "overrideMapKey": "AttackRatio",
              "maxValue": 0.0,
              "minValue": 0.0
            },
            {
              "$type": "SetOverrideMapValue",
              "value": 0.10000000149011612,
              "overrideMapKey": "%AttackFrequency",
              "maxValue": 0.0,
              "minValue": 0.0
            },
            {
              "$type": "SetOverrideMapValue",
              "value": 3.0,
              "overrideMapKey": "AttackCycle",
              "maxValue": 0.0,
              "minValue": 0.0
            }
          ]
        }
      ]
    }
  },
  {
    "Default": {
      "$type": "ConfigAbility",
      "abilityName": "Monster_Megamoth_None_Disappear",
      "abilityMixins": [
        {
          "$type": "EAKJOFAIAPH",
          "poseIDs": [102],
          "enterActions": [
            {
              "$type": "SetRandomOverrideMapValue",
              "valueRangeMax": 9.0,
              "valueRangeMin": 5.0,
              "overrideMapKey": "RandomTimer"
            }
          ]
        },
        {
          "$type": "LEOGLBFIELL",
          "poseIDs": [102],
          "modifierName": "Flee"
        },
        {
          "$type": "AOKOIIHJJPJ",
          "alertness": [2],
          "modifierName": "Megamoth_Flee_CountDown"
        },
        {
          "$type": "AOKOIIHJJPJ",
          "alertness": [0],
          "modifierName": "Megamoth_AttackTimesRes"
        }
      ],
      "abilitySpecials": {
        "FleeTimer": 3.0,
        "RandomTimer": 7.5
      },
      "modifiers": {
        "Megamoth_AttackTimesRes": {
          "modifierName": "",
          "elementDurability": 100.0,
          "onAdded": [
            {
              "$type": "SetGlobalValue",
              "value": 0.0,
              "key": "AttackTimes",
              "maxValue": 0.0,
              "minValue": 0.0
            }
          ]
        },
        "Megamoth_Flee_CountDown": {
          "modifierName": "",
          "elementDurability": 100.0,
          "thinkInterval": 0.5,
          "onThinkInterval": [
            {
              "$type": "GFFKENEJFFB",
              "predicates": [
                {
                  "$type": "ByTargetGlobalValue",
                  "target": "Self",
                  "key": "AttackTimes",
                  "value": "FleeTimer",
                  "compareType": "MoreThanAndEqual"
                }
              ],
              "intID": "FleeNow",
              "value": 1
            }
          ]
        },
        "Flee": {
          "modifierName": "",
          "duration": "RandomTimer",
          "elementDurability": 100.0,
          "onRemoved": [
            {
              "$type": "ApplyModifier",
              "modifierName": "DisappearTimer"
            }
          ]
        },
        "DisappearTimer": {
          "modifierName": "",
          "elementDurability": 100.0,
          "onAdded": [
            {
              "$type": "AKJOHBCCCIJ",
              "dieImmediately": true
            },
            {
              "$type": "AKIIMECIGKE",
              "duration": 8.0
            },
            {
              "$type": "HBNEMPLJCMB",
              "hide": true
            },
            {
              "$type": "KillSelf",
              "duration": 3.0,
              "killSelfType": "Disappear",
              "value": true,
              "banExp": true
            }
          ]
        }
      },
      "onAdded": [
        {
          "$type": "Predicated",
          "targetPredicates": [
            {
              "$type": "ByTargetGlobalValue",
              "key": "MegamothSize",
              "value": 0.0,
              "compareType": "NoneOrEqual"
            }
          ],
          "successActions": [
            {
              "$type": "SetRandomOverrideMapValue",
              "valueRangeMax": 2.0,
              "overrideMapKey": "FleeTimer",
              "roundType": "Floor"
            }
          ]
        },
        {
          "$type": "Predicated",
          "targetPredicates": [
            {
              "$type": "ByTargetGlobalValue",
              "key": "MegamothSize",
              "value": 1.0
            }
          ],
          "successActions": [
            {
              "$type": "SetRandomOverrideMapValue",
              "valueRangeMax": 2.0,
              "valueRangeMin": 1.0,
              "overrideMapKey": "FleeTimer",
              "roundType": "Floor"
            }
          ]
        },
        {
          "$type": "Predicated",
          "targetPredicates": [
            {
              "$type": "ByTargetGlobalValue",
              "key": "MegamothSize",
              "value": 2.0
            }
          ],
          "successActions": [
            {
              "$type": "SetRandomOverrideMapValue",
              "valueRangeMax": 3.0,
              "valueRangeMin": 1.0,
              "overrideMapKey": "FleeTimer",
              "roundType": "Floor"
            }
          ]
        }
      ],
      "isDynamicAbility": true
    }
  }
]
