[
  {
    "Default": {
      "$type": "ConfigAbility",
      "abilityName": "Monster_Wayob_EX_Rock_Parry",
      "abilityMixins": [
        {
          "$type": "AttachToStateIDMixin",
          "stateIDs": ["MeleeAttack1", "MeleeAttack2"],
          "modifierName": "Monster_Wayob_EX_Rock_Parry1Check",
          "DGFCLAIDIFI": ""
        },
        {
          "$type": "IILHMBGONGM",
          "steerStateIDs": ["RangeAtk2_BS"],
          "endNormalizedTime": 30.0,
          "angularSpeed": 300.0,
          "attackTrigger": "",
          "DGFCLAIDIFI": ""
        },
        {
          "$type": "IILHMBGONGM",
          "steerStateIDs": ["RangeAtk2_Loop"],
          "endNormalizedTime": 30.0,
          "angularSpeed": 300.0,
          "attackTrigger": "",
          "DGFCLAIDIFI": ""
        },
        {
          "$type": "AttachToStateIDMixin",
          "stateIDs": ["BeBlocked"],
          "modifierName": "Monster_Wayob_EX_Rock_FreezePos",
          "DGFCLAIDIFI": ""
        },
        {
          "$type": "AttachToNormalizedTimeMixin",
          "stateID": "MeleeAttack1",
          "modifierName": "Monster_Wayob_EX_Rock_Watcher_BlueCheckStart",
          "normalizeStart": 0.25999999046325684,
          "DGFCLAIDIFI": ""
        },
        {
          "$type": "AttachToNormalizedTimeMixin",
          "stateID": "MeleeAttack2",
          "modifierName": "Monster_Wayob_EX_Rock_Watcher_BlueCheckStart",
          "normalizeStart": 0.3499999940395355,
          "DGFCLAIDIFI": ""
        }
      ],
      "modifiers": {
        "Monster_Wayob_EX_Rock_Watcher_BlueCheckStart": {
          "modifierName": "",
          "elementDurability": 100.0,
          "onAdded": [
            {
              "$type": "SetGlobalValue",
              "value": 0.0,
              "key": "_PARRY_BLUEATTACK_SUC",
              "maxValue": 0.0,
              "minValue": 0.0
            }
          ],
          "onRemoved": [
            {
              "$type": "SetGlobalValue",
              "predicates": [
                {
                  "$type": "ByTargetGlobalValue",
                  "key": "_PARRY_BLUEATTACK_SUC",
                  "value": 0.0,
                  "compareType": "NoneOrEqual"
                }
              ],
              "value": 1.0,
              "key": "_PARRY_BLUE_FAIL",
              "maxValue": 0.0,
              "minValue": 0.0
            }
          ]
        },
        "Monster_Set_Ac_Level1": {
          "modifierName": "",
          "duration": 0.029999999329447746,
          "elementDurability": 100.0,
          "onAdded": [
            {
              "$type": "SetGlobalValue",
              "value": 1.0,
              "key": "_NYX_CHALLENGE_LEVEL",
              "maxValue": 0.0,
              "minValue": 0.0
            }
          ]
        },
        "Monster_Set_Ac_Level2": {
          "modifierName": "",
          "duration": 0.029999999329447746,
          "elementDurability": 100.0,
          "onAdded": [
            {
              "$type": "SetGlobalValue",
              "value": 2.0,
              "key": "_NYX_CHALLENGE_LEVEL",
              "maxValue": 0.0,
              "minValue": 0.0
            }
          ]
        },
        "Monster_Set_Ac_Level3": {
          "modifierName": "",
          "duration": 0.029999999329447746,
          "elementDurability": 100.0,
          "onAdded": [
            {
              "$type": "SetGlobalValue",
              "value": 3.0,
              "key": "_NYX_CHALLENGE_LEVEL",
              "maxValue": 0.0,
              "minValue": 0.0
            }
          ]
        },
        "Monster_Wayob_EX_Rock_FreezePos": {
          "modifierName": "",
          "elementDurability": 100.0,
          "modifierMixins": [
            {
              "$type": "RigidBodyFreezeMixin"
            }
          ]
        },
        "Monster_Wayob_EX_Rock_Parry1Check": {
          "modifierName": "",
          "elementDurability": 100.0,
          "onBeingHit": [
            {
              "$type": "Predicated",
              "targetPredicates": [
                {
                  "$type": "ByAttackTags",
                  "attackTags": ["Avatar_Blocking"]
                }
              ],
              "successActions": [
                {
                  "$type": "SetGlobalValue",
                  "value": 1.0,
                  "key": "_PARRY_BLUEATTACK_SUC",
                  "maxValue": 0.0,
                  "minValue": 0.0
                },
                {
                  "$type": "SetAnimatorTrigger",
                  "triggerID": "ParryGoBreak"
                }
              ]
            }
          ]
        },
        "Wayob_NoParry1": {
          "modifierName": "",
          "elementDurability": 100.0
        },
        "Wayob_Parry1": {
          "modifierName": "",
          "elementDurability": 100.0,
          "onAdded": [
            {
              "$type": "SetAnimatorTrigger",
              "triggerID": "ParryGoBreak"
            },
            {
              "$type": "ApplyModifier",
              "modifierName": "Reset_Parry1Gv"
            }
          ]
        },
        "Reset_Parry1Gv": {
          "modifierName": "",
          "duration": 0.029999999329447746,
          "elementDurability": 100.0,
          "onRemoved": [
            {
              "$type": "SetGlobalValue",
              "value": 0.0,
              "key": "_PARRY_HIT",
              "maxValue": 0.0,
              "minValue": 0.0
            }
          ]
        },
        "Monster_Wayob_EX_Rock_Endure": {
          "modifierName": "",
          "elementDurability": 100.0,
          "properties": {
            "Actor_EndureDelta": 0.0
          },
          "onBeingHit": [
            {
              "$type": "Predicated",
              "targetPredicates": [
                {
                  "$type": "ByAttackTags",
                  "attackTags": ["BladeMaster2_BladeAirAtk"]
                }
              ],
              "successActions": [
                {
                  "$type": "SetAnimatorTrigger",
                  "triggerID": "GoBreak"
                }
              ]
            }
          ],
          "onAttackLanded": [
            {
              "$type": "Predicated",
              "targetPredicates": [
                {
                  "$type": "ByHitDamage",
                  "damage": 0.0
                }
              ],
              "successActions": [
                {
                  "$type": "SetGlobalValue",
                  "value": 1.0,
                  "key": "_BEHITED_BY_WAYOB",
                  "maxValue": 0.0,
                  "minValue": 0.0
                }
              ]
            }
          ]
        }
      },
      "onAdded": [
        {
          "$type": "ApplyModifier",
          "modifierName": "Monster_Wayob_EX_Rock_Endure"
        },
        {
          "$type": "SetGlobalValue",
          "value": 2.0,
          "key": "_BLADEMASTER_NINGYO_BLADE",
          "maxValue": 0.0,
          "minValue": 0.0
        }
      ],
      "onKill": [
        {
          "$type": "ApplyModifier",
          "target": "Team",
          "modifierName": "Monster_Set_Ac_Level1"
        },
        {
          "$type": "ApplyModifier",
          "target": "Team",
          "predicates": [
            {
              "$type": "ByTargetGlobalValue",
              "target": "Self",
              "key": "_PARRY_BLUE_FAIL",
              "value": 0.0,
              "compareType": "NoneOrEqual"
            },
            {
              "$type": "EBOHLEJJMIG",
              "IKILOJFBKMA": 82247
            }
          ],
          "modifierName": "Monster_Set_Ac_Level2"
        },
        {
          "$type": "ApplyModifier",
          "target": "Team",
          "predicates": [
            {
              "$type": "ByTargetGlobalValue",
              "target": "Self",
              "key": "_BEHITED_BY_WAYOB",
              "value": 0.0,
              "compareType": "NoneOrEqual"
            },
            {
              "$type": "EBOHLEJJMIG",
              "IKILOJFBKMA": 82248
            }
          ],
          "modifierName": "Monster_Set_Ac_Level3"
        },
        {
          "$type": "HCLAKBJKPLE",
          "predicates": [
            {
              "$type": "ByTargetGlobalValue",
              "target": "Self",
              "key": "_BEHITED_BY_WAYOB",
              "value": 0.0,
              "compareType": "NoneOrEqual"
            },
            {
              "$type": "EBOHLEJJMIG",
              "IKILOJFBKMA": 82248
            }
          ],
          "watcherId": 82249,
          "inThreatListOnly": true
        },
        {
          "$type": "HCLAKBJKPLE",
          "predicates": [
            {
              "$type": "ByTargetGlobalValue",
              "target": "Self",
              "key": "_PARRY_BLUE_FAIL",
              "value": 0.0,
              "compareType": "NoneOrEqual"
            },
            {
              "$type": "EBOHLEJJMIG",
              "IKILOJFBKMA": 82247
            }
          ],
          "watcherId": 82248,
          "inThreatListOnly": true
        },
        {
          "$type": "HCLAKBJKPLE",
          "watcherId": 82247,
          "inThreatListOnly": true
        }
      ]
    }
  },
  {
    "Default": {
      "$type": "ConfigAbility",
      "abilityName": "Monster_Wayob_EX_Rock_MeleeAtk2plus",
      "abilityMixins": [
        {
          "$type": "AttachToNormalizedTimeMixin",
          "stateID": "MeleeAttack2",
          "modifierName": "Monster_Wayob_EX_Rock_MeleeAtk2plus1",
          "normalizeStart": 0.1720000058412552,
          "normalizeEnd": 0.4699999988079071,
          "DGFCLAIDIFI": ""
        },
        {
          "$type": "AttachToNormalizedTimeMixin",
          "stateID": "MeleeAttack2",
          "modifierName": "Monster_Wayob_EX_Rock_MeleeAtk2plus2",
          "normalizeStart": 0.24400000274181366,
          "normalizeEnd": 0.5220000147819519,
          "DGFCLAIDIFI": ""
        }
      ],
      "modifiers": {
        "Monster_Wayob_EX_Rock_MeleeAtk2plus1": {
          "modifierName": "",
          "elementDurability": 100.0,
          "onAdded": [
            {
              "$type": "FireEffect",
              "rotationDampTime": "Eff_Monster_Wayob_MeleeAttack2_Warning",
              "born": {
                "$type": "ConfigBornBySelf",
                "offset": {
                  "x": -4.0,
                  "y": 0.0,
                  "z": 0.0
                },
                "useRotation": true
              },
              "PPPDJGDDOGD": 1.0,
              "AJDILHJFNKE": -1.0
            },
            {
              "$type": "FireEffect",
              "rotationDampTime": "Eff_Monster_Wayob_MeleeAttack2_Warning",
              "born": {
                "$type": "ConfigBornBySelf",
                "offset": {
                  "x": 4.0,
                  "y": 0.0,
                  "z": 0.0
                },
                "useRotation": true
              },
              "PPPDJGDDOGD": 1.0,
              "AJDILHJFNKE": -1.0
            }
          ],
          "onRemoved": [
            {
              "$type": "FireEffect",
              "rotationDampTime": "Eff_Monster_Wayob_MeleeAttack2_Attack",
              "born": {
                "$type": "ConfigBornBySelf",
                "offset": {
                  "x": -4.0,
                  "y": 0.0,
                  "z": 0.0
                },
                "useRotation": true
              },
              "PPPDJGDDOGD": 1.0,
              "AJDILHJFNKE": -1.0
            },
            {
              "$type": "FireEffect",
              "rotationDampTime": "Eff_Monster_Wayob_MeleeAttack2_Attack",
              "born": {
                "$type": "ConfigBornBySelf",
                "offset": {
                  "x": 4.0,
                  "y": 0.0,
                  "z": 0.0
                },
                "useRotation": true
              },
              "PPPDJGDDOGD": 1.0,
              "AJDILHJFNKE": -1.0
            },
            {
              "$type": "TriggerAttackEvent",
              "attackEvent": {
                "attackPattern": {
                  "$type": "ConfigAttackBox",
                  "triggerType": "TriggerNoRepeat",
                  "born": {
                    "$type": "ConfigBornBySelf",
                    "offset": {
                      "x": -4.0,
                      "y": 2.0,
                      "z": 0.0
                    },
                    "useRotation": true
                  },
                  "size": {
                    "x": 4.0,
                    "y": 4.0,
                    "z": 8.0
                  }
                },
                "attackInfo": {
                  "attackTag": "Monster_BladeMaster_BeBlockAttack",
                  "attenuationTag": "",
                  "attenuationGroup": "default",
                  "attackProperty": {
                    "actorGrassSubHurtDelta": 0.699999988079071,
                    "actorWindSubHurtDelta": 0.0,
                    "elementDurability": 25.0,
                    "strikeType": "Default",
                    "enBreak": 120.0,
                    "GLKMCMDJBIK": 0.0
                  },
                  "hitPattern": {
                    "onHitEffectName": "default",
                    "hitImpulseY": "",
                    "hitImpulseType": "LV5"
                  }
                }
              },
              "targetType": "Enemy"
            },
            {
              "$type": "TriggerAttackEvent",
              "attackEvent": {
                "attackPattern": {
                  "$type": "ConfigAttackBox",
                  "triggerType": "TriggerNoRepeat",
                  "born": {
                    "$type": "ConfigBornBySelf",
                    "offset": {
                      "x": 4.0,
                      "y": 2.0,
                      "z": 0.0
                    },
                    "useRotation": true
                  },
                  "size": {
                    "x": 4.0,
                    "y": 4.0,
                    "z": 8.0
                  }
                },
                "attackInfo": {
                  "attackTag": "Monster_BladeMaster_BeBlockAttack",
                  "attenuationTag": "",
                  "attenuationGroup": "default",
                  "attackProperty": {
                    "actorGrassSubHurtDelta": 0.699999988079071,
                    "actorWindSubHurtDelta": 0.0,
                    "elementDurability": 25.0,
                    "strikeType": "Default",
                    "enBreak": 120.0,
                    "GLKMCMDJBIK": 0.0
                  },
                  "hitPattern": {
                    "onHitEffectName": "default",
                    "hitImpulseY": "",
                    "hitImpulseType": "LV5"
                  }
                }
              },
              "targetType": "Enemy"
            }
          ]
        },
        "Monster_Wayob_EX_Rock_MeleeAtk2plus2": {
          "modifierName": "",
          "elementDurability": 100.0,
          "onAdded": [
            {
              "$type": "FireEffect",
              "rotationDampTime": "Eff_Monster_Wayob_MeleeAttack2_Warning",
              "born": {
                "$type": "ConfigBornBySelf",
                "offset": {
                  "x": -8.0,
                  "y": 0.0,
                  "z": 0.0
                },
                "useRotation": true
              },
              "PPPDJGDDOGD": 1.0,
              "AJDILHJFNKE": -1.0
            },
            {
              "$type": "FireEffect",
              "rotationDampTime": "Eff_Monster_Wayob_MeleeAttack2_Warning",
              "born": {
                "$type": "ConfigBornBySelf",
                "offset": {
                  "x": 8.0,
                  "y": 0.0,
                  "z": 0.0
                },
                "useRotation": true
              },
              "PPPDJGDDOGD": 1.0,
              "AJDILHJFNKE": -1.0
            }
          ],
          "onRemoved": [
            {
              "$type": "FireEffect",
              "rotationDampTime": "Eff_Monster_Wayob_MeleeAttack2_Attack",
              "born": {
                "$type": "ConfigBornBySelf",
                "offset": {
                  "x": -8.0,
                  "y": 0.0,
                  "z": 0.0
                },
                "useRotation": true
              },
              "PPPDJGDDOGD": 1.0,
              "AJDILHJFNKE": -1.0
            },
            {
              "$type": "FireEffect",
              "rotationDampTime": "Eff_Monster_Wayob_MeleeAttack2_Attack",
              "born": {
                "$type": "ConfigBornBySelf",
                "offset": {
                  "x": 8.0,
                  "y": 0.0,
                  "z": 0.0
                },
                "useRotation": true
              },
              "PPPDJGDDOGD": 1.0,
              "AJDILHJFNKE": -1.0
            },
            {
              "$type": "TriggerAttackEvent",
              "attackEvent": {
                "attackPattern": {
                  "$type": "ConfigAttackBox",
                  "triggerType": "TriggerNoRepeat",
                  "born": {
                    "$type": "ConfigBornBySelf",
                    "offset": {
                      "x": -8.0,
                      "y": 2.0,
                      "z": 0.0
                    },
                    "useRotation": true
                  },
                  "size": {
                    "x": 4.0,
                    "y": 4.0,
                    "z": 8.0
                  }
                },
                "attackInfo": {
                  "attackTag": "Monster_BladeMaster_BeBlockAttack",
                  "attenuationTag": "",
                  "attenuationGroup": "default",
                  "attackProperty": {
                    "actorGrassSubHurtDelta": 0.699999988079071,
                    "actorWindSubHurtDelta": 0.0,
                    "elementDurability": 25.0,
                    "strikeType": "Default",
                    "enBreak": 120.0,
                    "GLKMCMDJBIK": 0.0
                  },
                  "hitPattern": {
                    "onHitEffectName": "default",
                    "hitImpulseY": "",
                    "hitImpulseType": "LV5"
                  }
                }
              },
              "targetType": "Enemy"
            },
            {
              "$type": "TriggerAttackEvent",
              "attackEvent": {
                "attackPattern": {
                  "$type": "ConfigAttackBox",
                  "triggerType": "TriggerNoRepeat",
                  "born": {
                    "$type": "ConfigBornBySelf",
                    "offset": {
                      "x": 8.0,
                      "y": 2.0,
                      "z": 0.0
                    },
                    "useRotation": true
                  },
                  "size": {
                    "x": 4.0,
                    "y": 4.0,
                    "z": 8.0
                  }
                },
                "attackInfo": {
                  "attackTag": "Monster_BladeMaster_BeBlockAttack",
                  "attenuationTag": "",
                  "attenuationGroup": "default",
                  "attackProperty": {
                    "actorGrassSubHurtDelta": 0.699999988079071,
                    "actorWindSubHurtDelta": 0.0,
                    "elementDurability": 25.0,
                    "strikeType": "Default",
                    "enBreak": 120.0,
                    "GLKMCMDJBIK": 0.0
                  },
                  "hitPattern": {
                    "onHitEffectName": "default",
                    "hitImpulseY": "",
                    "hitImpulseType": "LV5"
                  }
                }
              },
              "targetType": "Enemy"
            }
          ]
        }
      }
    }
  },
  {
    "Default": {
      "$type": "ConfigAbility",
      "abilityName": "Monster_Wayob_EX_ReleaseRockBullet",
      "abilityMixins": [
        {
          "$type": "AttachToStateIDMixin",
          "stateIDs": ["RangeAtk2_BS", "RangeAtk2_Loop"],
          "modifierName": "Monster_Wayob_EX_ReleaseRockBullet_Duration",
          "DGFCLAIDIFI": ""
        }
      ],
      "modifiers": {
        "Monster_Wayob_EX_ReleaseRockBullet_Duration": {
          "modifierName": "",
          "elementDurability": 100.0,
          "onRemoved": [
            {
              "$type": "RemoveModifier",
              "modifierName": "Monster_Wayob_EX_ReleaseRockBullet"
            }
          ]
        },
        "Monster_Wayob_EX_ReleaseRockBullet": {
          "modifierName": "",
          "duration": 5.0,
          "elementDurability": 100.0,
          "thinkInterval": 0.5,
          "onAdded": [
            {
              "$type": "BGLDIBDIEDJ"
            }
          ],
          "onThinkInterval": [
            {
              "$type": "FireEffect",
              "rotationDampTime": "Eff_Monster_Wayob_Drillhead_EX_SummonAttack2_Fire",
              "PPPDJGDDOGD": 1.0,
              "AJDILHJFNKE": -1.0
            },
            {
              "$type": "TriggerBullet",
              "doAfterDie": false,
              "bulletID": 42626018,
              "born": {
                "$type": "ConfigBornBySelf",
                "offset": {
                  "x": 0.0,
                  "y": 1.5,
                  "z": 0.30000001192092896
                },
                "bornRandom": {
                  "$type": "BHMPGBKNIMN",
                  "shapeName": "CircleR0_5"
                },
                "direction": {
                  "$type": "ConfigDirectionByAttackTarget",
                  "startPoint": ""
                },
                "useRotation": true
              }
            }
          ]
        }
      },
      "onAbilityStart": [
        {
          "$type": "ApplyModifier",
          "modifierName": "Monster_Wayob_EX_ReleaseRockBullet"
        }
      ]
    }
  },
  {
    "Default": {
      "$type": "ConfigAbility",
      "abilityName": "Monster_Wayob_EX_Rock_RangeAtk_BulletExplode",
      "modifiers": {
        "Monster_Wayob_EX_Rock_RangeAtk_BulletExplode": {
          "modifierName": "",
          "elementDurability": 100.0,
          "onAdded": [
            {
              "$type": "AttachEffect",
              "rotationDampTime": "Eff_Monster_Wayob_Drillhead_EX_SummonAttack2_Bullet",
              "PPPDJGDDOGD": 1.0,
              "AJDILHJFNKE": -1.0
            }
          ]
        }
      },
      "onAdded": [
        {
          "$type": "ApplyModifier",
          "modifierName": "Monster_Wayob_EX_Rock_RangeAtk_BulletExplode"
        },
        {
          "$type": "SetGlobalValue",
          "value": 2.0,
          "key": "_BLADEMASTER_NINGYO_BLADE",
          "maxValue": 0.0,
          "minValue": 0.0
        }
      ],
      "onAbilityStart": [
        {
          "$type": "RemoveModifier",
          "modifierName": "Monster_Wayob_EX_Rock_RangeAtk_BulletExplode"
        },
        {
          "$type": "FireEffect",
          "rotationDampTime": "Eff_Monster_Wayob_Drillhead_EX_SummonAttack2_BulletExplode",
          "PPPDJGDDOGD": 1.0,
          "AJDILHJFNKE": -1.0
        },
        {
          "$type": "TriggerAttackEvent",
          "attackEvent": {
            "attackPattern": {
              "$type": "ConfigAttackSphere",
              "triggerType": "TriggerNoRepeat",
              "born": {
                "$type": "ConfigBornBySelf",
                "offset": {
                  "x": 0.0,
                  "y": 0.0,
                  "z": 0.0
                },
                "useRotation": true
              },
              "radius": 0.5
            },
            "attackInfo": {
              "attackTag": "BladeWind_CanBeBlockBack",
              "attenuationTag": "",
              "attenuationGroup": "default",
              "attackProperty": {
                "actorGrassSubHurtDelta": 0.4000000059604645,
                "actorWindSubHurtDelta": 0.0,
                "elementType": "Rock",
                "elementDurability": 25.0,
                "strikeType": "Blunt",
                "enBreak": 10.0,
                "GLKMCMDJBIK": 0.0
              },
              "hitPattern": {
                "onHitEffectName": "default",
                "hitImpulseY": "",
                "hitImpulseType": "LV0"
              }
            }
          },
          "targetType": "Enemy"
        }
      ]
    }
  },
  {
    "Default": {
      "$type": "ConfigAbility",
      "abilityName": "Monster_Wayob_EX_Lingshi_Hide",
      "abilityMixins": [
        {
          "$type": "AttachModifierToSelfGlobalValueMixin",
          "globalValueKey": "_WAYOB_EX_LINGSHI_HIDE",
          "gvInTalk": 0.0,
          "valueSteps": [-0.5, 0.5, 1.5],
          "modifierNameSteps": [
            "Monster_Wayob_EX_LS_Show",
            "Monster_Wayob_EX_LS_Hide"
          ]
        },
        {
          "$type": "AttachToStateIDMixin",
          "stateIDs": ["ReleaseField_Loop"],
          "modifierName": "Monster_Wayob_EX_Lingshi_GoHide",
          "DGFCLAIDIFI": ""
        },
        {
          "$type": "AttachToStateIDMixin",
          "stateIDs": ["Born", "NormalIdle"],
          "modifierName": "Monster_Wayob_EX_Lingshi_GoShow",
          "DGFCLAIDIFI": ""
        },
        {
          "$type": "AttachModifierToSelfGlobalValueMixin",
          "globalValueKey": "_RANDOM_MIRROR_TYPE",
          "gvInTalk": 0.0,
          "valueSteps": [
            -0.5, 0.009999999776482582, 1.0, 2.0, 3.0, 4.0, 5.0, 6.0
          ],
          "modifierNameSteps": [
            "Monster_Wayob_EX_CreateMirrorEmpty",
            "Monster_Wayob_EX_CreateMirrorType1",
            "Monster_Wayob_EX_CreateMirrorType2",
            "Monster_Wayob_EX_CreateMirrorType3",
            "Monster_Wayob_EX_CreateMirrorType4",
            "Monster_Wayob_EX_CreateMirrorType5",
            "Monster_Wayob_EX_CreateMirrorType6"
          ]
        },
        {
          "$type": "AttachModifierToSelfGlobalValueMixin",
          "globalValueKey": "_MIRROR_TRUE_BE_KILLED",
          "gvInTalk": 0.0,
          "valueSteps": [-0.5, 0.5, 1.5],
          "modifierNameSteps": [
            "Monster_Wayob_EX_Lingshi_MirrorEmpty",
            "Monster_Wayob_EX_Lingshi_TrueMirrorKill"
          ]
        }
      ],
      "modifiers": {
        "Monster_Wayob_EX_Lingshi_MirrorEmpty": {
          "modifierName": "",
          "elementDurability": 100.0
        },
        "Monster_Wayob_EX_Lingshi_TrueMirrorKill": {
          "modifierName": "",
          "elementDurability": 100.0,
          "onAdded": [
            {
              "$type": "SetGlobalValue",
              "shieldHP": true,
              "value": 1.0,
              "key": "_WAYOB_EX_LINGSHI_ALLMIRROR_DIS",
              "maxValue": 0.0,
              "minValue": 0.0
            },
            {
              "$type": "RemoveModifier",
              "shieldHP": true,
              "modifierName": "Monster_Wayob_EX_Lingshi_GoHide_Duration"
            },
            {
              "$type": "BHPDPACKKNI",
              "shieldHP": true,
              "born": {
                "$type": "ConfigBornByGlobalValue",
                "positionKey": "_WAYOB_MOSASAURUS_EX_TRUE_POS",
                "directionKey": ""
              },
              "hitSceneTest": false,
              "limitY": 2.5
            },
            {
              "$type": "IFCMHHHOLCK",
              "shieldHP": true
            },
            {
              "$type": "SetAnimatorTrigger",
              "shieldHP": true,
              "triggerID": "GoBreak"
            },
            {
              "$type": "SetGlobalValue",
              "shieldHP": true,
              "value": 0.0,
              "key": "_WAYOB_EX_LINGSHI_HIDE",
              "maxValue": 0.0,
              "minValue": 0.0
            },
            {
              "$type": "ApplyModifier",
              "shieldHP": true,
              "modifierName": "Monster_Wayob_EX_Lingshi_RestWeakValue"
            }
          ]
        },
        "Monster_Wayob_EX_Lingshi_RestWeakValue": {
          "modifierName": "",
          "duration": 0.029999999329447746,
          "elementDurability": 100.0,
          "onRemoved": [
            {
              "$type": "SetGlobalValue",
              "value": 0.0,
              "key": "_MIRROR_TRUE_BE_KILLED",
              "maxValue": 0.0,
              "minValue": 0.0
            }
          ]
        },
        "Monster_Wayob_EX_Lingshi_GoShow": {
          "modifierName": "",
          "elementDurability": 100.0,
          "onAdded": [
            {
              "$type": "SetGlobalValue",
              "value": 0.0,
              "key": "_WAYOB_EX_LINGSHI_HIDE",
              "maxValue": 0.0,
              "minValue": 0.0
            }
          ]
        },
        "Monster_Wayob_EX_Lingshi_GoHide": {
          "modifierName": "",
          "elementDurability": 100.0,
          "onAdded": [
            {
              "$type": "SetGlobalValue",
              "value": 1.0,
              "key": "_WAYOB_EX_LINGSHI_HIDE",
              "maxValue": 0.0,
              "minValue": 0.0
            },
            {
              "$type": "SetGlobalValue",
              "value": 0.0,
              "key": "_WAYOB_EX_LINGSHI_ALLMIRROR_EXPLODE",
              "maxValue": 0.0,
              "minValue": 0.0
            },
            {
              "$type": "SetGlobalValue",
              "value": 0.0,
              "key": "_WAYOB_EX_LINGSHI_ALLMIRROR_DIS",
              "maxValue": 0.0,
              "minValue": 0.0
            },
            {
              "$type": "FNPMFLOOCDD",
              "value": 0.0,
              "key": "_RANDOM_MIRROR_TYPE",
              "maxValue": 0.0,
              "minValue": 0.0
            },
            {
              "$type": "FNPMFLOOCDD",
              "value": 0.0,
              "key": "_RANDOM_MIRROR_TYPE",
              "useLimitRange": true,
              "randomInRange": true,
              "maxValue": 6.0,
              "minValue": 0.0
            },
            {
              "$type": "ApplyModifier",
              "modifierName": "Monster_Wayob_EX_Lingshi_GoHide_Duration"
            }
          ]
        },
        "Monster_Wayob_EX_Lingshi_GoHide_Duration": {
          "modifierName": "",
          "duration": 15.0,
          "elementDurability": 100.0,
          "onRemoved": [
            {
              "$type": "Predicated",
              "targetPredicates": [
                {
                  "$type": "ByTargetGlobalValue",
                  "key": "_MIRROR_TRUE_BE_KILLED",
                  "value": 0.0,
                  "compareType": "NoneOrEqual"
                }
              ],
              "successActions": [
                {
                  "$type": "SetGlobalValue",
                  "value": 1.0,
                  "key": "_WAYOB_EX_LINGSHI_ALLMIRROR_EXPLODE",
                  "maxValue": 0.0,
                  "minValue": 0.0
                },
                {
                  "$type": "ApplyModifier",
                  "modifierName": "Monster_Wayob_EX_Lingshi_GoShowDelay"
                }
              ]
            }
          ]
        },
        "Monster_Wayob_EX_Lingshi_GoShowDelay": {
          "modifierName": "",
          "duration": 0.10000000149011612,
          "elementDurability": 100.0,
          "onRemoved": [
            {
              "$type": "BHPDPACKKNI",
              "born": {
                "$type": "ConfigBornByGlobalValue",
                "positionKey": "_WAYOB_MOSASAURUS_EX_TRUE_POS",
                "directionKey": ""
              },
              "limitY": 2.5
            },
            {
              "$type": "IFCMHHHOLCK"
            },
            {
              "$type": "SetAnimatorTrigger",
              "triggerID": "OpenFieldOver"
            },
            {
              "$type": "SetGlobalValue",
              "value": 0.0,
              "key": "_WAYOB_EX_LINGSHI_HIDE",
              "maxValue": 0.0,
              "minValue": 0.0
            }
          ]
        },
        "Monster_Wayob_EX_LS_Show": {
          "modifierName": "",
          "elementDurability": 100.0,
          "onAdded": [
            {
              "$type": "EnableHitBoxByName",
              "canBeHandledOnRecover": true,
              "hitBoxNames": ["HitBox", "HeadHitBox"],
              "setEnable": true
            },
            {
              "$type": "EnablePushColliderName",
              "canBeHandledOnRecover": true,
              "pushColliderNames": ["PushCollider"],
              "setEnable": true
            },
            {
              "$type": "KDNMCNMAKNK",
              "canBeHandledOnRecover": true
            },
            {
              "$type": "HBNEMPLJCMB"
            }
          ]
        },
        "Monster_Wayob_EX_LS_Hide": {
          "modifierName": "",
          "elementDurability": 100.0,
          "modifierMixins": [
            {
              "$type": "LLCAHDLGAHO"
            }
          ],
          "state": "IsGhostToEnemy",
          "onAdded": [
            {
              "$type": "EnableHitBoxByName",
              "canBeHandledOnRecover": true,
              "hitBoxNames": ["HitBox", "HeadHitBox"]
            },
            {
              "$type": "EnablePushColliderName",
              "canBeHandledOnRecover": true,
              "pushColliderNames": ["PushCollider"]
            },
            {
              "$type": "KDNMCNMAKNK",
              "canBeHandledOnRecover": true,
              "enable": true
            },
            {
              "$type": "AttachModifier",
              "modifierName": "Monster_Wayob_EX_LS_DenyLockOn"
            },
            {
              "$type": "HBNEMPLJCMB",
              "hide": true
            }
          ]
        },
        "Monster_Wayob_EX_LS_DenyLockOn": {
          "modifierName": "",
          "elementDurability": 100.0,
          "state": "DenyLockOn"
        },
        "Monster_Wayob_EX_CreateMirrorEmpty": {
          "modifierName": "",
          "elementDurability": 100.0
        },
        "Monster_Wayob_EX_CreateMirrorType1": {
          "modifierName": "",
          "elementDurability": 100.0,
          "onAdded": [
            {
              "$type": "SetGlobalPos",
              "key": "_WAYOB_MOSASAURUS_EX_TRUE_POS",
              "born": {
                "$type": "ConfigBornBySelf",
                "useRotation": true
              }
            },
            {
              "$type": "DCKBKHHAFNO",
              "monsterID": 24811102,
              "born": {
                "$type": "ConfigBornBySelf",
                "useRotation": true
              },
              "summonTag": 24811102
            },
            {
              "$type": "DCKBKHHAFNO",
              "monsterID": 24811103,
              "born": {
                "$type": "ConfigBornBySelf",
                "offset": {
                  "x": 10.0,
                  "y": 0.0,
                  "z": 6.0
                },
                "useRotation": true
              },
              "summonTag": 24811103
            },
            {
              "$type": "DCKBKHHAFNO",
              "monsterID": 24811103,
              "born": {
                "$type": "ConfigBornBySelf",
                "offset": {
                  "x": -10.0,
                  "y": 0.0,
                  "z": 6.0
                },
                "useRotation": true
              },
              "summonTag": 24811103
            },
            {
              "$type": "DCKBKHHAFNO",
              "monsterID": 24811103,
              "born": {
                "$type": "ConfigBornBySelf",
                "offset": {
                  "x": -10.0,
                  "y": 0.0,
                  "z": 6.0
                },
                "useRotation": true
              },
              "summonTag": 24811103
            },
            {
              "$type": "DCKBKHHAFNO",
              "monsterID": 24811103,
              "born": {
                "$type": "ConfigBornBySelf",
                "offset": {
                  "x": -10.0,
                  "y": 0.0,
                  "z": -6.0
                },
                "useRotation": true
              },
              "summonTag": 24811103
            },
            {
              "$type": "DCKBKHHAFNO",
              "monsterID": 24811103,
              "born": {
                "$type": "ConfigBornBySelf",
                "offset": {
                  "x": 0.0,
                  "y": 0.0,
                  "z": 12.0
                },
                "useRotation": true
              },
              "summonTag": 24811103
            },
            {
              "$type": "DCKBKHHAFNO",
              "monsterID": 24811103,
              "born": {
                "$type": "ConfigBornBySelf",
                "offset": {
                  "x": 0.0,
                  "y": 0.0,
                  "z": -12.0
                },
                "useRotation": true
              },
              "summonTag": 24811103
            }
          ]
        },
        "Monster_Wayob_EX_CreateMirrorType2": {
          "modifierName": "",
          "elementDurability": 100.0,
          "onAdded": [
            {
              "$type": "DCKBKHHAFNO",
              "monsterID": 24811103,
              "born": {
                "$type": "ConfigBornBySelf",
                "useRotation": true
              },
              "summonTag": 24811103
            },
            {
              "$type": "SetGlobalPos",
              "key": "_WAYOB_MOSASAURUS_EX_TRUE_POS",
              "born": {
                "$type": "ConfigBornBySelf",
                "offset": {
                  "x": 10.0,
                  "y": 0.0,
                  "z": 6.0
                },
                "useRotation": true
              }
            },
            {
              "$type": "DCKBKHHAFNO",
              "monsterID": 24811102,
              "born": {
                "$type": "ConfigBornBySelf",
                "offset": {
                  "x": 10.0,
                  "y": 0.0,
                  "z": 6.0
                },
                "useRotation": true
              },
              "summonTag": 24811102
            },
            {
              "$type": "DCKBKHHAFNO",
              "monsterID": 24811103,
              "born": {
                "$type": "ConfigBornBySelf",
                "offset": {
                  "x": -10.0,
                  "y": 0.0,
                  "z": 6.0
                },
                "useRotation": true
              },
              "summonTag": 24811103
            },
            {
              "$type": "DCKBKHHAFNO",
              "monsterID": 24811103,
              "born": {
                "$type": "ConfigBornBySelf",
                "offset": {
                  "x": -10.0,
                  "y": 0.0,
                  "z": 6.0
                },
                "useRotation": true
              },
              "summonTag": 24811103
            },
            {
              "$type": "DCKBKHHAFNO",
              "monsterID": 24811103,
              "born": {
                "$type": "ConfigBornBySelf",
                "offset": {
                  "x": -10.0,
                  "y": 0.0,
                  "z": -6.0
                },
                "useRotation": true
              },
              "summonTag": 24811103
            },
            {
              "$type": "DCKBKHHAFNO",
              "monsterID": 24811103,
              "born": {
                "$type": "ConfigBornBySelf",
                "offset": {
                  "x": 0.0,
                  "y": 0.0,
                  "z": 12.0
                },
                "useRotation": true
              },
              "summonTag": 24811103
            },
            {
              "$type": "DCKBKHHAFNO",
              "monsterID": 24811103,
              "born": {
                "$type": "ConfigBornBySelf",
                "offset": {
                  "x": 0.0,
                  "y": 0.0,
                  "z": -12.0
                },
                "useRotation": true
              },
              "summonTag": 24811103
            }
          ]
        },
        "Monster_Wayob_EX_CreateMirrorType3": {
          "modifierName": "",
          "elementDurability": 100.0,
          "onAdded": [
            {
              "$type": "DCKBKHHAFNO",
              "monsterID": 24811103,
              "born": {
                "$type": "ConfigBornBySelf",
                "useRotation": true
              },
              "summonTag": 24811103
            },
            {
              "$type": "DCKBKHHAFNO",
              "monsterID": 24811103,
              "born": {
                "$type": "ConfigBornBySelf",
                "offset": {
                  "x": 10.0,
                  "y": 0.0,
                  "z": 6.0
                },
                "useRotation": true
              },
              "summonTag": 24811103
            },
            {
              "$type": "SetGlobalPos",
              "key": "_WAYOB_MOSASAURUS_EX_TRUE_POS",
              "born": {
                "$type": "ConfigBornBySelf",
                "offset": {
                  "x": -10.0,
                  "y": 0.0,
                  "z": 6.0
                },
                "useRotation": true
              }
            },
            {
              "$type": "DCKBKHHAFNO",
              "monsterID": 24811102,
              "born": {
                "$type": "ConfigBornBySelf",
                "offset": {
                  "x": -10.0,
                  "y": 0.0,
                  "z": 6.0
                },
                "useRotation": true
              },
              "summonTag": 24811102
            },
            {
              "$type": "DCKBKHHAFNO",
              "monsterID": 24811103,
              "born": {
                "$type": "ConfigBornBySelf",
                "offset": {
                  "x": -10.0,
                  "y": 0.0,
                  "z": 6.0
                },
                "useRotation": true
              },
              "summonTag": 24811103
            },
            {
              "$type": "DCKBKHHAFNO",
              "monsterID": 24811103,
              "born": {
                "$type": "ConfigBornBySelf",
                "offset": {
                  "x": -10.0,
                  "y": 0.0,
                  "z": -6.0
                },
                "useRotation": true
              },
              "summonTag": 24811103
            },
            {
              "$type": "DCKBKHHAFNO",
              "monsterID": 24811103,
              "born": {
                "$type": "ConfigBornBySelf",
                "offset": {
                  "x": 0.0,
                  "y": 0.0,
                  "z": 12.0
                },
                "useRotation": true
              },
              "summonTag": 24811103
            },
            {
              "$type": "DCKBKHHAFNO",
              "monsterID": 24811103,
              "born": {
                "$type": "ConfigBornBySelf",
                "offset": {
                  "x": 0.0,
                  "y": 0.0,
                  "z": -12.0
                },
                "useRotation": true
              },
              "summonTag": 24811103
            }
          ]
        },
        "Monster_Wayob_EX_CreateMirrorType4": {
          "modifierName": "",
          "elementDurability": 100.0,
          "onAdded": [
            {
              "$type": "DCKBKHHAFNO",
              "monsterID": 24811103,
              "born": {
                "$type": "ConfigBornBySelf",
                "useRotation": true
              },
              "summonTag": 24811103
            },
            {
              "$type": "DCKBKHHAFNO",
              "monsterID": 24811103,
              "born": {
                "$type": "ConfigBornBySelf",
                "offset": {
                  "x": 10.0,
                  "y": 0.0,
                  "z": 6.0
                },
                "useRotation": true
              },
              "summonTag": 24811103
            },
            {
              "$type": "DCKBKHHAFNO",
              "monsterID": 24811103,
              "born": {
                "$type": "ConfigBornBySelf",
                "offset": {
                  "x": -10.0,
                  "y": 0.0,
                  "z": 6.0
                },
                "useRotation": true
              },
              "summonTag": 24811103
            },
            {
              "$type": "DCKBKHHAFNO",
              "monsterID": 24811103,
              "born": {
                "$type": "ConfigBornBySelf",
                "offset": {
                  "x": -10.0,
                  "y": 0.0,
                  "z": 6.0
                },
                "useRotation": true
              },
              "summonTag": 24811103
            },
            {
              "$type": "SetGlobalPos",
              "key": "_WAYOB_MOSASAURUS_EX_TRUE_POS",
              "born": {
                "$type": "ConfigBornBySelf",
                "offset": {
                  "x": -10.0,
                  "y": 0.0,
                  "z": -6.0
                },
                "useRotation": true
              }
            },
            {
              "$type": "DCKBKHHAFNO",
              "monsterID": 24811102,
              "born": {
                "$type": "ConfigBornBySelf",
                "offset": {
                  "x": -10.0,
                  "y": 0.0,
                  "z": -6.0
                },
                "useRotation": true
              },
              "summonTag": 24811102
            },
            {
              "$type": "DCKBKHHAFNO",
              "monsterID": 24811103,
              "born": {
                "$type": "ConfigBornBySelf",
                "offset": {
                  "x": 0.0,
                  "y": 0.0,
                  "z": 12.0
                },
                "useRotation": true
              },
              "summonTag": 24811103
            },
            {
              "$type": "DCKBKHHAFNO",
              "monsterID": 24811103,
              "born": {
                "$type": "ConfigBornBySelf",
                "offset": {
                  "x": 0.0,
                  "y": 0.0,
                  "z": -12.0
                },
                "useRotation": true
              },
              "summonTag": 24811103
            }
          ]
        },
        "Monster_Wayob_EX_CreateMirrorType5": {
          "modifierName": "",
          "elementDurability": 100.0,
          "onAdded": [
            {
              "$type": "DCKBKHHAFNO",
              "monsterID": 24811103,
              "born": {
                "$type": "ConfigBornBySelf",
                "useRotation": true
              },
              "summonTag": 24811103
            },
            {
              "$type": "DCKBKHHAFNO",
              "monsterID": 24811103,
              "born": {
                "$type": "ConfigBornBySelf",
                "offset": {
                  "x": 10.0,
                  "y": 0.0,
                  "z": 6.0
                },
                "useRotation": true
              },
              "summonTag": 24811103
            },
            {
              "$type": "DCKBKHHAFNO",
              "monsterID": 24811103,
              "born": {
                "$type": "ConfigBornBySelf",
                "offset": {
                  "x": -10.0,
                  "y": 0.0,
                  "z": 6.0
                },
                "useRotation": true
              },
              "summonTag": 24811103
            },
            {
              "$type": "DCKBKHHAFNO",
              "monsterID": 24811103,
              "born": {
                "$type": "ConfigBornBySelf",
                "offset": {
                  "x": -10.0,
                  "y": 0.0,
                  "z": 6.0
                },
                "useRotation": true
              },
              "summonTag": 24811103
            },
            {
              "$type": "DCKBKHHAFNO",
              "monsterID": 24811103,
              "born": {
                "$type": "ConfigBornBySelf",
                "offset": {
                  "x": -10.0,
                  "y": 0.0,
                  "z": -6.0
                },
                "useRotation": true
              },
              "summonTag": 24811103
            },
            {
              "$type": "SetGlobalPos",
              "key": "_WAYOB_MOSASAURUS_EX_TRUE_POS",
              "born": {
                "$type": "ConfigBornBySelf",
                "offset": {
                  "x": 0.0,
                  "y": 0.0,
                  "z": 12.0
                },
                "useRotation": true
              }
            },
            {
              "$type": "DCKBKHHAFNO",
              "monsterID": 24811102,
              "born": {
                "$type": "ConfigBornBySelf",
                "offset": {
                  "x": 0.0,
                  "y": 0.0,
                  "z": 12.0
                },
                "useRotation": true
              },
              "summonTag": 24811102
            },
            {
              "$type": "DCKBKHHAFNO",
              "monsterID": 24811103,
              "born": {
                "$type": "ConfigBornBySelf",
                "offset": {
                  "x": 0.0,
                  "y": 0.0,
                  "z": -12.0
                },
                "useRotation": true
              },
              "summonTag": 24811103
            }
          ]
        },
        "Monster_Wayob_EX_CreateMirrorType6": {
          "modifierName": "",
          "elementDurability": 100.0,
          "onAdded": [
            {
              "$type": "DCKBKHHAFNO",
              "monsterID": 24811103,
              "born": {
                "$type": "ConfigBornBySelf",
                "useRotation": true
              },
              "summonTag": 24811103
            },
            {
              "$type": "DCKBKHHAFNO",
              "monsterID": 24811103,
              "born": {
                "$type": "ConfigBornBySelf",
                "offset": {
                  "x": 10.0,
                  "y": 0.0,
                  "z": 6.0
                },
                "useRotation": true
              },
              "summonTag": 24811103
            },
            {
              "$type": "DCKBKHHAFNO",
              "monsterID": 24811103,
              "born": {
                "$type": "ConfigBornBySelf",
                "offset": {
                  "x": -10.0,
                  "y": 0.0,
                  "z": 6.0
                },
                "useRotation": true
              },
              "summonTag": 24811103
            },
            {
              "$type": "DCKBKHHAFNO",
              "monsterID": 24811103,
              "born": {
                "$type": "ConfigBornBySelf",
                "offset": {
                  "x": -10.0,
                  "y": 0.0,
                  "z": 6.0
                },
                "useRotation": true
              },
              "summonTag": 24811103
            },
            {
              "$type": "DCKBKHHAFNO",
              "monsterID": 24811103,
              "born": {
                "$type": "ConfigBornBySelf",
                "offset": {
                  "x": -10.0,
                  "y": 0.0,
                  "z": -6.0
                },
                "useRotation": true
              },
              "summonTag": 24811103
            },
            {
              "$type": "DCKBKHHAFNO",
              "monsterID": 24811103,
              "born": {
                "$type": "ConfigBornBySelf",
                "offset": {
                  "x": 0.0,
                  "y": 0.0,
                  "z": 12.0
                },
                "useRotation": true
              },
              "summonTag": 24811103
            },
            {
              "$type": "SetGlobalPos",
              "key": "_WAYOB_MOSASAURUS_EX_TRUE_POS",
              "born": {
                "$type": "ConfigBornBySelf",
                "offset": {
                  "x": 0.0,
                  "y": 0.0,
                  "z": -12.0
                },
                "useRotation": true
              }
            },
            {
              "$type": "DCKBKHHAFNO",
              "monsterID": 24811102,
              "born": {
                "$type": "ConfigBornBySelf",
                "offset": {
                  "x": 0.0,
                  "y": 0.0,
                  "z": -12.0
                },
                "useRotation": true
              },
              "summonTag": 24811102
            }
          ]
        }
      }
    }
  },
  {
    "Default": {
      "$type": "ConfigAbility",
      "abilityName": "Monster_Wayob_EX_Mirror_True",
      "abilityMixins": [
        {
          "$type": "AttachModifierToGlobalValueMixin",
          "globalValueTarget": "Owner",
          "globalValueKey": "_WAYOB_EX_LINGSHI_ALLMIRROR_EXPLODE",
          "valueSteps": [-0.5, 0.5, 1.5],
          "modifierNameSteps": [
            "Monster_Wayob_EX_MirrorAlive",
            "Monster_Wayob_EX_MirrorGoExplode"
          ]
        }
      ],
      "modifiers": {
        "Monster_Wayob_EX_Mirror_TrueBeKilled": {
          "modifierName": "",
          "duration": 0.10000000149011612,
          "elementDurability": 100.0,
          "onAdded": [
            {
              "$type": "SetGlobalValue",
              "value": 1.0,
              "key": "_MIRROR_TRUE_BE_KILLED",
              "maxValue": 0.0,
              "minValue": 0.0
            }
          ]
        },
        "Monster_Wayob_EX_Mirror_True_Id": {
          "modifierName": "",
          "elementDurability": 100.0,
          "onAdded": [
            {
              "$type": "SetGlobalValue",
              "value": 1.0,
              "key": "_TRUE_MIRROR",
              "maxValue": 0.0,
              "minValue": 0.0
            }
          ],
          "onBeingHit": [
            {
              "$type": "Predicated",
              "targetPredicates": [
                {
                  "$type": "ByAttackTags",
                  "attackTags": ["ShockWaveAttack"]
                }
              ],
              "successActions": [
                {
                  "$type": "AttachEffect",
                  "rotationDampTime": "Eff_Monster_FungusFighterV2_TowerBeLock",
                  "PPPDJGDDOGD": 1.0,
                  "AJDILHJFNKE": -1.0
                }
              ]
            }
          ]
        },
        "Monster_Wayob_EX_MirrorAlive": {
          "modifierName": "",
          "elementDurability": 100.0
        },
        "Monster_Wayob_EX_MirrorGoExplode": {
          "modifierName": "",
          "elementDurability": 100.0,
          "onAdded": [
            {
              "$type": "SetGlobalValue",
              "value": 1.0,
              "key": "_KILLED_BY_SELF",
              "maxValue": 0.0,
              "minValue": 0.0
            },
            {
              "$type": "AttachModifier",
              "modifierName": "Monster_Wayob_EX_DieCreateExplode"
            },
            {
              "$type": "KillSelf",
              "target": "Caster",
              "duration": 0.10000000149011612
            }
          ]
        },
        "Monster_Wayob_EX_DieCreateExplode": {
          "modifierName": "",
          "elementDurability": 100.0,
          "modifierMixins": [
            {
              "$type": "IBPGGPHEDLF",
              "gadgetIDList": [42626004],
              "campID": 4001,
              "campTargetType": "Enemy"
            }
          ]
        }
      },
      "onAdded": [
        {
          "$type": "ApplyModifier",
          "modifierName": "Monster_Wayob_EX_Mirror_True_Id"
        }
      ],
      "onKill": [
        {
          "$type": "ApplyModifier",
          "target": "Owner",
          "predicates": [
            {
              "$type": "ByTargetGlobalValue",
              "key": "_KILLED_BY_SELF",
              "value": 0.0,
              "compareType": "NoneOrEqual"
            }
          ],
          "modifierName": "Monster_Wayob_EX_Mirror_TrueBeKilled"
        }
      ]
    }
  },
  {
    "Default": {
      "$type": "ConfigAbility",
      "abilityName": "Monster_Wayob_EX_Mirror_Fake",
      "abilityMixins": [
        {
          "$type": "AttachModifierToGlobalValueMixin",
          "globalValueTarget": "Owner",
          "globalValueKey": "_WAYOB_EX_LINGSHI_ALLMIRROR_EXPLODE",
          "valueSteps": [-0.5, 0.5, 1.5],
          "modifierNameSteps": [
            "Monster_Wayob_EX_MirrorAlive",
            "Monster_Wayob_EX_MirrorGoExplode"
          ]
        },
        {
          "$type": "AttachModifierToGlobalValueMixin",
          "globalValueTarget": "Owner",
          "globalValueKey": "_WAYOB_EX_LINGSHI_ALLMIRROR_DIS",
          "valueSteps": [-0.5, 0.5, 1.5],
          "modifierNameSteps": [
            "Monster_Wayob_EX_FakeMirApp",
            "Monster_Wayob_EX_FakeMirDis"
          ]
        }
      ],
      "modifiers": {
        "Monster_Wayob_EX_MirrorAlive": {
          "modifierName": "",
          "elementDurability": 100.0
        },
        "Monster_Wayob_EX_FakeMirDis": {
          "modifierName": "",
          "elementDurability": 100.0,
          "onAdded": [
            {
              "$type": "RemoveModifier",
              "modifierName": "Monster_Wayob_EX_Mirror_Fake_DieExplode"
            },
            {
              "$type": "KillSelf",
              "target": "Caster",
              "duration": 0.20000000298023224
            }
          ]
        },
        "Monster_Wayob_EX_MirrorGoExplode": {
          "modifierName": "",
          "elementDurability": 100.0,
          "onAdded": [
            {
              "$type": "KillSelf",
              "target": "Caster"
            }
          ]
        },
        "Monster_Wayob_EX_FakeMirApp": {
          "modifierName": "",
          "elementDurability": 100.0
        },
        "Monster_Wayob_EX_Mirror_Fake_DieExplode": {
          "modifierName": "",
          "elementDurability": 100.0,
          "modifierMixins": [
            {
              "$type": "IBPGGPHEDLF",
              "gadgetIDList": [42626004],
              "campID": 4001,
              "campTargetType": "Enemy"
            }
          ]
        },
        "Monster_Wayob_EX_Mirror_Fake_Life": {
          "modifierName": "",
          "duration": 15.0,
          "elementDurability": 100.0,
          "onRemoved": [
            {
              "$type": "KillSelf",
              "target": "Caster"
            }
          ]
        }
      },
      "onAdded": [
        {
          "$type": "ApplyModifier",
          "modifierName": "Monster_Wayob_EX_Mirror_Fake_DieExplode"
        },
        {
          "$type": "ApplyModifier",
          "modifierName": "Monster_Wayob_EX_Mirror_Fake_Life"
        }
      ]
    }
  },
  {
    "Default": {
      "$type": "ConfigAbility",
      "abilityName": "Monster_Wayob_EX_MirrorFalseExplode",
      "modifiers": {
        "Monster_Wayob_EX_MirrorFalseExplode_Damage": {
          "modifierName": "",
          "duration": 0.10000000149011612,
          "elementDurability": 100.0,
          "onAdded": [
            {
              "$type": "DamageByAttackValue",
              "born": {
                "$type": "ConfigBornBySelf",
                "offset": {
                  "x": 0.0,
                  "y": 1.5,
                  "z": 0.0
                },
                "useRotation": true
              },
              "attackInfo": {
                "attackTag": "",
                "attenuationTag": "",
                "attenuationGroup": "default",
                "attackProperty": {
                  "actorGrassSubHurtDelta": 4.0,
                  "actorWindSubHurtDelta": 0.0,
                  "elementType": "Ice",
                  "elementDurability": 25.0,
                  "strikeType": "Blunt",
                  "enBreak": 50.0,
                  "attackType": "Melee",
                  "trueDamage": true,
                  "GLKMCMDJBIK": 0.0
                },
                "hitPattern": {
                  "onHitEffectName": "default",
                  "hitImpulseY": "",
                  "hitImpulseType": "LV4"
                }
              }
            }
          ]
        }
      },
      "onAdded": [
        {
          "$type": "FireEffect",
          "rotationDampTime": "Eff_Monster_Nihil_QuickSnap",
          "PPPDJGDDOGD": 1.0,
          "AJDILHJFNKE": -1.0
        },
        {
          "$type": "ApplyModifier",
          "target": "CurLocalAvatar",
          "modifierName": "Monster_Wayob_EX_MirrorFalseExplode_Damage"
        }
      ]
    }
  },
  {
    "Default": {
      "$type": "ConfigAbility",
      "abilityName": "Monster_Wayob_EX_ElectricShock_CJB",
      "abilitySpecials": {
        "CJB_Ratio": 0.0
      },
      "modifiers": {
        "Monster_Wayob_EX_ElectricShock_CJB_Check": {
          "modifierName": "",
          "elementDurability": 100.0,
          "modifierMixins": [
            {
              "$type": "DoActionByElementReactionMixin",
              "entityTypes": ["Monster"],
              "reactionTypes": ["Shock"],
              "actions": [
                {
                  "$type": "Predicated",
                  "target": "Team",
                  "targetPredicates": [
                    {
                      "$type": "ByTargetGlobalValue",
                      "target": "Team",
                      "key": "_WAYOB_EX_SHOCK_CJB_CD",
                      "value": 0.0,
                      "compareType": "NoneOrEqual"
                    }
                  ],
                  "successActions": [
                    {
                      "$type": "ApplyModifier",
                      "target": "Other",
                      "modifierName": "Monster_Wayob_EX_Shock_TriggerCJB"
                    },
                    {
                      "$type": "ApplyModifier",
                      "target": "Team",
                      "modifierName": "Monster_Wayob_EX_Shock_CD"
                    }
                  ]
                }
              ]
            }
          ]
        },
        "Monster_Wayob_EX_Shock_CD": {
          "modifierName": "",
          "duration": 1.0,
          "elementDurability": 100.0,
          "onAdded": [
            {
              "$type": "SetGlobalValue",
              "value": 1.0,
              "key": "_WAYOB_EX_SHOCK_CJB_CD",
              "maxValue": 0.0,
              "minValue": 0.0
            }
          ],
          "onRemoved": [
            {
              "$type": "SetGlobalValue",
              "value": 0.0,
              "key": "_WAYOB_EX_SHOCK_CJB_CD",
              "maxValue": 0.0,
              "minValue": 0.0
            }
          ]
        },
        "Monster_Wayob_EX_Shock_TriggerCJB": {
          "modifierName": "",
          "duration": 0.10000000149011612,
          "elementDurability": 100.0,
          "onAdded": [
            {
              "$type": "FireEffect",
              "shieldHP": true,
              "rotationDampTime": "Eff_Monster_Monolith_Starchild_OverChargeAttack_AS",
              "PPPDJGDDOGD": 1.0,
              "AJDILHJFNKE": -1.0
            },
            {
              "$type": "TriggerAttackEvent",
              "target": "Caster",
              "shieldHP": true,
              "attackEvent": {
                "attackPattern": {
                  "$type": "ConfigAttackCircle",
                  "triggerType": "TriggerNoRepeat",
                  "ignoreMassive": true,
                  "born": {
                    "$type": "ConfigBornBySelf",
                    "offset": {
                      "x": 0.0,
                      "y": -0.20000000298023224,
                      "z": 0.0
                    },
                    "useRotation": true
                  },
                  "height": 2.0,
                  "radius": 30.0
                },
                "attackInfo": {
                  "attackTag": "ShockWaveAttack",
                  "attenuationTag": "",
                  "attenuationGroup": "default",
                  "attackProperty": {
                    "actorGrassSubHurtDelta": 0.0,
                    "actorWindSubHurtDelta": 0.0,
                    "elementDurability": 25.0,
                    "ignoreAttackerProperty": true,
                    "strikeType": "Blunt",
                    "enBreak": 101.0,
                    "attackType": "Melee",
                    "HMBONGBFIAP": ["CJB_Ratio", 5.0, "MUL"],
                    "trueDamage": true,
                    "ignoreModifyDamage": true,
                    "GLKMCMDJBIK": 0.0
                  },
                  "hitPattern": {
                    "onHitEffectName": "default",
                    "hitImpulseY": "",
                    "hitImpulseType": "LV4"
                  }
                }
              },
              "targetType": "Enemy"
            }
          ]
        }
      },
      "onAdded": [
        {
          "$type": "GDHGMAPPGHD",
          "shieldHP": true,
          "key": "CJB_Ratio",
          "damageRatio": "ElementLevelCo"
        },
        {
          "$type": "AttachModifier",
          "shieldHP": true,
          "modifierName": "Monster_Wayob_EX_ElectricShock_CJB_Check"
        }
      ],
      "isDynamicAbility": true
    }
  },
  {
    "Default": {
      "$type": "ConfigAbility",
      "abilityName": "Monster_Wayob_EX_Grass_ChangeWorld",
      "abilityMixins": [
        {
          "$type": "AttachModifierToSelfGlobalValueNoInitMixin",
          "globalValueKey": "SGV_GO_INNER_WORLD",
          "valueSteps": [-0.5, 0.5, 1.5],
          "modifierNameSteps": [
            "Wayob_EX_Grass_GoBackWorld",
            "Wayob_EX_Grass_GoInnerWorld"
          ],
          "NMCLMHFBALJ": true
        },
        {
          "$type": "AttachModifierToSelfGlobalValueNoInitMixin",
          "globalValueKey": "_GO_INNER_WORLD",
          "valueSteps": [-0.5, 0.5, 1.5],
          "modifierNameSteps": [
            "Wayob_EX_Grass_ChangeWorldEmpty",
            "Wayob_EX_Grass_ChangeWorld_Duration"
          ]
        },
        {
          "$type": "AttachModifierToSelfGlobalValueMixin",
          "globalValueKey": "_HIDE_ENTITY",
          "gvInTalk": 0.0,
          "valueSteps": [-0.5, 0.5, 1.5],
          "modifierNameSteps": [
            "Wayob_EX_Grass_HideEmpty",
            "Wayob_EX_Grass_HideEntity"
          ]
        }
      ],
      "modifiers": {
        "Monster_Wayob_EX_Grass_AvatarBuffOn": {
          "modifierName": "",
          "elementDurability": 100.0,
          "thinkInterval": 1.0,
          "onAdded": [
            {
              "$type": "BGLDIBDIEDJ",
              "shieldHP": true
            }
          ],
          "onThinkInterval": [
            {
              "$type": "ApplyModifier",
              "target": "AllPlayerAvatars",
              "shieldHP": true,
              "modifierName": "Monster_Wayob_EX_Grass_AvatarBuffOnGV"
            }
          ],
          "onThinkIntervalIsFixedUpdate": true
        },
        "Monster_Wayob_EX_Grass_AvatarBuffOnGV": {
          "modifierName": "",
          "duration": 1.5,
          "elementDurability": 100.0,
          "onAdded": [
            {
              "$type": "SetGlobalValue",
              "shieldHP": true,
              "value": 1.0,
              "key": "_AVATAR_NEAR_EX_WAYOB",
              "maxValue": 0.0,
              "minValue": 0.0
            }
          ],
          "onRemoved": [
            {
              "$type": "SetGlobalValue",
              "shieldHP": true,
              "value": 0.0,
              "key": "_AVATAR_NEAR_EX_WAYOB",
              "maxValue": 0.0,
              "minValue": 0.0
            }
          ]
        },
        "Monster_Wayob_EX_Get_AvatarBuffNum": {
          "modifierName": "",
          "duration": 0.10000000149011612,
          "elementDurability": 100.0,
          "onAdded": [
            {
              "$type": "CopyGlobalValue",
              "shieldHP": true,
              "srcTarget": "Self",
              "dstTarget": "Caster",
              "srcKey": "_WAYOB_EX_GRASS_AVATAR_KILL_NUM",
              "dstKey": "_MAIDIAN_AVATAR_BUFF_NUM"
            }
          ]
        },
        "Wayob_EX_Grass_GoBackWorld": {
          "modifierName": "",
          "elementDurability": 100.0,
          "thinkInterval": 0.5,
          "onAdded": [
            {
              "$type": "ApplyModifier",
              "modifierName": "Monster_Wayob_EX_Grass_BackWorld_Delay"
            },
            {
              "$type": "ApplyModifier",
              "modifierName": "Monster_Wayob_EX_Grass_ShowEntity_Delay"
            },
            {
              "$type": "ApplyModifier",
              "target": "AllPlayerAvatars",
              "shieldHP": true,
              "modifierName": "Monster_Wayob_EX_Set_AvatarOutWorld"
            },
            {
              "$type": "BGLDIBDIEDJ"
            },
            {
              "$type": "ApplyModifier",
              "target": "AllPlayerAvatars",
              "shieldHP": true,
              "modifierName": "Monster_Wayob_EX_Get_AvatarBuffNum"
            }
          ],
          "onThinkInterval": [
            {
              "$type": "ApplyModifier",
              "target": "AllPlayerAvatars",
              "shieldHP": true,
              "modifierName": "Monster_Wayob_EX_Grass_AvatarOuterWorldGV"
            }
          ],
          "onThinkIntervalIsFixedUpdate": true
        },
        "Wayob_EX_Grass_GoInnerWorld": {
          "modifierName": "",
          "elementDurability": 100.0,
          "thinkInterval": 0.5,
          "onAdded": [
            {
              "$type": "SetGlobalValue",
              "value": 1.0,
              "key": "_GO_INNER_WORLD",
              "maxValue": 0.0,
              "minValue": 0.0
            },
            {
              "$type": "BGLDIBDIEDJ"
            }
          ],
          "onThinkInterval": [
            {
              "$type": "ApplyModifier",
              "target": "AllPlayerAvatars",
              "shieldHP": true,
              "modifierName": "Monster_Wayob_EX_Grass_AvatarInnerWorldGV"
            }
          ],
          "onThinkIntervalIsFixedUpdate": true
        },
        "Monster_Wayob_EX_Set_AvatarOutWorld": {
          "modifierName": "",
          "duration": 0.029999999329447746,
          "elementDurability": 100.0,
          "onAdded": [
            {
              "$type": "SetGlobalValue",
              "shieldHP": true,
              "value": 0.0,
              "key": "_MONSTER_WAYOB_EX_INNER_WORLD",
              "maxValue": 0.0,
              "minValue": 0.0
            }
          ]
        },
        "Monster_Wayob_EX_Set_AvatarInnerWorld": {
          "modifierName": "",
          "duration": 0.029999999329447746,
          "elementDurability": 100.0,
          "onAdded": [
            {
              "$type": "SetGlobalValue",
              "shieldHP": true,
              "value": 1.0,
              "key": "_MONSTER_WAYOB_EX_INNER_WORLD",
              "maxValue": 0.0,
              "minValue": 0.0
            }
          ]
        },
        "Wayob_EX_Grass_ChangeWorldEmpty": {
          "modifierName": "",
          "elementDurability": 100.0,
          "onAdded": [
            {
              "$type": "DungeonFogEffects",
              "cameraFogEffectName": "",
              "playerFogEffectName": ""
            },
            {
              "$type": "SetGlobalValue",
              "value": 0.0,
              "key": "_WAYOB_EX_GRASS_POSE",
              "maxValue": 0.0,
              "minValue": 0.0
            },
            {
              "$type": "GFFKENEJFFB",
              "intID": "WGPose"
            },
            {
              "$type": "KNLIPAELJMN",
              "shieldHP": true,
              "show": true,
              "fore": true
            }
          ]
        },
        "Wayob_EX_Grass_ChangeWorld_Duration": {
          "modifierName": "",
          "elementDurability": 100.0,
          "modifierMixins": [
            {
              "$type": "TriggerPostProcessEffectMixin",
              "postEffectAssetName": "PostEffect_Monster_Wayob_Hookwalker_EX_ScreenEffect",
              "duration": 0.0,
              "JAHICEHEJCI": true,
              "HJBDNJJIGDN": true
            }
          ],
          "onAdded": [
            {
              "$type": "GFFKENEJFFB",
              "intID": "WGPose",
              "value": 2
            },
            {
              "$type": "DungeonFogEffects",
              "muteRemoteAction": true,
              "enable": true,
              "cameraFogEffectName": "Eff_Monster_Wayob_Hookwalker_EX_ScreenEffect_GoWorldInside",
              "playerFogEffectName": ""
            },
            {
              "$type": "SetGlobalValue",
              "value": 2.0,
              "key": "_WAYOB_EX_GRASS_POSE",
              "maxValue": 0.0,
              "minValue": 0.0
            },
            {
              "$type": "ApplyModifier",
              "modifierName": "Wayob_EX_Grass_ChangeWorld_HideEntity_Delay"
            },
            {
              "$type": "ApplyModifier",
              "target": "AllPlayerAvatars",
              "shieldHP": true,
              "modifierName": "Monster_Wayob_EX_Set_AvatarInnerWorld"
            },
            {
              "$type": "KNLIPAELJMN",
              "shieldHP": true,
              "fore": true,
              "skipCheck": true
            }
          ],
          "onRemoved": [
            {
              "$type": "SetGlobalValue",
              "predicates": [
                {
                  "$type": "ByTargetGlobalValue",
                  "key": "_MAIDIAN_AVATAR_BUFF_NUM",
                  "value": 10.0,
                  "compareType": "MoreThanAndEqual"
                }
              ],
              "value": 1.0,
              "key": "_MONSTER_WAYOB_HOOKWALKER_EX_BUFFNUM_ACHIEVEMENT",
              "maxValue": 0.0,
              "minValue": 0.0
            },
            {
              "$type": "DLEIPBPNAIM",
              "predicates": [
                {
                  "$type": "ByTargetGlobalValue",
                  "key": "_MAIDIAN_AVATAR_BUFF_NUM",
                  "value": 0.0,
                  "compareType": "NoneOrEqual"
                }
              ],
              "paramList": [0]
            },
            {
              "$type": "DLEIPBPNAIM",
              "predicates": [
                {
                  "$type": "ByTargetGlobalValue",
                  "key": "_MAIDIAN_AVATAR_BUFF_NUM",
                  "value": 1.0
                }
              ],
              "paramList": [1]
            },
            {
              "$type": "DLEIPBPNAIM",
              "predicates": [
                {
                  "$type": "ByTargetGlobalValue",
                  "key": "_MAIDIAN_AVATAR_BUFF_NUM",
                  "value": 2.0
                }
              ],
              "paramList": [2]
            },
            {
              "$type": "DLEIPBPNAIM",
              "predicates": [
                {
                  "$type": "ByTargetGlobalValue",
                  "key": "_MAIDIAN_AVATAR_BUFF_NUM",
                  "value": 3.0
                }
              ],
              "paramList": [3]
            },
            {
              "$type": "DLEIPBPNAIM",
              "predicates": [
                {
                  "$type": "ByTargetGlobalValue",
                  "key": "_MAIDIAN_AVATAR_BUFF_NUM",
                  "value": 4.0
                }
              ],
              "paramList": [4]
            },
            {
              "$type": "DLEIPBPNAIM",
              "predicates": [
                {
                  "$type": "ByTargetGlobalValue",
                  "key": "_MAIDIAN_AVATAR_BUFF_NUM",
                  "value": 5.0
                }
              ],
              "paramList": [5]
            },
            {
              "$type": "DLEIPBPNAIM",
              "predicates": [
                {
                  "$type": "ByTargetGlobalValue",
                  "key": "_MAIDIAN_AVATAR_BUFF_NUM",
                  "value": 6.0
                }
              ],
              "paramList": [6]
            },
            {
              "$type": "DLEIPBPNAIM",
              "predicates": [
                {
                  "$type": "ByTargetGlobalValue",
                  "key": "_MAIDIAN_AVATAR_BUFF_NUM",
                  "value": 7.0
                }
              ],
              "paramList": [7]
            },
            {
              "$type": "DLEIPBPNAIM",
              "predicates": [
                {
                  "$type": "ByTargetGlobalValue",
                  "key": "_MAIDIAN_AVATAR_BUFF_NUM",
                  "value": 8.0
                }
              ],
              "paramList": [8]
            },
            {
              "$type": "DLEIPBPNAIM",
              "predicates": [
                {
                  "$type": "ByTargetGlobalValue",
                  "key": "_MAIDIAN_AVATAR_BUFF_NUM",
                  "value": 9.0
                }
              ],
              "paramList": [9]
            },
            {
              "$type": "DLEIPBPNAIM",
              "predicates": [
                {
                  "$type": "ByTargetGlobalValue",
                  "key": "_MAIDIAN_AVATAR_BUFF_NUM",
                  "value": 10.0
                }
              ],
              "paramList": [10]
            },
            {
              "$type": "DLEIPBPNAIM",
              "predicates": [
                {
                  "$type": "ByTargetGlobalValue",
                  "key": "_MAIDIAN_AVATAR_BUFF_NUM",
                  "value": 11.0
                }
              ],
              "paramList": [11]
            },
            {
              "$type": "DLEIPBPNAIM",
              "predicates": [
                {
                  "$type": "ByTargetGlobalValue",
                  "key": "_MAIDIAN_AVATAR_BUFF_NUM",
                  "value": 12.0
                }
              ],
              "paramList": [12]
            },
            {
              "$type": "DLEIPBPNAIM",
              "predicates": [
                {
                  "$type": "ByTargetGlobalValue",
                  "key": "_MAIDIAN_AVATAR_BUFF_NUM",
                  "value": 13.0
                }
              ],
              "paramList": [13]
            },
            {
              "$type": "DLEIPBPNAIM",
              "predicates": [
                {
                  "$type": "ByTargetGlobalValue",
                  "key": "_MAIDIAN_AVATAR_BUFF_NUM",
                  "value": 14.0
                }
              ],
              "paramList": [14]
            },
            {
              "$type": "DLEIPBPNAIM",
              "predicates": [
                {
                  "$type": "ByTargetGlobalValue",
                  "key": "_MAIDIAN_AVATAR_BUFF_NUM",
                  "value": 15.0
                }
              ],
              "paramList": [15]
            }
          ]
        },
        "Monster_Wayob_EX_Grass_AvatarOuterWorldGV": {
          "modifierName": "",
          "duration": 0.10000000149011612,
          "elementDurability": 100.0,
          "onAdded": [
            {
              "$type": "SetGlobalValue",
              "shieldHP": true,
              "value": 0.0,
              "key": "_AVATAR_INNER_WORLD",
              "maxValue": 0.0,
              "minValue": 0.0
            }
          ]
        },
        "Monster_Wayob_EX_Grass_AvatarInnerWorldGV": {
          "modifierName": "",
          "duration": 0.10000000149011612,
          "elementDurability": 100.0,
          "onAdded": [
            {
              "$type": "SetGlobalValue",
              "shieldHP": true,
              "value": 1.0,
              "key": "_AVATAR_INNER_WORLD",
              "maxValue": 0.0,
              "minValue": 0.0
            }
          ]
        },
        "Monster_Wayob_EX_Grass_Denylockon": {
          "modifierName": "",
          "elementDurability": 100.0,
          "state": "DenyLockOn"
        },
        "Monster_Wayob_EX_Grass_IsGhost": {
          "modifierName": "",
          "elementDurability": 100.0,
          "state": "IsGhostToEnemy"
        },
        "Wayob_EX_Grass_ChangeWorld_HideEntity_Delay": {
          "modifierName": "",
          "duration": 0.30000001192092896,
          "elementDurability": 100.0,
          "onRemoved": [
            {
              "$type": "SetGlobalValue",
              "value": 1.0,
              "key": "_HIDE_ENTITY",
              "maxValue": 0.0,
              "minValue": 0.0
            }
          ]
        },
        "Wayob_EX_Grass_HideEmpty": {
          "modifierName": "",
          "elementDurability": 100.0
        },
        "Wayob_EX_Grass_HideEntity": {
          "modifierName": "",
          "elementDurability": 100.0,
          "modifierMixins": [
            {
              "$type": "LLCAHDLGAHO"
            },
            {
              "$type": "AttachActionToModifierMixin",
              "onAdded": [
                {
                  "$type": "EnableHitBoxByName",
                  "canBeHandledOnRecover": true,
                  "hitBoxNames": ["HitBox", "HeadHitBox"]
                },
                {
                  "$type": "EnablePushColliderName",
                  "canBeHandledOnRecover": true,
                  "pushColliderNames": ["PushCollider"]
                },
                {
                  "$type": "KDNMCNMAKNK",
                  "canBeHandledOnRecover": true,
                  "enable": true
                },
                {
                  "$type": "HBNEMPLJCMB",
                  "hide": true
                }
              ],
              "onRemoved": [
                {
                  "$type": "EnableHitBoxByName",
                  "canBeHandledOnRecover": true,
                  "hitBoxNames": ["HitBox", "HeadHitBox"],
                  "setEnable": true
                },
                {
                  "$type": "EnablePushColliderName",
                  "canBeHandledOnRecover": true,
                  "pushColliderNames": ["PushCollider"],
                  "setEnable": true
                },
                {
                  "$type": "KDNMCNMAKNK",
                  "canBeHandledOnRecover": true
                },
                {
                  "$type": "HBNEMPLJCMB"
                }
              ]
            }
          ],
          "onAdded": [
            {
              "$type": "AttachModifier",
              "modifierName": "Monster_Wayob_EX_Grass_Denylockon"
            },
            {
              "$type": "AttachModifier",
              "modifierName": "Monster_Wayob_EX_Grass_IsGhost"
            }
          ]
        },
        "Monster_Wayob_EX_Grass_BackWorld": {
          "modifierName": "",
          "elementDurability": 100.0,
          "onAdded": [
            {
              "$type": "ApplyModifier",
              "modifierName": "Monster_Wayob_EX_Grass_BackWorld_Delay"
            },
            {
              "$type": "ApplyModifier",
              "modifierName": "Monster_Wayob_EX_Grass_ShowEntity_Delay"
            }
          ]
        },
        "Monster_Wayob_EX_Grass_ShowEntity_Delay": {
          "modifierName": "",
          "duration": 0.30000001192092896,
          "elementDurability": 100.0,
          "onRemoved": [
            {
              "$type": "SetGlobalValue",
              "value": 0.0,
              "key": "_HIDE_ENTITY",
              "maxValue": 0.0,
              "minValue": 0.0
            }
          ]
        },
        "Monster_Wayob_EX_Grass_BackWorld_Delay": {
          "modifierName": "",
          "duration": 1.0,
          "elementDurability": 100.0,
          "onAdded": [
            {
              "$type": "DungeonFogEffects",
              "muteRemoteAction": true,
              "enable": true,
              "cameraFogEffectName": "Eff_Monster_Wayob_Hookwalker_EX_ScreenEffect_GoWorldOutside",
              "playerFogEffectName": ""
            }
          ],
          "onRemoved": [
            {
              "$type": "SetGlobalValue",
              "shieldHP": true,
              "value": 0.0,
              "key": "_GO_INNER_WORLD",
              "maxValue": 0.0,
              "minValue": 0.0
            }
          ]
        }
      },
      "onAdded": [
        {
          "$type": "ApplyModifier",
          "modifierName": "Monster_Wayob_EX_Grass_AvatarBuffOn"
        },
        {
          "$type": "SetGlobalValue",
          "value": 0.0,
          "key": "_MAIDIAN_AVATAR_BUFF_NUM",
          "maxValue": 0.0,
          "minValue": 0.0
        }
      ],
      "onAbilityStart": [
        {
          "$type": "AHPEKICBIIL",
          "luaCallType": "FromGroup",
          "funcName": "SLC_Switch_To_Inner_World",
          "param1": 0.0,
          "MGAMDEHMCOL": 0.0,
          "MMHOHAOGPLP": 0.0
        }
      ]
    }
  },
  {
    "Default": {
      "$type": "ConfigAbility",
      "abilityName": "Monster_Wayob_EX_Grass_ForceTurnState",
      "abilityMixins": [
        {
          "$type": "PDIMAGBFBIE",
          "valueSteps": [0.800000011920929],
          "modifierNameSteps": [
            "Monster_Wayob_EX_Grass_ForceTurnStateEmpty",
            "Monster_Wayob_EX_Grass_ForceTurnState"
          ]
        }
      ],
      "modifiers": {
        "Monster_Set_Ac_Level1": {
          "modifierName": "",
          "duration": 0.029999999329447746,
          "elementDurability": 100.0,
          "onAdded": [
            {
              "$type": "SetGlobalValue",
              "value": 1.0,
              "key": "_NYX_CHALLENGE_LEVEL",
              "maxValue": 0.0,
              "minValue": 0.0
            }
          ]
        },
        "Monster_Set_Ac_Level2": {
          "modifierName": "",
          "duration": 0.029999999329447746,
          "elementDurability": 100.0,
          "onAdded": [
            {
              "$type": "SetGlobalValue",
              "value": 2.0,
              "key": "_NYX_CHALLENGE_LEVEL",
              "maxValue": 0.0,
              "minValue": 0.0
            }
          ]
        },
        "Monster_Set_Ac_Level3": {
          "modifierName": "",
          "duration": 0.029999999329447746,
          "elementDurability": 100.0,
          "onAdded": [
            {
              "$type": "SetGlobalValue",
              "value": 3.0,
              "key": "_NYX_CHALLENGE_LEVEL",
              "maxValue": 0.0,
              "minValue": 0.0
            }
          ]
        },
        "Monster_Wayob_EX_Grass_AddEndure": {
          "modifierName": "",
          "elementDurability": 100.0,
          "properties": {
            "Actor_EndureDelta": 0.0
          },
          "onAdded": [
            {
              "$type": "SetGlobalValue",
              "value": 1.0,
              "key": "_IS_WAYOB_GRASS_EX",
              "maxValue": 0.0,
              "minValue": 0.0
            }
          ],
          "onAttackLanded": [
            {
              "$type": "Predicated",
              "target": "Other",
              "targetPredicates": [
                {
                  "$type": "ByEntityTypes",
                  "entityTypes": ["Avatar"]
                }
              ],
              "successActions": [
                {
                  "$type": "SetGlobalValue",
                  "value": 1.0,
                  "key": "_MONSTER_WAYOB_HOOKWALKER_EX_HITAVATAR",
                  "maxValue": 0.0,
                  "minValue": 0.0
                }
              ]
            }
          ]
        },
        "Monster_Wayob_EX_Grass_ForceTurnStateEmpty": {
          "modifierName": "",
          "elementDurability": 100.0
        },
        "Monster_Wayob_EX_Grass_ForceTurnState": {
          "modifierName": "",
          "elementDurability": 100.0,
          "onAdded": [
            {
              "$type": "IPMMJGMONCI",
              "skillIDs": [501]
            }
          ]
        }
      },
      "onAdded": [
        {
          "$type": "ApplyModifier",
          "modifierName": "Monster_Wayob_EX_Grass_AddEndure"
        }
      ],
      "onKill": [
        {
          "$type": "ApplyModifier",
          "target": "Team",
          "modifierName": "Monster_Set_Ac_Level1"
        },
        {
          "$type": "ApplyModifier",
          "target": "Team",
          "predicates": [
            {
              "$type": "ByTargetGlobalValue",
              "target": "Self",
              "key": "_MONSTER_WAYOB_HOOKWALKER_EX_BUFFNUM_ACHIEVEMENT",
              "value": 1.0
            },
            {
              "$type": "EBOHLEJJMIG",
              "IKILOJFBKMA": 82241
            }
          ],
          "modifierName": "Monster_Set_Ac_Level2"
        },
        {
          "$type": "ApplyModifier",
          "target": "Team",
          "predicates": [
            {
              "$type": "ByTargetGlobalValue",
              "target": "Self",
              "key": "_MONSTER_WAYOB_HOOKWALKER_EX_HITAVATAR",
              "value": 0.0,
              "compareType": "NoneOrEqual"
            },
            {
              "$type": "EBOHLEJJMIG",
              "IKILOJFBKMA": 82242
            }
          ],
          "modifierName": "Monster_Set_Ac_Level3"
        },
        {
          "$type": "HCLAKBJKPLE",
          "predicates": [
            {
              "$type": "ByTargetGlobalValue",
              "target": "Self",
              "key": "_MONSTER_WAYOB_HOOKWALKER_EX_HITAVATAR",
              "value": 0.0,
              "compareType": "NoneOrEqual"
            },
            {
              "$type": "EBOHLEJJMIG",
              "IKILOJFBKMA": 82242
            }
          ],
          "watcherId": 82243,
          "inThreatListOnly": true
        },
        {
          "$type": "HCLAKBJKPLE",
          "predicates": [
            {
              "$type": "ByTargetGlobalValue",
              "target": "Self",
              "key": "_MONSTER_WAYOB_HOOKWALKER_EX_BUFFNUM_ACHIEVEMENT",
              "value": 1.0
            },
            {
              "$type": "EBOHLEJJMIG",
              "IKILOJFBKMA": 82241
            }
          ],
          "watcherId": 82242,
          "inThreatListOnly": true
        },
        {
          "$type": "HCLAKBJKPLE",
          "watcherId": 82241,
          "inThreatListOnly": true
        }
      ]
    }
  },
  {
    "Default": {
      "$type": "ConfigAbility",
      "abilityName": "Monster_Wayob_EX_Grass_RangeAtk",
      "abilityMixins": [
        {
          "$type": "AttachToNormalizedTimeMixin",
          "stateID": "SummonAttack1",
          "modifierName": "Monster_Wayob_Hookwalker_EX_CreatePlusAtk",
          "normalizeStart": 0.6000000238418579,
          "normalizeEnd": 0.8999999761581421,
          "DGFCLAIDIFI": ""
        }
      ],
      "modifiers": {
        "Monster_Wayob_Hookwalker_EX_CreatePlusAtk": {
          "modifierName": "",
          "elementDurability": 100.0,
          "onAdded": [
            {
              "$type": "SetGlobalPos",
              "target": "SelfAttackTarget",
              "key": "_WAYOB_GRASS_ATK_POS",
              "born": {
                "$type": "ConfigBornByTarget",
                "onGround": true
              },
              "setTarget": false
            },
            {
              "$type": "CreateGadget",
              "born": {
                "$type": "ConfigBornByGlobalValue",
                "positionKey": "_WAYOB_GRASS_ATK_POS",
                "directionKey": ""
              },
              "gadgetID": 42626019
            },
            {
              "$type": "ApplyModifier",
              "modifierName": "Monster_Wayob_Hookwalker_EX_CreatePlusAtk2"
            }
          ]
        },
        "Monster_Wayob_Hookwalker_EX_CreatePlusAtk2": {
          "modifierName": "",
          "duration": 0.5,
          "elementDurability": 100.0,
          "onRemoved": [
            {
              "$type": "SetGlobalPos",
              "target": "SelfAttackTarget",
              "key": "_WAYOB_GRASS_ATK_POS",
              "born": {
                "$type": "ConfigBornByTarget",
                "onGround": true
              },
              "setTarget": false
            },
            {
              "$type": "CreateGadget",
              "born": {
                "$type": "ConfigBornByGlobalValue",
                "positionKey": "_WAYOB_GRASS_ATK_POS",
                "directionKey": ""
              },
              "gadgetID": 42626019
            }
          ]
        },
        "Monster_Wayob_EX_Grass_RangeAtk": {
          "modifierName": "",
          "duration": 0.30000001192092896,
          "elementDurability": 100.0,
          "onAdded": [
            {
              "$type": "SetGlobalPos",
              "target": "SelfAttackTarget",
              "key": "_WAYOB_GRASS_ATK_POS",
              "born": {
                "$type": "ConfigBornByTarget",
                "onGround": true
              },
              "setTarget": false
            },
            {
              "$type": "CreateGadget",
              "born": {
                "$type": "ConfigBornByGlobalValue",
                "positionKey": "_WAYOB_GRASS_ATK_POS",
                "directionKey": ""
              },
              "gadgetID": 42626019
            }
          ],
          "onRemoved": [
            {
              "$type": "CreateGadget",
              "born": {
                "$type": "ConfigBornByGlobalValue",
                "offset": {
                  "x": 0.0,
                  "y": 0.0,
                  "z": 6.0
                },
                "positionKey": "_WAYOB_GRASS_ATK_POS",
                "directionKey": ""
              },
              "gadgetID": 42626019
            },
            {
              "$type": "CreateGadget",
              "born": {
                "$type": "ConfigBornByGlobalValue",
                "offset": {
                  "x": 4.199999809265137,
                  "y": 0.0,
                  "z": -4.199999809265137
                },
                "positionKey": "_WAYOB_GRASS_ATK_POS",
                "directionKey": ""
              },
              "gadgetID": 42626019
            },
            {
              "$type": "CreateGadget",
              "born": {
                "$type": "ConfigBornByGlobalValue",
                "offset": {
                  "x": -4.199999809265137,
                  "y": 0.0,
                  "z": -4.199999809265137
                },
                "positionKey": "_WAYOB_GRASS_ATK_POS",
                "directionKey": ""
              },
              "gadgetID": 42626019
            },
            {
              "$type": "ApplyModifier",
              "modifierName": "Monster_Wayob_EX_Grass_RangeAtk2"
            }
          ]
        },
        "Monster_Wayob_EX_Grass_RangeAtk2": {
          "modifierName": "",
          "duration": 0.30000001192092896,
          "elementDurability": 100.0,
          "onRemoved": [
            {
              "$type": "CreateGadget",
              "born": {
                "$type": "ConfigBornByGlobalValue",
                "offset": {
                  "x": 0.0,
                  "y": 0.0,
                  "z": 12.0
                },
                "positionKey": "_WAYOB_GRASS_ATK_POS",
                "directionKey": ""
              },
              "gadgetID": 42626019
            },
            {
              "$type": "CreateGadget",
              "born": {
                "$type": "ConfigBornByGlobalValue",
                "offset": {
                  "x": 8.399999618530273,
                  "y": 0.0,
                  "z": -8.399999618530273
                },
                "positionKey": "_WAYOB_GRASS_ATK_POS",
                "directionKey": ""
              },
              "gadgetID": 42626019
            },
            {
              "$type": "CreateGadget",
              "born": {
                "$type": "ConfigBornByGlobalValue",
                "offset": {
                  "x": -8.399999618530273,
                  "y": 0.0,
                  "z": -8.399999618530273
                },
                "positionKey": "_WAYOB_GRASS_ATK_POS",
                "directionKey": ""
              },
              "gadgetID": 42626019
            }
          ]
        }
      },
      "onAbilityStart": [
        {
          "$type": "ApplyModifier",
          "modifierName": "Monster_Wayob_EX_Grass_RangeAtk"
        }
      ]
    }
  },
  {
    "Default": {
      "$type": "ConfigAbility",
      "abilityName": "Monster_Wayob_Hookwalker_EX_EarthAtk",
      "modifiers": {
        "Monster_Wayob_Hookwalker_EX_EarthAtk": {
          "modifierName": "",
          "duration": 1.5,
          "elementDurability": 100.0,
          "onAdded": [
            {
              "$type": "FireEffect",
              "rotationDampTime": "Eff_Monster_Wayob_Hookwalker_EX_RangeAtk2_GadgetWarning",
              "PPPDJGDDOGD": 1.0,
              "AJDILHJFNKE": -1.0
            }
          ],
          "onRemoved": [
            {
              "$type": "FireEffect",
              "rotationDampTime": "Eff_Monster_Wayob_Hookwalker_EX_RangeAtk2_GadgetAttack",
              "PPPDJGDDOGD": 1.0,
              "AJDILHJFNKE": -1.0
            },
            {
              "$type": "TriggerAttackEvent",
              "attackEvent": {
                "attackPattern": {
                  "$type": "ConfigAttackCircle",
                  "triggerType": "TriggerNoRepeat",
                  "born": {
                    "$type": "ConfigBornBySelf",
                    "offset": {
                      "x": 0.0,
                      "y": 0.0,
                      "z": 0.0
                    },
                    "onGround": true,
                    "useRotation": true
                  },
                  "height": 3.0,
                  "radius": 4.0
                },
                "attackInfo": {
                  "attackTag": "DebuffAtk",
                  "attenuationTag": "",
                  "attenuationGroup": "default",
                  "attackProperty": {
                    "actorGrassSubHurtDelta": 0.800000011920929,
                    "actorWindSubHurtDelta": 0.0,
                    "elementType": "Grass",
                    "elementDurability": 25.0,
                    "strikeType": "Blunt",
                    "enBreak": 105.0,
                    "GLKMCMDJBIK": 0.0
                  },
                  "hitPattern": {
                    "onHitEffectName": "default",
                    "hitImpulseY": "",
                    "hitImpulseType": "LV5"
                  }
                }
              },
              "targetType": "Enemy"
            }
          ]
        }
      },
      "onAdded": [
        {
          "$type": "ApplyModifier",
          "modifierName": "Monster_Wayob_Hookwalker_EX_EarthAtk"
        }
      ]
    }
  }
]
