[
  {
    "Default": {
      "$type": "ConfigAbility",
      "abilityName": "Fungus_Deux_BVB_Rock_Taunt",
      "modifiers": {
        "RockEndure": {
          "modifierName": "",
          "duration": 8.0,
          "elementDurability": 100.0,
          "properties": {
            "Actor_EndureDelta": 0.33000001311302185
          },
          "onAdded": [
            {
              "$type": "TriggerTaunt",
              "otherTargets": {
                "$type": "SelectTargetsByShape",
                "shapeName": "CircleR15",
                "campTargetType": "Enemy",
                "doOffStage": 1.0
              },
              "predicates": [
                {
                  "$type": "ByEntityTypes",
                  "entityTypes": ["Monster", "Partner"]
                }
              ],
              "tauntLevel": "Ability_TauntLevel_4",
              "careValue": 660.0
            }
          ],
          "onRemoved": [
            {
              "$type": "TriggerTaunt",
              "otherTargets": {
                "$type": "SelectTargetsByShape",
                "shapeName": "CircleR15",
                "campTargetType": "Enemy",
                "doOffStage": 1.0
              },
              "predicates": [
                {
                  "$type": "ByEntityTypes",
                  "entityTypes": ["Monster", "Partner"]
                }
              ],
              "tauntLevel": "Ability_TauntLevel_4",
              "careValue": -410.0
            }
          ]
        }
      },
      "onAbilityStart": [
        {
          "$type": "FireEffect",
          "rotationDampTime": "Eff_Monster_Fungus_Deux_Rock_Taunt",
          "PPPDJGDDOGD": 1.0,
          "AJDILHJFNKE": -1.0
        },
        {
          "$type": "ApplyModifier",
          "modifierName": "RockEndure"
        }
      ]
    }
  },
  {
    "Default": {
      "$type": "ConfigAbility",
      "abilityName": "Fungus_Deux_BVB_Rock_RockConsuming",
      "abilityMixins": [
        {
          "$type": "APJKOLPHCGH",
          "stateIDs": ["UnionBurst"],
          "enterActions": [
            {
              "$type": "SetAnimatorTrigger",
              "triggerID": "UBShader"
            }
          ],
          "DGFCLAIDIFI": ""
        }
      ],
      "modifiers": {
        "RockConsuming_Monitor": {
          "modifierName": "",
          "elementDurability": 100.0,
          "onAttackLanded": [
            {
              "$type": "Predicated",
              "target": "Target",
              "targetPredicates": [
                {
                  "$type": "ByHasElement",
                  "element": "Rock"
                },
                {
                  "$type": "ByAttackTags",
                  "attackTags": ["BVB_FungusRock_UB"]
                }
              ],
              "successActions": [
                {
                  "$type": "AddElementDurability",
                  "target": "Target",
                  "value": -300.0,
                  "modifierName": "",
                  "elementType": "Rock",
                  "sortModifier": "All",
                  "maxValue": 3.4028234663852886e38
                }
              ]
            },
            {
              "$type": "Predicated",
              "target": "Target",
              "targetPredicates": [
                {
                  "$type": "ByHasElement",
                  "element": "Rock"
                },
                {
                  "$type": "ByAttackTags",
                  "attackTags": ["BVB_FungusRock_Melee"]
                }
              ],
              "successActions": [
                {
                  "$type": "AddElementDurability",
                  "target": "Target",
                  "value": -50.0,
                  "modifierName": "",
                  "elementType": "Rock",
                  "sortModifier": "All",
                  "maxValue": 3.4028234663852886e38
                }
              ]
            }
          ]
        }
      },
      "onAdded": [
        {
          "$type": "ApplyModifier",
          "modifierName": "RockConsuming_Monitor"
        }
      ]
    }
  },
  {
    "Default": {
      "$type": "ConfigAbility",
      "abilityName": "Fungus_Deux_BVB_Rock_TeamShield",
      "abilitySpecials": {
        "sub_hurt_delta_positive": 0.4000000059604645
      },
      "modifiers": {
        "Shield_Handler": {
          "modifierName": "",
          "duration": 0.10000000149011612,
          "elementDurability": 100.0,
          "onAdded": [
            {
              "$type": "RemoveModifier",
              "modifierName": "Fungus_Rock_TeamShield"
            },
            {
              "$type": "ApplyModifier",
              "modifierName": "Fungus_Rock_TeamShield"
            }
          ]
        },
        "Fungus_Rock_TeamShield": {
          "modifierName": "",
          "duration": 10.0,
          "elementDurability": 100.0,
          "modifierMixins": [
            {
              "$type": "EliteShieldMixin",
              "shieldType": "default",
              "DLBHHADKGJN": 360.0,
              "maxShieldByHPRatio": 0.699999988079071,
              "costShieldRatioName": "",
              "showDamageText": ""
            }
          ],
          "properties": {
            "Actor_EndureDelta": 0.30000001192092896
          },
          "onAdded": [
            {
              "$type": "FireEffect",
              "rotationDampTime": "Eff_Monster_Fungus_Deux_Rock_TeamShield_Buff",
              "PPPDJGDDOGD": 1.0,
              "AJDILHJFNKE": -1.0
            }
          ]
        },
        "Passive_Resistance": {
          "modifierName": "",
          "elementDurability": 100.0,
          "properties": {
            "Actor_PhysicalSubHurtDelta": "sub_hurt_delta_positive",
            "Actor_FireSubHurtDelta": "sub_hurt_delta_positive",
            "Actor_ElecSubHurtDelta": "sub_hurt_delta_positive",
            "Actor_IceSubHurtDelta": "sub_hurt_delta_positive",
            "Actor_WaterSubHurtDelta": "sub_hurt_delta_positive",
            "Actor_GrassSubHurtDelta": "sub_hurt_delta_positive",
            "Actor_WindSubHurtDelta": "sub_hurt_delta_positive",
            "Actor_RockSubHurtDelta": "sub_hurt_delta_positive"
          }
        }
      },
      "onAdded": [
        {
          "$type": "ApplyModifier",
          "modifierName": "Passive_Resistance"
        }
      ],
      "onAbilityStart": [
        {
          "$type": "ApplyModifier",
          "otherTargets": {
            "$type": "SelectTargetsByShape",
            "shapeName": "CircleR30H10",
            "campTargetType": "SelfCamp",
            "doOffStage": 1.0
          },
          "predicates": [
            {
              "$type": "ByEntityTypes",
              "entityTypes": ["Partner", "Monster"]
            }
          ],
          "modifierName": "Shield_Handler"
        },
        {
          "$type": "FireEffect",
          "rotationDampTime": "Eff_Monster_Fungus_Deux_Rock_TeamShield",
          "PPPDJGDDOGD": 1.0,
          "AJDILHJFNKE": -1.0
        }
      ]
    }
  },
  {
    "Default": {
      "$type": "ConfigAbility",
      "abilityName": "Fungus_Deux_BVB_Rock_Passive",
      "abilityMixins": [
        {
          "$type": "APJKOLPHCGH",
          "stateIDs": ["UnionBurst"],
          "enterActions": [
            {
              "$type": "SetAnimatorTrigger",
              "triggerID": "UBShader"
            }
          ],
          "DGFCLAIDIFI": ""
        }
      ],
      "onAdded": [
        {
          "$type": "SetGlobalValue",
          "value": 0.0,
          "key": "_BURST_HIT_STACK",
          "maxValue": 0.0,
          "minValue": 0.0
        }
      ],
      "onAbilityStart": [
        {
          "$type": "AddGlobalValue",
          "value": 1.0,
          "key": "_BURST_HIT_STACK",
          "useLimitRange": true,
          "maxValue": 4.0,
          "minValue": 0.0
        }
      ]
    }
  },
  {
    "Default": {
      "$type": "ConfigAbility",
      "abilityName": "Fungus_Deux_BVB_Rock_EarthQuake",
      "abilitySpecials": {
        "base_ratio": 10.0,
        "stack_ratio": 2.0,
        "stack_count": 0.0
      },
      "onAbilityStart": [
        {
          "$type": "SetGlobalValueToOverrideMap",
          "globalValueKey": "_BURST_HIT_STACK",
          "overrideMapKey": "stack_count"
        },
        {
          "$type": "TriggerAttackEvent",
          "attackEvent": {
            "attackPattern": {
              "$type": "ConfigAttackCircle",
              "triggerType": "TriggerNoRepeat",
              "height": 1.399999976158142,
              "radius": 6.0
            },
            "attackInfo": {
              "attackTag": "",
              "attenuationTag": "",
              "attenuationGroup": "default",
              "attackProperty": {
                "actorGrassSubHurtDelta": [
                  "stack_ratio",
                  "stack_count",
                  "MUL",
                  "base_ratio",
                  "ADD"
                ],
                "actorWindSubHurtDelta": 0.0,
                "elementDurability": 100.0,
                "strikeType": "Blunt",
                "enBreak": 300.0,
                "GLKMCMDJBIK": 0.0
              },
              "hitPattern": {
                "onHitEffectName": "default",
                "hitImpulseY": "",
                "hitImpulseType": "",
                "overrideHitImpulse": {
                  "hitLevel": "Air",
                  "IMIJMPGJOGG": 0.0,
                  "BPCDKKBKOBM": 1360.0
                }
              },
              "forceCameraShake": true,
              "cameraShake": {
                "shakeType": "CustomVector",
                "shakeRange": 0.4000000059604645,
                "shakeTime": 0.11999999731779099,
                "shakeDir": {
                  "y": 1.0
                },
                "extension": {
                  "baseOnCamera": true,
                  "baseCycle": 0.07999999821186066,
                  "cycleDamping": 0.30000001192092896
                }
              }
            }
          },
          "targetType": "Enemy"
        },
        {
          "$type": "SetGlobalValue",
          "value": 0.0,
          "key": "_BURST_HIT_STACK",
          "maxValue": 0.0,
          "minValue": 0.0
        }
      ]
    }
  }
]
