[
  {
    "Default": {
      "$type": "ConfigAbility",
      "abilityName": "Monster_Hound_Riftstalker_RunState",
      "modifiers": {
        "Run_RandomValue": {
          "modifierName": "",
          "duration": 0.20000000298023224,
          "elementDurability": 100.0,
          "onAdded": [
            {
              "$type": "Randomed",
              "chance": 0.30000001192092896,
              "successActions": [
                {
                  "$type": "SetAnimatorTrigger",
                  "triggerID": "RunRandom"
                }
              ]
            }
          ]
        }
      },
      "onAbilityStart": [
        {
          "$type": "ApplyModifier",
          "modifierName": "Run_RandomValue"
        }
      ]
    }
  },
  {
    "Default": {
      "$type": "ConfigAbility",
      "abilityName": "Monster_Hound_Corruption_LoseHP",
      "modifiers": {
        "Hound_Corruption_LoseHP_AttackCheck": {
          "modifierName": "",
          "elementDurability": 100.0,
          "onAttackLanded": [
            {
              "$type": "Predicated",
              "target": "Target",
              "targetPredicates": [
                {
                  "$type": "ByEntityTypes",
                  "entityTypes": ["Avatar"]
                },
                {
                  "$type": "ByAttackTags",
                  "attackTags": ["Hound_Corruption_Tag"]
                }
              ],
              "successActions": [
                {
                  "$type": "ApplyModifier",
                  "target": "TargetTeam",
                  "predicates": [
                    {
                      "$type": "ByNot",
                      "predicates": [
                        {
                          "$type": "GEODPIOLLCI"
                        }
                      ]
                    }
                  ],
                  "modifierName": "Hound_Corruption_LoseHP_Logic"
                },
                {
                  "$type": "ApplyModifier",
                  "target": "TargetTeam",
                  "predicates": [
                    {
                      "$type": "ByNot",
                      "predicates": [
                        {
                          "$type": "GEODPIOLLCI"
                        }
                      ]
                    }
                  ],
                  "modifierName": "UNIQUE_Hound_Corruption_LoseHP_Effect_LocalHandler"
                }
              ]
            }
          ]
        },
        "Hound_Corruption_LoseHP_Logic": {
          "timeScale": "Level",
          "stacking": "Multiple",
          "modifierName": "",
          "duration": 9.5,
          "elementDurability": 100.0,
          "thinkInterval": 1.0,
          "state": "UnlockFrequencyLimit",
          "onAdded": [
            {
              "$type": "LoseHP",
              "target": "CurTeamAvatars",
              "shieldHP": true,
              "predicates": [
                {
                  "$type": "ByNot",
                  "predicates": [
                    {
                      "$type": "ByIsLocalAvatar"
                    }
                  ]
                },
                {
                  "$type": "ByTargetHPRatio",
                  "ratio": 0.15000000596046448
                },
                {
                  "$type": "INGPMALFKLK"
                }
              ],
              "amount": 0.0,
              "CKDBFHCIJEK": 0.004999999888241291,
              "lethal": false,
              "enableInvincible": true,
              "enableLockHP": true,
              "disableWhenLoading": true,
              "useMeta": true,
              "BJKGFBGEFPB": ""
            },
            {
              "$type": "LoseHP",
              "target": "CurTeamAvatars",
              "shieldHP": true,
              "predicates": [
                {
                  "$type": "ByIsLocalAvatar"
                },
                {
                  "$type": "INGPMALFKLK"
                }
              ],
              "amount": 0.0,
              "CKDBFHCIJEK": 0.004999999888241291,
              "enableInvincible": true,
              "enableLockHP": true,
              "disableWhenLoading": true,
              "useMeta": true,
              "BJKGFBGEFPB": ""
            }
          ],
          "onThinkInterval": [
            {
              "$type": "LoseHP",
              "target": "CurTeamAvatars",
              "shieldHP": true,
              "predicates": [
                {
                  "$type": "ByNot",
                  "predicates": [
                    {
                      "$type": "ByIsLocalAvatar"
                    }
                  ]
                },
                {
                  "$type": "ByTargetHPRatio",
                  "ratio": 0.15000000596046448
                },
                {
                  "$type": "INGPMALFKLK"
                }
              ],
              "amount": 0.0,
              "CKDBFHCIJEK": 0.004999999888241291,
              "lethal": false,
              "enableInvincible": true,
              "enableLockHP": true,
              "disableWhenLoading": true,
              "useMeta": true,
              "BJKGFBGEFPB": ""
            },
            {
              "$type": "LoseHP",
              "target": "CurTeamAvatars",
              "shieldHP": true,
              "predicates": [
                {
                  "$type": "ByIsLocalAvatar"
                },
                {
                  "$type": "INGPMALFKLK"
                }
              ],
              "amount": 0.0,
              "CKDBFHCIJEK": 0.004999999888241291,
              "enableInvincible": true,
              "enableLockHP": true,
              "disableWhenLoading": true,
              "useMeta": true,
              "BJKGFBGEFPB": ""
            }
          ],
          "onThinkIntervalIsFixedUpdate": true,
          "modifierTags": ["Corruption"]
        },
        "UNIQUE_Hound_Corruption_LoseHP_Effect_LocalHandler": {
          "stacking": "RefreshUniqueDurability",
          "modifierName": "",
          "forceTriggerWhenChangeAuthority": true,
          "duration": 9.5,
          "elementDurability": 100.0,
          "modifierMixins": [
            {
              "$type": "CurLocalAvatarMixinV2",
              "modifierName": "Hound_Corruption_LoseHP_Effect"
            },
            {
              "$type": "EEPKCGMKKJC",
              "modifierName": "Hound_Corruption_LoseHP_Icon"
            }
          ],
          "modifierTags": ["Corruption"]
        },
        "Hound_Corruption_LoseHP_Effect": {
          "modifierName": "",
          "elementDurability": 100.0,
          "onAdded": [
            {
              "$type": "AttachEffect",
              "rotationDampTime": "Eff_Monster_Common_Corruption_LoseHP",
              "PPPDJGDDOGD": 1.0,
              "AJDILHJFNKE": -1.0
            },
            {
              "$type": "SendEffectTrigger",
              "parameter": "Stage",
              "attachPoint": "",
              "damageRatio": "Int",
              "value": 2,
              "rotationDampTime": "Eff_Monster_Common_Corruption_LoseHP"
            }
          ]
        },
        "Hound_Corruption_LoseHP_Icon": {
          "modifierName": "",
          "elementDurability": 100.0,
          "buffID": 90005
        }
      },
      "onAdded": [
        {
          "$type": "ApplyModifier",
          "modifierName": "Hound_Corruption_LoseHP_AttackCheck"
        }
      ]
    }
  },
  {
    "Default": {
      "$type": "ConfigAbility",
      "abilityName": "Monster_Hound_Riftstalker_ExitBattle",
      "abilityMixins": [
        {
          "$type": "AOKOIIHJJPJ",
          "alertness": [0],
          "modifierName": "ExitBattle"
        }
      ],
      "modifiers": {
        "ExitBattle": {
          "modifierName": "",
          "elementDurability": 100.0,
          "onAdded": [
            {
              "$type": "SetGlobalValue",
              "value": 0.0,
              "key": "_Riftstalker_POSE_TAG_",
              "maxValue": 0.0,
              "minValue": 0.0
            },
            {
              "$type": "FEJJABGNGHA",
              "value": 0.0
            }
          ]
        }
      }
    }
  }
]
