[
  {
    "Default": {
      "$type": "ConfigAbility",
      "abilityName": "Invoker_Herald_Ice_AnimatorSteer",
      "abilityMixins": [
        {
          "$type": "IILHMBGONGM",
          "steerStateIDs": ["RushAttack_BS_1", "RushAttack_BS_2"],
          "endNormalizedTime": 0.7200000286102295,
          "angularSpeed": 150.0,
          "attackTrigger": "",
          "DGFCLAIDIFI": ""
        },
        {
          "$type": "IILHMBGONGM",
          "steerStateIDs": ["RushAttack_BS_2"],
          "startNormalizedTime": 0.7300000190734863,
          "angularSpeed": 150.0,
          "attackTrigger": "RushAttackTrigger",
          "attackDistance": 4.5,
          "DGFCLAIDIFI": ""
        },
        {
          "$type": "IILHMBGONGM",
          "steerStateIDs": ["RushAttack"],
          "endNormalizedTime": 0.1379999965429306,
          "angularSpeed": 90.0,
          "attackTrigger": "",
          "DGFCLAIDIFI": ""
        },
        {
          "$type": "IILHMBGONGM",
          "steerStateIDs": ["RushAttack_Improved"],
          "endNormalizedTime": 0.7799999713897705,
          "angularSpeed": 480.0,
          "attackTrigger": "",
          "DGFCLAIDIFI": ""
        },
        {
          "$type": "IILHMBGONGM",
          "steerStateIDs": ["ComboAttack_BS"],
          "startNormalizedTime": 0.36800000071525574,
          "endNormalizedTime": 0.4189999997615814,
          "angularSpeed": 480.0,
          "attackTrigger": "",
          "DGFCLAIDIFI": ""
        },
        {
          "$type": "IILHMBGONGM",
          "steerStateIDs": ["ComboAttack_BS"],
          "startNormalizedTime": 0.765999972820282,
          "endNormalizedTime": 0.8999999761581421,
          "angularSpeed": 480.0,
          "attackTrigger": "",
          "DGFCLAIDIFI": ""
        },
        {
          "$type": "IILHMBGONGM",
          "steerStateIDs": ["ComboAttack_01"],
          "endNormalizedTime": 0.25999999046325684,
          "angularSpeed": 240.0,
          "attackTrigger": "",
          "DGFCLAIDIFI": ""
        },
        {
          "$type": "IILHMBGONGM",
          "steerStateIDs": ["ComboAttack_BS_To_02"],
          "angularSpeed": 120.0,
          "attackTrigger": "",
          "DGFCLAIDIFI": ""
        },
        {
          "$type": "IILHMBGONGM",
          "steerStateIDs": ["ComboAttack_03"],
          "endNormalizedTime": 0.2329999953508377,
          "angularSpeed": 270.0,
          "attackTrigger": "",
          "DGFCLAIDIFI": ""
        },
        {
          "$type": "IILHMBGONGM",
          "steerStateIDs": ["ComboAttack_02_To_04"],
          "angularSpeed": 300.0,
          "attackTrigger": "",
          "DGFCLAIDIFI": ""
        },
        {
          "$type": "IILHMBGONGM",
          "steerStateIDs": ["ComboAttack_04"],
          "endNormalizedTime": 0.10000000149011612,
          "angularSpeed": 300.0,
          "attackTrigger": "",
          "DGFCLAIDIFI": ""
        },
        {
          "$type": "IILHMBGONGM",
          "steerStateIDs": ["ComboAttack_04"],
          "startNormalizedTime": 0.3449999988079071,
          "endNormalizedTime": 0.40299999713897705,
          "angularSpeed": 320.0,
          "attackTrigger": "",
          "DGFCLAIDIFI": ""
        },
        {
          "$type": "IILHMBGONGM",
          "steerStateIDs": ["ConeOfCold"],
          "startNormalizedTime": 0.6150000095367432,
          "endNormalizedTime": 0.6779999732971191,
          "angularSpeed": 700.0,
          "attackTrigger": "",
          "DGFCLAIDIFI": ""
        },
        {
          "$type": "IILHMBGONGM",
          "steerStateIDs": ["ConeOfCold"],
          "startNormalizedTime": 0.8510000109672546,
          "endNormalizedTime": 0.9900000095367432,
          "angularSpeed": 480.0,
          "attackTrigger": "",
          "DGFCLAIDIFI": ""
        },
        {
          "$type": "IILHMBGONGM",
          "steerStateIDs": ["ConeOfCold_Improved_BS"],
          "startNormalizedTime": 0.35100001096725464,
          "endNormalizedTime": 0.9900000095367432,
          "angularSpeed": 240.0,
          "attackTrigger": "",
          "DGFCLAIDIFI": ""
        },
        {
          "$type": "IILHMBGONGM",
          "steerStateIDs": ["ConeOfCold_Improved_01"],
          "angularSpeed": 240.0,
          "attackTrigger": "",
          "DGFCLAIDIFI": ""
        },
        {
          "$type": "IILHMBGONGM",
          "steerStateIDs": ["ConeOfCold_Improved_02"],
          "endNormalizedTime": 0.3199999928474426,
          "angularSpeed": 240.0,
          "attackTrigger": "",
          "DGFCLAIDIFI": ""
        },
        {
          "$type": "IILHMBGONGM",
          "steerStateIDs": ["StepBack", "StepForward"],
          "angularSpeed": 240.0,
          "attackTrigger": "",
          "DGFCLAIDIFI": ""
        },
        {
          "$type": "IILHMBGONGM",
          "steerStateIDs": ["FastStepBack"],
          "angularSpeed": 480.0,
          "attackTrigger": "",
          "DGFCLAIDIFI": ""
        },
        {
          "$type": "IILHMBGONGM",
          "steerStateIDs": ["BreakingSlash"],
          "startNormalizedTime": 0.4090000092983246,
          "endNormalizedTime": 0.45100000500679016,
          "angularSpeed": 650.0,
          "attackTrigger": "",
          "DGFCLAIDIFI": ""
        }
      ]
    }
  },
  {
    "Default": {
      "$type": "ConfigAbility",
      "abilityName": "Invoker_Herald_Ice_IceBlade_Manager",
      "abilityMixins": [
        {
          "$type": "AttachModifierToSelfGlobalValueMixin",
          "globalValueKey": "_ICE_BLADE_STATE_",
          "gvInTalk": 1.0,
          "valueSteps": [0.5, 1.5, 2.5, 3.5],
          "modifierNameSteps": [
            "VFX_NoIceBlade",
            "VFX_IceBlade",
            "VFX_EnchantIceBlade"
          ]
        },
        {
          "$type": "AttachToAnimatorStateIDMixin",
          "stateIDs": [
            "RushAttack_BS_2",
            "RushAttack",
            "RushAttack_Improved",
            "Improved",
            "ComboAttack_BS_2",
            "ComboAttack_01",
            "ComboAttack_BS_To_02",
            "ComboAttack_01_To_02",
            "ComboAttack_02",
            "ComboAttack_03",
            "ComboAttack_02_To_04",
            "ComboAttack_04",
            "ConeOfCold",
            "ConeOfCold_Improved_BS_2",
            "ConeOfCold_Improved_01_AS",
            "BreakingSlash",
            "BreakingSlash_Improved"
          ],
          "modifierName": "Herald_Ice_IceBlade_Manager",
          "DGFCLAIDIFI": ""
        }
      ],
      "modifiers": {
        "Herald_Ice_IceBlade_Manager": {
          "modifierName": "",
          "elementDurability": 100.0,
          "onAdded": [
            {
              "$type": "Predicated",
              "targetPredicates": [
                {
                  "$type": "BHFFBBOLCCP",
                  "modifierName": "EnchantIceBlade_Manager"
                }
              ],
              "successActions": [
                {
                  "$type": "SetGlobalValue",
                  "value": 3.0,
                  "key": "_ICE_BLADE_STATE_",
                  "maxValue": 0.0,
                  "minValue": 0.0
                }
              ],
              "failActions": [
                {
                  "$type": "SetGlobalValue",
                  "value": 2.0,
                  "key": "_ICE_BLADE_STATE_",
                  "maxValue": 0.0,
                  "minValue": 0.0
                }
              ]
            }
          ],
          "onRemoved": [
            {
              "$type": "SetGlobalValue",
              "value": 1.0,
              "key": "_ICE_BLADE_STATE_",
              "maxValue": 0.0,
              "minValue": 0.0
            }
          ]
        },
        "VFX_NoIceBlade": {
          "modifierName": "",
          "elementDurability": 100.0
        },
        "VFX_IceBlade": {
          "modifierName": "",
          "elementDurability": 100.0,
          "onAdded": [
            {
              "$type": "AttachEffect",
              "rotationDampTime": "Eff_Monster_Invoker_Herald_Ice_WeaponR",
              "PPPDJGDDOGD": 1.0,
              "AJDILHJFNKE": -1.0
            }
          ],
          "onRemoved": [
            {
              "$type": "FireEffect",
              "rotationDampTime": "Eff_Monster_Invoker_Herald_Ice_WeaponR_Disappear",
              "PPPDJGDDOGD": 1.0,
              "AJDILHJFNKE": -1.0
            }
          ]
        },
        "VFX_EnchantIceBlade": {
          "modifierName": "",
          "elementDurability": 100.0,
          "onAdded": [
            {
              "$type": "AttachEffect",
              "rotationDampTime": "Eff_Monster_Invoker_Herald_Ice_WeaponR_Enchant",
              "PPPDJGDDOGD": 1.0,
              "AJDILHJFNKE": -1.0
            }
          ],
          "onRemoved": [
            {
              "$type": "FireEffect",
              "rotationDampTime": "Eff_Monster_Invoker_Herald_Ice_WeaponR_Disappear_Enchant",
              "PPPDJGDDOGD": 1.0,
              "AJDILHJFNKE": -1.0
            }
          ]
        }
      }
    }
  },
  {
    "Default": {
      "$type": "ConfigAbility",
      "abilityName": "Invoker_Herald_Ice_EnchantIceBlade_Manager",
      "abilityMixins": [
        {
          "$type": "APJKOLPHCGH",
          "stateIDs": ["NormalIdle", "NormalMove", "Improved"],
          "enterActions": [
            {
              "$type": "RemoveModifier",
              "modifierName": "EnchantIceBlade_Manager"
            }
          ],
          "DGFCLAIDIFI": ""
        },
        {
          "$type": "AttachToStateIDMixin",
          "stateIDs": [
            "ConeOfCold",
            "ConeOfCold_AS",
            "ConeOfCold_Improved_BS",
            "ConeOfCold_Improved_01",
            "ConeOfCold_Improved_02"
          ],
          "modifierName": "EnchantIceBlade_Manager",
          "DGFCLAIDIFI": ""
        },
        {
          "$type": "APJKOLPHCGH",
          "stateIDs": ["ConeOfCold"],
          "exitActions": [
            {
              "$type": "AddGlobalValue",
              "value": -0.6100000143051147,
              "key": "_ABYSS_ICE_ENCHANT_PROBABILITY_",
              "useLimitRange": true,
              "maxValue": 1.0,
              "minValue": 0.0
            }
          ],
          "DGFCLAIDIFI": ""
        },
        {
          "$type": "APJKOLPHCGH",
          "stateIDs": ["ConeOfCold_Improved_BS"],
          "exitActions": [
            {
              "$type": "DOANGHCALGB",
              "skillIDs": [501]
            },
            {
              "$type": "AddGlobalValue",
              "value": -1.0,
              "key": "_ABYSS_ICE_ENCHANT_PROBABILITY_",
              "useLimitRange": true,
              "maxValue": 1.0,
              "minValue": 0.0
            }
          ],
          "DGFCLAIDIFI": ""
        }
      ],
      "abilitySpecials": {
        "_abyss_ice_enchant_probability_": 0.0
      },
      "modifiers": {
        "EnchantIceBlade_Manager": {
          "modifierName": "",
          "elementDurability": 100.0,
          "modifierMixins": [
            {
              "$type": "ReplaceEventPatternMixin",
              "oldPatterns": [
                "Monster_Invoker_Herald_Ice_RushAttack_Blade",
                "Monster_Invoker_Herald_Ice_RushAttack_Attack",
                "Monster_Invoker_Herald_Ice_RushAttack_Improved_Attack",
                "Monster_Invoker_Herald_Ice_ComboAttack_Blade",
                "Monster_Invoker_Herald_Ice_ComboAttack_01_Attack",
                "Monster_Invoker_Herald_Ice_ComboAttack_02_Attack",
                "Monster_Invoker_Herald_Ice_ComboAttack_03_Attack",
                "Monster_Invoker_Herald_Ice_ComboAttack_04_Attack",
                "Monster_Invoker_Herald_Ice_BreakingSlash_Blade",
                "Monster_Invoker_Herald_Ice_BreakingSlash_01",
                "Monster_Invoker_Herald_Ice_BreakingSlash_Improved_01",
                "Monster_Invoker_Herald_Ice_BreakingSlash_BS",
                "Monster_Invoker_Herald_Ice_BreakingSlash_Improved_BS",
                "Monster_Invoker_Herald_Ice_RushAttack_Improved_Jump"
              ],
              "newPatterns": [
                "Monster_Invoker_Herald_Ice_RushAttack_Blade_Enchant",
                "Monster_Invoker_Herald_Ice_RushAttack_Attack_Enchant",
                "Monster_Invoker_Herald_Ice_RushAttack_Improved_Attack_Enchant",
                "Monster_Invoker_Herald_Ice_ComboAttack_Blade_Enchant",
                "Monster_Invoker_Herald_Ice_ComboAttack_01_Attack_Enchant",
                "Monster_Invoker_Herald_Ice_ComboAttack_02_Attack_Enchant",
                "Monster_Invoker_Herald_Ice_ComboAttack_03_Attack_Enchant",
                "Monster_Invoker_Herald_Ice_ComboAttack_04_Attack_Enchant",
                "Monster_Invoker_Herald_Ice_BreakingSlash_Blade_Enchant",
                "Monster_Invoker_Herald_Ice_BreakingSlash_01_Enchant",
                "Monster_Invoker_Herald_Ice_BreakingSlash_Improved_01_Enchant",
                "Monster_Invoker_Herald_Ice_BreakingSlash_BS_Enchant",
                "Monster_Invoker_Herald_Ice_BreakingSlash_Improved_BS_Enchant",
                "Monster_Invoker_Herald_Ice_RushAttack_Improved_Jump_Enchant"
              ]
            }
          ]
        },
        "EnchantIceBlade_Debuff_Monitor": {
          "modifierName": "",
          "elementDurability": 100.0,
          "onAttackLanded": [
            {
              "$type": "Predicated",
              "target": "Target",
              "targetPredicates": [
                {
                  "$type": "ByAttackTags",
                  "attackTags": ["EnchantIceBlade"]
                },
                {
                  "$type": "ByEntityTypes",
                  "entityTypes": ["Avatar"]
                },
                {
                  "$type": "ByHitDamage",
                  "damage": 0.0
                }
              ],
              "successActions": [
                {
                  "$type": "Predicated",
                  "target": "Target",
                  "targetPredicates": [
                    {
                      "$type": "BHFFBBOLCCP",
                      "target": "TargetTeam",
                      "modifierName": "AbyssIceDebuff_Mark"
                    }
                  ],
                  "successActions": [
                    {
                      "$type": "LPFKEGDKCLP",
                      "target": "Target",
                      "value": 20.0
                    }
                  ],
                  "failActions": [
                    {
                      "$type": "LPFKEGDKCLP",
                      "target": "Target",
                      "value": 50.0
                    }
                  ]
                },
                {
                  "$type": "ApplyModifier",
                  "target": "TargetTeam",
                  "modifierName": "AbyssIceDebuff_Mark"
                },
                {
                  "$type": "EACEDAKOMMM",
                  "rotationDampTime": "Eff_UI_Debuff_DeductStamina_Invoker_Ice",
                  "effectSlot": "StaminaBar",
                  "effectPattern": ""
                }
              ]
            }
          ]
        },
        "AbyssIceDebuff_Mark": {
          "modifierName": "",
          "duration": 3.0,
          "elementDurability": 100.0,
          "onAdded": [
            {
              "$type": "FireEffect",
              "target": "CurLocalAvatar",
              "rotationDampTime": "Eff_Monster_Invoker_Debuff_Hit_Ice",
              "PPPDJGDDOGD": 1.0,
              "AJDILHJFNKE": -1.0
            }
          ]
        }
      },
      "onAdded": [
        {
          "$type": "ApplyModifier",
          "modifierName": "EnchantIceBlade_Debuff_Monitor"
        },
        {
          "$type": "SetGlobalValue",
          "value": 0.0,
          "key": "_ABYSS_ICE_ENCHANT_PROBABILITY_",
          "maxValue": 0.0,
          "minValue": 0.0
        }
      ],
      "onAbilityStart": [
        {
          "$type": "SetGlobalValueToOverrideMap",
          "globalValueKey": "_ABYSS_ICE_ENCHANT_PROBABILITY_",
          "overrideMapKey": "_abyss_ice_enchant_probability_"
        },
        {
          "$type": "Randomed",
          "chance": "_abyss_ice_enchant_probability_",
          "successActions": [
            {
              "$type": "ApplyModifier",
              "modifierName": "EnchantIceBlade_Manager"
            },
            {
              "$type": "SetGlobalValue",
              "value": 0.0,
              "key": "_ABYSS_ICE_ENCHANT_PROBABILITY_",
              "maxValue": 0.0,
              "minValue": 0.0
            }
          ],
          "failActions": [
            {
              "$type": "Predicated",
              "targetPredicates": [
                {
                  "$type": "BHFFBBOLCCP",
                  "modifierName": "Invoker_Ice_ElementShield"
                }
              ],
              "successActions": [
                {
                  "$type": "AddGlobalValue",
                  "value": 0.27000001072883606,
                  "key": "_ABYSS_ICE_ENCHANT_PROBABILITY_",
                  "useLimitRange": true,
                  "maxValue": 1.0,
                  "minValue": 0.0
                }
              ],
              "failActions": [
                {
                  "$type": "AddGlobalValue",
                  "value": 0.20000000298023224,
                  "key": "_ABYSS_ICE_ENCHANT_PROBABILITY_",
                  "useLimitRange": true,
                  "maxValue": 1.0,
                  "minValue": 0.0
                }
              ]
            }
          ]
        }
      ]
    }
  },
  {
    "Default": {
      "$type": "ConfigAbility",
      "abilityName": "Invoker_Herald_Ice_ElementState_Manager",
      "abilityMixins": [
        {
          "$type": "LAPMOOFOPBM",
          "valueSteps": [0.20000000298023224],
          "modifierNameSteps": ["HP_Dummy", "HP_Panic"]
        },
        {
          "$type": "LEOGLBFIELL",
          "poseIDs": [901, 902, 903],
          "modifierName": "ReturnToBorn_Protect"
        },
        {
          "$type": "EAKJOFAIAPH",
          "poseIDs": [101],
          "enterActions": [
            {
              "$type": "SetGlobalValue",
              "value": 0.0,
              "key": "_DIE_ON_ELEMENT_SHIELD_REMOVE_",
              "maxValue": 0.0,
              "minValue": 0.0
            },
            {
              "$type": "RemoveModifier",
              "modifierName": "Invoker_Ice_ElementShield"
            }
          ]
        },
        {
          "$type": "LEOGLBFIELL",
          "poseIDs": [902, 903],
          "modifierName": "ReturnToBorn_Blink_Logic"
        },
        {
          "$type": "AttachModifierToSelfGlobalValueMixin",
          "globalValueKey": "_HIDE_MODEL_",
          "gvInTalk": 0.0,
          "valueSteps": [-0.5, 0.5, 1.5],
          "modifierNameSteps": ["Invoker_Show_Model", "Invoker_Blink_Disappear"]
        }
      ],
      "abilitySpecials": {
        "ElementShield_BaseDurability": 1400.0,
        "ElementShield_DurabilityImprove": 0.0,
        "Stage502_Ratio": 0.4000000059604645
      },
      "modifiers": {
        "ReturnToBorn_Protect": {
          "modifierName": "",
          "elementDurability": 100.0,
          "state": "LockHP",
          "onAdded": [
            {
              "$type": "SetGlobalValue",
              "value": 0.0,
              "key": "_DIE_ON_ELEMENT_SHIELD_REMOVE_",
              "maxValue": 0.0,
              "minValue": 0.0
            },
            {
              "$type": "RemoveModifier",
              "modifierName": "Invoker_Ice_ElementShield"
            },
            {
              "$type": "SetAnimatorTrigger",
              "triggerID": "BlinkToBorn"
            },
            {
              "$type": "SetGlobalValue",
              "value": 0.0,
              "key": "_ABYSS_ICE_ENCHANT_PROBABILITY_",
              "maxValue": 0.0,
              "minValue": 0.0
            }
          ]
        },
        "Invoker_Ice_Limbo": {
          "modifierName": "",
          "elementDurability": 100.0,
          "properties": {
            "Actor_HpThresholdRatio": 0.15000000596046448
          },
          "state": "Limbo"
        },
        "Invoker_Ice_LockHP": {
          "modifierName": "",
          "elementDurability": 100.0,
          "state": "LockHP"
        },
        "Invoker_Ice_NoHeal": {
          "modifierName": "",
          "elementDurability": 100.0,
          "state": "NoHeal"
        },
        "HP_Dummy": {
          "modifierName": "",
          "elementDurability": 100.0,
          "onAdded": [
            {
              "$type": "IDNGFEEBPAM",
              "boolID": "Panic"
            }
          ]
        },
        "HP_Panic": {
          "modifierName": "",
          "elementDurability": 100.0,
          "onAdded": [
            {
              "$type": "IDNGFEEBPAM",
              "boolID": "Panic",
              "value": true
            },
            {
              "$type": "SetAnimatorTrigger",
              "triggerID": "Improve"
            },
            {
              "$type": "ClearEndura"
            }
          ]
        },
        "Invoker_Ice_ElementShield": {
          "stacking": "Unique",
          "modifierName": "",
          "elementType": "Frozen",
          "elementDurability": [
            "ElementShield_BaseDurability",
            "ElementShield_DurabilityImprove",
            "MUL",
            "ElementShield_BaseDurability",
            "ADD"
          ],
          "modifierMixins": [
            {
              "$type": "AAPIOACHKCI",
              "elementType": "Frozen",
              "showDamageText": "",
              "DLBHHADKGJN": 360.0,
              "maxShieldByHPRatio": 1.0,
              "shieldAngle": 0.20000000298023224,
              "useMutiPlayerFixData": true
            },
            {
              "$type": "CIBMLJJLANN",
              "excludeForces": ["WindZoneType"]
            },
            {
              "$type": "AttachModifierToElementDurabilityMixin",
              "valueSteps": [
                0.5,
                [
                  "ElementShield_BaseDurability",
                  "ElementShield_DurabilityImprove",
                  "MUL",
                  "Stage502_Ratio",
                  "MUL",
                  "ElementShield_BaseDurability",
                  "Stage502_Ratio",
                  "MUL",
                  "ADD"
                ],
                [
                  "ElementShield_BaseDurability",
                  "ElementShield_DurabilityImprove",
                  "MUL",
                  "ElementShield_BaseDurability",
                  "ADD",
                  1.0,
                  "ADD"
                ]
              ],
              "modifierNameSteps": ["Raging", "Dummy_NoRaging"]
            }
          ],
          "properties": {
            "Actor_EndureDelta": 0.0
          },
          "onAdded": [
            {
              "$type": "IDNGFEEBPAM",
              "boolID": "Improved",
              "value": true
            },
            {
              "$type": "AttachModifier",
              "modifierName": "Invoker_Ice_LockHP"
            },
            {
              "$type": "AttachModifier",
              "modifierName": "Invoker_Ice_NoHeal"
            },
            {
              "$type": "AttachAbilityStateResistance",
              "resistanceBuffDebuffs": ["Struggle", "ElementFreeze"]
            },
            {
              "$type": "SetGlobalValue",
              "value": 1.0,
              "key": "_DIE_ON_ELEMENT_SHIELD_REMOVE_",
              "maxValue": 0.0,
              "minValue": 0.0
            }
          ],
          "onRemoved": [
            {
              "$type": "KillSelf",
              "predicates": [
                {
                  "$type": "ByTargetGlobalValue",
                  "target": "Self",
                  "key": "_DIE_ON_ELEMENT_SHIELD_REMOVE_",
                  "value": 1.0
                }
              ]
            },
            {
              "$type": "IDNGFEEBPAM",
              "boolID": "Improved"
            }
          ]
        },
        "Raging": {
          "modifierName": "",
          "elementDurability": 100.0,
          "onAdded": [
            {
              "$type": "IDNGFEEBPAM",
              "boolID": "Raging",
              "value": true
            }
          ]
        },
        "Dummy_NoRaging": {
          "modifierName": "",
          "elementDurability": 100.0,
          "onAdded": [
            {
              "$type": "IDNGFEEBPAM",
              "boolID": "Raging"
            }
          ]
        },
        "ReturnToBorn_Blink_Logic": {
          "modifierName": "",
          "elementDurability": 100.0,
          "modifierMixins": [
            {
              "$type": "AttachActionToModifierMixin",
              "onAdded": [
                {
                  "$type": "HBNEMPLJCMB",
                  "hide": true
                },
                {
                  "$type": "EnableHitBoxByName",
                  "hitBoxNames": ["HitBox", "HeadBox"]
                },
                {
                  "$type": "EnablePushColliderName",
                  "pushColliderNames": ["PushCollider"]
                }
              ],
              "onRemoved": [
                {
                  "$type": "HBNEMPLJCMB"
                },
                {
                  "$type": "EnableHitBoxByName",
                  "hitBoxNames": ["HitBox", "HeadBox"],
                  "setEnable": true
                },
                {
                  "$type": "EnablePushColliderName",
                  "pushColliderNames": ["PushCollider"],
                  "setEnable": true
                }
              ]
            }
          ],
          "onAdded": [
            {
              "$type": "FireEffect",
              "rotationDampTime": "Eff_Monster_Invoker_BornHigh",
              "PPPDJGDDOGD": 1.0,
              "AJDILHJFNKE": -1.0
            },
            {
              "$type": "SetGlobalValue",
              "value": 1.0,
              "key": "_HIDE_MODEL_",
              "maxValue": 0.0,
              "minValue": 0.0
            }
          ],
          "onRemoved": [
            {
              "$type": "FireEffect",
              "rotationDampTime": "Eff_Monster_Invoker_BornHigh",
              "PPPDJGDDOGD": 1.0,
              "AJDILHJFNKE": -1.0
            },
            {
              "$type": "SetGlobalValue",
              "value": 0.0,
              "key": "_HIDE_MODEL_",
              "maxValue": 0.0,
              "minValue": 0.0
            }
          ]
        },
        "Invoker_Blink_Disappear": {
          "modifierName": "",
          "elementDurability": 100.0,
          "onAdded": [
            {
              "$type": "TriggerSetVisible",
              "canBeHandledOnRecover": true
            }
          ]
        },
        "Invoker_Show_Model": {
          "modifierName": "",
          "elementDurability": 100.0,
          "onAdded": [
            {
              "$type": "TriggerSetVisible",
              "canBeHandledOnRecover": true,
              "KGGEDGKGLDD": true
            }
          ]
        }
      },
      "onAdded": [
        {
          "$type": "ApplyModifier",
          "modifierName": "Invoker_Ice_Limbo"
        }
      ],
      "onAbilityStart": [
        {
          "$type": "ApplyModifier",
          "modifierName": "Invoker_Ice_ElementShield"
        },
        {
          "$type": "ActCameraRadialBlur",
          "cameraRadialBlur": {
            "power": 0.699999988079071,
            "blurTime": 0.15000000596046448,
            "fadeTime": 0.30000001192092896
          }
        },
        {
          "$type": "ActCameraShake",
          "cameraShake": {
            "shakeType": "CustomVector",
            "shakeRange": 2.0999999046325684,
            "shakeTime": 0.15000000596046448,
            "shakeDistance": 32.0,
            "shakeDir": {
              "y": 1.0
            },
            "extension": {
              "rangeAttenuation": 0.30000001192092896
            }
          }
        },
        {
          "$type": "SetGlobalValue",
          "value": 1.0,
          "key": "_ABYSS_ICE_ENCHANT_PROBABILITY_",
          "maxValue": 0.0,
          "minValue": 0.0
        }
      ]
    }
  },
  {
    "Default": {
      "$type": "ConfigAbility",
      "abilityName": "Invoker_Herald_Ice_Distance_Calc",
      "onAbilityStart": [
        {
          "$type": "Predicated",
          "target": "SelfAttackTarget",
          "targetPredicates": [
            {
              "$type": "ByTargetPositionToSelfPosition",
              "target": "SelfAttackTarget",
              "logic": "Lesser",
              "value": 5.5,
              "DDALGNLEHOD": ""
            }
          ],
          "successActions": [
            {
              "$type": "SetAnimatorBool",
              "boolID": "TargetClose",
              "value": true
            }
          ],
          "failActions": [
            {
              "$type": "SetAnimatorBool",
              "boolID": "TargetClose"
            }
          ]
        }
      ]
    }
  },
  {
    "Default": {
      "$type": "ConfigAbility",
      "abilityName": "Invoker_Herald_Ice_ConeOfCold_Trigger",
      "onAbilityStart": [
        {
          "$type": "Predicated",
          "targetPredicates": [
            {
              "$type": "ByHasAttackTarget"
            },
            {
              "$type": "ByTargetHPValue",
              "target": "SelfAttackTarget",
              "hp": 0.0
            }
          ],
          "successActions": [
            {
              "$type": "Predicated",
              "target": "SelfAttackTarget",
              "targetPredicates": [
                {
                  "$type": "ByTargetPositionToSelfPosition",
                  "target": "SelfAttackTarget",
                  "logic": "Lesser",
                  "value": 3.0,
                  "DDALGNLEHOD": ""
                }
              ],
              "successActions": [
                {
                  "$type": "TriggerBullet",
                  "bulletID": 42202004,
                  "born": {
                    "$type": "ConfigBornByAttachPoint",
                    "direction": {
                      "$type": "ConfigDirectionByEntity",
                      "useCorrectDir": true
                    },
                    "useRotation": true,
                    "attachPointName": "FirePoint_Follow",
                    "attachPointTargetType": "Self"
                  },
                  "lifeByOwnerV2": true
                }
              ],
              "failActions": [
                {
                  "$type": "CreateGadget",
                  "target": "SelfAttackTarget",
                  "born": {
                    "$type": "ConfigBornByAttachPoint",
                    "useRotation": true,
                    "attachPointName": "RootNode"
                  },
                  "gadgetID": 42202008
                }
              ]
            }
          ],
          "failActions": [
            {
              "$type": "TriggerBullet",
              "bulletID": 42202004,
              "born": {
                "$type": "ConfigBornByAttachPoint",
                "direction": {
                  "$type": "ConfigDirectionByEntity",
                  "useCorrectDir": true
                },
                "useRotation": true,
                "attachPointName": "FirePoint_Follow",
                "attachPointTargetType": "Self"
              },
              "lifeByOwnerV2": true
            }
          ]
        }
      ]
    }
  },
  {
    "Default": {
      "$type": "ConfigAbility",
      "abilityName": "Invoker_Herald_Ice_ConeOfCold_Linear_Point_Logic",
      "modifiers": {
        "Abyss_Ice_Bullet_Linear_Trigger": {
          "modifierName": "",
          "duration": 0.10000000149011612,
          "elementDurability": 100.0,
          "onAdded": [
            {
              "$type": "TriggerBullet",
              "target": "Caster",
              "bulletID": 42202004,
              "born": {
                "$type": "ConfigBornByAttachPoint",
                "direction": {
                  "$type": "PIKKPLPCLKE",
                  "useCorrectDir": true,
                  "namedTransform": ""
                },
                "useRotation": true,
                "attachPointName": "FirePoint_Follow",
                "attachPointTargetType": "Self"
              },
              "lifeByOwnerV2": true
            }
          ]
        }
      },
      "onAdded": [
        {
          "$type": "ApplyModifier",
          "target": "Owner",
          "modifierName": "Abyss_Ice_Bullet_Linear_Trigger"
        }
      ]
    }
  },
  {
    "Default": {
      "$type": "ConfigAbility",
      "abilityName": "Invoker_Herald_Ice_ConeOfCold_Bullet",
      "modifiers": {
        "ConeOfCold_Bullet_Display": {
          "modifierName": "",
          "elementType": "Frozen",
          "elementDurability": 100.0,
          "onAdded": [
            {
              "$type": "AttachEffect",
              "rotationDampTime": "Eff_Monster_Invoker_Herald_Ice_ConeOfCold_Bullet",
              "PPPDJGDDOGD": 1.0,
              "AJDILHJFNKE": -1.0
            }
          ]
        }
      },
      "onAdded": [
        {
          "$type": "AttachModifier",
          "modifierName": "ConeOfCold_Bullet_Display"
        }
      ],
      "onAbilityStart": [
        {
          "$type": "FireEffect",
          "rotationDampTime": "Eff_Monster_Invoker_Herald_Ice_ConeOfCold_Bullet_Broken",
          "born": {
            "$type": "ConfigBornByCollisionPoint"
          },
          "PPPDJGDDOGD": 1.0,
          "AJDILHJFNKE": -1.0
        }
      ]
    }
  },
  {
    "Default": {
      "$type": "ConfigAbility",
      "abilityName": "Invoker_Herald_Ice_ConeOfCold_Bullet_Improved",
      "modifiers": {
        "ConeOfCold_Improved_Bullet_Display": {
          "modifierName": "",
          "elementType": "Frozen",
          "elementDurability": 100.0,
          "onAdded": [
            {
              "$type": "AttachEffect",
              "rotationDampTime": "Eff_Monster_Invoker_Herald_Ice_ConeOfCold_Bullet_Improved",
              "PPPDJGDDOGD": 1.0,
              "AJDILHJFNKE": -1.0
            }
          ]
        }
      },
      "onAdded": [
        {
          "$type": "AttachModifier",
          "modifierName": "ConeOfCold_Improved_Bullet_Display"
        }
      ],
      "onAbilityStart": [
        {
          "$type": "FireEffect",
          "rotationDampTime": "Eff_Monster_Invoker_Herald_Ice_ConeOfCold_Bullet_Explode",
          "born": {
            "$type": "ConfigBornByCollisionPoint"
          },
          "PPPDJGDDOGD": 1.0,
          "AJDILHJFNKE": -1.0
        },
        {
          "$type": "TriggerAttackEvent",
          "attackEvent": {
            "attackPattern": {
              "$type": "ConfigAttackSphere",
              "triggerType": "TriggerNoRepeat",
              "born": {
                "$type": "ConfigBornByCollisionPoint"
              },
              "radius": 1.7999999523162842
            },
            "attackInfo": {
              "attackTag": "EnchantIceBlade",
              "attenuationTag": "ConeOfCold_Bullet_Improved",
              "attenuationGroup": "Monster_Invoker_Deacon_Attenuation_2",
              "attackProperty": {
                "actorGrassSubHurtDelta": 0.6600000262260437,
                "actorWindSubHurtDelta": 0.0,
                "elementType": "Ice",
                "elementDurability": 25.0,
                "enBreak": 200.0,
                "attackType": "Range",
                "GLKMCMDJBIK": 0.0
              },
              "hitPattern": {
                "onHitEffectName": "default",
                "hitImpulseY": "",
                "hitImpulseType": "LV3",
                "retreatType": "ByHitDirection"
              }
            }
          },
          "targetType": "Enemy"
        }
      ]
    }
  },
  {
    "Default": {
      "$type": "ConfigAbility",
      "abilityName": "Invoker_Herald_Ice_ConeOfCold_Improved_Point_1",
      "onAbilityStart": [
        {
          "$type": "CreateGadget",
          "target": "SelfAttackTarget",
          "born": {
            "$type": "MPCGPEHJNNH",
            "onGround": true,
            "timeForPredictive": 0.574999988079071
          },
          "lifeByOwnerV2": true,
          "gadgetID": 42202006
        },
        {
          "$type": "CreateGadget",
          "target": "SelfAttackTarget",
          "born": {
            "$type": "MPCGPEHJNNH",
            "offset": {
              "x": 4.329999923706055,
              "z": 2.5
            },
            "bornRandom": {
              "$type": "BornRandomFromCenter",
              "minRandomRange": 0.0,
              "maxRandomRange": 2.0
            },
            "onGround": true,
            "timeForPredictive": 0.574999988079071
          },
          "lifeByOwnerV2": true,
          "gadgetID": 42202006
        },
        {
          "$type": "CreateGadget",
          "target": "SelfAttackTarget",
          "born": {
            "$type": "MPCGPEHJNNH",
            "offset": {
              "x": -4.329999923706055,
              "z": 2.5
            },
            "bornRandom": {
              "$type": "BornRandomFromCenter",
              "minRandomRange": 0.0,
              "maxRandomRange": 2.0
            },
            "onGround": true,
            "timeForPredictive": 0.574999988079071
          },
          "lifeByOwnerV2": true,
          "gadgetID": 42202006
        },
        {
          "$type": "CreateGadget",
          "target": "SelfAttackTarget",
          "born": {
            "$type": "MPCGPEHJNNH",
            "offset": {
              "x": 0.0,
              "z": -5.0
            },
            "bornRandom": {
              "$type": "BornRandomFromCenter",
              "minRandomRange": 0.0,
              "maxRandomRange": 2.0
            },
            "onGround": true,
            "timeForPredictive": 0.574999988079071
          },
          "lifeByOwnerV2": true,
          "gadgetID": 42202006
        }
      ]
    }
  },
  {
    "Default": {
      "$type": "ConfigAbility",
      "abilityName": "Invoker_Herald_Ice_ConeOfCold_Improved_Point_2",
      "onAbilityStart": [
        {
          "$type": "CreateGadget",
          "target": "SelfAttackTarget",
          "born": {
            "$type": "MPCGPEHJNNH",
            "onGround": true,
            "timeForPredictive": 0.4000000059604645
          },
          "lifeByOwnerV2": true,
          "gadgetID": 42202007
        },
        {
          "$type": "CreateGadget",
          "target": "SelfAttackTarget",
          "born": {
            "$type": "MPCGPEHJNNH",
            "offset": {
              "x": 6.0,
              "z": 0.0
            },
            "bornRandom": {
              "$type": "BornRandomFromCenter",
              "minRandomRange": 0.0,
              "maxRandomRange": 2.0
            },
            "onGround": true,
            "timeForPredictive": 0.4000000059604645
          },
          "lifeByOwnerV2": true,
          "gadgetID": 42202007
        },
        {
          "$type": "CreateGadget",
          "target": "SelfAttackTarget",
          "born": {
            "$type": "MPCGPEHJNNH",
            "offset": {
              "x": 0.0,
              "z": 6.0
            },
            "bornRandom": {
              "$type": "BornRandomFromCenter",
              "minRandomRange": 0.0,
              "maxRandomRange": 2.0
            },
            "onGround": true,
            "timeForPredictive": 0.4000000059604645
          },
          "lifeByOwnerV2": true,
          "gadgetID": 42202007
        },
        {
          "$type": "CreateGadget",
          "target": "SelfAttackTarget",
          "born": {
            "$type": "MPCGPEHJNNH",
            "offset": {
              "x": -6.0,
              "z": 0.0
            },
            "bornRandom": {
              "$type": "BornRandomFromCenter",
              "minRandomRange": 0.0,
              "maxRandomRange": 2.0
            },
            "onGround": true,
            "timeForPredictive": 0.4000000059604645
          },
          "lifeByOwnerV2": true,
          "gadgetID": 42202007
        },
        {
          "$type": "CreateGadget",
          "target": "SelfAttackTarget",
          "born": {
            "$type": "MPCGPEHJNNH",
            "offset": {
              "x": 0.0,
              "z": -6.0
            },
            "bornRandom": {
              "$type": "BornRandomFromCenter",
              "minRandomRange": 0.0,
              "maxRandomRange": 2.0
            },
            "onGround": true,
            "timeForPredictive": 0.4000000059604645
          },
          "lifeByOwnerV2": true,
          "gadgetID": 42202007
        }
      ]
    }
  },
  {
    "Default": {
      "$type": "ConfigAbility",
      "abilityName": "Invoker_Herald_Ice_ConeOfCold_Improved_Trigger_1",
      "onAbilityStart": [
        {
          "$type": "TriggerAbility",
          "otherTargets": {
            "$type": "SelectTargetsByChildren",
            "configID": 42202006
          },
          "abilityName": "Invoker_Herald_Ice_ConeOfCold_Improved_Point_Logic"
        }
      ]
    }
  },
  {
    "Default": {
      "$type": "ConfigAbility",
      "abilityName": "Invoker_Herald_Ice_ConeOfCold_Improved_Trigger_2",
      "onAbilityStart": [
        {
          "$type": "TriggerAbility",
          "otherTargets": {
            "$type": "SelectTargetsByChildren",
            "configID": 42202007
          },
          "abilityName": "Invoker_Herald_Ice_ConeOfCold_Improved_Point_Logic"
        }
      ]
    }
  },
  {
    "Default": {
      "$type": "ConfigAbility",
      "abilityName": "Invoker_Herald_Ice_ConeOfCold_Improved_Point_Logic",
      "modifiers": {
        "Abyss_Ice_Bullet_Trigger": {
          "modifierName": "",
          "duration": 0.10000000149011612,
          "elementDurability": 100.0,
          "onAdded": [
            {
              "$type": "TriggerBullet",
              "target": "Applier",
              "bulletID": 42202005,
              "born": {
                "$type": "ConfigBornByAttachPoint",
                "direction": {
                  "$type": "PIKKPLPCLKE",
                  "useCorrectDir": true,
                  "namedTransform": ""
                },
                "useRotation": true,
                "attachPointName": "FirePoint_Follow",
                "attachPointTargetType": "Self"
              },
              "trackTarget": "Applier",
              "lifeByOwnerV2": true
            }
          ]
        }
      },
      "onAdded": [
        {
          "$type": "FireEffect",
          "rotationDampTime": "Eff_Monster_Invoker_Herald_Ice_ConeOfCold_AlertRing",
          "PPPDJGDDOGD": 1.0,
          "AJDILHJFNKE": -1.0
        }
      ],
      "onAbilityStart": [
        {
          "$type": "ApplyModifier",
          "target": "Owner",
          "modifierName": "Abyss_Ice_Bullet_Trigger"
        }
      ]
    }
  }
]
