[
  {
    "Default": {
      "$type": "ConfigAbility",
      "abilityName": "Monster_Cicin_Water_NormalAtk",
      "onAbilityStart": [
        {
          "$type": "TriggerBullet",
          "bulletID": 42606004,
          "born": {
            "$type": "ConfigBornBySelf",
            "offset": {
              "x": 0.0,
              "y": 0.20000000298023224,
              "z": 1.2000000476837158
            },
            "direction": {
              "$type": "ConfigDirectionByAttackTarget",
              "startPoint": ""
            }
          }
        }
      ]
    }
  },
  {
    "Default": {
      "$type": "ConfigAbility",
      "abilityName": "Monster_Cicin_WaterBall_Hit",
      "onAbilityStart": [
        {
          "$type": "RemoveUniqueModifier",
          "modifierName": "UNIQUE_Cicin_WaterBall_Loop"
        },
        {
          "$type": "FireEffect",
          "rotationDampTime": "Eff_Monster_Cicin_Water_WaterBallAS",
          "PPPDJGDDOGD": 1.0,
          "AJDILHJFNKE": -1.0
        },
        {
          "$type": "TriggerAttackEvent",
          "shieldHP": true,
          "attackEvent": {
            "attackPattern": {
              "$type": "ConfigAttackSphere",
              "triggerType": "TriggerNoRepeat",
              "born": {
                "$type": "ConfigBornByCollisionPoint"
              },
              "radius": 0.5
            },
            "attackInfo": {
              "attackTag": "",
              "attenuationTag": "",
              "attenuationGroup": "default",
              "attackProperty": {
                "actorGrassSubHurtDelta": 1.0,
                "actorWindSubHurtDelta": 0.0,
                "elementType": "Water",
                "elementDurability": 50.0,
                "strikeType": "Default",
                "enBreak": 20.0,
                "GLKMCMDJBIK": 0.0
              },
              "hitPattern": {
                "onHitEffectName": "",
                "hitImpulseY": "",
                "hitImpulseType": "LV2",
                "hitHaltTimeScale": 0.05000000074505806
              },
              "canBeModifiedBy": "OriginOwner"
            }
          },
          "targetType": "Enemy"
        }
      ]
    }
  },
  {
    "Default": {
      "$type": "ConfigAbility",
      "abilityName": "Monster_Cicin_WaterBall_Effect",
      "modifiers": {
        "UNIQUE_Cicin_WaterBall_Loop": {
          "modifierName": "",
          "forceTriggerWhenChangeAuthority": true,
          "elementType": "Water",
          "elementDurability": 25.0,
          "onAdded": [
            {
              "$type": "AttachEffect",
              "rotationDampTime": "Eff_Monster_Cicin_Water_WaterBall",
              "PPPDJGDDOGD": 1.0,
              "AJDILHJFNKE": -1.0
            }
          ],
          "onRemoved": [
            {
              "$type": "KillSelf"
            }
          ]
        }
      },
      "onAdded": [
        {
          "$type": "ApplyModifier",
          "modifierName": "UNIQUE_Cicin_WaterBall_Loop"
        }
      ]
    }
  },
  {
    "Default": {
      "$type": "ConfigAbility",
      "abilityName": "Monster_Cicin_Water_CommonEffect",
      "abilityMixins": [
        {
          "$type": "JJIHJPCPPGO",
          "abilityStates": ["ElementFrozen"],
          "modifierName": "FrozenDetect"
        }
      ],
      "modifiers": {
        "FrozenDetect": {
          "modifierName": "",
          "elementDurability": 100.0,
          "onAdded": [
            {
              "$type": "TriggerSetRenderersEnable",
              "renderNames": ["Wing"]
            },
            {
              "$type": "RemoveModifier",
              "modifierName": "CommonEffect"
            },
            {
              "$type": "IDNGFEEBPAM",
              "boolID": "Frozen",
              "value": true
            },
            {
              "$type": "EnablePushColliderName",
              "pushColliderNames": ["PushCollider_Frozen"],
              "setEnable": true
            }
          ],
          "onRemoved": [
            {
              "$type": "TriggerSetRenderersEnable",
              "renderNames": ["Wing"],
              "setEnable": true
            },
            {
              "$type": "ApplyModifier",
              "modifierName": "CommonEffect"
            },
            {
              "$type": "IDNGFEEBPAM",
              "boolID": "Frozen"
            },
            {
              "$type": "EnablePushColliderName",
              "pushColliderNames": ["PushCollider_Frozen"]
            }
          ]
        },
        "CommonEffect": {
          "modifierName": "",
          "elementDurability": 100.0,
          "onAdded": [
            {
              "$type": "AttachEffect",
              "rotationDampTime": "Eff_Monster_Cicin_Water_BodyElement",
              "PPPDJGDDOGD": 1.0,
              "AJDILHJFNKE": -1.0
            }
          ]
        }
      },
      "onAdded": [
        {
          "$type": "ApplyModifier",
          "modifierName": "CommonEffect"
        }
      ]
    }
  }
]
