[
  {
    "Default": {
      "$type": "ConfigAbility",
      "abilityName": "MonsterAffix_Monster_Scorpion_Sacred_LongerGCD",
      "onAdded": [
        {
          "$type": "OHPMBBJIJFG",
          "value": 5.0
        }
      ],
      "isDynamicAbility": true
    }
  },
  {
    "Default": {
      "$type": "ConfigAbility",
      "abilityName": "MonsterAffix_Monster_Scorpion_Sacred_LowerHp",
      "onAdded": [
        {
          "$type": "LoseHP",
          "CKDBFHCIJEK": 0.30000001192092896,
          "lethal": false,
          "BJKGFBGEFPB": ""
        }
      ],
      "isDynamicAbility": true
    }
  },
  {
    "Default": {
      "$type": "ConfigAbility",
      "abilityName": "Monster_Scorpion_Sacred_SteerAttack",
      "abilityMixins": [
        {
          "$type": "IILHMBGONGM",
          "steerStateIDs": ["Attack_01"],
          "startNormalizedTime": 0.20000000298023224,
          "endNormalizedTime": 0.5,
          "angularSpeed": 120.0,
          "attackTrigger": "",
          "DGFCLAIDIFI": ""
        },
        {
          "$type": "IILHMBGONGM",
          "steerStateIDs": ["Attack_01"],
          "startNormalizedTime": 0.6499999761581421,
          "endNormalizedTime": 0.949999988079071,
          "angularSpeed": 60.0,
          "attackTrigger": "",
          "DGFCLAIDIFI": ""
        },
        {
          "$type": "IILHMBGONGM",
          "steerStateIDs": ["Sacred_Attack01"],
          "startNormalizedTime": 0.10000000149011612,
          "endNormalizedTime": 0.20000000298023224,
          "angularSpeed": 120.0,
          "attackTrigger": "",
          "DGFCLAIDIFI": ""
        },
        {
          "$type": "IILHMBGONGM",
          "steerStateIDs": ["Sacred_Attack01"],
          "startNormalizedTime": 0.23999999463558197,
          "endNormalizedTime": 0.2800000011920929,
          "angularSpeed": 120.0,
          "attackTrigger": "",
          "DGFCLAIDIFI": ""
        },
        {
          "$type": "IILHMBGONGM",
          "steerStateIDs": ["Sacred_Attack01"],
          "startNormalizedTime": 0.5,
          "endNormalizedTime": 0.5600000023841858,
          "angularSpeed": 120.0,
          "attackTrigger": "",
          "DGFCLAIDIFI": ""
        },
        {
          "$type": "IILHMBGONGM",
          "steerStateIDs": ["Sacred_Attack02"],
          "startNormalizedTime": 0.4000000059604645,
          "angularSpeed": 180.0,
          "attackTrigger": "",
          "DGFCLAIDIFI": ""
        },
        {
          "$type": "IILHMBGONGM",
          "steerStateIDs": ["Sacred_Attack03"],
          "endNormalizedTime": 0.11999999731779099,
          "angularSpeed": 60.0,
          "attackTrigger": "",
          "DGFCLAIDIFI": ""
        },
        {
          "$type": "IILHMBGONGM",
          "steerStateIDs": ["Sacred_Attack03"],
          "startNormalizedTime": 0.25,
          "endNormalizedTime": 0.3499999940395355,
          "angularSpeed": 120.0,
          "attackTrigger": "",
          "DGFCLAIDIFI": ""
        },
        {
          "$type": "IILHMBGONGM",
          "steerStateIDs": ["Sacred_Attack03"],
          "startNormalizedTime": 0.4399999976158142,
          "endNormalizedTime": 0.5,
          "angularSpeed": 120.0,
          "attackTrigger": "",
          "DGFCLAIDIFI": ""
        },
        {
          "$type": "IILHMBGONGM",
          "steerStateIDs": ["Sacred_Attack03"],
          "startNormalizedTime": 0.5,
          "endNormalizedTime": 0.5400000214576721,
          "angularSpeed": 180.0,
          "attackTrigger": "",
          "DGFCLAIDIFI": ""
        },
        {
          "$type": "IILHMBGONGM",
          "steerStateIDs": ["Sacred_Attack04"],
          "startNormalizedTime": 0.07999999821186066,
          "endNormalizedTime": 0.14000000059604645,
          "angularSpeed": 180.0,
          "attackTrigger": "",
          "DGFCLAIDIFI": ""
        },
        {
          "$type": "IILHMBGONGM",
          "steerStateIDs": ["Sacred_Attack05"],
          "startNormalizedTime": 0.10000000149011612,
          "endNormalizedTime": 0.3499999940395355,
          "angularSpeed": 180.0,
          "attackTrigger": "",
          "DGFCLAIDIFI": ""
        },
        {
          "$type": "IILHMBGONGM",
          "steerStateIDs": ["Sacred_Attack05"],
          "startNormalizedTime": 0.44999998807907104,
          "endNormalizedTime": 0.6000000238418579,
          "angularSpeed": 120.0,
          "attackTrigger": "",
          "DGFCLAIDIFI": ""
        }
      ],
      "onAdded": [
        {
          "$type": "SetGlobalValue",
          "value": 1.0,
          "key": "Monster_Scorpion_Sacred",
          "maxValue": 0.0,
          "minValue": 0.0
        }
      ]
    }
  },
  {
    "Default": {
      "$type": "ConfigAbility",
      "abilityName": "Monster_Scorpion_Sacred_Attack02_Visible",
      "modifiers": {
        "VisibleControl": {
          "modifierName": "",
          "duration": 1.100000023841858,
          "elementDurability": 100.0,
          "onAdded": [
            {
              "$type": "TriggerSetVisible"
            }
          ],
          "onRemoved": [
            {
              "$type": "ApplyModifier",
              "modifierName": "SetVisible_Ture"
            }
          ],
          "onReconnect": [
            {
              "$type": "TriggerSetVisible",
              "canBeHandledOnRecover": true,
              "KGGEDGKGLDD": true
            }
          ]
        },
        "SetVisible_Ture": {
          "modifierName": "",
          "duration": 1.0,
          "elementDurability": 100.0,
          "onAdded": [
            {
              "$type": "TriggerSetVisible",
              "canBeHandledOnRecover": true,
              "KGGEDGKGLDD": true
            }
          ]
        }
      },
      "onAbilityStart": [
        {
          "$type": "ApplyModifier",
          "modifierName": "VisibleControl"
        }
      ]
    }
  },
  {
    "Default": {
      "$type": "ConfigAbility",
      "abilityName": "Monster_Scorpion_Sacred_Attack02_Collider",
      "modifiers": {
        "StateControl": {
          "modifierName": "",
          "duration": 3.4200000762939453,
          "elementDurability": 100.0,
          "modifierMixins": [
            {
              "$type": "AttachActionToModifierMixin",
              "onAdded": [
                {
                  "$type": "HBNEMPLJCMB",
                  "hide": true
                },
                {
                  "$type": "ApplyModifier",
                  "modifierName": "UnderGround_Invincible"
                },
                {
                  "$type": "ApplyModifier",
                  "modifierName": "UnderGround_DenyLockOn"
                },
                {
                  "$type": "EnablePushColliderName",
                  "pushColliderNames": [
                    "PushCollider",
                    "PushCollider_R",
                    "PushCollider_L"
                  ]
                }
              ],
              "onRemoved": [
                {
                  "$type": "HBNEMPLJCMB"
                },
                {
                  "$type": "RemoveModifier",
                  "modifierName": "UnderGround_Invincible"
                },
                {
                  "$type": "RemoveModifier",
                  "modifierName": "UnderGround_DenyLockOn"
                },
                {
                  "$type": "EnablePushColliderName",
                  "pushColliderNames": [
                    "PushCollider",
                    "PushCollider_R",
                    "PushCollider_L"
                  ],
                  "setEnable": true
                }
              ]
            }
          ]
        },
        "UnderGround_Invincible": {
          "modifierName": "",
          "elementDurability": 100.0,
          "state": "Invincible"
        },
        "UnderGround_DenyLockOn": {
          "modifierName": "",
          "elementDurability": 100.0,
          "state": "DenyLockOn"
        }
      },
      "onAbilityStart": [
        {
          "$type": "ApplyModifier",
          "modifierName": "StateControl"
        }
      ]
    }
  },
  {
    "Default": {
      "$type": "ConfigAbility",
      "abilityName": "Monster_Scorpion_Sacred_Attack02_Find",
      "onAbilityStart": [
        {
          "$type": "FIFEAMMHOIC",
          "target": "SelfAttackTarget",
          "maxRange": 1.0
        }
      ]
    }
  },
  {
    "Default": {
      "$type": "ConfigAbility",
      "abilityName": "Monster_Scorpion_Sacred_Attack02_WarningEffect",
      "onAbilityStart": [
        {
          "$type": "FireEffect",
          "rotationDampTime": "Eff_Monster_Scorpion_Sacred_SacredAttack02_Warning",
          "born": {
            "$type": "ConfigBornBySelf",
            "onGround": true,
            "alongGround": true,
            "useRotation": true
          },
          "PPPDJGDDOGD": 1.0,
          "AJDILHJFNKE": -1.0
        }
      ]
    }
  },
  {
    "Default": {
      "$type": "ConfigAbility",
      "abilityName": "Monster_Scorpion_Sacred_Attack02_Blink",
      "modifiers": {
        "Kill_Summon_Gadget": {
          "modifierName": "",
          "elementDurability": 100.0,
          "onAdded": [
            {
              "$type": "KillSelf"
            }
          ]
        }
      },
      "onAbilityStart": [
        {
          "$type": "IFCMHHHOLCK"
        },
        {
          "$type": "Predicated",
          "otherTargets": {
            "$type": "SelectTargetsByShape",
            "shapeName": "CircleR3",
            "campTargetType": "Enemy",
            "doOffStage": 1.0
          },
          "targetPredicates": [
            {
              "$type": "ByTargetGlobalValue",
              "key": "_COMMON_GADGET_ISSUMMON",
              "value": 0.0,
              "compareType": "MoreThan"
            }
          ],
          "successActions": [
            {
              "$type": "ApplyModifier",
              "target": "Target",
              "modifierName": "Kill_Summon_Gadget"
            }
          ]
        }
      ]
    }
  },
  {
    "Default": {
      "$type": "ConfigAbility",
      "abilityName": "Monster_Scorpion_Sacred_Attack03_Bullet",
      "onAbilityStart": [
        {
          "$type": "TriggerBullet",
          "bulletID": 42610001,
          "born": {
            "$type": "ConfigBornByAttachPoint",
            "offset": {
              "x": 0.0,
              "y": 0.0,
              "z": 0.0
            },
            "direction": {
              "$type": "ConfigDirectionByEntity",
              "angleOffset": {
                "x": 30.0,
                "y": 0.0,
                "z": 0.0
              }
            },
            "useRotation": true,
            "attachPointName": "TailBulletPoint"
          }
        }
      ]
    }
  },
  {
    "Default": {
      "$type": "ConfigAbility",
      "abilityName": "Monster_Scorpion_Sacred_SacredAttack03_Check",
      "abilityMixins": [
        {
          "$type": "AttachToStateIDMixin",
          "stateIDs": ["Sacred_Attack03"],
          "modifierName": "SacredAttack03Check",
          "DGFCLAIDIFI": ""
        }
      ],
      "modifiers": {
        "SacredAttack03Check": {
          "modifierName": "",
          "elementDurability": 100.0,
          "thinkInterval": 0.10000000149011612,
          "onRemoved": [
            {
              "$type": "SetAnimatorBool",
              "boolID": "SacredAttack03Break"
            }
          ],
          "onThinkInterval": [
            {
              "$type": "Predicated",
              "target": "SelfAttackTarget",
              "targetPredicates": [
                {
                  "$type": "ByTargetPositionToSelfPosition",
                  "value": 8.0,
                  "DDALGNLEHOD": ""
                }
              ],
              "successActions": [
                {
                  "$type": "SetAnimatorBool",
                  "boolID": "SacredAttack03Break",
                  "value": true
                }
              ],
              "failActions": [
                {
                  "$type": "SetAnimatorBool",
                  "boolID": "SacredAttack03Break"
                }
              ]
            }
          ]
        }
      }
    }
  },
  {
    "Default": {
      "$type": "ConfigAbility",
      "abilityName": "Monster_Scorpion_Sacred_SacredAttack04_Effect",
      "abilityMixins": [
        {
          "$type": "AttachToStateIDMixin",
          "stateIDs": [
            "Sacred_Attack04_BS",
            "Sacred_Attack04_Loop1",
            "Sacred_Attack04_Loop2",
            "Sacred_Attack04_Loop3",
            "Sacred_Attack04_AS"
          ],
          "modifierName": "SacredAttack04_LoopEffect",
          "DGFCLAIDIFI": ""
        }
      ],
      "modifiers": {
        "SacredAttack04_LoopEffect": {
          "modifierName": "",
          "elementDurability": 100.0,
          "onAdded": [
            {
              "$type": "AttachEffect",
              "rotationDampTime": "Eff_Monster_Scorpion_Sacred_SacredAttack04_Loop",
              "PPPDJGDDOGD": 1.0,
              "AJDILHJFNKE": -1.0
            },
            {
              "$type": "Randomed",
              "chance": 0.5,
              "successActions": [
                {
                  "$type": "SetGlobalValue",
                  "value": 0.0,
                  "key": "_SacredAttack04_RandomSeed",
                  "maxValue": 0.0,
                  "minValue": 0.0
                }
              ],
              "failActions": [
                {
                  "$type": "SetGlobalValue",
                  "value": 1.0,
                  "key": "_SacredAttack04_RandomSeed",
                  "maxValue": 0.0,
                  "minValue": 0.0
                }
              ]
            }
          ]
        }
      }
    }
  },
  {
    "Default": {
      "$type": "ConfigAbility",
      "abilityName": "Monster_Scorpion_Sacred_SacredAttack04_Hit1",
      "modifiers": {
        "ElectricBulletHit1": {
          "modifierName": "",
          "duration": 0.699999988079071,
          "elementDurability": 100.0,
          "onRemoved": [
            {
              "$type": "FireEffect",
              "rotationDampTime": "Eff_Monster_Scorpion_Sacred_SacredAttack04_Explode",
              "born": {
                "$type": "ConfigBornByGlobalValue",
                "positionKey": "ThunderPos1",
                "directionKey": ""
              },
              "PPPDJGDDOGD": 1.0,
              "AJDILHJFNKE": -1.0
            },
            {
              "$type": "TriggerAttackEvent",
              "attackEvent": {
                "attackPattern": {
                  "$type": "ConfigAttackCircle",
                  "triggerType": "TriggerNoRepeat",
                  "born": {
                    "$type": "ConfigBornByGlobalValue",
                    "positionKey": "ThunderPos1",
                    "directionKey": ""
                  },
                  "height": 3.0,
                  "radius": 3.0
                },
                "attackInfo": {
                  "attackTag": "",
                  "attenuationTag": "",
                  "attenuationGroup": "default",
                  "attackProperty": {
                    "actorGrassSubHurtDelta": 0.800000011920929,
                    "actorWindSubHurtDelta": 0.0,
                    "elementType": "Electric",
                    "elementDurability": 30.0,
                    "strikeType": "Blunt",
                    "enBreak": 100.0,
                    "GLKMCMDJBIK": 0.0
                  },
                  "hitPattern": {
                    "onHitEffectName": "default",
                    "hitImpulseY": "",
                    "hitImpulseType": "LV3",
                    "hitHaltTimeScale": 0.009999999776482582
                  },
                  "canBeModifiedBy": "OriginOwner"
                }
              },
              "targetType": "Enemy"
            }
          ]
        }
      },
      "onAbilityStart": [
        {
          "$type": "SetGlobalPos",
          "key": "ThunderPos1",
          "born": {
            "$type": "ConfigBornBySelf",
            "offset": {
              "x": -3.5360000133514404,
              "y": 0.0,
              "z": 3.5360000133514404
            },
            "onGround": true,
            "useRotation": true
          }
        },
        {
          "$type": "ApplyModifier",
          "modifierName": "ElectricBulletHit1"
        }
      ]
    }
  },
  {
    "Default": {
      "$type": "ConfigAbility",
      "abilityName": "Monster_Scorpion_Sacred_SacredAttack04_Hit2",
      "modifiers": {
        "ElectricBulletHit2": {
          "modifierName": "",
          "duration": 0.699999988079071,
          "elementDurability": 100.0,
          "onRemoved": [
            {
              "$type": "FireEffect",
              "rotationDampTime": "Eff_Monster_Scorpion_Sacred_SacredAttack04_Explode",
              "born": {
                "$type": "ConfigBornByGlobalValue",
                "positionKey": "ThunderPos2",
                "directionKey": ""
              },
              "PPPDJGDDOGD": 1.0,
              "AJDILHJFNKE": -1.0
            },
            {
              "$type": "TriggerAttackEvent",
              "attackEvent": {
                "attackPattern": {
                  "$type": "ConfigAttackCircle",
                  "triggerType": "TriggerNoRepeat",
                  "born": {
                    "$type": "ConfigBornByGlobalValue",
                    "positionKey": "ThunderPos2",
                    "directionKey": ""
                  },
                  "height": 3.0,
                  "radius": 3.0
                },
                "attackInfo": {
                  "attackTag": "",
                  "attenuationTag": "",
                  "attenuationGroup": "default",
                  "attackProperty": {
                    "actorGrassSubHurtDelta": 0.800000011920929,
                    "actorWindSubHurtDelta": 0.0,
                    "elementType": "Electric",
                    "elementDurability": 30.0,
                    "strikeType": "Blunt",
                    "enBreak": 100.0,
                    "GLKMCMDJBIK": 0.0
                  },
                  "hitPattern": {
                    "onHitEffectName": "default",
                    "hitImpulseY": "",
                    "hitImpulseType": "LV3",
                    "hitHaltTimeScale": 0.009999999776482582
                  },
                  "canBeModifiedBy": "OriginOwner"
                }
              },
              "targetType": "Enemy"
            }
          ]
        }
      },
      "onAbilityStart": [
        {
          "$type": "SetGlobalPos",
          "predicates": [
            {
              "$type": "ByTargetGlobalValue",
              "key": "_SacredAttack04_RandomSeed",
              "value": 0.0
            }
          ],
          "key": "ThunderPos2",
          "born": {
            "$type": "ConfigBornBySelf",
            "offset": {
              "x": 0.0,
              "y": 0.0,
              "z": 5.0
            },
            "onGround": true,
            "useRotation": true
          }
        },
        {
          "$type": "SetGlobalPos",
          "predicates": [
            {
              "$type": "ByTargetGlobalValue",
              "key": "_SacredAttack04_RandomSeed",
              "value": 1.0
            }
          ],
          "key": "ThunderPos2",
          "born": {
            "$type": "ConfigBornBySelf",
            "offset": {
              "x": -5.0,
              "y": 0.0,
              "z": 0.0
            },
            "onGround": true,
            "useRotation": true
          }
        },
        {
          "$type": "ApplyModifier",
          "modifierName": "ElectricBulletHit2"
        }
      ]
    }
  },
  {
    "Default": {
      "$type": "ConfigAbility",
      "abilityName": "Monster_Scorpion_Sacred_SacredAttack04_Hit3",
      "modifiers": {
        "ElectricBulletHit3": {
          "modifierName": "",
          "duration": 0.699999988079071,
          "elementDurability": 100.0,
          "onRemoved": [
            {
              "$type": "FireEffect",
              "rotationDampTime": "Eff_Monster_Scorpion_Sacred_SacredAttack04_Explode",
              "born": {
                "$type": "ConfigBornByGlobalValue",
                "positionKey": "ThunderPos3",
                "directionKey": ""
              },
              "PPPDJGDDOGD": 1.0,
              "AJDILHJFNKE": -1.0
            },
            {
              "$type": "TriggerAttackEvent",
              "attackEvent": {
                "attackPattern": {
                  "$type": "ConfigAttackCircle",
                  "triggerType": "TriggerNoRepeat",
                  "born": {
                    "$type": "ConfigBornByGlobalValue",
                    "positionKey": "ThunderPos3",
                    "directionKey": ""
                  },
                  "height": 3.0,
                  "radius": 3.0
                },
                "attackInfo": {
                  "attackTag": "",
                  "attenuationTag": "",
                  "attenuationGroup": "default",
                  "attackProperty": {
                    "actorGrassSubHurtDelta": 0.800000011920929,
                    "actorWindSubHurtDelta": 0.0,
                    "elementType": "Electric",
                    "elementDurability": 30.0,
                    "strikeType": "Blunt",
                    "enBreak": 100.0,
                    "GLKMCMDJBIK": 0.0
                  },
                  "hitPattern": {
                    "onHitEffectName": "default",
                    "hitImpulseY": "",
                    "hitImpulseType": "LV3",
                    "hitHaltTimeScale": 0.009999999776482582
                  },
                  "canBeModifiedBy": "OriginOwner"
                }
              },
              "targetType": "Enemy"
            }
          ]
        }
      },
      "onAbilityStart": [
        {
          "$type": "SetGlobalPos",
          "predicates": [
            {
              "$type": "ByTargetGlobalValue",
              "key": "_SacredAttack04_RandomSeed",
              "value": 0.0
            }
          ],
          "key": "ThunderPos3",
          "born": {
            "$type": "ConfigBornBySelf",
            "offset": {
              "x": 3.5360000133514404,
              "y": 0.0,
              "z": 3.5360000133514404
            },
            "onGround": true,
            "useRotation": true
          }
        },
        {
          "$type": "SetGlobalPos",
          "predicates": [
            {
              "$type": "ByTargetGlobalValue",
              "key": "_SacredAttack04_RandomSeed",
              "value": 1.0
            }
          ],
          "key": "ThunderPos3",
          "born": {
            "$type": "ConfigBornBySelf",
            "offset": {
              "x": -3.5360000133514404,
              "y": 0.0,
              "z": -3.5360000133514404
            },
            "onGround": true,
            "useRotation": true
          }
        },
        {
          "$type": "ApplyModifier",
          "modifierName": "ElectricBulletHit3"
        }
      ]
    }
  },
  {
    "Default": {
      "$type": "ConfigAbility",
      "abilityName": "Monster_Scorpion_Sacred_SacredAttack04_Hit4",
      "modifiers": {
        "ElectricBulletHit4": {
          "modifierName": "",
          "duration": 0.699999988079071,
          "elementDurability": 100.0,
          "onRemoved": [
            {
              "$type": "FireEffect",
              "rotationDampTime": "Eff_Monster_Scorpion_Sacred_SacredAttack04_Explode",
              "born": {
                "$type": "ConfigBornByGlobalValue",
                "positionKey": "ThunderPos4",
                "directionKey": ""
              },
              "PPPDJGDDOGD": 1.0,
              "AJDILHJFNKE": -1.0
            },
            {
              "$type": "TriggerAttackEvent",
              "attackEvent": {
                "attackPattern": {
                  "$type": "ConfigAttackCircle",
                  "triggerType": "TriggerNoRepeat",
                  "born": {
                    "$type": "ConfigBornByGlobalValue",
                    "positionKey": "ThunderPos4",
                    "directionKey": ""
                  },
                  "height": 3.0,
                  "radius": 3.0
                },
                "attackInfo": {
                  "attackTag": "",
                  "attenuationTag": "",
                  "attenuationGroup": "default",
                  "attackProperty": {
                    "actorGrassSubHurtDelta": 0.800000011920929,
                    "actorWindSubHurtDelta": 0.0,
                    "elementType": "Electric",
                    "elementDurability": 30.0,
                    "strikeType": "Blunt",
                    "enBreak": 100.0,
                    "GLKMCMDJBIK": 0.0
                  },
                  "hitPattern": {
                    "onHitEffectName": "default",
                    "hitImpulseY": "",
                    "hitImpulseType": "LV3",
                    "hitHaltTimeScale": 0.009999999776482582
                  },
                  "canBeModifiedBy": "OriginOwner"
                }
              },
              "targetType": "Enemy"
            }
          ]
        }
      },
      "onAbilityStart": [
        {
          "$type": "SetGlobalPos",
          "predicates": [
            {
              "$type": "ByTargetGlobalValue",
              "key": "_SacredAttack04_RandomSeed",
              "value": 0.0
            }
          ],
          "key": "ThunderPos4",
          "born": {
            "$type": "ConfigBornBySelf",
            "offset": {
              "x": 5.0,
              "y": 0.0,
              "z": 0.0
            },
            "onGround": true,
            "useRotation": true
          }
        },
        {
          "$type": "SetGlobalPos",
          "predicates": [
            {
              "$type": "ByTargetGlobalValue",
              "key": "_SacredAttack04_RandomSeed",
              "value": 1.0
            }
          ],
          "key": "ThunderPos4",
          "born": {
            "$type": "ConfigBornBySelf",
            "offset": {
              "x": 0.0,
              "y": 0.0,
              "z": -5.0
            },
            "onGround": true,
            "useRotation": true
          }
        },
        {
          "$type": "ApplyModifier",
          "modifierName": "ElectricBulletHit4"
        }
      ]
    }
  },
  {
    "Default": {
      "$type": "ConfigAbility",
      "abilityName": "Monster_Scorpion_Sacred_SacredAttack04_Hit5",
      "modifiers": {
        "ElectricBulletHit5": {
          "modifierName": "",
          "duration": 0.699999988079071,
          "elementDurability": 100.0,
          "onRemoved": [
            {
              "$type": "FireEffect",
              "rotationDampTime": "Eff_Monster_Scorpion_Sacred_SacredAttack04_Explode",
              "born": {
                "$type": "ConfigBornByGlobalValue",
                "positionKey": "ThunderPos5",
                "directionKey": ""
              },
              "PPPDJGDDOGD": 1.0,
              "AJDILHJFNKE": -1.0
            },
            {
              "$type": "TriggerAttackEvent",
              "attackEvent": {
                "attackPattern": {
                  "$type": "ConfigAttackCircle",
                  "triggerType": "TriggerNoRepeat",
                  "born": {
                    "$type": "ConfigBornByGlobalValue",
                    "positionKey": "ThunderPos5",
                    "directionKey": ""
                  },
                  "height": 3.0,
                  "radius": 3.0
                },
                "attackInfo": {
                  "attackTag": "",
                  "attenuationTag": "",
                  "attenuationGroup": "default",
                  "attackProperty": {
                    "actorGrassSubHurtDelta": 0.800000011920929,
                    "actorWindSubHurtDelta": 0.0,
                    "elementType": "Electric",
                    "elementDurability": 30.0,
                    "strikeType": "Blunt",
                    "enBreak": 100.0,
                    "GLKMCMDJBIK": 0.0
                  },
                  "hitPattern": {
                    "onHitEffectName": "default",
                    "hitImpulseY": "",
                    "hitImpulseType": "LV3",
                    "hitHaltTimeScale": 0.009999999776482582
                  },
                  "canBeModifiedBy": "OriginOwner"
                }
              },
              "targetType": "Enemy"
            }
          ]
        }
      },
      "onAbilityStart": [
        {
          "$type": "SetGlobalPos",
          "predicates": [
            {
              "$type": "ByTargetGlobalValue",
              "key": "_SacredAttack04_RandomSeed",
              "value": 0.0
            }
          ],
          "key": "ThunderPos5",
          "born": {
            "$type": "ConfigBornBySelf",
            "offset": {
              "x": 3.5360000133514404,
              "y": 0.0,
              "z": -3.5360000133514404
            },
            "onGround": true,
            "useRotation": true
          }
        },
        {
          "$type": "SetGlobalPos",
          "predicates": [
            {
              "$type": "ByTargetGlobalValue",
              "key": "_SacredAttack04_RandomSeed",
              "value": 1.0
            }
          ],
          "key": "ThunderPos5",
          "born": {
            "$type": "ConfigBornBySelf",
            "offset": {
              "x": 3.5360000133514404,
              "y": 0.0,
              "z": -3.5360000133514404
            },
            "onGround": true,
            "useRotation": true
          }
        },
        {
          "$type": "ApplyModifier",
          "modifierName": "ElectricBulletHit5"
        }
      ]
    }
  },
  {
    "Default": {
      "$type": "ConfigAbility",
      "abilityName": "Monster_Scorpion_Sacred_SacredAttack04_Hit6",
      "modifiers": {
        "ElectricBulletHit6": {
          "modifierName": "",
          "duration": 0.699999988079071,
          "elementDurability": 100.0,
          "onRemoved": [
            {
              "$type": "FireEffect",
              "rotationDampTime": "Eff_Monster_Scorpion_Sacred_SacredAttack04_Explode",
              "born": {
                "$type": "ConfigBornByGlobalValue",
                "positionKey": "ThunderPos6",
                "directionKey": ""
              },
              "PPPDJGDDOGD": 1.0,
              "AJDILHJFNKE": -1.0
            },
            {
              "$type": "TriggerAttackEvent",
              "attackEvent": {
                "attackPattern": {
                  "$type": "ConfigAttackCircle",
                  "triggerType": "TriggerNoRepeat",
                  "born": {
                    "$type": "ConfigBornByGlobalValue",
                    "positionKey": "ThunderPos6",
                    "directionKey": ""
                  },
                  "height": 3.0,
                  "radius": 3.0
                },
                "attackInfo": {
                  "attackTag": "",
                  "attenuationTag": "",
                  "attenuationGroup": "default",
                  "attackProperty": {
                    "actorGrassSubHurtDelta": 0.800000011920929,
                    "actorWindSubHurtDelta": 0.0,
                    "elementType": "Electric",
                    "elementDurability": 30.0,
                    "strikeType": "Blunt",
                    "enBreak": 100.0,
                    "GLKMCMDJBIK": 0.0
                  },
                  "hitPattern": {
                    "onHitEffectName": "default",
                    "hitImpulseY": "",
                    "hitImpulseType": "LV3",
                    "hitHaltTimeScale": 0.009999999776482582
                  },
                  "canBeModifiedBy": "OriginOwner"
                }
              },
              "targetType": "Enemy"
            }
          ]
        }
      },
      "onAbilityStart": [
        {
          "$type": "SetGlobalPos",
          "predicates": [
            {
              "$type": "ByTargetGlobalValue",
              "key": "_SacredAttack04_RandomSeed",
              "value": 0.0
            }
          ],
          "key": "ThunderPos6",
          "born": {
            "$type": "ConfigBornBySelf",
            "offset": {
              "x": 0.0,
              "y": 0.0,
              "z": -5.0
            },
            "onGround": true,
            "useRotation": true
          }
        },
        {
          "$type": "SetGlobalPos",
          "predicates": [
            {
              "$type": "ByTargetGlobalValue",
              "key": "_SacredAttack04_RandomSeed",
              "value": 1.0
            }
          ],
          "key": "ThunderPos6",
          "born": {
            "$type": "ConfigBornBySelf",
            "offset": {
              "x": 5.0,
              "y": 0.0,
              "z": 0.0
            },
            "onGround": true,
            "useRotation": true
          }
        },
        {
          "$type": "ApplyModifier",
          "modifierName": "ElectricBulletHit6"
        }
      ]
    }
  },
  {
    "Default": {
      "$type": "ConfigAbility",
      "abilityName": "Monster_Scorpion_Sacred_SacredAttack04_Hit7",
      "modifiers": {
        "ElectricBulletHit7": {
          "modifierName": "",
          "duration": 0.699999988079071,
          "elementDurability": 100.0,
          "onRemoved": [
            {
              "$type": "FireEffect",
              "rotationDampTime": "Eff_Monster_Scorpion_Sacred_SacredAttack04_Explode",
              "born": {
                "$type": "ConfigBornByGlobalValue",
                "positionKey": "ThunderPos7",
                "directionKey": ""
              },
              "PPPDJGDDOGD": 1.0,
              "AJDILHJFNKE": -1.0
            },
            {
              "$type": "TriggerAttackEvent",
              "attackEvent": {
                "attackPattern": {
                  "$type": "ConfigAttackCircle",
                  "triggerType": "TriggerNoRepeat",
                  "born": {
                    "$type": "ConfigBornByGlobalValue",
                    "positionKey": "ThunderPos7",
                    "directionKey": ""
                  },
                  "height": 3.0,
                  "radius": 3.0
                },
                "attackInfo": {
                  "attackTag": "",
                  "attenuationTag": "",
                  "attenuationGroup": "default",
                  "attackProperty": {
                    "actorGrassSubHurtDelta": 0.800000011920929,
                    "actorWindSubHurtDelta": 0.0,
                    "elementType": "Electric",
                    "elementDurability": 30.0,
                    "strikeType": "Blunt",
                    "enBreak": 100.0,
                    "GLKMCMDJBIK": 0.0
                  },
                  "hitPattern": {
                    "onHitEffectName": "default",
                    "hitImpulseY": "",
                    "hitImpulseType": "LV3",
                    "hitHaltTimeScale": 0.009999999776482582
                  },
                  "canBeModifiedBy": "OriginOwner"
                }
              },
              "targetType": "Enemy"
            }
          ]
        }
      },
      "onAbilityStart": [
        {
          "$type": "SetGlobalPos",
          "predicates": [
            {
              "$type": "ByTargetGlobalValue",
              "key": "_SacredAttack04_RandomSeed",
              "value": 0.0
            }
          ],
          "key": "ThunderPos7",
          "born": {
            "$type": "ConfigBornBySelf",
            "offset": {
              "x": -3.5360000133514404,
              "y": 0.0,
              "z": -3.5360000133514404
            },
            "onGround": true,
            "useRotation": true
          }
        },
        {
          "$type": "SetGlobalPos",
          "predicates": [
            {
              "$type": "ByTargetGlobalValue",
              "key": "_SacredAttack04_RandomSeed",
              "value": 1.0
            }
          ],
          "key": "ThunderPos7",
          "born": {
            "$type": "ConfigBornBySelf",
            "offset": {
              "x": 3.5360000133514404,
              "y": 0.0,
              "z": 3.5360000133514404
            },
            "onGround": true,
            "useRotation": true
          }
        },
        {
          "$type": "ApplyModifier",
          "modifierName": "ElectricBulletHit7"
        }
      ]
    }
  },
  {
    "Default": {
      "$type": "ConfigAbility",
      "abilityName": "Monster_Scorpion_Sacred_SacredAttack04_Hit8",
      "modifiers": {
        "ElectricBulletHit8": {
          "modifierName": "",
          "duration": 0.699999988079071,
          "elementDurability": 100.0,
          "onRemoved": [
            {
              "$type": "FireEffect",
              "rotationDampTime": "Eff_Monster_Scorpion_Sacred_SacredAttack04_Explode",
              "born": {
                "$type": "ConfigBornByGlobalValue",
                "positionKey": "ThunderPos8",
                "directionKey": ""
              },
              "PPPDJGDDOGD": 1.0,
              "AJDILHJFNKE": -1.0
            },
            {
              "$type": "TriggerAttackEvent",
              "attackEvent": {
                "attackPattern": {
                  "$type": "ConfigAttackCircle",
                  "triggerType": "TriggerNoRepeat",
                  "born": {
                    "$type": "ConfigBornByGlobalValue",
                    "positionKey": "ThunderPos8",
                    "directionKey": ""
                  },
                  "height": 3.0,
                  "radius": 3.0
                },
                "attackInfo": {
                  "attackTag": "",
                  "attenuationTag": "",
                  "attenuationGroup": "default",
                  "attackProperty": {
                    "actorGrassSubHurtDelta": 0.800000011920929,
                    "actorWindSubHurtDelta": 0.0,
                    "elementType": "Electric",
                    "elementDurability": 30.0,
                    "strikeType": "Blunt",
                    "enBreak": 100.0,
                    "GLKMCMDJBIK": 0.0
                  },
                  "hitPattern": {
                    "onHitEffectName": "default",
                    "hitImpulseY": "",
                    "hitImpulseType": "LV3",
                    "hitHaltTimeScale": 0.009999999776482582
                  },
                  "canBeModifiedBy": "OriginOwner"
                }
              },
              "targetType": "Enemy"
            }
          ]
        }
      },
      "onAbilityStart": [
        {
          "$type": "SetGlobalPos",
          "predicates": [
            {
              "$type": "ByTargetGlobalValue",
              "key": "_SacredAttack04_RandomSeed",
              "value": 0.0
            }
          ],
          "key": "ThunderPos8",
          "born": {
            "$type": "ConfigBornBySelf",
            "offset": {
              "x": -5.0,
              "y": 0.0,
              "z": 0.0
            },
            "onGround": true,
            "useRotation": true
          }
        },
        {
          "$type": "SetGlobalPos",
          "predicates": [
            {
              "$type": "ByTargetGlobalValue",
              "key": "_SacredAttack04_RandomSeed",
              "value": 1.0
            }
          ],
          "key": "ThunderPos8",
          "born": {
            "$type": "ConfigBornBySelf",
            "offset": {
              "x": 0.0,
              "y": 0.0,
              "z": 5.0
            },
            "onGround": true,
            "useRotation": true
          }
        },
        {
          "$type": "ApplyModifier",
          "modifierName": "ElectricBulletHit8"
        }
      ]
    }
  },
  {
    "Default": {
      "$type": "ConfigAbility",
      "abilityName": "Monster_Scorpion_Sacred_Attack05_Bullet",
      "onAbilityStart": [
        {
          "$type": "TriggerBullet",
          "bulletID": 42610002,
          "born": {
            "$type": "ConfigBornByAttachPoint",
            "useRotation": true,
            "attachPointName": "SacredBulletPoint"
          }
        },
        {
          "$type": "TriggerBullet",
          "bulletID": 42610006,
          "born": {
            "$type": "ConfigBornByAttachPoint",
            "useRotation": true,
            "attachPointName": "SacredBulletPoint"
          }
        }
      ]
    }
  },
  {
    "Default": {
      "$type": "ConfigAbility",
      "abilityName": "Monster_Scorpion_Sacred_Attack05_BulletExplode",
      "onAbilityStart": [
        {
          "$type": "FireEffect",
          "rotationDampTime": "Eff_Monster_Scorpion_Sacred_SacredAttack05_BulletExplode",
          "born": {
            "$type": "ConfigBornByCollisionPoint",
            "offset": {
              "x": 0.0,
              "y": 0.0,
              "z": 0.0
            },
            "onGround": true
          },
          "PPPDJGDDOGD": 1.0,
          "AJDILHJFNKE": -1.0
        },
        {
          "$type": "TriggerAttackEvent",
          "attackEvent": {
            "attackPattern": {
              "$type": "ConfigAttackSphere",
              "triggerType": "TriggerNoRepeat",
              "born": {
                "$type": "ConfigBornByCollisionPoint",
                "offset": {
                  "x": 0.0,
                  "y": 0.0,
                  "z": 0.0
                }
              },
              "radius": 3.5
            },
            "attackInfo": {
              "attackTag": "",
              "attenuationTag": "",
              "attenuationGroup": "default",
              "attackProperty": {
                "actorGrassSubHurtDelta": 1.0,
                "actorWindSubHurtDelta": 0.0,
                "elementType": "Electric",
                "elementDurability": 30.0,
                "strikeType": "Blunt",
                "enBreak": 200.0,
                "GLKMCMDJBIK": 0.0
              },
              "hitPattern": {
                "onHitEffectName": "default",
                "hitImpulseY": "",
                "hitImpulseType": "LV5",
                "hitHaltTimeScale": 0.009999999776482582
              }
            }
          },
          "targetType": "Enemy"
        }
      ]
    }
  },
  {
    "Default": {
      "$type": "ConfigAbility",
      "abilityName": "Monster_Scorpion_Sacred_SacredEnergy_Accum"
    }
  },
  {
    "Default": {
      "$type": "ConfigAbility",
      "abilityName": "Monster_Scorpion_Sacred_SacredEnergy_Detect",
      "onAbilityStart": [
        {
          "$type": "SetGlobalPos",
          "key": "_Sacred_SacredEnergy_Pos",
          "born": {
            "$type": "ConfigBornBySelf",
            "offset": {
              "x": 0.0,
              "y": 0.0,
              "z": 3.0
            },
            "useRotation": true
          }
        },
        {
          "$type": "TriggerBullet",
          "bulletID": 42610001,
          "born": {
            "$type": "ConfigBornBySelf",
            "offset": {
              "x": 0.0,
              "y": 1.0,
              "z": 2.0
            },
            "direction": {
              "$type": "ConfigDirectionByDefault",
              "angleOffset": {
                "x": 0.0,
                "y": 0.0,
                "z": 0.0
              }
            },
            "useRotation": true
          },
          "lifeByOwnerV2": true
        }
      ]
    }
  },
  {
    "Default": {
      "$type": "ConfigAbility",
      "abilityName": "Monster_Scorpion_Sacred_SacredEnergy_Create",
      "modifiers": {
        "CreateSacredEnergy": {
          "modifierName": "",
          "duration": 0.10000000149011612,
          "elementDurability": 100.0,
          "onAdded": [
            {
              "$type": "CopyGlobalValue",
              "target": "Applier",
              "dstTarget": "Self",
              "srcKey": "_Sacred_SacredEnergy_Pos_0",
              "dstKey": "_Sacred_SacredEnergy_Pos_0"
            },
            {
              "$type": "CopyGlobalValue",
              "target": "Applier",
              "dstTarget": "Self",
              "srcKey": "_Sacred_SacredEnergy_Pos_1",
              "dstKey": "_Sacred_SacredEnergy_Pos_1"
            },
            {
              "$type": "CopyGlobalValue",
              "target": "Applier",
              "dstTarget": "Self",
              "srcKey": "_Sacred_SacredEnergy_Pos_2",
              "dstKey": "_Sacred_SacredEnergy_Pos_2"
            }
          ],
          "onRemoved": [
            {
              "$type": "CreateGadget",
              "born": {
                "$type": "ConfigBornByGlobalValue",
                "positionKey": "_Sacred_SacredEnergy_Pos",
                "directionKey": ""
              },
              "sightGroupWithOwner": true,
              "lifeByOwnerV2": true,
              "gadgetID": 42610003,
              "campID": 4001,
              "byServer": true
            }
          ]
        }
      },
      "onAbilityStart": [
        {
          "$type": "SetGlobalPos",
          "key": "_Sacred_SacredEnergy_Pos",
          "born": {
            "$type": "ConfigBornByCollisionPoint",
            "onGround": true,
            "alongGround": true
          }
        },
        {
          "$type": "ApplyModifier",
          "target": "OriginOwner",
          "modifierName": "CreateSacredEnergy"
        },
        {
          "$type": "KillSelf"
        }
      ]
    }
  },
  {
    "Default": {
      "$type": "ConfigAbility",
      "abilityName": "Monster_Scorpion_Sacred_SacredEnergy_CreateO",
      "modifiers": {
        "CreateSacredEnergy": {
          "modifierName": "",
          "duration": 0.10000000149011612,
          "elementDurability": 100.0,
          "onAdded": [
            {
              "$type": "CopyGlobalValue",
              "target": "Applier",
              "dstTarget": "Self",
              "srcKey": "_Sacred_SacredEnergy_Pos_0",
              "dstKey": "_Sacred_SacredEnergy_Pos_0"
            },
            {
              "$type": "CopyGlobalValue",
              "target": "Applier",
              "dstTarget": "Self",
              "srcKey": "_Sacred_SacredEnergy_Pos_1",
              "dstKey": "_Sacred_SacredEnergy_Pos_1"
            },
            {
              "$type": "CopyGlobalValue",
              "target": "Applier",
              "dstTarget": "Self",
              "srcKey": "_Sacred_SacredEnergy_Pos_2",
              "dstKey": "_Sacred_SacredEnergy_Pos_2"
            }
          ],
          "onRemoved": [
            {
              "$type": "CreateGadget",
              "born": {
                "$type": "ConfigBornByGlobalValue",
                "positionKey": "_Sacred_SacredEnergy_Pos",
                "directionKey": ""
              },
              "sightGroupWithOwner": true,
              "lifeByOwnerV2": true,
              "gadgetID": 42610003,
              "campID": 4001,
              "byServer": true
            }
          ]
        }
      },
      "onAbilityStart": [
        {
          "$type": "SetGlobalPos",
          "key": "_Sacred_SacredEnergy_Pos",
          "born": {
            "$type": "ConfigBornBySelf",
            "onGround": true,
            "alongGround": true,
            "useRotation": true
          }
        },
        {
          "$type": "ApplyModifier",
          "target": "OriginOwner",
          "modifierName": "CreateSacredEnergy"
        },
        {
          "$type": "KillSelf"
        }
      ]
    }
  },
  {
    "Default": {
      "$type": "ConfigAbility",
      "abilityName": "Monster_Scorpion_Sacred_SacredEnergy_Gadget",
      "modifiers": {
        "Create_Accum_Bullet": {
          "modifierName": "",
          "duration": 0.800000011920929,
          "elementDurability": 100.0,
          "onAdded": [
            {
              "$type": "FireEffect",
              "rotationDampTime": "Eff_Monster_Scorpion_Sacred_SacredAttack05_SacredEnergy",
              "PPPDJGDDOGD": 1.0,
              "AJDILHJFNKE": -1.0
            }
          ],
          "onRemoved": [
            {
              "$type": "SetSelfAttackTarget",
              "otherTargets": {
                "$type": "SelectTargetsByChildren",
                "topLimit": 1,
                "entityTypePriority": ["Gadget"],
                "configID": 42610003
              }
            },
            {
              "$type": "TriggerBullet",
              "target": "SelfAttackTarget",
              "bulletID": 42610005,
              "born": {
                "$type": "ConfigBornBySelf",
                "useRotation": true
              },
              "lifeByOwnerV2": true
            },
            {
              "$type": "DOGDNJHJADD"
            }
          ]
        },
        "DarkHoundGadget_DelayHandler_Effect": {
          "modifierName": "",
          "duration": 1.9500000476837158,
          "elementDurability": 100.0,
          "onRemoved": [
            {
              "$type": "FireEffect",
              "rotationDampTime": "Eff_Monster_Scorpion_Sacred_SacredAttack05_SacredEnergy_Hit",
              "PPPDJGDDOGD": 1.0,
              "AJDILHJFNKE": -1.0
            }
          ]
        },
        "DarkHoundGadget_DelayHandler": {
          "modifierName": "",
          "duration": 2.0,
          "elementDurability": 100.0,
          "onRemoved": [
            {
              "$type": "ApplyModifier",
              "modifierName": "DarkHoundGadget_ChargeState"
            },
            {
              "$type": "EnablePushColliderName",
              "pushColliderNames": ["PushCollider"],
              "setEnable": true
            }
          ]
        },
        "DarkHoundGadget_ChargeState": {
          "modifierName": "",
          "duration": 6.0,
          "elementDurability": 100.0,
          "modifierMixins": [
            {
              "$type": "HBPDEMIJCDL",
              "chargeBarElementType": "Electric",
              "initialValue": 0.0,
              "maxValue": 10.0
            },
            {
              "$type": "AttachModifierToSelfGlobalValueMixin",
              "globalValueKey": "_CHARGEBAR_VALUE",
              "gvInTalk": 0.0,
              "valueSteps": [9.5, 10.5],
              "modifierNameSteps": ["DarkHoundGadget_ChargeEnd"]
            }
          ],
          "onAdded": [
            {
              "$type": "AttachEffect",
              "rotationDampTime": "Eff_Monster_Scorpion_Sacred_SacredEnergy",
              "PPPDJGDDOGD": 1.0,
              "AJDILHJFNKE": -1.0
            }
          ],
          "onRemoved": [
            {
              "$type": "EnableHitBoxByName",
              "hitBoxNames": ["HitBox"]
            },
            {
              "$type": "EnablePushColliderName",
              "pushColliderNames": ["PushCollider_Occluder"]
            },
            {
              "$type": "EnablePushColliderName",
              "pushColliderNames": ["PushCollider"]
            },
            {
              "$type": "FireEffect",
              "predicates": [
                {
                  "$type": "ByTargetGlobalValue",
                  "target": "Self",
                  "key": "_CHARGEBAR_VALUE",
                  "value": 9.0,
                  "compareType": "LessAndEqual"
                }
              ],
              "rotationDampTime": "Eff_Monster_Scorpion_Sacred_SacredEnergyDisappear",
              "PPPDJGDDOGD": 1.0,
              "AJDILHJFNKE": -1.0
            },
            {
              "$type": "TriggerBullet",
              "target": "OriginOwner",
              "predicates": [
                {
                  "$type": "ByTargetGlobalValue",
                  "target": "Self",
                  "key": "_CHARGEBAR_VALUE",
                  "value": 9.0,
                  "compareType": "LessAndEqual"
                }
              ],
              "bulletID": 42610007,
              "born": {
                "$type": "ConfigBornByAttachPoint",
                "offset": {
                  "x": 0.0,
                  "y": 0.0,
                  "z": 0.0
                },
                "direction": {
                  "$type": "ConfigDirectionByAttachPoint",
                  "angleOffset": {
                    "x": 0.0,
                    "y": 0.0,
                    "z": 0.0
                  },
                  "attachPointName": "RootNode",
                  "attachPointTargetType": "Self"
                },
                "useRotation": true,
                "attachPointName": "RootNode",
                "attachPointTargetType": "Self"
              },
              "trackTarget": "Target",
              "lifeByOwnerV2": true
            },
            {
              "$type": "TriggerSetVisible"
            },
            {
              "$type": "ApplyModifier",
              "modifierName": "Gadget_Invincible"
            },
            {
              "$type": "ApplyModifier",
              "modifierName": "Gadget_DenyLockOn"
            },
            {
              "$type": "ApplyModifier",
              "modifierName": "Gadget_IsGhostToEnemy"
            },
            {
              "$type": "ApplyModifier",
              "modifierName": "Gadget_IsGhostToAllied"
            }
          ],
          "onBeingHit": [
            {
              "$type": "SetSelfAttackTarget",
              "target": "Target"
            },
            {
              "$type": "FireEffect",
              "rotationDampTime": "Eff_Monster_Scorpion_Sacred_SacredEnergyBeHit",
              "PPPDJGDDOGD": 1.0,
              "AJDILHJFNKE": -1.0
            },
            {
              "$type": "PMJJNECJCLE",
              "predicates": [
                {
                  "$type": "ByAny",
                  "predicates": [
                    {
                      "$type": "ByHitElement",
                      "element": "Electric"
                    }
                  ]
                }
              ],
              "value": 10.0,
              "maxValue": 0.0,
              "minValue": 0.0
            },
            {
              "$type": "PMJJNECJCLE",
              "predicates": [
                {
                  "$type": "ByAny",
                  "predicates": [
                    {
                      "$type": "ByHitElement",
                      "element": "Wind"
                    },
                    {
                      "$type": "ByHitElement",
                      "element": "Fire"
                    },
                    {
                      "$type": "ByHitElement",
                      "element": "Water"
                    },
                    {
                      "$type": "ByHitElement",
                      "element": "Ice"
                    },
                    {
                      "$type": "ByHitElement",
                      "element": "Grass"
                    },
                    {
                      "$type": "ByHitElement",
                      "element": "Rock"
                    }
                  ]
                }
              ],
              "value": 1.6699999570846558,
              "maxValue": 0.0,
              "minValue": 0.0
            }
          ]
        },
        "Gadget_Invincible": {
          "modifierName": "",
          "elementDurability": 100.0,
          "state": "Invincible"
        },
        "Gadget_DenyLockOn": {
          "modifierName": "",
          "elementDurability": 100.0,
          "state": "DenyLockOn"
        },
        "Gadget_IsGhostToEnemy": {
          "modifierName": "",
          "elementDurability": 100.0,
          "state": "IsGhostToEnemy"
        },
        "Gadget_IsGhostToAllied": {
          "modifierName": "",
          "elementDurability": 100.0,
          "state": "IsGhostToAllied"
        },
        "DarkHoundGadget_ChargeEnd": {
          "modifierName": "",
          "elementDurability": 100.0,
          "onAdded": [
            {
              "$type": "ApplyModifier",
              "modifierName": "FireHolyHound_Timer"
            },
            {
              "$type": "EnableHitBoxByName",
              "hitBoxNames": ["HitBox"]
            },
            {
              "$type": "RemoveModifier",
              "modifierName": "DarkHoundGadget_ChargeState"
            }
          ]
        },
        "FireHolyHound_Timer": {
          "modifierName": "",
          "duration": 0.6499999761581421,
          "elementDurability": 100.0,
          "onAdded": [
            {
              "$type": "Predicated",
              "target": "Other",
              "otherTargets": {
                "$type": "SelectTargetsByShape",
                "topLimit": 1,
                "entityTypePriority": ["Avatar"],
                "sortType": "Nearest",
                "shapeName": "CircleR50",
                "campTargetType": "Enemy",
                "doOffStage": 1.0
              },
              "successActions": [
                {
                  "$type": "ApplyModifier",
                  "target": "TargetTeam",
                  "modifierName": "UNIQUE_Scorpion_SacredEnergy_TargetTeam"
                },
                {
                  "$type": "TriggerBullet",
                  "target": "Target",
                  "bulletID": 42610004,
                  "born": {
                    "$type": "ConfigBornByAttachPoint",
                    "offset": {
                      "x": 0.0,
                      "y": 0.0,
                      "z": 0.0
                    },
                    "direction": {
                      "$type": "ConfigDirectionByAttachPoint",
                      "angleOffset": {
                        "x": 0.0,
                        "y": 0.0,
                        "z": 0.0
                      },
                      "attachPointName": "RootNode",
                      "attachPointTargetType": "Self"
                    },
                    "useRotation": true,
                    "attachPointName": "RootNode",
                    "attachPointTargetType": "Self"
                  },
                  "trackTarget": "Target",
                  "lifeByOwnerV2": true
                }
              ]
            }
          ]
        },
        "UNIQUE_Scorpion_SacredEnergy_TargetTeam": {
          "stacking": "Unique",
          "modifierName": "",
          "forceTriggerWhenChangeAuthority": true,
          "duration": 10.0,
          "elementDurability": 100.0,
          "modifierMixins": [
            {
              "$type": "CurLocalAvatarMixinV2",
              "modifierName": "Scorpion_SacredEnergy_Target"
            }
          ]
        },
        "Scorpion_SacredEnergy_Target": {
          "modifierName": "",
          "elementDurability": 100.0,
          "onAdded": [
            {
              "$type": "SetGlobalValue",
              "value": 1.0,
              "key": "SacredEnergy_Target_Scorpion",
              "maxValue": 0.0,
              "minValue": 0.0
            }
          ],
          "onRemoved": [
            {
              "$type": "SetGlobalValue",
              "value": 0.0,
              "key": "SacredEnergy_Target_Scorpion",
              "maxValue": 0.0,
              "minValue": 0.0
            }
          ]
        }
      },
      "onAdded": [
        {
          "$type": "SetGlobalValue",
          "value": 1.0,
          "key": "Scorpion_SacredEnergy_Gadget",
          "maxValue": 0.0,
          "minValue": 0.0
        },
        {
          "$type": "ApplyModifier",
          "target": "OriginOwner",
          "modifierName": "Create_Accum_Bullet"
        },
        {
          "$type": "ApplyModifier",
          "modifierName": "DarkHoundGadget_DelayHandler"
        },
        {
          "$type": "ApplyModifier",
          "modifierName": "DarkHoundGadget_DelayHandler_Effect"
        },
        {
          "$type": "SetGlobalValue",
          "value": 0.0,
          "key": "_CHARGEBAR_VALUE",
          "maxValue": 0.0,
          "minValue": 0.0
        },
        {
          "$type": "EnablePushColliderName",
          "pushColliderNames": ["PushCollider_Occluder"],
          "setEnable": true
        },
        {
          "$type": "EnablePushColliderName",
          "pushColliderNames": ["PushCollider"]
        }
      ]
    }
  },
  {
    "Default": {
      "$type": "ConfigAbility",
      "abilityName": "Monster_Scorpion_Sacred_SacredEnergy_BridgeToMonster",
      "modifiers": {
        "UNIQUE_Have_Scorpion_SacredEnergy_Team": {
          "timeScale": "Level",
          "stacking": "Unique",
          "modifierName": "",
          "forceTriggerWhenChangeAuthority": true,
          "duration": 10.0,
          "elementDurability": 100.0,
          "thinkInterval": 1.0,
          "modifierMixins": [
            {
              "$type": "CurLocalAvatarMixinV2",
              "modifierName": "Have_Scorpion_SacredEnergy"
            },
            {
              "$type": "AttachModifierToGlobalValueMixin",
              "globalValueTarget": "Applier",
              "globalValueKey": "SacredEntityDie",
              "valueSteps": [0.5, 1.5],
              "modifierNameSteps": ["ClearSacredBuff_Scorpion"]
            }
          ],
          "state": "UnlockFrequencyLimit",
          "onAdded": [
            {
              "$type": "RemoveUniqueModifier",
              "target": "Team",
              "modifierName": "UNIQUE_Scorpion_SacredEnergy_TargetTeam"
            }
          ],
          "onThinkInterval": [
            {
              "$type": "LoseHP",
              "target": "CurTeamAvatars",
              "shieldHP": true,
              "predicates": [
                {
                  "$type": "INGPMALFKLK"
                },
                {
                  "$type": "ByNot",
                  "predicates": [
                    {
                      "$type": "GEODPIOLLCI"
                    }
                  ]
                }
              ],
              "CKDBFHCIJEK": 0.019999999552965164,
              "lethal": false,
              "enableInvincible": true,
              "enableLockHP": true,
              "disableWhenLoading": true,
              "useMeta": true,
              "BJKGFBGEFPB": ""
            },
            {
              "$type": "RemoveUniqueModifier",
              "predicates": [
                {
                  "$type": "ByNot",
                  "predicates": [
                    {
                      "$type": "ByEntityIsAlive",
                      "target": "Applier"
                    }
                  ]
                }
              ],
              "modifierName": "UNIQUE_Have_Scorpion_SacredEnergy_Team"
            }
          ],
          "onThinkIntervalIsFixedUpdate": true,
          "modifierTags": ["Corruption"]
        },
        "ClearSacredBuff_Scorpion": {
          "modifierName": "",
          "duration": 1.0,
          "elementDurability": 100.0,
          "onAdded": [
            {
              "$type": "RemoveUniqueModifier",
              "target": "Team",
              "modifierName": "UNIQUE_Scorpion_SacredEnergy_TargetTeam"
            },
            {
              "$type": "RemoveUniqueModifier",
              "target": "Team",
              "modifierName": "UNIQUE_Have_Scorpion_SacredEnergy_Team"
            }
          ],
          "onRemoved": [
            {
              "$type": "RemoveUniqueModifier",
              "target": "Team",
              "modifierName": "UNIQUE_Scorpion_SacredEnergy_TargetTeam"
            },
            {
              "$type": "RemoveUniqueModifier",
              "target": "Team",
              "modifierName": "UNIQUE_Have_Scorpion_SacredEnergy_Team"
            }
          ]
        },
        "Have_Scorpion_SacredEnergy": {
          "modifierName": "",
          "elementDurability": 100.0,
          "onAdded": [
            {
              "$type": "SetGlobalValue",
              "value": 1.0,
              "key": "SacredEnergy_Scorpion",
              "maxValue": 0.0,
              "minValue": 0.0
            },
            {
              "$type": "AttachEffect",
              "rotationDampTime": "Eff_Monster_Scorpion_Sacred_SacredEnergyOnPlayer",
              "PPPDJGDDOGD": 1.0,
              "AJDILHJFNKE": -1.0
            }
          ],
          "onRemoved": [
            {
              "$type": "SetGlobalValue",
              "value": 0.0,
              "key": "SacredEnergy_Scorpion",
              "maxValue": 0.0,
              "minValue": 0.0
            }
          ],
          "onAttackLanded": [
            {
              "$type": "Predicated",
              "target": "Other",
              "targetPredicates": [
                {
                  "$type": "ByTargetGlobalValue",
                  "key": "Monster_Scorpion_Sacred",
                  "value": 1.0
                },
                {
                  "$type": "ByEntityTypes",
                  "entityTypes": ["Monster"]
                },
                {
                  "$type": "ByAttackTags",
                  "attackTags": [
                    "NormalAttack_01",
                    "NormalAttack_02",
                    "NormalAttack_03",
                    "NormalAttack_04",
                    "NormalAttack_05",
                    "NormalAttack_06",
                    "ExtraAttack",
                    "FallingAttack",
                    "Elemental_Art",
                    "Elemental_Art_Hold",
                    "Elemental_Art_Extra",
                    "Elemental_Burst"
                  ]
                },
                {
                  "$type": "ByTargetGlobalValue",
                  "target": "Self",
                  "key": "SacredEnergy_Scorpion",
                  "value": 1.0
                }
              ],
              "successActions": [
                {
                  "$type": "IAKFMOEPFCD",
                  "watcherId": 82162,
                  "authorityOnly": true,
                  "stage": 4
                },
                {
                  "$type": "ApplyModifier",
                  "target": "Other",
                  "modifierName": "UNIQUE_SacredBeHit_Scorpion"
                },
                {
                  "$type": "RemoveUniqueModifier",
                  "target": "Team",
                  "modifierName": "UNIQUE_Have_Scorpion_SacredEnergy_Team"
                },
                {
                  "$type": "AHPEKICBIIL",
                  "shieldHP": true,
                  "predicates": [
                    {
                      "$type": "ByTargetGlobalValue",
                      "key": "_MONSTER_RoleCombat_MonsterTag",
                      "value": 1.0
                    }
                  ],
                  "luaCallType": "CurGalleryControlGroup",
                  "funcName": "SLC_RoleCombatET_PROCESS_Sacred_Lose_Energy",
                  "param1": 0.0,
                  "MGAMDEHMCOL": 0.0,
                  "MMHOHAOGPLP": 0.0
                }
              ]
            }
          ]
        },
        "UNIQUE_SacredBeHit_Scorpion": {
          "stacking": "Unique",
          "modifierName": "",
          "forceTriggerWhenChangeAuthority": true,
          "duration": 0.20000000298023224,
          "elementDurability": 100.0,
          "onAdded": [
            {
              "$type": "SetAnimatorTrigger",
              "predicates": [
                {
                  "$type": "ByNot",
                  "predicates": [
                    {
                      "$type": "ByAnimatorFloat",
                      "target": "Self",
                      "logic": "Equal",
                      "value": 203.0,
                      "parameter": "PoseID"
                    }
                  ]
                }
              ],
              "triggerID": "WeakTrigger",
              "mpTriggerOnRemote": true
            },
            {
              "$type": "FireEffect",
              "rotationDampTime": "Eff_Monster_Scorpion_Sacred_ScaredBeHit",
              "PPPDJGDDOGD": 1.0,
              "AJDILHJFNKE": -1.0
            },
            {
              "$type": "LoseHP",
              "CKDBFHCIJEK": 0.15000000596046448,
              "BJKGFBGEFPB": ""
            }
          ]
        }
      },
      "onAbilityStart": [
        {
          "$type": "Predicated",
          "otherTargets": {
            "$type": "SelectTargetsByShape",
            "topLimit": 1,
            "entityTypePriority": ["Avatar"],
            "sortType": "Nearest",
            "shapeName": "CircleR100",
            "campTargetType": "Enemy",
            "doOffStage": 1.0
          },
          "predicates": [
            {
              "$type": "ByTargetGlobalValue",
              "key": "SacredEnergy_Target_Scorpion",
              "value": 1.0
            }
          ],
          "successActions": [
            {
              "$type": "ApplyModifier",
              "target": "TargetTeam",
              "modifierName": "UNIQUE_Have_Scorpion_SacredEnergy_Team"
            }
          ]
        }
      ]
    }
  },
  {
    "Default": {
      "$type": "ConfigAbility",
      "abilityName": "Monster_Scorpion_Sacred_SacredEnergy_Bullet",
      "modifiers": {
        "HolyHoundBullet_Effect": {
          "modifierName": "",
          "elementDurability": 100.0,
          "onAdded": [
            {
              "$type": "AttachEffect",
              "rotationDampTime": "Eff_Monster_Scorpion_Sacred_SacredEnergyBullet",
              "PPPDJGDDOGD": 1.0,
              "AJDILHJFNKE": -1.0
            }
          ]
        },
        "TriggerLogicSacredEnergy": {
          "stacking": "Unique",
          "modifierName": "",
          "duration": 1.0,
          "elementDurability": 100.0,
          "onAdded": [
            {
              "$type": "TriggerAbility",
              "abilityName": "Monster_Scorpion_Sacred_SacredEnergy_BridgeToMonster"
            }
          ]
        }
      },
      "onAdded": [
        {
          "$type": "ApplyModifier",
          "modifierName": "HolyHoundBullet_Effect"
        }
      ],
      "onAbilityStart": [
        {
          "$type": "Predicated",
          "target": "Target",
          "targetPredicates": [
            {
              "$type": "ByTargetGlobalValue",
              "key": "SacredEnergy_Target_Scorpion",
              "value": 1.0
            }
          ],
          "successActions": [
            {
              "$type": "ApplyModifier",
              "target": "OriginOwner",
              "modifierName": "TriggerLogicSacredEnergy"
            },
            {
              "$type": "FireEffect",
              "target": "Target",
              "predicates": [
                {
                  "$type": "ByEntityIsAlive"
                }
              ],
              "rotationDampTime": "Eff_Monster_Scorpion_Sacred_SacredEnergyHitPlayer",
              "born": {
                "$type": "ConfigBornByTarget",
                "useRotation": true
              },
              "PPPDJGDDOGD": 1.0,
              "AJDILHJFNKE": -1.0
            },
            {
              "$type": "KillSelf"
            }
          ]
        }
      ]
    }
  },
  {
    "Default": {
      "$type": "ConfigAbility",
      "abilityName": "Monster_Scorpion_Sacred_SacredEnergy_Bullet_ToMonster",
      "modifiers": {
        "SacredEnergyRecoverLabel": {
          "modifierName": "",
          "duration": 0.20000000298023224,
          "elementDurability": 100.0,
          "onAdded": [
            {
              "$type": "SetGlobalValue",
              "predicates": [
                {
                  "$type": "ByAny",
                  "predicates": [
                    {
                      "$type": "ByAnimatorFloat",
                      "target": "Self",
                      "logic": "Equal",
                      "value": 201.0,
                      "parameter": "PoseID"
                    },
                    {
                      "$type": "ByAnimatorFloat",
                      "target": "Self",
                      "logic": "Equal",
                      "value": 203.0,
                      "parameter": "PoseID"
                    }
                  ]
                }
              ],
              "value": 1.0,
              "key": "SacredEnergy_Recover_Scorpion",
              "maxValue": 0.0,
              "minValue": 0.0
            }
          ]
        },
        "HolyHoundBullet_Effect": {
          "modifierName": "",
          "elementDurability": 100.0,
          "onAdded": [
            {
              "$type": "AttachEffect",
              "rotationDampTime": "Eff_Monster_Scorpion_Sacred_SacredEnergyBullet",
              "PPPDJGDDOGD": 1.0,
              "AJDILHJFNKE": -1.0
            }
          ]
        }
      },
      "onAdded": [
        {
          "$type": "ApplyModifier",
          "modifierName": "HolyHoundBullet_Effect"
        }
      ],
      "onAbilityStart": [
        {
          "$type": "Predicated",
          "target": "Target",
          "targetPredicates": [
            {
              "$type": "ByTargetGlobalValue",
              "key": "Monster_Scorpion_Sacred",
              "value": 1.0
            },
            {
              "$type": "ByTargetGlobalValue",
              "key": "_SACRED_ENTITY_ALERTNESS_TAG_",
              "value": 1.0
            }
          ],
          "successActions": [
            {
              "$type": "ApplyModifier",
              "target": "Target",
              "modifierName": "SacredEnergyRecoverLabel"
            },
            {
              "$type": "FireEffect",
              "target": "Target",
              "rotationDampTime": "Eff_Monster_Scorpion_Sacred_SacredEnergyHitMonster",
              "PPPDJGDDOGD": 1.0,
              "AJDILHJFNKE": -1.0
            },
            {
              "$type": "KillSelf"
            }
          ]
        },
        {
          "$type": "Predicated",
          "target": "Target",
          "targetPredicates": [
            {
              "$type": "ByTargetGlobalValue",
              "key": "Monster_Scorpion_Sacred",
              "value": 1.0
            },
            {
              "$type": "ByTargetGlobalValue",
              "key": "_SACRED_ENTITY_ALERTNESS_TAG_",
              "value": 0.0,
              "compareType": "NoneOrEqual"
            }
          ],
          "successActions": [
            {
              "$type": "KillSelf"
            }
          ]
        }
      ]
    }
  },
  {
    "Default": {
      "$type": "ConfigAbility",
      "abilityName": "Monster_Scorpion_Sacred_EnhanceDefence",
      "abilityMixins": [
        {
          "$type": "LEOGLBFIELL",
          "poseIDs": [202],
          "modifierName": "Scorpion_Sacred_EnhanceDefence"
        }
      ],
      "modifiers": {
        "Scorpion_Sacred_FrozenResistance": {
          "modifierName": "",
          "elementDurability": 100.0,
          "onAdded": [
            {
              "$type": "AttachAbilityStateResistance",
              "resistanceListID": 14002,
              "durationRatio": 0.5
            }
          ]
        },
        "Scorpion_Sacred_EnhanceDefence": {
          "modifierName": "",
          "elementDurability": 100.0,
          "properties": {
            "Actor_PhysicalSubHurtDelta": 0.30000001192092896,
            "Actor_FireSubHurtDelta": 0.30000001192092896,
            "Actor_ElecSubHurtDelta": 0.6000000238418579,
            "Actor_WaterSubHurtDelta": 0.30000001192092896,
            "Actor_GrassSubHurtDelta": 0.30000001192092896,
            "Actor_WindSubHurtDelta": 0.30000001192092896,
            "Actor_IceSubHurtDelta": 0.30000001192092896,
            "Actor_RockSubHurtDelta": 0.30000001192092896
          }
        }
      },
      "onAdded": [
        {
          "$type": "AttachModifier",
          "modifierName": "Scorpion_Sacred_FrozenResistance"
        }
      ]
    }
  }
]
