[
  {
    "Default": {
      "$type": "ConfigAbility",
      "abilityName": "Monster_MachinaIustitia_Recon_Pose",
      "abilityMixins": [
        {
          "$type": "AttachModifierToSelfGlobalValueMixin",
          "globalValueKey": "_MACHINAIUSTITIA_STATIC_STATE_",
          "gvInTalk": 0.0,
          "valueSteps": [-1.5, -0.5, 0.5, 1.5],
          "modifierNameSteps": [
            "Pose_Init_Pneuma",
            "Pose_Init_Normal",
            "Pose_Init_Ousia"
          ]
        },
        {
          "$type": "AttachModifierToSelfGlobalValueMixin",
          "globalValueKey": "arkheGradeKey",
          "gvInTalk": 0.0,
          "valueSteps": [-1.5, -0.5, 0.5, 1.5],
          "modifierNameSteps": ["Pose_Pneuma_1", "Pose_Normal", "Pose_Ousia_1"]
        },
        {
          "$type": "CADNOOEAFHD",
          "actionQueue": [
            {
              "$type": "SetAnimatorTrigger",
              "predicates": [
                {
                  "$type": "ByEntityIsAlive",
                  "target": "Self"
                },
                {
                  "$type": "ByTargetGlobalValue",
                  "key": "arkheGradeKey",
                  "value": 0.0
                }
              ],
              "triggerID": "HitSpecialTrigger"
            },
            {
              "$type": "IDNGFEEBPAM",
              "boolID": "Collect1"
            },
            {
              "$type": "IDNGFEEBPAM",
              "boolID": "Collect2"
            },
            {
              "$type": "IDNGFEEBPAM",
              "boolID": "NoCollect"
            }
          ]
        }
      ],
      "modifiers": {
        "Pose_Init_Pneuma": {
          "modifierName": "",
          "elementDurability": 100.0,
          "onAdded": [
            {
              "$type": "PILJLANJHMK",
              "value": -1.0,
              "key": "arkheGradeKey",
              "maxValue": 0.0,
              "minValue": 0.0
            }
          ]
        },
        "Pose_Init_Normal": {
          "modifierName": "",
          "elementDurability": 100.0,
          "onAdded": [
            {
              "$type": "PILJLANJHMK",
              "value": 0.0,
              "key": "arkheGradeKey",
              "maxValue": 0.0,
              "minValue": 0.0
            }
          ]
        },
        "Pose_Init_Ousia": {
          "modifierName": "",
          "elementDurability": 100.0,
          "onAdded": [
            {
              "$type": "PILJLANJHMK",
              "value": 1.0,
              "key": "arkheGradeKey",
              "maxValue": 0.0,
              "minValue": 0.0
            },
            {
              "$type": "AttachModifier",
              "modifierName": "Recon_Ousia_EventPatternHandler"
            }
          ]
        },
        "Pose_Pneuma_1": {
          "modifierName": "",
          "elementDurability": 100.0,
          "modifierMixins": [
            {
              "$type": "AOKOIIHJJPJ",
              "alertness": [2],
              "modifierName": "Recon_Siren_ColorHandler"
            }
          ],
          "onAdded": [
            {
              "$type": "GFFKENEJFFB",
              "intID": "StateTag",
              "value": -1
            },
            {
              "$type": "SetAnimatorInt",
              "intID": "StateTag",
              "value": -1.0
            },
            {
              "$type": "SetAnimatorInt",
              "intID": "EnergyTag",
              "value": -1.0
            },
            {
              "$type": "ResetAnimatorTrigger",
              "triggerID": "HitSpecialTrigger"
            },
            {
              "$type": "RemoveModifier",
              "modifierName": "Recon_SelfRepair_Delay"
            }
          ]
        },
        "Pose_Normal": {
          "modifierName": "",
          "elementDurability": 100.0,
          "onAdded": [
            {
              "$type": "GFFKENEJFFB",
              "intID": "StateTag"
            },
            {
              "$type": "SetAnimatorInt",
              "intID": "StateTag",
              "value": 0.0
            },
            {
              "$type": "SetAnimatorInt",
              "intID": "EnergyTag",
              "value": 0.0
            },
            {
              "$type": "SetGlobalValue",
              "value": 1.0,
              "key": "_MACHINAIUSTITIA_NEEDREPAIR_",
              "maxValue": 0.0,
              "minValue": 0.0
            },
            {
              "$type": "SetGlobalValue",
              "value": 0.0,
              "key": "_MACHINAIUSTITIA_RECON_SIREN_COLOR_",
              "maxValue": 0.0,
              "minValue": 0.0
            },
            {
              "$type": "AttachModifier",
              "modifierName": "Recon_SelfRepair_Delay"
            }
          ]
        },
        "Pose_Ousia_1": {
          "modifierName": "",
          "elementDurability": 100.0,
          "modifierMixins": [
            {
              "$type": "AOKOIIHJJPJ",
              "alertness": [2],
              "modifierName": "Recon_Siren_ColorHandler"
            }
          ],
          "onAdded": [
            {
              "$type": "GFFKENEJFFB",
              "intID": "StateTag",
              "value": 1
            },
            {
              "$type": "SetAnimatorInt",
              "intID": "StateTag",
              "value": 1.0
            },
            {
              "$type": "SetAnimatorInt",
              "intID": "EnergyTag",
              "value": 1.0
            },
            {
              "$type": "ResetAnimatorTrigger",
              "triggerID": "HitSpecialTrigger"
            },
            {
              "$type": "RemoveModifier",
              "modifierName": "Recon_SelfRepair_Delay"
            }
          ]
        },
        "Recon_Ousia_EventPatternHandler": {
          "modifierName": "",
          "elementDurability": 100.0,
          "modifierMixins": [
            {
              "$type": "ReplaceEventPatternMixin"
            }
          ]
        },
        "Recon_Siren_ColorHandler": {
          "modifierName": "",
          "elementDurability": 100.0,
          "onAdded": [
            {
              "$type": "SetGlobalValue",
              "value": 1.0,
              "key": "_MACHINAIUSTITIA_RECON_SIREN_COLOR_",
              "maxValue": 0.0,
              "minValue": 0.0
            }
          ]
        },
        "Recon_SelfRepair_Delay": {
          "modifierName": "",
          "duration": 50.0,
          "elementDurability": 100.0,
          "onRemoved": [
            {
              "$type": "SetGlobalValue",
              "predicates": [
                {
                  "$type": "ByNot",
                  "predicates": [
                    {
                      "$type": "ByAnimatorFloat",
                      "logic": "Equal",
                      "value": 901.0,
                      "parameter": "PoseID"
                    },
                    {
                      "$type": "ByAnimatorFloat",
                      "logic": "Equal",
                      "value": 1.0,
                      "parameter": "PoseID"
                    },
                    {
                      "$type": "ByAnimatorFloat",
                      "logic": "Equal",
                      "value": 11.0,
                      "parameter": "PoseID"
                    },
                    {
                      "$type": "ByAnimatorFloat",
                      "logic": "Equal",
                      "value": 21.0,
                      "parameter": "PoseID"
                    },
                    {
                      "$type": "ByAnimatorFloat",
                      "logic": "Equal",
                      "value": 9001.0,
                      "parameter": "PoseID"
                    },
                    {
                      "$type": "ByAnimatorFloat",
                      "logic": "Equal",
                      "value": 9002.0,
                      "parameter": "PoseID"
                    },
                    {
                      "$type": "ByAnimatorFloat",
                      "logic": "Equal",
                      "value": 9003.0,
                      "parameter": "PoseID"
                    }
                  ]
                }
              ],
              "value": 1.0,
              "key": "_MACHINAIUSTITIA_SELFRECOVER_",
              "maxValue": 0.0,
              "minValue": 0.0
            }
          ]
        }
      },
      "onAdded": [
        {
          "$type": "SetGlobalValue",
          "value": 0.0,
          "key": "_MACHINAIUSTITIA_NEEDREPAIR_",
          "maxValue": 0.0,
          "minValue": 0.0
        },
        {
          "$type": "SetGlobalValue",
          "value": 0.0,
          "key": "_MACHINAIUSTITIA_SELFRECOVER_",
          "maxValue": 0.0,
          "minValue": 0.0
        }
      ]
    }
  },
  {
    "Default": {
      "$type": "ConfigAbility",
      "abilityName": "Monster_MachinaIustitia_Recon_CoilEffect",
      "abilityMixins": [
        {
          "$type": "AttachModifierToSelfGlobalValueMixin",
          "globalValueKey": "_MACHINAIUSTITIA_COIL_STATE_",
          "gvInTalk": 0.0,
          "valueSteps": [-0.5, 0.5, 1.5],
          "modifierNameSteps": [
            "MachinaIustitia_Recon_CoilEffect01_Handler",
            "MachinaIustitia_Recon_CoilEffect02_Handler"
          ]
        }
      ],
      "modifiers": {
        "MachinaIustitia_Recon_CoilEffect01_Handler": {
          "modifierName": "",
          "elementDurability": 100.0,
          "modifierMixins": [
            {
              "$type": "AttachModifierToSelfGlobalValueMixin",
              "globalValueKey": "arkheGradeKey",
              "gvInTalk": 0.0,
              "valueSteps": [-1.5, -0.5, 0.5, 1.5],
              "modifierNameSteps": [
                "MachinaIustitia_Recon_CoilEffect01_Pneuma",
                "Blank",
                "MachinaIustitia_Recon_CoilEffect01_Ousia"
              ]
            }
          ]
        },
        "MachinaIustitia_Recon_CoilEffect02_Handler": {
          "modifierName": "",
          "elementDurability": 100.0,
          "modifierMixins": [
            {
              "$type": "AttachModifierToSelfGlobalValueMixin",
              "globalValueKey": "arkheGradeKey",
              "gvInTalk": 0.0,
              "valueSteps": [-1.5, -0.5, 0.5, 1.5],
              "modifierNameSteps": [
                "MachinaIustitia_Recon_CoilEffect02_Pneuma",
                "Blank",
                "MachinaIustitia_Recon_CoilEffect02_Ousia"
              ]
            }
          ]
        },
        "MachinaIustitia_Recon_CoilEffect01_Pneuma": {
          "modifierName": "",
          "elementDurability": 100.0,
          "onAdded": [
            {
              "$type": "AttachEffect",
              "rotationDampTime": "Eff_Monster_MachinaIustitia_Recon_Coil01_Pneuma",
              "born": {
                "$type": "ConfigBornByAttachPoint",
                "offset": {
                  "x": 0.0,
                  "y": 0.0,
                  "z": 0.0
                },
                "useRotation": true,
                "attachPointName": "CoilAttachPoint01"
              },
              "PPPDJGDDOGD": 1.0,
              "AJDILHJFNKE": -1.0
            }
          ]
        },
        "MachinaIustitia_Recon_CoilEffect01_Ousia": {
          "modifierName": "",
          "elementDurability": 100.0,
          "onAdded": [
            {
              "$type": "AttachEffect",
              "rotationDampTime": "Eff_Monster_MachinaIustitia_Recon_Coil01_Ousia",
              "born": {
                "$type": "ConfigBornByAttachPoint",
                "offset": {
                  "x": 0.0,
                  "y": 0.0,
                  "z": 0.0
                },
                "useRotation": true,
                "attachPointName": "CoilAttachPoint01"
              },
              "PPPDJGDDOGD": 1.0,
              "AJDILHJFNKE": -1.0
            }
          ]
        },
        "MachinaIustitia_Recon_CoilEffect02_Pneuma": {
          "modifierName": "",
          "elementDurability": 100.0,
          "onAdded": [
            {
              "$type": "AttachEffect",
              "rotationDampTime": "Eff_Monster_MachinaIustitia_Recon_Coil02_Pneuma",
              "born": {
                "$type": "ConfigBornByAttachPoint",
                "offset": {
                  "x": 0.0,
                  "y": 0.0,
                  "z": 0.0
                },
                "useRotation": true,
                "attachPointName": "CoilAttachPoint02"
              },
              "PPPDJGDDOGD": 1.0,
              "AJDILHJFNKE": -1.0
            }
          ]
        },
        "MachinaIustitia_Recon_CoilEffect02_Ousia": {
          "modifierName": "",
          "elementDurability": 100.0,
          "onAdded": [
            {
              "$type": "AttachEffect",
              "rotationDampTime": "Eff_Monster_MachinaIustitia_Recon_Coil02_Ousia",
              "born": {
                "$type": "ConfigBornByAttachPoint",
                "offset": {
                  "x": 0.0,
                  "y": 0.0,
                  "z": 0.0
                },
                "useRotation": true,
                "attachPointName": "CoilAttachPoint02"
              },
              "PPPDJGDDOGD": 1.0,
              "AJDILHJFNKE": -1.0
            }
          ]
        },
        "Blank": {
          "modifierName": "",
          "elementDurability": 100.0
        }
      },
      "onKill": [
        {
          "$type": "RemoveModifier",
          "modifierName": "MachinaIustitia_Recon_CoilEffect01_Pneuma"
        },
        {
          "$type": "RemoveModifier",
          "modifierName": "MachinaIustitia_Recon_CoilEffect01_Ousia"
        },
        {
          "$type": "RemoveModifier",
          "modifierName": "MachinaIustitia_Recon_CoilEffect02_Pneuma"
        },
        {
          "$type": "RemoveModifier",
          "modifierName": "MachinaIustitia_Recon_CoilEffect02_Ousia"
        }
      ]
    }
  },
  {
    "Default": {
      "$type": "ConfigAbility",
      "abilityName": "Monster_MachinaIustitia_Recon_Steer",
      "abilityMixins": [
        {
          "$type": "MFGGKNJLABP",
          "PNAPPKMKAJP": ["Alert"],
          "angularSpeed": 180.0,
          "attackTrigger": ""
        },
        {
          "$type": "MFGGKNJLABP",
          "PNAPPKMKAJP": ["Run"],
          "endNormalizedTime": 999.0,
          "GINJMMLNHIA": 60.0,
          "HIFACMDKHHK": -60.0,
          "angularSpeed": 40.0,
          "attackTrigger": ""
        },
        {
          "$type": "MFGGKNJLABP",
          "PNAPPKMKAJP": ["Turn"],
          "endNormalizedTime": 999.0,
          "angularSpeed": 60.0,
          "attackTrigger": ""
        },
        {
          "$type": "MFGGKNJLABP",
          "PNAPPKMKAJP": ["RushAtk"],
          "startNormalizedTime": 0.15000000596046448,
          "endNormalizedTime": 0.41999998688697815,
          "GINJMMLNHIA": 60.0,
          "HIFACMDKHHK": -60.0,
          "angularSpeed": 120.0,
          "attackTrigger": ""
        },
        {
          "$type": "MFGGKNJLABP",
          "PNAPPKMKAJP": ["Shoot"],
          "startNormalizedTime": 0.15000000596046448,
          "endNormalizedTime": 0.46000000834465027,
          "GINJMMLNHIA": 60.0,
          "HIFACMDKHHK": -60.0,
          "angularSpeed": 180.0,
          "attackTrigger": ""
        }
      ]
    }
  },
  {
    "Default": {
      "$type": "ConfigAbility",
      "abilityName": "Monster_MachinaIustitia_Recon_SirenEffect_ColorHandler",
      "abilityMixins": [
        {
          "$type": "AttachModifierToSelfGlobalValueMixin",
          "globalValueKey": "_MACHINAIUSTITIA_RECON_SIREN_COLOR_",
          "gvInTalk": 0.0,
          "valueSteps": [-0.5, 0.5, 1.5],
          "modifierNameSteps": [
            "Recon_SirenEffect_White",
            "Recon_SirenEffect_Red"
          ]
        }
      ],
      "modifiers": {
        "Recon_SirenEffect": {
          "modifierName": "",
          "elementDurability": 100.0,
          "onAdded": [
            {
              "$type": "AttachEffect",
              "rotationDampTime": "Eff_Monster_MachinaIustitia_Recon_Siren",
              "PPPDJGDDOGD": 1.0,
              "AJDILHJFNKE": -1.0
            }
          ]
        },
        "Recon_SirenEffect_White": {
          "modifierName": "",
          "elementDurability": 100.0,
          "thinkInterval": 2.0,
          "onAdded": [
            {
              "$type": "SendEffectTrigger",
              "shieldHP": true,
              "canBeHandledOnRecover": true,
              "parameter": "ColorType",
              "attachPoint": "",
              "damageRatio": "Int",
              "rotationDampTime": "Eff_Monster_MachinaIustitia_Recon_Siren"
            }
          ],
          "onThinkInterval": [
            {
              "$type": "SendEffectTrigger",
              "shieldHP": true,
              "canBeHandledOnRecover": true,
              "parameter": "ColorType",
              "attachPoint": "",
              "damageRatio": "Int",
              "rotationDampTime": "Eff_Monster_MachinaIustitia_Recon_Siren"
            }
          ]
        },
        "Recon_SirenEffect_Red": {
          "modifierName": "",
          "elementDurability": 100.0,
          "thinkInterval": 2.0,
          "onAdded": [
            {
              "$type": "SendEffectTrigger",
              "shieldHP": true,
              "canBeHandledOnRecover": true,
              "parameter": "ColorType",
              "attachPoint": "",
              "damageRatio": "Int",
              "value": 1,
              "rotationDampTime": "Eff_Monster_MachinaIustitia_Recon_Siren"
            }
          ],
          "onThinkInterval": [
            {
              "$type": "SendEffectTrigger",
              "shieldHP": true,
              "canBeHandledOnRecover": true,
              "parameter": "ColorType",
              "attachPoint": "",
              "damageRatio": "Int",
              "value": 1,
              "rotationDampTime": "Eff_Monster_MachinaIustitia_Recon_Siren"
            }
          ]
        }
      },
      "onAdded": [
        {
          "$type": "AttachModifier",
          "modifierName": "Recon_SirenEffect"
        },
        {
          "$type": "SetGlobalValue",
          "value": 0.0,
          "key": "_MACHINAIUSTITIA_RECON_SIREN_COLOR_",
          "maxValue": 0.0,
          "minValue": 0.0
        }
      ],
      "onKill": [
        {
          "$type": "RemoveModifier",
          "modifierName": "Recon_SirenEffect"
        }
      ]
    }
  },
  {
    "Default": {
      "$type": "ConfigAbility",
      "abilityName": "Monster_MachinaIustitia_Recon_SirenEffect_StateHandler",
      "abilityMixins": [
        {
          "$type": "AOKOIIHJJPJ",
          "alertness": [2],
          "modifierName": "Recon_SirenEffectHandler"
        },
        {
          "$type": "AttachModifierToSelfGlobalValueMixin",
          "globalValueKey": "_MACHINAIUSTITIA_RECON_SIREN_STATE_",
          "gvInTalk": 0.0,
          "valueSteps": [-0.5, 0.5, 1.5],
          "modifierNameSteps": [
            "Recon_SirenEffect_Close",
            "Recon_SirenEffect_Open"
          ]
        }
      ],
      "modifiers": {
        "Recon_SirenEffectHandler": {
          "modifierName": "",
          "elementDurability": 100.0,
          "onAdded": [
            {
              "$type": "SetGlobalValue",
              "value": 1.0,
              "key": "_MACHINAIUSTITIA_RECON_SIREN_STATE_",
              "maxValue": 0.0,
              "minValue": 0.0
            },
            {
              "$type": "SetAnimatorBool",
              "boolID": "SirenTag",
              "value": true
            },
            {
              "$type": "SetAnimatorBool",
              "boolID": "GunTag",
              "value": true
            }
          ],
          "onRemoved": [
            {
              "$type": "SetGlobalValue",
              "value": 0.0,
              "key": "_MACHINAIUSTITIA_RECON_SIREN_STATE_",
              "maxValue": 0.0,
              "minValue": 0.0
            },
            {
              "$type": "SetAnimatorBool",
              "boolID": "SirenTag"
            },
            {
              "$type": "SetAnimatorBool",
              "boolID": "GunTag"
            }
          ],
          "onReconnect": [
            {
              "$type": "SetAnimatorBool",
              "boolID": "SirenTag",
              "value": true
            },
            {
              "$type": "SetAnimatorBool",
              "boolID": "GunTag",
              "value": true
            }
          ]
        },
        "Recon_SirenEffect_Close": {
          "modifierName": "",
          "elementDurability": 100.0,
          "onAdded": [
            {
              "$type": "SendEffectTrigger",
              "canBeHandledOnRecover": true,
              "parameter": "SirenTag",
              "attachPoint": "",
              "damageRatio": "Bool",
              "rotationDampTime": "Eff_Monster_MachinaIustitia_Recon_Siren"
            }
          ]
        },
        "Recon_SirenEffect_Open": {
          "modifierName": "",
          "elementDurability": 100.0,
          "onAdded": [
            {
              "$type": "FireEffect",
              "rotationDampTime": "Eff_Monster_MachinaIustitia_Recon_Siren_Alert",
              "PPPDJGDDOGD": 1.0,
              "AJDILHJFNKE": -1.0
            },
            {
              "$type": "SendEffectTrigger",
              "canBeHandledOnRecover": true,
              "parameter": "SirenTag",
              "attachPoint": "",
              "damageRatio": "Bool",
              "value": 1,
              "rotationDampTime": "Eff_Monster_MachinaIustitia_Recon_Siren"
            }
          ]
        }
      },
      "onAdded": [
        {
          "$type": "SetGlobalValue",
          "value": 0.0,
          "key": "_MACHINAIUSTITIA_RECON_SIREN_STATE_",
          "maxValue": 0.0,
          "minValue": 0.0
        }
      ]
    }
  },
  {
    "Default": {
      "$type": "ConfigAbility",
      "abilityName": "Monster_MachinaIustitia_Recon_ScanEffect_Add",
      "abilityMixins": [
        {
          "$type": "AttachToStateIDMixin",
          "stateIDs": ["Collect1", "Collect2"],
          "modifierName": "Recon_InitialCollect_ScanEffect",
          "DGFCLAIDIFI": ""
        }
      ],
      "modifiers": {
        "UNIQUE_Recon_Scan_Effect": {
          "modifierName": "",
          "forceTriggerWhenChangeAuthority": true,
          "elementDurability": 100.0,
          "onAdded": [
            {
              "$type": "AttachEffect",
              "rotationDampTime": "Eff_Monster_MachinaIustitia_Recon_Scan",
              "PPPDJGDDOGD": 1.0,
              "AJDILHJFNKE": -1.0
            }
          ]
        },
        "Recon_InitialCollect_ScanEffect": {
          "modifierName": "",
          "elementDurability": 100.0,
          "onAdded": [
            {
              "$type": "TriggerAbility",
              "abilityName": "Monster_MachinaIustitia_Recon_ScanEffect_Add"
            }
          ],
          "onRemoved": [
            {
              "$type": "TriggerAbility",
              "abilityName": "Monster_MachinaIustitia_Recon_ScanEffect_Remove"
            }
          ]
        }
      },
      "onAbilityStart": [
        {
          "$type": "AttachModifier",
          "modifierName": "UNIQUE_Recon_Scan_Effect"
        }
      ]
    }
  },
  {
    "Default": {
      "$type": "ConfigAbility",
      "abilityName": "Monster_MachinaIustitia_Recon_ScanEffect_Remove",
      "onAbilityStart": [
        {
          "$type": "RemoveUniqueModifier",
          "modifierName": "UNIQUE_Recon_Scan_Effect"
        }
      ]
    }
  },
  {
    "Default": {
      "$type": "ConfigAbility",
      "abilityName": "Monster_MachinaIustitia_Recon_Alert",
      "onAbilityStart": [
        {
          "$type": "IDNGFEEBPAM",
          "boolID": "Collect1"
        },
        {
          "$type": "IDNGFEEBPAM",
          "boolID": "Collect2"
        },
        {
          "$type": "IDNGFEEBPAM",
          "boolID": "NoCollect"
        }
      ]
    }
  },
  {
    "Default": {
      "$type": "ConfigAbility",
      "abilityName": "Monster_MachinaIustitia_Recon_ExitBattle",
      "abilityMixins": [
        {
          "$type": "AOKOIIHJJPJ",
          "alertness": [0, 1],
          "modifierName": "Recon_AlertHandler"
        },
        {
          "$type": "LEOGLBFIELL",
          "poseIDs": [901],
          "modifierName": "ExitBattle"
        }
      ],
      "modifiers": {
        "Recon_AlertHandler": {
          "modifierName": "",
          "elementDurability": 100.0,
          "onAdded": [
            {
              "$type": "RemoveUniqueModifier",
              "modifierName": "UNIQUE_MachinaIustitia_Charge_Effect_Pneuma"
            },
            {
              "$type": "RemoveUniqueModifier",
              "modifierName": "UNIQUE_MachinaIustitia_Charge_Effect_Ousia"
            }
          ],
          "onRemoved": [
            {
              "$type": "IDNGFEEBPAM",
              "boolID": "Collect1"
            },
            {
              "$type": "IDNGFEEBPAM",
              "boolID": "Collect2"
            },
            {
              "$type": "IDNGFEEBPAM",
              "boolID": "NoCollect"
            },
            {
              "$type": "RemoveUniqueModifier",
              "modifierName": "UNIQUE_MachinaIustitia_Charge_Effect_Pneuma"
            },
            {
              "$type": "RemoveUniqueModifier",
              "modifierName": "UNIQUE_MachinaIustitia_Charge_Effect_Ousia"
            }
          ]
        },
        "ExitBattle": {
          "modifierName": "",
          "elementDurability": 100.0,
          "onAdded": [
            {
              "$type": "RemoveUniqueModifier",
              "modifierName": "UNIQUE_MachinaIustitia_Charge_Effect_Pneuma"
            },
            {
              "$type": "RemoveUniqueModifier",
              "modifierName": "UNIQUE_MachinaIustitia_Charge_Effect_Ousia"
            }
          ],
          "onRemoved": [
            {
              "$type": "PILJLANJHMK",
              "predicates": [
                {
                  "$type": "ByTargetGlobalValue",
                  "key": "_MACHINAIUSTITIA_STATIC_STATE_",
                  "value": -1.0
                }
              ],
              "value": -1.0,
              "key": "arkheGradeKey",
              "maxValue": 0.0,
              "minValue": 0.0
            },
            {
              "$type": "PILJLANJHMK",
              "predicates": [
                {
                  "$type": "ByTargetGlobalValue",
                  "key": "_MACHINAIUSTITIA_STATIC_STATE_",
                  "value": 1.0
                }
              ],
              "value": 1.0,
              "key": "arkheGradeKey",
              "maxValue": 0.0,
              "minValue": 0.0
            },
            {
              "$type": "RemoveUniqueModifier",
              "modifierName": "UNIQUE_MachinaIustitia_Charge_Effect_Pneuma"
            },
            {
              "$type": "RemoveUniqueModifier",
              "modifierName": "UNIQUE_MachinaIustitia_Charge_Effect_Ousia"
            }
          ]
        }
      }
    }
  },
  {
    "Default": {
      "$type": "ConfigAbility",
      "abilityName": "Monster_MachinaIustitia_Recon_RushAtk",
      "abilityMixins": [
        {
          "$type": "AttachToStateIDMixin",
          "stateIDs": ["RushAtk"],
          "modifierName": "Recon_RushAtk_RushMove_Handler",
          "DGFCLAIDIFI": ""
        }
      ],
      "modifiers": {
        "Recon_RushAtk_RushMove": {
          "modifierName": "",
          "elementDurability": 100.0,
          "onAdded": [
            {
              "$type": "PAGFCBCKEBH",
              "toPos": {
                "$type": "ConfigBornBySelf",
                "offset": {
                  "x": 0.0,
                  "y": 0.0,
                  "z": 8.0
                },
                "useRotation": true
              },
              "NKPCHMCNNOK": 0.550000011920929,
              "animatorStateIDs": ["RushAtk"],
              "overrideMoveCollider": "",
              "isInAir": true
            }
          ]
        },
        "Recon_RushAtk_RushMove_Handler": {
          "modifierName": "",
          "elementDurability": 100.0,
          "onAdded": [
            {
              "$type": "SetGlobalValue",
              "value": 0.0,
              "key": "_RECON_RUSHATK_FOLLOWBULLET_",
              "maxValue": 0.0,
              "minValue": 0.0
            }
          ],
          "onRemoved": [
            {
              "$type": "RemoveModifier",
              "modifierName": "Recon_RushAtk_RushMove"
            },
            {
              "$type": "SetGlobalValue",
              "value": 1.0,
              "key": "_RECON_RUSHATK_FOLLOWBULLET_",
              "maxValue": 0.0,
              "minValue": 0.0
            }
          ]
        },
        "UNIQUE_Recon_RushAtk_RushMove_Effect": {
          "modifierName": "",
          "forceTriggerWhenChangeAuthority": true,
          "elementDurability": 100.0,
          "modifierMixins": [
            {
              "$type": "AttachActionToModifierMixin",
              "onAdded": [
                {
                  "$type": "EnablePushColliderName",
                  "pushColliderNames": ["PushCollider"]
                }
              ],
              "onRemoved": [
                {
                  "$type": "EnablePushColliderName",
                  "pushColliderNames": ["PushCollider"],
                  "setEnable": true
                }
              ]
            }
          ],
          "onAdded": [
            {
              "$type": "AttachEffect",
              "rotationDampTime": "Eff_Monster_MachinaIustitia_Recon_RushAtk_Loop",
              "PPPDJGDDOGD": 1.0,
              "AJDILHJFNKE": -1.0
            }
          ]
        }
      },
      "onAdded": [
        {
          "$type": "SetGlobalValue",
          "value": 0.0,
          "key": "_RECON_RUSHATK_FOLLOWBULLET_",
          "maxValue": 0.0,
          "minValue": 0.0
        }
      ],
      "onAbilityStart": [
        {
          "$type": "ApplyModifier",
          "modifierName": "Recon_RushAtk_RushMove"
        },
        {
          "$type": "TriggerBullet",
          "bulletID": 42406001,
          "born": {
            "$type": "ConfigBornBySelf",
            "offset": {
              "x": 0.0,
              "y": 0.0,
              "z": 0.0
            },
            "useRotation": true
          },
          "trackTarget": "Self",
          "lifeByOwnerV2": true
        },
        {
          "$type": "ApplyModifier",
          "modifierName": "UNIQUE_Recon_RushAtk_RushMove_Effect"
        }
      ]
    }
  },
  {
    "Default": {
      "$type": "ConfigAbility",
      "abilityName": "Monster_MachinaIustitia_Recon_RushAtk_End",
      "onAbilityStart": [
        {
          "$type": "RemoveUniqueModifier",
          "modifierName": "UNIQUE_Recon_RushAtk_RushMove_Effect"
        },
        {
          "$type": "SetGlobalValue",
          "value": 1.0,
          "key": "_RECON_RUSHATK_FOLLOWBULLET_",
          "maxValue": 0.0,
          "minValue": 0.0
        }
      ]
    }
  },
  {
    "Default": {
      "$type": "ConfigAbility",
      "abilityName": "MachinaIustitia_Recon_RushAtk_FollowBullet",
      "abilityMixins": [
        {
          "$type": "AttachModifierToGlobalValueMixin",
          "globalValueTarget": "Owner",
          "globalValueKey": "_RECON_RUSHATK_FOLLOWBULLET_",
          "valueSteps": [-0.5, 0.5, 1.5],
          "modifierNameSteps": ["Blank", "Recon_RushAtk_FollowBullet_Kill"]
        }
      ],
      "modifiers": {
        "Recon_RushAtk_FollowBullet_Kill": {
          "modifierName": "",
          "elementDurability": 100.0,
          "onAdded": [
            {
              "$type": "KillSelf"
            }
          ]
        },
        "Blank": {
          "modifierName": "",
          "elementDurability": 100.0
        }
      },
      "onAbilityStart": [
        {
          "$type": "TriggerAttackEvent",
          "attackEvent": {
            "attackPattern": {
              "$type": "ConfigAttackSphere",
              "triggerType": "TriggerNoRepeat",
              "born": {
                "$type": "ConfigBornByCollisionPoint"
              },
              "radius": 1.0
            },
            "attackInfo": {
              "attackTag": "",
              "attenuationTag": "",
              "attenuationGroup": "default",
              "attackProperty": {
                "actorGrassSubHurtDelta": 1.0,
                "actorWindSubHurtDelta": 0.0,
                "elementType": "Water",
                "elementDurability": 25.0,
                "strikeType": "Default",
                "enBreak": 25.0,
                "attackType": "Melee",
                "GLKMCMDJBIK": 0.0
              },
              "hitPattern": {
                "onHitEffectName": "default",
                "hitImpulseY": "",
                "hitImpulseType": "LV3",
                "retreatType": "ByHitDirection",
                "hitHaltTimeScale": 0.05000000074505806
              },
              "canBeModifiedBy": "OriginOwner"
            }
          },
          "targetType": "Enemy"
        }
      ]
    }
  },
  {
    "Default": {
      "$type": "ConfigAbility",
      "abilityName": "Monster_MachinaIustitia_Recon_Shoot",
      "onAbilityStart": [
        {
          "$type": "TriggerBullet",
          "bulletID": 42406002,
          "born": {
            "$type": "ConfigBornByAttachPoint",
            "direction": {
              "$type": "ConfigDirectionByAttackTarget",
              "maxAngle": 20.0,
              "startPoint": ""
            },
            "useRotation": true,
            "attachPointName": "BulletPoint"
          }
        }
      ]
    }
  },
  {
    "Default": {
      "$type": "ConfigAbility",
      "abilityName": "MachinaIustitia_Recon_Shoot_Bullet",
      "modifiers": {
        "Recon_Shoot_Bullet_Effect": {
          "modifierName": "",
          "elementDurability": 100.0,
          "onAdded": [
            {
              "$type": "AttachEffect",
              "rotationDampTime": "Eff_Monster_MachinaIustitia_Recon_Shoot_Bullet",
              "PPPDJGDDOGD": 1.0,
              "AJDILHJFNKE": -1.0
            }
          ]
        }
      },
      "onAdded": [
        {
          "$type": "AttachModifier",
          "modifierName": "Recon_Shoot_Bullet_Effect"
        }
      ],
      "onAbilityStart": [
        {
          "$type": "TriggerAttackEvent",
          "attackEvent": {
            "attackPattern": {
              "$type": "ConfigAttackSphere",
              "triggerType": "TriggerNoRepeat",
              "checkHitLayerType": "Both",
              "born": {
                "$type": "ConfigBornByCollisionPoint"
              },
              "radius": 0.6000000238418579
            },
            "attackInfo": {
              "attackTag": "",
              "attenuationTag": "",
              "attenuationGroup": "default",
              "attackProperty": {
                "actorGrassSubHurtDelta": 1.0,
                "actorWindSubHurtDelta": 0.0,
                "elementType": "Water",
                "elementDurability": 25.0,
                "strikeType": "Default",
                "enBreak": 25.0,
                "attackType": "Range",
                "GLKMCMDJBIK": 0.0
              },
              "hitPattern": {
                "onHitEffectName": "default",
                "hitImpulseY": "",
                "hitImpulseType": "LV3",
                "hitHaltTimeScale": 0.009999999776482582
              },
              "canBeModifiedBy": "OriginOwner"
            }
          },
          "targetType": "Enemy"
        },
        {
          "$type": "KillSelf"
        }
      ],
      "onKill": [
        {
          "$type": "FireEffect",
          "rotationDampTime": "Eff_Monster_MachinaIustitia_Recon_Shoot_Bullet_AS",
          "PPPDJGDDOGD": 1.0,
          "AJDILHJFNKE": -1.0
        }
      ]
    }
  },
  {
    "Default": {
      "$type": "ConfigAbility",
      "abilityName": "Monster_MachinaIustitia_Recon_Recover",
      "modifiers": {
        "Recon_Recover": {
          "modifierName": "",
          "duration": 0.20000000298023224,
          "elementDurability": 100.0,
          "onAdded": [
            {
              "$type": "SetGlobalValue",
              "value": 0.0,
              "key": "_MACHINAIUSTITIA_SELFRECOVER_",
              "maxValue": 0.0,
              "minValue": 0.0
            },
            {
              "$type": "PILJLANJHMK",
              "predicates": [
                {
                  "$type": "ByTargetGlobalValue",
                  "key": "_MACHINAIUSTITIA_STATIC_STATE_",
                  "value": -1.0
                }
              ],
              "value": -1.0,
              "key": "arkheGradeKey",
              "maxValue": 0.0,
              "minValue": 0.0
            },
            {
              "$type": "PILJLANJHMK",
              "predicates": [
                {
                  "$type": "ByTargetGlobalValue",
                  "key": "_MACHINAIUSTITIA_STATIC_STATE_",
                  "value": 1.0
                }
              ],
              "value": 1.0,
              "key": "arkheGradeKey",
              "maxValue": 0.0,
              "minValue": 0.0
            },
            {
              "$type": "TriggerAbility",
              "predicates": [
                {
                  "$type": "ByTargetGlobalValue",
                  "key": "_MACHINAIUSTITIA_STATIC_STATE_",
                  "value": -1.0
                }
              ],
              "abilityName": "Monster_MachinaIustitia_Recover_Effect_Pneuma"
            },
            {
              "$type": "TriggerAbility",
              "predicates": [
                {
                  "$type": "ByTargetGlobalValue",
                  "key": "_MACHINAIUSTITIA_STATIC_STATE_",
                  "value": 1.0
                }
              ],
              "abilityName": "Monster_MachinaIustitia_Recover_Effect_Ousia"
            }
          ]
        }
      },
      "onAbilityStart": [
        {
          "$type": "ApplyModifier",
          "modifierName": "Recon_Recover"
        }
      ]
    }
  },
  {
    "Default": {
      "$type": "ConfigAbility",
      "abilityName": "Monster_MachinaIustitia_Recon_HitSpecial",
      "abilityMixins": [
        {
          "$type": "AttachToNormalizedTimeMixin",
          "stateID": "HitSpecial",
          "modifierName": "Recon_HitSpecial",
          "normalizeEnd": 0.7440000176429749,
          "DGFCLAIDIFI": ""
        }
      ],
      "modifiers": {
        "Recon_HitSpecial": {
          "modifierName": "",
          "elementDurability": 100.0,
          "onAdded": [
            {
              "$type": "AttachEffect",
              "rotationDampTime": "Eff_Monster_MachinaIustitia_HitSpecial",
              "PPPDJGDDOGD": 1.0,
              "AJDILHJFNKE": -1.0
            }
          ]
        }
      }
    }
  }
]
