{
  "sceneId": 20222,
  "routes": [
    {
      "localId": 1,
      "name": "Route_001",
      "type": "Loop",
      "points": [
        {
          "pos": {
            "x": 124.73931884765625,
            "y": 11.136774063110352,
            "z": 2.4359660148620605
          },
          "waitTime": 3.0
        },
        {
          "pos": {
            "x": 124.73931884765625,
            "y": 11.136774063110352,
            "z": -3.454786777496338
          },
          "waitTime": 3.0
        },
        {
          "pos": {
            "x": 120.2081298828125,
            "y": 11.189985275268555,
            "z": -0.22393372654914856
          },
          "waitTime": 3.0
        }
      ],
      "rotAngleType": "ROT_ANGLE_Y",
      "isSimulateTempRouteByTime": true,
      "_isUsePreStopMove": true
    },
    {
      "localId": 2,
      "name": "Route_002",
      "type": "Loop",
      "points": [
        {
          "pos": {
            "x": 117.69548034667969,
            "y": 11.193816184997559,
            "z": 4.435705184936523
          },
          "waitTime": 4.0
        },
        {
          "pos": {
            "x": 114.81021118164062,
            "y": 11.136774063110352,
            "z": 1.8168368339538574
          }
        },
        {
          "pos": {
            "x": 114.61933898925781,
            "y": 11.19589614868164,
            "z": -4.861935615539551
          },
          "waitTime": 4.0
        }
      ],
      "rotAngleType": "ROT_ANGLE_Y",
      "isSimulateTempRouteByTime": true,
      "_isUsePreStopMove": true
    }
  ]
}
