{
  "sceneId": 47733,
  "routes": [
    {
      "localId": 1,
      "name": "Platform_001",
      "type": "Loop",
      "points": [
        {
          "pos": {
            "x": -187.87440490722656,
            "y": 6.501578330993652,
            "z": -199.843017578125
          },
          "targetVelocity": 3.0
        },
        {
          "pos": {
            "x": -187.87440490722656,
            "y": 1.5015783309936523,
            "z": -199.843017578125
          },
          "targetVelocity": 3.0
        }
      ],
      "rotAngleType": "ROT_ANGLE_Y",
      "isSimulateTempRouteByTime": true,
      "_isUsePreStopMove": true
    },
    {
      "localId": 2,
      "name": "Platform_001",
      "type": "Loop",
      "points": [
        {
          "pos": {
            "x": -187.87440490722656,
            "y": 8.501578330993652,
            "z": -199.843017578125
          },
          "targetVelocity": 3.0
        },
        {
          "pos": {
            "x": -187.87440490722656,
            "y": 3.5015783309936523,
            "z": -199.843017578125
          },
          "targetVelocity": 3.0
        }
      ],
      "rotAngleType": "ROT_ANGLE_Y",
      "isSimulateTempRouteByTime": true,
      "_isUsePreStopMove": true
    },
    {
      "localId": 3,
      "name": "Platform_001",
      "type": "Loop",
      "points": [
        {
          "pos": {
            "x": -187.87440490722656,
            "y": 10.501578330993652,
            "z": -199.843017578125
          },
          "targetVelocity": 3.0
        },
        {
          "pos": {
            "x": -187.87440490722656,
            "y": 5.501578330993652,
            "z": -199.843017578125
          },
          "targetVelocity": 3.0
        }
      ],
      "rotAngleType": "ROT_ANGLE_Y",
      "isSimulateTempRouteByTime": true,
      "_isUsePreStopMove": true
    },
    {
      "localId": 4,
      "name": "Platform_001",
      "type": "Loop",
      "points": [
        {
          "pos": {
            "x": -187.87440490722656,
            "y": 8.501577377319336,
            "z": -206.130615234375
          },
          "targetVelocity": 3.0
        },
        {
          "pos": {
            "x": -187.87440490722656,
            "y": 4.501577377319336,
            "z": -206.130615234375
          },
          "targetVelocity": 3.0
        }
      ],
      "rotAngleType": "ROT_ANGLE_Y",
      "isSimulateTempRouteByTime": true,
      "_isUsePreStopMove": true
    },
    {
      "localId": 5,
      "name": "Platform_001",
      "type": "Loop",
      "points": [
        {
          "pos": {
            "x": -187.87440490722656,
            "y": 4.501577854156494,
            "z": -193.41246032714844
          },
          "targetVelocity": 3.0
        },
        {
          "pos": {
            "x": -187.87440490722656,
            "y": 8.501577377319336,
            "z": -193.41246032714844
          },
          "targetVelocity": 3.0
        }
      ],
      "rotAngleType": "ROT_ANGLE_Y",
      "isSimulateTempRouteByTime": true,
      "_isUsePreStopMove": true
    },
    {
      "localId": 6,
      "name": "Platform_001",
      "type": "Reciprocate",
      "points": [
        {
          "pos": {
            "x": -187.87440490722656,
            "y": 8.462547302246094,
            "z": -201.6844940185547
          },
          "targetVelocity": 2.0
        },
        {
          "pos": {
            "x": -187.87440490722656,
            "y": 10.462550163269043,
            "z": -202.6844940185547
          },
          "targetVelocity": 2.0
        },
        {
          "pos": {
            "x": -187.87440490722656,
            "y": 11.462550163269043,
            "z": -204.6844024658203
          },
          "targetVelocity": 2.0
        },
        {
          "pos": {
            "x": -187.87440490722656,
            "y": 11.462550163269043,
            "z": -206.68429565429688
          },
          "targetVelocity": 2.0
        },
        {
          "pos": {
            "x": -187.87440490722656,
            "y": 11.462550163269043,
            "z": -208.6842041015625
          },
          "targetVelocity": 2.0
        },
        {
          "pos": {
            "x": -187.87440490722656,
            "y": 10.462550163269043,
            "z": -210.68409729003906
          },
          "targetVelocity": 2.0
        },
        {
          "pos": {
            "x": -187.87440490722656,
            "y": 8.462550163269043,
            "z": -211.68409729003906
          },
          "targetVelocity": 2.0
        },
        {
          "pos": {
            "x": -187.87440490722656,
            "y": 4.462550163269043,
            "z": -211.68409729003906
          },
          "targetVelocity": 2.0
        }
      ],
      "rotAngleType": "ROT_ANGLE_Y",
      "isSimulateTempRouteByTime": true,
      "_isUsePreStopMove": true
    },
    {
      "localId": 7,
      "name": "Platform_001",
      "type": "Reciprocate",
      "points": [
        {
          "pos": {
            "x": -187.87440490722656,
            "y": 10.462550163269043,
            "z": -202.6844940185547
          },
          "targetVelocity": 2.0
        },
        {
          "pos": {
            "x": -187.87440490722656,
            "y": 11.462550163269043,
            "z": -204.6844024658203
          },
          "targetVelocity": 2.0
        },
        {
          "pos": {
            "x": -187.87440490722656,
            "y": 11.462550163269043,
            "z": -206.68429565429688
          },
          "targetVelocity": 2.0
        },
        {
          "pos": {
            "x": -187.87440490722656,
            "y": 11.462550163269043,
            "z": -208.6842041015625
          },
          "targetVelocity": 2.0
        },
        {
          "pos": {
            "x": -187.87440490722656,
            "y": 10.462550163269043,
            "z": -210.68409729003906
          },
          "targetVelocity": 2.0
        },
        {
          "pos": {
            "x": -187.87440490722656,
            "y": 8.462550163269043,
            "z": -211.68409729003906
          },
          "targetVelocity": 2.0
        },
        {
          "pos": {
            "x": -187.87440490722656,
            "y": 4.462550163269043,
            "z": -211.68409729003906
          },
          "targetVelocity": 2.0
        },
        {
          "pos": {
            "x": -187.87440490722656,
            "y": 2.462550163269043,
            "z": -210.68409729003906
          },
          "targetVelocity": 2.0
        }
      ],
      "rotAngleType": "ROT_ANGLE_Y",
      "isSimulateTempRouteByTime": true,
      "_isUsePreStopMove": true
    },
    {
      "localId": 8,
      "name": "Platform_001",
      "type": "Reciprocate",
      "points": [
        {
          "pos": {
            "x": -187.87440490722656,
            "y": 11.462550163269043,
            "z": -204.6844024658203
          },
          "targetVelocity": 2.0
        },
        {
          "pos": {
            "x": -187.87440490722656,
            "y": 11.462550163269043,
            "z": -206.68429565429688
          },
          "targetVelocity": 2.0
        },
        {
          "pos": {
            "x": -187.87440490722656,
            "y": 11.462550163269043,
            "z": -208.6842041015625
          },
          "targetVelocity": 2.0
        },
        {
          "pos": {
            "x": -187.87440490722656,
            "y": 10.462550163269043,
            "z": -210.68409729003906
          },
          "targetVelocity": 2.0
        },
        {
          "pos": {
            "x": -187.87440490722656,
            "y": 8.462550163269043,
            "z": -211.68409729003906
          },
          "targetVelocity": 2.0
        },
        {
          "pos": {
            "x": -187.87440490722656,
            "y": 4.462550163269043,
            "z": -211.68409729003906
          },
          "targetVelocity": 2.0
        },
        {
          "pos": {
            "x": -187.87440490722656,
            "y": 2.462550163269043,
            "z": -210.68409729003906
          },
          "targetVelocity": 2.0
        },
        {
          "pos": {
            "x": -187.87440490722656,
            "y": 1.462550163269043,
            "z": -208.68409729003906
          },
          "targetVelocity": 2.0
        }
      ],
      "rotAngleType": "ROT_ANGLE_Y",
      "isSimulateTempRouteByTime": true,
      "_isUsePreStopMove": true
    },
    {
      "localId": 9,
      "name": "Platform_001",
      "type": "Reciprocate",
      "points": [
        {
          "pos": {
            "x": -187.87440490722656,
            "y": 11.462550163269043,
            "z": -206.68429565429688
          },
          "targetVelocity": 2.0
        },
        {
          "pos": {
            "x": -187.87440490722656,
            "y": 11.462550163269043,
            "z": -208.6842041015625
          },
          "targetVelocity": 2.0
        },
        {
          "pos": {
            "x": -187.87440490722656,
            "y": 10.462550163269043,
            "z": -210.68409729003906
          },
          "targetVelocity": 2.0
        },
        {
          "pos": {
            "x": -187.87440490722656,
            "y": 8.462550163269043,
            "z": -211.68409729003906
          },
          "targetVelocity": 2.0
        },
        {
          "pos": {
            "x": -187.87440490722656,
            "y": 4.462550163269043,
            "z": -211.68409729003906
          },
          "targetVelocity": 2.0
        },
        {
          "pos": {
            "x": -187.87440490722656,
            "y": 2.462550163269043,
            "z": -210.68409729003906
          },
          "targetVelocity": 2.0
        },
        {
          "pos": {
            "x": -187.87440490722656,
            "y": 1.462550163269043,
            "z": -208.68409729003906
          },
          "targetVelocity": 2.0
        },
        {
          "pos": {
            "x": -187.87440490722656,
            "y": 1.462550163269043,
            "z": -206.68409729003906
          },
          "targetVelocity": 2.0
        }
      ],
      "rotAngleType": "ROT_ANGLE_Y",
      "isSimulateTempRouteByTime": true,
      "_isUsePreStopMove": true
    },
    {
      "localId": 10,
      "name": "Platform_001",
      "type": "Reciprocate",
      "points": [
        {
          "pos": {
            "x": -187.87440490722656,
            "y": 11.462550163269043,
            "z": -208.6842041015625
          },
          "targetVelocity": 2.0
        },
        {
          "pos": {
            "x": -187.87440490722656,
            "y": 10.462550163269043,
            "z": -210.68409729003906
          },
          "targetVelocity": 2.0
        },
        {
          "pos": {
            "x": -187.87440490722656,
            "y": 8.462550163269043,
            "z": -211.68409729003906
          },
          "targetVelocity": 2.0
        },
        {
          "pos": {
            "x": -187.87440490722656,
            "y": 4.462550163269043,
            "z": -211.68409729003906
          },
          "targetVelocity": 2.0
        },
        {
          "pos": {
            "x": -187.87440490722656,
            "y": 2.462550163269043,
            "z": -210.68409729003906
          },
          "targetVelocity": 2.0
        },
        {
          "pos": {
            "x": -187.87440490722656,
            "y": 1.462550163269043,
            "z": -208.68409729003906
          },
          "targetVelocity": 2.0
        },
        {
          "pos": {
            "x": -187.87440490722656,
            "y": 1.462550163269043,
            "z": -206.68409729003906
          },
          "targetVelocity": 2.0
        },
        {
          "pos": {
            "x": -187.87440490722656,
            "y": 1.462550163269043,
            "z": -204.68409729003906
          },
          "targetVelocity": 2.0
        }
      ],
      "rotAngleType": "ROT_ANGLE_Y",
      "isSimulateTempRouteByTime": true,
      "_isUsePreStopMove": true
    },
    {
      "localId": 11,
      "name": "Platform_001",
      "type": "Reciprocate",
      "points": [
        {
          "pos": {
            "x": -187.87440490722656,
            "y": 10.462550163269043,
            "z": -210.68409729003906
          },
          "targetVelocity": 2.0
        },
        {
          "pos": {
            "x": -187.87440490722656,
            "y": 8.462550163269043,
            "z": -211.68409729003906
          },
          "targetVelocity": 2.0
        },
        {
          "pos": {
            "x": -187.87440490722656,
            "y": 4.462550163269043,
            "z": -211.68409729003906
          },
          "targetVelocity": 2.0
        },
        {
          "pos": {
            "x": -187.87440490722656,
            "y": 2.462550163269043,
            "z": -210.68409729003906
          },
          "targetVelocity": 2.0
        },
        {
          "pos": {
            "x": -187.87440490722656,
            "y": 1.462550163269043,
            "z": -208.68409729003906
          },
          "targetVelocity": 2.0
        },
        {
          "pos": {
            "x": -187.87440490722656,
            "y": 1.462550163269043,
            "z": -206.68409729003906
          },
          "targetVelocity": 2.0
        },
        {
          "pos": {
            "x": -187.87440490722656,
            "y": 1.462550163269043,
            "z": -204.68409729003906
          },
          "targetVelocity": 2.0
        },
        {
          "pos": {
            "x": -187.87440490722656,
            "y": 2.462550163269043,
            "z": -202.68409729003906
          },
          "targetVelocity": 2.0
        }
      ],
      "rotAngleType": "ROT_ANGLE_Y",
      "isSimulateTempRouteByTime": true,
      "_isUsePreStopMove": true
    },
    {
      "localId": 12,
      "name": "Platform_001",
      "type": "Reciprocate",
      "points": [
        {
          "pos": {
            "x": -187.87440490722656,
            "y": 8.462550163269043,
            "z": -211.68409729003906
          },
          "targetVelocity": 2.0
        },
        {
          "pos": {
            "x": -187.87440490722656,
            "y": 4.462550163269043,
            "z": -211.68409729003906
          },
          "targetVelocity": 2.0
        },
        {
          "pos": {
            "x": -187.87440490722656,
            "y": 2.462550163269043,
            "z": -210.68409729003906
          },
          "targetVelocity": 2.0
        },
        {
          "pos": {
            "x": -187.87440490722656,
            "y": 1.462550163269043,
            "z": -208.68409729003906
          },
          "targetVelocity": 2.0
        },
        {
          "pos": {
            "x": -187.87440490722656,
            "y": 1.462550163269043,
            "z": -206.68409729003906
          },
          "targetVelocity": 2.0
        },
        {
          "pos": {
            "x": -187.87440490722656,
            "y": 1.462550163269043,
            "z": -204.68409729003906
          },
          "targetVelocity": 2.0
        },
        {
          "pos": {
            "x": -187.87440490722656,
            "y": 2.462550163269043,
            "z": -202.68409729003906
          },
          "targetVelocity": 2.0
        },
        {
          "pos": {
            "x": -187.87440490722656,
            "y": 4.462550163269043,
            "z": -201.68409729003906
          },
          "targetVelocity": 2.0
        }
      ],
      "rotAngleType": "ROT_ANGLE_Y",
      "isSimulateTempRouteByTime": true,
      "_isUsePreStopMove": true
    },
    {
      "localId": 13,
      "name": "Platform_001",
      "type": "Reciprocate",
      "points": [
        {
          "pos": {
            "x": -187.87440490722656,
            "y": 6.462550163269043,
            "z": -211.68409729003906
          },
          "targetVelocity": 2.0
        },
        {
          "pos": {
            "x": -187.87440490722656,
            "y": 4.462550163269043,
            "z": -211.68409729003906
          },
          "targetVelocity": 2.0
        },
        {
          "pos": {
            "x": -187.87440490722656,
            "y": 2.462550163269043,
            "z": -210.68409729003906
          },
          "targetVelocity": 2.0
        },
        {
          "pos": {
            "x": -187.87440490722656,
            "y": 1.462550163269043,
            "z": -208.68409729003906
          },
          "targetVelocity": 2.0
        },
        {
          "pos": {
            "x": -187.87440490722656,
            "y": 1.462550163269043,
            "z": -206.68409729003906
          },
          "targetVelocity": 2.0
        },
        {
          "pos": {
            "x": -187.87440490722656,
            "y": 1.462550163269043,
            "z": -204.68409729003906
          },
          "targetVelocity": 2.0
        },
        {
          "pos": {
            "x": -187.87440490722656,
            "y": 2.462550163269043,
            "z": -202.68409729003906
          },
          "targetVelocity": 2.0
        },
        {
          "pos": {
            "x": -187.87440490722656,
            "y": 4.462550163269043,
            "z": -201.68409729003906
          },
          "targetVelocity": 2.0
        },
        {
          "pos": {
            "x": -187.87440490722656,
            "y": 6.462550163269043,
            "z": -201.68409729003906
          },
          "targetVelocity": 2.0
        }
      ],
      "rotAngleType": "ROT_ANGLE_Y",
      "isSimulateTempRouteByTime": true,
      "_isUsePreStopMove": true
    },
    {
      "localId": 14,
      "name": "Platform_001",
      "type": "Reciprocate",
      "points": [
        {
          "pos": {
            "x": -187.87440490722656,
            "y": 4.462550163269043,
            "z": -211.68409729003906
          },
          "targetVelocity": 2.0
        },
        {
          "pos": {
            "x": -187.87440490722656,
            "y": 2.462550163269043,
            "z": -210.68409729003906
          },
          "targetVelocity": 2.0
        },
        {
          "pos": {
            "x": -187.87440490722656,
            "y": 1.462550163269043,
            "z": -208.68409729003906
          },
          "targetVelocity": 2.0
        },
        {
          "pos": {
            "x": -187.87440490722656,
            "y": 1.462550163269043,
            "z": -206.68409729003906
          },
          "targetVelocity": 2.0
        },
        {
          "pos": {
            "x": -187.87440490722656,
            "y": 1.462550163269043,
            "z": -204.68409729003906
          },
          "targetVelocity": 2.0
        },
        {
          "pos": {
            "x": -187.87440490722656,
            "y": 2.462550163269043,
            "z": -202.68409729003906
          },
          "targetVelocity": 2.0
        },
        {
          "pos": {
            "x": -187.87440490722656,
            "y": 4.462550163269043,
            "z": -201.68409729003906
          },
          "targetVelocity": 2.0
        },
        {
          "pos": {
            "x": -187.87440490722656,
            "y": 8.462550163269043,
            "z": -201.68409729003906
          },
          "targetVelocity": 2.0
        }
      ],
      "rotAngleType": "ROT_ANGLE_Y",
      "isSimulateTempRouteByTime": true,
      "_isUsePreStopMove": true
    },
    {
      "localId": 15,
      "name": "Platform_001",
      "type": "Reciprocate",
      "points": [
        {
          "pos": {
            "x": -187.87440490722656,
            "y": 2.462550163269043,
            "z": -210.68409729003906
          },
          "targetVelocity": 2.0
        },
        {
          "pos": {
            "x": -187.87440490722656,
            "y": 1.462550163269043,
            "z": -208.68409729003906
          },
          "targetVelocity": 2.0
        },
        {
          "pos": {
            "x": -187.87440490722656,
            "y": 1.462550163269043,
            "z": -206.68409729003906
          },
          "targetVelocity": 2.0
        },
        {
          "pos": {
            "x": -187.87440490722656,
            "y": 1.462550163269043,
            "z": -204.68409729003906
          },
          "targetVelocity": 2.0
        },
        {
          "pos": {
            "x": -187.87440490722656,
            "y": 2.462550163269043,
            "z": -202.68409729003906
          },
          "targetVelocity": 2.0
        },
        {
          "pos": {
            "x": -187.87440490722656,
            "y": 4.462550163269043,
            "z": -201.68409729003906
          },
          "targetVelocity": 2.0
        },
        {
          "pos": {
            "x": -187.87440490722656,
            "y": 8.462550163269043,
            "z": -201.68409729003906
          },
          "targetVelocity": 2.0
        },
        {
          "pos": {
            "x": -187.87440490722656,
            "y": 10.462550163269043,
            "z": -202.68409729003906
          },
          "targetVelocity": 2.0
        }
      ],
      "rotAngleType": "ROT_ANGLE_Y",
      "isSimulateTempRouteByTime": true,
      "_isUsePreStopMove": true
    },
    {
      "localId": 16,
      "name": "Platform_001",
      "type": "Reciprocate",
      "points": [
        {
          "pos": {
            "x": -187.87440490722656,
            "y": 1.462550163269043,
            "z": -208.68409729003906
          },
          "targetVelocity": 2.0
        },
        {
          "pos": {
            "x": -187.87440490722656,
            "y": 1.462550163269043,
            "z": -206.68409729003906
          },
          "targetVelocity": 2.0
        },
        {
          "pos": {
            "x": -187.87440490722656,
            "y": 1.462550163269043,
            "z": -204.68409729003906
          },
          "targetVelocity": 2.0
        },
        {
          "pos": {
            "x": -187.87440490722656,
            "y": 2.462550163269043,
            "z": -202.68409729003906
          },
          "targetVelocity": 2.0
        },
        {
          "pos": {
            "x": -187.87440490722656,
            "y": 4.462550163269043,
            "z": -201.68409729003906
          },
          "targetVelocity": 2.0
        },
        {
          "pos": {
            "x": -187.87440490722656,
            "y": 8.462550163269043,
            "z": -201.68409729003906
          },
          "targetVelocity": 2.0
        },
        {
          "pos": {
            "x": -187.87440490722656,
            "y": 10.462550163269043,
            "z": -202.68409729003906
          },
          "targetVelocity": 2.0
        },
        {
          "pos": {
            "x": -187.87440490722656,
            "y": 11.462550163269043,
            "z": -204.68409729003906
          },
          "targetVelocity": 2.0
        }
      ],
      "rotAngleType": "ROT_ANGLE_Y",
      "isSimulateTempRouteByTime": true,
      "_isUsePreStopMove": true
    },
    {
      "localId": 17,
      "name": "Platform_001",
      "type": "Reciprocate",
      "points": [
        {
          "pos": {
            "x": -187.87440490722656,
            "y": 1.462550163269043,
            "z": -206.68409729003906
          },
          "targetVelocity": 2.0
        },
        {
          "pos": {
            "x": -187.87440490722656,
            "y": 1.462550163269043,
            "z": -204.68409729003906
          },
          "targetVelocity": 2.0
        },
        {
          "pos": {
            "x": -187.87440490722656,
            "y": 2.462550163269043,
            "z": -202.68409729003906
          },
          "targetVelocity": 2.0
        },
        {
          "pos": {
            "x": -187.87440490722656,
            "y": 4.462550163269043,
            "z": -201.68409729003906
          },
          "targetVelocity": 2.0
        },
        {
          "pos": {
            "x": -187.87440490722656,
            "y": 8.462550163269043,
            "z": -201.68409729003906
          },
          "targetVelocity": 2.0
        },
        {
          "pos": {
            "x": -187.87440490722656,
            "y": 10.462550163269043,
            "z": -202.68409729003906
          },
          "targetVelocity": 2.0
        },
        {
          "pos": {
            "x": -187.87440490722656,
            "y": 11.462550163269043,
            "z": -204.68409729003906
          },
          "targetVelocity": 2.0
        },
        {
          "pos": {
            "x": -187.87440490722656,
            "y": 11.462550163269043,
            "z": -206.68409729003906
          },
          "targetVelocity": 2.0
        }
      ],
      "rotAngleType": "ROT_ANGLE_Y",
      "isSimulateTempRouteByTime": true,
      "_isUsePreStopMove": true
    },
    {
      "localId": 18,
      "name": "Platform_001",
      "type": "Reciprocate",
      "points": [
        {
          "pos": {
            "x": -187.87440490722656,
            "y": 1.462550163269043,
            "z": -204.68409729003906
          },
          "targetVelocity": 2.0
        },
        {
          "pos": {
            "x": -187.87440490722656,
            "y": 2.462550163269043,
            "z": -202.68409729003906
          },
          "targetVelocity": 2.0
        },
        {
          "pos": {
            "x": -187.87440490722656,
            "y": 4.462550163269043,
            "z": -201.68409729003906
          },
          "targetVelocity": 2.0
        },
        {
          "pos": {
            "x": -187.87440490722656,
            "y": 8.462550163269043,
            "z": -201.68409729003906
          },
          "targetVelocity": 2.0
        },
        {
          "pos": {
            "x": -187.87440490722656,
            "y": 10.462550163269043,
            "z": -202.68409729003906
          },
          "targetVelocity": 2.0
        },
        {
          "pos": {
            "x": -187.87440490722656,
            "y": 11.462550163269043,
            "z": -204.68409729003906
          },
          "targetVelocity": 2.0
        },
        {
          "pos": {
            "x": -187.87440490722656,
            "y": 11.462550163269043,
            "z": -206.68409729003906
          },
          "targetVelocity": 2.0
        },
        {
          "pos": {
            "x": -187.87440490722656,
            "y": 11.462550163269043,
            "z": -208.68409729003906
          },
          "targetVelocity": 2.0
        }
      ],
      "rotAngleType": "ROT_ANGLE_Y",
      "isSimulateTempRouteByTime": true,
      "_isUsePreStopMove": true
    },
    {
      "localId": 19,
      "name": "Platform_001",
      "type": "Reciprocate",
      "points": [
        {
          "pos": {
            "x": -187.87440490722656,
            "y": 2.462550163269043,
            "z": -202.68409729003906
          },
          "targetVelocity": 2.0
        },
        {
          "pos": {
            "x": -187.87440490722656,
            "y": 4.462550163269043,
            "z": -201.68409729003906
          },
          "targetVelocity": 2.0
        },
        {
          "pos": {
            "x": -187.87440490722656,
            "y": 8.462550163269043,
            "z": -201.68409729003906
          },
          "targetVelocity": 2.0
        },
        {
          "pos": {
            "x": -187.87440490722656,
            "y": 10.462550163269043,
            "z": -202.68409729003906
          },
          "targetVelocity": 2.0
        },
        {
          "pos": {
            "x": -187.87440490722656,
            "y": 11.462550163269043,
            "z": -204.68409729003906
          },
          "targetVelocity": 2.0
        },
        {
          "pos": {
            "x": -187.87440490722656,
            "y": 11.462550163269043,
            "z": -206.68409729003906
          },
          "targetVelocity": 2.0
        },
        {
          "pos": {
            "x": -187.87440490722656,
            "y": 11.462550163269043,
            "z": -208.68409729003906
          },
          "targetVelocity": 2.0
        },
        {
          "pos": {
            "x": -187.87440490722656,
            "y": 10.462550163269043,
            "z": -210.68409729003906
          },
          "targetVelocity": 2.0
        }
      ],
      "rotAngleType": "ROT_ANGLE_Y",
      "isSimulateTempRouteByTime": true,
      "_isUsePreStopMove": true
    },
    {
      "localId": 20,
      "name": "Platform_001",
      "type": "Reciprocate",
      "points": [
        {
          "pos": {
            "x": -187.87440490722656,
            "y": 4.462550163269043,
            "z": -201.68409729003906
          },
          "targetVelocity": 2.0
        },
        {
          "pos": {
            "x": -187.87440490722656,
            "y": 8.462550163269043,
            "z": -201.68409729003906
          },
          "targetVelocity": 2.0
        },
        {
          "pos": {
            "x": -187.87440490722656,
            "y": 10.462550163269043,
            "z": -202.68409729003906
          },
          "targetVelocity": 2.0
        },
        {
          "pos": {
            "x": -187.87440490722656,
            "y": 11.462550163269043,
            "z": -204.68409729003906
          },
          "targetVelocity": 2.0
        },
        {
          "pos": {
            "x": -187.87440490722656,
            "y": 11.462550163269043,
            "z": -206.68409729003906
          },
          "targetVelocity": 2.0
        },
        {
          "pos": {
            "x": -187.87440490722656,
            "y": 11.462550163269043,
            "z": -208.68409729003906
          },
          "targetVelocity": 2.0
        },
        {
          "pos": {
            "x": -187.87440490722656,
            "y": 10.462550163269043,
            "z": -210.68409729003906
          },
          "targetVelocity": 2.0
        },
        {
          "pos": {
            "x": -187.87440490722656,
            "y": 8.462550163269043,
            "z": -211.68409729003906
          },
          "targetVelocity": 2.0
        }
      ],
      "rotAngleType": "ROT_ANGLE_Y",
      "isSimulateTempRouteByTime": true,
      "_isUsePreStopMove": true
    },
    {
      "localId": 21,
      "name": "Platform_001",
      "type": "Loop",
      "points": [
        {
          "pos": {
            "x": -187.87440490722656,
            "y": 6.4625468254089355,
            "z": -199.6845703125
          },
          "waitTime": 2.0,
          "targetVelocity": 4.0
        },
        {
          "pos": {
            "x": -187.87440490722656,
            "y": 9.462547302246094,
            "z": -199.6845703125
          },
          "waitTime": 2.0,
          "targetVelocity": 4.0
        },
        {
          "pos": {
            "x": -187.87440490722656,
            "y": 6.4625468254089355,
            "z": -199.6845703125
          },
          "waitTime": 2.0,
          "targetVelocity": 4.0
        },
        {
          "pos": {
            "x": -187.87440490722656,
            "y": 3.4625468254089355,
            "z": -199.6845703125
          },
          "waitTime": 2.0,
          "targetVelocity": 4.0
        }
      ],
      "rotAngleType": "ROT_ANGLE_Y",
      "isSimulateTempRouteByTime": true,
      "_isUsePreStopMove": true
    }
  ]
}
