[
  {
    "name": "TalkExcelConfigData.json",
    "comment": "(use MargeQuest) Original GC",
    "skip": true
  },
  {
    "name": "MainQuestExcelConfigData.json",
    "comment": "(use MargeQuest) Original GC",
    "skip": true
  },
  {
    "name": "QuestExcelConfigData.json",
    "comment": "(use MargeQuest) Original GC",
    "skip": true
  },
  {
    "name": "TrialAvatarExcelConfigData.json",
    "comment": "Original GC DEV"
  },
  {
    "name": "TrialAvatarTemplateExcelConfigData.json",
    "comment": "Original GC DEV"
  },
  {
    "name": "StatuePromoteExcelConfigData.json",
    "comment": "Levelup City Implementation (by Phong940253), miss 4.0"
  },
  {
    "name": "TrialAvatarActivityExcelConfigData.json",
    "comment": "Original GC DEV"
  },
  {
    "name": "TrialAvatarActivityDataExcelConfigData.json",
    "comment": "Original GC DEV"
  },
  {
    "name": "TrialReliquaryExcelConfigData.json",
    "comment": "Original GC DEV"
  },
  {
    "name": "AvatarReplaceCostumeExcelConfigData.json",
    "comment": "Original GC DEV"
  },
  {
    "name": "RefreshPolicyExcelConfigData.json",
    "comment": "Original GC DEV"
  },
  {
    "name": "QuestGlobalVarConfigData.json",
    "comment": "Original GC DEV"
  },
  {
    "name": "GuideTriggerExcelConfigData.json",
    "comment": "Original GC DEV"
  },
  {
    "name": "GivingExcelConfigData.json",
    "comment": "Original GC DEV 4.0"
  },
  {
    "name": "GivingGroupExcelConfigData.json",
    "comment": "Original GC DEV 4.0"
  },
  {
    "name": "BargainExcelConfigData.json",
    "comment": "Original GC DEV 4.0"
  },
  {
    "name": "SceneTagConfigData.json",
    "comment": "scene tag, (abf362d) by Snoobii Yeo"
  },
  {
    "name": "MapLayerExcelConfigData.json",
    "comment": "Multi Map layer by Snoobii Yeo"
  },
  {
    "name": "MapLayerGroupExcelConfigData.json",
    "comment": "Multi Map layer by Snoobii Yeo"
  },
  {
    "name": "MapLayerFloorExcelConfigData.json",
    "comment": "Multi Map layer by GC"
  },
  {
    "name": "ReliquaryAffixExcelConfigData.json",
    "comment": "maybe need fix"
  },
  {
    "name": "ReliquaryMainPropExcelConfigData.json",
    "comment": "maybe need fix"
  },
  {
    "name": "DropTableExcelConfigData.json",
    "comment": "(NoSuchFileException), use folder Server, it's not in original repo, miss 4.0"
  },
  {
    "name": "GatherExcelConfigData.json",
    "comment": "Expected an int but was BOOLEAN at line 108 column 15, in gc cd=10 but og cd=true"
  },
  {
    "name": "DropSubTableExcelConfigData.json",
    "comment": "why miss? use 3.6 data, idk why need copy manual"
  },
  {
    "name": "HomeworldModuleExcelConfigData.json",
    "comment": "rename stuff"
  },
  {
    "name": "HomeWorldBgmExcelConfigData.json",
    "comment": "rename stuff"
  },
  {
    "name": "AvatarCostumeExcelConfigData.json",
    "comment": "rename stuff"
  },
  {
    "name": "DropMaterialExcelConfigData.json",
    "comment": "(NoSuchFileException), use folder Server, it's not in original repo, miss 4.0"
  },
  {
    "name": "CombineBonusExcelConfigData.json",
    "comment": "4.0, idk why not found"
  },
  {
    "name": "MonsterAffixExcelConfigData.json",
    "comment": "4.0, idk why not found"
  },
  {
    "name": "AvatarSkillExcelConfigData.json",
    "comment": ""
  },
  {
    "name": "ForgeExcelConfigData.json",
    "comment": ""
  },
  {
    "name": "FetterInfoExcelConfigData.json",
    "comment": ""
  },
  {
    "name": "FettersExcelConfigData.json",
    "comment": ""
  },
  {
    "name": "FetterStoryExcelConfigData.json",
    "comment": ""
  },
  {
    "name": "PhotographExpressionExcelConfigData.json",
    "comment": ""
  },
  {
    "name": "PhotographPosenameExcelConfigData.json",
    "comment": ""
  },
  {
    "name": "OpenStateConfigData.json",
    "comment": ""
  },
  {
    "name": "FetterCharacterCardExcelConfigData.json",
    "comment": ""
  },
  {
    "name": "AvatarTalentExcelConfigData.json",
    "comment": ""
  },
  {
    "name": "RewardPreviewExcelConfigData.json",
    "comment": ""
  },
  {
    "name": "MonsterDescribeExcelConfigData.json",
    "comment": ""
  },
  {
    "name": "InvestigationConfigData.json",
    "comment": ""
  },
  {
    "name": "NewActivityWatcherConfigData.json",
    "comment": ""
  },
  {
    "name": "AvatarSkillDepotExcelConfigData.json",
    "comment": ""
  },
  {
    "name": "CityConfigData.json",
    "comment": ""
  },
  {
    "name": "MonsterSpecialNameExcelConfigData.json",
    "comment": ""
  },
  {
    "name": "ProudSkillExcelConfigData.json",
    "comment": ""
  },
  {
    "name": "MusicGameBasicConfigData.json",
    "comment": ""
  },
  {
    "name": "DailyTaskExcelConfigData.json",
    "comment": ""
  },
  {
    "name": "WorldAreaConfigData.json",
    "comment": ""
  },
  {
    "name": "MonsterCurveExcelConfigData.json",
    "comment": ""
  },
  {
    "name": "MaterialCodexExcelConfigData.json",
    "comment": ""
  },
  {
    "name": "ReliquarySetExcelConfigData.json",
    "comment": ""
  },
  {
    "name": "TowerScheduleExcelConfigData.json",
    "comment": ""
  },
  {
    "name": "NewActivityCondExcelConfigData.json",
    "comment": ""
  },
  {
    "name": "AvatarFlycloakExcelConfigData.json",
    "comment": ""
  },
  {
    "name": "GadgetExcelConfigData.json",
    "comment": ""
  },
  {
    "name": "TriggerExcelConfigData.json",
    "comment": ""
  },
  {
    "name": "ChapterExcelConfigData.json",
    "comment": ""
  },
  {
    "name": "PlayerLevelExcelConfigData.json",
    "comment": ""
  },
  {
    "name": "TowerLevelExcelConfigData.json",
    "comment": ""
  },
  {
    "name": "DungeonEntryExcelConfigData.json",
    "comment": ""
  },
  {
    "name": "DungeonPassExcelConfigData.json",
    "comment": ""
  },
  {
    "name": "ShopGoodsExcelConfigData.json",
    "comment": ""
  },
  {
    "name": "WeatherExcelConfigData.json",
    "comment": ""
  },
  {
    "name": "BattlePassRewardExcelConfigData.json",
    "comment": ""
  },
  {
    "name": "DailyTaskLevelExcelConfigData.json",
    "comment": ""
  },
  {
    "name": "RewardExcelConfigData.json",
    "comment": ""
  },
  {
    "name": "BattlePassMissionExcelConfigData.json",
    "comment": ""
  },
  {
    "name": "DailyDungeonConfigData.json",
    "comment": ""
  },
  {
    "name": "AvatarFettersLevelExcelConfigData.json",
    "comment": ""
  },
  {
    "name": "AnimalCodexExcelConfigData.json",
    "comment": ""
  },
  {
    "name": "WeaponLevelExcelConfigData.json",
    "comment": ""
  },
  {
    "name": "ReliquaryCodexExcelConfigData.json",
    "comment": ""
  },
  {
    "name": "AchievementExcelConfigData.json",
    "comment": ""
  },
  {
    "name": "CombineExcelConfigData.json",
    "comment": ""
  },
  {
    "name": "ActivityShopOverallExcelConfigData.json",
    "comment": ""
  },
  {
    "name": "BuffExcelConfigData.json",
    "comment": ""
  },
  {
    "name": "AvatarPromoteExcelConfigData.json",
    "comment": ""
  },
  {
    "name": "SceneExcelConfigData.json",
    "comment": ""
  },
  {
    "name": "NpcExcelConfigData.json",
    "comment": ""
  },
  {
    "name": "PersonalLineExcelConfigData.json",
    "comment": ""
  },
  {
    "name": "DailyTaskRewardExcelConfigData.json",
    "comment": ""
  },
  {
    "name": "EquipAffixExcelConfigData.json",
    "comment": ""
  },
  {
    "name": "ReliquaryLevelExcelConfigData.json",
    "comment": ""
  },
  {
    "name": "WorldLevelExcelConfigData.json",
    "comment": ""
  },
  {
    "name": "BlossomRefreshExcelConfigData.json",
    "comment": ""
  },
  {
    "name": "WeaponCurveExcelConfigData.json",
    "comment": ""
  },
  {
    "name": "QuestCodexExcelConfigData.json",
    "comment": ""
  },
  {
    "name": "DungeonChallengeConfigData.json",
    "comment": ""
  },
  {
    "name": "DungeonExcelConfigData.json",
    "comment": ""
  },
  {
    "name": "FurnitureMakeExcelConfigData.json",
    "comment": ""
  },
  {
    "name": "AvatarCurveExcelConfigData.json",
    "comment": ""
  },
  {
    "name": "AvatarLevelExcelConfigData.json",
    "comment": ""
  },
  {
    "name": "TowerFloorExcelConfigData.json",
    "comment": ""
  },
  {
    "name": "WeaponCodexExcelConfigData.json",
    "comment": ""
  },
  {
    "name": "WeaponPromoteExcelConfigData.json",
    "comment": ""
  },
  {
    "name": "MaterialExcelConfigData.json",
    "comment": ""
  },
  {
    "name": "WeaponExcelConfigData.json",
    "comment": ""
  },
  {
    "name": "ReliquaryExcelConfigData.json",
    "comment": ""
  },
  {
    "name": "HomeWorldFurnitureExcelConfigData.json",
    "comment": ""
  },
  {
    "name": "AchievementGoalExcelConfigData.json",
    "comment": ""
  },
  {
    "name": "HomeworldLevelExcelConfigData.json",
    "comment": ""
  },
  {
    "name": "EnvAnimalGatherExcelConfigData.json",
    "comment": ""
  },
  {
    "name": "CookRecipeExcelConfigData.json",
    "comment": ""
  },
  {
    "name": "CookBonusExcelConfigData.json",
    "comment": ""
  },
  {
    "name": "NewActivityExcelConfigData.json",
    "comment": ""
  },
  {
    "name": "InvestigationMonsterConfigData.json",
    "comment": ""
  },
  {
    "name": "CompoundExcelConfigData.json",
    "comment": ""
  },
  {
    "name": "InvestigationTargetConfigData.json",
    "comment": ""
  },
  {
    "name": "MonsterExcelConfigData.json",
    "comment": ""
  },
  {
    "name": "AvatarExcelConfigData.json",
    "comment": ""
  },
  {
    "name": "ManualTextMapConfigData.json",
    "comment": "???"
  },
  {
    "name": "CoopPointExcelConfigData.json",
    "comment": "quest eng"
  },
  {
    "name": "HomeWorldEventExcelConfigData.json",
    "comment": "4.0"
  },
  {
    "name": "HomeworldAnimalExcelConfigData.json",
    "comment": "4.0"
  },
  {
    "name": "CoopChapterExcelConfigData.json",
    "comment": "quest eng"
  },
  {
    "name": "HomeWorldNPCExcelConfigData.json",
    "comment": "4.0"
  }
]