[
  {
    "Default": {
      "$type": "ConfigAbility",
      "abilityName": "Team_TeamChargeMark",
      "abilityMixins": [
        {
          "$type": "AttachModifierToSelfGlobalValueMixin",
          "globalValueKey": "_Ability_TeamChargeMark",
          "gvInTalk": 0.0,
          "valueSteps": [19.5, 20.5],
          "modifierNameSteps": ["Blank"],
          "actionQueues": [
            [
              {
                "$type": "AddGlobalValue",
                "value": 1.0,
                "key": "_Ability_TeamFullChargeMark",
                "useLimitRange": true,
                "maxValue": 1.0,
                "minValue": 0.0
              },
              {
                "$type": "AddGlobalValue",
                "value": -20.0,
                "key": "_Ability_TeamChargeMark",
                "useLimitRange": true,
                "maxValue": 20.0,
                "minValue": 0.0
              }
            ]
          ]
        },
        {
          "$type": "AttachModifierToSelfGlobalValueMixin",
          "globalValueKey": "_Ability_TeamFullChargeMark",
          "gvInTalk": 0.0,
          "valueSteps": [-0.5, 0.5, 1.5],
          "modifierNameSteps": ["Blank", "Blank"],
          "actionQueues": [
            [
              {
                "$type": "RemoveModifier",
                "target": "CurTeamAvatars",
                "shieldHP": true,
                "modifierName": "TeamFullChargeEffect"
              }
            ],
            [
              {
                "$type": "ApplyModifier",
                "target": "CurLocalAvatar",
                "modifierName": "TeamFullChargeEffect"
              }
            ]
          ]
        },
        {
          "$type": "AttachModifierToSelfGlobalValueMixin",
          "globalValueKey": "_Ability_AvatarFullChargeMark",
          "gvInTalk": 0.0,
          "valueSteps": [-0.5, 0.5, 1.5],
          "modifierNameSteps": ["Blank", "Blank"],
          "actionQueues": [
            [
              {
                "$type": "RemoveModifier",
                "target": "CurTeamAvatars",
                "shieldHP": true,
                "modifierName": "AvatarFullChargeEffect"
              }
            ],
            [
              {
                "$type": "ApplyModifier",
                "target": "CurTeamAvatars",
                "shieldHP": true,
                "modifierName": "AvatarFullChargeEffect"
              }
            ]
          ]
        }
      ],
      "modifiers": {
        "Blank": {
          "modifierName": "",
          "duration": 0.10000000149011612,
          "elementDurability": 100.0
        },
        "TeamChargeMark_Decay": {
          "modifierName": "",
          "elementDurability": 100.0,
          "thinkInterval": 5.0,
          "onThinkInterval": [
            {
              "$type": "AddGlobalValue",
              "value": -1.0,
              "key": "_Ability_TeamChargeMark",
              "useLimitRange": true,
              "maxValue": 20.0,
              "minValue": 0.0
            }
          ]
        },
        "TeamFullChargeEffect": {
          "modifierName": "",
          "elementDurability": 100.0,
          "onAdded": [
            {
              "$type": "AttachEffect",
              "shieldHP": true,
              "rotationDampTime": "Eff_Avatar_WhiteBox_TeamChargeMark",
              "PPPDJGDDOGD": 1.0,
              "AJDILHJFNKE": -1.0
            }
          ]
        },
        "AvatarFullChargeEffect": {
          "modifierName": "",
          "elementDurability": 100.0,
          "onAdded": [
            {
              "$type": "AttachEffect",
              "shieldHP": true,
              "rotationDampTime": "",
              "PPPDJGDDOGD": 1.0,
              "AJDILHJFNKE": -1.0
            }
          ]
        }
      },
      "onAdded": [
        {
          "$type": "ApplyModifier",
          "modifierName": "TeamChargeMark_Decay"
        }
      ]
    }
  },
  {
    "Default": {
      "$type": "ConfigAbility",
      "abilityName": "TeamAbility_Reset_Crystal_Mark",
      "onAdded": [
        {
          "$type": "SetGlobalValue",
          "value": 0.0,
          "key": "_ABILITY_CrystalSeed_Electric_Shield_Mark",
          "useLimitRange": true,
          "maxValue": 1.0,
          "minValue": 0.0
        },
        {
          "$type": "SetGlobalValue",
          "value": 0.0,
          "key": "_ABILITY_CrystalSeed_Ice_Shield_Mark",
          "useLimitRange": true,
          "maxValue": 1.0,
          "minValue": 0.0
        },
        {
          "$type": "SetGlobalValue",
          "value": 0.0,
          "key": "_ABILITY_CrystalSeed_Fire_Shield_Mark",
          "useLimitRange": true,
          "maxValue": 1.0,
          "minValue": 0.0
        },
        {
          "$type": "SetGlobalValue",
          "value": 0.0,
          "key": "_ABILITY_CrystalSeed_Water_Shield_Mark",
          "useLimitRange": true,
          "maxValue": 1.0,
          "minValue": 0.0
        }
      ],
      "isDynamicAbility": true
    }
  }
]
