[
  {
    "Default": {
      "$type": "ConfigAbility",
      "abilityName": "ActivityAbility_DragonSpine_Weapon_Attack",
      "abilitySpecials": {
        "AttackRatio": 0.6000000238418579
      },
      "modifiers": {
        "UNIQUE_ActivityAbility_DragonSpine_Weapon_Attack": {
          "stacking": "Unique",
          "modifierName": "",
          "forceTriggerWhenChangeAuthority": true,
          "elementDurability": 100.0,
          "modifierMixins": [
            {
              "$type": "ModifyDamageMixin",
              "ignoreEventInfo": true,
              "actorWindSubHurtDelta": "AttackRatio",
              "predicates": [
                {
                  "$type": "MKJBJKLDNDE",
                  "climateType": "Cold",
                  "areaID": 1
                }
              ]
            }
          ]
        }
      },
      "onAdded": [
        {
          "$type": "RemoveUniqueModifier",
          "shieldHP": true,
          "modifierName": "UNIQUE_ActivityAbility_DragonSpine_Weapon_Attack"
        },
        {
          "$type": "AttachModifier",
          "shieldHP": true,
          "modifierName": "UNIQUE_ActivityAbility_DragonSpine_Weapon_Attack"
        }
      ],
      "isDynamicAbility": true
    }
  },
  {
    "Default": {
      "$type": "ConfigAbility",
      "abilityName": "ActivityAbility_DragonSpine_Weapon_AntiCold",
      "abilitySpecials": {
        "ResistClimateRatio": -0.33000001311302185
      },
      "modifiers": {
        "UNIQUE_ActivityAbility_DragonSpine_Weapon_AntiCold": {
          "stacking": "Unique",
          "modifierName": "",
          "forceTriggerWhenChangeAuthority": true,
          "elementDurability": 100.0,
          "modifierMixins": [
            {
              "$type": "BCFMIGNCJFK",
              "climateTypes": ["Cold"],
              "trend": "Rise",
              "hpRatio": "ResistClimateRatio",
              "damageRatio": "Current"
            }
          ]
        }
      },
      "onAdded": [
        {
          "$type": "RemoveUniqueModifier",
          "shieldHP": true,
          "modifierName": "UNIQUE_ActivityAbility_DragonSpine_Weapon_AntiCold"
        },
        {
          "$type": "AttachModifier",
          "shieldHP": true,
          "modifierName": "UNIQUE_ActivityAbility_DragonSpine_Weapon_AntiCold"
        }
      ],
      "isDynamicAbility": true
    }
  },
  {
    "Default": {
      "$type": "ConfigAbility",
      "abilityName": "ActivityAbility_DragonSpine_Weapon_Critical",
      "abilitySpecials": {
        "CriticalDelta": 0.3499999940395355
      },
      "modifiers": {
        "UNIQUE_ActivityAbility_DragonSpine_Weapon_Critical": {
          "stacking": "Unique",
          "modifierName": "",
          "forceTriggerWhenChangeAuthority": true,
          "elementDurability": 100.0,
          "modifierMixins": [
            {
              "$type": "ModifyDamageMixin",
              "ignoreEventInfo": true,
              "actorWindSubHurtDelta": 0.0,
              "AIGBINPINKE": "CriticalDelta",
              "predicates": [
                {
                  "$type": "MKJBJKLDNDE",
                  "climateType": "Cold",
                  "areaID": 1
                }
              ]
            }
          ]
        }
      },
      "onAdded": [
        {
          "$type": "RemoveUniqueModifier",
          "shieldHP": true,
          "modifierName": "UNIQUE_ActivityAbility_DragonSpine_Weapon_Critical"
        },
        {
          "$type": "AttachModifier",
          "shieldHP": true,
          "modifierName": "UNIQUE_ActivityAbility_DragonSpine_Weapon_Critical"
        }
      ],
      "isDynamicAbility": true
    }
  },
  {
    "Default": {
      "$type": "ConfigAbility",
      "abilityName": "ActivityAbility_DragonSpine_Weapon_BloodSmash",
      "abilitySpecials": {
        "Rate": 0.5
      },
      "modifiers": {
        "UNIQUE_ActivityAbility_DragonSpine_Weapon_BloodSmash": {
          "stacking": "Unique",
          "modifierName": "",
          "forceTriggerWhenChangeAuthority": true,
          "elementDurability": 100.0,
          "modifierMixins": [
            {
              "$type": "ModifyDamageMixin",
              "attackTags": ["BloodSmash"],
              "actorWindSubHurtDelta": "Rate",
              "predicates": [
                {
                  "$type": "MKJBJKLDNDE",
                  "climateType": "Cold",
                  "areaID": 1
                }
              ]
            }
          ]
        }
      },
      "onAdded": [
        {
          "$type": "RemoveUniqueModifier",
          "shieldHP": true,
          "modifierName": "UNIQUE_ActivityAbility_DragonSpine_Weapon_BloodSmash"
        },
        {
          "$type": "AttachModifier",
          "shieldHP": true,
          "modifierName": "UNIQUE_ActivityAbility_DragonSpine_Weapon_BloodSmash"
        }
      ],
      "isDynamicAbility": true
    }
  },
  {
    "Default": {
      "$type": "ConfigAbility",
      "abilityName": "ActivityAbility_DragonSpine_Weapon_CriticalHurt",
      "abilitySpecials": {
        "CriticalHurtDelta": 0.699999988079071
      },
      "modifiers": {
        "UNIQUE_ActivityAbility_DragonSpine_Weapon_CriticalHurt": {
          "stacking": "Unique",
          "modifierName": "",
          "forceTriggerWhenChangeAuthority": true,
          "elementDurability": 100.0,
          "modifierMixins": [
            {
              "$type": "ModifyDamageMixin",
              "ignoreEventInfo": true,
              "actorWindSubHurtDelta": 0.0,
              "actorElementReactionCriticalHurtDelta": "CriticalHurtDelta",
              "predicates": [
                {
                  "$type": "MKJBJKLDNDE",
                  "climateType": "Cold",
                  "areaID": 1
                }
              ]
            }
          ]
        }
      },
      "onAdded": [
        {
          "$type": "RemoveUniqueModifier",
          "shieldHP": true,
          "modifierName": "UNIQUE_ActivityAbility_DragonSpine_Weapon_CriticalHurt"
        },
        {
          "$type": "AttachModifier",
          "shieldHP": true,
          "modifierName": "UNIQUE_ActivityAbility_DragonSpine_Weapon_CriticalHurt"
        }
      ],
      "isDynamicAbility": true
    }
  }
]
