[
  {
    "Default": {
      "$type": "ConfigAbility",
      "abilityName": "Avatar_DiveSkill_Octopus",
      "abilityMixins": [
        {
          "$type": "ButtonHoldChargeMixin",
          "skillID": 20063,
          "chargeTime": 0.20000000298023224,
          "secondChargeTime": 999999.0,
          "onBeginUncharged": [
            {
              "$type": "RemoveModifier",
              "modifierName": "Focus_Update"
            },
            {
              "$type": "Predicated",
              "targetPredicates": [
                {
                  "$type": "ByTargetGlobalValue",
                  "target": "Self",
                  "key": "_ABILITY_Diving_Skill_In_Focus_Skill_Mark",
                  "value": 0.0,
                  "compareType": "NoneOrEqual"
                }
              ],
              "successActions": [
                {
                  "$type": "SetAnimatorTrigger",
                  "triggerID": "StartDiveChannelTrigger"
                },
                {
                  "$type": "SetAnimatorTrigger",
                  "triggerID": "StartDiveChannelTrigger2"
                },
                {
                  "$type": "AttachModifier",
                  "modifierName": "Focus_Update"
                },
                {
                  "$type": "AttachModifier",
                  "modifierName": "Delay_Exit"
                }
              ]
            }
          ],
          "onBeginCharged": [
            {
              "$type": "RemoveModifier",
              "modifierName": "Delay_Exit"
            }
          ],
          "onReleaseCharged": [
            {
              "$type": "SetAnimatorTrigger",
              "triggerID": "EndDiveChannelTrigger"
            },
            {
              "$type": "SetAnimatorTrigger",
              "triggerID": "EndDiveChannelTrigger2"
            },
            {
              "$type": "RemoveModifier",
              "modifierName": "Focus_Update"
            },
            {
              "$type": "RemoveModifier",
              "modifierName": "Delay_Exit"
            }
          ],
          "onCancelCharged": [
            {
              "$type": "SetAnimatorTrigger",
              "triggerID": "EndDiveChannelTrigger"
            },
            {
              "$type": "SetAnimatorTrigger",
              "triggerID": "EndDiveChannelTrigger2"
            },
            {
              "$type": "RemoveModifier",
              "predicates": [
                {
                  "$type": "ByTargetGlobalValue",
                  "target": "Self",
                  "key": "_ABILITY_Diving_Skill_In_Focus_Skill_Mark",
                  "value": 6.0
                }
              ],
              "modifierName": "Focus_Update"
            },
            {
              "$type": "RemoveModifier",
              "modifierName": "Delay_Exit"
            }
          ],
          "chargeStateIDs": ["DiveChannel_BS", "DiveChannel_Loop"]
        }
      ],
      "abilitySpecials": {
        "DamageSystemValue": 0.0,
        "DamageRatio": 0.0
      },
      "modifiers": {
        "Delay_Exit": {
          "modifierName": "",
          "duration": 1.2000000476837158,
          "elementDurability": 100.0,
          "thinkInterval": 0.800000011920929,
          "onThinkInterval": [
            {
              "$type": "SetAnimatorTrigger",
              "triggerID": "EndDiveChannelTrigger"
            },
            {
              "$type": "SetAnimatorTrigger",
              "triggerID": "EndDiveChannelTrigger2"
            },
            {
              "$type": "RemoveModifier",
              "modifierName": "Focus_Update"
            },
            {
              "$type": "RemoveModifier",
              "modifierName": "Delay_Exit"
            }
          ],
          "onThinkIntervalIsFixedUpdate": true
        },
        "Avatar_DiveChannel_LoopFx": {
          "modifierName": "",
          "elementDurability": 100.0,
          "onAdded": [
            {
              "$type": "AttachEffect",
              "rotationDampTime": "Eff_Avatar_Diving_Octopus_HandLoop",
              "PPPDJGDDOGD": 1.0,
              "AJDILHJFNKE": -1.0
            }
          ],
          "onRemoved": [
            {
              "$type": "Predicated",
              "target": "CurLocalAvatar",
              "targetPredicates": [
                {
                  "$type": "ByTargetGlobalValue",
                  "key": "_ABILITY_Diving_SkillCDReduction",
                  "value": 1.0
                }
              ],
              "successActions": [
                {
                  "$type": "PPMAOBKEOHI",
                  "skillID": 20063,
                  "shareCDType": 1
                }
              ],
              "failActions": [
                {
                  "$type": "PPMAOBKEOHI",
                  "skillID": 20063
                }
              ]
            },
            {
              "$type": "ForceUseSkillSuccess",
              "skillID": 20063,
              "damageRatio": "Skill"
            },
            {
              "$type": "SetGlobalValue",
              "shieldHP": true,
              "value": 0.0,
              "key": "_ABILITY_Monster_JellyFish_03_MagicBall_Charged_",
              "maxValue": 0.0,
              "minValue": 0.0
            }
          ]
        },
        "Avatar_Absorb_Absorb_Loop": {
          "modifierName": "",
          "elementDurability": 100.0,
          "onAdded": [
            {
              "$type": "SetAnimatorTrigger",
              "otherTargets": {
                "$type": "SelectTargetsByChildren",
                "configID": 40034001
              },
              "triggerID": "Loop"
            }
          ]
        },
        "Focus_Update": {
          "modifierName": "",
          "duration": 25.0,
          "elementDurability": 100.0,
          "modifierMixins": [
            {
              "$type": "AttachToStateIDMixin",
              "stateIDs": ["DiveChannel_BS", "DiveChannel_Loop"],
              "modifierName": "Focus",
              "DGFCLAIDIFI": ""
            }
          ],
          "onAdded": [
            {
              "$type": "SetGlobalValue",
              "value": 6.0,
              "key": "_ABILITY_Diving_Skill_In_Focus_Skill_Mark",
              "maxValue": 0.0,
              "minValue": 0.0
            }
          ],
          "onRemoved": [
            {
              "$type": "SetGlobalValue",
              "shieldHP": true,
              "value": 0.0,
              "key": "_ABILITY_Diving_Skill_In_Focus_Skill_Mark",
              "maxValue": 0.0,
              "minValue": 0.0
            }
          ]
        },
        "Focus": {
          "modifierName": "",
          "elementDurability": 100.0,
          "modifierMixins": [
            {
              "$type": "FMOKCPPLHDO"
            }
          ],
          "onAdded": [
            {
              "$type": "Predicated",
              "targetPredicates": [
                {
                  "$type": "BGMAGODJEMF",
                  "featureTagIDs": [1044]
                }
              ],
              "successActions": [
                {
                  "$type": "AvatarEnterFocus",
                  "cameraFollowLower": {
                    "x": 0.3499999940395355,
                    "y": 0.9599999785423279,
                    "z": -5.0
                  },
                  "cameraFollowUpper": {
                    "x": 0.3499999940395355,
                    "y": 0.9599999785423279,
                    "z": -4.599999904632568
                  },
                  "cameraFastFocusMode": true,
                  "dragButtonName": "Skill2",
                  "assistance": {
                    "ps4": {},
                    "ps5": {},
                    "other": {
                      "useGyro": true
                    }
                  },
                  "canMove": false,
                  "showCrosshair": false,
                  "OMHGAKJIEFB": ""
                }
              ]
            },
            {
              "$type": "Predicated",
              "targetPredicates": [
                {
                  "$type": "BGMAGODJEMF",
                  "featureTagIDs": [1043]
                }
              ],
              "successActions": [
                {
                  "$type": "AvatarEnterFocus",
                  "cameraFollowLower": {
                    "x": 0.3499999940395355,
                    "y": 0.9599999785423279,
                    "z": -5.0
                  },
                  "cameraFollowUpper": {
                    "x": 0.3499999940395355,
                    "y": 0.9599999785423279,
                    "z": -4.599999904632568
                  },
                  "cameraFastFocusMode": true,
                  "dragButtonName": "Skill2",
                  "assistance": {
                    "ps4": {},
                    "ps5": {},
                    "other": {
                      "useGyro": true
                    }
                  },
                  "canMove": false,
                  "showCrosshair": false,
                  "OMHGAKJIEFB": ""
                }
              ]
            },
            {
              "$type": "Predicated",
              "targetPredicates": [
                {
                  "$type": "BGMAGODJEMF",
                  "featureTagIDs": [1042]
                }
              ],
              "successActions": [
                {
                  "$type": "AvatarEnterFocus",
                  "cameraFollowLower": {
                    "x": 0.3499999940395355,
                    "y": 1.059999942779541,
                    "z": -5.0
                  },
                  "cameraFollowUpper": {
                    "x": 0.3499999940395355,
                    "y": 1.059999942779541,
                    "z": -4.599999904632568
                  },
                  "cameraFastFocusMode": true,
                  "dragButtonName": "Skill2",
                  "assistance": {
                    "ps4": {},
                    "ps5": {},
                    "other": {
                      "useGyro": true
                    }
                  },
                  "canMove": false,
                  "showCrosshair": false,
                  "OMHGAKJIEFB": ""
                }
              ]
            },
            {
              "$type": "Predicated",
              "targetPredicates": [
                {
                  "$type": "BGMAGODJEMF",
                  "featureTagIDs": [1041]
                }
              ],
              "successActions": [
                {
                  "$type": "AvatarEnterFocus",
                  "cameraFollowLower": {
                    "x": 0.3499999940395355,
                    "y": 1.159999966621399,
                    "z": -5.0
                  },
                  "cameraFollowUpper": {
                    "x": 0.3499999940395355,
                    "y": 1.159999966621399,
                    "z": -4.599999904632568
                  },
                  "cameraFastFocusMode": true,
                  "dragButtonName": "Skill2",
                  "assistance": {
                    "ps4": {},
                    "ps5": {},
                    "other": {
                      "useGyro": true
                    }
                  },
                  "canMove": false,
                  "showCrosshair": false,
                  "OMHGAKJIEFB": ""
                }
              ]
            },
            {
              "$type": "Predicated",
              "targetPredicates": [
                {
                  "$type": "BGMAGODJEMF",
                  "featureTagIDs": [1045]
                }
              ],
              "successActions": [
                {
                  "$type": "AvatarEnterFocus",
                  "cameraFollowLower": {
                    "x": 0.3499999940395355,
                    "y": 0.6600000262260437,
                    "z": -5.0
                  },
                  "cameraFollowUpper": {
                    "x": 0.3499999940395355,
                    "y": 0.6600000262260437,
                    "z": -4.599999904632568
                  },
                  "cameraFastFocusMode": true,
                  "dragButtonName": "Skill2",
                  "assistance": {
                    "ps4": {},
                    "ps5": {},
                    "other": {
                      "useGyro": true
                    }
                  },
                  "canMove": false,
                  "showCrosshair": false,
                  "OMHGAKJIEFB": ""
                }
              ]
            },
            {
              "$type": "SetAnimatorBool",
              "boolID": "LockMotionFlagExitChannel",
              "value": true
            },
            {
              "$type": "SetGlobalValue",
              "value": 0.0,
              "key": "_ABILITY_Diving_Aim_Success_Mark",
              "maxValue": 0.0,
              "minValue": 0.0
            },
            {
              "$type": "SetTargetToTargetKey",
              "targetKey": "_ABILITY_Diving_Aim_Target_Cache_Avatar"
            },
            {
              "$type": "AttachModifier",
              "target": "Team",
              "modifierName": "Octopus_Aim_Camera_Eff"
            },
            {
              "$type": "AttachModifier",
              "modifierName": "Octopus_Aim_Handler"
            },
            {
              "$type": "AttachModifier",
              "modifierName": "Avatar_DiveChannel_LoopFx"
            },
            {
              "$type": "SetGlobalValue",
              "target": "Team",
              "value": 2.0,
              "key": "_ABILITY_WhiteBox_Dive_Team_Trigger",
              "maxValue": 0.0,
              "minValue": 0.0
            },
            {
              "$type": "CreateGadget",
              "born": {
                "$type": "ConfigBornBySelf",
                "offset": {
                  "x": 0.0,
                  "y": 0.0,
                  "z": 0.0
                },
                "useRotation": true
              },
              "gadgetID": 40034114,
              "campID": 1001,
              "campTargetType": "Enemy"
            },
            {
              "$type": "HCLAKBJKPLE",
              "watcherId": 81418,
              "authorityOnly": true
            }
          ],
          "onRemoved": [
            {
              "$type": "KillGadget",
              "shieldHP": true,
              "gadgetInfo": {
                "configID": 40034114
              }
            },
            {
              "$type": "AvatarExitFocus"
            },
            {
              "$type": "SetAnimatorTrigger",
              "triggerID": "EndDiveChannelTrigger"
            },
            {
              "$type": "SetAnimatorTrigger",
              "triggerID": "EndDiveChannelTrigger2"
            },
            {
              "$type": "SetGlobalValue",
              "target": "Team",
              "value": 3.0,
              "key": "_ABILITY_WhiteBox_Dive_Team_Trigger",
              "maxValue": 0.0,
              "minValue": 0.0
            },
            {
              "$type": "SetAnimatorBool",
              "shieldHP": true,
              "boolID": "LockMotionFlagExitChannel"
            }
          ],
          "onKill": [
            {
              "$type": "KillGadget",
              "shieldHP": true,
              "gadgetInfo": {
                "configID": 40034114
              }
            },
            {
              "$type": "AvatarExitFocus"
            }
          ]
        },
        "Octopus_Aim_Camera_Eff": {
          "modifierName": "",
          "elementDurability": 100.0,
          "modifierMixins": [
            {
              "$type": "AttachActionToModifierMixin",
              "onAdded": [
                {
                  "$type": "DungeonFogEffects",
                  "canBeHandledOnRecover": true,
                  "muteRemoteAction": true,
                  "enable": true,
                  "cameraFogEffectName": "Eff_SkillObj_Absorb_Avatar_Octopus_Aim",
                  "playerFogEffectName": ""
                },
                {
                  "$type": "CNHCMGMMDCB",
                  "muteRemoteAction": true,
                  "parameter": "StartCircle",
                  "cameraFogEffectName": "Eff_SkillObj_Absorb_Avatar_Octopus_Aim"
                }
              ],
              "onRemoved": [
                {
                  "$type": "DungeonFogEffects",
                  "shieldHP": true,
                  "canBeHandledOnRecover": true,
                  "muteRemoteAction": true,
                  "cameraFogEffectName": "Eff_SkillObj_Absorb_Avatar_Octopus_Aim",
                  "playerFogEffectName": ""
                }
              ]
            }
          ]
        },
        "Octopus_Aim_Handler": {
          "modifierName": "",
          "elementDurability": 100.0,
          "modifierMixins": [
            {
              "$type": "DoActionOnGlobalValueChangeMixin",
              "globalValueKey": "_ABILITY_Diving_Aim_Success_Mark",
              "actions": [
                {
                  "$type": "Predicated",
                  "targetPredicates": [
                    {
                      "$type": "ByTargetGlobalValue",
                      "target": "Self",
                      "key": "_ABILITY_Diving_Aim_Success_Mark",
                      "value": 1.0
                    }
                  ],
                  "successActions": [
                    {
                      "$type": "SetSelfAttackTarget",
                      "target": "TempTarget",
                      "shieldHP": true,
                      "fishtankMap": {
                        "ALBJEAMOFLG": "_ABILITY_Diving_Aim_Target_Cache_Avatar"
                      }
                    },
                    {
                      "$type": "AttachModifier",
                      "modifierName": "Octopus_Aim_TriggerAttack"
                    }
                  ],
                  "failActions": [
                    {
                      "$type": "ClearLockTarget",
                      "onlyAvatar": false
                    },
                    {
                      "$type": "RemoveModifier",
                      "modifierName": "Octopus_Aim_TriggerAttack"
                    }
                  ]
                }
              ]
            }
          ]
        },
        "Octopus_Aim_TriggerAttack": {
          "modifierName": "",
          "elementDurability": 100.0,
          "onAdded": [
            {
              "$type": "AttachModifier",
              "target": "TempTarget",
              "predicates": [
                {
                  "$type": "ByEntityTypes",
                  "entityTypes": ["Gadget", "Platform"]
                }
              ],
              "fishtankMap": {
                "ALBJEAMOFLG": "_ABILITY_Diving_Aim_Target_Cache_Avatar"
              },
              "modifierName": "Octopus_Aim_TriggerAttack_OnGadget"
            },
            {
              "$type": "AttachModifier",
              "target": "TempTarget",
              "predicates": [
                {
                  "$type": "ByEntityTypes",
                  "entityTypes": ["Monster"]
                }
              ],
              "fishtankMap": {
                "ALBJEAMOFLG": "_ABILITY_Diving_Aim_Target_Cache_Avatar"
              },
              "modifierName": "Octopus_Aim_TriggerAttack_OnMonster"
            },
            {
              "$type": "AttachModifier",
              "target": "TempTarget",
              "predicates": [
                {
                  "$type": "ByEntityTypes",
                  "entityTypes": ["Bullet"]
                }
              ],
              "fishtankMap": {
                "ALBJEAMOFLG": "_ABILITY_Diving_Aim_Target_Cache_Avatar"
              },
              "modifierName": "Octopus_Aim_TriggerAttack_OnBullet"
            }
          ]
        },
        "Octopus_Aim_TriggerAttack_OnGadget": {
          "modifierName": "",
          "elementDurability": 100.0,
          "modifierMixins": [
            {
              "$type": "AttachModifierToSelfGlobalValueMixin",
              "globalValueKey": "gv_ConnectType",
              "gvInTalk": 0.0,
              "valueSteps": [2.5, 3.5, 4.5],
              "modifierNameSteps": [
                "Octopus_Aim_TriggerAttack_OnGadget_Fx_01",
                "Octopus_Aim_TriggerAttack_OnGadget_Fx_02"
              ]
            }
          ],
          "onAdded": [
            {
              "$type": "SetTargetToTargetKey",
              "target": "Caster",
              "targetKey": "_TempAvatarTarget"
            }
          ]
        },
        "Octopus_Aim_TriggerAttack_OnGadget_Fx_01": {
          "modifierName": "",
          "elementDurability": 100.0,
          "onAdded": [
            {
              "$type": "AttachEffect",
              "target": "Caster",
              "rotationDampTime": "Eff_Avatar_Diving_Octopus_Line_01",
              "PPPDJGDDOGD": 1.0,
              "AJDILHJFNKE": -1.0,
              "setSelfAsEffectPluginTarget": true
            },
            {
              "$type": "AttachEffect",
              "target": "Caster",
              "rotationDampTime": "Eff_Avatar_Diving_Octopus_Line_01",
              "PPPDJGDDOGD": 1.0,
              "AJDILHJFNKE": -1.0,
              "setSelfAsEffectPluginTarget": true
            },
            {
              "$type": "AttachEffect",
              "rotationDampTime": "Eff_SkillObj_Absorb_Avatar_Lock_Gadget_Octopus_01",
              "PPPDJGDDOGD": 1.0,
              "AJDILHJFNKE": -1.0
            }
          ]
        },
        "Octopus_Aim_TriggerAttack_OnGadget_Fx_02": {
          "modifierName": "",
          "elementDurability": 100.0,
          "onAdded": [
            {
              "$type": "AttachEffect",
              "target": "Caster",
              "rotationDampTime": "Eff_Avatar_Diving_Octopus_Line_02",
              "PPPDJGDDOGD": 1.0,
              "AJDILHJFNKE": -1.0,
              "setSelfAsEffectPluginTarget": true
            },
            {
              "$type": "AttachEffect",
              "target": "Caster",
              "rotationDampTime": "Eff_Avatar_Diving_Octopus_Line_02",
              "PPPDJGDDOGD": 1.0,
              "AJDILHJFNKE": -1.0,
              "setSelfAsEffectPluginTarget": true
            },
            {
              "$type": "AttachEffect",
              "rotationDampTime": "Eff_SkillObj_Absorb_Avatar_Lock_Gadget_Octopus_02",
              "PPPDJGDDOGD": 1.0,
              "AJDILHJFNKE": -1.0
            }
          ]
        },
        "Octopus_Aim_TriggerAttack_OnMonster": {
          "modifierName": "",
          "elementDurability": 100.0,
          "thinkInterval": 0.4000000059604645,
          "onAdded": [
            {
              "$type": "AttachEffect",
              "target": "Caster",
              "rotationDampTime": "Eff_Avatar_Diving_Octopus_Line_Monster",
              "PPPDJGDDOGD": 1.0,
              "AJDILHJFNKE": -1.0,
              "setSelfAsEffectPluginTarget": true
            },
            {
              "$type": "AttachEffect",
              "target": "Caster",
              "rotationDampTime": "Eff_Avatar_Diving_Octopus_Line_Monster",
              "PPPDJGDDOGD": 1.0,
              "AJDILHJFNKE": -1.0,
              "setSelfAsEffectPluginTarget": true
            },
            {
              "$type": "AttachEffect",
              "rotationDampTime": "Eff_SkillObj_Absorb_Avatar_Lock_Octopus",
              "PPPDJGDDOGD": 1.0,
              "AJDILHJFNKE": -1.0
            },
            {
              "$type": "GDHGMAPPGHD",
              "shieldHP": true,
              "key": "DamageSystemValue",
              "damageRatio": "ElementLevelCo"
            }
          ],
          "onThinkInterval": [
            {
              "$type": "DamageByAttackValue",
              "born": {
                "$type": "ConfigBornByTarget",
                "offset": {
                  "x": 0.0,
                  "y": 1.0,
                  "z": 0.0
                }
              },
              "attackInfo": {
                "attackTag": "WaterGun",
                "attenuationTag": "",
                "attenuationGroup": "default",
                "attackProperty": {
                  "actorWindSubHurtDelta": 0.0,
                  "elementDurability": 0.0,
                  "strikeType": "Default",
                  "enBreak": 10.0,
                  "HMBONGBFIAP": ["DamageRatio", "DamageSystemValue", "MUL"],
                  "trueDamage": true,
                  "GLKMCMDJBIK": 0.0
                },
                "hitPattern": {
                  "onHitEffectName": "none",
                  "hitImpulseY": "",
                  "hitImpulseType": "LV1",
                  "hitHaltTimeScale": 0.05000000074505806
                }
              }
            },
            {
              "$type": "FireEffect",
              "rotationDampTime": "Eff_Avatar_Diving_Octopus_Monster_Hit",
              "born": {
                "$type": "ConfigBornByAttachPoint",
                "useRotation": true,
                "attachPointName": "RootNode"
              },
              "PPPDJGDDOGD": 1.0,
              "AJDILHJFNKE": -1.0
            }
          ]
        },
        "Octopus_Aim_TriggerAttack_OnBullet": {
          "modifierName": "",
          "elementDurability": 100.0,
          "thinkInterval": 0.20000000298023224,
          "onAdded": [
            {
              "$type": "SetGlobalDir",
              "key": "_CONTROLLEDMAGICBALLDIR_",
              "born": {
                "$type": "ConfigBornByAttachPoint",
                "offset": {
                  "x": 0.0,
                  "y": 0.0,
                  "z": 0.0
                },
                "direction": {
                  "$type": "ConfigDirectionByAttachPoint",
                  "attachPointName": "FocusAnchor",
                  "attachPointTargetType": "Caster"
                },
                "useRotation": true,
                "attachPointName": "FocusAnchor",
                "attachPointTargetType": "Caster"
              }
            },
            {
              "$type": "AttachEffect",
              "target": "Caster",
              "rotationDampTime": "Eff_Avatar_Diving_Octopus_Line_Monster",
              "PPPDJGDDOGD": 1.0,
              "AJDILHJFNKE": -1.0,
              "setSelfAsEffectPluginTarget": true
            },
            {
              "$type": "AttachEffect",
              "target": "Caster",
              "rotationDampTime": "Eff_Avatar_Diving_Octopus_Line_Monster",
              "PPPDJGDDOGD": 1.0,
              "AJDILHJFNKE": -1.0,
              "setSelfAsEffectPluginTarget": true
            },
            {
              "$type": "AttachEffect",
              "rotationDampTime": "Eff_SkillObj_Absorb_Avatar_Lock_Octopus",
              "PPPDJGDDOGD": 1.0,
              "AJDILHJFNKE": -1.0
            },
            {
              "$type": "SetGlobalValue",
              "value": 1.0,
              "key": "_ABILITY_Monster_JellyFish_03_MagicBall_BeCharged_",
              "maxValue": 0.0,
              "minValue": 0.0
            }
          ],
          "onRemoved": [
            {
              "$type": "SetGlobalValue",
              "value": 0.0,
              "key": "_ABILITY_Monster_JellyFish_03_MagicBall_BeCharged_",
              "maxValue": 0.0,
              "minValue": 0.0
            }
          ],
          "onThinkInterval": [
            {
              "$type": "SetGlobalDir",
              "key": "_CONTROLLEDMAGICBALLDIR_",
              "born": {
                "$type": "ConfigBornByAttachPoint",
                "offset": {
                  "x": 0.0,
                  "y": 0.0,
                  "z": 0.0
                },
                "direction": {
                  "$type": "ConfigDirectionByAttachPoint",
                  "attachPointName": "FocusAnchor",
                  "attachPointTargetType": "Caster"
                },
                "useRotation": true,
                "attachPointName": "FocusAnchor",
                "attachPointTargetType": "Caster"
              }
            }
          ]
        }
      },
      "isDynamicAbility": true,
      "KPEGFLKLCLE": true
    }
  },
  {
    "Default": {
      "$type": "ConfigAbility",
      "abilityName": "Avatar_DiveSkill_Octopus_AimGadget",
      "modifiers": {
        "Dive_Lock_Collider_Driver": {
          "modifierName": "",
          "elementDurability": 100.0,
          "modifierMixins": [
            {
              "$type": "HEBIBFLDAMG",
              "entityTypes": ["Gadget", "Platform", "Monster", "Bullet"],
              "colliderNodeName": "PRIVATE_RayCast",
              "FKECHNGFOEG": -1.0,
              "actionQueue": [
                {
                  "$type": "Predicated",
                  "target": "Target",
                  "predicates": [
                    {
                      "$type": "AHEDBPEIDHJ",
                      "target": "CasterOriginOwner"
                    }
                  ],
                  "targetPredicates": [
                    {
                      "$type": "ByEntityTypes",
                      "entityTypes": ["Gadget", "Platform"]
                    },
                    {
                      "$type": "JHAJOBAACDP",
                      "tag": "WaterGunTarget"
                    },
                    {
                      "$type": "ByNot",
                      "predicates": [
                        {
                          "$type": "PBNMMCGHGHK"
                        }
                      ]
                    }
                  ],
                  "successActions": [
                    {
                      "$type": "ApplyModifier",
                      "target": "Target",
                      "predicates": [
                        {
                          "$type": "BFLHPEICOEP",
                          "namedTransform": "ConnectPoint1"
                        }
                      ],
                      "modifierName": "SetGV_03"
                    },
                    {
                      "$type": "ApplyModifier",
                      "target": "Target",
                      "predicates": [
                        {
                          "$type": "BFLHPEICOEP",
                          "namedTransform": "ConnectPoint2"
                        }
                      ],
                      "modifierName": "SetGV_04"
                    },
                    {
                      "$type": "SetTargetToTargetKey",
                      "target": "Target",
                      "targetKey": "_ABILITY_Diving_Aim_Target_Cache"
                    },
                    {
                      "$type": "CopyGlobalValue",
                      "srcTarget": "Self",
                      "dstTarget": "OriginOwner",
                      "srcKey": "_ABILITY_Diving_Aim_Target_Cache_0",
                      "dstKey": "_ABILITY_Diving_Aim_Target_Cache_Avatar_0"
                    },
                    {
                      "$type": "CopyGlobalValue",
                      "srcTarget": "Self",
                      "dstTarget": "OriginOwner",
                      "srcKey": "_ABILITY_Diving_Aim_Target_Cache_1",
                      "dstKey": "_ABILITY_Diving_Aim_Target_Cache_Avatar_1"
                    },
                    {
                      "$type": "SetGlobalValue",
                      "target": "OriginOwner",
                      "value": 1.0,
                      "key": "_ABILITY_Diving_Aim_Success_Mark",
                      "maxValue": 0.0,
                      "minValue": 0.0
                    }
                  ]
                },
                {
                  "$type": "Predicated",
                  "target": "Target",
                  "targetPredicates": [
                    {
                      "$type": "ByEntityTypes",
                      "entityTypes": ["Monster"]
                    },
                    {
                      "$type": "ByTargetGlobalValue",
                      "key": "_ANIMAL_ENTITY_TYPE",
                      "value": 0.0,
                      "compareType": "NoneOrEqual"
                    },
                    {
                      "$type": "ByTargetGlobalValue",
                      "target": "Team",
                      "key": "_ABILITY_Dive_isInFondanieWater",
                      "value": 1.0
                    },
                    {
                      "$type": "ByNot",
                      "predicates": [
                        {
                          "$type": "DIADGMMLIDG"
                        }
                      ]
                    },
                    {
                      "$type": "ByNot",
                      "predicates": [
                        {
                          "$type": "PBNMMCGHGHK"
                        }
                      ]
                    }
                  ],
                  "successActions": [
                    {
                      "$type": "SetTargetToTargetKey",
                      "target": "Target",
                      "targetKey": "_ABILITY_Diving_Aim_Target_Cache"
                    },
                    {
                      "$type": "CopyGlobalValue",
                      "srcTarget": "Self",
                      "dstTarget": "OriginOwner",
                      "srcKey": "_ABILITY_Diving_Aim_Target_Cache_0",
                      "dstKey": "_ABILITY_Diving_Aim_Target_Cache_Avatar_0"
                    },
                    {
                      "$type": "CopyGlobalValue",
                      "srcTarget": "Self",
                      "dstTarget": "OriginOwner",
                      "srcKey": "_ABILITY_Diving_Aim_Target_Cache_1",
                      "dstKey": "_ABILITY_Diving_Aim_Target_Cache_Avatar_1"
                    },
                    {
                      "$type": "SetGlobalValue",
                      "target": "OriginOwner",
                      "value": 1.0,
                      "key": "_ABILITY_Diving_Aim_Success_Mark",
                      "maxValue": 0.0,
                      "minValue": 0.0
                    }
                  ]
                },
                {
                  "$type": "Predicated",
                  "target": "Target",
                  "targetPredicates": [
                    {
                      "$type": "ByEntityTypes",
                      "entityTypes": ["Bullet"]
                    },
                    {
                      "$type": "ByTargetGlobalValue",
                      "key": "_ABILITY_Monster_JellyFish_03_MagicBall_CanBeAimed_",
                      "value": 1.0
                    }
                  ],
                  "successActions": [
                    {
                      "$type": "SetTargetToTargetKey",
                      "target": "Target",
                      "targetKey": "_ABILITY_Diving_Aim_Target_Cache"
                    },
                    {
                      "$type": "CopyGlobalValue",
                      "srcTarget": "Self",
                      "dstTarget": "OriginOwner",
                      "srcKey": "_ABILITY_Diving_Aim_Target_Cache_0",
                      "dstKey": "_ABILITY_Diving_Aim_Target_Cache_Avatar_0"
                    },
                    {
                      "$type": "CopyGlobalValue",
                      "srcTarget": "Self",
                      "dstTarget": "OriginOwner",
                      "srcKey": "_ABILITY_Diving_Aim_Target_Cache_1",
                      "dstKey": "_ABILITY_Diving_Aim_Target_Cache_Avatar_1"
                    },
                    {
                      "$type": "SetGlobalValue",
                      "target": "OriginOwner",
                      "value": 1.0,
                      "key": "_ABILITY_Diving_Aim_Success_Mark",
                      "maxValue": 0.0,
                      "minValue": 0.0
                    }
                  ]
                }
              ],
              "onLeaveScopeActionQueue": [
                {
                  "$type": "SetGlobalValue",
                  "target": "OriginOwner",
                  "value": 0.0,
                  "key": "_ABILITY_Diving_Aim_Success_Mark",
                  "maxValue": 0.0,
                  "minValue": 0.0
                },
                {
                  "$type": "ApplyModifier",
                  "target": "Target",
                  "predicates": [
                    {
                      "$type": "AHEDBPEIDHJ",
                      "target": "CasterOriginOwner"
                    },
                    {
                      "$type": "ByEntityTypes",
                      "entityTypes": ["Gadget", "Platform"]
                    }
                  ],
                  "modifierName": "SetGV_00"
                }
              ],
              "onRemoveActionQueue": [
                {
                  "$type": "SetGlobalValue",
                  "target": "OriginOwner",
                  "value": 0.0,
                  "key": "_ABILITY_Diving_Aim_Success_Mark",
                  "maxValue": 0.0,
                  "minValue": 0.0
                },
                {
                  "$type": "ApplyModifier",
                  "target": "Target",
                  "predicates": [
                    {
                      "$type": "AHEDBPEIDHJ",
                      "target": "CasterOriginOwner"
                    },
                    {
                      "$type": "ByEntityTypes",
                      "entityTypes": ["Gadget", "Platform"]
                    }
                  ],
                  "modifierName": "SetGV_00"
                },
                {
                  "$type": "KillSelf"
                }
              ],
              "aimType": "OneInScope",
              "cd": ["ConnectPoint1", "ConnectPoint2"],
              "KFGJAHCMAAE": ["Gadget", "Platform"],
              "GOPFKHJJEAL": true,
              "MCIEEDEFKFK": true
            }
          ],
          "onRemoved": [
            {
              "$type": "ApplyModifier",
              "modifierName": "KillSelfDelay"
            }
          ]
        },
        "SetGV_00": {
          "modifierName": "",
          "duration": 0.20000000298023224,
          "elementDurability": 100.0,
          "onAdded": [
            {
              "$type": "SetGlobalValue",
              "value": 0.0,
              "key": "gv_ConnectType",
              "maxValue": 0.0,
              "minValue": 0.0
            }
          ]
        },
        "SetGV_03": {
          "modifierName": "",
          "duration": 0.20000000298023224,
          "elementDurability": 100.0,
          "onAdded": [
            {
              "$type": "SetGlobalValue",
              "value": 3.0,
              "key": "gv_ConnectType",
              "maxValue": 0.0,
              "minValue": 0.0
            }
          ]
        },
        "SetGV_04": {
          "modifierName": "",
          "duration": 0.20000000298023224,
          "elementDurability": 100.0,
          "onAdded": [
            {
              "$type": "SetGlobalValue",
              "value": 4.0,
              "key": "gv_ConnectType",
              "maxValue": 0.0,
              "minValue": 0.0
            }
          ]
        },
        "Dive_Lock_Collider_Driver_ExtraMode": {
          "modifierName": "",
          "elementDurability": 100.0,
          "modifierMixins": [
            {
              "$type": "HEBIBFLDAMG",
              "entityTypes": ["Gadget", "Platform"],
              "colliderNodeName": "PRIVATE_RayCast",
              "FKECHNGFOEG": -1.0,
              "actionQueue": [
                {
                  "$type": "DebugLog",
                  "content": "执行扫描"
                },
                {
                  "$type": "Predicated",
                  "target": "Target",
                  "targetPredicates": [
                    {
                      "$type": "ByEntityTypes",
                      "entityTypes": ["Gadget", "Platform"]
                    },
                    {
                      "$type": "JHAJOBAACDP",
                      "tag": "WaterGunTarget"
                    },
                    {
                      "$type": "ByNot",
                      "predicates": [
                        {
                          "$type": "PBNMMCGHGHK"
                        }
                      ]
                    }
                  ],
                  "successActions": [
                    {
                      "$type": "SetGlobalValue",
                      "target": "Target",
                      "value": 1.0,
                      "key": "_ABILITY_Diving_Aim_IsAct",
                      "maxValue": 0.0,
                      "minValue": 0.0
                    },
                    {
                      "$type": "SetGlobalValue",
                      "target": "Target",
                      "value": 3.0,
                      "key": "gv_ConnectType",
                      "maxValue": 0.0,
                      "minValue": 0.0
                    },
                    {
                      "$type": "AddGlobalValue",
                      "target": "OriginOwner",
                      "value": 1.0,
                      "key": "_ABILITY_Diving_Aim_Count",
                      "useLimitRange": true,
                      "maxValue": 10.0,
                      "minValue": 0.0
                    }
                  ]
                }
              ],
              "onLeaveScopeActionQueue": [
                {
                  "$type": "SetGlobalValue",
                  "target": "Target",
                  "value": 0.0,
                  "key": "_ABILITY_Diving_Aim_IsAct",
                  "maxValue": 0.0,
                  "minValue": 0.0
                },
                {
                  "$type": "SetGlobalValue",
                  "target": "Target",
                  "value": 0.0,
                  "key": "gv_ConnectType",
                  "maxValue": 0.0,
                  "minValue": 0.0
                },
                {
                  "$type": "AddGlobalValue",
                  "target": "OriginOwner",
                  "value": -1.0,
                  "key": "_ABILITY_Diving_Aim_Count",
                  "useLimitRange": true,
                  "maxValue": 10.0,
                  "minValue": 0.0
                }
              ],
              "onRemoveActionQueue": [
                {
                  "$type": "SetGlobalValue",
                  "target": "Target",
                  "value": 0.0,
                  "key": "gv_ConnectType",
                  "maxValue": 0.0,
                  "minValue": 0.0
                },
                {
                  "$type": "SetGlobalValue",
                  "target": "OriginOwner",
                  "value": 0.0,
                  "key": "_ABILITY_Diving_Aim_Count",
                  "maxValue": 0.0,
                  "minValue": 0.0
                },
                {
                  "$type": "SetGlobalValue",
                  "target": "Target",
                  "value": 0.0,
                  "key": "_ABILITY_Diving_Aim_IsAct",
                  "maxValue": 0.0,
                  "minValue": 0.0
                },
                {
                  "$type": "KillSelf"
                }
              ],
              "aimType": "AllInScope",
              "GOPFKHJJEAL": true,
              "MCIEEDEFKFK": true
            }
          ],
          "onAdded": [
            {
              "$type": "SetGlobalValue",
              "target": "OriginOwner",
              "value": 0.0,
              "key": "_ABILITY_Diving_Aim_Count",
              "maxValue": 0.0,
              "minValue": 0.0
            }
          ],
          "onRemoved": [
            {
              "$type": "ApplyModifier",
              "modifierName": "KillSelfDelay"
            }
          ]
        },
        "KillSelfDelay": {
          "modifierName": "",
          "duration": 0.30000001192092896,
          "elementDurability": 100.0,
          "onRemoved": [
            {
              "$type": "KillSelf"
            }
          ]
        }
      },
      "onAdded": [
        {
          "$type": "Predicated",
          "targetPredicates": [
            {
              "$type": "ByTargetGlobalValue",
              "target": "Team",
              "key": "_ABILITY_MagicWave_IsExtraMode",
              "value": 1.0
            }
          ],
          "successActions": [
            {
              "$type": "AttachModifier",
              "modifierName": "Dive_Lock_Collider_Driver_ExtraMode"
            }
          ],
          "failActions": [
            {
              "$type": "AttachModifier",
              "modifierName": "Dive_Lock_Collider_Driver"
            }
          ]
        }
      ]
    }
  },
  {
    "Default": {
      "$type": "ConfigAbility",
      "abilityName": "Avatar_DiveSkill_Octopus_OnGround_AbandonSkill",
      "modifiers": {
        "Combat_Detect": {
          "modifierName": "",
          "elementDurability": 100.0,
          "modifierMixins": [
            {
              "$type": "AvatarCombatMixin",
              "onEnterCombat": [
                {
                  "$type": "SetGlobalValue",
                  "target": "Team",
                  "value": 0.0,
                  "key": "_ABILITY_MagicWave_IsSwitchSkill",
                  "maxValue": 0.0,
                  "minValue": 0.0
                }
              ]
            },
            {
              "$type": "AttachModifierToGlobalValueMixin",
              "globalValueTarget": "Team",
              "globalValueKey": "_ABILITY_Dive_isInFondanieWater",
              "valueSteps": [0.5, 1.5],
              "modifierNameSteps": ["Reset_GV"]
            }
          ]
        },
        "Reset_GV": {
          "modifierName": "",
          "elementDurability": 100.0,
          "onAdded": [
            {
              "$type": "SetGlobalValue",
              "target": "Team",
              "value": 0.0,
              "key": "_ABILITY_MagicWave_State",
              "maxValue": 0.0,
              "minValue": 0.0
            },
            {
              "$type": "SetGlobalValue",
              "target": "Team",
              "value": 0.0,
              "key": "_ABILITY_MagicWave_IsSwitchSkill",
              "maxValue": 0.0,
              "minValue": 0.0
            }
          ]
        }
      },
      "onAdded": [
        {
          "$type": "SetGlobalValue",
          "target": "Team",
          "value": 0.0,
          "key": "_ABILITY_MagicWave_State",
          "maxValue": 0.0,
          "minValue": 0.0
        },
        {
          "$type": "SetGlobalValue",
          "target": "Team",
          "value": 1.0,
          "key": "_ABILITY_MagicWave_IsSwitchSkill",
          "maxValue": 0.0,
          "minValue": 0.0
        },
        {
          "$type": "MMEOBGGBNLK",
          "shieldHP": true
        },
        {
          "$type": "AttachModifier",
          "modifierName": "Combat_Detect"
        }
      ],
      "onAbilityStart": [
        {
          "$type": "Predicated",
          "targetPredicates": [
            {
              "$type": "ByTargetGlobalValue",
              "target": "Team",
              "key": "_ABILITY_MagicWave_IsSwitchSkill",
              "value": 1.0
            }
          ],
          "successActions": [
            {
              "$type": "SetGlobalValue",
              "target": "Team",
              "value": 0.0,
              "key": "_ABILITY_MagicWave_IsSwitchSkill",
              "maxValue": 0.0,
              "minValue": 0.0
            }
          ],
          "failActions": [
            {
              "$type": "SetGlobalValue",
              "target": "Team",
              "value": 1.0,
              "key": "_ABILITY_MagicWave_IsSwitchSkill",
              "maxValue": 0.0,
              "minValue": 0.0
            }
          ]
        },
        {
          "$type": "LIAKJHCLFLK"
        }
      ],
      "onAvatarIn": [
        {
          "$type": "SetGlobalValue",
          "target": "Team",
          "value": 0.0,
          "key": "_ABILITY_MagicWave_IsSwitchSkill",
          "maxValue": 0.0,
          "minValue": 0.0
        }
      ],
      "isDynamicAbility": true
    }
  },
  {
    "Default": {
      "$type": "ConfigAbility",
      "abilityName": "Avatar_DiveSkill_Octopus_OnGround",
      "abilityMixins": [
        {
          "$type": "ButtonHoldChargeMixin",
          "skillID": 20067,
          "chargeTime": 0.20000000298023224,
          "secondChargeTime": 999999.0,
          "onBeginUncharged": [
            {
              "$type": "ResetAnimatorTrigger",
              "triggerID": "StartChannelTrigger"
            },
            {
              "$type": "RemoveModifier",
              "modifierName": "Focus_Update"
            },
            {
              "$type": "SetAnimatorTrigger",
              "triggerID": "StartChannelTrigger"
            },
            {
              "$type": "AttachModifier",
              "modifierName": "Focus_Update"
            },
            {
              "$type": "AttachModifier",
              "modifierName": "Delay_Exit"
            }
          ],
          "onBeginCharged": [
            {
              "$type": "RemoveModifier",
              "modifierName": "Delay_Exit"
            }
          ],
          "onReleaseCharged": [
            {
              "$type": "SetAnimatorTrigger",
              "triggerID": "EndChannelTrigger"
            },
            {
              "$type": "RemoveModifier",
              "modifierName": "Focus_Update"
            },
            {
              "$type": "RemoveModifier",
              "modifierName": "Delay_Exit"
            }
          ],
          "onCancelCharged": [
            {
              "$type": "SetAnimatorTrigger",
              "triggerID": "EndChannelTrigger"
            },
            {
              "$type": "RemoveModifier",
              "modifierName": "Focus_Update"
            },
            {
              "$type": "RemoveModifier",
              "modifierName": "Delay_Exit"
            }
          ],
          "chargeStateIDs": ["Channel_BS", "Channel_Loop"]
        },
        {
          "$type": "JHHNCFECBGP",
          "JAMBGKHPBJM": 20067.0
        }
      ],
      "modifiers": {
        "Delay_Exit": {
          "modifierName": "",
          "duration": 1.2000000476837158,
          "elementDurability": 100.0,
          "thinkInterval": 0.800000011920929,
          "onThinkInterval": [
            {
              "$type": "SetAnimatorTrigger",
              "triggerID": "EndChannelTrigger"
            },
            {
              "$type": "RemoveModifier",
              "modifierName": "Focus_Update"
            },
            {
              "$type": "RemoveModifier",
              "modifierName": "Delay_Exit"
            }
          ],
          "onThinkIntervalIsFixedUpdate": true
        },
        "Avatar_DiveSkill_Octopus_AddSkillInfo": {
          "modifierName": "",
          "elementDurability": 100.0,
          "onAdded": [
            {
              "$type": "PDFENCBHHAI",
              "shieldHP": true,
              "skillID": 20067
            }
          ],
          "onRemoved": [
            {
              "$type": "KFOBADMAFJF",
              "shieldHP": true,
              "skillID": 20067,
              "refreshAfterRemove": true
            }
          ]
        },
        "Avatar_DiveSkill_Octopus_TickSkill": {
          "modifierName": "",
          "elementDurability": 100.0,
          "modifierMixins": [
            {
              "$type": "JPPFBGJICKI",
              "key": "_ABILITY_MagicWave_State",
              "maxValue": 0.0,
              "minValue": 0.0
            },
            {
              "$type": "JPPFBGJICKI",
              "key": "_ABILITY_MagicWave_IsSwitchSkill",
              "maxValue": 0.0,
              "minValue": 0.0
            },
            {
              "$type": "JPPFBGJICKI",
              "key": "_ABILITY_MagicWave_IsExtraMode",
              "maxValue": 0.0,
              "minValue": 0.0
            }
          ]
        },
        "Avatar_DiveSkill_Octopus_State_Handler": {
          "modifierName": "",
          "elementDurability": 100.0,
          "modifierMixins": [
            {
              "$type": "AttachModifierToGlobalValueMixin",
              "globalValueTarget": "Team",
              "globalValueKey": "_ABILITY_MagicWave_State",
              "valueSteps": [0.5, 1.5],
              "modifierNameSteps": ["Avatar_DiveSkill_Octopus_State"]
            }
          ]
        },
        "Avatar_DiveSkill_Octopus_State": {
          "modifierName": "",
          "elementDurability": 100.0,
          "thinkInterval": 2.0,
          "modifierMixins": [
            {
              "$type": "AttachModifierToGlobalValueMixin",
              "globalValueTarget": "Team",
              "globalValueKey": "_ABILITY_MagicWave_IsSwitchSkill",
              "valueSteps": [0.5, 1.5],
              "modifierNameSteps": ["Avatar_DiveSkill_Octopus_SwitchSkill"]
            }
          ],
          "onAdded": [
            {
              "$type": "MMEOBGGBNLK",
              "skillID": 20062
            },
            {
              "$type": "AttachModifier",
              "target": "Team",
              "modifierName": "UNIQUE_Avatar_DiveSkill_Octopus_Fx"
            },
            {
              "$type": "SendEffectTrigger",
              "target": "Team",
              "parameter": "Octopus_IsTrigger",
              "attachPoint": "",
              "damageRatio": "Bool",
              "value": 1,
              "rotationDampTime": "Eff_Avatar_Diving_Octopus_Gadget"
            }
          ],
          "onRemoved": [
            {
              "$type": "MMEOBGGBNLK",
              "shieldHP": true
            }
          ],
          "onThinkInterval": [
            {
              "$type": "MMEOBGGBNLK",
              "skillID": 20062
            },
            {
              "$type": "AttachModifier",
              "target": "Team",
              "modifierName": "UNIQUE_Avatar_DiveSkill_Octopus_Fx"
            }
          ]
        },
        "Avatar_DiveSkill_Octopus_SwitchSkill": {
          "modifierName": "",
          "elementDurability": 100.0,
          "modifierMixins": [
            {
              "$type": "SwitchSkillIDMixin",
              "priority": "AvatarSpecial",
              "skillIndex": 1,
              "skillID": 20067
            }
          ],
          "onAdded": [
            {
              "$type": "SendEffectTrigger",
              "target": "Team",
              "parameter": "Octopus_IsTrigger",
              "attachPoint": "",
              "damageRatio": "Bool",
              "value": 1,
              "rotationDampTime": "Eff_Avatar_Diving_Octopus_Gadget"
            },
            {
              "$type": "HCLAKBJKPLE",
              "watcherId": 1046,
              "authorityOnly": true
            }
          ],
          "onRemoved": [
            {
              "$type": "SendEffectTrigger",
              "target": "Team",
              "shieldHP": true,
              "parameter": "Octopus_IsTrigger",
              "attachPoint": "",
              "damageRatio": "Bool",
              "rotationDampTime": "Eff_Avatar_Diving_Octopus_Gadget"
            }
          ]
        },
        "UNIQUE_Avatar_DiveSkill_Octopus_Fx": {
          "modifierName": "",
          "forceTriggerWhenChangeAuthority": true,
          "elementDurability": 100.0,
          "onAdded": [
            {
              "$type": "AttachEffect",
              "rotationDampTime": "Eff_Avatar_Diving_Octopus_Gadget",
              "PPPDJGDDOGD": 1.0,
              "AJDILHJFNKE": -1.0
            }
          ]
        },
        "Avatar_Channel_LoopFx": {
          "modifierName": "",
          "elementDurability": 100.0,
          "onAdded": [
            {
              "$type": "AttachEffect",
              "rotationDampTime": "Eff_Avatar_Diving_Octopus_HandLoop",
              "PPPDJGDDOGD": 1.0,
              "AJDILHJFNKE": -1.0
            }
          ],
          "onRemoved": [
            {
              "$type": "AvatarSkillStart",
              "skillID": 20067,
              "amountByTargetCurrentHPRatio": 1.0,
              "costStaminaRatio": 1.0
            }
          ]
        },
        "Focus_Update": {
          "modifierName": "",
          "duration": 25.0,
          "elementDurability": 100.0,
          "modifierMixins": [
            {
              "$type": "AttachToStateIDMixin",
              "stateIDs": ["Channel_BS", "Channel_Loop"],
              "modifierName": "Focus",
              "DGFCLAIDIFI": ""
            }
          ]
        },
        "Focus": {
          "modifierName": "",
          "elementDurability": 100.0,
          "modifierMixins": [
            {
              "$type": "FMOKCPPLHDO"
            }
          ],
          "onAdded": [
            {
              "$type": "Predicated",
              "targetPredicates": [
                {
                  "$type": "ByTargetGlobalValue",
                  "target": "Self",
                  "key": "gv_SealedTower_WaterGunCamera",
                  "value": 1.0
                }
              ],
              "successActions": [
                {
                  "$type": "Predicated",
                  "targetPredicates": [
                    {
                      "$type": "BGMAGODJEMF",
                      "featureTagIDs": [1044]
                    }
                  ],
                  "successActions": [
                    {
                      "$type": "AvatarEnterFocus",
                      "cameraFollowLower": {
                        "x": 2.4000000953674316,
                        "y": 2.799999952316284,
                        "z": -8.5
                      },
                      "cameraFollowUpper": {
                        "x": 2.4000000953674316,
                        "y": 2.799999952316284,
                        "z": -8.5
                      },
                      "cameraFastFocusMode": true,
                      "dragButtonName": "Skill2",
                      "assistance": {
                        "ps4": {},
                        "ps5": {},
                        "other": {
                          "useGyro": true
                        }
                      },
                      "canMove": false,
                      "showCrosshair": false,
                      "disableAnim": true,
                      "OMHGAKJIEFB": ""
                    }
                  ]
                },
                {
                  "$type": "Predicated",
                  "targetPredicates": [
                    {
                      "$type": "BGMAGODJEMF",
                      "featureTagIDs": [1043]
                    }
                  ],
                  "successActions": [
                    {
                      "$type": "AvatarEnterFocus",
                      "cameraFollowLower": {
                        "x": 0.3499999940395355,
                        "y": 0.9599999785423279,
                        "z": -5.0
                      },
                      "cameraFollowUpper": {
                        "x": 0.3499999940395355,
                        "y": 0.9599999785423279,
                        "z": -4.599999904632568
                      },
                      "cameraFastFocusMode": true,
                      "dragButtonName": "Skill2",
                      "assistance": {
                        "ps4": {},
                        "ps5": {},
                        "other": {
                          "useGyro": true
                        }
                      },
                      "canMove": false,
                      "showCrosshair": false,
                      "disableAnim": true,
                      "OMHGAKJIEFB": ""
                    }
                  ]
                },
                {
                  "$type": "Predicated",
                  "targetPredicates": [
                    {
                      "$type": "BGMAGODJEMF",
                      "featureTagIDs": [1042]
                    }
                  ],
                  "successActions": [
                    {
                      "$type": "AvatarEnterFocus",
                      "cameraFollowLower": {
                        "x": 2.4000000953674316,
                        "y": 3.0,
                        "z": -8.5
                      },
                      "cameraFollowUpper": {
                        "x": 2.4000000953674316,
                        "y": 3.0,
                        "z": -8.5
                      },
                      "cameraFastFocusMode": true,
                      "dragButtonName": "Skill2",
                      "assistance": {
                        "ps4": {},
                        "ps5": {},
                        "other": {
                          "useGyro": true
                        }
                      },
                      "canMove": false,
                      "showCrosshair": false,
                      "disableAnim": true,
                      "OMHGAKJIEFB": ""
                    }
                  ]
                },
                {
                  "$type": "Predicated",
                  "targetPredicates": [
                    {
                      "$type": "BGMAGODJEMF",
                      "featureTagIDs": [1041]
                    }
                  ],
                  "successActions": [
                    {
                      "$type": "AvatarEnterFocus",
                      "cameraFollowLower": {
                        "x": 2.4000000953674316,
                        "y": 3.200000047683716,
                        "z": -8.5
                      },
                      "cameraFollowUpper": {
                        "x": 2.4000000953674316,
                        "y": 3.200000047683716,
                        "z": -8.5
                      },
                      "cameraFastFocusMode": true,
                      "dragButtonName": "Skill2",
                      "assistance": {
                        "ps4": {},
                        "ps5": {},
                        "other": {
                          "useGyro": true
                        }
                      },
                      "canMove": false,
                      "showCrosshair": false,
                      "disableAnim": true,
                      "OMHGAKJIEFB": ""
                    }
                  ]
                },
                {
                  "$type": "Predicated",
                  "targetPredicates": [
                    {
                      "$type": "BGMAGODJEMF",
                      "featureTagIDs": [1045]
                    }
                  ],
                  "successActions": [
                    {
                      "$type": "AvatarEnterFocus",
                      "cameraFollowLower": {
                        "x": 2.4000000953674316,
                        "y": 2.4000000953674316,
                        "z": -8.5
                      },
                      "cameraFollowUpper": {
                        "x": 2.4000000953674316,
                        "y": 2.4000000953674316,
                        "z": -8.5
                      },
                      "cameraFastFocusMode": true,
                      "dragButtonName": "Skill2",
                      "assistance": {
                        "ps4": {},
                        "ps5": {},
                        "other": {
                          "useGyro": true
                        }
                      },
                      "canMove": false,
                      "showCrosshair": false,
                      "disableAnim": true,
                      "OMHGAKJIEFB": ""
                    }
                  ]
                }
              ],
              "failActions": [
                {
                  "$type": "Predicated",
                  "targetPredicates": [
                    {
                      "$type": "BGMAGODJEMF",
                      "featureTagIDs": [1044]
                    }
                  ],
                  "successActions": [
                    {
                      "$type": "AvatarEnterFocus",
                      "cameraFollowLower": {
                        "x": 0.3499999940395355,
                        "y": 0.9599999785423279,
                        "z": -5.0
                      },
                      "cameraFollowUpper": {
                        "x": 0.3499999940395355,
                        "y": 0.9599999785423279,
                        "z": -4.599999904632568
                      },
                      "cameraFastFocusMode": true,
                      "dragButtonName": "Skill2",
                      "assistance": {
                        "ps4": {},
                        "ps5": {},
                        "other": {
                          "useGyro": true
                        }
                      },
                      "canMove": false,
                      "showCrosshair": false,
                      "disableAnim": true,
                      "OMHGAKJIEFB": ""
                    }
                  ]
                },
                {
                  "$type": "Predicated",
                  "targetPredicates": [
                    {
                      "$type": "BGMAGODJEMF",
                      "featureTagIDs": [1043]
                    }
                  ],
                  "successActions": [
                    {
                      "$type": "AvatarEnterFocus",
                      "cameraFollowLower": {
                        "x": 0.3499999940395355,
                        "y": 0.9599999785423279,
                        "z": -5.0
                      },
                      "cameraFollowUpper": {
                        "x": 0.3499999940395355,
                        "y": 0.9599999785423279,
                        "z": -4.599999904632568
                      },
                      "cameraFastFocusMode": true,
                      "dragButtonName": "Skill2",
                      "assistance": {
                        "ps4": {},
                        "ps5": {},
                        "other": {
                          "useGyro": true
                        }
                      },
                      "canMove": false,
                      "showCrosshair": false,
                      "disableAnim": true,
                      "OMHGAKJIEFB": ""
                    }
                  ]
                },
                {
                  "$type": "Predicated",
                  "targetPredicates": [
                    {
                      "$type": "BGMAGODJEMF",
                      "featureTagIDs": [1042]
                    }
                  ],
                  "successActions": [
                    {
                      "$type": "AvatarEnterFocus",
                      "cameraFollowLower": {
                        "x": 0.3499999940395355,
                        "y": 1.059999942779541,
                        "z": -5.0
                      },
                      "cameraFollowUpper": {
                        "x": 0.3499999940395355,
                        "y": 1.059999942779541,
                        "z": -4.599999904632568
                      },
                      "cameraFastFocusMode": true,
                      "dragButtonName": "Skill2",
                      "assistance": {
                        "ps4": {},
                        "ps5": {},
                        "other": {
                          "useGyro": true
                        }
                      },
                      "canMove": false,
                      "showCrosshair": false,
                      "disableAnim": true,
                      "OMHGAKJIEFB": ""
                    }
                  ]
                },
                {
                  "$type": "Predicated",
                  "targetPredicates": [
                    {
                      "$type": "BGMAGODJEMF",
                      "featureTagIDs": [1041]
                    }
                  ],
                  "successActions": [
                    {
                      "$type": "AvatarEnterFocus",
                      "cameraFollowLower": {
                        "x": 0.3499999940395355,
                        "y": 1.159999966621399,
                        "z": -5.0
                      },
                      "cameraFollowUpper": {
                        "x": 0.3499999940395355,
                        "y": 1.159999966621399,
                        "z": -4.599999904632568
                      },
                      "cameraFastFocusMode": true,
                      "dragButtonName": "Skill2",
                      "assistance": {
                        "ps4": {},
                        "ps5": {},
                        "other": {
                          "useGyro": true
                        }
                      },
                      "canMove": false,
                      "showCrosshair": false,
                      "disableAnim": true,
                      "OMHGAKJIEFB": ""
                    }
                  ]
                },
                {
                  "$type": "Predicated",
                  "targetPredicates": [
                    {
                      "$type": "BGMAGODJEMF",
                      "featureTagIDs": [1045]
                    }
                  ],
                  "successActions": [
                    {
                      "$type": "AvatarEnterFocus",
                      "cameraFollowLower": {
                        "x": 0.3499999940395355,
                        "y": 0.6600000262260437,
                        "z": -5.0
                      },
                      "cameraFollowUpper": {
                        "x": 0.3499999940395355,
                        "y": 0.6600000262260437,
                        "z": -4.599999904632568
                      },
                      "cameraFastFocusMode": true,
                      "dragButtonName": "Skill2",
                      "assistance": {
                        "ps4": {},
                        "ps5": {},
                        "other": {
                          "useGyro": true
                        }
                      },
                      "canMove": false,
                      "showCrosshair": false,
                      "disableAnim": true,
                      "OMHGAKJIEFB": ""
                    }
                  ]
                }
              ]
            },
            {
              "$type": "SetAnimatorBool",
              "boolID": "LockMotionFlagExitChannel",
              "value": true
            },
            {
              "$type": "SetGlobalValue",
              "value": 0.0,
              "key": "_ABILITY_Diving_Aim_Success_Mark",
              "maxValue": 0.0,
              "minValue": 0.0
            },
            {
              "$type": "SetTargetToTargetKey",
              "targetKey": "_ABILITY_Diving_Aim_Target_Cache_Avatar"
            },
            {
              "$type": "AttachModifier",
              "target": "Team",
              "modifierName": "Octopus_Aim_Camera_Eff"
            },
            {
              "$type": "Predicated",
              "target": "Team",
              "targetPredicates": [
                {
                  "$type": "ByTargetGlobalValue",
                  "key": "_ABILITY_MagicWave_IsExtraMode",
                  "value": 0.0,
                  "compareType": "NoneOrEqual"
                }
              ],
              "successActions": [
                {
                  "$type": "AttachModifier",
                  "modifierName": "Octopus_Aim_Handler"
                }
              ],
              "failActions": [
                {
                  "$type": "AttachModifier",
                  "modifierName": "Octopus_Aim_Handler_ExtraMode"
                }
              ]
            },
            {
              "$type": "AttachModifier",
              "modifierName": "Avatar_Channel_LoopFx"
            },
            {
              "$type": "CreateGadget",
              "born": {
                "$type": "ConfigBornBySelf",
                "offset": {
                  "x": 0.0,
                  "y": 0.0,
                  "z": 0.0
                },
                "useRotation": true
              },
              "gadgetID": 40034114,
              "campID": 1001,
              "campTargetType": "Enemy"
            },
            {
              "$type": "HCLAKBJKPLE",
              "watcherId": 81418,
              "authorityOnly": true
            },
            {
              "$type": "PPDJHLBHCIK",
              "shieldHP": true,
              "canBeHandledOnRecover": true,
              "muteRemoteAction": true,
              "toPlayMode": "ActivityAimState"
            }
          ],
          "onRemoved": [
            {
              "$type": "KillGadget",
              "shieldHP": true,
              "gadgetInfo": {
                "configID": 40034114
              }
            },
            {
              "$type": "AvatarExitFocus"
            },
            {
              "$type": "SetAnimatorTrigger",
              "triggerID": "EndChannelTrigger"
            },
            {
              "$type": "SetAnimatorBool",
              "shieldHP": true,
              "boolID": "LockMotionFlagExitChannel"
            },
            {
              "$type": "PPDJHLBHCIK",
              "shieldHP": true,
              "muteRemoteAction": true,
              "JFDCCIECAJB": "ActivityAimState"
            }
          ],
          "onKill": [
            {
              "$type": "KillGadget",
              "shieldHP": true,
              "gadgetInfo": {
                "configID": 40034114
              }
            },
            {
              "$type": "AvatarExitFocus"
            }
          ]
        },
        "Octopus_Aim_Camera_Eff": {
          "modifierName": "",
          "elementDurability": 100.0,
          "modifierMixins": [
            {
              "$type": "AttachActionToModifierMixin",
              "onAdded": [
                {
                  "$type": "DungeonFogEffects",
                  "canBeHandledOnRecover": true,
                  "muteRemoteAction": true,
                  "enable": true,
                  "cameraFogEffectName": "Eff_SkillObj_Absorb_Avatar_Octopus_Aim",
                  "playerFogEffectName": ""
                },
                {
                  "$type": "CNHCMGMMDCB",
                  "muteRemoteAction": true,
                  "parameter": "StartCircle",
                  "cameraFogEffectName": "Eff_SkillObj_Absorb_Avatar_Octopus_Aim"
                }
              ],
              "onRemoved": [
                {
                  "$type": "DungeonFogEffects",
                  "shieldHP": true,
                  "canBeHandledOnRecover": true,
                  "muteRemoteAction": true,
                  "cameraFogEffectName": "Eff_SkillObj_Absorb_Avatar_Octopus_Aim",
                  "playerFogEffectName": ""
                }
              ]
            }
          ]
        },
        "Octopus_Aim_Handler": {
          "modifierName": "",
          "elementDurability": 100.0,
          "modifierMixins": [
            {
              "$type": "DoActionOnGlobalValueChangeMixin",
              "globalValueKey": "_ABILITY_Diving_Aim_Success_Mark",
              "actions": [
                {
                  "$type": "Predicated",
                  "targetPredicates": [
                    {
                      "$type": "ByTargetGlobalValue",
                      "target": "Self",
                      "key": "_ABILITY_Diving_Aim_Success_Mark",
                      "value": 1.0
                    }
                  ],
                  "successActions": [
                    {
                      "$type": "SetSelfAttackTarget",
                      "target": "TempTarget",
                      "shieldHP": true,
                      "fishtankMap": {
                        "ALBJEAMOFLG": "_ABILITY_Diving_Aim_Target_Cache_Avatar"
                      }
                    },
                    {
                      "$type": "AttachModifier",
                      "modifierName": "Octopus_Aim_TriggerAttack"
                    }
                  ],
                  "failActions": [
                    {
                      "$type": "ClearLockTarget",
                      "onlyAvatar": false
                    },
                    {
                      "$type": "RemoveModifier",
                      "modifierName": "Octopus_Aim_TriggerAttack"
                    }
                  ]
                }
              ]
            }
          ]
        },
        "Octopus_Aim_Handler_ExtraMode": {
          "modifierName": "",
          "elementDurability": 100.0,
          "modifierMixins": [
            {
              "$type": "DoActionOnGlobalValueChangeMixin",
              "globalValueKey": "_ABILITY_Diving_Aim_Count",
              "actions": [
                {
                  "$type": "RemoveModifier",
                  "otherTargets": {
                    "$type": "SelectTargetsByShape",
                    "topLimit": 10,
                    "entityTypePriority": ["Gadget", "Platform"],
                    "sortType": "Nearest",
                    "shapeName": "CircleR30",
                    "campTargetType": "Enemy",
                    "doOffStage": 1.0
                  },
                  "predicates": [
                    {
                      "$type": "ByTargetGlobalValue",
                      "key": "_ABILITY_Diving_Aim_IsAct",
                      "value": 0.0,
                      "compareType": "NoneOrEqual"
                    }
                  ],
                  "modifierName": "Octopus_Aim_TriggerAttack_ExtraMode_OnGadget"
                },
                {
                  "$type": "AttachModifier",
                  "otherTargets": {
                    "$type": "SelectTargetsByShape",
                    "topLimit": 10,
                    "entityTypePriority": ["Gadget", "Platform"],
                    "sortType": "Nearest",
                    "shapeName": "CircleR30",
                    "campTargetType": "Enemy",
                    "doOffStage": 1.0
                  },
                  "predicates": [
                    {
                      "$type": "ByTargetGlobalValue",
                      "key": "_ABILITY_Diving_Aim_IsAct",
                      "value": 1.0
                    }
                  ],
                  "modifierName": "Octopus_Aim_TriggerAttack_ExtraMode_OnGadget"
                }
              ]
            }
          ]
        },
        "Octopus_Aim_TriggerAttack_ExtraMode_OnGadget": {
          "modifierName": "",
          "elementDurability": 100.0,
          "onAdded": [
            {
              "$type": "SetTargetToTargetKey",
              "target": "Caster",
              "targetKey": "_TempAvatarTarget"
            },
            {
              "$type": "AttachEffect",
              "target": "Caster",
              "rotationDampTime": "Eff_Avatar_Diving_Octopus_Line_01",
              "PPPDJGDDOGD": 1.0,
              "AJDILHJFNKE": -1.0,
              "setSelfAsEffectPluginTarget": true
            },
            {
              "$type": "AttachEffect",
              "target": "Caster",
              "rotationDampTime": "Eff_Avatar_Diving_Octopus_Line_01",
              "PPPDJGDDOGD": 1.0,
              "AJDILHJFNKE": -1.0,
              "setSelfAsEffectPluginTarget": true
            },
            {
              "$type": "AttachEffect",
              "rotationDampTime": "Eff_SkillObj_Absorb_Avatar_Lock_Gadget_Octopus_01",
              "PPPDJGDDOGD": 1.0,
              "AJDILHJFNKE": -1.0
            }
          ]
        },
        "Octopus_Aim_TriggerAttack": {
          "modifierName": "",
          "elementDurability": 100.0,
          "onAdded": [
            {
              "$type": "AttachModifier",
              "target": "TempTarget",
              "predicates": [
                {
                  "$type": "ByEntityTypes",
                  "entityTypes": ["Gadget", "Platform"]
                }
              ],
              "fishtankMap": {
                "ALBJEAMOFLG": "_ABILITY_Diving_Aim_Target_Cache_Avatar"
              },
              "modifierName": "Octopus_Aim_TriggerAttack_OnGadget"
            },
            {
              "$type": "AttachModifier",
              "target": "TempTarget",
              "predicates": [
                {
                  "$type": "ByEntityTypes",
                  "entityTypes": ["Monster"]
                }
              ],
              "fishtankMap": {
                "ALBJEAMOFLG": "_ABILITY_Diving_Aim_Target_Cache_Avatar"
              },
              "modifierName": "Octopus_Aim_TriggerAttack_OnMonster"
            }
          ]
        },
        "Octopus_Aim_TriggerAttack_OnGadget": {
          "modifierName": "",
          "elementDurability": 100.0,
          "modifierMixins": [
            {
              "$type": "AttachModifierToSelfGlobalValueMixin",
              "globalValueKey": "gv_ConnectType",
              "gvInTalk": 0.0,
              "valueSteps": [2.5, 3.5, 4.5],
              "modifierNameSteps": [
                "Octopus_Aim_TriggerAttack_OnGadget_Fx_01",
                "Octopus_Aim_TriggerAttack_OnGadget_Fx_02"
              ]
            }
          ],
          "onAdded": [
            {
              "$type": "SetTargetToTargetKey",
              "target": "Caster",
              "targetKey": "_TempAvatarTarget"
            }
          ]
        },
        "Octopus_Aim_TriggerAttack_OnGadget_Fx_01": {
          "modifierName": "",
          "elementDurability": 100.0,
          "onAdded": [
            {
              "$type": "AttachEffect",
              "target": "Caster",
              "rotationDampTime": "Eff_Avatar_Diving_Octopus_Line_01",
              "PPPDJGDDOGD": 1.0,
              "AJDILHJFNKE": -1.0,
              "setSelfAsEffectPluginTarget": true
            },
            {
              "$type": "AttachEffect",
              "target": "Caster",
              "rotationDampTime": "Eff_Avatar_Diving_Octopus_Line_01",
              "PPPDJGDDOGD": 1.0,
              "AJDILHJFNKE": -1.0,
              "setSelfAsEffectPluginTarget": true
            },
            {
              "$type": "AttachEffect",
              "rotationDampTime": "Eff_SkillObj_Absorb_Avatar_Lock_Gadget_Octopus_01",
              "PPPDJGDDOGD": 1.0,
              "AJDILHJFNKE": -1.0
            }
          ]
        },
        "Octopus_Aim_TriggerAttack_OnGadget_Fx_02": {
          "modifierName": "",
          "elementDurability": 100.0,
          "onAdded": [
            {
              "$type": "AttachEffect",
              "target": "Caster",
              "rotationDampTime": "Eff_Avatar_Diving_Octopus_Line_02",
              "PPPDJGDDOGD": 1.0,
              "AJDILHJFNKE": -1.0,
              "setSelfAsEffectPluginTarget": true
            },
            {
              "$type": "AttachEffect",
              "target": "Caster",
              "rotationDampTime": "Eff_Avatar_Diving_Octopus_Line_02",
              "PPPDJGDDOGD": 1.0,
              "AJDILHJFNKE": -1.0,
              "setSelfAsEffectPluginTarget": true
            },
            {
              "$type": "AttachEffect",
              "rotationDampTime": "Eff_SkillObj_Absorb_Avatar_Lock_Gadget_Octopus_02",
              "PPPDJGDDOGD": 1.0,
              "AJDILHJFNKE": -1.0
            }
          ]
        },
        "Octopus_Aim_TriggerAttack_OnMonster": {
          "modifierName": "",
          "elementDurability": 100.0
        }
      },
      "onAdded": [
        {
          "$type": "AttachModifier",
          "modifierName": "Avatar_DiveSkill_Octopus_AddSkillInfo"
        },
        {
          "$type": "AttachModifier",
          "target": "Team",
          "modifierName": "Avatar_DiveSkill_Octopus_TickSkill"
        },
        {
          "$type": "AttachModifier",
          "modifierName": "Avatar_DiveSkill_Octopus_State_Handler"
        }
      ],
      "isDynamicAbility": true
    }
  }
]
