[
  {
    "Default": {
      "$type": "ConfigAbility",
      "abilityName": "ActivityAbility_Lannaluo_Handler",
      "abilityMixins": [
        {
          "$type": "AvatarCombatMixin",
          "onEnterCombat": [
            {
              "$type": "SetAnimatorTrigger",
              "triggerID": "EndChannelTrigger"
            }
          ]
        }
      ],
      "onRemoved": [
        {
          "$type": "SetAnimatorTrigger",
          "shieldHP": true,
          "triggerID": "EndChannelTrigger"
        }
      ],
      "onAbilityStart": [
        {
          "$type": "Predicated",
          "targetPredicates": [
            {
              "$type": "ByTargetGlobalValue",
              "key": "_ABILITY_Lannaluo_IsInState",
              "value": 1.0
            }
          ],
          "successActions": [
            {
              "$type": "SetAnimatorTrigger",
              "triggerID": "EndChannelTrigger"
            }
          ],
          "failActions": [
            {
              "$type": "SetAnimatorTrigger",
              "triggerID": "StartChannelTrigger"
            }
          ]
        }
      ],
      "isDynamicAbility": true
    }
  },
  {
    "Default": {
      "$type": "ConfigAbility",
      "abilityName": "ActivityAbility_Lannaluo_Shoot",
      "abilityMixins": [
        {
          "$type": "FKKJJMOHCLI",
          "targetWidgetMaterialIDs": [220053, 220071],
          "onActive": [
            {
              "$type": "AttachModifier",
              "shieldHP": true,
              "modifierName": "ActivityAbility_Lannaluo_Shoot_Handler"
            }
          ],
          "onDisable": [
            {
              "$type": "RemoveModifier",
              "shieldHP": true,
              "modifierName": "ActivityAbility_Lannaluo_Shoot_Handler"
            }
          ]
        }
      ],
      "abilitySpecials": {
        "Skill_State": 0.0
      },
      "modifiers": {
        "ActivityAbility_Lannaluo_Shoot_Handler": {
          "modifierName": "",
          "elementDurability": 100.0,
          "modifierMixins": [
            {
              "$type": "AttachToStateIDMixin",
              "stateIDs": ["Channel_BS", "Channel_Loop"],
              "modifierName": "ActivityAbility_Lannaluo_ChangePlayMode",
              "DGFCLAIDIFI": ""
            },
            {
              "$type": "AttachToStateIDMixin",
              "stateIDs": ["Channel_BS", "Channel_Loop"],
              "modifierName": "ActivityAbility_Lannaluo_Focus",
              "DGFCLAIDIFI": ""
            }
          ]
        },
        "ActivityAbility_Lannaluo_ChangePlayMode": {
          "modifierName": "",
          "elementDurability": 100.0,
          "modifierMixins": [
            {
              "$type": "KGGIJDLICMA",
              "targetWidgetMaterialId": 220053
            },
            {
              "$type": "KGGIJDLICMA",
              "targetWidgetMaterialId": 220071
            }
          ],
          "onAdded": [
            {
              "$type": "PPDJHLBHCIK",
              "shieldHP": true,
              "muteRemoteAction": true,
              "toPlayMode": "LannaluoState"
            },
            {
              "$type": "SetGlobalValue",
              "value": 1.0,
              "key": "_ABILITY_Lannaluo_IsInState",
              "maxValue": 0.0,
              "minValue": 0.0
            }
          ],
          "onRemoved": [
            {
              "$type": "PPDJHLBHCIK",
              "shieldHP": true,
              "muteRemoteAction": true,
              "JFDCCIECAJB": "LannaluoState"
            },
            {
              "$type": "SetGlobalValue",
              "shieldHP": true,
              "value": 0.0,
              "key": "_ABILITY_Lannaluo_IsInState",
              "maxValue": 0.0,
              "minValue": 0.0
            }
          ]
        },
        "ActivityAbility_Lannaluo_Focus": {
          "modifierName": "",
          "elementDurability": 100.0,
          "onAdded": [
            {
              "$type": "AvatarEnterFocus",
              "cameraFollowLower": {
                "x": 0.6000000238418579,
                "y": 0.20000000298023224,
                "z": -1.7999999523162842
              },
              "cameraFollowUpper": {
                "x": 0.6000000238418579,
                "y": -0.10000000149011612,
                "z": -1.7999999523162842
              },
              "cameraFollowMaxDegree": 40.0,
              "cameraFollowMinDegree": -40.0,
              "dragButtonName": "Skill2",
              "assistance": {
                "ps4": {
                  "useGyro": true
                },
                "ps5": {
                  "useGyro": true
                },
                "other": {
                  "useGyro": true
                }
              },
              "canMove": false,
              "showCrosshair": false,
              "vcamFov": 30.0,
              "disableAnim": true,
              "OMHGAKJIEFB": ""
            },
            {
              "$type": "SetAnimatorBool",
              "boolID": "LockMotionFlagExitChannel",
              "value": true
            },
            {
              "$type": "SetGlobalValue",
              "value": 1.0,
              "key": "_ABILITY_Common_IsChannelState",
              "maxValue": 0.0,
              "minValue": 0.0
            }
          ],
          "onRemoved": [
            {
              "$type": "AvatarExitFocus",
              "shieldHP": true,
              "keepRotation": true
            },
            {
              "$type": "SetAnimatorBool",
              "shieldHP": true,
              "boolID": "LockMotionFlagExitChannel"
            },
            {
              "$type": "SetGlobalValue",
              "shieldHP": true,
              "value": 0.0,
              "key": "_ABILITY_Common_IsChannelState",
              "maxValue": 0.0,
              "minValue": 0.0
            }
          ]
        },
        "ActivityAbility_Lannaluo_TriggerShoot": {
          "modifierName": "",
          "duration": 0.5,
          "elementDurability": 100.0,
          "onAdded": [
            {
              "$type": "SetGlobalValueToOverrideMap",
              "globalValueKey": "_ABILITY_Lannaluo_SkillState",
              "overrideMapKey": "Skill_State"
            },
            {
              "$type": "SetGlobalValue",
              "value": "Skill_State",
              "key": "_ABILITY_Lannaluo_Skill_InTime",
              "maxValue": 0.0,
              "minValue": 0.0
            },
            {
              "$type": "TriggerBullet",
              "bulletID": 420000017,
              "born": {
                "$type": "ConfigBornByAttachPoint",
                "attachPointName": "FocusAnchor"
              }
            },
            {
              "$type": "AvatarSkillStart",
              "skillID": 20330,
              "amountByTargetCurrentHPRatio": 1.0,
              "costStaminaRatio": 1.0
            }
          ]
        },
        "ActivityAbility_Lannaluo_Skill_CD": {
          "modifierName": "",
          "duration": 1.0,
          "elementDurability": 100.0,
          "onAdded": [
            {
              "$type": "SetGlobalValue",
              "value": 1.0,
              "key": "_ABILITY_Lannaluo_CD",
              "maxValue": 0.0,
              "minValue": 0.0
            }
          ],
          "onRemoved": [
            {
              "$type": "SetGlobalValue",
              "shieldHP": true,
              "value": 0.0,
              "key": "_ABILITY_Lannaluo_CD",
              "maxValue": 0.0,
              "minValue": 0.0
            }
          ]
        }
      },
      "onAbilityStart": [
        {
          "$type": "ApplyModifier",
          "modifierName": "ActivityAbility_Lannaluo_TriggerShoot"
        },
        {
          "$type": "ApplyModifier",
          "modifierName": "ActivityAbility_Lannaluo_Skill_CD"
        }
      ],
      "onKill": [
        {
          "$type": "PPDJHLBHCIK",
          "shieldHP": true,
          "muteRemoteAction": true,
          "JFDCCIECAJB": "LannaluoState"
        }
      ],
      "isDynamicAbility": true
    }
  },
  {
    "Default": {
      "$type": "ConfigAbility",
      "abilityName": "ActivityAbility_Lannaluo_Skill",
      "abilityMixins": [
        {
          "$type": "FKKJJMOHCLI",
          "targetWidgetMaterialIDs": [220053, 220071],
          "onActive": [
            {
              "$type": "AttachModifier",
              "shieldHP": true,
              "modifierName": "ActivityAbility_Lannaluo_Skill_Handler"
            }
          ],
          "onDisable": [
            {
              "$type": "RemoveModifier",
              "shieldHP": true,
              "modifierName": "ActivityAbility_Lannaluo_Skill_Handler"
            }
          ]
        }
      ],
      "modifiers": {
        "ActivityAbility_Lannaluo_Skill_Handler": {
          "modifierName": "",
          "elementDurability": 100.0,
          "modifierMixins": [
            {
              "$type": "AttachToStateIDMixin",
              "stateIDs": ["Channel_BS", "Channel_Loop"],
              "modifierName": "ActivityAbility_Lannaluo_SwitchSkill",
              "DGFCLAIDIFI": ""
            },
            {
              "$type": "AttachToStateIDMixin",
              "stateIDs": ["Channel_BS", "Channel_Loop"],
              "modifierName": "ActivityAbility_Lannaluo_Skill_Handler_01",
              "DGFCLAIDIFI": ""
            }
          ]
        },
        "ActivityAbility_Lannaluo_Skill_Add": {
          "modifierName": "",
          "elementDurability": 100.0,
          "thinkInterval": 2.0,
          "onAdded": [
            {
              "$type": "PDFENCBHHAI",
              "shieldHP": true,
              "skillID": 20330
            },
            {
              "$type": "PDFENCBHHAI",
              "shieldHP": true,
              "skillID": 20331
            }
          ],
          "onRemoved": [
            {
              "$type": "KFOBADMAFJF",
              "shieldHP": true,
              "skillID": 20330,
              "refreshAfterRemove": true
            },
            {
              "$type": "KFOBADMAFJF",
              "shieldHP": true,
              "skillID": 20331,
              "refreshAfterRemove": true
            }
          ],
          "onThinkInterval": [
            {
              "$type": "PDFENCBHHAI",
              "shieldHP": true,
              "skillID": 20330
            },
            {
              "$type": "PDFENCBHHAI",
              "shieldHP": true,
              "skillID": 20331
            }
          ]
        },
        "ActivityAbility_Lannaluo_SwitchSkill": {
          "modifierName": "",
          "elementDurability": 100.0,
          "modifierMixins": [
            {
              "$type": "SwitchSkillIDMixin",
              "priority": "Playmode",
              "skillID": 20330
            },
            {
              "$type": "SwitchSkillIDMixin",
              "priority": "Playmode",
              "skillIndex": 1,
              "skillID": 20331
            },
            {
              "$type": "AttachModifierToGlobalValueMixin",
              "globalValueTarget": "Team",
              "globalValueKey": "SGV_LanlaluoCommander",
              "valueSteps": [0.5, 1.5, 2.5, 3.5, 4.5],
              "modifierNameSteps": [
                "ActivityAbility_Lannaluo_Switch_Forbid",
                "ActivityAbility_Lannaluo_Switch_Forbid",
                "ActivityAbility_Lannaluo_Switch_Forbid",
                "Blank"
              ],
              "actionQueues": [
                [
                  {
                    "$type": "SetGlobalValue",
                    "value": 1.0,
                    "key": "_ABILITY_Lannaluo_SkillState",
                    "maxValue": 0.0,
                    "minValue": 0.0
                  }
                ],
                [
                  {
                    "$type": "SetGlobalValue",
                    "value": 2.0,
                    "key": "_ABILITY_Lannaluo_SkillState",
                    "maxValue": 0.0,
                    "minValue": 0.0
                  }
                ],
                [
                  {
                    "$type": "SetGlobalValue",
                    "value": 3.0,
                    "key": "_ABILITY_Lannaluo_SkillState",
                    "maxValue": 0.0,
                    "minValue": 0.0
                  }
                ],
                [
                  {
                    "$type": "SetGlobalValue",
                    "predicates": [
                      {
                        "$type": "ByTargetGlobalValue",
                        "key": "_ABILITY_Lannaluo_SkillState",
                        "value": 0.0,
                        "compareType": "NoneOrEqual"
                      }
                    ],
                    "value": 1.0,
                    "key": "_ABILITY_Lannaluo_SkillState",
                    "maxValue": 0.0,
                    "minValue": 0.0
                  }
                ]
              ]
            }
          ]
        },
        "ActivityAbility_Lannaluo_Switch_Forbid": {
          "modifierName": "",
          "elementDurability": 100.0,
          "modifierMixins": [
            {
              "$type": "KAIOONFFNHC",
              "slotType": "Slot2"
            }
          ]
        },
        "ActivityAbility_Lannaluo_Skill_Handler_01": {
          "modifierName": "",
          "elementDurability": 100.0,
          "modifierMixins": [
            {
              "$type": "AttachModifierToSelfGlobalValueMixin",
              "globalValueKey": "_ABILITY_Lannaluo_CD",
              "gvInTalk": 0.0,
              "valueSteps": [-0.5, 0.5, 1.5],
              "modifierNameSteps": [
                "ActivityAbility_Lannaluo_Skill_Handler_02",
                "Blank"
              ]
            },
            {
              "$type": "AttachModifierToSelfGlobalValueMixin",
              "globalValueKey": "_ABILITY_Lannaluo_SkillState",
              "gvInTalk": 0.0,
              "valueSteps": [0.5, 1.5, 2.5, 3.5],
              "modifierNameSteps": [
                "ActivityAbility_Lannaluo_Eff_01",
                "ActivityAbility_Lannaluo_Eff_02",
                "ActivityAbility_Lannaluo_Eff_03"
              ]
            }
          ]
        },
        "Blank": {
          "modifierName": "",
          "elementDurability": 100.0
        },
        "ActivityAbility_Lannaluo_Skill_Handler_02": {
          "modifierName": "",
          "elementDurability": 100.0,
          "modifierMixins": [
            {
              "$type": "AttachModifierToSelfGlobalValueMixin",
              "globalValueKey": "_ABILITY_Lannaluo_SkillState",
              "gvInTalk": 0.0,
              "valueSteps": [0.5, 1.5, 2.5, 3.5],
              "modifierNameSteps": [
                "ActivityAbility_Lannaluo_Skill_01",
                "ActivityAbility_Lannaluo_Skill_02",
                "ActivityAbility_Lannaluo_Skill_03"
              ]
            }
          ]
        },
        "ActivityAbility_Lannaluo_Skill_01": {
          "modifierName": "",
          "elementDurability": 100.0,
          "onAdded": [
            {
              "$type": "SetGlobalValue",
              "value": 15.0,
              "key": "_FURIOUSMONOLITH_THROW_RANGE",
              "maxValue": 0.0,
              "minValue": 0.0
            },
            {
              "$type": "AttachEffect",
              "rotationDampTime": "Eff_SceneObj_Lannaluo_Aim_Line_01",
              "PPPDJGDDOGD": 1.0,
              "AJDILHJFNKE": -1.0
            }
          ]
        },
        "ActivityAbility_Lannaluo_Skill_02": {
          "modifierName": "",
          "elementDurability": 100.0,
          "onAdded": [
            {
              "$type": "SetGlobalValue",
              "value": 15.0,
              "key": "_FURIOUSMONOLITH_THROW_RANGE",
              "maxValue": 0.0,
              "minValue": 0.0
            },
            {
              "$type": "AttachEffect",
              "rotationDampTime": "Eff_SceneObj_Lannaluo_Aim_Line_02",
              "PPPDJGDDOGD": 1.0,
              "AJDILHJFNKE": -1.0
            }
          ]
        },
        "ActivityAbility_Lannaluo_Skill_03": {
          "modifierName": "",
          "elementDurability": 100.0,
          "onAdded": [
            {
              "$type": "SetGlobalValue",
              "value": 15.0,
              "key": "_FURIOUSMONOLITH_THROW_RANGE",
              "maxValue": 0.0,
              "minValue": 0.0
            },
            {
              "$type": "AttachEffect",
              "rotationDampTime": "Eff_SceneObj_Lannaluo_Aim_Line_03",
              "PPPDJGDDOGD": 1.0,
              "AJDILHJFNKE": -1.0
            }
          ]
        },
        "ActivityAbility_Lannaluo_Eff_01": {
          "modifierName": "",
          "elementDurability": 100.0,
          "onAdded": [
            {
              "$type": "AttachEffect",
              "rotationDampTime": "Eff_SceneObj_Lannaluo_Aim_Charge_01",
              "PPPDJGDDOGD": 1.0,
              "AJDILHJFNKE": -1.0
            }
          ]
        },
        "ActivityAbility_Lannaluo_Eff_02": {
          "modifierName": "",
          "elementDurability": 100.0,
          "onAdded": [
            {
              "$type": "AttachEffect",
              "rotationDampTime": "Eff_SceneObj_Lannaluo_Aim_Charge_02",
              "PPPDJGDDOGD": 1.0,
              "AJDILHJFNKE": -1.0
            }
          ]
        },
        "ActivityAbility_Lannaluo_Eff_03": {
          "modifierName": "",
          "elementDurability": 100.0,
          "onAdded": [
            {
              "$type": "AttachEffect",
              "rotationDampTime": "Eff_SceneObj_Lannaluo_Aim_Charge_03",
              "PPPDJGDDOGD": 1.0,
              "AJDILHJFNKE": -1.0
            }
          ]
        }
      },
      "onAdded": [
        {
          "$type": "SetGlobalValue",
          "value": 1.0,
          "key": "_ABILITY_Lannaluo_SkillState",
          "maxValue": 0.0,
          "minValue": 0.0
        },
        {
          "$type": "AttachModifier",
          "modifierName": "ActivityAbility_Lannaluo_Skill_Add"
        }
      ],
      "onAbilityStart": [
        {
          "$type": "Predicated",
          "targetPredicates": [
            {
              "$type": "ByTargetGlobalValue",
              "key": "_ABILITY_Lannaluo_SkillState",
              "value": 3.0
            }
          ],
          "successActions": [
            {
              "$type": "SetGlobalValue",
              "value": 1.0,
              "key": "_ABILITY_Lannaluo_SkillState",
              "maxValue": 0.0,
              "minValue": 0.0
            }
          ],
          "failActions": [
            {
              "$type": "AddGlobalValue",
              "value": 1.0,
              "key": "_ABILITY_Lannaluo_SkillState",
              "useLimitRange": true,
              "maxValue": 3.0,
              "minValue": 1.0
            }
          ]
        },
        {
          "$type": "AvatarSkillStart",
          "skillID": 20331,
          "amountByTargetCurrentHPRatio": 0.5,
          "costStaminaRatio": 1.0
        }
      ],
      "isDynamicAbility": true
    }
  },
  {
    "Default": {
      "$type": "ConfigAbility",
      "abilityName": "ActivityAbility_Lannaluo_Shooter",
      "onAbilityStart": [
        {
          "$type": "CreateGadget",
          "born": {
            "$type": "ConfigBornBySelf",
            "offset": {
              "x": 0.0,
              "y": 0.5,
              "z": 0.0
            }
          },
          "gadgetID": 420000018,
          "campID": 1001,
          "campTargetType": "Enemy"
        }
      ]
    }
  },
  {
    "Default": {
      "$type": "ConfigAbility",
      "abilityName": "ActivityAbility_Lannaluo_Gadget",
      "modifiers": {
        "ActivityAbility_Lannaluo_Trigger_Skill01": {
          "modifierName": "",
          "duration": 1.0,
          "elementDurability": 100.0,
          "onAdded": [
            {
              "$type": "FireEffect",
              "rotationDampTime": "Eff_SceneObj_Lannaluo_SkillBurst_01",
              "PPPDJGDDOGD": 1.0,
              "AJDILHJFNKE": -1.0
            }
          ],
          "onRemoved": [
            {
              "$type": "TriggerAttackEvent",
              "attackEvent": {
                "attackPattern": {
                  "$type": "ConfigAttackSphere",
                  "triggerType": "TriggerNoRepeat",
                  "born": {
                    "$type": "ConfigBornBySelf"
                  },
                  "radius": 3.5
                },
                "attackInfo": {
                  "attackTag": "Activity_Lannaluo_Type_01",
                  "attenuationTag": "",
                  "attenuationGroup": "default",
                  "attackProperty": {
                    "actorGrassSubHurtDelta": 0.0,
                    "actorWindSubHurtDelta": 0.0,
                    "elementType": "AntiFire",
                    "elementDurability": 0.0,
                    "strikeType": "Default",
                    "enBreak": 0.0,
                    "GLKMCMDJBIK": 0.0
                  },
                  "hitPattern": {
                    "onHitEffectName": "none",
                    "hitImpulseY": "",
                    "hitImpulseType": "LV1",
                    "muteHitText": true
                  }
                }
              },
              "targetType": "Enemy"
            }
          ]
        },
        "ActivityAbility_Lannaluo_Trigger_Skill02": {
          "modifierName": "",
          "duration": 1.0,
          "elementDurability": 100.0,
          "onAdded": [
            {
              "$type": "FireEffect",
              "rotationDampTime": "Eff_SceneObj_Lannaluo_SkillBurst_02",
              "PPPDJGDDOGD": 1.0,
              "AJDILHJFNKE": -1.0
            }
          ],
          "onRemoved": [
            {
              "$type": "TriggerAttackEvent",
              "attackEvent": {
                "attackPattern": {
                  "$type": "ConfigAttackSphere",
                  "triggerType": "TriggerNoRepeat",
                  "born": {
                    "$type": "ConfigBornBySelf"
                  },
                  "radius": 3.5
                },
                "attackInfo": {
                  "attackTag": "Activity_Lannaluo_Type_02",
                  "attenuationTag": "",
                  "attenuationGroup": "default",
                  "attackProperty": {
                    "actorGrassSubHurtDelta": 0.0,
                    "actorWindSubHurtDelta": 0.0,
                    "elementType": "AntiFire",
                    "elementDurability": 0.0,
                    "strikeType": "Default",
                    "enBreak": 0.0,
                    "GLKMCMDJBIK": 0.0
                  },
                  "hitPattern": {
                    "onHitEffectName": "none",
                    "hitImpulseY": "",
                    "hitImpulseType": "LV1",
                    "muteHitText": true
                  }
                }
              },
              "targetType": "Enemy"
            }
          ]
        },
        "ActivityAbility_Lannaluo_Trigger_Skill03": {
          "modifierName": "",
          "duration": 1.0,
          "elementDurability": 100.0,
          "onAdded": [
            {
              "$type": "FireEffect",
              "rotationDampTime": "Eff_SceneObj_Lannaluo_SkillBurst_03",
              "PPPDJGDDOGD": 1.0,
              "AJDILHJFNKE": -1.0
            }
          ],
          "onRemoved": [
            {
              "$type": "TriggerAttackEvent",
              "attackEvent": {
                "attackPattern": {
                  "$type": "ConfigAttackSphere",
                  "triggerType": "TriggerNoRepeat",
                  "born": {
                    "$type": "ConfigBornBySelf"
                  },
                  "radius": 3.5
                },
                "attackInfo": {
                  "attackTag": "Activity_Lannaluo_Type_03",
                  "attenuationTag": "",
                  "attenuationGroup": "default",
                  "attackProperty": {
                    "actorGrassSubHurtDelta": 0.0,
                    "actorWindSubHurtDelta": 0.0,
                    "elementType": "AntiFire",
                    "elementDurability": 0.0,
                    "strikeType": "Default",
                    "enBreak": 0.0,
                    "GLKMCMDJBIK": 0.0
                  },
                  "hitPattern": {
                    "onHitEffectName": "none",
                    "hitImpulseY": "",
                    "hitImpulseType": "LV1",
                    "muteHitText": true
                  }
                }
              },
              "targetType": "Enemy"
            }
          ]
        }
      },
      "onAdded": [
        {
          "$type": "ApplyModifier",
          "predicates": [
            {
              "$type": "ByTargetGlobalValue",
              "target": "OriginOwner",
              "key": "_ABILITY_Lannaluo_Skill_InTime",
              "value": 1.0
            }
          ],
          "modifierName": "ActivityAbility_Lannaluo_Trigger_Skill01"
        },
        {
          "$type": "ApplyModifier",
          "predicates": [
            {
              "$type": "ByTargetGlobalValue",
              "target": "OriginOwner",
              "key": "_ABILITY_Lannaluo_Skill_InTime",
              "value": 2.0
            }
          ],
          "modifierName": "ActivityAbility_Lannaluo_Trigger_Skill02"
        },
        {
          "$type": "ApplyModifier",
          "predicates": [
            {
              "$type": "ByTargetGlobalValue",
              "target": "OriginOwner",
              "key": "_ABILITY_Lannaluo_Skill_InTime",
              "value": 3.0
            }
          ],
          "modifierName": "ActivityAbility_Lannaluo_Trigger_Skill03"
        }
      ]
    }
  }
]
