[
  {
    "Default": {
      "$type": "ConfigAbility",
      "abilityName": "Avatar_Absorb_OctopusDash_Click",
      "onAbilityStart": [
        {
          "$type": "AvatarSkillStart",
          "skillID": 20047,
          "amountByTargetCurrentHPRatio": 1.0,
          "costStaminaRatio": 1.0
        },
        {
          "$type": "SetGlobalPos",
          "shieldHP": true,
          "key": "_ABILITY_OctopusDash_AttackPos",
          "born": {
            "$type": "ConfigBornBySelf",
            "offset": {
              "x": 0.0,
              "y": 0.0,
              "z": 5.0
            },
            "useRotation": true
          }
        },
        {
          "$type": "TriggerBullet",
          "bulletID": 40034100,
          "born": {
            "$type": "ConfigBornByAttachPoint",
            "offset": {
              "x": 0.0,
              "y": 0.0,
              "z": 0.699999988079071
            },
            "direction": {
              "$type": "ConfigDirectionByAttachPoint",
              "angleOffset": {
                "x": 0.0,
                "y": 0.0,
                "z": 0.0
              },
              "maxAngleType": "Vertical",
              "maxAngle": 75.0,
              "attachPointName": "FocusAnchor",
              "attachPointTargetType": "Self"
            },
            "useRotation": true,
            "attachPointName": "FocusAnchor",
            "attachPointTargetType": "Self"
          }
        },
        {
          "$type": "SetAnimatorBool",
          "boolID": "CombatAir",
          "value": true,
          "persistent": true
        }
      ]
    }
  },
  {
    "Default": {
      "$type": "ConfigAbility",
      "abilityName": "Avatar_Absorb_OctopusDash_Charge",
      "abilityMixins": [
        {
          "$type": "SkillButtonHoldChargeMixin",
          "skillID": 20047,
          "nextLoopTriggerID": "NextLoopTrigger",
          "endHoldTrigger": "EndHoldTrigger",
          "beforeStateIDs": ["OctopusDash_BS"],
          "beforeHoldDuration": 0.10000000149011612,
          "chargeLoopStateIDs": ["OctopusDash_Loop"],
          "afterStateIDs": ["OctopusDash_Cast", "OctopusDash_AS"],
          "chargeLoopDurations": [10.0]
        },
        {
          "$type": "AttachToStateIDMixin",
          "stateIDs": ["OctopusDash_Loop"],
          "modifierName": "Charge",
          "DGFCLAIDIFI": ""
        }
      ],
      "modifiers": {
        "Charge": {
          "modifierName": "",
          "elementDurability": 100.0,
          "onAdded": [
            {
              "$type": "AddGlobalValue",
              "value": 8.0,
              "key": "_Keqing_Aim_Range",
              "useLimitRange": true,
              "maxValue": 8.0,
              "minValue": 8.0
            },
            {
              "$type": "AttachEffect",
              "rotationDampTime": "Eff_Avatar_Keqing_ElementalArt_Charge_Aim",
              "PPPDJGDDOGD": 1.0,
              "AJDILHJFNKE": -1.0
            }
          ]
        }
      },
      "onAbilityStart": [
        {
          "$type": "AvatarSkillStart",
          "skillID": 20047,
          "amountByTargetCurrentHPRatio": 1.0,
          "costStaminaRatio": 1.0
        },
        {
          "$type": "SetAnimatorBool",
          "boolID": "CombatAir",
          "value": true,
          "persistent": true
        },
        {
          "$type": "SetGlobalPos",
          "shieldHP": true,
          "key": "_ABILITY_OctopusDash_AttackPos",
          "born": {
            "$type": "ConfigBornBySelf",
            "offset": {
              "x": 0.0,
              "y": 0.0,
              "z": 5.0
            },
            "useRotation": true
          }
        },
        {
          "$type": "TriggerBullet",
          "bulletID": 40034100,
          "born": {
            "$type": "ConfigBornByAttachPoint",
            "offset": {
              "x": 0.0,
              "y": 0.0,
              "z": 0.699999988079071
            },
            "direction": {
              "$type": "ConfigDirectionByAttachPoint",
              "angleOffset": {
                "x": 0.0,
                "y": 0.0,
                "z": 0.0
              },
              "attachPointName": "FocusAnchor",
              "attachPointTargetType": "Self"
            },
            "useRotation": true,
            "attachPointName": "FocusAnchor"
          }
        }
      ]
    }
  },
  {
    "Default": {
      "$type": "ConfigAbility",
      "abilityName": "Avatar_Absorb_OctopusDash_Trigger",
      "onAbilityStart": [
        {
          "$type": "SetAnimatorTrigger",
          "triggerID": "DoSkill"
        },
        {
          "$type": "SetAnimatorInt",
          "intID": "SkillID",
          "value": 202.0
        }
      ]
    }
  },
  {
    "Default": {
      "$type": "ConfigAbility",
      "abilityName": "Avatar_Absorb_OctopusDash_Part2",
      "abilityMixins": [
        {
          "$type": "AttachToNormalizedTimeMixin",
          "stateID": "OctopusDash_Dash",
          "modifierName": "CloseCollider",
          "normalizeEnd": 0.25999999046325684,
          "DGFCLAIDIFI": ""
        },
        {
          "$type": "AttachToStateIDMixin",
          "stateIDs": ["OctopusDash_Dash"],
          "modifierName": "LoseWeight",
          "DGFCLAIDIFI": ""
        },
        {
          "$type": "AttachToStateIDMixin",
          "stateIDs": ["OctopusDash_Dash"],
          "modifierName": "VFX",
          "DGFCLAIDIFI": ""
        }
      ],
      "abilitySpecials": {
        "Dura": 0.6000000238418579
      },
      "modifiers": {
        "VFX": {
          "modifierName": "",
          "elementDurability": 100.0,
          "onAdded": [
            {
              "$type": "AttachEffect",
              "rotationDampTime": "Eff_Avatar_OctopusDash_Dash_WhiteBox",
              "PPPDJGDDOGD": 1.0,
              "AJDILHJFNKE": -1.0
            }
          ]
        },
        "CloseCollider": {
          "modifierName": "",
          "elementDurability": 100.0,
          "onAdded": [
            {
              "$type": "TriggerSetPassThrough",
              "shieldHP": true,
              "passThrough": true
            }
          ],
          "onRemoved": [
            {
              "$type": "TriggerSetPassThrough",
              "shieldHP": true,
              "canBeHandledOnRecover": true
            },
            {
              "$type": "RemoveVelocityForce",
              "forces": ["RushMoveType", "InertiaType"]
            }
          ]
        },
        "LoseWeight": {
          "modifierName": "",
          "elementDurability": 100.0,
          "properties": {
            "Actor_AddGravityScale": -2.0,
            "Actor_FallingDamageRatio": -1.0
          },
          "onAdded": [
            {
              "$type": "SetVelocityIgnoreAirGY",
              "ignoreAirGY": true
            }
          ],
          "onRemoved": [
            {
              "$type": "SetVelocityIgnoreAirGY",
              "shieldHP": true
            },
            {
              "$type": "RemoveVelocityForce",
              "forces": ["RushMoveType", "InertiaType"]
            }
          ]
        }
      },
      "onAbilityStart": [
        {
          "$type": "FixedAvatarRushMove",
          "target": "Target",
          "toPos": {
            "$type": "ConfigBornByGlobalValue",
            "offset": {
              "x": 0.0,
              "y": 0.0,
              "z": 0.0
            },
            "positionKey": "_ABILITY_OctopusDash_AttackPos",
            "directionKey": ""
          },
          "NKPCHMCNNOK": 0.30000001192092896,
          "maxRange": 30.0,
          "animatorStateIDs": ["OctopusDash_Dash"],
          "overrideMoveCollider": "",
          "isInAir": true
        }
      ]
    }
  },
  {
    "Default": {
      "$type": "ConfigAbility",
      "abilityName": "Bullet_Absorb_OctopusDash",
      "abilitySpecials": {
        "ExtraHeight": 0.0,
        "Damage": 0.0
      },
      "onAdded": [
        {
          "$type": "FireEffect",
          "target": "Owner",
          "rotationDampTime": "Eff_Avatar_Diving_Absorb_Bullet_Back",
          "born": {
            "$type": "ConfigBornByAttachPoint",
            "useRotation": true,
            "attachPointName": "RootNode"
          },
          "PPPDJGDDOGD": 1.0,
          "AJDILHJFNKE": -1.0,
          "setSelfAsEffectPluginTarget": true
        }
      ]
    }
  },
  {
    "Default": {
      "$type": "ConfigAbility",
      "abilityName": "Avatar_Absorb_OctopusDash_Dash_CreateBullet",
      "onAbilityStart": [
        {
          "$type": "TriggerBullet",
          "bulletID": 40034101
        }
      ]
    }
  },
  {
    "Default": {
      "$type": "ConfigAbility",
      "abilityName": "Avatar_Absorb_OctopusDash_Dash_Bullet",
      "onAdded": [
        {
          "$type": "Predicated",
          "target": "Owner",
          "targetPredicates": [
            {
              "$type": "ByEntityTypes",
              "entityTypes": ["Avatar"]
            }
          ],
          "successActions": [
            {
              "$type": "FireEffect",
              "target": "Owner",
              "rotationDampTime": "Eff_Avatar_Diving_Absorb_Bullet_Back",
              "born": {
                "$type": "ConfigBornByAttachPoint",
                "useRotation": true,
                "attachPointName": "RootNode"
              },
              "PPPDJGDDOGD": 1.0,
              "AJDILHJFNKE": -1.0,
              "setSelfAsEffectPluginTarget": true
            }
          ],
          "failActions": [
            {
              "$type": "FireEffect",
              "target": "Owner",
              "rotationDampTime": "Eff_Avatar_Diving_Absorb_Bullet_Back",
              "born": {
                "$type": "ConfigBornByAttachPoint",
                "useRotation": true,
                "attachPointName": "RootNode"
              },
              "PPPDJGDDOGD": 1.0,
              "AJDILHJFNKE": -1.0,
              "setSelfAsEffectPluginTarget": true
            }
          ]
        }
      ]
    }
  },
  {
    "Default": {
      "$type": "ConfigAbility",
      "abilityName": "Avatar_Absorb_SwordFishSlash",
      "abilityMixins": [
        {
          "$type": "CCCOHMGIJPA",
          "index": 3,
          "otherTargets": {
            "$type": "SelectTargetsByShape",
            "topLimit": 1,
            "sortType": "HigherScoreByParam",
            "scoreParams": {
              "$type": "EBLFNNGANAG",
              "OMLEPLLPLDC": true,
              "useJoyStick": true,
              "overrideC": 0.8999999761581421,
              "overrideD": 0.0
            },
            "shapeName": "CircleR15H30",
            "campTargetType": "Enemy",
            "doOffStage": 1.0
          },
          "predicates": [
            {
              "$type": "DGKEPPCGHOO",
              "KMCAMFIJLAC": true
            },
            {
              "$type": "ByNot",
              "predicates": [
                {
                  "$type": "DIADGMMLIDG"
                }
              ]
            },
            {
              "$type": "ByEntityTypes",
              "entityTypes": ["Gadget", "Monster", "Platform"]
            },
            {
              "$type": "ByTargetGlobalValue",
              "key": "_ANIMAL_ENTITY_TYPE",
              "value": 0.0,
              "compareType": "NoneOrEqual"
            }
          ],
          "actionQueue": [
            {
              "$type": "SetSelfAttackTarget",
              "target": "Target"
            },
            {
              "$type": "TriggerBullet",
              "bulletID": 40034103,
              "born": {
                "$type": "ConfigBornBySelf",
                "offset": {
                  "x": 0.5,
                  "y": 1.5,
                  "z": -0.5
                },
                "direction": {
                  "$type": "ConfigDirectionByAttackTarget",
                  "startPoint": ""
                },
                "useRotation": true
              },
              "ownerIs": "OriginOwner",
              "propOwnerIs": "OriginOwner"
            }
          ],
          "LHHLHCEIINF": [
            {
              "$type": "TriggerBullet",
              "bulletID": 40034103,
              "born": {
                "$type": "ConfigBornBySelf",
                "offset": {
                  "x": 0.5,
                  "y": 1.5,
                  "z": -0.5
                },
                "direction": {
                  "$type": "ConfigDirectionByDefault",
                  "angleOffset": {
                    "x": 0.0,
                    "y": 0.0,
                    "z": 0.0
                  }
                },
                "useRotation": true
              },
              "ownerIs": "OriginOwner",
              "propOwnerIs": "OriginOwner"
            }
          ],
          "EBMENFOLACN": "",
          "ODHOEDANPHF": ""
        },
        {
          "$type": "ButtonHoldChargeMixin",
          "skillID": 20050,
          "chargeTime": 0.25,
          "secondChargeTime": 999999.0,
          "onBeginUncharged": [
            {
              "$type": "ResetAnimatorTrigger",
              "triggerID": "EndDiveCastTrigger"
            },
            {
              "$type": "RemoveModifier",
              "modifierName": "SetTrigger"
            }
          ],
          "onReleaseUncharged": [
            {
              "$type": "ApplyModifier",
              "shieldHP": true,
              "modifierName": "Shoot_Short"
            }
          ],
          "onBeginCharged": [
            {
              "$type": "RemoveModifier",
              "modifierName": "Focus_Father"
            },
            {
              "$type": "ApplyModifier",
              "predicates": [
                {
                  "$type": "ByTargetGlobalValue",
                  "target": "Self",
                  "key": "_ABILITY_Diving_Skill_In_Focus_Skill_Mark",
                  "value": 0.0,
                  "compareType": "NoneOrEqual"
                }
              ],
              "modifierName": "Focus_Father"
            },
            {
              "$type": "SetAnimatorTrigger",
              "triggerID": "StartDiveCastTrigger"
            },
            {
              "$type": "SetAnimatorTrigger",
              "triggerID": "StartDiveCastTrigger2"
            }
          ],
          "onReleaseCharged": [
            {
              "$type": "SetAnimatorTrigger",
              "triggerID": "EndDiveCastTrigger"
            },
            {
              "$type": "ApplyModifier",
              "modifierName": "SetTrigger"
            },
            {
              "$type": "RemoveModifier",
              "modifierName": "VFX"
            }
          ],
          "onCancelCharged": [
            {
              "$type": "SetAnimatorTrigger",
              "triggerID": "EndDiveCastTrigger"
            },
            {
              "$type": "ApplyModifier",
              "predicates": [
                {
                  "$type": "ByTargetGlobalValue",
                  "target": "Self",
                  "key": "_ABILITY_Diving_Skill_In_Focus_Skill_Mark",
                  "value": 2.0
                }
              ],
              "modifierName": "Remove_Focus"
            }
          ],
          "chargeStateIDs": ["DiveCast_BS", "DiveCast_Loop"]
        },
        {
          "$type": "AttachModifierToGlobalValueMixin",
          "globalValueTarget": "Team",
          "globalValueKey": "_ABILITY_Dive_isInFondanieWater",
          "valueSteps": [-0.5, 0.5],
          "modifierNameSteps": ["Clear_Focus_Father"]
        }
      ],
      "modifiers": {
        "Clear_Focus_Father": {
          "stacking": "Multiple",
          "modifierName": "",
          "duration": 0.20000000298023224,
          "elementDurability": 100.0,
          "onAdded": [
            {
              "$type": "RemoveModifier",
              "shieldHP": true,
              "modifierName": "Focus_Father"
            }
          ]
        },
        "Focus_Father": {
          "modifierName": "",
          "elementDurability": 100.0,
          "modifierMixins": [
            {
              "$type": "AttachToMultiNormalizedTimeMixin",
              "normalizedStateIDList": [
                {
                  "stateID": "DiveCast_BS"
                },
                {
                  "stateID": "DiveCast_Loop"
                },
                {
                  "stateID": "DiveCast_AS",
                  "normalizeEnd": 0.14499999582767487
                }
              ],
              "modifierName": "Focus",
              "DGFCLAIDIFI": ""
            },
            {
              "$type": "AttachToStateIDMixin",
              "stateIDs": ["DiveCast_BS", "DiveCast_Loop"],
              "modifierName": "Focus_Remove_Delay_Trigger",
              "isCheckOnAttach": true,
              "DGFCLAIDIFI": ""
            }
          ],
          "onAdded": [
            {
              "$type": "SetGlobalValue",
              "shieldHP": true,
              "value": 2.0,
              "key": "_ABILITY_Diving_Skill_In_Focus_Skill_Mark",
              "maxValue": 0.0,
              "minValue": 0.0
            }
          ],
          "onRemoved": [
            {
              "$type": "SetGlobalValue",
              "shieldHP": true,
              "value": 0.0,
              "key": "_ABILITY_Diving_Skill_In_Focus_Skill_Mark",
              "maxValue": 0.0,
              "minValue": 0.0
            }
          ]
        },
        "Focus_Remove_Delay_Trigger": {
          "modifierName": "",
          "duration": 10.0,
          "elementDurability": 100.0,
          "onRemoved": [
            {
              "$type": "SetAnimatorTrigger",
              "triggerID": "EndDiveCastTrigger"
            },
            {
              "$type": "ApplyModifier",
              "predicates": [
                {
                  "$type": "ByTargetGlobalValue",
                  "target": "Self",
                  "key": "_ABILITY_Diving_Skill_In_Focus_Skill_Mark",
                  "value": 2.0
                }
              ],
              "modifierName": "Remove_Focus"
            }
          ]
        },
        "Remove_Focus": {
          "modifierName": "",
          "duration": 0.5,
          "elementDurability": 100.0,
          "onAdded": [
            {
              "$type": "ApplyModifier",
              "modifierName": "Shoot_Long_Delay"
            }
          ],
          "onRemoved": [
            {
              "$type": "RemoveModifier",
              "shieldHP": true,
              "modifierName": "Focus"
            }
          ]
        },
        "SetTrigger": {
          "modifierName": "",
          "duration": 0.15000000596046448,
          "elementDurability": 100.0,
          "onRemoved": [
            {
              "$type": "SetAnimatorTrigger",
              "triggerID": "EndDiveCastTrigger"
            }
          ]
        },
        "Shoot_Short": {
          "modifierName": "",
          "duration": 0.20000000298023224,
          "elementDurability": 100.0,
          "onAdded": [
            {
              "$type": "Predicated",
              "target": "CurLocalAvatar",
              "targetPredicates": [
                {
                  "$type": "ByTargetGlobalValue",
                  "key": "_ABILITY_Diving_SkillCDReduction",
                  "value": 1.0
                }
              ],
              "successActions": [
                {
                  "$type": "PPMAOBKEOHI",
                  "skillID": 20050,
                  "shareCDType": 1
                }
              ],
              "failActions": [
                {
                  "$type": "PPMAOBKEOHI",
                  "skillID": 20050
                }
              ]
            },
            {
              "$type": "ForceUseSkillSuccess",
              "skillID": 20050,
              "damageRatio": "Skill"
            },
            {
              "$type": "SetGlobalValue",
              "target": "Team",
              "value": 1.0,
              "key": "_ABILITY_WhiteBox_Dive_Team_Trigger",
              "maxValue": 0.0,
              "minValue": 0.0
            },
            {
              "$type": "SetGlobalValue",
              "value": 0.0,
              "key": "_ABILITY_Avatar_Absorb_SwordFishSlash_HasTarget_Flag",
              "maxValue": 0.0,
              "minValue": 0.0
            },
            {
              "$type": "ClearLockTarget",
              "onlyAvatar": false
            },
            {
              "$type": "KPNBIIFKALF",
              "index": 3
            }
          ]
        },
        "Avatar_Absorb_SwordFishSlash_Loop": {
          "modifierName": "",
          "elementDurability": 100.0,
          "onAdded": [
            {
              "$type": "SetAnimatorTrigger",
              "otherTargets": {
                "$type": "SelectTargetsByChildren",
                "configID": 40034001
              },
              "triggerID": "Loop"
            }
          ]
        },
        "Shoot_Long_Delay": {
          "stacking": "Unique",
          "modifierName": "",
          "duration": 0.20000000298023224,
          "elementDurability": 100.0,
          "thinkInterval": 0.12999999523162842,
          "onAdded": [
            {
              "$type": "FireEffect",
              "rotationDampTime": "Eff_Avatar_Diving_Slash_Cast",
              "PPPDJGDDOGD": 1.0,
              "AJDILHJFNKE": -1.0
            }
          ],
          "onThinkInterval": [
            {
              "$type": "ApplyModifier",
              "modifierName": "Shoot_Long"
            },
            {
              "$type": "ApplyModifier",
              "modifierName": "VFX_Trigger"
            }
          ],
          "onThinkIntervalIsFixedUpdate": true
        },
        "Shoot_Long": {
          "stacking": "Unique",
          "modifierName": "",
          "duration": 0.5,
          "elementDurability": 100.0,
          "onAdded": [
            {
              "$type": "Predicated",
              "targetPredicates": [
                {
                  "$type": "ByTargetGlobalValue",
                  "key": "_ABILITY_WhiteBox_Dive",
                  "value": 2.0
                }
              ],
              "successActions": [
                {
                  "$type": "Predicated",
                  "target": "CurLocalAvatar",
                  "targetPredicates": [
                    {
                      "$type": "ByTargetGlobalValue",
                      "key": "_ABILITY_Diving_SkillCDReduction",
                      "value": 1.0
                    }
                  ],
                  "successActions": [
                    {
                      "$type": "PPMAOBKEOHI",
                      "skillID": 20050,
                      "shareCDType": 1
                    }
                  ],
                  "failActions": [
                    {
                      "$type": "PPMAOBKEOHI",
                      "skillID": 20050
                    }
                  ]
                },
                {
                  "$type": "ForceUseSkillSuccess",
                  "skillID": 20050,
                  "damageRatio": "Skill"
                },
                {
                  "$type": "TriggerBullet",
                  "bulletID": 40034102,
                  "born": {
                    "$type": "ConfigBornByAttachPoint",
                    "offset": {
                      "x": 0.0,
                      "y": 0.0,
                      "z": 0.0
                    },
                    "direction": {
                      "$type": "ConfigDirectionByAttachPoint",
                      "angleOffset": {
                        "x": 0.0,
                        "y": 0.0,
                        "z": 0.0
                      },
                      "attachPointName": "FocusAnchor",
                      "attachPointTargetType": "Self"
                    },
                    "useRotation": true,
                    "attachPointName": "FocusAnchor",
                    "attachPointTargetType": "Self"
                  }
                },
                {
                  "$type": "SetAnimatorTrigger",
                  "otherTargets": {
                    "$type": "SelectTargetsByChildren",
                    "configID": 40034001
                  },
                  "triggerID": "LoopAttack"
                }
              ]
            }
          ]
        },
        "Lock_Eff": {
          "modifierName": "",
          "duration": 10.0,
          "elementDurability": 100.0,
          "onAdded": [
            {
              "$type": "AttachEffect",
              "rotationDampTime": "Eff_Avatar_Boy_Pole_Mika_ElementalArt_Lock",
              "PPPDJGDDOGD": 1.0,
              "AJDILHJFNKE": -1.0
            }
          ]
        },
        "Aim": {
          "modifierName": "",
          "elementDurability": 100.0,
          "modifierMixins": [
            {
              "$type": "PBIEAKMPGAE",
              "entityTypes": ["Monster", "Gadget", "Platform"],
              "colliderNodeName": "PRIVATE_RayCast",
              "FKECHNGFOEG": -1.0,
              "actionQueue": [
                {
                  "$type": "AttachModifier",
                  "target": "Target",
                  "predicates": [
                    {
                      "$type": "ByEntityTypes",
                      "entityTypes": ["Monster", "Gadget", "Platform"]
                    },
                    {
                      "$type": "ByTargetGlobalValue",
                      "key": "_ANIMAL_ENTITY_TYPE",
                      "value": 0.0,
                      "compareType": "NoneOrEqual"
                    },
                    {
                      "$type": "ByNot",
                      "predicates": [
                        {
                          "$type": "PBNMMCGHGHK"
                        }
                      ]
                    }
                  ],
                  "modifierName": "Lock_Eff"
                },
                {
                  "$type": "SetSelfAttackTarget",
                  "target": "Target",
                  "predicates": [
                    {
                      "$type": "ByEntityTypes",
                      "entityTypes": ["Monster", "Gadget", "Platform"]
                    },
                    {
                      "$type": "ByTargetGlobalValue",
                      "key": "_ANIMAL_ENTITY_TYPE",
                      "value": 0.0,
                      "compareType": "NoneOrEqual"
                    },
                    {
                      "$type": "ByNot",
                      "predicates": [
                        {
                          "$type": "PBNMMCGHGHK"
                        }
                      ]
                    }
                  ]
                }
              ],
              "onLeaveScopeActionQueue": [
                {
                  "$type": "RemoveModifier",
                  "target": "Target",
                  "predicates": [
                    {
                      "$type": "ByEntityTypes",
                      "entityTypes": ["Monster", "Gadget", "Platform"]
                    },
                    {
                      "$type": "ByTargetGlobalValue",
                      "key": "_ANIMAL_ENTITY_TYPE",
                      "value": 0.0,
                      "compareType": "NoneOrEqual"
                    }
                  ],
                  "modifierName": "Lock_Eff",
                  "onlyRemovebyCaster": true
                }
              ],
              "onRemoveActionQueue": [
                {
                  "$type": "RemoveModifier",
                  "target": "Target",
                  "predicates": [
                    {
                      "$type": "ByEntityTypes",
                      "entityTypes": ["Monster", "Gadget", "Platform"]
                    },
                    {
                      "$type": "ByTargetGlobalValue",
                      "key": "_ANIMAL_ENTITY_TYPE",
                      "value": 0.0,
                      "compareType": "NoneOrEqual"
                    }
                  ],
                  "modifierName": "Lock_Eff",
                  "onlyRemovebyCaster": true
                },
                {
                  "$type": "Predicated",
                  "target": "Target",
                  "predicates": [
                    {
                      "$type": "ByEntityTypes",
                      "entityTypes": ["Monster", "Gadget", "Platform"]
                    },
                    {
                      "$type": "ByTargetGlobalValue",
                      "key": "_ANIMAL_ENTITY_TYPE",
                      "value": 0.0,
                      "compareType": "NoneOrEqual"
                    },
                    {
                      "$type": "ByNot",
                      "predicates": [
                        {
                          "$type": "PBNMMCGHGHK"
                        }
                      ]
                    }
                  ],
                  "targetPredicates": [
                    {
                      "$type": "ByEntityTypes",
                      "entityTypes": ["Monster", "Gadget", "Platform"]
                    }
                  ],
                  "successActions": [
                    {
                      "$type": "SetSelfAttackTarget",
                      "target": "Target",
                      "predicates": [
                        {
                          "$type": "ByEntityTypes",
                          "entityTypes": ["Monster", "Gadget", "Platform"]
                        },
                        {
                          "$type": "ByTargetGlobalValue",
                          "key": "_ANIMAL_ENTITY_TYPE",
                          "value": 0.0,
                          "compareType": "NoneOrEqual"
                        }
                      ]
                    },
                    {
                      "$type": "SetGlobalValue",
                      "value": 1.0,
                      "key": "_ABILITY_Avatar_Mika_EArt_Has_Target_Mark",
                      "maxValue": 0.0,
                      "minValue": 0.0
                    }
                  ]
                }
              ],
              "aimType": "OneInScope"
            }
          ]
        },
        "Aim_Camera_Eff": {
          "modifierName": "",
          "elementDurability": 100.0,
          "modifierMixins": [
            {
              "$type": "AttachActionToModifierMixin",
              "onAdded": [
                {
                  "$type": "DungeonFogEffects",
                  "canBeHandledOnRecover": true,
                  "muteRemoteAction": true,
                  "enable": true,
                  "cameraFogEffectName": "Eff_SkillObj_Absorb_Avatar_Aim",
                  "playerFogEffectName": ""
                }
              ],
              "onRemoved": [
                {
                  "$type": "DungeonFogEffects",
                  "shieldHP": true,
                  "canBeHandledOnRecover": true,
                  "muteRemoteAction": true,
                  "cameraFogEffectName": "Eff_SkillObj_Absorb_Avatar_Aim",
                  "playerFogEffectName": ""
                }
              ]
            }
          ]
        },
        "Focus": {
          "modifierName": "",
          "elementDurability": 100.0,
          "modifierMixins": [
            {
              "$type": "EffectChangeAlphaMixin",
              "target": "Team",
              "startDuration": 0.20000000298023224,
              "endDuration": 0.30000001192092896,
              "JPEPPHPPCPH": true
            },
            {
              "$type": "EffectChangeAlphaMixin",
              "startDuration": 0.20000000298023224,
              "endDuration": 0.30000001192092896,
              "JPEPPHPPCPH": true
            },
            {
              "$type": "FMOKCPPLHDO"
            },
            {
              "$type": "OLAFLPBKGGC",
              "shootingConfig": {
                "normalShoot": {
                  "bulletBornAttachPoint": "WeaponL",
                  "detectRangeFromViewport": 100.0,
                  "autoFocusMinRange": 2.0,
                  "autoFocusMaxRange": 7.0
                },
                "aimingShoot": {
                  "bulletBornAttachPoint": "FocusAnchor",
                  "detectRangeFromViewport": 100.0,
                  "detectRadiusFromViewport": 0.15000000596046448,
                  "autoFocusMinRange": 2.0,
                  "autoFocusMaxRange": 25.0
                }
              }
            }
          ],
          "onAdded": [
            {
              "$type": "SetGlobalValue",
              "target": "Team",
              "value": 2.0,
              "key": "_ABILITY_WhiteBox_Dive_Team_Trigger",
              "maxValue": 0.0,
              "minValue": 0.0
            },
            {
              "$type": "AttachModifier",
              "target": "Team",
              "modifierName": "Aim_Camera_Eff"
            },
            {
              "$type": "AttachModifier",
              "modifierName": "VFX"
            },
            {
              "$type": "Predicated",
              "targetPredicates": [
                {
                  "$type": "BGMAGODJEMF",
                  "featureTagIDs": [1044]
                }
              ],
              "successActions": [
                {
                  "$type": "AvatarEnterFocus",
                  "cameraFollowLower": {
                    "x": 1.0,
                    "y": -0.05000000074505806,
                    "z": -1.5
                  },
                  "cameraFollowUpper": {
                    "x": 1.0,
                    "y": -0.05000000074505806,
                    "z": -1.2000000476837158
                  },
                  "cameraFastFocusMode": true,
                  "dragButtonName": "Skill2",
                  "assistance": {
                    "ps4": {},
                    "ps5": {},
                    "other": {
                      "useGyro": true
                    }
                  },
                  "canMove": false,
                  "showCrosshair": false,
                  "OMHGAKJIEFB": ""
                }
              ]
            },
            {
              "$type": "Predicated",
              "targetPredicates": [
                {
                  "$type": "BGMAGODJEMF",
                  "featureTagIDs": [1043]
                }
              ],
              "successActions": [
                {
                  "$type": "AvatarEnterFocus",
                  "cameraFollowLower": {
                    "x": 0.800000011920929,
                    "y": 0.10000000149011612,
                    "z": -1.600000023841858
                  },
                  "cameraFollowUpper": {
                    "x": 0.800000011920929,
                    "y": 0.10000000149011612,
                    "z": -1.2000000476837158
                  },
                  "cameraFastFocusMode": true,
                  "dragButtonName": "Skill2",
                  "assistance": {
                    "ps4": {},
                    "ps5": {},
                    "other": {
                      "useGyro": true
                    }
                  },
                  "canMove": false,
                  "showCrosshair": false,
                  "OMHGAKJIEFB": ""
                }
              ]
            },
            {
              "$type": "Predicated",
              "targetPredicates": [
                {
                  "$type": "BGMAGODJEMF",
                  "featureTagIDs": [1042]
                }
              ],
              "successActions": [
                {
                  "$type": "AvatarEnterFocus",
                  "cameraFollowLower": {
                    "x": 1.100000023841858,
                    "y": 0.15000000596046448,
                    "z": -1.5
                  },
                  "cameraFollowUpper": {
                    "x": 1.100000023841858,
                    "y": 0.15000000596046448,
                    "z": -1.100000023841858
                  },
                  "cameraFastFocusMode": true,
                  "dragButtonName": "Skill2",
                  "assistance": {
                    "ps4": {},
                    "ps5": {},
                    "other": {
                      "useGyro": true
                    }
                  },
                  "canMove": false,
                  "showCrosshair": false,
                  "OMHGAKJIEFB": ""
                }
              ]
            },
            {
              "$type": "Predicated",
              "targetPredicates": [
                {
                  "$type": "BGMAGODJEMF",
                  "featureTagIDs": [1041]
                }
              ],
              "successActions": [
                {
                  "$type": "AvatarEnterFocus",
                  "cameraFollowLower": {
                    "x": 0.8999999761581421,
                    "y": 0.30000001192092896,
                    "z": -1.600000023841858
                  },
                  "cameraFollowUpper": {
                    "x": 0.8999999761581421,
                    "y": 0.30000001192092896,
                    "z": -1.2000000476837158
                  },
                  "cameraFastFocusMode": true,
                  "dragButtonName": "Skill2",
                  "assistance": {
                    "ps4": {},
                    "ps5": {},
                    "other": {
                      "useGyro": true
                    }
                  },
                  "canMove": false,
                  "showCrosshair": false,
                  "OMHGAKJIEFB": ""
                }
              ]
            },
            {
              "$type": "Predicated",
              "targetPredicates": [
                {
                  "$type": "BGMAGODJEMF",
                  "featureTagIDs": [1045]
                }
              ],
              "successActions": [
                {
                  "$type": "AvatarEnterFocus",
                  "cameraFollowLower": {
                    "x": 1.100000023841858,
                    "y": -0.30000001192092896,
                    "z": -1.600000023841858
                  },
                  "cameraFollowUpper": {
                    "x": 1.100000023841858,
                    "y": -0.30000001192092896,
                    "z": -1.2000000476837158
                  },
                  "cameraFastFocusMode": true,
                  "dragButtonName": "Skill2",
                  "assistance": {
                    "ps4": {},
                    "ps5": {},
                    "other": {
                      "useGyro": true
                    }
                  },
                  "canMove": false,
                  "showCrosshair": false,
                  "OMHGAKJIEFB": ""
                }
              ]
            }
          ],
          "onRemoved": [
            {
              "$type": "SetGlobalValue",
              "target": "Team",
              "value": 3.0,
              "key": "_ABILITY_WhiteBox_Dive_Team_Trigger",
              "maxValue": 0.0,
              "minValue": 0.0
            },
            {
              "$type": "AvatarExitFocus"
            },
            {
              "$type": "RemoveModifier",
              "shieldHP": true,
              "modifierName": "Focus_Father"
            }
          ]
        },
        "VFX_Trigger": {
          "stacking": "Unique",
          "modifierName": "",
          "duration": 0.5,
          "elementDurability": 100.0,
          "onAdded": [
            {
              "$type": "FireEffect",
              "predicates": [
                {
                  "$type": "ByAny",
                  "predicates": [
                    {
                      "$type": "BGMAGODJEMF",
                      "featureTagIDs": [1044]
                    },
                    {
                      "$type": "BGMAGODJEMF",
                      "featureTagIDs": [1042]
                    }
                  ]
                }
              ],
              "rotationDampTime": "Eff_Avatar_Diving_Gadget_Loop_Attack",
              "PPPDJGDDOGD": 1.0,
              "AJDILHJFNKE": -1.0
            },
            {
              "$type": "FireEffect",
              "predicates": [
                {
                  "$type": "ByAny",
                  "predicates": [
                    {
                      "$type": "BGMAGODJEMF",
                      "featureTagIDs": [1043]
                    },
                    {
                      "$type": "BGMAGODJEMF",
                      "featureTagIDs": [1041]
                    },
                    {
                      "$type": "BGMAGODJEMF",
                      "featureTagIDs": [1045]
                    }
                  ]
                }
              ],
              "rotationDampTime": "Eff_Avatar_Diving_Gadget_Loop_2_Attack",
              "PPPDJGDDOGD": 1.0,
              "AJDILHJFNKE": -1.0
            }
          ]
        },
        "VFX": {
          "modifierName": "",
          "elementDurability": 100.0,
          "onAdded": [
            {
              "$type": "Predicated",
              "targetPredicates": [
                {
                  "$type": "BGMAGODJEMF",
                  "featureTagIDs": [1044]
                }
              ],
              "successActions": [
                {
                  "$type": "AttachModifier",
                  "modifierName": "VFX_L"
                }
              ]
            },
            {
              "$type": "Predicated",
              "targetPredicates": [
                {
                  "$type": "BGMAGODJEMF",
                  "featureTagIDs": [1042]
                }
              ],
              "successActions": [
                {
                  "$type": "AttachModifier",
                  "modifierName": "VFX_L"
                }
              ]
            },
            {
              "$type": "Predicated",
              "targetPredicates": [
                {
                  "$type": "BGMAGODJEMF",
                  "featureTagIDs": [1043]
                }
              ],
              "successActions": [
                {
                  "$type": "AttachModifier",
                  "modifierName": "VFX_R"
                }
              ]
            },
            {
              "$type": "Predicated",
              "targetPredicates": [
                {
                  "$type": "BGMAGODJEMF",
                  "featureTagIDs": [1041]
                }
              ],
              "successActions": [
                {
                  "$type": "AttachModifier",
                  "modifierName": "VFX_R"
                }
              ]
            },
            {
              "$type": "Predicated",
              "targetPredicates": [
                {
                  "$type": "BGMAGODJEMF",
                  "featureTagIDs": [1045]
                }
              ],
              "successActions": [
                {
                  "$type": "AttachModifier",
                  "modifierName": "VFX_R"
                }
              ]
            }
          ]
        },
        "VFX_L": {
          "modifierName": "",
          "elementDurability": 100.0,
          "onAdded": [
            {
              "$type": "AttachEffect",
              "rotationDampTime": "Eff_Avatar_Diving_Gadget_Loop",
              "PPPDJGDDOGD": 1.0,
              "AJDILHJFNKE": -1.0
            }
          ]
        },
        "VFX_R": {
          "modifierName": "",
          "elementDurability": 100.0,
          "onAdded": [
            {
              "$type": "AttachEffect",
              "rotationDampTime": "Eff_Avatar_Diving_Gadget_Loop_2",
              "PPPDJGDDOGD": 1.0,
              "AJDILHJFNKE": -1.0
            }
          ]
        }
      },
      "isDynamicAbility": true,
      "KPEGFLKLCLE": true
    }
  },
  {
    "Default": {
      "$type": "ConfigAbility",
      "abilityName": "ActivityAbility_Absorb_Avatar_Gadget_Slash",
      "modifiers": {
        "Avatar_Diving_SwordSlash_Bullet_HasTarget": {
          "modifierName": "",
          "duration": 0.20000000298023224,
          "elementDurability": 100.0,
          "onAdded": [
            {
              "$type": "TriggerBullet",
              "bulletID": 40034103,
              "born": {
                "$type": "ConfigBornByAttachPoint",
                "direction": {
                  "$type": "ConfigDirectionByAttackTarget",
                  "startPoint": ""
                },
                "useRotation": true,
                "attachPointName": "RootNode"
              },
              "ownerIs": "OriginOwner",
              "propOwnerIs": "OriginOwner"
            }
          ]
        },
        "Avatar_Diving_SwordSlash_Bullet_NoTarget": {
          "modifierName": "",
          "duration": 0.20000000298023224,
          "elementDurability": 100.0,
          "onAdded": [
            {
              "$type": "TriggerBullet",
              "bulletID": 40034103,
              "born": {
                "$type": "ConfigBornByAttachPoint",
                "direction": {
                  "$type": "ConfigDirectionByDefault",
                  "angleOffset": {
                    "x": 0.0,
                    "y": 0.0,
                    "z": 0.0
                  }
                },
                "useRotation": true,
                "attachPointName": "RootNode"
              },
              "ownerIs": "OriginOwner",
              "propOwnerIs": "OriginOwner"
            }
          ]
        }
      },
      "onAbilityStart": [
        {
          "$type": "CreateGadget",
          "born": {
            "$type": "ConfigBornBySelf",
            "offset": {
              "x": 0.0,
              "y": 0.0,
              "z": 8.0
            },
            "useRotation": true
          },
          "gadgetID": 40034100,
          "campID": 1001,
          "campTargetType": "Enemy"
        }
      ]
    }
  },
  {
    "Default": {
      "$type": "ConfigAbility",
      "abilityName": "ActivityAbility_Absorb_Avatar_Gadget_Slash_Range"
    }
  },
  {
    "Default": {
      "$type": "ConfigAbility",
      "abilityName": "Avatar_Absorb_SwordFishSlash_Range",
      "onAbilityStart": [
        {
          "$type": "AvatarSkillStart",
          "predicates": [
            {
              "$type": "BySkillReady",
              "skillID": 20050
            }
          ],
          "skillID": 20050,
          "amountByTargetCurrentHPRatio": 1.0,
          "costStaminaRatio": 1.0
        }
      ]
    }
  },
  {
    "Default": {
      "$type": "ConfigAbility",
      "abilityName": "Avatar_Absorb_SwordFishSlash_Range_Bullet",
      "abilitySpecials": {
        "DamageSystemValue": 0.0,
        "DamageRatio": 0.0
      },
      "modifiers": {
        "Effect": {
          "modifierName": "",
          "elementDurability": 100.0,
          "onAdded": [
            {
              "$type": "AttachEffect",
              "rotationDampTime": "Eff_Avatar_Diving_Slash_Blade",
              "PPPDJGDDOGD": 1.0,
              "AJDILHJFNKE": -1.0
            },
            {
              "$type": "AttachEffect",
              "rotationDampTime": "Eff_Avatar_Diving_Slash_Blade_Trail",
              "PPPDJGDDOGD": 1.0,
              "AJDILHJFNKE": -1.0
            }
          ]
        }
      },
      "onAdded": [
        {
          "$type": "AttachModifier",
          "modifierName": "Effect"
        },
        {
          "$type": "GDHGMAPPGHD",
          "shieldHP": true,
          "key": "DamageSystemValue",
          "damageRatio": "ElementLevelCo"
        }
      ],
      "onAbilityStart": [
        {
          "$type": "Predicated",
          "target": "Target",
          "targetPredicates": [
            {
              "$type": "ByEntityTypes",
              "entityTypes": ["Monster", "Gadget", "Bullet", "Platform"]
            }
          ],
          "successActions": [
            {
              "$type": "TriggerAttackEvent",
              "attackEvent": {
                "attackPattern": {
                  "$type": "ConfigAttackSphere",
                  "triggerType": "TriggerNoRepeat",
                  "born": {
                    "$type": "EHMNFOLDFOF",
                    "offset": {
                      "x": 0.0,
                      "y": 0.0,
                      "z": 0.0
                    }
                  },
                  "useCustomShape": true,
                  "radius": 0.25
                },
                "attackInfo": {
                  "attackTag": "Dive_Slash",
                  "attenuationTag": "",
                  "attenuationGroup": "default",
                  "attackProperty": {
                    "actorWindSubHurtDelta": 0.0,
                    "elementDurability": 0.0,
                    "strikeType": "Slash",
                    "enBreak": 120.0,
                    "attackType": "Range",
                    "HMBONGBFIAP": ["DamageRatio", "DamageSystemValue", "MUL"],
                    "trueDamage": true,
                    "GLKMCMDJBIK": 0.0
                  },
                  "hitPattern": {
                    "onHitEffectName": "Eff_Avatar_Diving_Slash_Bullet_Hit",
                    "hitImpulseY": "",
                    "hitImpulseType": "LV5",
                    "hitHaltTimeScale": 0.009999999776482582,
                    "canBeDefenceHalt": true
                  },
                  "cameraShake": {
                    "shakeType": "CustomVector",
                    "shakeRange": 0.36000001430511475,
                    "shakeTime": 0.11999999731779099,
                    "shakeDistance": 30.0,
                    "shakeDir": {
                      "y": -1.0
                    }
                  },
                  "canBeModifiedBy": "OriginOwner"
                }
              },
              "targetType": "Enemy"
            }
          ],
          "failActions": [
            {
              "$type": "TriggerAttackEvent",
              "attackEvent": {
                "attackPattern": {
                  "$type": "ConfigAttackSphere",
                  "triggerType": "TriggerNoRepeat",
                  "born": {
                    "$type": "ConfigBornBySelf",
                    "offset": {
                      "x": 0.0,
                      "y": 0.0,
                      "z": 0.0
                    },
                    "useRotation": true
                  },
                  "useCustomShape": true,
                  "radius": 0.25
                },
                "attackInfo": {
                  "attackTag": "Dive_Slash",
                  "attenuationTag": "",
                  "attenuationGroup": "default",
                  "attackProperty": {
                    "actorWindSubHurtDelta": 0.0,
                    "elementDurability": 0.0,
                    "strikeType": "Slash",
                    "enBreak": 120.0,
                    "attackType": "Range",
                    "HMBONGBFIAP": ["DamageRatio", "DamageSystemValue", "MUL"],
                    "trueDamage": true,
                    "GLKMCMDJBIK": 0.0
                  },
                  "hitPattern": {
                    "onHitEffectName": "",
                    "hitImpulseY": "",
                    "hitImpulseType": "LV5",
                    "hitHaltTimeScale": 0.009999999776482582,
                    "canBeDefenceHalt": true
                  },
                  "cameraShake": {
                    "shakeType": "CustomVector",
                    "shakeRange": 0.36000001430511475,
                    "shakeTime": 0.11999999731779099,
                    "shakeDistance": 30.0,
                    "shakeDir": {
                      "y": -1.0
                    }
                  },
                  "canBeModifiedBy": "OriginOwner"
                }
              },
              "targetType": "Enemy"
            },
            {
              "$type": "KillSelf"
            }
          ]
        }
      ],
      "onKill": [
        {
          "$type": "FireEffect",
          "rotationDampTime": "Eff_Avatar_Diving_Slash_Bullet_Hit",
          "PPPDJGDDOGD": 1.0,
          "AJDILHJFNKE": -1.0
        }
      ]
    }
  },
  {
    "Default": {
      "$type": "ConfigAbility",
      "abilityName": "Avatar_Absorb_TrackingMissile",
      "abilityMixins": [
        {
          "$type": "ButtonHoldChargeMixin",
          "skillID": 20052,
          "chargeTime": 0.25,
          "secondChargeTime": 999999.0,
          "onBeginUncharged": [
            {
              "$type": "ResetAnimatorTrigger",
              "triggerID": "EndDiveChannelTrigger"
            },
            {
              "$type": "RemoveModifier",
              "modifierName": "SetTrigger"
            }
          ],
          "onBeginCharged": [
            {
              "$type": "SetAnimatorTrigger",
              "triggerID": "StartDiveChannelTrigger"
            },
            {
              "$type": "ApplyModifier",
              "modifierName": "Focus"
            },
            {
              "$type": "ApplyModifier",
              "modifierName": "Avatar_Absorb_Absorb_Loop"
            }
          ],
          "onReleaseCharged": [
            {
              "$type": "SetAnimatorTrigger",
              "triggerID": "EndDiveChannelTrigger"
            },
            {
              "$type": "ApplyModifier",
              "modifierName": "SetTrigger"
            },
            {
              "$type": "ApplyModifier",
              "modifierName": "Remove_Focus"
            }
          ],
          "onCancelCharged": [
            {
              "$type": "SetAnimatorTrigger",
              "triggerID": "EndDiveChannelTrigger"
            }
          ],
          "chargeStateIDs": ["DiveChannel_BS", "DiveChannel_Loop"]
        },
        {
          "$type": "CCCOHMGIJPA",
          "index": 6,
          "otherTargets": {
            "$type": "SelectTargetsByShape",
            "topLimit": 1,
            "sortType": "HigherScoreByParam",
            "scoreParams": {
              "$type": "EBLFNNGANAG",
              "OMLEPLLPLDC": true,
              "useJoyStick": true,
              "overrideC": 0.8999999761581421,
              "overrideD": 0.0
            },
            "shapeName": "CircleR15H30",
            "campTargetType": "Enemy",
            "doOffStage": 1.0
          },
          "predicates": [
            {
              "$type": "DGKEPPCGHOO",
              "KMCAMFIJLAC": true
            },
            {
              "$type": "ByNot",
              "predicates": [
                {
                  "$type": "DIADGMMLIDG"
                }
              ]
            },
            {
              "$type": "ByEntityTypes",
              "entityTypes": ["Gadget", "Monster", "Platform"]
            },
            {
              "$type": "ByTargetGlobalValue",
              "key": "_ANIMAL_ENTITY_TYPE",
              "value": 0.0,
              "compareType": "NoneOrEqual"
            }
          ],
          "actionQueue": [
            {
              "$type": "SetSelfAttackTarget",
              "target": "Target"
            },
            {
              "$type": "TriggerBullet",
              "bulletID": 40034103,
              "born": {
                "$type": "ConfigBornBySelf",
                "offset": {
                  "x": 0.5,
                  "y": 1.5,
                  "z": -0.5
                },
                "direction": {
                  "$type": "ConfigDirectionByAttackTarget",
                  "startPoint": ""
                },
                "useRotation": true
              },
              "ownerIs": "OriginOwner",
              "propOwnerIs": "OriginOwner"
            }
          ],
          "LHHLHCEIINF": [
            {
              "$type": "TriggerBullet",
              "bulletID": 40034103,
              "born": {
                "$type": "ConfigBornBySelf",
                "offset": {
                  "x": 0.5,
                  "y": 1.5,
                  "z": -0.5
                },
                "direction": {
                  "$type": "ConfigDirectionByDefault",
                  "angleOffset": {
                    "x": 0.0,
                    "y": 0.0,
                    "z": 0.0
                  }
                },
                "useRotation": true
              },
              "ownerIs": "OriginOwner",
              "propOwnerIs": "OriginOwner"
            }
          ],
          "EBMENFOLACN": "",
          "ODHOEDANPHF": ""
        }
      ],
      "modifiers": {
        "Avatar_Absorb_Absorb_Loop": {
          "modifierName": "",
          "elementDurability": 100.0,
          "onAdded": [
            {
              "$type": "SetAnimatorTrigger",
              "otherTargets": {
                "$type": "SelectTargetsByChildren",
                "configID": 40034001
              },
              "triggerID": "Loop"
            }
          ]
        },
        "SetTrigger": {
          "modifierName": "",
          "duration": 0.15000000596046448,
          "elementDurability": 100.0,
          "onRemoved": [
            {
              "$type": "SetAnimatorTrigger",
              "triggerID": "EndDiveCastTrigger"
            }
          ]
        },
        "Remove_Focus": {
          "modifierName": "",
          "duration": 0.5,
          "elementDurability": 100.0,
          "onRemoved": [
            {
              "$type": "RemoveModifier",
              "modifierName": "Focus"
            }
          ]
        },
        "Lock_Eff": {
          "modifierName": "",
          "duration": 10.0,
          "elementDurability": 100.0,
          "onAdded": [
            {
              "$type": "AttachEffect",
              "rotationDampTime": "Eff_Avatar_Diving_Absorb_Lock",
              "PPPDJGDDOGD": 1.0,
              "AJDILHJFNKE": -1.0
            }
          ]
        },
        "Octopus_Aim_Camera_Eff": {
          "modifierName": "",
          "elementDurability": 100.0,
          "modifierMixins": [
            {
              "$type": "AttachActionToModifierMixin",
              "onAdded": [
                {
                  "$type": "DungeonFogEffects",
                  "canBeHandledOnRecover": true,
                  "muteRemoteAction": true,
                  "enable": true,
                  "cameraFogEffectName": "Eff_SkillObj_Absorb_Avatar_Octopus_Aim",
                  "playerFogEffectName": ""
                }
              ],
              "onRemoved": [
                {
                  "$type": "DungeonFogEffects",
                  "shieldHP": true,
                  "canBeHandledOnRecover": true,
                  "muteRemoteAction": true,
                  "cameraFogEffectName": "Eff_SkillObj_Absorb_Avatar_Octopus_Aim",
                  "playerFogEffectName": ""
                }
              ]
            }
          ]
        },
        "Focus": {
          "modifierName": "",
          "elementDurability": 100.0,
          "thinkInterval": 0.20000000298023224,
          "onAdded": [
            {
              "$type": "Predicated",
              "targetPredicates": [
                {
                  "$type": "BGMAGODJEMF",
                  "featureTagIDs": [1044]
                }
              ],
              "successActions": [
                {
                  "$type": "AvatarEnterFocus",
                  "cameraFollowLower": {
                    "x": 1.0,
                    "y": -0.05000000074505806,
                    "z": -1.5
                  },
                  "cameraFollowUpper": {
                    "x": 1.0,
                    "y": -0.05000000074505806,
                    "z": -1.2000000476837158
                  },
                  "cameraFastFocusMode": true,
                  "dragButtonName": "Skill2",
                  "assistance": {
                    "ps4": {},
                    "ps5": {},
                    "other": {
                      "useGyro": true
                    }
                  },
                  "canMove": false,
                  "showCrosshair": false,
                  "OMHGAKJIEFB": ""
                }
              ]
            },
            {
              "$type": "Predicated",
              "targetPredicates": [
                {
                  "$type": "BGMAGODJEMF",
                  "featureTagIDs": [1043]
                }
              ],
              "successActions": [
                {
                  "$type": "AvatarEnterFocus",
                  "cameraFollowLower": {
                    "x": 0.800000011920929,
                    "y": 0.10000000149011612,
                    "z": -1.600000023841858
                  },
                  "cameraFollowUpper": {
                    "x": 0.800000011920929,
                    "y": 0.10000000149011612,
                    "z": -1.2000000476837158
                  },
                  "cameraFastFocusMode": true,
                  "dragButtonName": "Skill2",
                  "assistance": {
                    "ps4": {},
                    "ps5": {},
                    "other": {
                      "useGyro": true
                    }
                  },
                  "canMove": false,
                  "showCrosshair": false,
                  "OMHGAKJIEFB": ""
                }
              ]
            },
            {
              "$type": "Predicated",
              "targetPredicates": [
                {
                  "$type": "BGMAGODJEMF",
                  "featureTagIDs": [1042]
                }
              ],
              "successActions": [
                {
                  "$type": "AvatarEnterFocus",
                  "cameraFollowLower": {
                    "x": 1.100000023841858,
                    "y": 0.15000000596046448,
                    "z": -1.5
                  },
                  "cameraFollowUpper": {
                    "x": 1.100000023841858,
                    "y": 0.15000000596046448,
                    "z": -1.100000023841858
                  },
                  "cameraFastFocusMode": true,
                  "dragButtonName": "Skill2",
                  "assistance": {
                    "ps4": {},
                    "ps5": {},
                    "other": {
                      "useGyro": true
                    }
                  },
                  "canMove": false,
                  "showCrosshair": false,
                  "OMHGAKJIEFB": ""
                }
              ]
            },
            {
              "$type": "Predicated",
              "targetPredicates": [
                {
                  "$type": "BGMAGODJEMF",
                  "featureTagIDs": [1041]
                }
              ],
              "successActions": [
                {
                  "$type": "AvatarEnterFocus",
                  "cameraFollowLower": {
                    "x": 0.8999999761581421,
                    "y": 0.30000001192092896,
                    "z": -1.600000023841858
                  },
                  "cameraFollowUpper": {
                    "x": 0.8999999761581421,
                    "y": 0.30000001192092896,
                    "z": -1.2000000476837158
                  },
                  "cameraFastFocusMode": true,
                  "dragButtonName": "Skill2",
                  "assistance": {
                    "ps4": {},
                    "ps5": {},
                    "other": {
                      "useGyro": true
                    }
                  },
                  "canMove": false,
                  "showCrosshair": false,
                  "OMHGAKJIEFB": ""
                }
              ]
            },
            {
              "$type": "Predicated",
              "targetPredicates": [
                {
                  "$type": "BGMAGODJEMF",
                  "featureTagIDs": [1045]
                }
              ],
              "successActions": [
                {
                  "$type": "AvatarEnterFocus",
                  "cameraFollowLower": {
                    "x": 1.100000023841858,
                    "y": -0.30000001192092896,
                    "z": -1.600000023841858
                  },
                  "cameraFollowUpper": {
                    "x": 1.100000023841858,
                    "y": -0.30000001192092896,
                    "z": -1.2000000476837158
                  },
                  "cameraFastFocusMode": true,
                  "dragButtonName": "Skill2",
                  "assistance": {
                    "ps4": {},
                    "ps5": {},
                    "other": {
                      "useGyro": true
                    }
                  },
                  "canMove": false,
                  "showCrosshair": false,
                  "OMHGAKJIEFB": ""
                }
              ]
            }
          ],
          "onRemoved": [
            {
              "$type": "AvatarExitFocus"
            }
          ],
          "onThinkInterval": [
            {
              "$type": "ApplyModifier",
              "target": "TempTarget",
              "fishtankMap": {
                "ALBJEAMOFLG": "_TempTarget"
              },
              "modifierName": "CaptureBeam"
            },
            {
              "$type": "DamageByAttackValue",
              "target": "TempTarget",
              "fishtankMap": {
                "ALBJEAMOFLG": "_TempTarget"
              },
              "attackInfo": {
                "attackTag": "WaterGun",
                "attenuationTag": "",
                "attenuationGroup": "default",
                "attackProperty": {
                  "actorGrassSubHurtDelta": 0.20000000298023224,
                  "actorWindSubHurtDelta": 0.0,
                  "elementDurability": 0.0,
                  "strikeType": "Default",
                  "HMBONGBFIAP": 0.0,
                  "trueDamage": true,
                  "GLKMCMDJBIK": 0.0
                },
                "hitPattern": {
                  "onHitEffectName": "default",
                  "hitImpulseY": "",
                  "hitImpulseType": "LV1",
                  "hitHaltTimeScale": 0.05000000074505806
                }
              }
            }
          ]
        },
        "CaptureBeam": {
          "modifierName": "",
          "duration": 0.5,
          "elementDurability": 100.0,
          "modifierMixins": [
            {
              "$type": "AttachModifierToGlobalValueMixin",
              "globalValueKey": "gv_ConnectType",
              "valueSteps": [-0.5, 0.5, 3.5, 4.5],
              "modifierNameSteps": [
                "NoEffect",
                "ConnectEffect1",
                "ConnectEffect2"
              ]
            }
          ],
          "onAdded": [
            {
              "$type": "SetTargetToTargetKey",
              "target": "Caster",
              "targetKey": "_TempAvatarTarget"
            }
          ],
          "onRemoved": [
            {
              "$type": "SetGlobalValue",
              "value": 0.0,
              "key": "gv_ConnectType",
              "maxValue": 0.0,
              "minValue": 0.0
            }
          ]
        },
        "NoEffect": {
          "modifierName": "",
          "elementDurability": 100.0
        },
        "ConnectEffect1": {
          "modifierName": "",
          "elementDurability": 100.0,
          "onAdded": [
            {
              "$type": "AttachEffect",
              "target": "Caster",
              "rotationDampTime": "Eff_Avatar_Diving_SprayGun_Bullet",
              "PPPDJGDDOGD": 1.0,
              "AJDILHJFNKE": -1.0,
              "setSelfAsEffectPluginTarget": true
            }
          ]
        },
        "ConnectEffect2": {
          "modifierName": "",
          "elementDurability": 100.0,
          "onAdded": [
            {
              "$type": "AttachEffect",
              "target": "Caster",
              "rotationDampTime": "Eff_Avatar_Diving_SprayGun_Bullet_1",
              "PPPDJGDDOGD": 1.0,
              "AJDILHJFNKE": -1.0,
              "setSelfAsEffectPluginTarget": true
            }
          ]
        }
      },
      "isDynamicAbility": true,
      "KPEGFLKLCLE": true
    }
  },
  {
    "Default": {
      "$type": "ConfigAbility",
      "abilityName": "Absorb_TrackingMissile_Bullet",
      "abilitySpecials": {
        "DamageSystemValue": 0.0,
        "DamageRatio": 0.0
      },
      "modifiers": {
        "Effect": {
          "modifierName": "",
          "elementDurability": 100.0,
          "onAdded": [
            {
              "$type": "AttachEffect",
              "rotationDampTime": "Eff_Avatar_Diving_Slash_Bullet",
              "PPPDJGDDOGD": 1.0,
              "AJDILHJFNKE": -1.0
            },
            {
              "$type": "AttachEffect",
              "rotationDampTime": "Eff_Avatar_Diving_Slash_Bullet_Trail",
              "PPPDJGDDOGD": 1.0,
              "AJDILHJFNKE": -1.0
            }
          ]
        }
      },
      "onAdded": [
        {
          "$type": "AttachModifier",
          "modifierName": "Effect"
        },
        {
          "$type": "GDHGMAPPGHD",
          "shieldHP": true,
          "key": "DamageSystemValue",
          "damageRatio": "ElementLevelCo"
        }
      ],
      "onAbilityStart": [
        {
          "$type": "TriggerAttackEvent",
          "attackEvent": {
            "attackPattern": {
              "$type": "ConfigAttackSphere",
              "triggerType": "TriggerNoRepeat",
              "born": {
                "$type": "ConfigBornBySelf",
                "useRotation": true
              },
              "useCustomShape": true,
              "radius": 0.25
            },
            "attackInfo": {
              "attackTag": "Dive_Slash",
              "attenuationTag": "",
              "attenuationGroup": "default",
              "attackProperty": {
                "actorGrassSubHurtDelta": 0.0,
                "actorWindSubHurtDelta": 0.0,
                "elementDurability": 0.0,
                "strikeType": "Slash",
                "enBreak": 120.0,
                "attackType": "Range",
                "HMBONGBFIAP": ["DamageRatio", "DamageSystemValue", "MUL"],
                "trueDamage": true,
                "GLKMCMDJBIK": 0.0
              },
              "hitPattern": {
                "onHitEffectName": "",
                "hitImpulseY": "",
                "hitImpulseType": "LV2",
                "hitHaltTimeScale": 0.009999999776482582,
                "canBeDefenceHalt": true
              },
              "cameraShake": {
                "shakeType": "CustomVector",
                "shakeRange": 0.36000001430511475,
                "shakeTime": 0.11999999731779099,
                "shakeDistance": 30.0,
                "shakeDir": {
                  "y": -1.0
                }
              },
              "canBeModifiedBy": "OriginOwner"
            }
          },
          "targetType": "Enemy"
        },
        {
          "$type": "KillSelf"
        }
      ],
      "onKill": [
        {
          "$type": "FireEffect",
          "rotationDampTime": "Eff_Avatar_Diving_Slash_Bullet_Hit",
          "PPPDJGDDOGD": 1.0,
          "AJDILHJFNKE": -1.0
        }
      ]
    }
  },
  {
    "Default": {
      "$type": "ConfigAbility",
      "abilityName": "Absorb_SprayGun_Bullet_Hit",
      "onAbilityStart": [
        {
          "$type": "TriggerAttackEvent",
          "attackEvent": {
            "attackPattern": {
              "$type": "ConfigAttackSphere",
              "triggerType": "TriggerNoRepeat",
              "born": {
                "$type": "ConfigBornByCollisionPoint",
                "offset": {
                  "x": 0.0,
                  "y": 0.0,
                  "z": 0.0
                }
              },
              "useCustomShape": true,
              "radius": 1.5
            },
            "attackInfo": {
              "attackTag": "Diving_SprayGun",
              "attenuationTag": "",
              "attenuationGroup": "default",
              "attackProperty": {
                "actorGrassSubHurtDelta": 1.0,
                "actorWindSubHurtDelta": 0.0,
                "elementDurability": 25.0,
                "overrideByWeapon": true,
                "strikeType": "Slash",
                "enBreak": 120.0,
                "attackType": "Melee",
                "GLKMCMDJBIK": 0.0
              },
              "hitPattern": {
                "onHitEffectName": "",
                "hitImpulseY": "",
                "hitImpulseType": "LV2",
                "hitHaltTimeScale": 0.009999999776482582,
                "canBeDefenceHalt": true
              },
              "cameraShake": {
                "shakeType": "CustomVector",
                "shakeRange": 0.36000001430511475,
                "shakeTime": 0.11999999731779099,
                "shakeDistance": 30.0,
                "shakeDir": {
                  "y": -1.0
                }
              },
              "canBeModifiedBy": "OriginOwner"
            }
          },
          "targetType": "Enemy"
        }
      ]
    }
  }
]
