[
  {
    "Default": {
      "$type": "ConfigAbility",
      "abilityName": "Activity_FlyItem",
      "modifiers": {
        "UNIQUE_Flying_SpeedUp_Team": {
          "stacking": "Unique",
          "modifierName": "",
          "forceTriggerWhenChangeAuthority": true,
          "duration": 30.0,
          "elementDurability": 100.0,
          "onAdded": [
            {
              "$type": "AttachEffect",
              "rotationDampTime": "Eff_SceneObj_Widget_FlySpeedUp_Use_Loop",
              "PPPDJGDDOGD": 1.0,
              "AJDILHJFNKE": -1.0
            },
            {
              "$type": "AttachModifier",
              "target": "CurTeamAvatars",
              "modifierName": "AttachEffect_Fly"
            }
          ]
        },
        "AttachEffect_Fly": {
          "modifierName": "",
          "elementDurability": 100.0,
          "modifierMixins": [
            {
              "$type": "AttachToStateIDMixin",
              "stateIDs": ["Fly", "Fall"],
              "modifierName": "AttachEffect_Fly_FireEffect",
              "DGFCLAIDIFI": ""
            }
          ],
          "properties": {
            "Actor_FlyForwardSpeedMaxRatio": 0.30000001192092896
          },
          "onAdded": [
            {
              "$type": "FireEffect",
              "target": "CurLocalAvatar",
              "rotationDampTime": "Eff_SceneObj_Widget_FlySpeedUp_Use",
              "PPPDJGDDOGD": 1.0,
              "AJDILHJFNKE": -1.0
            }
          ]
        },
        "AttachEffect_Fly_FireEffect": {
          "modifierName": "",
          "elementDurability": 100.0,
          "onAdded": [
            {
              "$type": "AttachModifier",
              "target": "Team",
              "modifierName": "AttachEffect_Fly_FireEffect_Team"
            }
          ]
        },
        "AttachEffect_Fly_FireEffect_Team": {
          "modifierName": "",
          "elementDurability": 100.0,
          "onAdded": [
            {
              "$type": "AttachEffect",
              "rotationDampTime": "Eff_SceneObj_Widget_FlySpeedUp",
              "PPPDJGDDOGD": 1.0,
              "AJDILHJFNKE": -1.0
            }
          ]
        }
      },
      "onAbilityStart": [
        {
          "$type": "ApplyModifier",
          "target": "Team",
          "modifierName": "UNIQUE_Flying_SpeedUp_Team"
        }
      ],
      "isDynamicAbility": true
    }
  },
  {
    "Default": {
      "$type": "ConfigAbility",
      "abilityName": "Activity_WindFieldItem",
      "modifiers": {
        "UNIQUE_Activity_WindFieldItem_Create": {
          "stacking": "Unique",
          "modifierName": "",
          "forceTriggerWhenChangeAuthority": true,
          "duration": 2.0,
          "elementDurability": 100.0,
          "onAdded": [
            {
              "$type": "CreateGadget",
              "muteRemoteAction": true,
              "born": {
                "$type": "ConfigBornBySelf",
                "offset": {
                  "x": 0.0,
                  "y": -0.20000000298023224,
                  "z": 0.0
                },
                "useRotation": true
              },
              "gadgetID": 44000579,
              "campID": 5001
            }
          ]
        }
      },
      "onAbilityStart": [
        {
          "$type": "ApplyModifier",
          "target": "CurLocalAvatar",
          "modifierName": "UNIQUE_Activity_WindFieldItem_Create"
        }
      ],
      "isDynamicAbility": true
    }
  }
]
