[
  {
    "Default": {
      "$type": "ConfigAbility",
      "abilityName": "ActivityAbility_Endora_Handler",
      "abilityMixins": [
        {
          "$type": "AttachToStateIDMixin",
          "stateIDs": ["ShootBS", "Shoot", "FastAim", "FastAimShoot"],
          "modifierName": "AimHideEndora",
          "DGFCLAIDIFI": ""
        },
        {
          "$type": "EJNMIOFDIGF",
          "onStageReady": [
            {
              "$type": "RemoveUniqueModifier",
              "target": "Team",
              "shieldHP": true,
              "modifierName": "UNIQUE_ActivityAbility_Endora_Handler"
            },
            {
              "$type": "AttachModifier",
              "target": "Team",
              "shieldHP": true,
              "modifierName": "UNIQUE_ActivityAbility_Endora_Handler"
            }
          ]
        }
      ],
      "modifiers": {
        "UNIQUE_ActivityAbility_Endora_Handler": {
          "stacking": "Unique",
          "modifierName": "",
          "forceTriggerWhenChangeAuthority": true,
          "elementDurability": 100.0,
          "onAdded": [
            {
              "$type": "RemoveUniqueModifier",
              "shieldHP": true,
              "modifierName": "UNIQUE_ActivityAbility_Endora_RemoveEffect"
            },
            {
              "$type": "RemoveUniqueModifier",
              "shieldHP": true,
              "modifierName": "UNIQUE_ActivityAbility_Endora_Effect"
            },
            {
              "$type": "ApplyModifier",
              "shieldHP": true,
              "modifierName": "UNIQUE_ActivityAbility_Endora_Effect"
            }
          ],
          "onRemoved": [
            {
              "$type": "ApplyModifier",
              "shieldHP": true,
              "modifierName": "UNIQUE_ActivityAbility_Endora_RemoveEffect"
            }
          ]
        },
        "UNIQUE_ActivityAbility_Endora_Effect": {
          "stacking": "Unique",
          "modifierName": "",
          "forceTriggerWhenChangeAuthority": true,
          "elementDurability": 100.0,
          "onAdded": [
            {
              "$type": "AttachEffect",
              "shieldHP": true,
              "rotationDampTime": "Eff_Activity_Endora",
              "PPPDJGDDOGD": 1.0,
              "AJDILHJFNKE": -1.0
            }
          ]
        },
        "UNIQUE_ActivityAbility_Endora_RemoveEffect": {
          "modifierName": "",
          "forceTriggerWhenChangeAuthority": true,
          "duration": 2.0,
          "elementDurability": 100.0,
          "onAdded": [
            {
              "$type": "SendEffectTrigger",
              "parameter": "Die",
              "attachPoint": "",
              "rotationDampTime": "Eff_Activity_Endora"
            }
          ],
          "onRemoved": [
            {
              "$type": "RemoveUniqueModifier",
              "shieldHP": true,
              "modifierName": "UNIQUE_ActivityAbility_Endora_Effect"
            }
          ]
        },
        "AimHideEndora": {
          "modifierName": "",
          "elementDurability": 100.0,
          "onAdded": [
            {
              "$type": "SendEffectTrigger",
              "target": "Team",
              "parameter": "Die",
              "attachPoint": "",
              "rotationDampTime": "Eff_Activity_Endora"
            }
          ],
          "onRemoved": [
            {
              "$type": "SendEffectTrigger",
              "target": "Team",
              "parameter": "Show",
              "attachPoint": "",
              "rotationDampTime": "Eff_Activity_Endora"
            }
          ]
        }
      },
      "onAdded": [
        {
          "$type": "RemoveUniqueModifier",
          "target": "Team",
          "shieldHP": true,
          "modifierName": "UNIQUE_ActivityAbility_Endora_Handler"
        },
        {
          "$type": "AttachModifier",
          "target": "Team",
          "shieldHP": true,
          "modifierName": "UNIQUE_ActivityAbility_Endora_Handler"
        }
      ],
      "onAvatarIn": [
        {
          "$type": "AttachModifier",
          "target": "Team",
          "shieldHP": true,
          "modifierName": "UNIQUE_ActivityAbility_Endora_Handler"
        }
      ],
      "isDynamicAbility": true
    }
  },
  {
    "Default": {
      "$type": "ConfigAbility",
      "abilityName": "ActivityAbility_Endora_SwtichSkill",
      "modifiers": {
        "UNIQUE_ActivityAbility_Endora_AddSkillInfo": {
          "modifierName": "",
          "forceTriggerWhenChangeAuthority": true,
          "elementDurability": 100.0,
          "onAdded": [
            {
              "$type": "PDFENCBHHAI",
              "shieldHP": true,
              "skillID": 20020
            },
            {
              "$type": "AvatarSkillStart",
              "skillID": 20020,
              "amountByTargetCurrentHPRatio": 0.05000000074505806,
              "costStaminaRatio": 1.0
            },
            {
              "$type": "SendEffectTrigger",
              "target": "Team",
              "parameter": "SwitchSkill",
              "attachPoint": "",
              "damageRatio": "Bool",
              "value": 1,
              "rotationDampTime": "Eff_Activity_Endora"
            },
            {
              "$type": "ApplyModifier",
              "shieldHP": true,
              "modifierName": "SwitchSkill"
            }
          ],
          "onRemoved": [
            {
              "$type": "SendEffectTrigger",
              "target": "Team",
              "parameter": "SwitchSkill",
              "attachPoint": "",
              "damageRatio": "Bool",
              "rotationDampTime": "Eff_Activity_Endora"
            },
            {
              "$type": "RemoveModifier",
              "shieldHP": true,
              "modifierName": "SwitchSkill"
            },
            {
              "$type": "KFOBADMAFJF",
              "shieldHP": true,
              "skillID": 20020
            }
          ]
        },
        "SwitchSkill": {
          "modifierName": "",
          "elementDurability": 100.0,
          "modifierMixins": [
            {
              "$type": "SwitchSkillIDMixin",
              "priority": "Playmode",
              "skillIndex": 1,
              "skillID": 20020
            }
          ],
          "onAdded": [
            {
              "$type": "PPDJHLBHCIK",
              "shieldHP": true,
              "muteRemoteAction": true,
              "toPlayMode": "EndoraState"
            }
          ],
          "onRemoved": [
            {
              "$type": "PPDJHLBHCIK",
              "shieldHP": true,
              "muteRemoteAction": true,
              "JFDCCIECAJB": "EndoraState"
            }
          ]
        }
      },
      "onAbilityStart": [
        {
          "$type": "AttachModifier",
          "target": "CurTeamAvatars",
          "shieldHP": true,
          "modifierName": "UNIQUE_ActivityAbility_Endora_AddSkillInfo"
        }
      ],
      "isDynamicAbility": true
    }
  },
  {
    "Default": {
      "$type": "ConfigAbility",
      "abilityName": "ActivityAbility_Endora_RemoveSkill",
      "onAbilityStart": [
        {
          "$type": "RemoveUniqueModifier",
          "target": "CurTeamAvatars",
          "shieldHP": true,
          "modifierName": "UNIQUE_ActivityAbility_Endora_AddSkillInfo"
        }
      ],
      "isDynamicAbility": true
    }
  },
  {
    "Default": {
      "$type": "ConfigAbility",
      "abilityName": "ActivityAbility_Endora_Bubble_AimPress",
      "abilityMixins": [
        {
          "$type": "AttachToStateIDMixin",
          "stateIDs": ["Channel_BS", "Channel_Loop"],
          "modifierName": "CheckChannelLoop",
          "DGFCLAIDIFI": ""
        },
        {
          "$type": "ButtonHoldChargeMixin",
          "skillID": 20020,
          "secondChargeTime": 0.11999999731779099,
          "onReleaseCharged": [
            {
              "$type": "ApplyModifier",
              "shieldHP": true,
              "predicates": [
                {
                  "$type": "ByTargetGlobalValue",
                  "key": "_ActivityAbility_Endora_IsFocus",
                  "value": 0.0,
                  "compareType": "NoneOrEqual"
                }
              ],
              "modifierName": "Shoot_Short"
            },
            {
              "$type": "ApplyModifier",
              "shieldHP": true,
              "predicates": [
                {
                  "$type": "ByTargetGlobalValue",
                  "key": "_ActivityAbility_Endora_IsFocus",
                  "value": 1.0
                }
              ],
              "modifierName": "Shoot"
            }
          ],
          "onBeginSecondCharged": [
            {
              "$type": "SetAnimatorTrigger",
              "triggerID": "StartChannelTrigger"
            },
            {
              "$type": "SetAnimatorBool",
              "boolID": "LockMotionFlagExitChannel",
              "value": true
            }
          ],
          "onReleaseSecondCharged": [
            {
              "$type": "SetAnimatorTrigger",
              "shieldHP": true,
              "triggerID": "EndChannelTrigger"
            },
            {
              "$type": "SetAnimatorBool",
              "shieldHP": true,
              "boolID": "LockMotionFlagExitChannel"
            },
            {
              "$type": "ApplyModifier",
              "shieldHP": true,
              "predicates": [
                {
                  "$type": "ByTargetGlobalValue",
                  "key": "_ActivityAbility_Endora_IsFocus",
                  "value": 1.0
                }
              ],
              "modifierName": "Shoot"
            }
          ],
          "chargeStateIDs": ["Channel_Loop"]
        }
      ],
      "modifiers": {
        "Shoot_Short": {
          "modifierName": "",
          "duration": 0.10000000149011612,
          "elementDurability": 100.0,
          "onAdded": [
            {
              "$type": "AvatarSkillStart",
              "skillID": 20020,
              "amountByTargetCurrentHPRatio": 1.0,
              "costStaminaRatio": 1.0
            },
            {
              "$type": "SendEffectTrigger",
              "target": "Team",
              "parameter": "Attack_AS",
              "attachPoint": "",
              "rotationDampTime": "Eff_Activity_Endora"
            },
            {
              "$type": "FireEffect",
              "rotationDampTime": "Eff_Activity_Endora_Skill_AS",
              "PPPDJGDDOGD": 1.0,
              "AJDILHJFNKE": -1.0
            },
            {
              "$type": "SetGlobalPos",
              "target": "Team",
              "key": "_ActivityAbility_Endora_Shoot_POS",
              "born": {
                "$type": "ConfigBornByTarget"
              },
              "setTarget": false
            },
            {
              "$type": "KillGadget",
              "target": "CurTeamAvatars",
              "shieldHP": true,
              "gadgetInfo": {
                "configID": 44000103
              }
            },
            {
              "$type": "TriggerBullet",
              "bulletID": 44000102,
              "born": {
                "$type": "ConfigBornByGlobalValue",
                "offset": {
                  "x": 0.6499999761581421,
                  "y": 0.4699999988079071,
                  "z": 0.0
                },
                "positionKey": "_ActivityAbility_Endora_Shoot_POS",
                "directionKey": ""
              }
            }
          ]
        },
        "Shoot": {
          "modifierName": "",
          "duration": 0.10000000149011612,
          "elementDurability": 100.0,
          "onAdded": [
            {
              "$type": "AvatarSkillStart",
              "skillID": 20020,
              "amountByTargetCurrentHPRatio": 1.0,
              "costStaminaRatio": 1.0
            },
            {
              "$type": "RemoveModifier",
              "shieldHP": true,
              "modifierName": "Focus"
            },
            {
              "$type": "RemoveModifier",
              "shieldHP": true,
              "modifierName": "Charge"
            },
            {
              "$type": "SendEffectTrigger",
              "target": "Team",
              "parameter": "Attack_AS",
              "attachPoint": "",
              "rotationDampTime": "Eff_Activity_Endora"
            },
            {
              "$type": "FireEffect",
              "rotationDampTime": "Eff_Activity_Endora_Skill_AS",
              "PPPDJGDDOGD": 1.0,
              "AJDILHJFNKE": -1.0
            },
            {
              "$type": "SetGlobalPos",
              "target": "Team",
              "key": "_ActivityAbility_Endora_Shoot_POS",
              "born": {
                "$type": "ConfigBornByTarget"
              },
              "setTarget": false
            },
            {
              "$type": "KillGadget",
              "target": "CurTeamAvatars",
              "shieldHP": true,
              "gadgetInfo": {
                "configID": 44000103
              }
            },
            {
              "$type": "TriggerBullet",
              "bulletID": 44000101,
              "born": {
                "$type": "ConfigBornByGlobalValue",
                "offset": {
                  "x": 0.6499999761581421,
                  "y": 0.4699999988079071,
                  "z": 0.0
                },
                "positionKey": "_ActivityAbility_Endora_Shoot_POS",
                "directionKey": ""
              }
            }
          ]
        },
        "Focus": {
          "modifierName": "",
          "elementDurability": 100.0,
          "onAdded": [
            {
              "$type": "SetGlobalValue",
              "value": 1.0,
              "key": "_ActivityAbility_Endora_IsFocus",
              "maxValue": 0.0,
              "minValue": 0.0
            },
            {
              "$type": "SendEffectTrigger",
              "target": "Team",
              "parameter": "Attack_BS",
              "attachPoint": "",
              "rotationDampTime": "Eff_Activity_Endora"
            },
            {
              "$type": "AttachEffect",
              "rotationDampTime": "Eff_Activity_Endora_Skill_BS",
              "PPPDJGDDOGD": 1.0,
              "AJDILHJFNKE": -1.0
            },
            {
              "$type": "AttachEffect",
              "rotationDampTime": "Eff_Activity_Endora_Skill_Loop",
              "PPPDJGDDOGD": 1.0,
              "AJDILHJFNKE": -1.0
            },
            {
              "$type": "AvatarEnterFocus",
              "cameraFollowLower": {
                "x": 0.800000011920929,
                "y": 0.20000000298023224,
                "z": -1.5
              },
              "cameraFollowUpper": {
                "x": 0.5,
                "y": -0.20000000298023224
              },
              "dragButtonName": "Skill2",
              "canMove": false,
              "showCrosshair": false,
              "disableAnim": true,
              "OMHGAKJIEFB": ""
            }
          ],
          "onRemoved": [
            {
              "$type": "AvatarExitFocus",
              "shieldHP": true,
              "keepRotation": true
            },
            {
              "$type": "ClearGlobalValue",
              "shieldHP": true,
              "key": "_ActivityAbility_Endora_IsFocus"
            }
          ]
        },
        "Charge": {
          "modifierName": "",
          "elementDurability": 100.0,
          "thinkInterval": 0.10000000149011612,
          "onAdded": [
            {
              "$type": "SetGlobalValue",
              "value": 4.0,
              "key": "ActivityAbility_Endora_Throw_Range",
              "useLimitRange": true,
              "maxValue": 20.0,
              "minValue": 3.5
            },
            {
              "$type": "AttachEffect",
              "rotationDampTime": "Eff_Activity_Endora_Line",
              "PPPDJGDDOGD": 1.0,
              "AJDILHJFNKE": -1.0
            }
          ],
          "onThinkInterval": [
            {
              "$type": "AddGlobalValue",
              "value": 0.4000000059604645,
              "key": "ActivityAbility_Endora_Throw_Range",
              "useLimitRange": true,
              "maxValue": 20.0,
              "minValue": 3.5
            }
          ]
        },
        "CheckChannelLoop": {
          "modifierName": "",
          "elementDurability": 100.0,
          "thinkInterval": 0.10000000149011612,
          "onAdded": [
            {
              "$type": "AttachModifier",
              "modifierName": "Focus"
            },
            {
              "$type": "AttachModifier",
              "modifierName": "Charge"
            }
          ],
          "onRemoved": [
            {
              "$type": "ApplyModifier",
              "shieldHP": true,
              "modifierName": "RemovedFocusState"
            }
          ],
          "onThinkInterval": [
            {
              "$type": "SetAnimatorTrigger",
              "predicates": [
                {
                  "$type": "ByTargetGlobalValue",
                  "key": "_ActivityAbility_Endora_IsFocus",
                  "value": 0.0,
                  "compareType": "NoneOrEqual"
                }
              ],
              "triggerID": "EndChannelTrigger"
            }
          ]
        },
        "RemovedFocusState": {
          "stacking": "Multiple",
          "modifierName": "",
          "duration": 0.10000000149011612,
          "elementDurability": 100.0,
          "onAdded": [
            {
              "$type": "RemoveModifier",
              "shieldHP": true,
              "modifierName": "Focus"
            },
            {
              "$type": "RemoveModifier",
              "shieldHP": true,
              "modifierName": "Charge"
            }
          ]
        }
      },
      "onAvatarOut": [
        {
          "$type": "ApplyModifier",
          "shieldHP": true,
          "modifierName": "RemovedFocusState"
        }
      ],
      "isDynamicAbility": true
    }
  },
  {
    "Default": {
      "$type": "ConfigAbility",
      "abilityName": "Activity_EndoraGadgetSkill_BubbleBullet",
      "onAdded": [
        {
          "$type": "AttachEffect",
          "rotationDampTime": "Eff_Activity_Endora_Skill_BulletTrail",
          "PPPDJGDDOGD": 1.0,
          "AJDILHJFNKE": -1.0
        }
      ],
      "onAbilityStart": [
        {
          "$type": "Predicated",
          "target": "Target",
          "targetPredicates": [
            {
              "$type": "ByEntityTypes",
              "entityTypes": ["Monster"]
            }
          ],
          "successActions": [
            {
              "$type": "CreateGadget",
              "born": {
                "$type": "ConfigBornByCollisionPoint",
                "offset": {
                  "x": 0.0,
                  "y": -0.5,
                  "z": 0.0
                }
              },
              "gadgetID": 44000103,
              "campID": 1001,
              "campTargetType": "Enemy"
            }
          ],
          "failActions": [
            {
              "$type": "CreateGadget",
              "born": {
                "$type": "ConfigBornByCollisionPoint",
                "offset": {
                  "x": 0.0,
                  "y": 0.0,
                  "z": -0.4000000059604645
                }
              },
              "gadgetID": 44000103,
              "campID": 1001,
              "campTargetType": "All"
            }
          ]
        },
        {
          "$type": "TriggerAttackEvent",
          "target": "Caster",
          "attackEvent": {
            "attackPattern": {
              "$type": "ConfigAttackCircle",
              "triggerType": "TriggerNoRepeat",
              "born": {
                "$type": "ConfigBornBySelf"
              },
              "radius": 5.0
            },
            "attackInfo": {
              "attackTag": "",
              "attenuationTag": "",
              "attenuationGroup": "default",
              "attackProperty": {
                "actorGrassSubHurtDelta": 0.0,
                "actorWindSubHurtDelta": 0.0,
                "elementDurability": 100.0,
                "HMBONGBFIAP": 0.0,
                "GLKMCMDJBIK": 0.0
              },
              "hitPattern": {
                "onHitEffectName": "default",
                "hitImpulseY": "",
                "hitImpulseType": "LV0",
                "hitHaltTimeScale": 0.009999999776482582,
                "muteHitText": true
              }
            }
          },
          "targetType": "Enemy"
        }
      ]
    }
  },
  {
    "Default": {
      "$type": "ConfigAbility",
      "abilityName": "Activity_EndoraGadgetSkill_BubbleBulletSpeed_Fix",
      "abilitySpecials": {
        "Endora_Bubble_Bullet_SpeedUp": 0.0
      },
      "modifiers": {
        "SpeedUP": {
          "modifierName": "",
          "elementDurability": 100.0,
          "properties": {
            "Actor_BulletMoveSpeedRatio": "Endora_Bubble_Bullet_SpeedUp"
          }
        }
      },
      "onAdded": [
        {
          "$type": "SetGlobalValueToOverrideMap",
          "HHPEMPFBBNB": "DummyThrowSpeed",
          "isFromOwner": true,
          "globalValueKey": "ActivityAbility_Endora_Throw_Range",
          "overrideMapKey": "Endora_Bubble_Bullet_SpeedUp"
        },
        {
          "$type": "AttachModifier",
          "modifierName": "SpeedUP"
        }
      ]
    }
  },
  {
    "Default": {
      "$type": "ConfigAbility",
      "abilityName": "Activity_EndoraGadgetSkill_BubbleArea",
      "modifiers": {
        "TriggerCheck": {
          "modifierName": "",
          "duration": 3.0,
          "elementDurability": 100.0,
          "thinkInterval": 0.15000000596046448,
          "onAdded": [
            {
              "$type": "AttachEffect",
              "rotationDampTime": "Eff_Activity_Endora_Skill_BulletArea",
              "PPPDJGDDOGD": 1.0,
              "AJDILHJFNKE": -1.0
            },
            {
              "$type": "Predicated",
              "otherTargets": {
                "$type": "SelectTargetsByShape",
                "topLimit": 1,
                "entityTypePriority": ["Monster", "Gadget"],
                "shapeName": "CircleR2",
                "campTargetType": "Enemy",
                "doOffStage": 1.0
              },
              "targetPredicates": [
                {
                  "$type": "ByEntityTypes",
                  "entityTypes": ["Monster"]
                },
                {
                  "$type": "ByTargetGlobalValue",
                  "key": "_ANIMAL_ENTITY_TYPE",
                  "value": 0.0,
                  "compareType": "NoneOrEqual"
                }
              ],
              "successActions": [
                {
                  "$type": "ApplyModifier",
                  "target": "Caster",
                  "modifierName": "Create_Trigger"
                }
              ]
            }
          ],
          "onRemoved": [
            {
              "$type": "FireEffect",
              "predicates": [
                {
                  "$type": "ByTargetGlobalValue",
                  "key": "_Activity_Oceanid_Bubble_Area_IsTrigger",
                  "value": 0.0,
                  "compareType": "NoneOrEqual"
                }
              ],
              "rotationDampTime": "Eff_Activity_Endora_Skill_BulletArea_AS",
              "PPPDJGDDOGD": 1.0,
              "AJDILHJFNKE": -1.0
            }
          ],
          "onThinkInterval": [
            {
              "$type": "Predicated",
              "otherTargets": {
                "$type": "SelectTargetsByShape",
                "topLimit": 1,
                "entityTypePriority": ["Monster", "Gadget"],
                "shapeName": "CircleR2",
                "campTargetType": "Enemy",
                "doOffStage": 1.0
              },
              "targetPredicates": [
                {
                  "$type": "ByEntityTypes",
                  "entityTypes": ["Monster"]
                },
                {
                  "$type": "ByTargetGlobalValue",
                  "key": "_ANIMAL_ENTITY_TYPE",
                  "value": 0.0,
                  "compareType": "NoneOrEqual"
                }
              ],
              "successActions": [
                {
                  "$type": "ApplyModifier",
                  "target": "Caster",
                  "modifierName": "Create_Trigger"
                }
              ]
            }
          ]
        },
        "Create_Trigger": {
          "modifierName": "",
          "duration": 0.10000000149011612,
          "elementDurability": 100.0,
          "onAdded": [
            {
              "$type": "FireEffect",
              "target": "Caster",
              "rotationDampTime": "Eff_Activity_Endora_Skill_BulletHit",
              "PPPDJGDDOGD": 1.0,
              "AJDILHJFNKE": -1.0
            },
            {
              "$type": "SetGlobalValue",
              "value": 1.0,
              "key": "_Activity_Oceanid_Bubble_Area_IsTrigger",
              "useLimitRange": true,
              "maxValue": 1.0,
              "minValue": 0.0
            },
            {
              "$type": "RemoveModifier",
              "target": "Caster",
              "modifierName": "TriggerCheck"
            },
            {
              "$type": "CreateGadget",
              "target": "Caster",
              "born": {
                "$type": "ConfigBornBySelf",
                "offset": {
                  "x": 0.0,
                  "y": 0.0,
                  "z": 0.0
                }
              },
              "gadgetID": 44000104,
              "campID": 1001,
              "campTargetType": "Enemy"
            }
          ]
        }
      },
      "onAdded": [
        {
          "$type": "FireEffect",
          "rotationDampTime": "Eff_Activity_Endora_Skill_BulletHit",
          "PPPDJGDDOGD": 1.0,
          "AJDILHJFNKE": -1.0
        },
        {
          "$type": "AttachModifier",
          "modifierName": "TriggerCheck"
        }
      ]
    }
  },
  {
    "Default": {
      "$type": "ConfigAbility",
      "abilityName": "Activity_EndoraGadgetSkill_BubbleTrigger",
      "abilitySpecials": {
        "Bubble_Struggle_Duration": 5.0
      },
      "modifiers": {
        "TriggerAttack_Event": {
          "modifierName": "",
          "elementDurability": 100.0,
          "onAttackLanded": [
            {
              "$type": "Predicated",
              "target": "Target",
              "targetPredicates": [
                {
                  "$type": "ByEntityTypes",
                  "entityTypes": ["Monster"]
                }
              ],
              "successActions": [
                {
                  "$type": "Predicated",
                  "target": "Target",
                  "targetPredicates": [
                    {
                      "$type": "ByTargetGlobalValue",
                      "key": "_MONSTERAFFIX_OCEANID_ANIMAL_SPMASK",
                      "value": 1.0
                    }
                  ],
                  "successActions": [
                    {
                      "$type": "RemoveUniqueModifier",
                      "target": "Target",
                      "modifierName": "UNIQUE_Debuff_Bubble_Struggle_Special"
                    },
                    {
                      "$type": "ApplyModifier",
                      "target": "Target",
                      "modifierName": "UNIQUE_Debuff_Bubble_Struggle_Special"
                    }
                  ],
                  "failActions": [
                    {
                      "$type": "ClearGlobalValue",
                      "key": "_Activity_Oceanid_Bubble_Struggle_OnRemoveKill"
                    },
                    {
                      "$type": "RemoveUniqueModifier",
                      "target": "Target",
                      "modifierName": "UNIQUE_Debuff_Bubble_Struggle_Normal_Handle"
                    },
                    {
                      "$type": "RemoveUniqueModifier",
                      "target": "Target",
                      "modifierName": "UNIQUE_Debuff_Bubble_Struggle_Normal"
                    },
                    {
                      "$type": "ApplyModifier",
                      "target": "Target",
                      "modifierName": "UNIQUE_Debuff_Bubble_Struggle_Normal"
                    }
                  ]
                }
              ]
            }
          ]
        },
        "UNIQUE_Debuff_Bubble_Struggle_Special": {
          "modifierName": "",
          "forceTriggerWhenChangeAuthority": true,
          "duration": "Bubble_Struggle_Duration",
          "elementDurability": 100.0,
          "properties": {
            "Actor_AddGravityScale": -2.0
          },
          "onAdded": [
            {
              "$type": "SetAnimatorBool",
              "boolID": "CanBeStruggle",
              "value": true
            },
            {
              "$type": "AttachEffect",
              "rotationDampTime": "Eff_Activity_Endora_Skill_Bubble",
              "PPPDJGDDOGD": 1.0,
              "AJDILHJFNKE": -1.0
            },
            {
              "$type": "SetGlobalValue",
              "value": 1.0,
              "key": "_Activity_Oceanid_Bubble_Struggle_OnRemoveKill",
              "useLimitRange": true,
              "maxValue": 1.0,
              "minValue": 0.0
            }
          ],
          "onRemoved": [
            {
              "$type": "SetAnimatorBool",
              "boolID": "CanBeStruggle"
            },
            {
              "$type": "FireEffect",
              "rotationDampTime": "Eff_Activity_Endora_Skill_Bubble_AS",
              "born": {
                "$type": "ConfigBornByAttachPoint",
                "attachPointName": "RootNode"
              },
              "PPPDJGDDOGD": 1.0,
              "AJDILHJFNKE": -1.0
            },
            {
              "$type": "KillSelf",
              "predicates": [
                {
                  "$type": "ByTargetGlobalValue",
                  "key": "_Activity_Oceanid_Bubble_Struggle_OnRemoveKill",
                  "value": 1.0,
                  "compareType": "MoreThanAndEqual"
                }
              ],
              "configIdArray": [70000000]
            },
            {
              "$type": "ClearGlobalValue",
              "key": "_Activity_Oceanid_Bubble_Struggle_OnRemoveKill"
            }
          ],
          "onKill": [
            {
              "$type": "RemoveUniqueModifier",
              "modifierName": "UNIQUE_Debuff_Bubble_Struggle_Special"
            }
          ]
        },
        "UNIQUE_Debuff_Bubble_Struggle_Normal": {
          "modifierName": "",
          "forceTriggerWhenChangeAuthority": true,
          "duration": "Bubble_Struggle_Duration",
          "elementDurability": 100.0,
          "modifierMixins": [
            {
              "$type": "JJIHJPCPPGO",
              "abilityStates": ["Struggle"],
              "modifierName": "UNIQUE_Debuff_Bubble_Struggle_Normal_Handle"
            }
          ],
          "state": "Struggle"
        },
        "UNIQUE_Debuff_Bubble_Struggle_Normal_Handle": {
          "modifierName": "",
          "forceTriggerWhenChangeAuthority": true,
          "elementDurability": 100.0,
          "properties": {
            "Actor_AddGravityScale": -2.0
          },
          "onAdded": [
            {
              "$type": "AttachEffect",
              "rotationDampTime": "Eff_Activity_Endora_Skill_Bubble_Normal",
              "PPPDJGDDOGD": 1.0,
              "AJDILHJFNKE": -1.0
            }
          ],
          "onRemoved": [
            {
              "$type": "FireEffect",
              "rotationDampTime": "Eff_Activity_Endora_Skill_Bubble_Normal_AS",
              "born": {
                "$type": "ConfigBornByAttachPoint",
                "attachPointName": "RootNode"
              },
              "PPPDJGDDOGD": 1.0,
              "AJDILHJFNKE": -1.0
            }
          ],
          "onKill": [
            {
              "$type": "RemoveUniqueModifier",
              "modifierName": "UNIQUE_Debuff_Bubble_Struggle_Normal"
            }
          ]
        }
      },
      "onAdded": [
        {
          "$type": "AttachModifier",
          "shieldHP": true,
          "modifierName": "TriggerAttack_Event"
        },
        {
          "$type": "TriggerAttackEvent",
          "attackEvent": {
            "attackPattern": {
              "$type": "ConfigAttackCircle",
              "triggerType": "TriggerNoRepeat",
              "born": {
                "$type": "ConfigBornBySelf",
                "offset": {
                  "x": 0.0,
                  "y": 0.0,
                  "z": 0.0
                }
              },
              "radius": 1.2000000476837158
            },
            "attackInfo": {
              "attackTag": "",
              "attenuationTag": "",
              "attenuationGroup": "default",
              "attackProperty": {
                "actorGrassSubHurtDelta": 0.0,
                "actorWindSubHurtDelta": 0.0,
                "elementDurability": 100.0,
                "HMBONGBFIAP": 0.0,
                "GLKMCMDJBIK": 0.0
              },
              "hitPattern": {
                "onHitEffectName": "default",
                "hitImpulseY": "",
                "hitImpulseType": "LV1"
              },
              "canHitHead": true,
              "hitHeadPattern": {
                "onHitEffectName": "default",
                "hitImpulseY": "",
                "hitImpulseType": "LV0"
              }
            }
          },
          "targetType": "Enemy"
        }
      ]
    }
  },
  {
    "Default": {
      "$type": "ConfigAbility",
      "abilityName": "ActivityAbility_Endora_AvatarUpBuff",
      "modifiers": {
        "UNIQUE_ActivityAbility_Endora_AvatarUpBuff": {
          "modifierName": "",
          "forceTriggerWhenChangeAuthority": true,
          "elementDurability": 100.0,
          "properties": {
            "Actor_ChargeEfficiencyDelta": 0.30000001192092896,
            "Actor_WaterSubHurtDelta": 0.30000001192092896
          },
          "isLimitedProperties": true
        }
      },
      "onAdded": [
        {
          "$type": "AttachModifier",
          "shieldHP": true,
          "modifierName": "UNIQUE_ActivityAbility_Endora_AvatarUpBuff"
        }
      ],
      "isDynamicAbility": true
    }
  }
]
