[
  {
    "Default": {
      "$type": "ConfigAbility",
      "abilityName": "ActivityAbility_FleurFair_FireSubHurtUp",
      "abilitySpecials": {
        "Value": 0.4000000059604645
      },
      "modifiers": {
        "UNIQUE_ActivityAbility_FleurFair_FireSubHurtUp": {
          "stacking": "Unique",
          "modifierName": "",
          "forceTriggerWhenChangeAuthority": true,
          "elementDurability": 100.0,
          "properties": {
            "Actor_FireSubHurtDelta": "Value"
          },
          "isLimitedProperties": true
        }
      },
      "onAdded": [
        {
          "$type": "AttachModifier",
          "shieldHP": true,
          "modifierName": "UNIQUE_ActivityAbility_FleurFair_FireSubHurtUp"
        }
      ],
      "isDynamicAbility": true
    }
  },
  {
    "Default": {
      "$type": "ConfigAbility",
      "abilityName": "ActivityAbility_FleurFair_DefenceUp",
      "abilitySpecials": {
        "Value": 0.5
      },
      "modifiers": {
        "UNIQUE_ActivityAbility_FleurFair_DefenceUp": {
          "stacking": "Unique",
          "modifierName": "",
          "forceTriggerWhenChangeAuthority": true,
          "elementDurability": 100.0,
          "properties": {
            "Actor_DefenceRatio": "Value"
          },
          "isLimitedProperties": true
        }
      },
      "onAdded": [
        {
          "$type": "AttachModifier",
          "shieldHP": true,
          "modifierName": "UNIQUE_ActivityAbility_FleurFair_DefenceUp"
        }
      ],
      "isDynamicAbility": true
    }
  },
  {
    "Default": {
      "$type": "ConfigAbility",
      "abilityName": "ActivityAbility_FleurFair_ShieldCostMinusUp",
      "abilitySpecials": {
        "Value": 0.5
      },
      "modifiers": {
        "UNIQUE_ActivityAbility_FleurFair_ShieldCostMinusUp": {
          "stacking": "Unique",
          "modifierName": "",
          "forceTriggerWhenChangeAuthority": true,
          "elementDurability": 100.0,
          "properties": {
            "Actor_ShieldCostMinusRatio": "Value"
          },
          "isLimitedProperties": true
        }
      },
      "onAdded": [
        {
          "$type": "AttachModifier",
          "shieldHP": true,
          "modifierName": "UNIQUE_ActivityAbility_FleurFair_ShieldCostMinusUp"
        }
      ],
      "isDynamicAbility": true
    }
  },
  {
    "Default": {
      "$type": "ConfigAbility",
      "abilityName": "ActivityAbility_FleurFair_CriticalUp",
      "abilitySpecials": {
        "Value": 0.699999988079071
      },
      "modifiers": {
        "UNIQUE_ActivityAbility_FleurFair_CriticalUp": {
          "stacking": "Unique",
          "modifierName": "",
          "forceTriggerWhenChangeAuthority": true,
          "elementDurability": 100.0,
          "properties": {
            "Actor_CriticalDelta": "Value"
          },
          "isLimitedProperties": true
        }
      },
      "onAdded": [
        {
          "$type": "AttachModifier",
          "shieldHP": true,
          "modifierName": "UNIQUE_ActivityAbility_FleurFair_CriticalUp"
        }
      ],
      "isDynamicAbility": true
    }
  },
  {
    "Default": {
      "$type": "ConfigAbility",
      "abilityName": "ActivityAbility_FleurFair_AttackUp",
      "abilitySpecials": {
        "Value": 1.2000000476837158
      },
      "modifiers": {
        "UNIQUE_ActivityAbility_FleurFair_AttackUp": {
          "stacking": "Unique",
          "modifierName": "",
          "forceTriggerWhenChangeAuthority": true,
          "elementDurability": 100.0,
          "properties": {
            "Actor_AttackRatio": "Value"
          },
          "isLimitedProperties": true
        }
      },
      "onAdded": [
        {
          "$type": "AttachModifier",
          "shieldHP": true,
          "modifierName": "UNIQUE_ActivityAbility_FleurFair_AttackUp"
        }
      ],
      "isDynamicAbility": true
    }
  },
  {
    "Default": {
      "$type": "ConfigAbility",
      "abilityName": "ActivityAbility_FleurFair_ElementAddHurtUp",
      "abilitySpecials": {
        "Value": 1.0
      },
      "modifiers": {
        "UNIQUE_ActivityAbility_FleurFair_ElementAddHurtUp": {
          "stacking": "Unique",
          "modifierName": "",
          "forceTriggerWhenChangeAuthority": true,
          "elementDurability": 100.0,
          "properties": {
            "Actor_WaterAddHurtDelta": "Value",
            "Actor_IceAddHurtDelta": "Value",
            "Actor_ElecAddHurtDelta": "Value"
          },
          "isLimitedProperties": true
        }
      },
      "onAdded": [
        {
          "$type": "AttachModifier",
          "shieldHP": true,
          "modifierName": "UNIQUE_ActivityAbility_FleurFair_ElementAddHurtUp"
        }
      ],
      "isDynamicAbility": true
    }
  },
  {
    "Default": {
      "$type": "ConfigAbility",
      "abilityName": "ActivityAbility_FleurFair_AttackSpeedUp",
      "abilitySpecials": {
        "Value": 0.20000000298023224
      },
      "modifiers": {
        "UNIQUE_ActivityAbility_FleurFair_AttackSpeedUp": {
          "stacking": "Unique",
          "modifierName": "",
          "forceTriggerWhenChangeAuthority": true,
          "elementDurability": 100.0,
          "properties": {
            "Animator_AttackSpeedRatio": "Value"
          },
          "isLimitedProperties": true
        }
      },
      "onAdded": [
        {
          "$type": "AttachModifier",
          "shieldHP": true,
          "modifierName": "UNIQUE_ActivityAbility_FleurFair_AttackSpeedUp"
        }
      ],
      "isDynamicAbility": true
    }
  },
  {
    "Default": {
      "$type": "ConfigAbility",
      "abilityName": "ActivityAbility_FleurFair_CriticalHurtUp",
      "abilitySpecials": {
        "Value": 1.399999976158142
      },
      "modifiers": {
        "UNIQUE_ActivityAbility_FleurFair_CriticalHurtUp": {
          "stacking": "Unique",
          "modifierName": "",
          "forceTriggerWhenChangeAuthority": true,
          "elementDurability": 100.0,
          "properties": {
            "Actor_CriticalHurtDelta": "Value"
          },
          "isLimitedProperties": true
        }
      },
      "onAdded": [
        {
          "$type": "AttachModifier",
          "shieldHP": true,
          "modifierName": "UNIQUE_ActivityAbility_FleurFair_CriticalHurtUp"
        }
      ],
      "isDynamicAbility": true
    }
  },
  {
    "Default": {
      "$type": "ConfigAbility",
      "abilityName": "ActivityAbility_FleurFair_CostStaminaDown",
      "abilitySpecials": {
        "Value": -0.800000011920929
      },
      "modifiers": {
        "UNIQUE_ActivityAbility_FleurFair_CostStaminaDown": {
          "stacking": "Unique",
          "modifierName": "",
          "forceTriggerWhenChangeAuthority": true,
          "elementDurability": 100.0,
          "properties": {
            "Actor_CostStaminaRatio": "Value"
          },
          "isLimitedProperties": true
        }
      },
      "onAdded": [
        {
          "$type": "AttachModifier",
          "shieldHP": true,
          "modifierName": "UNIQUE_ActivityAbility_FleurFair_CostStaminaDown"
        }
      ],
      "isDynamicAbility": true
    }
  },
  {
    "Default": {
      "$type": "ConfigAbility",
      "abilityName": "ActivityAbility_FleurFair_ShieldCostMinusUpLv2",
      "abilitySpecials": {
        "Value": 1.0
      },
      "modifiers": {
        "UNIQUE_ActivityAbility_FleurFair_ShieldCostMinusUpLv2": {
          "stacking": "Unique",
          "modifierName": "",
          "forceTriggerWhenChangeAuthority": true,
          "elementDurability": 100.0,
          "properties": {
            "Actor_ShieldCostMinusRatio": "Value"
          },
          "isLimitedProperties": true
        }
      },
      "onAdded": [
        {
          "$type": "AttachModifier",
          "shieldHP": true,
          "modifierName": "UNIQUE_ActivityAbility_FleurFair_ShieldCostMinusUpLv2"
        }
      ],
      "isDynamicAbility": true
    }
  },
  {
    "Default": {
      "$type": "ConfigAbility",
      "abilityName": "ActivityAbility_FleurFair_AttackDoAreaWaterDamage",
      "abilitySpecials": {
        "Value_DamageSystemValue": 0.0,
        "Value_DamageSystemValueRate": 5.0,
        "Value_HPRatio": 0.10000000149011612,
        "Value_AreaDamageCD": 5.0,
        "Value_Chance": 0.5
      },
      "modifiers": {
        "UNIQUE_ActivityAbility_FleurFair_AttackDoAreaWaterDamage": {
          "stacking": "Unique",
          "modifierName": "",
          "forceTriggerWhenChangeAuthority": true,
          "elementDurability": 100.0,
          "onAttackLanded": [
            {
              "$type": "Predicated",
              "target": "Other",
              "targetPredicates": [
                {
                  "$type": "ByEntityTypes",
                  "entityTypes": ["Monster", "Gadget"]
                },
                {
                  "$type": "ByTargetGlobalValue",
                  "key": "_ANIMAL_ENTITY_TYPE",
                  "value": 0.0,
                  "compareType": "NoneOrEqual"
                },
                {
                  "$type": "ByTargetGlobalValue",
                  "target": "Team",
                  "key": "_Is_ActivityAbility_FleurFair_AttackDoAreaWaterDamage_CD",
                  "value": 0.0,
                  "compareType": "NoneOrEqual"
                }
              ],
              "successActions": [
                {
                  "$type": "Randomed",
                  "chance": "Value_Chance",
                  "successActions": [
                    {
                      "$type": "ApplyModifier",
                      "target": "Other",
                      "modifierName": "ActivityAbility_FleurFair_AttackDoAreaWaterDamage_Target"
                    },
                    {
                      "$type": "HealHP",
                      "target": "Caster",
                      "shieldHP": true,
                      "amountByCasterMaxHPRatio": "Value_HPRatio",
                      "cdRatio": ""
                    },
                    {
                      "$type": "ApplyModifier",
                      "target": "Team",
                      "modifierName": "UNIQUE_ActivityAbility_FleurFair_AttackDoAreaWaterDamageCD_Team"
                    }
                  ]
                }
              ]
            }
          ],
          "buffID": 35001
        },
        "ActivityAbility_FleurFair_AttackDoAreaWaterDamage_Target": {
          "modifierName": "",
          "duration": 0.10000000149011612,
          "elementDurability": 100.0,
          "onAdded": [
            {
              "$type": "FireEffect",
              "rotationDampTime": "Eff_Stages_HydroImpact_01",
              "born": {
                "$type": "ConfigBornByTarget"
              },
              "PPPDJGDDOGD": 1.0,
              "AJDILHJFNKE": -1.0
            },
            {
              "$type": "TriggerAttackEvent",
              "target": "Caster",
              "attackEvent": {
                "attackPattern": {
                  "$type": "ConfigAttackSphere",
                  "triggerType": "TriggerNoRepeat",
                  "born": {
                    "$type": "ConfigBornBySelf"
                  },
                  "radius": 10.0
                },
                "attackInfo": {
                  "attackTag": "",
                  "attenuationTag": "",
                  "attenuationGroup": "default",
                  "attackProperty": {
                    "actorWindSubHurtDelta": 0.0,
                    "elementType": "Water",
                    "elementDurability": 25.0,
                    "ignoreAttackerProperty": true,
                    "HMBONGBFIAP": [
                      "Value_DamageSystemValue",
                      "Value_DamageSystemValueRate",
                      "MUL"
                    ],
                    "GLKMCMDJBIK": 0.0
                  },
                  "hitPattern": {
                    "onHitEffectName": "",
                    "hitImpulseY": "",
                    "hitImpulseType": "LV2",
                    "hitHaltTimeScale": 0.05000000074505806
                  },
                  "cameraShake": {}
                }
              },
              "targetType": "Enemy"
            }
          ]
        },
        "UNIQUE_ActivityAbility_FleurFair_AttackDoAreaWaterDamageCD_Team": {
          "modifierName": "",
          "forceTriggerWhenChangeAuthority": true,
          "duration": "Value_AreaDamageCD",
          "elementDurability": 100.0,
          "onAdded": [
            {
              "$type": "AddGlobalValue",
              "value": 1.0,
              "key": "_Is_ActivityAbility_FleurFair_AttackDoAreaWaterDamage_CD",
              "useLimitRange": true,
              "maxValue": 1.0,
              "minValue": 1.0
            }
          ],
          "onRemoved": [
            {
              "$type": "ClearGlobalValue",
              "key": "_Is_ActivityAbility_FleurFair_AttackDoAreaWaterDamage_CD"
            }
          ]
        }
      },
      "onAdded": [
        {
          "$type": "AttachModifier",
          "modifierName": "UNIQUE_ActivityAbility_FleurFair_AttackDoAreaWaterDamage"
        },
        {
          "$type": "GDHGMAPPGHD",
          "key": "Value_DamageSystemValue",
          "damageRatio": "ElementLevelCo"
        }
      ],
      "isDynamicAbility": true
    }
  },
  {
    "Default": {
      "$type": "ConfigAbility",
      "abilityName": "ActivityAbility_FleurFair_FallingAttackDoAreaDamage",
      "abilitySpecials": {
        "Value_FallingAttackDamage": 0.5,
        "Value_DamageSystemValue": 0.0,
        "Value_DamageSystemValueRate": 5.0
      },
      "modifiers": {
        "UNIQUE_ActivityAbility_FleurFair_FallingAttackDoAreaDamage": {
          "stacking": "Unique",
          "modifierName": "",
          "forceTriggerWhenChangeAuthority": true,
          "elementDurability": 100.0,
          "modifierMixins": [
            {
              "$type": "ModifyDamageMixin",
              "attackTags": ["FallingAttack"],
              "actorWindSubHurtDelta": "Value_FallingAttackDamage"
            }
          ],
          "onAttackLanded": [
            {
              "$type": "Predicated",
              "target": "Other",
              "targetPredicates": [
                {
                  "$type": "ByEntityTypes",
                  "entityTypes": ["Monster", "Gadget"]
                },
                {
                  "$type": "ByAttackTags",
                  "attackTags": ["FallingAttack"]
                }
              ],
              "successActions": [
                {
                  "$type": "ApplyModifier",
                  "target": "Caster",
                  "modifierName": "TriggerAreaAttack"
                }
              ]
            }
          ],
          "buffID": 35001
        },
        "TriggerAreaAttack": {
          "stacking": "Unique",
          "modifierName": "",
          "duration": 0.10000000149011612,
          "elementDurability": 100.0,
          "onAdded": [
            {
              "$type": "FireEffect",
              "rotationDampTime": "Eff_Stages_FleurFairImpact_01",
              "born": {
                "$type": "ConfigBornByTarget"
              },
              "PPPDJGDDOGD": 1.0,
              "AJDILHJFNKE": -1.0
            },
            {
              "$type": "TriggerAttackEvent",
              "target": "Caster",
              "attackEvent": {
                "attackPattern": {
                  "$type": "ConfigAttackSphere",
                  "triggerType": "TriggerNoRepeat",
                  "born": {
                    "$type": "ConfigBornBySelf"
                  },
                  "radius": 10.0
                },
                "attackInfo": {
                  "attackTag": "",
                  "attenuationTag": "",
                  "attenuationGroup": "default",
                  "attackProperty": {
                    "actorWindSubHurtDelta": 0.0,
                    "elementDurability": 0.0,
                    "ignoreAttackerProperty": true,
                    "HMBONGBFIAP": [
                      "Value_DamageSystemValue",
                      "Value_DamageSystemValueRate",
                      "MUL"
                    ],
                    "GLKMCMDJBIK": 0.0
                  },
                  "hitPattern": {
                    "onHitEffectName": "",
                    "hitImpulseY": "",
                    "hitImpulseType": "LV2",
                    "hitHaltTimeScale": 0.05000000074505806
                  },
                  "cameraShake": {}
                }
              },
              "targetType": "Enemy"
            }
          ]
        }
      },
      "onAdded": [
        {
          "$type": "AttachModifier",
          "shieldHP": true,
          "modifierName": "UNIQUE_ActivityAbility_FleurFair_FallingAttackDoAreaDamage"
        },
        {
          "$type": "GDHGMAPPGHD",
          "key": "Value_DamageSystemValue",
          "damageRatio": "ElementLevelCo"
        }
      ],
      "isDynamicAbility": true
    }
  },
  {
    "Default": {
      "$type": "ConfigAbility",
      "abilityName": "ActivityAbility_FleurFair_BowExtraAttackDoAreaDamage",
      "abilitySpecials": {
        "Value_AreaDamageCD": 1.0,
        "Value_BonusCritical": 1.0,
        "Value_DamageSystemValue": 0.0,
        "Value_DamageSystemValueRate": 5.0
      },
      "modifiers": {
        "UNIQUE_ActivityAbility_FleurFair_BowExtraAttackDoAreaDamage": {
          "stacking": "Unique",
          "modifierName": "",
          "forceTriggerWhenChangeAuthority": true,
          "elementDurability": 100.0,
          "modifierMixins": [
            {
              "$type": "ModifyDamageMixin",
              "attackTags": ["ExtraAttack"],
              "actorWindSubHurtDelta": 0.0,
              "AIGBINPINKE": "Value_BonusCritical"
            }
          ],
          "onAttackLanded": [
            {
              "$type": "Predicated",
              "target": "Other",
              "targetPredicates": [
                {
                  "$type": "ByEntityTypes",
                  "entityTypes": ["Monster", "Gadget"]
                },
                {
                  "$type": "ByAttackTags",
                  "attackTags": ["ExtraAttack"]
                },
                {
                  "$type": "ByTargetGlobalValue",
                  "key": "_ANIMAL_ENTITY_TYPE",
                  "value": 0.0,
                  "compareType": "NoneOrEqual"
                },
                {
                  "$type": "ByTargetGlobalValue",
                  "key": "_Is_ActivityAbility_FleurFair_BowExtraAttackDoAreaDamage_CD",
                  "value": 0.0,
                  "forceByCaster": true,
                  "compareType": "NoneOrEqual"
                }
              ],
              "successActions": [
                {
                  "$type": "ApplyModifier",
                  "target": "Other",
                  "modifierName": "ActivityAbility_FleurFair_BowExtraAttackDoAreaDamage_Target"
                },
                {
                  "$type": "ApplyModifier",
                  "target": "Caster",
                  "shieldHP": true,
                  "modifierName": "UNIQUE_ActivityAbility_FleurFair_BowExtraAttackDoAreaDamageCD_Self"
                }
              ]
            }
          ],
          "buffID": 35001
        },
        "ActivityAbility_FleurFair_BowExtraAttackDoAreaDamage_Target": {
          "modifierName": "",
          "duration": 0.10000000149011612,
          "elementDurability": 100.0,
          "onAdded": [
            {
              "$type": "FireEffect",
              "rotationDampTime": "Eff_Stages_FleurFairImpact_01",
              "born": {
                "$type": "ConfigBornByTarget"
              },
              "PPPDJGDDOGD": 1.0,
              "AJDILHJFNKE": -1.0
            },
            {
              "$type": "TriggerAttackEvent",
              "target": "Caster",
              "attackEvent": {
                "attackPattern": {
                  "$type": "ConfigAttackSphere",
                  "triggerType": "TriggerNoRepeat",
                  "born": {
                    "$type": "ConfigBornBySelf"
                  },
                  "radius": 10.0
                },
                "attackInfo": {
                  "attackTag": "",
                  "attenuationTag": "",
                  "attenuationGroup": "default",
                  "attackProperty": {
                    "actorWindSubHurtDelta": 0.0,
                    "elementDurability": 0.0,
                    "ignoreAttackerProperty": true,
                    "HMBONGBFIAP": [
                      "Value_DamageSystemValue",
                      "Value_DamageSystemValueRate",
                      "MUL"
                    ],
                    "GLKMCMDJBIK": 0.0
                  },
                  "hitPattern": {
                    "onHitEffectName": "",
                    "hitImpulseY": "",
                    "hitImpulseType": "LV2",
                    "hitHaltTimeScale": 0.05000000074505806
                  },
                  "cameraShake": {}
                }
              },
              "targetType": "Enemy"
            }
          ]
        },
        "UNIQUE_ActivityAbility_FleurFair_BowExtraAttackDoAreaDamageCD_Self": {
          "modifierName": "",
          "forceTriggerWhenChangeAuthority": true,
          "duration": "Value_AreaDamageCD",
          "elementDurability": 100.0,
          "onAdded": [
            {
              "$type": "AddGlobalValue",
              "value": 1.0,
              "key": "_Is_ActivityAbility_FleurFair_BowExtraAttackDoAreaDamage_CD",
              "useLimitRange": true,
              "maxValue": 1.0,
              "minValue": 1.0
            }
          ],
          "onRemoved": [
            {
              "$type": "ClearGlobalValue",
              "shieldHP": true,
              "key": "_Is_ActivityAbility_FleurFair_BowExtraAttackDoAreaDamage_CD"
            }
          ]
        }
      },
      "onAdded": [
        {
          "$type": "AttachModifier",
          "shieldHP": true,
          "predicates": [
            {
              "$type": "GPKOPAOMILE",
              "weaponTypes": ["WEAPON_BOW"]
            }
          ],
          "modifierName": "UNIQUE_ActivityAbility_FleurFair_BowExtraAttackDoAreaDamage"
        },
        {
          "$type": "GDHGMAPPGHD",
          "key": "Value_DamageSystemValue",
          "damageRatio": "ElementLevelCo"
        }
      ],
      "isDynamicAbility": true
    }
  },
  {
    "Default": {
      "$type": "ConfigAbility",
      "abilityName": "ActivityAbility_FleurFair_ShieldOnBeingHitDoAreaDamage",
      "abilitySpecials": {
        "Value_AreaDamageCD": 2.0,
        "Value_DamageSystemValue": 0.0,
        "Value_DamageSystemValueRate": 5.0
      },
      "modifiers": {
        "UNIQUE_ActivityAbility_FleurFair_ShieldOnBeingHitDoAreaDamage": {
          "modifierName": "",
          "forceTriggerWhenChangeAuthority": true,
          "elementDurability": 100.0,
          "onBeingHit": [
            {
              "$type": "Predicated",
              "target": "Other",
              "predicates": [
                {
                  "$type": "ByTargetGlobalValue",
                  "target": "Team",
                  "key": "_Is_ActivityAbility_FleurFair_ShieldOnBeingHitDoAreaDamage_CD",
                  "value": 0.0,
                  "compareType": "NoneOrEqual"
                },
                {
                  "$type": "ByHasShield",
                  "target": "Self",
                  "damageRatio": "All"
                }
              ],
              "targetPredicates": [
                {
                  "$type": "ByEntityTypes",
                  "entityTypes": ["Monster", "Gadget"]
                }
              ],
              "successActions": [
                {
                  "$type": "ApplyModifier",
                  "modifierName": "ActivityAbility_FleurFair_ShieldOnBeingHitDoAreaDamage"
                },
                {
                  "$type": "ApplyModifier",
                  "target": "Team",
                  "modifierName": "UNIQUE_ActivityAbility_FleurFair_ShieldOnBeingHitDoAreaDamage_CD"
                }
              ],
              "failActions": [
                {
                  "$type": "Predicated",
                  "target": "Target",
                  "targetPredicates": [
                    {
                      "$type": "ByEntityTypes",
                      "entityTypes": ["Bullet"]
                    }
                  ],
                  "successActions": [
                    {
                      "$type": "ApplyModifier",
                      "modifierName": "ActivityAbility_FleurFair_ShieldOnBeingHitDoAreaDamage"
                    },
                    {
                      "$type": "ApplyModifier",
                      "target": "Team",
                      "modifierName": "UNIQUE_ActivityAbility_FleurFair_ShieldOnBeingHitDoAreaDamage_CD"
                    }
                  ]
                }
              ]
            }
          ],
          "buffID": 35001
        },
        "ActivityAbility_FleurFair_ShieldOnBeingHitDoAreaDamage": {
          "modifierName": "",
          "duration": 1.0,
          "elementDurability": 100.0,
          "onAdded": [
            {
              "$type": "FireEffect",
              "rotationDampTime": "Eff_Stages_FleurFairImpact_01",
              "born": {
                "$type": "ConfigBornByTarget"
              },
              "PPPDJGDDOGD": 1.0,
              "AJDILHJFNKE": -1.0
            },
            {
              "$type": "TriggerAttackEvent",
              "target": "Applier",
              "attackEvent": {
                "attackPattern": {
                  "$type": "ConfigAttackSphere",
                  "triggerType": "TriggerNoRepeat",
                  "born": {
                    "$type": "ConfigBornBySelf"
                  },
                  "radius": 10.0
                },
                "attackInfo": {
                  "attackTag": "",
                  "attenuationTag": "",
                  "attenuationGroup": "default",
                  "attackProperty": {
                    "actorWindSubHurtDelta": 0.0,
                    "elementDurability": 0.0,
                    "ignoreAttackerProperty": true,
                    "strikeType": "Default",
                    "enBreak": 0.0,
                    "HMBONGBFIAP": [
                      "Value_DamageSystemValue",
                      "Value_DamageSystemValueRate",
                      "MUL"
                    ],
                    "GLKMCMDJBIK": 0.0
                  },
                  "hitPattern": {
                    "onHitEffectName": "",
                    "hitImpulseY": "",
                    "hitImpulseType": "LV2",
                    "hitHaltTimeScale": 0.05000000074505806
                  },
                  "cameraShake": {}
                }
              },
              "targetType": "Enemy"
            }
          ]
        },
        "UNIQUE_ActivityAbility_FleurFair_ShieldOnBeingHitDoAreaDamage_CD": {
          "modifierName": "",
          "forceTriggerWhenChangeAuthority": true,
          "duration": "Value_AreaDamageCD",
          "elementDurability": 100.0,
          "onAdded": [
            {
              "$type": "AddGlobalValue",
              "value": 1.0,
              "key": "_Is_ActivityAbility_FleurFair_ShieldOnBeingHitDoAreaDamage_CD",
              "useLimitRange": true,
              "maxValue": 1.0,
              "minValue": 1.0
            }
          ],
          "onRemoved": [
            {
              "$type": "ClearGlobalValue",
              "key": "_Is_ActivityAbility_FleurFair_ShieldOnBeingHitDoAreaDamage_CD"
            }
          ]
        }
      },
      "onAdded": [
        {
          "$type": "GDHGMAPPGHD",
          "key": "Value_DamageSystemValue",
          "damageRatio": "ElementLevelCo"
        },
        {
          "$type": "AttachModifier",
          "modifierName": "UNIQUE_ActivityAbility_FleurFair_ShieldOnBeingHitDoAreaDamage"
        }
      ],
      "isDynamicAbility": true
    }
  }
]
