[
  {
    "Default": {
      "$type": "ConfigAbility",
      "abilityName": "Animal_Tortoise_Giant_01_State",
      "abilityMixins": [
        {
          "$type": "RigidBodyFreezeMixin"
        }
      ],
      "onAdded": [
        {
          "$type": "AddGlobalValue",
          "value": 1.0,
          "key": "_ANIMAL_ENTITY_TYPE",
          "useLimitRange": true,
          "maxValue": 1.0,
          "minValue": 0.0
        }
      ]
    }
  },
  {
    "Default": {
      "$type": "ConfigAbility",
      "abilityName": "Animal_Tortoise_02_Initial",
      "abilityMixins": [
        {
          "$type": "LEOGLBFIELL",
          "poseIDs": [0, 1],
          "modifierName": "Animal_Tortoise_01_BeforeBattle"
        },
        {
          "$type": "LEOGLBFIELL",
          "poseIDs": [901],
          "modifierName": "Animal_Tortoise_01_OutOfBattle"
        },
        {
          "$type": "AttachToStateIDMixin",
          "stateIDs": ["Defend_Loop", "Standby_Defend_Loop"],
          "modifierName": "Animal_Tortoise_01_InDefendAnim",
          "DGFCLAIDIFI": ""
        },
        {
          "$type": "AttachToStateIDMixin",
          "stateIDs": ["Defend_BS", "Defend_Loop", "Defend_AS"],
          "modifierName": "Animal_Tortoise_01_CanShake",
          "DGFCLAIDIFI": ""
        }
      ],
      "modifiers": {
        "Animal_Tortoise_01_OutOfBattle": {
          "modifierName": "",
          "elementDurability": 100.0,
          "onAdded": [
            {
              "$type": "SetGlobalValue",
              "value": 0.0,
              "key": "_AVATAR_NUMS_NEAR_TORTOISE",
              "maxValue": 0.0,
              "minValue": 0.0
            },
            {
              "$type": "SetAnimatorBool",
              "boolID": "InAttack"
            },
            {
              "$type": "RemoveModifier",
              "modifierName": "Animal_Tortoise_DefendDuration"
            },
            {
              "$type": "SetAnimatorBool",
              "boolID": "InDefend"
            },
            {
              "$type": "SetAnimatorBool",
              "boolID": "InStandbyDefend"
            }
          ]
        },
        "Animal_Tortoise_01_InDefendAnim": {
          "modifierName": "",
          "elementDurability": 100.0,
          "onAdded": [
            {
              "$type": "SetAnimatorBool",
              "boolID": "InDefendAnim",
              "value": true
            }
          ],
          "onRemoved": [
            {
              "$type": "SetAnimatorBool",
              "boolID": "InDefendAnim"
            }
          ]
        },
        "Animal_Tortoise_01_CanShake": {
          "modifierName": "",
          "elementDurability": 100.0,
          "onAdded": [
            {
              "$type": "SetAnimatorBool",
              "boolID": "CanShake",
              "value": true
            }
          ],
          "onRemoved": [
            {
              "$type": "SetAnimatorBool",
              "boolID": "CanShake"
            }
          ]
        },
        "Animal_Tortoise_01_BeforeBattle": {
          "modifierName": "",
          "elementDurability": 100.0,
          "modifierMixins": [
            {
              "$type": "FieldEntityCountChangeMixin",
              "campTargetType": "AllExceptSelf",
              "targetPredicates": [
                {
                  "$type": "ByEntityTypes",
                  "entityTypes": ["Avatar", "Vehicle"]
                }
              ],
              "simpleCountGlobaValueKey": "_AVATAR_NUMS_NEAR_TORTOISE",
              "simpleCountUseLimitRange": true,
              "simpleCountMaxValue": 10.0,
              "simpleCountMinValue": 0.0
            },
            {
              "$type": "AttachModifierToSelfGlobalValueMixin",
              "globalValueKey": "_AVATAR_NUMS_NEAR_TORTOISE",
              "gvInTalk": 0.0,
              "valueSteps": [-0.5, 0.5, 11.0],
              "modifierNameSteps": ["No_AvatarNear", "AvatarNear"]
            }
          ],
          "onAdded": [
            {
              "$type": "SetGlobalValue",
              "value": 0.0,
              "key": "_AVATAR_NUMS_NEAR_TORTOISE",
              "maxValue": 0.0,
              "minValue": 0.0
            },
            {
              "$type": "SetAnimatorBool",
              "boolID": "InAttack"
            },
            {
              "$type": "RemoveModifier",
              "modifierName": "Animal_Tortoise_DefendDuration"
            },
            {
              "$type": "SetAnimatorBool",
              "boolID": "InDefend"
            }
          ]
        },
        "No_AvatarNear": {
          "modifierName": "",
          "elementDurability": 100.0,
          "onAdded": [
            {
              "$type": "SetAnimatorBool",
              "boolID": "InStandbyDefend"
            }
          ]
        },
        "AvatarNear": {
          "modifierName": "",
          "elementDurability": 100.0,
          "onAdded": [
            {
              "$type": "SetAnimatorBool",
              "boolID": "InStandbyDefend",
              "value": true
            }
          ]
        },
        "Animal_Tortoise_01_Initial": {
          "modifierName": "",
          "elementDurability": 100.0,
          "state": "LockHP",
          "onAdded": [
            {
              "$type": "HBNEMPLJCMB",
              "canBeHandledOnRecover": true,
              "hide": true
            },
            {
              "$type": "AttachAbilityStateResistance",
              "resistanceListID": 11001
            }
          ]
        },
        "Animal_Tortoise_01_BeHitHandler": {
          "modifierName": "",
          "elementDurability": 100.0,
          "modifierMixins": [
            {
              "$type": "AttachModifierToSelfGlobalValueMixin",
              "globalValueKey": "_BE_HIT_TIMES",
              "gvInTalk": 0.0,
              "valueSteps": [-0.5, 0.5, 11.0],
              "modifierNameSteps": ["Peace", "Defend"]
            }
          ],
          "onAdded": [
            {
              "$type": "SetGlobalValue",
              "value": 0.0,
              "key": "_BE_HIT_TIMES",
              "maxValue": 0.0,
              "minValue": 0.0
            },
            {
              "$type": "SetGlobalValue",
              "value": 0.0,
              "key": "_DEFEND_BE_HIT_TIMES",
              "maxValue": 0.0,
              "minValue": 0.0
            }
          ],
          "onBeingHit": [
            {
              "$type": "AddGlobalValue",
              "value": 1.0,
              "key": "_BE_HIT_TIMES",
              "useLimitRange": true,
              "maxValue": 10.0,
              "minValue": 0.0
            },
            {
              "$type": "AddGlobalValue",
              "value": 1.0,
              "key": "_DEFEND_BE_HIT_TIMES",
              "useLimitRange": true,
              "maxValue": 10.0,
              "minValue": 0.0
            }
          ]
        },
        "Peace": {
          "modifierName": "",
          "elementDurability": 100.0,
          "onAdded": [
            {
              "$type": "IDNGFEEBPAM",
              "boolID": "InDefend"
            },
            {
              "$type": "SetAnimatorBool",
              "boolID": "InDefend"
            }
          ]
        },
        "Defend": {
          "modifierName": "",
          "elementDurability": 100.0,
          "onAdded": [
            {
              "$type": "SetAnimatorTrigger",
              "triggerID": "GoDefend"
            },
            {
              "$type": "IDNGFEEBPAM",
              "boolID": "InDefend",
              "value": true
            },
            {
              "$type": "SetAnimatorBool",
              "boolID": "InDefend",
              "value": true
            },
            {
              "$type": "ApplyModifier",
              "modifierName": "Animal_Tortoise_DefendDuration"
            }
          ]
        },
        "Animal_Tortoise_DefendDuration": {
          "modifierName": "",
          "duration": 30.0,
          "elementDurability": 100.0,
          "onAdded": [
            {
              "$type": "SetGlobalValue",
              "value": 0.0,
              "key": "_DEFEND_BE_HIT_TIMES",
              "maxValue": 0.0,
              "minValue": 0.0
            }
          ],
          "onRemoved": [
            {
              "$type": "SetGlobalValue",
              "value": 0.0,
              "key": "_BE_HIT_TIMES",
              "maxValue": 0.0,
              "minValue": 0.0
            },
            {
              "$type": "SetGlobalValue",
              "value": 0.0,
              "key": "_DEFEND_BE_HIT_TIMES",
              "maxValue": 0.0,
              "minValue": 0.0
            }
          ]
        }
      },
      "onAdded": [
        {
          "$type": "AddGlobalValue",
          "value": 1.0,
          "key": "_ANIMAL_ENTITY_TYPE",
          "useLimitRange": true,
          "maxValue": 1.0,
          "minValue": 0.0
        },
        {
          "$type": "ApplyModifier",
          "modifierName": "Animal_Tortoise_01_Initial"
        },
        {
          "$type": "ApplyModifier",
          "modifierName": "Animal_Tortoise_01_BeHitHandler"
        }
      ]
    }
  },
  {
    "Default": {
      "$type": "ConfigAbility",
      "abilityName": "Animal_Tortoise_Giant_01_WaterEffect",
      "modifiers": {
        "WaterEffect": {
          "modifierName": "",
          "elementDurability": 100.0,
          "onAdded": [
            {
              "$type": "AttachEffect",
              "rotationDampTime": "Eff_Animal_GiantTortoise_Standby_Water",
              "PPPDJGDDOGD": 1.0,
              "AJDILHJFNKE": -1.0
            }
          ]
        }
      },
      "onAdded": [
        {
          "$type": "AttachModifier",
          "modifierName": "WaterEffect"
        }
      ]
    }
  },
  {
    "Default": {
      "$type": "ConfigAbility",
      "abilityName": "Animal_Tortoise_Giant_01_Initial",
      "abilityMixins": [
        {
          "$type": "AttachToStateIDMixin",
          "stateIDs": ["Attack_AS"],
          "modifierName": "Animal_Tortoise_01_OutOfBattle",
          "DGFCLAIDIFI": ""
        },
        {
          "$type": "AttachToStateIDMixin",
          "stateIDs": ["Defend_Loop"],
          "modifierName": "Animal_Tortoise_01_InDefendAnim",
          "DGFCLAIDIFI": ""
        },
        {
          "$type": "AttachToStateIDMixin",
          "stateIDs": ["Defend_BS", "Defend_Loop", "Defend_AS"],
          "modifierName": "Animal_Tortoise_01_CanShake",
          "DGFCLAIDIFI": ""
        }
      ],
      "modifiers": {
        "Animal_Tortoise_01_OutOfBattle": {
          "modifierName": "",
          "elementDurability": 100.0,
          "onRemoved": [
            {
              "$type": "SetAnimatorBool",
              "boolID": "InAttack"
            },
            {
              "$type": "RemoveModifier",
              "modifierName": "Animal_Tortoise_DefendDuration"
            },
            {
              "$type": "SetAnimatorBool",
              "boolID": "InDefend"
            }
          ]
        },
        "Animal_Tortoise_01_InDefendAnim": {
          "modifierName": "",
          "elementDurability": 100.0,
          "onAdded": [
            {
              "$type": "SetAnimatorBool",
              "boolID": "InDefendAnim",
              "value": true
            }
          ],
          "onRemoved": [
            {
              "$type": "SetAnimatorBool",
              "boolID": "InDefendAnim"
            }
          ]
        },
        "Animal_Tortoise_01_CanShake": {
          "modifierName": "",
          "elementDurability": 100.0,
          "onAdded": [
            {
              "$type": "SetAnimatorBool",
              "boolID": "CanShake",
              "value": true
            }
          ],
          "onRemoved": [
            {
              "$type": "SetAnimatorBool",
              "boolID": "CanShake"
            }
          ]
        },
        "Animal_Tortoise_01_Initial": {
          "modifierName": "",
          "elementDurability": 100.0,
          "state": "LockHP",
          "onAdded": [
            {
              "$type": "HBNEMPLJCMB",
              "canBeHandledOnRecover": true,
              "hide": true
            },
            {
              "$type": "AttachAbilityStateResistance",
              "resistanceListID": 11001
            }
          ]
        },
        "Animal_Tortoise_01_BeHitHandler": {
          "modifierName": "",
          "elementDurability": 100.0,
          "modifierMixins": [
            {
              "$type": "AttachModifierToSelfGlobalValueMixin",
              "globalValueKey": "_BE_HIT_TIMES",
              "gvInTalk": 0.0,
              "valueSteps": [-0.5, 4.5, 11.0],
              "modifierNameSteps": ["Peace", "Defend"]
            },
            {
              "$type": "AttachModifierToSelfGlobalValueMixin",
              "globalValueKey": "_DEFEND_BE_HIT_TIMES",
              "gvInTalk": 0.0,
              "valueSteps": [-0.5, 5.5, 11.0],
              "modifierNameSteps": ["InDefend", "Attack"]
            }
          ],
          "onAdded": [
            {
              "$type": "SetGlobalValue",
              "value": 0.0,
              "key": "_BE_HIT_TIMES",
              "maxValue": 0.0,
              "minValue": 0.0
            },
            {
              "$type": "SetGlobalValue",
              "value": 0.0,
              "key": "_DEFEND_BE_HIT_TIMES",
              "maxValue": 0.0,
              "minValue": 0.0
            }
          ],
          "onBeingHit": [
            {
              "$type": "Predicated",
              "targetPredicates": [
                {
                  "$type": "ByAny",
                  "predicates": [
                    {
                      "$type": "OHKJOADLOBB",
                      "hitBoxNames": ["HitBoxHead"]
                    },
                    {
                      "$type": "ByHitEnBreak",
                      "logic": "GreaterOrEqual",
                      "enBreak": 100.0
                    }
                  ]
                }
              ],
              "successActions": [
                {
                  "$type": "SetAnimatorTrigger",
                  "triggerID": "RealShakeTrigger",
                  "mpTriggerOnRemote": true
                },
                {
                  "$type": "AddGlobalValue",
                  "predicates": [
                    {
                      "$type": "ByNot",
                      "predicates": [
                        {
                          "$type": "BHFFBBOLCCP",
                          "modifierName": "Animal_Tortoise_01_OutOfBattle"
                        }
                      ]
                    }
                  ],
                  "value": 1.0,
                  "key": "_BE_HIT_TIMES",
                  "useLimitRange": true,
                  "maxValue": 10.0,
                  "minValue": 0.0
                },
                {
                  "$type": "AddGlobalValue",
                  "predicates": [
                    {
                      "$type": "ByNot",
                      "predicates": [
                        {
                          "$type": "BHFFBBOLCCP",
                          "modifierName": "Animal_Tortoise_01_OutOfBattle"
                        }
                      ]
                    }
                  ],
                  "value": 1.0,
                  "key": "_DEFEND_BE_HIT_TIMES",
                  "useLimitRange": true,
                  "maxValue": 10.0,
                  "minValue": 0.0
                }
              ]
            }
          ]
        },
        "Peace": {
          "modifierName": "",
          "elementDurability": 100.0,
          "onAdded": [
            {
              "$type": "IDNGFEEBPAM",
              "boolID": "InDefend"
            },
            {
              "$type": "SetAnimatorBool",
              "boolID": "InDefend"
            }
          ]
        },
        "Defend": {
          "modifierName": "",
          "elementDurability": 100.0,
          "onAdded": [
            {
              "$type": "SetAnimatorTrigger",
              "triggerID": "GoDefend"
            },
            {
              "$type": "IDNGFEEBPAM",
              "boolID": "InDefend",
              "value": true
            },
            {
              "$type": "SetAnimatorBool",
              "boolID": "InDefend",
              "value": true
            },
            {
              "$type": "ApplyModifier",
              "modifierName": "Animal_Tortoise_DefendDuration"
            },
            {
              "$type": "SetGlobalValue",
              "value": 0.0,
              "key": "_DEFEND_BE_HIT_TIMES",
              "maxValue": 0.0,
              "minValue": 0.0
            }
          ],
          "onBeingHit": [
            {
              "$type": "ApplyModifier",
              "modifierName": "Animal_Tortoise_DefendDuration"
            }
          ]
        },
        "Animal_Tortoise_DefendDuration": {
          "modifierName": "",
          "duration": 8.0,
          "elementDurability": 100.0,
          "onRemoved": [
            {
              "$type": "SetGlobalValue",
              "value": 0.0,
              "key": "_BE_HIT_TIMES",
              "maxValue": 0.0,
              "minValue": 0.0
            },
            {
              "$type": "SetGlobalValue",
              "value": 0.0,
              "key": "_DEFEND_BE_HIT_TIMES",
              "maxValue": 0.0,
              "minValue": 0.0
            }
          ]
        },
        "InDefend": {
          "modifierName": "",
          "elementDurability": 100.0,
          "onAdded": [
            {
              "$type": "SetAnimatorBool",
              "boolID": "InAttack"
            }
          ]
        },
        "Attack": {
          "modifierName": "",
          "elementDurability": 100.0,
          "onAdded": [
            {
              "$type": "SetAnimatorTrigger",
              "triggerID": "GoAttack"
            },
            {
              "$type": "SetAnimatorBool",
              "boolID": "InAttack",
              "value": true
            },
            {
              "$type": "ApplyModifier",
              "modifierName": "Animal_Tortoise_AttackDuration"
            }
          ],
          "onBeingHit": [
            {
              "$type": "ApplyModifier",
              "modifierName": "Animal_Tortoise_AttackDuration"
            }
          ]
        },
        "Animal_Tortoise_AttackDuration": {
          "modifierName": "",
          "duration": 8.0,
          "elementDurability": 100.0,
          "onRemoved": [
            {
              "$type": "SetGlobalValue",
              "value": 0.0,
              "key": "_DEFEND_BE_HIT_TIMES",
              "maxValue": 0.0,
              "minValue": 0.0
            }
          ]
        }
      },
      "onAdded": [
        {
          "$type": "AOOCGNCCAJB",
          "isAdd": true,
          "tag": "IS_GIANT_TORTOISE"
        },
        {
          "$type": "ApplyModifier",
          "modifierName": "Animal_Tortoise_01_Initial"
        },
        {
          "$type": "ApplyModifier",
          "modifierName": "Animal_Tortoise_01_BeHitHandler"
        }
      ]
    }
  },
  {
    "Default": {
      "$type": "ConfigAbility",
      "abilityName": "Animal_Tortoise_01_Initial",
      "abilityMixins": [
        {
          "$type": "LEOGLBFIELL",
          "poseIDs": [0, 1],
          "modifierName": "Animal_Tortoise_01_BeforeBattle"
        },
        {
          "$type": "LEOGLBFIELL",
          "poseIDs": [901],
          "modifierName": "Animal_Tortoise_01_OutOfBattle"
        },
        {
          "$type": "AttachToStateIDMixin",
          "stateIDs": ["Attack_AS"],
          "modifierName": "Animal_Tortoise_01_AttackEffAS",
          "DGFCLAIDIFI": ""
        },
        {
          "$type": "AttachToStateIDMixin",
          "stateIDs": ["Defend_Loop", "Standby_Defend_Loop"],
          "modifierName": "Animal_Tortoise_01_InDefendAnim",
          "DGFCLAIDIFI": ""
        },
        {
          "$type": "AttachToStateIDMixin",
          "stateIDs": ["Defend_BS", "Defend_Loop", "Defend_AS"],
          "modifierName": "Animal_Tortoise_01_CanShake",
          "DGFCLAIDIFI": ""
        }
      ],
      "modifiers": {
        "Animal_Tortoise_01_OutOfBattle": {
          "modifierName": "",
          "elementDurability": 100.0,
          "onAdded": [
            {
              "$type": "SetGlobalValue",
              "value": 0.0,
              "key": "_AVATAR_NUMS_NEAR_TORTOISE",
              "maxValue": 0.0,
              "minValue": 0.0
            },
            {
              "$type": "SetAnimatorBool",
              "boolID": "InAttack"
            },
            {
              "$type": "RemoveModifier",
              "modifierName": "Animal_Tortoise_DefendDuration"
            },
            {
              "$type": "SetAnimatorBool",
              "boolID": "InDefend"
            },
            {
              "$type": "SetAnimatorBool",
              "boolID": "InStandbyDefend"
            }
          ]
        },
        "Animal_Tortoise_01_InDefendAnim": {
          "modifierName": "",
          "elementDurability": 100.0,
          "onAdded": [
            {
              "$type": "SetAnimatorBool",
              "boolID": "InDefendAnim",
              "value": true
            }
          ],
          "onRemoved": [
            {
              "$type": "SetAnimatorBool",
              "boolID": "InDefendAnim"
            }
          ]
        },
        "Animal_Tortoise_01_CanShake": {
          "modifierName": "",
          "elementDurability": 100.0,
          "onAdded": [
            {
              "$type": "SetAnimatorBool",
              "boolID": "CanShake",
              "value": true
            }
          ],
          "onRemoved": [
            {
              "$type": "SetAnimatorBool",
              "boolID": "CanShake"
            }
          ]
        },
        "Animal_Tortoise_01_AttackEffAS": {
          "modifierName": "",
          "elementDurability": 100.0,
          "onAdded": [
            {
              "$type": "FireEffect",
              "rotationDampTime": "Eff_Animal_Tortoise_Attack_AS",
              "PPPDJGDDOGD": 1.0,
              "AJDILHJFNKE": -1.0
            }
          ]
        },
        "Animal_Tortoise_01_BeforeBattle": {
          "modifierName": "",
          "elementDurability": 100.0,
          "modifierMixins": [
            {
              "$type": "FieldEntityCountChangeMixin",
              "campTargetType": "AllExceptSelf",
              "targetPredicates": [
                {
                  "$type": "ByEntityTypes",
                  "entityTypes": ["Avatar", "Vehicle"]
                }
              ],
              "simpleCountGlobaValueKey": "_AVATAR_NUMS_NEAR_TORTOISE",
              "simpleCountUseLimitRange": true,
              "simpleCountMaxValue": 10.0,
              "simpleCountMinValue": 0.0
            },
            {
              "$type": "AttachModifierToSelfGlobalValueMixin",
              "globalValueKey": "_AVATAR_NUMS_NEAR_TORTOISE",
              "gvInTalk": 0.0,
              "valueSteps": [-0.5, 0.5, 11.0],
              "modifierNameSteps": ["No_AvatarNear", "AvatarNear"]
            }
          ],
          "onAdded": [
            {
              "$type": "SetGlobalValue",
              "value": 0.0,
              "key": "_AVATAR_NUMS_NEAR_TORTOISE",
              "maxValue": 0.0,
              "minValue": 0.0
            },
            {
              "$type": "SetAnimatorBool",
              "boolID": "InAttack"
            },
            {
              "$type": "RemoveModifier",
              "modifierName": "Animal_Tortoise_DefendDuration"
            },
            {
              "$type": "SetAnimatorBool",
              "boolID": "InDefend"
            }
          ]
        },
        "No_AvatarNear": {
          "modifierName": "",
          "elementDurability": 100.0,
          "onAdded": [
            {
              "$type": "SetAnimatorBool",
              "boolID": "InStandbyDefend"
            }
          ]
        },
        "AvatarNear": {
          "modifierName": "",
          "elementDurability": 100.0,
          "onAdded": [
            {
              "$type": "SetAnimatorBool",
              "boolID": "InStandbyDefend",
              "value": true
            }
          ]
        },
        "Animal_Tortoise_01_Initial": {
          "modifierName": "",
          "elementDurability": 100.0,
          "state": "LockHP",
          "onAdded": [
            {
              "$type": "HBNEMPLJCMB",
              "canBeHandledOnRecover": true,
              "hide": true
            },
            {
              "$type": "AttachAbilityStateResistance",
              "resistanceListID": 11001
            }
          ]
        },
        "Animal_Tortoise_01_BeHitHandler": {
          "modifierName": "",
          "elementDurability": 100.0,
          "modifierMixins": [
            {
              "$type": "AttachModifierToSelfGlobalValueMixin",
              "globalValueKey": "_BE_HIT_TIMES",
              "gvInTalk": 0.0,
              "valueSteps": [-0.5, 0.5, 11.0],
              "modifierNameSteps": ["Peace", "Defend"]
            },
            {
              "$type": "AttachModifierToSelfGlobalValueMixin",
              "globalValueKey": "_DEFEND_BE_HIT_TIMES",
              "gvInTalk": 0.0,
              "valueSteps": [-0.5, 5.0, 11.0],
              "modifierNameSteps": ["InDefend", "Attack"]
            }
          ],
          "onAdded": [
            {
              "$type": "SetGlobalValue",
              "value": 0.0,
              "key": "_BE_HIT_TIMES",
              "maxValue": 0.0,
              "minValue": 0.0
            },
            {
              "$type": "SetGlobalValue",
              "value": 0.0,
              "key": "_DEFEND_BE_HIT_TIMES",
              "maxValue": 0.0,
              "minValue": 0.0
            }
          ],
          "onBeingHit": [
            {
              "$type": "AddGlobalValue",
              "value": 1.0,
              "key": "_BE_HIT_TIMES",
              "useLimitRange": true,
              "maxValue": 10.0,
              "minValue": 0.0
            },
            {
              "$type": "AddGlobalValue",
              "value": 1.0,
              "key": "_DEFEND_BE_HIT_TIMES",
              "useLimitRange": true,
              "maxValue": 10.0,
              "minValue": 0.0
            }
          ]
        },
        "Peace": {
          "modifierName": "",
          "elementDurability": 100.0,
          "onAdded": [
            {
              "$type": "IDNGFEEBPAM",
              "boolID": "InDefend"
            },
            {
              "$type": "SetAnimatorBool",
              "boolID": "InDefend"
            }
          ]
        },
        "Defend": {
          "modifierName": "",
          "elementDurability": 100.0,
          "onAdded": [
            {
              "$type": "SetAnimatorTrigger",
              "triggerID": "GoDefend"
            },
            {
              "$type": "IDNGFEEBPAM",
              "boolID": "InDefend",
              "value": true
            },
            {
              "$type": "SetAnimatorBool",
              "boolID": "InDefend",
              "value": true
            },
            {
              "$type": "ApplyModifier",
              "modifierName": "Animal_Tortoise_DefendDuration"
            }
          ]
        },
        "Animal_Tortoise_DefendDuration": {
          "modifierName": "",
          "duration": 20.0,
          "elementDurability": 100.0,
          "onAdded": [
            {
              "$type": "SetGlobalValue",
              "value": 0.0,
              "key": "_DEFEND_BE_HIT_TIMES",
              "maxValue": 0.0,
              "minValue": 0.0
            }
          ],
          "onRemoved": [
            {
              "$type": "SetGlobalValue",
              "value": 0.0,
              "key": "_BE_HIT_TIMES",
              "maxValue": 0.0,
              "minValue": 0.0
            },
            {
              "$type": "SetGlobalValue",
              "value": 0.0,
              "key": "_DEFEND_BE_HIT_TIMES",
              "maxValue": 0.0,
              "minValue": 0.0
            }
          ]
        },
        "InDefend": {
          "modifierName": "",
          "elementDurability": 100.0,
          "onAdded": [
            {
              "$type": "SetAnimatorBool",
              "boolID": "InAttack"
            }
          ]
        },
        "Attack": {
          "modifierName": "",
          "elementDurability": 100.0,
          "onAdded": [
            {
              "$type": "SetAnimatorTrigger",
              "triggerID": "GoAttack"
            },
            {
              "$type": "SetAnimatorBool",
              "boolID": "InAttack",
              "value": true
            },
            {
              "$type": "ApplyModifier",
              "modifierName": "Animal_Tortoise_AttackDuration"
            }
          ],
          "onBeingHit": [
            {
              "$type": "ApplyModifier",
              "modifierName": "Animal_Tortoise_AttackDuration"
            }
          ]
        },
        "Animal_Tortoise_AttackDuration": {
          "modifierName": "",
          "duration": 4.0,
          "elementDurability": 100.0,
          "onRemoved": [
            {
              "$type": "SetGlobalValue",
              "value": 0.0,
              "key": "_DEFEND_BE_HIT_TIMES",
              "maxValue": 0.0,
              "minValue": 0.0
            }
          ]
        },
        "Animal_Tortoise_01_Attack": {
          "modifierName": "",
          "elementDurability": 100.0,
          "thinkInterval": 0.20000000298023224,
          "onThinkInterval": [
            {
              "$type": "TriggerAttackEvent",
              "attackEvent": {
                "attackPattern": {
                  "$type": "ConfigAttackCircle",
                  "triggerType": "TriggerNoRepeat",
                  "born": {
                    "$type": "ConfigBornBySelf",
                    "useRotation": true
                  },
                  "height": 2.0,
                  "radius": 1.7999999523162842
                },
                "attackInfo": {
                  "attackTag": "",
                  "attenuationTag": "Tortoise_Attack",
                  "attenuationGroup": "Tortoise_Attack",
                  "attackProperty": {
                    "actorGrassSubHurtDelta": 1.0,
                    "actorWindSubHurtDelta": 0.0,
                    "elementDurability": 100.0,
                    "strikeType": "Blunt",
                    "enBreak": 120.0,
                    "GLKMCMDJBIK": 0.0
                  },
                  "hitPattern": {
                    "onHitEffectName": "default",
                    "hitImpulseY": "",
                    "hitImpulseType": "LV4",
                    "hitHaltTimeScale": 0.05000000074505806
                  }
                }
              },
              "targetType": "Enemy"
            }
          ]
        }
      },
      "onAdded": [
        {
          "$type": "ApplyModifier",
          "modifierName": "Animal_Tortoise_01_Initial"
        },
        {
          "$type": "ApplyModifier",
          "modifierName": "Animal_Tortoise_01_BeHitHandler"
        }
      ]
    }
  },
  {
    "Default": {
      "$type": "ConfigAbility",
      "abilityName": "Animal_Tortoise_Electric_CombatStage",
      "abilityMixins": [
        {
          "$type": "LEOGLBFIELL",
          "poseIDs": [101, 201, 301],
          "modifierName": "Animal_Tortoise_Electric_AIInCombat"
        },
        {
          "$type": "AttachToStateIDMixin",
          "stateIDs": ["Weak_BS", "Weak_Loop", "Weak_AS"],
          "modifierName": "Animal_Tortoise_Electric_WeakState",
          "DGFCLAIDIFI": ""
        },
        {
          "$type": "AttachToStateIDMixin",
          "stateIDs": ["Weak_AS"],
          "modifierName": "Animal_Tortoise_Electric_ForceSetCombatStage",
          "DGFCLAIDIFI": ""
        },
        {
          "$type": "JCLLHEBBFON",
          "watcherId": 82225,
          "predicates": [
            {
              "$type": "ByTargetGlobalValue",
              "target": "Self",
              "key": "_WATCHER_82225_FLAG_02_",
              "value": 1.0
            },
            {
              "$type": "ByTargetGlobalValue",
              "target": "Self",
              "key": "_WATCHER_82225_FLAG_01_",
              "value": 0.0,
              "compareType": "NoneOrEqual"
            }
          ],
          "predicatesForeach": [
            {
              "$type": "EBOHLEJJMIG",
              "IKILOJFBKMA": 82224
            }
          ]
        },
        {
          "$type": "JCLLHEBBFON",
          "watcherId": 82224,
          "predicates": [
            {
              "$type": "ByTargetGlobalValue",
              "target": "Self",
              "key": "_WATCHER_82224_FLAG_01_",
              "value": 0.0,
              "compareType": "NoneOrEqual"
            }
          ],
          "predicatesForeach": [
            {
              "$type": "EBOHLEJJMIG",
              "IKILOJFBKMA": 82223
            }
          ]
        },
        {
          "$type": "JCLLHEBBFON",
          "watcherId": 82223
        }
      ],
      "modifiers": {
        "Animal_Tortoise_Electric_AIInCombat": {
          "modifierName": "",
          "elementDurability": 100.0,
          "modifierMixins": [
            {
              "$type": "AttachModifierToSelfGlobalValueMixin",
              "globalValueKey": "_ANIMAL_TORTOISE_ELECTRIC_COMBATSTAGE_",
              "gvInTalk": 0.0,
              "valueSteps": [-0.5, 0.5, 1.5, 2.5],
              "modifierNameSteps": [
                "UNIQUE_Animal_Tortoise_Electric_Stage1",
                "UNIQUE_Animal_Tortoise_Electric_Stage2",
                "UNIQUE_Animal_Tortoise_Electric_Weak"
              ]
            }
          ],
          "onAdded": [
            {
              "$type": "SetGlobalValue",
              "value": 1.0,
              "key": "_AI_INCOMBAT_",
              "maxValue": 0.0,
              "minValue": 0.0
            },
            {
              "$type": "AttachAbilityStateResistance",
              "resistanceListID": 14002,
              "durationRatio": 0.8999999761581421
            }
          ],
          "onRemoved": [
            {
              "$type": "SetGlobalValue",
              "value": 0.0,
              "key": "_AI_INCOMBAT_",
              "maxValue": 0.0,
              "minValue": 0.0
            },
            {
              "$type": "SetGlobalValue",
              "value": 0.0,
              "key": "_ANIMAL_TORTOISE_ELECTRIC_COMBATSTAGE_",
              "maxValue": 0.0,
              "minValue": 0.0
            },
            {
              "$type": "IDNGFEEBPAM",
              "boolID": "FuryState"
            },
            {
              "$type": "FNPMFLOOCDD",
              "shieldHP": true,
              "value": 0.0,
              "key": "_WATCHER_82224_FLAG_01_",
              "maxValue": 0.0,
              "minValue": 0.0
            },
            {
              "$type": "FNPMFLOOCDD",
              "shieldHP": true,
              "value": 0.0,
              "key": "_WATCHER_82225_FLAG_01_",
              "maxValue": 0.0,
              "minValue": 0.0
            },
            {
              "$type": "FNPMFLOOCDD",
              "shieldHP": true,
              "value": 0.0,
              "key": "_WATCHER_82225_FLAG_02_",
              "maxValue": 0.0,
              "minValue": 0.0
            }
          ]
        },
        "UNIQUE_Animal_Tortoise_Electric_Stage1": {
          "modifierName": "",
          "forceTriggerWhenChangeAuthority": true,
          "elementDurability": 100.0,
          "onAdded": [
            {
              "$type": "IDNGFEEBPAM",
              "boolID": "FuryState"
            },
            {
              "$type": "OHPMBBJIJFG",
              "value": 2.0
            },
            {
              "$type": "SetGlobalValue",
              "value": 0.0,
              "key": "_ANIMAL_TORTOISE_ELECTRIC_FURYSTATE_",
              "maxValue": 0.0,
              "minValue": 0.0
            },
            {
              "$type": "ApplyModifier",
              "modifierName": "UNIQUE_Animal_Tortoise_Electric_ChargeBar"
            }
          ],
          "onRemoved": [
            {
              "$type": "RemoveUniqueModifier",
              "modifierName": "UNIQUE_Animal_Tortoise_Electric_ChargeBar"
            }
          ]
        },
        "UNIQUE_Animal_Tortoise_Electric_Stage2": {
          "modifierName": "",
          "forceTriggerWhenChangeAuthority": true,
          "elementDurability": 100.0,
          "onAdded": [
            {
              "$type": "IDNGFEEBPAM",
              "boolID": "FuryState",
              "value": true
            },
            {
              "$type": "OHPMBBJIJFG",
              "value": 1.5
            },
            {
              "$type": "IPMMJGMONCI",
              "skillIDs": [401]
            }
          ],
          "onRemoved": [
            {
              "$type": "RemoveUniqueModifier",
              "modifierName": "UNIQUE_Animal_Tortoise_Electric_ElementShield"
            },
            {
              "$type": "SetGlobalValue",
              "value": 0.0,
              "key": "_ANIMAL_TORTOISE_ELECTRIC_FURYSTATE_",
              "maxValue": 0.0,
              "minValue": 0.0
            }
          ]
        },
        "UNIQUE_Animal_Tortoise_Electric_Weak": {
          "modifierName": "",
          "forceTriggerWhenChangeAuthority": true,
          "elementDurability": 100.0,
          "onAdded": [
            {
              "$type": "SetAnimatorTrigger",
              "triggerID": "WeakStart",
              "mpTriggerOnRemote": true
            },
            {
              "$type": "SetGlobalValue",
              "value": 0.0,
              "key": "_CHARGEBAR_VALUE",
              "maxValue": 0.0,
              "minValue": 0.0
            }
          ]
        },
        "Animal_Tortoise_Electric_WeakState": {
          "modifierName": "",
          "elementDurability": 100.0,
          "modifierMixins": [
            {
              "$type": "CIBMLJJLANN",
              "muteAll": true
            },
            {
              "$type": "IHIOPCLMJGE"
            }
          ],
          "onRemoved": [
            {
              "$type": "SetGlobalValue",
              "value": 0.0,
              "key": "_ANIMAL_TORTOISE_ELECTRIC_COMBATSTAGE_",
              "maxValue": 0.0,
              "minValue": 0.0
            }
          ]
        },
        "UNIQUE_Animal_Tortoise_Electric_ChargeBar": {
          "modifierName": "",
          "forceTriggerWhenChangeAuthority": true,
          "elementDurability": 100.0,
          "modifierMixins": [
            {
              "$type": "HBPDEMIJCDL",
              "chargeBarElementType": "Electric",
              "chargeBarIconID": 2,
              "initialValue": 0.0,
              "maxValue": 100.0
            },
            {
              "$type": "AttachModifierToSelfGlobalValueMixin",
              "globalValueKey": "_CHARGEBAR_VALUE",
              "gvInTalk": 0.0,
              "valueSteps": [99.5, 100.5],
              "modifierNameSteps": [
                "UNIQUE_Animal_Tortoise_Electric_ChargeBarFull"
              ]
            }
          ],
          "onBeingHit": [
            {
              "$type": "PMJJNECJCLE",
              "predicates": [
                {
                  "$type": "ByHitDamage",
                  "damage": 0.0,
                  "useOriginDamage": true
                },
                {
                  "$type": "ByNot",
                  "predicates": [
                    {
                      "$type": "ByAttackTags",
                      "attackTags": ["BurningDamage"]
                    }
                  ]
                }
              ],
              "value": 3.0,
              "maxValue": 0.0,
              "minValue": 0.0
            }
          ]
        },
        "UNIQUE_Animal_Tortoise_Electric_ChargeBarFull": {
          "modifierName": "",
          "forceTriggerWhenChangeAuthority": true,
          "elementDurability": 100.0,
          "onAdded": [
            {
              "$type": "SetGlobalValue",
              "value": 1.0,
              "key": "_ANIMAL_TORTOISE_ELECTRIC_COMBATSTAGE_",
              "maxValue": 0.0,
              "minValue": 0.0
            }
          ]
        },
        "Animal_Tortoise_Electric_ForceSetCombatStage": {
          "modifierName": "",
          "elementDurability": 100.0,
          "onAdded": [
            {
              "$type": "FNPMFLOOCDD",
              "value": 0.0,
              "key": "_ANIMAL_TORTOISE_ELECTRIC_COMBATSTAGE_",
              "maxValue": 0.0,
              "minValue": 0.0
            }
          ]
        }
      },
      "onAdded": [
        {
          "$type": "SetGlobalPos",
          "key": "_ANIMAL_TORTOISE_ELECTRIC_BORNPOS_",
          "born": {
            "$type": "ConfigBornBySelf",
            "onGround": true,
            "direction": {
              "$type": "ConfigDirectionByDefault",
              "angleOffset": {
                "x": 0.0,
                "y": 0.0,
                "z": 0.0
              }
            },
            "useRotation": true
          },
          "setTarget": false
        },
        {
          "$type": "SetGlobalValue",
          "value": 0.0,
          "key": "_CHARGEBAR_VALUE",
          "maxValue": 0.0,
          "minValue": 0.0
        },
        {
          "$type": "SetGlobalValue",
          "value": 0.0,
          "key": "_AI_INCOMBAT_",
          "maxValue": 0.0,
          "minValue": 0.0
        }
      ]
    }
  },
  {
    "Default": {
      "$type": "ConfigAbility",
      "abilityName": "Animal_Tortoise_Electric_JumpAtk",
      "modifiers": {
        "Animal_Tortoise_Electric_JumpAtkDamage": {
          "modifierName": "",
          "duration": 0.699999988079071,
          "elementDurability": 100.0,
          "onAdded": [
            {
              "$type": "FireEffect",
              "predicates": [
                {
                  "$type": "ByTargetGlobalValue",
                  "target": "Self",
                  "key": "_ANIMAL_TORTOISE_ELECTRIC_FURYSTATE_",
                  "value": 0.0
                }
              ],
              "rotationDampTime": "Eff_Ani_Animal_Tortoise_Electric_JumpAtk_Normal",
              "PPPDJGDDOGD": 1.0,
              "AJDILHJFNKE": -1.0
            },
            {
              "$type": "FireEffect",
              "predicates": [
                {
                  "$type": "ByTargetGlobalValue",
                  "target": "Self",
                  "key": "_ANIMAL_TORTOISE_ELECTRIC_FURYSTATE_",
                  "value": 1.0
                }
              ],
              "rotationDampTime": "Eff_Ani_Animal_Tortoise_Electric_JumpAtk_Strong",
              "PPPDJGDDOGD": 1.0,
              "AJDILHJFNKE": -1.0
            }
          ],
          "onRemoved": [
            {
              "$type": "TriggerAttackEvent",
              "predicates": [
                {
                  "$type": "ByTargetGlobalValue",
                  "target": "Self",
                  "key": "_ANIMAL_TORTOISE_ELECTRIC_FURYSTATE_",
                  "value": 0.0
                }
              ],
              "attackEvent": {
                "attackPattern": {
                  "$type": "ConfigAttackCircle",
                  "triggerType": "TriggerNoRepeat",
                  "born": {
                    "$type": "ConfigBornBySelf",
                    "offset": {
                      "x": 0.0,
                      "y": -1.0,
                      "z": 0.0
                    },
                    "useRotation": true
                  },
                  "height": 3.0,
                  "radius": 5.0
                },
                "attackInfo": {
                  "attackTag": "",
                  "attenuationTag": "",
                  "attenuationGroup": "default",
                  "attackProperty": {
                    "actorGrassSubHurtDelta": 0.5,
                    "actorWindSubHurtDelta": 0.0,
                    "elementType": "Electric",
                    "elementDurability": 25.0,
                    "strikeType": "Blunt",
                    "enBreak": 200.0,
                    "GLKMCMDJBIK": 0.0
                  },
                  "hitPattern": {
                    "onHitEffectName": "default",
                    "hitImpulseY": "",
                    "hitImpulseType": "LV3",
                    "hitHaltTimeScale": 0.05000000074505806
                  },
                  "forceCameraShake": true,
                  "cameraShake": {
                    "shakeType": "CustomVector",
                    "shakeRange": 0.5,
                    "shakeTime": 0.20000000298023224,
                    "shakeDistance": 30.0,
                    "shakeDir": {
                      "y": -1.0
                    }
                  }
                }
              },
              "targetType": "Enemy"
            },
            {
              "$type": "TriggerAttackEvent",
              "predicates": [
                {
                  "$type": "ByTargetGlobalValue",
                  "target": "Self",
                  "key": "_ANIMAL_TORTOISE_ELECTRIC_FURYSTATE_",
                  "value": 1.0
                }
              ],
              "attackEvent": {
                "attackPattern": {
                  "$type": "ConfigAttackCircle",
                  "triggerType": "TriggerNoRepeat",
                  "born": {
                    "$type": "ConfigBornBySelf",
                    "offset": {
                      "x": 0.0,
                      "y": -1.0,
                      "z": 0.0
                    },
                    "useRotation": true
                  },
                  "height": 3.0,
                  "radius": 7.5
                },
                "attackInfo": {
                  "attackTag": "",
                  "attenuationTag": "",
                  "attenuationGroup": "default",
                  "attackProperty": {
                    "actorGrassSubHurtDelta": 0.699999988079071,
                    "actorWindSubHurtDelta": 0.0,
                    "elementType": "Electric",
                    "elementDurability": 25.0,
                    "strikeType": "Blunt",
                    "enBreak": 200.0,
                    "GLKMCMDJBIK": 0.0
                  },
                  "hitPattern": {
                    "onHitEffectName": "default",
                    "hitImpulseY": "",
                    "hitImpulseType": "LV3",
                    "hitHaltTimeScale": 0.05000000074505806
                  },
                  "forceCameraShake": true,
                  "cameraShake": {
                    "shakeType": "CustomVector",
                    "shakeRange": 0.5,
                    "shakeTime": 0.20000000298023224,
                    "shakeDistance": 30.0,
                    "shakeDir": {
                      "y": -1.0
                    }
                  }
                }
              },
              "targetType": "Enemy"
            }
          ]
        }
      },
      "onAbilityStart": [
        {
          "$type": "ApplyModifier",
          "modifierName": "Animal_Tortoise_Electric_JumpAtkDamage"
        }
      ]
    }
  },
  {
    "Default": {
      "$type": "ConfigAbility",
      "abilityName": "Animal_Tortoise_Electric_FireBullet",
      "abilityMixins": [
        {
          "$type": "AttachToStateIDMixin",
          "stateIDs": ["FireBullet"],
          "modifierName": "Animal_Tortoise_Electric_FireBulletState",
          "DGFCLAIDIFI": ""
        }
      ],
      "modifiers": {
        "Animal_Tortoise_Electric_FireBulletState": {
          "modifierName": "",
          "elementDurability": 100.0,
          "onAdded": [
            {
              "$type": "FireEffect",
              "rotationDampTime": "Eff_Ani_Animal_Tortoise_Electric_FireBulletBS",
              "PPPDJGDDOGD": 1.0,
              "AJDILHJFNKE": -1.0
            }
          ]
        }
      },
      "onAbilityStart": [
        {
          "$type": "TriggerBullet",
          "bulletID": 42802131,
          "born": {
            "$type": "ConfigBornByAttachPoint",
            "direction": {
              "$type": "ConfigDirectionByAttackTarget",
              "maxAngle": 20.0,
              "startPoint": ""
            },
            "useRotation": true,
            "attachPointName": "FireBulletPos"
          },
          "lifeByOwnerV2": true
        }
      ]
    }
  },
  {
    "Default": {
      "$type": "ConfigAbility",
      "abilityName": "Tortoise_Electric_ElectricBall_Hit",
      "modifiers": {
        "Tortoise_Electric_ElectricBall_Effect": {
          "modifierName": "",
          "duration": 5.0,
          "elementDurability": 100.0,
          "onAdded": [
            {
              "$type": "AttachEffect",
              "rotationDampTime": "Eff_Ani_Animal_Tortoise_Electric_FireBullet_ElectricBallLoop",
              "PPPDJGDDOGD": 1.0,
              "AJDILHJFNKE": -1.0
            }
          ],
          "onRemoved": [
            {
              "$type": "FireEffect",
              "rotationDampTime": "Eff_Ani_Animal_Tortoise_Electric_FireBullet_ElectricBallAS",
              "PPPDJGDDOGD": 1.0,
              "AJDILHJFNKE": -1.0
            },
            {
              "$type": "KillSelf",
              "configIdArray": [42802131]
            }
          ]
        }
      },
      "onAdded": [
        {
          "$type": "ApplyModifier",
          "modifierName": "Tortoise_Electric_ElectricBall_Effect"
        }
      ],
      "onAbilityStart": [
        {
          "$type": "TriggerAttackEvent",
          "attackEvent": {
            "attackPattern": {
              "$type": "ConfigAttackSphere",
              "triggerType": "TriggerNoRepeat",
              "born": {
                "$type": "ConfigBornByCollisionPoint"
              },
              "radius": 1.25
            },
            "attackInfo": {
              "attackTag": "",
              "attenuationTag": "",
              "attenuationGroup": "default",
              "attackProperty": {
                "actorGrassSubHurtDelta": 1.0,
                "actorWindSubHurtDelta": 0.0,
                "elementType": "Electric",
                "elementDurability": 25.0,
                "strikeType": "Blunt",
                "enBreak": 100.0,
                "GLKMCMDJBIK": 0.0
              },
              "hitPattern": {
                "onHitEffectName": "default",
                "hitImpulseY": "",
                "hitImpulseType": "LV2",
                "hitHaltTimeScale": 0.05000000074505806
              }
            }
          },
          "targetType": "Enemy"
        }
      ]
    }
  },
  {
    "Default": {
      "$type": "ConfigAbility",
      "abilityName": "Animal_Tortoise_Electric_Fury",
      "abilityMixins": [
        {
          "$type": "AttachToStateIDMixin",
          "stateIDs": ["Fury"],
          "modifierName": "Animal_Tortoise_Electric_FuryState",
          "DGFCLAIDIFI": ""
        }
      ],
      "modifiers": {
        "UNIQUE_Animal_Tortoise_Electric_ElementShield": {
          "stacking": "Unique",
          "modifierName": "",
          "forceTriggerWhenChangeAuthority": true,
          "elementType": "Electric",
          "elementDurability": 400.0,
          "modifierMixins": [
            {
              "$type": "AAPIOACHKCI",
              "elementType": "Electric",
              "showDamageText": "",
              "DLBHHADKGJN": 360.0,
              "maxShieldByHPRatio": 1.0,
              "shieldAngle": 0.0,
              "useMutiPlayerFixData": true
            },
            {
              "$type": "CIBMLJJLANN",
              "excludeForces": ["WindZoneType"]
            }
          ],
          "onAdded": [
            {
              "$type": "AttachEffect",
              "rotationDampTime": "Eff_Ani_Animal_Tortoise_Electric_Fury_ElectricShield",
              "PPPDJGDDOGD": 1.0,
              "AJDILHJFNKE": -1.0
            },
            {
              "$type": "FNPMFLOOCDD",
              "shieldHP": true,
              "value": 1.0,
              "key": "_WATCHER_82224_FLAG_01_",
              "maxValue": 0.0,
              "minValue": 0.0
            },
            {
              "$type": "FNPMFLOOCDD",
              "shieldHP": true,
              "value": 1.0,
              "key": "_WATCHER_82225_FLAG_02_",
              "maxValue": 0.0,
              "minValue": 0.0
            }
          ],
          "onRemoved": [
            {
              "$type": "FireEffect",
              "rotationDampTime": "Eff_Ani_Animal_Tortoise_Electric_Fury_ElectricShield_AS",
              "PPPDJGDDOGD": 1.0,
              "AJDILHJFNKE": -1.0
            },
            {
              "$type": "SetGlobalValue",
              "predicates": [
                {
                  "$type": "ByTargetGlobalValue",
                  "target": "Self",
                  "key": "_AI_INCOMBAT_",
                  "value": 1.0
                }
              ],
              "value": 2.0,
              "key": "_ANIMAL_TORTOISE_ELECTRIC_COMBATSTAGE_",
              "maxValue": 0.0,
              "minValue": 0.0
            }
          ],
          "onBeingHit": [
            {
              "$type": "Predicated",
              "target": "Target",
              "targetPredicates": [
                {
                  "$type": "ByTargetPositionToSelfPosition",
                  "logic": "LesserOrEqual",
                  "compareType": "XYZ",
                  "value": 4.5,
                  "DDALGNLEHOD": ""
                },
                {
                  "$type": "ByHitDamage",
                  "damage": 0.0,
                  "useOriginDamage": true
                },
                {
                  "$type": "ByEntityTypes",
                  "entityTypes": ["Avatar", "Vehicle", "Partner"]
                }
              ],
              "successActions": [
                {
                  "$type": "FireEffect",
                  "rotationDampTime": "Eff_Ani_Animal_Tortoise_Fury_ElectricShield_ElectricWave",
                  "PPPDJGDDOGD": 1.0,
                  "AJDILHJFNKE": -1.0
                },
                {
                  "$type": "ApplyModifier",
                  "target": "Target",
                  "modifierName": "Animal_Tortoise_Electric_ElementShield_ElectricWave"
                }
              ],
              "failActions": [
                {
                  "$type": "Predicated",
                  "target": "TargetOriginOwner",
                  "targetPredicates": [
                    {
                      "$type": "ByEntityTypes",
                      "entityTypes": ["Avatar", "Vehicle", "Partner"]
                    },
                    {
                      "$type": "ByTargetPositionToSelfPosition",
                      "logic": "LesserOrEqual",
                      "compareType": "XYZ",
                      "value": 4.5,
                      "DDALGNLEHOD": ""
                    },
                    {
                      "$type": "ByHitDamage",
                      "damage": 0.0,
                      "useOriginDamage": true
                    }
                  ],
                  "successActions": [
                    {
                      "$type": "FireEffect",
                      "rotationDampTime": "Eff_Ani_Animal_Tortoise_Fury_ElectricShield_ElectricWave",
                      "PPPDJGDDOGD": 1.0,
                      "AJDILHJFNKE": -1.0
                    },
                    {
                      "$type": "ApplyModifier",
                      "target": "Target",
                      "modifierName": "Animal_Tortoise_Electric_ElementShield_ElectricWave"
                    }
                  ]
                }
              ]
            },
            {
              "$type": "Predicated",
              "target": "Target",
              "targetPredicates": [
                {
                  "$type": "ByTargetPositionToSelfPosition",
                  "logic": "LesserOrEqual",
                  "compareType": "XYZ",
                  "value": 12.5,
                  "DDALGNLEHOD": ""
                },
                {
                  "$type": "ByTargetPositionToSelfPosition",
                  "compareType": "XYZ",
                  "value": 4.5,
                  "DDALGNLEHOD": ""
                },
                {
                  "$type": "ByHitDamage",
                  "damage": 0.0,
                  "useOriginDamage": true
                },
                {
                  "$type": "ByEntityTypes",
                  "entityTypes": ["Avatar", "Vehicle", "Partner"]
                }
              ],
              "successActions": [
                {
                  "$type": "ApplyModifier",
                  "target": "Target",
                  "modifierName": "Animal_Tortoise_Electric_ElementShield_Lightning"
                }
              ],
              "failActions": [
                {
                  "$type": "Predicated",
                  "target": "TargetOriginOwner",
                  "targetPredicates": [
                    {
                      "$type": "ByEntityTypes",
                      "entityTypes": ["Avatar", "Vehicle", "Partner"]
                    },
                    {
                      "$type": "ByTargetPositionToSelfPosition",
                      "logic": "LesserOrEqual",
                      "compareType": "XYZ",
                      "value": 12.5,
                      "DDALGNLEHOD": ""
                    },
                    {
                      "$type": "ByTargetPositionToSelfPosition",
                      "compareType": "XYZ",
                      "value": 4.5,
                      "DDALGNLEHOD": ""
                    },
                    {
                      "$type": "ByHitDamage",
                      "damage": 0.0,
                      "useOriginDamage": true
                    }
                  ],
                  "successActions": [
                    {
                      "$type": "ApplyModifier",
                      "target": "Target",
                      "modifierName": "Animal_Tortoise_Electric_ElementShield_Lightning"
                    }
                  ]
                }
              ]
            }
          ],
          "onAttackLanded": [
            {
              "$type": "Predicated",
              "target": "Other",
              "targetPredicates": [
                {
                  "$type": "ByEntityTypes",
                  "entityTypes": ["Avatar"]
                },
                {
                  "$type": "ByAttackTags",
                  "attackTags": ["Animal_Tortoise_Electric_Lightning"]
                }
              ],
              "successActions": [
                {
                  "$type": "ApplyModifier",
                  "modifierName": "Animal_Tortoise_Electric_SetWatcherFlag"
                }
              ]
            }
          ]
        },
        "Animal_Tortoise_Electric_FuryState": {
          "modifierName": "",
          "elementDurability": 100.0,
          "onAdded": [
            {
              "$type": "AttachEffect",
              "rotationDampTime": "Eff_Ani_Animal_Tortoise_Electric_FuryBS",
              "PPPDJGDDOGD": 1.0,
              "AJDILHJFNKE": -1.0
            },
            {
              "$type": "SetGlobalValue",
              "value": 1.0,
              "key": "_ANIMAL_TORTOISE_ELECTRIC_FURYSTATE_",
              "maxValue": 0.0,
              "minValue": 0.0
            },
            {
              "$type": "SetGlobalValue",
              "value": 0.0,
              "key": "_CHARGEBAR_VALUE",
              "maxValue": 0.0,
              "minValue": 0.0
            }
          ]
        },
        "Animal_Tortoise_Electric_ElementShield_ElectricWave": {
          "stacking": "Multiple",
          "modifierName": "",
          "duration": 0.10000000149011612,
          "elementDurability": 100.0,
          "onAdded": [
            {
              "$type": "DamageByAttackValue",
              "born": {
                "$type": "ConfigBornByAttachPoint",
                "offset": {
                  "x": 0.0,
                  "y": 0.0,
                  "z": 0.0
                },
                "useRotation": true,
                "attachPointName": "RootNode",
                "attachPointTargetType": "Self"
              },
              "attackInfo": {
                "attackTag": "Animal_Tortoise_Electric_Lightning",
                "attenuationTag": "Animal_Tortoise_Electric_Lightning",
                "attenuationGroup": "Animal_Tortoise_Electric_Lightning",
                "attackProperty": {
                  "actorGrassSubHurtDelta": 0.25,
                  "actorWindSubHurtDelta": 0.0,
                  "elementType": "Electric",
                  "elementDurability": 25.0,
                  "strikeType": "Blunt",
                  "enBreak": 1.0,
                  "GLKMCMDJBIK": 0.0
                },
                "hitPattern": {
                  "onHitEffectName": "default",
                  "hitImpulseY": "",
                  "hitImpulseType": "LV1",
                  "hitHaltTimeScale": 0.009999999776482582
                }
              }
            }
          ]
        },
        "Animal_Tortoise_Electric_ElementShield_Lightning": {
          "stacking": "Multiple",
          "modifierName": "",
          "duration": 0.10000000149011612,
          "elementDurability": 100.0,
          "onAdded": [
            {
              "$type": "DamageByAttackValue",
              "born": {
                "$type": "ConfigBornByAttachPoint",
                "offset": {
                  "x": 0.0,
                  "y": 0.0,
                  "z": 0.0
                },
                "useRotation": true,
                "attachPointName": "RootNode",
                "attachPointTargetType": "Self"
              },
              "attackInfo": {
                "attackTag": "Animal_Tortoise_Electric_Lightning",
                "attenuationTag": "Animal_Tortoise_Electric_Lightning",
                "attenuationGroup": "Animal_Tortoise_Electric_Lightning",
                "attackProperty": {
                  "actorGrassSubHurtDelta": 0.25,
                  "actorWindSubHurtDelta": 0.0,
                  "elementType": "Electric",
                  "elementDurability": 25.0,
                  "strikeType": "Blunt",
                  "enBreak": 1.0,
                  "GLKMCMDJBIK": 0.0
                },
                "hitPattern": {
                  "onHitEffectName": "default",
                  "hitImpulseY": "",
                  "hitImpulseType": "LV1",
                  "hitHaltTimeScale": 0.009999999776482582
                }
              }
            },
            {
              "$type": "FireEffect",
              "rotationDampTime": "Eff_Ani_Animal_Tortoise_Electric_Fury_ElectricShield_Lightning",
              "born": {
                "$type": "ConfigBornByAttachPoint",
                "offset": {
                  "x": 0.0,
                  "y": 0.0,
                  "z": 0.0
                },
                "useRotation": true,
                "attachPointName": "LightningAttachPos",
                "attachPointTargetType": "Caster"
              },
              "PPPDJGDDOGD": 1.0,
              "AJDILHJFNKE": -1.0,
              "setSelfAsEffectPluginTarget": true
            }
          ]
        },
        "Animal_Tortoise_Electric_SetWatcherFlag": {
          "modifierName": "",
          "duration": 0.10000000149011612,
          "elementDurability": 100.0,
          "onAdded": [
            {
              "$type": "FNPMFLOOCDD",
              "shieldHP": true,
              "value": 1.0,
              "key": "_WATCHER_82225_FLAG_01_",
              "maxValue": 0.0,
              "minValue": 0.0
            }
          ]
        }
      },
      "onAbilityStart": [
        {
          "$type": "ApplyModifier",
          "modifierName": "UNIQUE_Animal_Tortoise_Electric_ElementShield"
        }
      ]
    }
  },
  {
    "Default": {
      "$type": "ConfigAbility",
      "abilityName": "Animal_Tortoise_Electric_RushAtk",
      "abilityMixins": [
        {
          "$type": "AttachToStateIDMixin",
          "stateIDs": ["RushAtk_Loop"],
          "modifierName": "Animal_Tortoise_Electric_RushAtkLoopState",
          "DGFCLAIDIFI": ""
        },
        {
          "$type": "AttachToStateIDMixin",
          "stateIDs": ["RushAtk_Loop", "RushAtk_AS"],
          "modifierName": "Animal_Tortoise_Electric_ForceKillBullet",
          "DGFCLAIDIFI": ""
        },
        {
          "$type": "IILHMBGONGM",
          "steerStateIDs": ["RushAtk_BS", "RushAtk_Loop"],
          "startNormalizedTime": 0.33000001311302185,
          "endNormalizedTime": 7.0,
          "angularSpeed": 90.0,
          "attackTrigger": "",
          "attackDistance": 2.0,
          "DGFCLAIDIFI": ""
        }
      ],
      "modifiers": {
        "Animal_Tortoise_Electric_RushAtkLoopState": {
          "modifierName": "",
          "elementDurability": 100.0,
          "thinkInterval": 0.33000001311302185,
          "onAdded": [
            {
              "$type": "AttachEffect",
              "rotationDampTime": "Eff_Ani_Animal_Tortoise_Electric_RushAtkLoop",
              "PPPDJGDDOGD": 1.0,
              "AJDILHJFNKE": -1.0
            },
            {
              "$type": "TriggerBullet",
              "predicates": [
                {
                  "$type": "ByTargetGlobalValue",
                  "target": "Self",
                  "key": "_ANIMAL_TORTOISE_ELECTRIC_FURYSTATE_",
                  "value": 1.0
                }
              ],
              "bulletID": 42802134,
              "born": {
                "$type": "ConfigBornBySelf",
                "useRotation": true
              },
              "lifeByOwnerV2": true
            }
          ],
          "onThinkInterval": [
            {
              "$type": "TriggerAttackEvent",
              "attackEvent": {
                "attackPattern": {
                  "$type": "ConfigAttackCircle",
                  "triggerType": "TriggerNoRepeat",
                  "born": {
                    "$type": "ConfigBornBySelf",
                    "offset": {
                      "x": 0.0,
                      "y": -1.0,
                      "z": 0.0
                    },
                    "useRotation": true
                  },
                  "height": 4.0,
                  "radius": 4.0
                },
                "attackInfo": {
                  "attackTag": "",
                  "attenuationTag": "Animal_Tortoise_Electric_RushAtk",
                  "attenuationGroup": "Animal_Tortoise_Electric_RushAtk",
                  "attackProperty": {
                    "actorGrassSubHurtDelta": 0.699999988079071,
                    "actorWindSubHurtDelta": 0.0,
                    "elementType": "Electric",
                    "elementDurability": 25.0,
                    "strikeType": "Blunt",
                    "enBreak": 200.0,
                    "GLKMCMDJBIK": 0.0
                  },
                  "hitPattern": {
                    "onHitEffectName": "default",
                    "hitImpulseY": "",
                    "hitImpulseType": "LV1",
                    "hitHaltTimeScale": 0.05000000074505806
                  }
                }
              },
              "targetType": "Enemy"
            }
          ]
        },
        "Animal_Tortoise_Electric_ForceKillBullet": {
          "modifierName": "",
          "elementDurability": 100.0,
          "onRemoved": [
            {
              "$type": "GCHLGDKBHCC",
              "shieldHP": true,
              "gadgetInfo": {
                "configID": 42802134
              }
            }
          ]
        }
      },
      "onKill": [
        {
          "$type": "GCHLGDKBHCC",
          "shieldHP": true,
          "gadgetInfo": {
            "configID": 42802134
          }
        }
      ]
    }
  },
  {
    "Default": {
      "$type": "ConfigAbility",
      "abilityName": "Tortoise_Electric_RushAtk_ElectricBall_Hit",
      "onAbilityStart": [
        {
          "$type": "TriggerAttackEvent",
          "attackEvent": {
            "attackPattern": {
              "$type": "ConfigAttackSphere",
              "triggerType": "TriggerNoRepeat",
              "born": {
                "$type": "ConfigBornByCollisionPoint"
              },
              "radius": 0.25
            },
            "attackInfo": {
              "attackTag": "",
              "attenuationTag": "",
              "attenuationGroup": "default",
              "attackProperty": {
                "actorGrassSubHurtDelta": 0.5,
                "actorWindSubHurtDelta": 0.0,
                "elementType": "Electric",
                "elementDurability": 25.0,
                "strikeType": "Blunt",
                "enBreak": 1.0,
                "GLKMCMDJBIK": 0.0
              },
              "hitPattern": {
                "onHitEffectName": "default",
                "hitImpulseY": "",
                "hitImpulseType": "LV1",
                "hitHaltTimeScale": 0.05000000074505806
              }
            }
          },
          "targetType": "Enemy"
        },
        {
          "$type": "FireSubEmitterEffect",
          "rotationDampTime": "Eff_Ani_Animal_Tortoise_Electric_RushAtk_ElectricBallAS",
          "born": {
            "$type": "ConfigBornByCollisionPoint"
          }
        }
      ]
    }
  },
  {
    "Default": {
      "$type": "ConfigAbility",
      "abilityName": "Animal_Tortoise_Electric_ElectricAreaAtk",
      "abilityMixins": [
        {
          "$type": "AttachToStateIDMixin",
          "stateIDs": ["ElectricArea_Loop"],
          "modifierName": "Animal_Tortoise_Electric_ElectricAreaLoopState",
          "DGFCLAIDIFI": ""
        }
      ],
      "modifiers": {
        "Animal_Tortoise_Electric_ElectricAreaLoopState": {
          "modifierName": "",
          "elementDurability": 100.0,
          "thinkInterval": 0.5,
          "onAdded": [
            {
              "$type": "TriggerBullet",
              "bulletID": 42802132,
              "born": {
                "$type": "ConfigBornBySelf",
                "offset": {
                  "x": 0.0,
                  "y": 0.0,
                  "z": 0.0
                },
                "useRotation": true
              },
              "lifeByOwnerV2": true
            },
            {
              "$type": "AttachEffect",
              "rotationDampTime": "Eff_Ani_Animal_Tortoise_Electric_ElectricAreaAtkLoop",
              "PPPDJGDDOGD": 1.0,
              "AJDILHJFNKE": -1.0
            }
          ],
          "onRemoved": [
            {
              "$type": "GCHLGDKBHCC",
              "shieldHP": true,
              "gadgetInfo": {
                "configID": 42802132
              }
            }
          ],
          "onThinkInterval": [
            {
              "$type": "Predicated",
              "target": "SelfAttackTarget",
              "targetPredicates": [
                {
                  "$type": "ByTargetPositionToSelfPosition",
                  "logic": "Lesser",
                  "value": 30.0,
                  "DDALGNLEHOD": ""
                },
                {
                  "$type": "ByTargetPositionToSelfPosition",
                  "logic": "Lesser",
                  "compareType": "Y",
                  "value": 5.0,
                  "DDALGNLEHOD": ""
                }
              ],
              "successActions": [
                {
                  "$type": "CreateGadget",
                  "target": "SelfAttackTarget",
                  "born": {
                    "$type": "MPCGPEHJNNH",
                    "onGround": true,
                    "timeForPredictive": 0.8999999761581421
                  },
                  "gadgetID": 42802133,
                  "campID": 4001
                }
              ]
            }
          ]
        }
      },
      "onKill": [
        {
          "$type": "GCHLGDKBHCC",
          "shieldHP": true,
          "gadgetInfo": {
            "configID": 42802132
          }
        }
      ]
    }
  },
  {
    "Default": {
      "$type": "ConfigAbility",
      "abilityName": "Tortoise_Electric_ElectricArea_Random_Hit",
      "onAbilityStart": [
        {
          "$type": "TriggerAttackEvent",
          "attackEvent": {
            "attackPattern": {
              "$type": "ConfigAttackSphere",
              "triggerType": "TriggerNoRepeat",
              "born": {
                "$type": "ConfigBornByCollisionPoint",
                "useRotation": true
              },
              "radius": 2.0
            },
            "attackInfo": {
              "attackTag": "",
              "attenuationTag": "",
              "attenuationGroup": "default",
              "attackProperty": {
                "actorGrassSubHurtDelta": 0.5,
                "actorWindSubHurtDelta": 0.0,
                "elementType": "Electric",
                "elementDurability": 25.0,
                "strikeType": "Blunt",
                "enBreak": 1.0,
                "GLKMCMDJBIK": 0.0
              },
              "hitPattern": {
                "onHitEffectName": "default",
                "hitImpulseY": "",
                "hitImpulseType": "LV1",
                "hitHaltTimeScale": 0.05000000074505806
              }
            }
          },
          "targetType": "Enemy"
        }
      ]
    }
  },
  {
    "Default": {
      "$type": "ConfigAbility",
      "abilityName": "Tortoise_Electric_ElectricArea_Track_Hit",
      "modifiers": {
        "Tortoise_Electric_ElectricArea_Track_HitAlert": {
          "modifierName": "",
          "duration": 1.100000023841858,
          "elementDurability": 100.0,
          "onAdded": [
            {
              "$type": "FireEffect",
              "rotationDampTime": "Eff_Ani_Animal_Tortoise_Electric_ElectricAreaAtk_Single",
              "PPPDJGDDOGD": 1.0,
              "AJDILHJFNKE": -1.0
            }
          ],
          "onRemoved": [
            {
              "$type": "TriggerAttackEvent",
              "attackEvent": {
                "attackPattern": {
                  "$type": "ConfigAttackSphere",
                  "triggerType": "TriggerNoRepeat",
                  "born": {
                    "$type": "ConfigBornBySelf",
                    "useRotation": true
                  },
                  "radius": 2.0
                },
                "attackInfo": {
                  "attackTag": "",
                  "attenuationTag": "",
                  "attenuationGroup": "default",
                  "attackProperty": {
                    "actorGrassSubHurtDelta": 0.5,
                    "actorWindSubHurtDelta": 0.0,
                    "elementType": "Electric",
                    "elementDurability": 25.0,
                    "strikeType": "Blunt",
                    "enBreak": 1.0,
                    "GLKMCMDJBIK": 0.0
                  },
                  "hitPattern": {
                    "onHitEffectName": "default",
                    "hitImpulseY": "",
                    "hitImpulseType": "LV1",
                    "hitHaltTimeScale": 0.05000000074505806
                  }
                }
              },
              "targetType": "Enemy"
            }
          ]
        }
      },
      "onAdded": [
        {
          "$type": "ApplyModifier",
          "modifierName": "Tortoise_Electric_ElectricArea_Track_HitAlert"
        }
      ]
    }
  },
  {
    "Default": {
      "$type": "ConfigAbility",
      "abilityName": "Animal_Tortoise_Electric_ShaderNormal",
      "abilityMixins": [
        {
          "$type": "AttachToAnimatorStateIDMixin",
          "stateIDs": ["NormalIdle"],
          "modifierName": "Animal_Tortoise_Electric_ResetShader",
          "DGFCLAIDIFI": ""
        }
      ],
      "modifiers": {
        "Animal_Tortoise_Electric_ResetShader": {
          "modifierName": "",
          "elementDurability": 100.0,
          "onAdded": [
            {
              "$type": "SetAnimatorTrigger",
              "triggerID": "ShaderNormal",
              "mpTriggerOnRemote": true
            }
          ]
        }
      },
      "onAbilityStart": [
        {
          "$type": "SetAnimatorTrigger",
          "triggerID": "ShaderNormal",
          "mpTriggerOnRemote": true
        }
      ]
    }
  },
  {
    "Default": {
      "$type": "ConfigAbility",
      "abilityName": "Animal_Tortoise_Electric_ShaderSkill",
      "onAbilityStart": [
        {
          "$type": "SetAnimatorTrigger",
          "triggerID": "ShaderSkill",
          "mpTriggerOnRemote": true
        }
      ]
    }
  },
  {
    "Default": {
      "$type": "ConfigAbility",
      "abilityName": "Animal_Tortoise_Electric_Steer",
      "abilityMixins": [
        {
          "$type": "IILHMBGONGM",
          "steerStateIDs": ["FireBullet"],
          "endNormalizedTime": 0.20000000298023224,
          "angularSpeed": 90.0,
          "attackTrigger": "",
          "attackDistance": 12.0,
          "DGFCLAIDIFI": ""
        },
        {
          "$type": "IILHMBGONGM",
          "steerStateIDs": ["JumpAtk_BS"],
          "startNormalizedTime": 0.25,
          "endNormalizedTime": 0.75,
          "angularSpeed": 90.0,
          "attackTrigger": "",
          "attackDistance": 12.0,
          "DGFCLAIDIFI": ""
        },
        {
          "$type": "IILHMBGONGM",
          "steerStateIDs": ["RushAtk_BS"],
          "endNormalizedTime": 0.30000001192092896,
          "angularSpeed": 90.0,
          "attackTrigger": "",
          "attackDistance": 12.0,
          "DGFCLAIDIFI": ""
        }
      ]
    }
  }
]
