[
  {
    "Default": {
      "$type": "ConfigAbility",
      "abilityName": "Animal_Inu_Tanuki_IgnoreControlState",
      "modifiers": {
        "Animal_Inu_Tanuki_IgnoreControlState": {
          "modifierName": "",
          "elementDurability": 100.0,
          "onAdded": [
            {
              "$type": "AttachAbilityStateResistance",
              "resistanceListID": 15001
            },
            {
              "$type": "AttachAbilityStateResistance",
              "resistanceListID": 15002
            }
          ]
        }
      },
      "onAdded": [
        {
          "$type": "ApplyModifier",
          "modifierName": "Animal_Inu_Tanuki_IgnoreControlState"
        }
      ]
    }
  },
  {
    "Default": {
      "$type": "ConfigAbility",
      "abilityName": "Animal_Inu_Tanuki_BlinkState",
      "abilityMixins": [
        {
          "$type": "AttachToAnimatorStateIDMixin",
          "stateIDs": ["Blink_BS", "End_BS"],
          "modifierName": "Blink_State",
          "DGFCLAIDIFI": ""
        }
      ],
      "modifiers": {
        "Blink_State": {
          "modifierName": "",
          "elementDurability": 100.0,
          "onRemoved": [
            {
              "$type": "RemoveUniqueModifier",
              "modifierName": "UNIQUE_Inu_Tanuki_Blink_Actions"
            }
          ]
        },
        "UNIQUE_Inu_Tanuki_Blink_Actions": {
          "modifierName": "",
          "forceTriggerWhenChangeAuthority": true,
          "elementDurability": 100.0,
          "onAdded": [
            {
              "$type": "TriggerSetVisible"
            },
            {
              "$type": "EnablePushColliderName",
              "pushColliderNames": ["PushCollider"]
            }
          ],
          "onRemoved": [
            {
              "$type": "TriggerSetVisible",
              "KGGEDGKGLDD": true
            },
            {
              "$type": "EnablePushColliderName",
              "pushColliderNames": ["PushCollider"],
              "setEnable": true
            }
          ]
        }
      },
      "onAbilityStart": [
        {
          "$type": "ApplyModifier",
          "modifierName": "UNIQUE_Inu_Tanuki_Blink_Actions"
        }
      ]
    }
  },
  {
    "Default": {
      "$type": "ConfigAbility",
      "abilityName": "Animal_Inu_Tanuki_FindNextPathPoint",
      "abilityMixins": [
        {
          "$type": "LEOGLBFIELL",
          "poseIDs": [1, 2, 3],
          "modifierName": "InitializeModifier"
        },
        {
          "$type": "LEOGLBFIELL",
          "poseIDs": [100],
          "modifierName": "FindingNextPoint"
        }
      ],
      "abilitySpecials": {
        "NextPathPointFlag": 1.0
      },
      "modifiers": {
        "InitializeModifier": {
          "modifierName": "",
          "elementDurability": 100.0,
          "onAdded": [
            {
              "$type": "SetGlobalValue",
              "value": 1.0,
              "key": "_TANUKI_NEXTPATHPOINTFLAG_",
              "maxValue": 0.0,
              "minValue": 0.0
            },
            {
              "$type": "GFFKENEJFFB",
              "intID": "NextPointType"
            },
            {
              "$type": "SetOverrideMapValue",
              "value": 1.0,
              "overrideMapKey": "NextPathPointFlag",
              "maxValue": 0.0,
              "minValue": 0.0
            }
          ]
        },
        "FindingNextPoint": {
          "modifierName": "",
          "elementDurability": 100.0,
          "thinkInterval": 0.20000000298023224,
          "onAdded": [
            {
              "$type": "Predicated",
              "otherTargets": {
                "$type": "FHBCCNMKPHK",
                "operation": "XOR",
                "dynamicFloatValue": "NextPathPointFlag"
              },
              "targetPredicates": [
                {
                  "$type": "ByTargetGlobalValue",
                  "key": "_TANUKI_PATHPOINT_END_",
                  "value": 1.0
                }
              ],
              "successActions": [
                {
                  "$type": "GFFKENEJFFB",
                  "intID": "NextPointType",
                  "value": 2
                },
                {
                  "$type": "FIFEAMMHOIC",
                  "target": "Target",
                  "forwardAngle": 360.0
                }
              ],
              "failActions": [
                {
                  "$type": "Predicated",
                  "otherTargets": {
                    "$type": "FHBCCNMKPHK",
                    "operation": "XOR",
                    "dynamicFloatValue": "NextPathPointFlag"
                  },
                  "targetPredicates": [
                    {
                      "$type": "ByTargetGlobalValue",
                      "key": "_TANUKI_PATHPOINT_BLINK_",
                      "value": 1.0
                    }
                  ],
                  "successActions": [
                    {
                      "$type": "GFFKENEJFFB",
                      "intID": "NextPointType",
                      "value": 1
                    },
                    {
                      "$type": "FIFEAMMHOIC",
                      "target": "Target",
                      "forwardAngle": 360.0
                    }
                  ],
                  "failActions": [
                    {
                      "$type": "GFFKENEJFFB",
                      "intID": "NextPointType",
                      "value": 3
                    }
                  ]
                }
              ]
            }
          ],
          "onThinkInterval": [
            {
              "$type": "Predicated",
              "otherTargets": {
                "$type": "FHBCCNMKPHK",
                "operation": "XOR",
                "dynamicFloatValue": "NextPathPointFlag"
              },
              "targetPredicates": [
                {
                  "$type": "ByTargetGlobalValue",
                  "key": "_TANUKI_PATHPOINT_END_",
                  "value": 1.0
                }
              ],
              "successActions": [
                {
                  "$type": "GFFKENEJFFB",
                  "intID": "NextPointType",
                  "value": 2
                },
                {
                  "$type": "FIFEAMMHOIC",
                  "target": "Target",
                  "forwardAngle": 360.0
                }
              ],
              "failActions": [
                {
                  "$type": "Predicated",
                  "otherTargets": {
                    "$type": "FHBCCNMKPHK",
                    "operation": "XOR",
                    "dynamicFloatValue": "NextPathPointFlag"
                  },
                  "targetPredicates": [
                    {
                      "$type": "ByTargetGlobalValue",
                      "key": "_TANUKI_PATHPOINT_BLINK_",
                      "value": 1.0
                    }
                  ],
                  "successActions": [
                    {
                      "$type": "GFFKENEJFFB",
                      "intID": "NextPointType",
                      "value": 1
                    },
                    {
                      "$type": "FIFEAMMHOIC",
                      "target": "Target",
                      "forwardAngle": 360.0
                    }
                  ],
                  "failActions": [
                    {
                      "$type": "GFFKENEJFFB",
                      "intID": "NextPointType",
                      "value": 3
                    }
                  ]
                }
              ]
            }
          ]
        }
      },
      "onAdded": [
        {
          "$type": "SetGlobalValue",
          "value": 1.0,
          "key": "_TANUKI_NEXTPATHPOINTFLAG_",
          "maxValue": 0.0,
          "minValue": 0.0
        }
      ],
      "onAbilityStart": [
        {
          "$type": "IDNGFEEBPAM",
          "boolID": "FixedMove"
        },
        {
          "$type": "AddGlobalValue",
          "value": 1.0,
          "key": "_TANUKI_NEXTPATHPOINTFLAG_",
          "useLimitRange": true,
          "maxValue": 99.0,
          "minValue": 1.0
        },
        {
          "$type": "SetGlobalValueToOverrideMap",
          "globalValueKey": "_TANUKI_NEXTPATHPOINTFLAG_",
          "overrideMapKey": "NextPathPointFlag"
        },
        {
          "$type": "GFFKENEJFFB",
          "intID": "NextPointType"
        }
      ]
    }
  },
  {
    "Default": {
      "$type": "ConfigAbility",
      "abilityName": "Animal_Inu_Tanuki_DoBlink",
      "onAbilityStart": [
        {
          "$type": "IFCMHHHOLCK"
        },
        {
          "$type": "TriggerAbility",
          "abilityName": "Animal_Inu_Tanuki_FindNextPathPoint"
        }
      ]
    }
  },
  {
    "Default": {
      "$type": "ConfigAbility",
      "abilityName": "Animal_Inu_Tanuki_Attraction",
      "abilityMixins": [
        {
          "$type": "AttachToAnimatorStateIDMixin",
          "stateIDs": ["Alert", "Alert_AS", "Attraction", "Attraction_AS"],
          "modifierName": "Inu_Tanuki_AttractionEffect",
          "DGFCLAIDIFI": ""
        },
        {
          "$type": "AttachToAnimatorStateIDMixin",
          "stateIDs": ["Alert", "Alert_AS"],
          "modifierName": "Inu_Tanuki_AlertBehitModifier",
          "DGFCLAIDIFI": ""
        }
      ],
      "modifiers": {
        "Inu_Tanuki_AttractionEffect": {
          "modifierName": "",
          "elementDurability": 100.0,
          "onAdded": [
            {
              "$type": "AttachEffect",
              "rotationDampTime": "Eff_Animal_Inu_Tanuki_Attraction",
              "PPPDJGDDOGD": 1.0,
              "AJDILHJFNKE": -1.0
            }
          ]
        },
        "Inu_Tanuki_AlertBehitModifier": {
          "modifierName": "",
          "elementDurability": 100.0,
          "onBeingHit": [
            {
              "$type": "SetAnimatorTrigger",
              "triggerID": "AlertHitTrigger"
            }
          ]
        }
      }
    }
  },
  {
    "Default": {
      "$type": "ConfigAbility",
      "abilityName": "Animal_Inu_Tanuki_KillSelf",
      "onAbilityStart": [
        {
          "$type": "KillSelf"
        }
      ]
    }
  },
  {
    "Default": {
      "$type": "ConfigAbility",
      "abilityName": "Animal_Inu_Tanuki_KillSelf_Escape",
      "onAbilityStart": [
        {
          "$type": "KillSelf",
          "killSelfType": "Disappear",
          "value": true,
          "banExp": true
        }
      ]
    }
  },
  {
    "Default": {
      "$type": "ConfigAbility",
      "abilityName": "Animal_Inu_Tanuki_Steer",
      "abilityMixins": [
        {
          "$type": "IILHMBGONGM",
          "steerStateIDs": ["Blink_BS"],
          "endNormalizedTime": 0.5,
          "angularSpeed": 540.0,
          "attackTrigger": "",
          "attackDistance": 2.0,
          "DGFCLAIDIFI": ""
        },
        {
          "$type": "IILHMBGONGM",
          "steerStateIDs": ["End"],
          "endNormalizedTime": 0.5,
          "angularSpeed": 540.0,
          "attackTrigger": "",
          "attackDistance": 2.0,
          "DGFCLAIDIFI": ""
        },
        {
          "$type": "IILHMBGONGM",
          "steerStateIDs": ["Alert"],
          "endNormalizedTime": 0.30000001192092896,
          "angularSpeed": 540.0,
          "attackTrigger": "",
          "attackDistance": 2.0,
          "DGFCLAIDIFI": ""
        }
      ]
    }
  }
]
