[
  {
    "Default": {
      "$type": "ConfigAbility",
      "abilityName": "Boltbug_Scarab_UnderGroundHandler",
      "abilityMixins": [
        {
          "$type": "AttachToAnimatorStateIDMixin",
          "stateIDs": ["Standby", "MakeBall", "IdleFree01", "Walk"],
          "modifierName": "Boltbug_Scarab_AboveGround",
          "DGFCLAIDIFI": ""
        },
        {
          "$type": "AttachToAnimatorStateIDMixin",
          "stateIDs": ["DigIn", "Standby_Hide", "DigOut"],
          "modifierName": "Boltbug_Scarab_UnderGround",
          "DGFCLAIDIFI": ""
        }
      ],
      "modifiers": {
        "Boltbug_Scarab_AboveGround": {
          "modifierName": "",
          "elementDurability": 100.0
        },
        "Boltbug_Scarab_UnderGround": {
          "modifierName": "",
          "elementDurability": 100.0,
          "modifierMixins": [
            {
              "$type": "KDEDEBIHOHA"
            }
          ]
        },
        "Boltbug_Scarab_Invincible": {
          "modifierName": "",
          "elementDurability": 100.0,
          "state": "LockHP"
        }
      },
      "onAdded": [
        {
          "$type": "ApplyModifier",
          "modifierName": "Boltbug_Scarab_Invincible"
        }
      ]
    }
  },
  {
    "Default": {
      "$type": "ConfigAbility",
      "abilityName": "Boltbug_Scarab_MakeBall",
      "onAbilityStart": [
        {
          "$type": "CreateGadget",
          "born": {
            "$type": "ConfigBornBySelf",
            "offset": {
              "x": 0.03382803872227669,
              "y": 0.0,
              "z": -0.3788909912109375
            },
            "onGround": true,
            "onGroundRaycastUpDist": 0.5,
            "alongGround": true
          },
          "gadgetID": 42805001,
          "campID": 4001
        }
      ]
    }
  },
  {
    "Default": {
      "$type": "ConfigAbility",
      "abilityName": "Boltbug_Scarab_DestroyBall",
      "onAbilityStart": [
        {
          "$type": "TriggerAbility",
          "otherTargets": {
            "$type": "SelectTargetsByChildren",
            "topLimit": 1,
            "configID": 42805001
          },
          "abilityName": "Boltbug_Scarab_Ball"
        }
      ]
    }
  },
  {
    "Default": {
      "$type": "ConfigAbility",
      "abilityName": "Boltbug_Scarab_Ball",
      "modifiers": {
        "Boltbug_Scarab_Ball": {
          "modifierName": "",
          "elementDurability": 100.0,
          "onAdded": [
            {
              "$type": "AttachEffect",
              "rotationDampTime": "Eff_Animal_Boltbug_Scarab_Ball",
              "PPPDJGDDOGD": 1.0,
              "AJDILHJFNKE": -1.0
            }
          ],
          "onBeingHit": [
            {
              "$type": "TriggerAbility",
              "abilityName": "Monster_Fungus_Raptor_01_SummonAttackBullet_OnGround"
            }
          ]
        }
      },
      "onAdded": [
        {
          "$type": "AttachModifier",
          "modifierName": "Boltbug_Scarab_Ball"
        }
      ],
      "onAbilityStart": [
        {
          "$type": "FireEffect",
          "rotationDampTime": "Eff_Animal_Boltbug_Scarab_BallDestroy",
          "PPPDJGDDOGD": 1.0,
          "AJDILHJFNKE": -1.0
        },
        {
          "$type": "RemoveModifier",
          "modifierName": "Boltbug_Scarab_Ball"
        }
      ]
    }
  },
  {
    "Default": {
      "$type": "ConfigAbility",
      "abilityName": "BoltBug_MachinaIustitia_LogicHandler",
      "abilityMixins": [
        {
          "$type": "LEOGLBFIELL",
          "poseIDs": [99],
          "modifierName": "Broken_Spark_VFX"
        },
        {
          "$type": "AttachToAnimatorStateIDMixin",
          "stateIDs": ["WorkingFly"],
          "modifierName": "ScanLight_VFX",
          "DGFCLAIDIFI": ""
        },
        {
          "$type": "AttachToStateIDMixin",
          "stateIDs": ["Fly"],
          "modifierName": "Wings_VFX",
          "DGFCLAIDIFI": ""
        },
        {
          "$type": "APJKOLPHCGH",
          "stateIDs": ["BeHitAir", "BeHit"],
          "enterActions": [
            {
              "$type": "Predicated",
              "targetPredicates": [
                {
                  "$type": "ByTargetGlobalValue",
                  "key": "_BROKEN_STATE_",
                  "value": 1.0
                }
              ],
              "successActions": [
                {
                  "$type": "GFFKENEJFFB",
                  "intID": "BrokenState",
                  "value": 2
                },
                {
                  "$type": "SetGlobalValue",
                  "value": 2.0,
                  "key": "_BROKEN_STATE_",
                  "maxValue": 0.0,
                  "minValue": 0.0
                },
                {
                  "$type": "FireEffect",
                  "rotationDampTime": "Eff_Animal_Boltbug_MachinaIustitia_Break",
                  "PPPDJGDDOGD": 1.0,
                  "AJDILHJFNKE": -1.0
                }
              ]
            }
          ],
          "DGFCLAIDIFI": ""
        }
      ],
      "modifiers": {
        "BeHit_Monitor": {
          "modifierName": "",
          "elementDurability": 100.0,
          "properties": {
            "Actor_EndureDelta": 20.0
          },
          "onBeingHit": [
            {
              "$type": "Randomed",
              "predicates": [
                {
                  "$type": "ByTargetGlobalValue",
                  "key": "_BROKEN_STATE_",
                  "value": 2.0
                }
              ],
              "chance": 0.33000001311302185,
              "successActions": [
                {
                  "$type": "GFFKENEJFFB",
                  "intID": "BrokenState",
                  "value": 3
                },
                {
                  "$type": "FireEffect",
                  "rotationDampTime": "Eff_Animal_Boltbug_MachinaIustitia_Break",
                  "PPPDJGDDOGD": 1.0,
                  "AJDILHJFNKE": -1.0
                },
                {
                  "$type": "SetGlobalValue",
                  "value": 3.0,
                  "key": "_BROKEN_STATE_",
                  "maxValue": 0.0,
                  "minValue": 0.0
                }
              ]
            }
          ]
        },
        "Broken_Spark_VFX": {
          "modifierName": "",
          "elementDurability": 100.0,
          "onAdded": [
            {
              "$type": "AttachEffect",
              "rotationDampTime": "Eff_Animal_Boltbug_MachinaIustitia_Broken",
              "PPPDJGDDOGD": 1.0,
              "AJDILHJFNKE": -1.0
            }
          ]
        },
        "ScanLight_VFX": {
          "modifierName": "",
          "elementDurability": 100.0,
          "onAdded": [
            {
              "$type": "AttachEffect",
              "rotationDampTime": "Eff_Animal_Boltbug_MachinaIustitia_ScanLight",
              "PPPDJGDDOGD": 1.0,
              "AJDILHJFNKE": -1.0
            }
          ]
        },
        "Wings_VFX": {
          "modifierName": "",
          "elementDurability": 100.0,
          "onAdded": [
            {
              "$type": "AttachEffect",
              "rotationDampTime": "Eff_Animal_Boltbug_MachinaIustitia_Wings",
              "PPPDJGDDOGD": 1.0,
              "AJDILHJFNKE": -1.0
            }
          ]
        }
      },
      "onAdded": [
        {
          "$type": "SetGlobalValue",
          "value": 1.0,
          "key": "_BROKEN_STATE_",
          "maxValue": 0.0,
          "minValue": 0.0
        },
        {
          "$type": "ApplyModifier",
          "modifierName": "BeHit_Monitor"
        }
      ]
    }
  },
  {
    "Default": {
      "$type": "ConfigAbility",
      "abilityName": "Animal_Boltbug_Lightbug_02_DisablePickUp",
      "abilityMixins": [
        {
          "$type": "KDEDEBIHOHA"
        }
      ]
    }
  }
]
