[
  {
    "Default": {
      "$type": "ConfigAbility",
      "abilityName": "Ability_Avatar_Dive_JellyfishBomb",
      "modifiers": {
        "Avatar_Dive_JellyfishBomb_AddSkillInfo": {
          "modifierName": "",
          "elementDurability": 100.0,
          "onAdded": [
            {
              "$type": "PDFENCBHHAI",
              "shieldHP": true,
              "skillID": 20060
            },
            {
              "$type": "PDFENCBHHAI",
              "shieldHP": true,
              "skillID": 20061
            }
          ],
          "onRemoved": [
            {
              "$type": "KFOBADMAFJF",
              "shieldHP": true,
              "skillID": 20060,
              "refreshAfterRemove": true
            },
            {
              "$type": "KFOBADMAFJF",
              "shieldHP": true,
              "skillID": 20061,
              "refreshAfterRemove": true
            }
          ]
        },
        "Avatar_Dive_JellyfishBomb_Hold_Handler": {
          "modifierName": "",
          "elementDurability": 100.0,
          "modifierMixins": [
            {
              "$type": "ButtonHoldChargeMixin",
              "skillID": 20060,
              "secondChargeTime": 0.25,
              "onReleaseCharged": [
                {
                  "$type": "RemoveUniqueModifier",
                  "shieldHP": true,
                  "modifierName": "UNIQUE_Dive_JellyfishBomb_SwitchToTrigger"
                },
                {
                  "$type": "ApplyModifier",
                  "shieldHP": true,
                  "modifierName": "JellyFish_Short"
                },
                {
                  "$type": "AttachModifier",
                  "shieldHP": true,
                  "modifierName": "UNIQUE_Dive_JellyfishBomb_SwitchToTrigger"
                }
              ],
              "onBeginSecondCharged": [
                {
                  "$type": "RemoveModifier",
                  "shieldHP": true,
                  "modifierName": "Focus_Father"
                },
                {
                  "$type": "SetAnimatorTrigger",
                  "triggerID": "StartDiveCastTrigger"
                },
                {
                  "$type": "SetAnimatorTrigger",
                  "triggerID": "StartDiveCastTrigger2"
                },
                {
                  "$type": "ApplyModifier",
                  "predicates": [
                    {
                      "$type": "ByTargetGlobalValue",
                      "target": "Self",
                      "key": "_ABILITY_Diving_Skill_In_Focus_Skill_Mark",
                      "value": 0.0,
                      "compareType": "NoneOrEqual"
                    }
                  ],
                  "modifierName": "Focus_Father"
                }
              ],
              "onReleaseSecondCharged": [
                {
                  "$type": "SetAnimatorTrigger",
                  "triggerID": "EndDiveCastTrigger"
                }
              ],
              "onCancelCharged": [
                {
                  "$type": "SetAnimatorTrigger",
                  "triggerID": "EndDiveCastTrigger"
                },
                {
                  "$type": "ApplyModifier",
                  "predicates": [
                    {
                      "$type": "ByTargetGlobalValue",
                      "target": "Self",
                      "key": "_ABILITY_Diving_Skill_In_Focus_Skill_Mark",
                      "value": 2.0
                    }
                  ],
                  "modifierName": "Focus_Remove_Delay"
                }
              ],
              "chargeStateIDs": ["DiveCast_BS", "DiveCast_Loop"]
            },
            {
              "$type": "AttachModifierToGlobalValueMixin",
              "globalValueTarget": "Team",
              "globalValueKey": "_ABILITY_Dive_isInFondanieWater",
              "valueSteps": [-0.5, 0.5],
              "modifierNameSteps": ["Clear_Focus_Father"]
            }
          ]
        },
        "Clear_Focus_Father": {
          "stacking": "Multiple",
          "modifierName": "",
          "duration": 0.20000000298023224,
          "elementDurability": 100.0,
          "onAdded": [
            {
              "$type": "RemoveModifier",
              "shieldHP": true,
              "modifierName": "Focus_Father"
            }
          ]
        },
        "Focus_Father": {
          "modifierName": "",
          "elementDurability": 100.0,
          "modifierMixins": [
            {
              "$type": "AttachToMultiNormalizedTimeMixin",
              "normalizedStateIDList": [
                {
                  "stateID": "DiveCast_BS"
                },
                {
                  "stateID": "DiveCast_Loop"
                },
                {
                  "stateID": "DiveCast_AS",
                  "normalizeEnd": 0.14499999582767487
                }
              ],
              "modifierName": "Focus",
              "DGFCLAIDIFI": ""
            },
            {
              "$type": "AttachToStateIDMixin",
              "stateIDs": ["DiveCast_BS", "DiveCast_Loop"],
              "modifierName": "Focus_Remove_Delay_Trigger",
              "isCheckOnAttach": true,
              "DGFCLAIDIFI": ""
            }
          ],
          "onAdded": [
            {
              "$type": "SetGlobalValue",
              "shieldHP": true,
              "value": 2.0,
              "key": "_ABILITY_Diving_Skill_In_Focus_Skill_Mark",
              "maxValue": 0.0,
              "minValue": 0.0
            }
          ],
          "onRemoved": [
            {
              "$type": "SetGlobalValue",
              "shieldHP": true,
              "value": 0.0,
              "key": "_ABILITY_Diving_Skill_In_Focus_Skill_Mark",
              "maxValue": 0.0,
              "minValue": 0.0
            }
          ]
        },
        "Focus_Remove_Delay_Trigger": {
          "modifierName": "",
          "duration": 10.0,
          "elementDurability": 100.0,
          "onRemoved": [
            {
              "$type": "SetAnimatorTrigger",
              "triggerID": "EndDiveCastTrigger"
            },
            {
              "$type": "ApplyModifier",
              "predicates": [
                {
                  "$type": "ByTargetGlobalValue",
                  "target": "Self",
                  "key": "_ABILITY_Diving_Skill_In_Focus_Skill_Mark",
                  "value": 2.0
                }
              ],
              "modifierName": "Focus_Remove_Delay"
            }
          ]
        },
        "Focus_Remove_Delay": {
          "stacking": "Unique",
          "modifierName": "",
          "duration": 0.5,
          "elementDurability": 100.0,
          "thinkInterval": 0.12999999523162842,
          "onAdded": [
            {
              "$type": "CNHCMGMMDCB",
              "muteRemoteAction": true,
              "parameter": "Aim_Close",
              "cameraFogEffectName": "Eff_SkillObj_Absorb_Avatar_Aim"
            }
          ],
          "onRemoved": [
            {
              "$type": "RemoveModifier",
              "shieldHP": true,
              "modifierName": "Focus"
            }
          ],
          "onThinkInterval": [
            {
              "$type": "ApplyModifier",
              "shieldHP": true,
              "modifierName": "JellyFish_Long"
            }
          ],
          "onThinkIntervalIsFixedUpdate": true,
          "onAvatarOut": [
            {
              "$type": "RemoveModifier",
              "shieldHP": true,
              "modifierName": "Focus"
            }
          ]
        },
        "Focus": {
          "modifierName": "",
          "elementDurability": 100.0,
          "modifierMixins": [
            {
              "$type": "OLAFLPBKGGC",
              "shootingConfig": {
                "normalShoot": {
                  "bulletBornAttachPoint": "FocusAnchor",
                  "detectRangeFromViewport": 100.0,
                  "autoFocusMinRange": 2.0,
                  "autoFocusMaxRange": 7.0
                },
                "aimingShoot": {
                  "bulletBornAttachPoint": "FocusAnchor",
                  "detectRangeFromViewport": 100.0,
                  "detectRadiusFromViewport": 0.15000000596046448,
                  "autoFocusMinRange": 2.0,
                  "autoFocusMaxRange": 25.0
                }
              }
            },
            {
              "$type": "FMOKCPPLHDO"
            },
            {
              "$type": "EffectChangeAlphaMixin",
              "target": "Team",
              "startDuration": 0.20000000298023224,
              "endDuration": 0.30000001192092896,
              "JPEPPHPPCPH": true
            },
            {
              "$type": "EffectChangeAlphaMixin",
              "startDuration": 0.20000000298023224,
              "endDuration": 0.30000001192092896,
              "JPEPPHPPCPH": true
            }
          ],
          "onAdded": [
            {
              "$type": "AttachModifier",
              "target": "Team",
              "modifierName": "Aim_Camera_Eff"
            },
            {
              "$type": "AttachModifier",
              "modifierName": "Gadget_Loop"
            },
            {
              "$type": "Predicated",
              "targetPredicates": [
                {
                  "$type": "BGMAGODJEMF",
                  "featureTagIDs": [1044]
                }
              ],
              "successActions": [
                {
                  "$type": "AvatarEnterFocus",
                  "cameraFollowLower": {
                    "x": 1.0,
                    "y": -0.05000000074505806,
                    "z": -1.5
                  },
                  "cameraFollowUpper": {
                    "x": 1.0,
                    "y": -0.05000000074505806,
                    "z": -1.2000000476837158
                  },
                  "cameraFastFocusMode": true,
                  "dragButtonName": "Skill2",
                  "assistance": {
                    "ps4": {},
                    "ps5": {},
                    "other": {
                      "useGyro": true
                    }
                  },
                  "canMove": false,
                  "showCrosshair": false,
                  "OMHGAKJIEFB": ""
                }
              ]
            },
            {
              "$type": "Predicated",
              "targetPredicates": [
                {
                  "$type": "BGMAGODJEMF",
                  "featureTagIDs": [1043]
                }
              ],
              "successActions": [
                {
                  "$type": "AvatarEnterFocus",
                  "cameraFollowLower": {
                    "x": 0.800000011920929,
                    "y": 0.10000000149011612,
                    "z": -1.600000023841858
                  },
                  "cameraFollowUpper": {
                    "x": 0.800000011920929,
                    "y": 0.10000000149011612,
                    "z": -1.2000000476837158
                  },
                  "cameraFastFocusMode": true,
                  "dragButtonName": "Skill2",
                  "assistance": {
                    "ps4": {},
                    "ps5": {},
                    "other": {
                      "useGyro": true
                    }
                  },
                  "canMove": false,
                  "showCrosshair": false,
                  "OMHGAKJIEFB": ""
                }
              ]
            },
            {
              "$type": "Predicated",
              "targetPredicates": [
                {
                  "$type": "BGMAGODJEMF",
                  "featureTagIDs": [1042]
                }
              ],
              "successActions": [
                {
                  "$type": "AvatarEnterFocus",
                  "cameraFollowLower": {
                    "x": 1.100000023841858,
                    "y": 0.15000000596046448,
                    "z": -1.5
                  },
                  "cameraFollowUpper": {
                    "x": 1.100000023841858,
                    "y": 0.15000000596046448,
                    "z": -1.100000023841858
                  },
                  "cameraFastFocusMode": true,
                  "dragButtonName": "Skill2",
                  "assistance": {
                    "ps4": {},
                    "ps5": {},
                    "other": {
                      "useGyro": true
                    }
                  },
                  "canMove": false,
                  "showCrosshair": false,
                  "OMHGAKJIEFB": ""
                }
              ]
            },
            {
              "$type": "Predicated",
              "targetPredicates": [
                {
                  "$type": "BGMAGODJEMF",
                  "featureTagIDs": [1041]
                }
              ],
              "successActions": [
                {
                  "$type": "AvatarEnterFocus",
                  "cameraFollowLower": {
                    "x": 0.8999999761581421,
                    "y": 0.30000001192092896,
                    "z": -1.600000023841858
                  },
                  "cameraFollowUpper": {
                    "x": 0.8999999761581421,
                    "y": 0.30000001192092896,
                    "z": -1.2000000476837158
                  },
                  "cameraFastFocusMode": true,
                  "dragButtonName": "Skill2",
                  "assistance": {
                    "ps4": {},
                    "ps5": {},
                    "other": {
                      "useGyro": true
                    }
                  },
                  "canMove": false,
                  "showCrosshair": false,
                  "OMHGAKJIEFB": ""
                }
              ]
            },
            {
              "$type": "Predicated",
              "targetPredicates": [
                {
                  "$type": "BGMAGODJEMF",
                  "featureTagIDs": [1045]
                }
              ],
              "successActions": [
                {
                  "$type": "AvatarEnterFocus",
                  "cameraFollowLower": {
                    "x": 1.100000023841858,
                    "y": -0.30000001192092896,
                    "z": -1.600000023841858
                  },
                  "cameraFollowUpper": {
                    "x": 1.100000023841858,
                    "y": -0.30000001192092896,
                    "z": -1.2000000476837158
                  },
                  "cameraFastFocusMode": true,
                  "dragButtonName": "Skill2",
                  "assistance": {
                    "ps4": {},
                    "ps5": {},
                    "other": {
                      "useGyro": true
                    }
                  },
                  "canMove": false,
                  "showCrosshair": false,
                  "OMHGAKJIEFB": ""
                }
              ]
            },
            {
              "$type": "AttachModifier",
              "modifierName": "VFX"
            },
            {
              "$type": "SetAnimatorBool",
              "boolID": "LockMotionFlagExitChannel",
              "value": true
            },
            {
              "$type": "SetGlobalValue",
              "value": 1.0,
              "key": "_ABILITY_Common_IsChannelState",
              "maxValue": 0.0,
              "minValue": 0.0
            }
          ],
          "onRemoved": [
            {
              "$type": "AvatarExitFocus",
              "shieldHP": true
            },
            {
              "$type": "SetAnimatorBool",
              "shieldHP": true,
              "boolID": "LockMotionFlagExitChannel"
            },
            {
              "$type": "SetGlobalValue",
              "shieldHP": true,
              "value": 0.0,
              "key": "_ABILITY_Common_IsChannelState",
              "maxValue": 0.0,
              "minValue": 0.0
            },
            {
              "$type": "RemoveModifier",
              "shieldHP": true,
              "modifierName": "Focus_Father"
            }
          ]
        },
        "Gadget_Loop": {
          "modifierName": "",
          "elementDurability": 100.0,
          "onAdded": [
            {
              "$type": "SetGlobalValue",
              "target": "Team",
              "value": 2.0,
              "key": "_ABILITY_WhiteBox_Dive_Team_Trigger",
              "maxValue": 0.0,
              "minValue": 0.0
            }
          ],
          "onRemoved": [
            {
              "$type": "SetGlobalValue",
              "target": "Team",
              "value": 3.0,
              "key": "_ABILITY_WhiteBox_Dive_Team_Trigger",
              "maxValue": 0.0,
              "minValue": 0.0
            }
          ]
        },
        "Aim_Camera_Eff": {
          "modifierName": "",
          "elementDurability": 100.0,
          "modifierMixins": [
            {
              "$type": "AttachActionToModifierMixin",
              "onAdded": [
                {
                  "$type": "DungeonFogEffects",
                  "canBeHandledOnRecover": true,
                  "muteRemoteAction": true,
                  "enable": true,
                  "cameraFogEffectName": "Eff_SkillObj_Absorb_Avatar_Aim",
                  "playerFogEffectName": ""
                }
              ],
              "onRemoved": [
                {
                  "$type": "DungeonFogEffects",
                  "shieldHP": true,
                  "canBeHandledOnRecover": true,
                  "muteRemoteAction": true,
                  "cameraFogEffectName": "Eff_SkillObj_Absorb_Avatar_Aim",
                  "playerFogEffectName": ""
                }
              ]
            }
          ]
        },
        "VFX_Trigger": {
          "stacking": "Multiple",
          "modifierName": "",
          "duration": 0.5,
          "elementDurability": 100.0,
          "onAdded": [
            {
              "$type": "FireEffect",
              "predicates": [
                {
                  "$type": "ByAny",
                  "predicates": [
                    {
                      "$type": "BGMAGODJEMF",
                      "featureTagIDs": [1044]
                    },
                    {
                      "$type": "BGMAGODJEMF",
                      "featureTagIDs": [1042]
                    }
                  ]
                }
              ],
              "rotationDampTime": "Eff_Avatar_Diving_Gadget_Loop_Attack",
              "PPPDJGDDOGD": 1.0,
              "AJDILHJFNKE": -1.0
            },
            {
              "$type": "FireEffect",
              "predicates": [
                {
                  "$type": "ByAny",
                  "predicates": [
                    {
                      "$type": "BGMAGODJEMF",
                      "featureTagIDs": [1043]
                    },
                    {
                      "$type": "BGMAGODJEMF",
                      "featureTagIDs": [1041]
                    },
                    {
                      "$type": "BGMAGODJEMF",
                      "featureTagIDs": [1045]
                    }
                  ]
                }
              ],
              "rotationDampTime": "Eff_Avatar_Diving_Gadget_Loop_2_Attack",
              "PPPDJGDDOGD": 1.0,
              "AJDILHJFNKE": -1.0
            }
          ]
        },
        "VFX": {
          "modifierName": "",
          "elementDurability": 100.0,
          "onAdded": [
            {
              "$type": "Predicated",
              "targetPredicates": [
                {
                  "$type": "BGMAGODJEMF",
                  "featureTagIDs": [1044]
                }
              ],
              "successActions": [
                {
                  "$type": "AttachModifier",
                  "modifierName": "VFX_L"
                }
              ]
            },
            {
              "$type": "Predicated",
              "targetPredicates": [
                {
                  "$type": "BGMAGODJEMF",
                  "featureTagIDs": [1042]
                }
              ],
              "successActions": [
                {
                  "$type": "AttachModifier",
                  "modifierName": "VFX_L"
                }
              ]
            },
            {
              "$type": "Predicated",
              "targetPredicates": [
                {
                  "$type": "BGMAGODJEMF",
                  "featureTagIDs": [1043]
                }
              ],
              "successActions": [
                {
                  "$type": "AttachModifier",
                  "modifierName": "VFX_R"
                }
              ]
            },
            {
              "$type": "Predicated",
              "targetPredicates": [
                {
                  "$type": "BGMAGODJEMF",
                  "featureTagIDs": [1041]
                }
              ],
              "successActions": [
                {
                  "$type": "AttachModifier",
                  "modifierName": "VFX_R"
                }
              ]
            },
            {
              "$type": "Predicated",
              "targetPredicates": [
                {
                  "$type": "BGMAGODJEMF",
                  "featureTagIDs": [1045]
                }
              ],
              "successActions": [
                {
                  "$type": "AttachModifier",
                  "modifierName": "VFX_R"
                }
              ]
            }
          ]
        },
        "VFX_L": {
          "modifierName": "",
          "elementDurability": 100.0,
          "onAdded": [
            {
              "$type": "AttachEffect",
              "rotationDampTime": "Eff_Avatar_Diving_Gadget_Loop",
              "PPPDJGDDOGD": 1.0,
              "AJDILHJFNKE": -1.0
            }
          ]
        },
        "VFX_R": {
          "modifierName": "",
          "elementDurability": 100.0,
          "onAdded": [
            {
              "$type": "AttachEffect",
              "rotationDampTime": "Eff_Avatar_Diving_Gadget_Loop_2",
              "PPPDJGDDOGD": 1.0,
              "AJDILHJFNKE": -1.0
            }
          ]
        },
        "JellyFish_Short": {
          "stacking": "Multiple",
          "modifierName": "",
          "duration": 0.5,
          "elementDurability": 100.0,
          "onAdded": [
            {
              "$type": "SetGlobalValue",
              "target": "Team",
              "value": 1.0,
              "key": "_ABILITY_WhiteBox_Dive_Team_Trigger",
              "maxValue": 0.0,
              "minValue": 0.0
            },
            {
              "$type": "SetGlobalValue",
              "otherTargets": {
                "$type": "SelectTargetsByChildren",
                "configID": 40034107
              },
              "shieldHP": true,
              "value": 1.0,
              "key": "_ABILITY_Jellyfish_Bomb_Kill_Mark",
              "maxValue": 0.0,
              "minValue": 0.0
            },
            {
              "$type": "SetGlobalValue",
              "otherTargets": {
                "$type": "SelectTargetsByChildren",
                "configID": 40034108
              },
              "shieldHP": true,
              "value": 1.0,
              "key": "_ABILITY_Jellyfish_Bomb_Kill_Mark",
              "maxValue": 0.0,
              "minValue": 0.0
            },
            {
              "$type": "CreateGadget",
              "shieldHP": true,
              "born": {
                "$type": "ConfigBornBySelf",
                "offset": {
                  "x": 0.0,
                  "y": 0.75,
                  "z": 1.100000023841858
                },
                "useRotation": true
              },
              "gadgetID": 40034107
            }
          ]
        },
        "JellyFish_Long": {
          "stacking": "Unique",
          "modifierName": "",
          "duration": 0.5,
          "elementDurability": 100.0,
          "onAdded": [
            {
              "$type": "RemoveUniqueModifier",
              "shieldHP": true,
              "modifierName": "UNIQUE_Dive_JellyfishBomb_SwitchToTrigger"
            },
            {
              "$type": "ApplyModifier",
              "shieldHP": true,
              "modifierName": "UNIQUE_Dive_JellyfishBomb_SwitchToTrigger"
            },
            {
              "$type": "ApplyModifier",
              "modifierName": "VFX_Trigger"
            },
            {
              "$type": "SetGlobalValue",
              "otherTargets": {
                "$type": "SelectTargetsByChildren",
                "configID": 40034107
              },
              "shieldHP": true,
              "value": 1.0,
              "key": "_ABILITY_Jellyfish_Bomb_Kill_Mark",
              "maxValue": 0.0,
              "minValue": 0.0
            },
            {
              "$type": "SetGlobalValue",
              "otherTargets": {
                "$type": "SelectTargetsByChildren",
                "configID": 40034108
              },
              "shieldHP": true,
              "value": 1.0,
              "key": "_ABILITY_Jellyfish_Bomb_Kill_Mark",
              "maxValue": 0.0,
              "minValue": 0.0
            },
            {
              "$type": "TriggerBullet",
              "bulletID": 40034108,
              "born": {
                "$type": "ConfigBornByAttachPoint",
                "offset": {
                  "x": 0.0,
                  "y": -0.30000001192092896,
                  "z": 0.800000011920929
                },
                "direction": {
                  "$type": "ConfigDirectionByAttachPoint",
                  "angleOffset": {
                    "x": 0.0,
                    "y": 0.0,
                    "z": 0.0
                  },
                  "attachPointName": "FocusAnchor",
                  "attachPointTargetType": "Self"
                },
                "useRotation": true,
                "attachPointName": "FocusAnchor",
                "attachPointTargetType": "Self"
              }
            },
            {
              "$type": "SetAnimatorTrigger",
              "shieldHP": true,
              "triggerID": "EndDiveCastTrigger"
            }
          ]
        },
        "UNIQUE_Dive_JellyfishBomb_SwitchToTrigger": {
          "modifierName": "",
          "forceTriggerWhenChangeAuthority": true,
          "duration": 60.0,
          "elementDurability": 100.0,
          "modifierMixins": [
            {
              "$type": "SwitchSkillIDMixin",
              "priority": "PlaymodeExtra1",
              "skillIndex": 1,
              "skillID": 20061,
              "JMDDHEHLBGA": true
            }
          ],
          "onAdded": [
            {
              "$type": "AvatarSkillStart",
              "skillID": 20061,
              "amountByTargetCurrentHPRatio": 0.029999999329447746,
              "costStaminaRatio": 1.0
            }
          ],
          "onRemoved": [
            {
              "$type": "Predicated",
              "target": "CurLocalAvatar",
              "shieldHP": true,
              "targetPredicates": [
                {
                  "$type": "ByTargetGlobalValue",
                  "key": "_ABILITY_Diving_SkillCDReduction",
                  "value": 1.0
                }
              ],
              "successActions": [
                {
                  "$type": "PPMAOBKEOHI",
                  "shieldHP": true,
                  "skillID": 20060,
                  "shareCDType": 1
                }
              ],
              "failActions": [
                {
                  "$type": "PPMAOBKEOHI",
                  "shieldHP": true,
                  "skillID": 20060
                }
              ]
            },
            {
              "$type": "SetGlobalValue",
              "target": "Team",
              "shieldHP": true,
              "value": 1.0,
              "key": "_ABILITY_WhiteBox_Dive_Team_Trigger",
              "maxValue": 0.0,
              "minValue": 0.0
            },
            {
              "$type": "SetGlobalValue",
              "otherTargets": {
                "$type": "SelectTargetsByChildren",
                "configID": 40034107
              },
              "shieldHP": true,
              "value": 1.0,
              "key": "_ABILITY_Jellyfish_Bomb_Kill_Mark",
              "maxValue": 0.0,
              "minValue": 0.0
            },
            {
              "$type": "SetGlobalValue",
              "otherTargets": {
                "$type": "SelectTargetsByChildren",
                "configID": 40034108
              },
              "shieldHP": true,
              "value": 1.0,
              "key": "_ABILITY_Jellyfish_Bomb_Kill_Mark",
              "maxValue": 0.0,
              "minValue": 0.0
            }
          ]
        }
      },
      "onAdded": [
        {
          "$type": "AttachModifier",
          "modifierName": "Avatar_Dive_JellyfishBomb_AddSkillInfo"
        },
        {
          "$type": "AttachModifier",
          "modifierName": "Avatar_Dive_JellyfishBomb_Hold_Handler"
        }
      ],
      "onRemoved": [
        {
          "$type": "RemoveUniqueModifier",
          "modifierName": "UNIQUE_Dive_JellyfishBomb_SwitchToTrigger"
        }
      ],
      "isDynamicAbility": true,
      "KPEGFLKLCLE": true
    }
  },
  {
    "Default": {
      "$type": "ConfigAbility",
      "abilityName": "Ability_Avatar_Dive_JellyfishBomb_Trigger",
      "onAbilityStart": [
        {
          "$type": "ForceUseSkillSuccess",
          "skillID": 20061,
          "damageRatio": "Skill"
        },
        {
          "$type": "RemoveUniqueModifier",
          "shieldHP": true,
          "modifierName": "UNIQUE_Dive_JellyfishBomb_SwitchToTrigger"
        }
      ],
      "isDynamicAbility": true,
      "KPEGFLKLCLE": true
    }
  },
  {
    "Default": {
      "$type": "ConfigAbility",
      "abilityName": "Ability_Absorb_JellyfishBomb_Short",
      "abilitySpecials": {
        "DamageSystemValue": 0.0,
        "DamageRatio": 0.0
      },
      "modifiers": {
        "JellyfishBomb": {
          "modifierName": "",
          "elementDurability": 100.0,
          "thinkInterval": 0.5,
          "modifierMixins": [
            {
              "$type": "AttachModifierToGlobalValueMixin",
              "globalValueKey": "_ABILITY_Jellyfish_Bomb_Kill_Mark",
              "valueSteps": [0.5, 1.5],
              "modifierNameSteps": ["ExplodeDelay"]
            }
          ],
          "onAdded": [
            {
              "$type": "AttachEffect",
              "rotationDampTime": "Eff_Avatar_Diving_Jellyfish_Boom_Short",
              "PPPDJGDDOGD": 1.0,
              "AJDILHJFNKE": -1.0
            }
          ],
          "onThinkInterval": [
            {
              "$type": "SetGlobalPos",
              "key": "_ABILITY_JellyFishBomb_Owner_Pos",
              "born": {
                "$type": "ConfigBornBySelfOwner",
                "useRotation": true
              }
            },
            {
              "$type": "RemoveUniqueModifier",
              "target": "OriginOwner",
              "predicates": [
                {
                  "$type": "GFPOLMJGMFG",
                  "target": "Self",
                  "compareType": "XYZ",
                  "value": 65.0,
                  "positionKey": "_ABILITY_JellyFishBomb_Owner_Pos"
                }
              ],
              "modifierName": "UNIQUE_Dive_JellyfishBomb_SwitchToTrigger"
            },
            {
              "$type": "SetGlobalValue",
              "predicates": [
                {
                  "$type": "GFPOLMJGMFG",
                  "target": "Self",
                  "compareType": "XYZ",
                  "value": 65.0,
                  "positionKey": "_ABILITY_JellyFishBomb_Owner_Pos"
                }
              ],
              "value": 1.0,
              "key": "_ABILITY_Jellyfish_Bomb_Kill_Mark",
              "maxValue": 0.0,
              "minValue": 0.0
            }
          ],
          "onKill": [
            {
              "$type": "FireEffect",
              "rotationDampTime": "Eff_Avatar_Diving_Jellyfish_Boom_Short_Explode",
              "PPPDJGDDOGD": 1.0,
              "AJDILHJFNKE": -1.0
            },
            {
              "$type": "GDHGMAPPGHD",
              "shieldHP": true,
              "key": "DamageSystemValue",
              "damageRatio": "ElementLevelCo"
            },
            {
              "$type": "TriggerAttackEvent",
              "attackEvent": {
                "attackPattern": {
                  "$type": "ConfigAttackSphere",
                  "triggerType": "TriggerNoRepeat",
                  "born": {
                    "$type": "ConfigBornBySelf",
                    "useRotation": true
                  },
                  "useCustomShape": true,
                  "MIJMNMAEEFJ": 3.0,
                  "radius": 4.0
                },
                "attackInfo": {
                  "attackTag": "JellyFish_Bomb",
                  "attenuationTag": "",
                  "attenuationGroup": "default",
                  "attackProperty": {
                    "actorGrassSubHurtDelta": 0.0,
                    "actorWindSubHurtDelta": 0.0,
                    "elementDurability": 0.0,
                    "ignoreAttackerProperty": true,
                    "strikeType": "Blunt",
                    "enBreak": 90.0,
                    "HMBONGBFIAP": ["DamageRatio", "DamageSystemValue", "MUL"],
                    "trueDamage": true,
                    "GLKMCMDJBIK": 0.0
                  },
                  "hitPattern": {
                    "onHitEffectName": "",
                    "hitImpulseY": "",
                    "hitImpulseType": "LV5",
                    "hitHaltTimeScale": 0.05000000074505806
                  },
                  "canBeModifiedBy": "OriginOwner"
                }
              },
              "targetType": "Enemy"
            },
            {
              "$type": "RemoveModifier",
              "modifierName": "JellyfishBomb"
            }
          ]
        },
        "JellyfishBomb_Gadget_Checker": {
          "modifierName": "",
          "elementDurability": 100.0,
          "onHittingOther": [
            {
              "$type": "Predicated",
              "target": "Other",
              "predicates": [
                {
                  "$type": "ByEntityTypes",
                  "entityTypes": ["Gadget"]
                }
              ],
              "targetPredicates": [
                {
                  "$type": "ByTargetGlobalValue",
                  "key": "_IS_InUnderseaBacDoor",
                  "value": 1.0
                },
                {
                  "$type": "FCOADDGEDOH",
                  "logic": "LesserOrEqual",
                  "value": 90.0
                },
                {
                  "$type": "ByAttackTags",
                  "attackTags": ["JellyFish_Bomb"]
                }
              ],
              "successActions": [
                {
                  "$type": "ApplyModifier",
                  "target": "Other",
                  "modifierName": "JellyFish_Bomb_Special_Tag_On_Gadget"
                }
              ]
            },
            {
              "$type": "Predicated",
              "target": "Other",
              "predicates": [
                {
                  "$type": "ByEntityTypes",
                  "entityTypes": ["Platform"]
                }
              ],
              "targetPredicates": [
                {
                  "$type": "ByTargetGlobalValue",
                  "key": "_IS_InUnderseaBacRes",
                  "value": 1.0
                },
                {
                  "$type": "FCOADDGEDOH",
                  "logic": "LesserOrEqual",
                  "value": 75.0
                },
                {
                  "$type": "ByAttackTags",
                  "attackTags": ["JellyFish_Bomb"]
                }
              ],
              "successActions": [
                {
                  "$type": "ApplyModifier",
                  "target": "Other",
                  "modifierName": "JellyFish_Bomb_Special_Tag_On_Gadget"
                }
              ]
            }
          ]
        },
        "ExplodeDelay": {
          "modifierName": "",
          "duration": 0.20000000298023224,
          "elementDurability": 100.0,
          "onAdded": [
            {
              "$type": "SendEffectTrigger",
              "parameter": "Trigger",
              "attachPoint": "",
              "damageRatio": "Int",
              "value": 2,
              "rotationDampTime": "Eff_Avatar_Diving_Jellyfish_Boom_Short"
            }
          ],
          "onRemoved": [
            {
              "$type": "KillSelf"
            }
          ]
        },
        "JellyFish_Bomb_Special_Tag_On_Gadget": {
          "stacking": "Multiple",
          "modifierName": "",
          "duration": 1.0,
          "elementDurability": 100.0,
          "onAdded": [
            {
              "$type": "DamageByAttackValue",
              "attackInfo": {
                "attackTag": "JellyFish_Bomb_Special",
                "attenuationTag": "",
                "attenuationGroup": "default",
                "attackProperty": {
                  "actorGrassSubHurtDelta": 0.0,
                  "actorWindSubHurtDelta": 0.0,
                  "elementType": "Water",
                  "elementDurability": 25.0,
                  "strikeType": "Slash",
                  "enBreak": 150.0,
                  "attackType": "Melee",
                  "HMBONGBFIAP": 0.0,
                  "GLKMCMDJBIK": 0.0
                },
                "hitPattern": {
                  "onHitEffectName": "none",
                  "hitImpulseY": "",
                  "hitImpulseType": "LV0",
                  "hitHaltTimeScale": 0.009999999776482582,
                  "muteHitText": true
                }
              }
            }
          ]
        }
      },
      "onAdded": [
        {
          "$type": "SetGlobalValue",
          "value": 0.0,
          "key": "_ABILITY_Jellyfish_Bomb_Kill_Mark",
          "maxValue": 0.0,
          "minValue": 0.0
        },
        {
          "$type": "AttachModifier",
          "modifierName": "JellyfishBomb"
        },
        {
          "$type": "AttachModifier",
          "modifierName": "JellyfishBomb_Gadget_Checker"
        },
        {
          "$type": "GDHGMAPPGHD",
          "shieldHP": true,
          "key": "DamageSystemValue",
          "damageRatio": "ElementLevelCo"
        }
      ]
    }
  },
  {
    "Default": {
      "$type": "ConfigAbility",
      "abilityName": "Ability_Absorb_JellyfishBomb_Hold",
      "abilitySpecials": {
        "DamageSystemValue": 0.0,
        "DamageRatio": 0.0
      },
      "modifiers": {
        "JellyfishBomb": {
          "modifierName": "",
          "elementDurability": 100.0,
          "thinkInterval": 0.5,
          "modifierMixins": [
            {
              "$type": "AttachModifierToGlobalValueMixin",
              "globalValueKey": "_ABILITY_Jellyfish_Bomb_Kill_Mark",
              "valueSteps": [0.5, 1.5],
              "modifierNameSteps": ["ExplodeDelay"]
            }
          ],
          "onAdded": [
            {
              "$type": "AttachEffect",
              "rotationDampTime": "Eff_Avatar_Diving_Jellyfish_Boom_Hold",
              "born": {
                "$type": "ConfigBornByAttachPoint",
                "direction": {
                  "$type": "ConfigDirectionByGlobalValue",
                  "directionKey": "_ABILITY_JellyfishBomb_Hold_Initial_Dir"
                },
                "useRotation": true,
                "attachPointName": "RootNode"
              },
              "PPPDJGDDOGD": 1.0,
              "AJDILHJFNKE": -1.0
            }
          ],
          "onThinkInterval": [
            {
              "$type": "SetGlobalPos",
              "key": "_ABILITY_JellyFishBomb_Owner_Pos",
              "born": {
                "$type": "ConfigBornBySelfOwner",
                "useRotation": true
              }
            },
            {
              "$type": "RemoveUniqueModifier",
              "target": "OriginOwner",
              "predicates": [
                {
                  "$type": "GFPOLMJGMFG",
                  "target": "Self",
                  "compareType": "XYZ",
                  "value": 65.0,
                  "positionKey": "_ABILITY_JellyFishBomb_Owner_Pos"
                }
              ],
              "modifierName": "UNIQUE_Dive_JellyfishBomb_SwitchToTrigger"
            },
            {
              "$type": "SetGlobalValue",
              "predicates": [
                {
                  "$type": "GFPOLMJGMFG",
                  "target": "Self",
                  "compareType": "XYZ",
                  "value": 65.0,
                  "positionKey": "_ABILITY_JellyFishBomb_Owner_Pos"
                }
              ],
              "value": 1.0,
              "key": "_ABILITY_Jellyfish_Bomb_Kill_Mark",
              "maxValue": 0.0,
              "minValue": 0.0
            },
            {
              "$type": "ApplyModifier",
              "predicates": [
                {
                  "$type": "GFPOLMJGMFG",
                  "target": "Self",
                  "compareType": "XYZ",
                  "value": 40.0,
                  "positionKey": "_ABILITY_JellyFishBomb_Owner_Pos"
                }
              ],
              "modifierName": "Hit_Scene_Stop"
            }
          ],
          "onKill": [
            {
              "$type": "FireEffect",
              "rotationDampTime": "Eff_Avatar_Diving_Jellyfish_Boom_Hold_Explode",
              "PPPDJGDDOGD": 1.0,
              "AJDILHJFNKE": -1.0
            },
            {
              "$type": "GDHGMAPPGHD",
              "shieldHP": true,
              "key": "DamageSystemValue",
              "damageRatio": "ElementLevelCo"
            },
            {
              "$type": "TriggerAttackEvent",
              "attackEvent": {
                "attackPattern": {
                  "$type": "ConfigAttackSphere",
                  "triggerType": "TriggerNoRepeat",
                  "born": {
                    "$type": "ConfigBornBySelf",
                    "useRotation": true
                  },
                  "useCustomShape": true,
                  "MIJMNMAEEFJ": 8.0,
                  "radius": 10.0
                },
                "attackInfo": {
                  "attackTag": "JellyFish_Bomb",
                  "attenuationTag": "",
                  "attenuationGroup": "default",
                  "attackProperty": {
                    "actorGrassSubHurtDelta": 0.0,
                    "actorWindSubHurtDelta": 0.0,
                    "elementDurability": 0.0,
                    "ignoreAttackerProperty": true,
                    "strikeType": "Blunt",
                    "enBreak": 90.0,
                    "HMBONGBFIAP": ["DamageRatio", "DamageSystemValue", "MUL"],
                    "trueDamage": true,
                    "GLKMCMDJBIK": 0.0
                  },
                  "hitPattern": {
                    "onHitEffectName": "None",
                    "hitImpulseY": "",
                    "hitImpulseType": "LV5",
                    "hitHaltTimeScale": 0.05000000074505806
                  },
                  "canBeModifiedBy": "OriginOwner"
                }
              },
              "targetType": "Enemy"
            },
            {
              "$type": "RemoveModifier",
              "modifierName": "JellyfishBomb"
            }
          ]
        },
        "ExplodeDelay": {
          "modifierName": "",
          "duration": 0.20000000298023224,
          "elementDurability": 100.0,
          "onAdded": [
            {
              "$type": "SendEffectTrigger",
              "parameter": "Trigger",
              "attachPoint": "",
              "damageRatio": "Int",
              "value": 2,
              "rotationDampTime": "Eff_Avatar_Diving_Jellyfish_Boom_Hold"
            }
          ],
          "onRemoved": [
            {
              "$type": "KillSelf"
            }
          ]
        },
        "JellyfishBomb_Entity_Checker": {
          "modifierName": "",
          "elementDurability": 100.0
        },
        "JellyfishBomb_Gadget_Checker": {
          "modifierName": "",
          "elementDurability": 100.0,
          "onHittingOther": [
            {
              "$type": "Predicated",
              "target": "Other",
              "predicates": [
                {
                  "$type": "ByEntityTypes",
                  "entityTypes": ["Gadget"]
                }
              ],
              "targetPredicates": [
                {
                  "$type": "ByTargetGlobalValue",
                  "key": "_IS_InUnderseaBacDoor",
                  "value": 1.0
                },
                {
                  "$type": "FCOADDGEDOH",
                  "logic": "LesserOrEqual",
                  "value": 90.0
                },
                {
                  "$type": "ByAttackTags",
                  "attackTags": ["JellyFish_Bomb"]
                }
              ],
              "successActions": [
                {
                  "$type": "ApplyModifier",
                  "target": "Other",
                  "modifierName": "JellyFish_Bomb_Special_Tag_On_Gadget"
                }
              ]
            },
            {
              "$type": "Predicated",
              "target": "Other",
              "predicates": [
                {
                  "$type": "ByEntityTypes",
                  "entityTypes": ["Platform"]
                }
              ],
              "targetPredicates": [
                {
                  "$type": "ByTargetGlobalValue",
                  "key": "_IS_InUnderseaBacRes",
                  "value": 1.0
                },
                {
                  "$type": "FCOADDGEDOH",
                  "logic": "LesserOrEqual",
                  "value": 75.0
                },
                {
                  "$type": "ByAttackTags",
                  "attackTags": ["JellyFish_Bomb"]
                }
              ],
              "successActions": [
                {
                  "$type": "ApplyModifier",
                  "target": "Other",
                  "modifierName": "JellyFish_Bomb_Special_Tag_On_Gadget"
                }
              ]
            }
          ]
        },
        "JellyFish_Bomb_Special_Tag_On_Gadget": {
          "stacking": "Multiple",
          "modifierName": "",
          "duration": 1.0,
          "elementDurability": 100.0,
          "onAdded": [
            {
              "$type": "DamageByAttackValue",
              "attackInfo": {
                "attackTag": "JellyFish_Bomb_Special",
                "attenuationTag": "",
                "attenuationGroup": "default",
                "attackProperty": {
                  "actorGrassSubHurtDelta": 0.0,
                  "actorWindSubHurtDelta": 0.0,
                  "elementType": "Water",
                  "elementDurability": 25.0,
                  "strikeType": "Slash",
                  "enBreak": 150.0,
                  "attackType": "Melee",
                  "HMBONGBFIAP": 0.0,
                  "GLKMCMDJBIK": 0.0
                },
                "hitPattern": {
                  "onHitEffectName": "none",
                  "hitImpulseY": "",
                  "hitImpulseType": "LV0",
                  "hitHaltTimeScale": 0.009999999776482582,
                  "muteHitText": true
                }
              }
            }
          ]
        },
        "Hit_Scene_Stop": {
          "stacking": "Unique",
          "modifierName": "",
          "elementDurability": 100.0,
          "properties": {
            "Actor_BulletMoveSpeedRatio": -1.0
          },
          "onAdded": [
            {
              "$type": "SendEffectTrigger",
              "parameter": "Trigger",
              "attachPoint": "",
              "damageRatio": "Int",
              "value": 1,
              "rotationDampTime": "Eff_Avatar_Diving_Jellyfish_Boom_Hold"
            }
          ]
        }
      },
      "onAdded": [
        {
          "$type": "SetGlobalValue",
          "value": 0.0,
          "key": "_ABILITY_Jellyfish_Bomb_Kill_Mark",
          "maxValue": 0.0,
          "minValue": 0.0
        },
        {
          "$type": "SetGlobalDir",
          "key": "_ABILITY_JellyfishBomb_Hold_Initial_Dir",
          "born": {
            "$type": "ConfigBornBySelfOwner",
            "useRotation": true
          }
        },
        {
          "$type": "AttachModifier",
          "modifierName": "JellyfishBomb"
        },
        {
          "$type": "AttachModifier",
          "modifierName": "JellyfishBomb_Gadget_Checker"
        },
        {
          "$type": "GDHGMAPPGHD",
          "shieldHP": true,
          "key": "DamageSystemValue",
          "damageRatio": "ElementLevelCo"
        }
      ],
      "onAbilityStart": [
        {
          "$type": "ApplyModifier",
          "modifierName": "Hit_Scene_Stop"
        },
        {
          "$type": "EnableBulletCollisionPluginTrigger"
        }
      ]
    }
  }
]
