[
  {
    "Default": {
      "$type": "ConfigAbility",
      "abilityName": "ActivityAbility_MistTrialV4_Level_1",
      "abilityMixins": [
        {
          "$type": "JPPFBGJICKI",
          "key": "SGV_ABILITY_Mist4_Level",
          "useLimitRange": true,
          "maxValue": 4.0,
          "minValue": 1.0
        },
        {
          "$type": "AttachModifierToSelfGlobalValueNoInitMixin",
          "globalValueKey": "SGV_ABILITY_Mist4_Level",
          "valueSteps": [0.5, 1.5, 2.5, 3.5, 4.5],
          "modifierNameSteps": ["Blank", "Blank", "Blank", "Blank"],
          "actionQueues": [
            [
              {
                "$type": "SetOverrideMapValue",
                "value": "Mastery_Lv1",
                "overrideMapKey": "Override_Ratio",
                "maxValue": 0.0,
                "minValue": 0.0
              }
            ],
            [
              {
                "$type": "SetOverrideMapValue",
                "value": "Mastery_Lv2",
                "overrideMapKey": "Override_Ratio",
                "maxValue": 0.0,
                "minValue": 0.0
              }
            ],
            [
              {
                "$type": "SetOverrideMapValue",
                "value": "Mastery_Lv3",
                "overrideMapKey": "Override_Ratio",
                "maxValue": 0.0,
                "minValue": 0.0
              }
            ],
            [
              {
                "$type": "SetOverrideMapValue",
                "value": "Mastery_Lv4",
                "overrideMapKey": "Override_Ratio",
                "maxValue": 0.0,
                "minValue": 0.0
              }
            ]
          ],
          "NMCLMHFBALJ": true
        }
      ],
      "abilitySpecials": {
        "Override_Ratio": 0.0,
        "Buff_Duration": 0.0,
        "Mastery_Lv1": 0.0,
        "Mastery_Lv2": 0.0,
        "Mastery_Lv3": 0.0,
        "Mastery_Lv4": 0.0
      },
      "modifiers": {
        "MistTrialV4_Level1_Handler_OnTeam": {
          "modifierName": "",
          "elementDurability": 100.0,
          "thinkInterval": 2.0,
          "onAdded": [
            {
              "$type": "AttachModifier",
              "target": "CurTeamAvatars",
              "modifierName": "MistTrial4_Level1_Handler_OnAvatar"
            }
          ],
          "onThinkInterval": [
            {
              "$type": "AttachModifier",
              "target": "CurTeamAvatars",
              "modifierName": "MistTrial4_Level1_Handler_OnAvatar"
            }
          ]
        },
        "MistTrial4_Level1_Handler_OnAvatar": {
          "modifierName": "",
          "elementDurability": 100.0,
          "modifierMixins": [
            {
              "$type": "DoActionByElementReactionMixin",
              "range": 999999.0,
              "entityTypes": ["Monster"],
              "reactionTypes": ["Shock"],
              "actions": [
                {
                  "$type": "RemoveModifier",
                  "target": "AllPlayerAvatars",
                  "shieldHP": true,
                  "predicates": [
                    {
                      "$type": "ByTargetPositionToSelfPosition",
                      "logic": "LesserOrEqual",
                      "value": 40.0,
                      "DDALGNLEHOD": ""
                    }
                  ],
                  "modifierName": "MistTrial_Level1_Buff_ElemMasteryDelta"
                },
                {
                  "$type": "ApplyModifier",
                  "target": "AllPlayerAvatars",
                  "shieldHP": true,
                  "predicates": [
                    {
                      "$type": "ByTargetPositionToSelfPosition",
                      "logic": "LesserOrEqual",
                      "value": 40.0,
                      "DDALGNLEHOD": ""
                    }
                  ],
                  "modifierName": "MistTrial_Level1_Buff_ElemMasteryDelta"
                }
              ]
            }
          ]
        },
        "MistTrial_Level1_Buff_ElemMasteryDelta": {
          "stacking": "Multiple",
          "modifierName": "",
          "duration": "Buff_Duration",
          "elementDurability": 100.0,
          "properties": {
            "Actor_ElemMasteryDelta": "Override_Ratio"
          },
          "state": "AttackUp",
          "isLimitedProperties": true
        }
      },
      "onAdded": [
        {
          "$type": "AttachModifier",
          "modifierName": "MistTrialV4_Level1_Handler_OnTeam"
        }
      ],
      "isDynamicAbility": true
    }
  },
  {
    "Default": {
      "$type": "ConfigAbility",
      "abilityName": "ActivityAbility_MistTrialV4_Level_2",
      "abilityMixins": [
        {
          "$type": "JPPFBGJICKI",
          "key": "SGV_ABILITY_Mist4_Level",
          "useLimitRange": true,
          "maxValue": 4.0,
          "minValue": 1.0
        },
        {
          "$type": "AttachModifierToSelfGlobalValueNoInitMixin",
          "globalValueKey": "SGV_ABILITY_Mist4_Level",
          "valueSteps": [0.5, 1.5, 2.5, 3.5, 4.5],
          "modifierNameSteps": ["Blank", "Blank", "Blank", "Blank"],
          "actionQueues": [
            [
              {
                "$type": "SetOverrideMapValue",
                "value": "Critical_Ratio_Lv1",
                "overrideMapKey": "Override_Ratio_Crit",
                "maxValue": 0.0,
                "minValue": 0.0
              },
              {
                "$type": "SetOverrideMapValue",
                "value": "CriticalHurt_Ratio_Lv1",
                "overrideMapKey": "Override_Ratio_CritHurt",
                "maxValue": 0.0,
                "minValue": 0.0
              }
            ],
            [
              {
                "$type": "SetOverrideMapValue",
                "value": "Critical_Ratio_Lv2",
                "overrideMapKey": "Override_Ratio_Crit",
                "maxValue": 0.0,
                "minValue": 0.0
              },
              {
                "$type": "SetOverrideMapValue",
                "value": "CriticalHurt_Ratio_Lv2",
                "overrideMapKey": "Override_Ratio_CritHurt",
                "maxValue": 0.0,
                "minValue": 0.0
              }
            ],
            [
              {
                "$type": "SetOverrideMapValue",
                "value": "Critical_Ratio_Lv3",
                "overrideMapKey": "Override_Ratio_Crit",
                "maxValue": 0.0,
                "minValue": 0.0
              },
              {
                "$type": "SetOverrideMapValue",
                "value": "CriticalHurt_Ratio_Lv3",
                "overrideMapKey": "Override_Ratio_CritHurt",
                "maxValue": 0.0,
                "minValue": 0.0
              }
            ],
            [
              {
                "$type": "SetOverrideMapValue",
                "value": "Critical_Ratio_Lv4",
                "overrideMapKey": "Override_Ratio_Crit",
                "maxValue": 0.0,
                "minValue": 0.0
              },
              {
                "$type": "SetOverrideMapValue",
                "value": "CriticalHurt_Ratio_Lv4",
                "overrideMapKey": "Override_Ratio_CritHurt",
                "maxValue": 0.0,
                "minValue": 0.0
              }
            ]
          ],
          "NMCLMHFBALJ": true
        }
      ],
      "abilitySpecials": {
        "Override_Ratio_Crit": 0.0,
        "Override_Ratio_CritHurt": 0.0,
        "Buff_Duration": 0.0,
        "Critical_Ratio_Lv1": 0.0,
        "Critical_Ratio_Lv2": 0.0,
        "Critical_Ratio_Lv3": 0.0,
        "Critical_Ratio_Lv4": 0.0,
        "CriticalHurt_Ratio_Lv1": 0.0,
        "CriticalHurt_Ratio_Lv2": 0.0,
        "CriticalHurt_Ratio_Lv3": 0.0,
        "CriticalHurt_Ratio_Lv4": 0.0
      },
      "modifiers": {
        "MistTrialV4_Level2_Handler_OnTeam": {
          "modifierName": "",
          "elementDurability": 100.0,
          "thinkInterval": 2.0,
          "onAdded": [
            {
              "$type": "AttachModifier",
              "target": "CurTeamAvatars",
              "modifierName": "MistTrial4_Level2_Handler_OnAvatar"
            }
          ],
          "onThinkInterval": [
            {
              "$type": "AttachModifier",
              "target": "CurTeamAvatars",
              "modifierName": "MistTrial4_Level2_Handler_OnAvatar"
            }
          ]
        },
        "MistTrial4_Level2_Handler_OnAvatar": {
          "modifierName": "",
          "elementDurability": 100.0,
          "onAttackLanded": [
            {
              "$type": "Predicated",
              "target": "Other",
              "shieldHP": true,
              "targetPredicates": [
                {
                  "$type": "ByEntityTypes",
                  "entityTypes": ["Monster"]
                },
                {
                  "$type": "ByAttackTags",
                  "attackTags": ["ExtraAttack"]
                }
              ],
              "successActions": [
                {
                  "$type": "RemoveModifier",
                  "target": "AllPlayerAvatars",
                  "shieldHP": true,
                  "modifierName": "MistTrial_Level2_Buff_CritAndHurtlDelta"
                },
                {
                  "$type": "ApplyModifier",
                  "target": "AllPlayerAvatars",
                  "shieldHP": true,
                  "modifierName": "MistTrial_Level2_Buff_CritAndHurtlDelta"
                }
              ]
            }
          ]
        },
        "MistTrial_Level2_Buff_CritAndHurtlDelta": {
          "stacking": "Multiple",
          "modifierName": "",
          "duration": "Buff_Duration",
          "elementDurability": 100.0,
          "properties": {
            "Actor_CriticalDelta": "Override_Ratio_Crit",
            "Actor_CriticalHurtDelta": "Override_Ratio_CritHurt"
          },
          "state": "AttackUp",
          "isLimitedProperties": true
        }
      },
      "onAdded": [
        {
          "$type": "AttachModifier",
          "modifierName": "MistTrialV4_Level2_Handler_OnTeam"
        }
      ],
      "isDynamicAbility": true
    }
  },
  {
    "Default": {
      "$type": "ConfigAbility",
      "abilityName": "ActivityAbility_MistTrialV4_Level_3",
      "abilityMixins": [
        {
          "$type": "JPPFBGJICKI",
          "key": "SGV_ABILITY_Mist4_Level",
          "useLimitRange": true,
          "maxValue": 4.0,
          "minValue": 1.0
        },
        {
          "$type": "AttachModifierToSelfGlobalValueNoInitMixin",
          "globalValueKey": "SGV_ABILITY_Mist4_Level",
          "valueSteps": [0.5, 1.5, 2.5, 3.5, 4.5],
          "modifierNameSteps": ["Blank", "Blank", "Blank", "Blank"],
          "actionQueues": [
            [
              {
                "$type": "SetOverrideMapValue",
                "value": "Damage_Ratio_Lv1",
                "overrideMapKey": "Override_Ratio",
                "maxValue": 0.0,
                "minValue": 0.0
              }
            ],
            [
              {
                "$type": "SetOverrideMapValue",
                "value": "Damage_Ratio_Lv2",
                "overrideMapKey": "Override_Ratio",
                "maxValue": 0.0,
                "minValue": 0.0
              }
            ],
            [
              {
                "$type": "SetOverrideMapValue",
                "value": "Damage_Ratio_Lv3",
                "overrideMapKey": "Override_Ratio",
                "maxValue": 0.0,
                "minValue": 0.0
              }
            ],
            [
              {
                "$type": "SetOverrideMapValue",
                "value": "Damage_Ratio_Lv4",
                "overrideMapKey": "Override_Ratio",
                "maxValue": 0.0,
                "minValue": 0.0
              }
            ]
          ],
          "NMCLMHFBALJ": true
        }
      ],
      "abilitySpecials": {
        "Override_Ratio": 0.0,
        "Buff_Duration": 0.0,
        "Damage_Ratio_Lv1": 0.0,
        "Damage_Ratio_Lv2": 0.0,
        "Damage_Ratio_Lv3": 0.0,
        "Damage_Ratio_Lv4": 0.0
      },
      "modifiers": {
        "MistTrialV4_Level3_Handler_OnTeam": {
          "modifierName": "",
          "elementDurability": 100.0,
          "thinkInterval": 2.0,
          "onAdded": [
            {
              "$type": "AttachModifier",
              "target": "CurTeamAvatars",
              "modifierName": "MistTrial4_Level3_Handler_OnAvatar"
            }
          ],
          "onThinkInterval": [
            {
              "$type": "AttachModifier",
              "target": "CurTeamAvatars",
              "modifierName": "MistTrial4_Level3_Handler_OnAvatar"
            }
          ]
        },
        "MistTrial4_Level3_Handler_OnAvatar": {
          "modifierName": "",
          "elementDurability": 100.0,
          "modifierMixins": [
            {
              "$type": "DoActionByElementReactionMixin",
              "range": 999999.0,
              "entityTypes": ["Monster"],
              "reactionTypes": ["Freeze"],
              "actions": [
                {
                  "$type": "RemoveModifier",
                  "target": "AllPlayerAvatars",
                  "shieldHP": true,
                  "predicates": [
                    {
                      "$type": "ByTargetPositionToSelfPosition",
                      "logic": "LesserOrEqual",
                      "value": 40.0,
                      "DDALGNLEHOD": ""
                    }
                  ],
                  "modifierName": "MistTrial_Level3_Buff_DamageRatio"
                },
                {
                  "$type": "ApplyModifier",
                  "target": "AllPlayerAvatars",
                  "shieldHP": true,
                  "predicates": [
                    {
                      "$type": "ByTargetPositionToSelfPosition",
                      "logic": "LesserOrEqual",
                      "value": 40.0,
                      "DDALGNLEHOD": ""
                    }
                  ],
                  "modifierName": "MistTrial_Level3_Buff_DamageRatio"
                }
              ]
            }
          ]
        },
        "MistTrial_Level3_Buff_DamageRatio": {
          "stacking": "Multiple",
          "modifierName": "",
          "duration": "Buff_Duration",
          "elementDurability": 100.0,
          "modifierMixins": [
            {
              "$type": "ModifyDamageMixin",
              "ignoreEventInfo": true,
              "actorWindSubHurtDelta": "Override_Ratio"
            }
          ],
          "state": "AttackUp"
        }
      },
      "onAdded": [
        {
          "$type": "AttachModifier",
          "modifierName": "MistTrialV4_Level3_Handler_OnTeam"
        }
      ],
      "isDynamicAbility": true
    }
  },
  {
    "Default": {
      "$type": "ConfigAbility",
      "abilityName": "ActivityAbility_MistTrialV4_Level_4",
      "abilityMixins": [
        {
          "$type": "JPPFBGJICKI",
          "key": "SGV_ABILITY_Mist4_Level",
          "useLimitRange": true,
          "maxValue": 4.0,
          "minValue": 1.0
        },
        {
          "$type": "AttachModifierToSelfGlobalValueNoInitMixin",
          "globalValueKey": "SGV_ABILITY_Mist4_Level",
          "valueSteps": [0.5, 1.5, 2.5, 3.5, 4.5],
          "modifierNameSteps": ["Blank", "Blank", "Blank", "Blank"],
          "actionQueues": [
            [
              {
                "$type": "SetOverrideMapValue",
                "value": "MasteryUp_Lv1",
                "overrideMapKey": "Override_Ratio",
                "maxValue": 0.0,
                "minValue": 0.0
              }
            ],
            [
              {
                "$type": "SetOverrideMapValue",
                "value": "MasteryUp_Lv2",
                "overrideMapKey": "Override_Ratio",
                "maxValue": 0.0,
                "minValue": 0.0
              }
            ],
            [
              {
                "$type": "SetOverrideMapValue",
                "value": "MasteryUp_Lv3",
                "overrideMapKey": "Override_Ratio",
                "maxValue": 0.0,
                "minValue": 0.0
              }
            ],
            [
              {
                "$type": "SetOverrideMapValue",
                "value": "MasteryUp_Lv4",
                "overrideMapKey": "Override_Ratio",
                "maxValue": 0.0,
                "minValue": 0.0
              }
            ]
          ],
          "NMCLMHFBALJ": true
        }
      ],
      "abilitySpecials": {
        "Override_Ratio": 0.0,
        "Buff_Duration": 0.0,
        "MasteryUp_Lv1": 0.0,
        "MasteryUp_Lv2": 0.0,
        "MasteryUp_Lv3": 0.0,
        "MasteryUp_Lv4": 0.0
      },
      "modifiers": {
        "MistTrialV4_Level4_Handler_OnTeam": {
          "modifierName": "",
          "elementDurability": 100.0,
          "thinkInterval": 2.0,
          "onAdded": [
            {
              "$type": "AttachModifier",
              "target": "CurTeamAvatars",
              "modifierName": "MistTrial4_Level4_Handler_OnAvatar"
            }
          ],
          "onThinkInterval": [
            {
              "$type": "AttachModifier",
              "target": "CurTeamAvatars",
              "modifierName": "MistTrial4_Level4_Handler_OnAvatar"
            }
          ]
        },
        "MistTrial4_Level4_Handler_OnAvatar": {
          "modifierName": "",
          "elementDurability": 100.0,
          "modifierMixins": [
            {
              "$type": "DoActionByElementReactionMixin",
              "range": 999999.0,
              "entityTypes": ["Monster"],
              "reactionTypes": ["Overgrow", "OvergrowMushroomElectric"],
              "actions": [
                {
                  "$type": "RemoveModifier",
                  "target": "AllPlayerAvatars",
                  "shieldHP": true,
                  "predicates": [
                    {
                      "$type": "ByTargetPositionToSelfPosition",
                      "logic": "LesserOrEqual",
                      "value": 40.0,
                      "DDALGNLEHOD": ""
                    }
                  ],
                  "modifierName": "MistTrial_Level4_Buff_ElemMasteryDelta"
                },
                {
                  "$type": "ApplyModifier",
                  "target": "AllPlayerAvatars",
                  "shieldHP": true,
                  "predicates": [
                    {
                      "$type": "ByTargetPositionToSelfPosition",
                      "logic": "LesserOrEqual",
                      "value": 40.0,
                      "DDALGNLEHOD": ""
                    }
                  ],
                  "modifierName": "MistTrial_Level4_Buff_ElemMasteryDelta"
                }
              ]
            }
          ]
        },
        "MistTrial_Level4_Buff_ElemMasteryDelta": {
          "stacking": "MultipleAllRefresh",
          "stackingOption": {
            "abilitySpecialName": "",
            "maxModifierNumForMultipleType": 1.0,
            "enableMixedUnique": true
          },
          "modifierName": "",
          "duration": "Buff_Duration",
          "elementDurability": 100.0,
          "properties": {
            "Actor_ElemMasteryDelta": "Override_Ratio"
          },
          "state": "AttackUp",
          "isLimitedProperties": true
        }
      },
      "onAdded": [
        {
          "$type": "AttachModifier",
          "modifierName": "MistTrialV4_Level4_Handler_OnTeam"
        }
      ],
      "isDynamicAbility": true
    }
  },
  {
    "Default": {
      "$type": "ConfigAbility",
      "abilityName": "ActivityAbility_MistTrialV4_Level_5",
      "abilityMixins": [
        {
          "$type": "JPPFBGJICKI",
          "key": "SGV_ABILITY_Mist4_Level",
          "useLimitRange": true,
          "maxValue": 4.0,
          "minValue": 1.0
        },
        {
          "$type": "AttachModifierToSelfGlobalValueNoInitMixin",
          "globalValueKey": "SGV_ABILITY_Mist4_Level",
          "valueSteps": [0.5, 1.5, 2.5, 3.5, 4.5],
          "modifierNameSteps": ["Blank", "Blank", "Blank", "Blank"],
          "actionQueues": [
            [
              {
                "$type": "SetOverrideMapValue",
                "value": "SubHurt_Lv1",
                "overrideMapKey": "Override_Ratio",
                "maxValue": 0.0,
                "minValue": 0.0
              }
            ],
            [
              {
                "$type": "SetOverrideMapValue",
                "value": "SubHurt_Lv2",
                "overrideMapKey": "Override_Ratio",
                "maxValue": 0.0,
                "minValue": 0.0
              }
            ],
            [
              {
                "$type": "SetOverrideMapValue",
                "value": "SubHurt_Lv3",
                "overrideMapKey": "Override_Ratio",
                "maxValue": 0.0,
                "minValue": 0.0
              }
            ],
            [
              {
                "$type": "SetOverrideMapValue",
                "value": "SubHurt_Lv4",
                "overrideMapKey": "Override_Ratio",
                "maxValue": 0.0,
                "minValue": 0.0
              }
            ]
          ],
          "NMCLMHFBALJ": true
        }
      ],
      "abilitySpecials": {
        "Override_Ratio": 0.0,
        "Buff_Duration": 0.0,
        "SubHurt_Lv1": 0.0,
        "SubHurt_Lv2": 0.0,
        "SubHurt_Lv3": 0.0,
        "SubHurt_Lv4": 0.0,
        "SubHurt_Lv5": 0.0
      },
      "modifiers": {
        "MistTrial_Level5_Handler_OnTeam": {
          "modifierName": "",
          "elementDurability": 100.0,
          "thinkInterval": 2.0,
          "onAdded": [
            {
              "$type": "AttachModifier",
              "target": "CurTeamAvatars",
              "modifierName": "MistTrial_Level5_Handler_OnAvatar"
            }
          ],
          "onThinkInterval": [
            {
              "$type": "AttachModifier",
              "target": "CurTeamAvatars",
              "modifierName": "MistTrial_Level5_Handler_OnAvatar"
            }
          ]
        },
        "MistTrial_Level5_Handler_OnAvatar": {
          "modifierName": "",
          "elementDurability": 100.0,
          "onAttackLanded": [
            {
              "$type": "Predicated",
              "target": "Other",
              "targetPredicates": [
                {
                  "$type": "ByEntityTypes",
                  "entityTypes": ["Monster"]
                },
                {
                  "$type": "ByHasAbilityState",
                  "abilityState": "ElementOverdose"
                }
              ],
              "successActions": [
                {
                  "$type": "RemoveModifier",
                  "target": "Other",
                  "shieldHP": true,
                  "modifierName": "MistTrial_Level5_Buff_SubHurtlDelta"
                },
                {
                  "$type": "ApplyModifier",
                  "target": "Other",
                  "shieldHP": true,
                  "modifierName": "MistTrial_Level5_Buff_SubHurtlDelta"
                }
              ]
            }
          ]
        },
        "MistTrial_Level5_Buff_SubHurtlDelta": {
          "stacking": "Multiple",
          "modifierName": "",
          "duration": "Buff_Duration",
          "elementDurability": 100.0,
          "properties": {
            "Actor_ElecSubHurtDelta": [
              0.0,
              1.0,
              "Override_Ratio",
              "MUL",
              "SUB"
            ],
            "Actor_GrassSubHurtDelta": [
              0.0,
              1.0,
              "Override_Ratio",
              "MUL",
              "SUB"
            ]
          },
          "state": "DefenseDown",
          "isLimitedProperties": true
        }
      },
      "onAdded": [
        {
          "$type": "AttachModifier",
          "modifierName": "MistTrial_Level5_Handler_OnTeam"
        }
      ],
      "isDynamicAbility": true
    }
  },
  {
    "Default": {
      "$type": "ConfigAbility",
      "abilityName": "ActivityAbility_MistTrialV4_Level_6",
      "abilityMixins": [
        {
          "$type": "JPPFBGJICKI",
          "key": "SGV_ABILITY_Mist4_Level",
          "useLimitRange": true,
          "maxValue": 4.0,
          "minValue": 1.0
        },
        {
          "$type": "AttachModifierToSelfGlobalValueNoInitMixin",
          "globalValueKey": "SGV_ABILITY_Mist4_Level",
          "valueSteps": [0.5, 1.5, 2.5, 3.5, 4.5],
          "modifierNameSteps": ["Blank", "Blank", "Blank", "Blank"],
          "actionQueues": [
            [
              {
                "$type": "SetOverrideMapValue",
                "value": "Damage_Ratio_Lv1",
                "overrideMapKey": "Override_Ratio",
                "maxValue": 0.0,
                "minValue": 0.0
              }
            ],
            [
              {
                "$type": "SetOverrideMapValue",
                "value": "Damage_Ratio_Lv2",
                "overrideMapKey": "Override_Ratio",
                "maxValue": 0.0,
                "minValue": 0.0
              }
            ],
            [
              {
                "$type": "SetOverrideMapValue",
                "value": "Damage_Ratio_Lv3",
                "overrideMapKey": "Override_Ratio",
                "maxValue": 0.0,
                "minValue": 0.0
              }
            ],
            [
              {
                "$type": "SetOverrideMapValue",
                "value": "Damage_Ratio_Lv4",
                "overrideMapKey": "Override_Ratio",
                "maxValue": 0.0,
                "minValue": 0.0
              }
            ]
          ],
          "NMCLMHFBALJ": true
        }
      ],
      "abilitySpecials": {
        "Override_Ratio": 0.0,
        "Buff_Duration": 0.0,
        "Damage_Ratio_Lv1": 0.0,
        "Damage_Ratio_Lv2": 0.0,
        "Damage_Ratio_Lv3": 0.0,
        "Damage_Ratio_Lv4": 0.0
      },
      "modifiers": {
        "MistTrialV4_Level6_Handler_OnTeam": {
          "modifierName": "",
          "elementDurability": 100.0,
          "thinkInterval": 2.0,
          "onAdded": [
            {
              "$type": "AttachModifier",
              "target": "CurTeamAvatars",
              "modifierName": "MistTrial4_Level6_Handler_OnAvatar"
            }
          ],
          "onThinkInterval": [
            {
              "$type": "AttachModifier",
              "target": "CurTeamAvatars",
              "modifierName": "MistTrial4_Level6_Handler_OnAvatar"
            }
          ]
        },
        "MistTrial4_Level6_Handler_OnAvatar": {
          "modifierName": "",
          "elementDurability": 100.0,
          "modifierMixins": [
            {
              "$type": "DoActionByElementReactionMixin",
              "range": 999999.0,
              "entityTypes": ["Monster"],
              "reactionTypes": ["Stream"],
              "actions": [
                {
                  "$type": "RemoveModifier",
                  "target": "AllPlayerAvatars",
                  "shieldHP": true,
                  "predicates": [
                    {
                      "$type": "ByTargetPositionToSelfPosition",
                      "logic": "LesserOrEqual",
                      "value": 40.0,
                      "DDALGNLEHOD": ""
                    }
                  ],
                  "modifierName": "MistTrial_Level6_Buff_DamageRatio"
                },
                {
                  "$type": "ApplyModifier",
                  "target": "AllPlayerAvatars",
                  "shieldHP": true,
                  "predicates": [
                    {
                      "$type": "ByTargetPositionToSelfPosition",
                      "logic": "LesserOrEqual",
                      "value": 40.0,
                      "DDALGNLEHOD": ""
                    }
                  ],
                  "modifierName": "MistTrial_Level6_Buff_DamageRatio"
                }
              ]
            }
          ]
        },
        "MistTrial_Level6_Buff_DamageRatio": {
          "stacking": "Multiple",
          "modifierName": "",
          "duration": "Buff_Duration",
          "elementDurability": 100.0,
          "modifierMixins": [
            {
              "$type": "ModifyDamageMixin",
              "ignoreEventInfo": true,
              "actorWindSubHurtDelta": "Override_Ratio"
            }
          ],
          "state": "AttackUp"
        }
      },
      "onAdded": [
        {
          "$type": "AttachModifier",
          "modifierName": "MistTrialV4_Level6_Handler_OnTeam"
        }
      ],
      "isDynamicAbility": true
    }
  }
]
