[
  {
    "Default": {
      "$type": "ConfigAbility",
      "abilityName": "Activity_MagicWave_SkillButton",
      "onAbilityStart": [
        {
          "$type": "SetGlobalValue",
          "target": "Team",
          "shieldHP": true,
          "value": 0.0,
          "key": "_ABILITY_MagicWave_State",
          "maxValue": 0.0,
          "minValue": 0.0
        }
      ],
      "isDynamicAbility": true
    }
  },
  {
    "Default": {
      "$type": "ConfigAbility",
      "abilityName": "Avatar_Activity_MagicWave",
      "abilityMixins": [
        {
          "$type": "ButtonHoldChargeMixin",
          "skillID": 20067,
          "chargeTime": 0.20000000298023224,
          "secondChargeTime": 999999.0,
          "onBeginUncharged": [
            {
              "$type": "ResetAnimatorTrigger",
              "triggerID": "StartChannelTrigger"
            },
            {
              "$type": "RemoveModifier",
              "modifierName": "SetTrigger"
            }
          ],
          "onBeginCharged": [
            {
              "$type": "SetAnimatorTrigger",
              "triggerID": "StartChannelTrigger"
            }
          ],
          "onReleaseCharged": [
            {
              "$type": "SetAnimatorTrigger",
              "triggerID": "EndChannelTrigger"
            },
            {
              "$type": "ApplyModifier",
              "modifierName": "SetTrigger"
            }
          ],
          "onCancelCharged": [
            {
              "$type": "SetAnimatorTrigger",
              "triggerID": "EndChannelTrigger"
            }
          ],
          "chargeStateIDs": ["Channel_Loop"]
        },
        {
          "$type": "AttachToStateIDMixin",
          "stateIDs": ["Channel_BS", "Channel_Loop"],
          "modifierName": "Focus",
          "DGFCLAIDIFI": ""
        }
      ],
      "modifiers": {
        "Activity_MagicWave_Team_Switch": {
          "modifierName": "",
          "elementDurability": 100.0,
          "modifierMixins": [
            {
              "$type": "JPPFBGJICKI",
              "key": "_ABILITY_MagicWave_State",
              "maxValue": 0.0,
              "minValue": 0.0
            },
            {
              "$type": "AttachModifierToSelfGlobalValueMixin",
              "globalValueKey": "_ABILITY_MagicWave_State",
              "gvInTalk": 0.0,
              "valueSteps": [-0.5, 0.5, 1.5],
              "modifierNameSteps": ["Empty", "Activity_MagicWave_Team"]
            }
          ]
        },
        "Empty": {
          "modifierName": "",
          "elementDurability": 100.0
        },
        "Activity_MagicWave_Team": {
          "modifierName": "",
          "elementDurability": 100.0,
          "modifierMixins": [
            {
              "$type": "CurLocalAvatarMixinV2",
              "modifierName": "Activity_MagicWave_Avatar"
            }
          ]
        },
        "Activity_MagicWave_Avatar": {
          "modifierName": "",
          "elementDurability": 100.0,
          "onAdded": [
            {
              "$type": "MMEOBGGBNLK",
              "shieldHP": true,
              "skillID": 20062
            },
            {
              "$type": "PDFENCBHHAI",
              "shieldHP": true,
              "skillID": 20067
            },
            {
              "$type": "AttachModifier",
              "shieldHP": true,
              "modifierName": "MagicWave_SwitchSkill_Handler"
            }
          ],
          "onRemoved": [
            {
              "$type": "MMEOBGGBNLK",
              "shieldHP": true
            },
            {
              "$type": "KFOBADMAFJF",
              "shieldHP": true,
              "skillID": 20067,
              "refreshAfterRemove": true
            }
          ],
          "onAvatarIn": [
            {
              "$type": "MMEOBGGBNLK",
              "shieldHP": true,
              "skillID": 20062
            }
          ]
        },
        "MagicWave_SwitchSkill_Handler": {
          "modifierName": "",
          "elementDurability": 100.0,
          "modifierMixins": [
            {
              "$type": "SwitchSkillIDMixin",
              "priority": "AvatarSpecial",
              "skillIndex": 1,
              "skillID": 20067
            }
          ]
        },
        "SetTrigger": {
          "modifierName": "",
          "duration": 0.15000000596046448,
          "elementDurability": 100.0,
          "onRemoved": [
            {
              "$type": "SetAnimatorTrigger",
              "triggerID": "EndChannelTrigger"
            }
          ]
        },
        "Focus": {
          "modifierName": "",
          "elementDurability": 100.0,
          "thinkInterval": 0.20000000298023224,
          "modifierMixins": [
            {
              "$type": "PBIEAKMPGAE",
              "entityTypes": ["Monster", "Gadget"],
              "colliderNodeName": "PRIVATE_RayCast",
              "FKECHNGFOEG": -1.0,
              "actionQueue": [
                {
                  "$type": "SetSelfAttackTarget",
                  "target": "Target",
                  "predicates": [
                    {
                      "$type": "ByEntityTypes",
                      "entityTypes": ["Monster", "Gadget"]
                    },
                    {
                      "$type": "JHAJOBAACDP",
                      "tag": "WaterGunTarget"
                    },
                    {
                      "$type": "ByTargetGlobalValue",
                      "key": "_ANIMAL_ENTITY_TYPE",
                      "value": 0.0,
                      "compareType": "NoneOrEqual"
                    },
                    {
                      "$type": "ByNot",
                      "predicates": [
                        {
                          "$type": "PBNMMCGHGHK"
                        }
                      ]
                    }
                  ]
                },
                {
                  "$type": "SetTargetToTargetKey",
                  "target": "SelfAttackTarget",
                  "targetKey": "_TempTarget"
                },
                {
                  "$type": "SetGlobalValue",
                  "target": "Target",
                  "shieldHP": true,
                  "predicates": [
                    {
                      "$type": "BFLHPEICOEP",
                      "namedTransform": "ConnectPoint1"
                    },
                    {
                      "$type": "JHAJOBAACDP",
                      "tag": "WaterGunTarget"
                    }
                  ],
                  "value": 3.0,
                  "key": "gv_ConnectType",
                  "maxValue": 0.0,
                  "minValue": 0.0
                },
                {
                  "$type": "SetGlobalValue",
                  "target": "Target",
                  "shieldHP": true,
                  "predicates": [
                    {
                      "$type": "BFLHPEICOEP",
                      "namedTransform": "ConnectPoint2"
                    },
                    {
                      "$type": "JHAJOBAACDP",
                      "tag": "WaterGunTarget"
                    }
                  ],
                  "value": 4.0,
                  "key": "gv_ConnectType",
                  "maxValue": 0.0,
                  "minValue": 0.0
                }
              ],
              "onLeaveScopeActionQueue": [
                {
                  "$type": "SetGlobalValue",
                  "target": "TempTarget",
                  "shieldHP": true,
                  "fishtankMap": {
                    "ALBJEAMOFLG": "_TempTarget"
                  },
                  "value": 0.0,
                  "key": "gv_ConnectType",
                  "maxValue": 0.0,
                  "minValue": 0.0
                },
                {
                  "$type": "ClearLockTarget",
                  "onlyAvatar": false
                }
              ],
              "onRemoveActionQueue": [
                {
                  "$type": "SetGlobalValue",
                  "target": "TempTarget",
                  "shieldHP": true,
                  "fishtankMap": {
                    "ALBJEAMOFLG": "_TempTarget"
                  },
                  "value": 0.0,
                  "key": "gv_ConnectType",
                  "maxValue": 0.0,
                  "minValue": 0.0
                },
                {
                  "$type": "ClearLockTarget",
                  "onlyAvatar": false
                }
              ],
              "aimType": "OneInScope",
              "cd": ["ConnectPoint1", "ConnectPoint2"]
            }
          ],
          "onAdded": [
            {
              "$type": "Predicated",
              "targetPredicates": [
                {
                  "$type": "ByTargetGlobalValue",
                  "key": "_ABILITY_Diving_InDive_Mark",
                  "value": 0.0,
                  "compareType": "NoneOrEqual"
                }
              ],
              "successActions": [
                {
                  "$type": "Predicated",
                  "targetPredicates": [
                    {
                      "$type": "BGMAGODJEMF",
                      "featureTagIDs": [1044]
                    }
                  ],
                  "successActions": [
                    {
                      "$type": "AvatarEnterFocus",
                      "cameraFollowLower": {
                        "x": 0.3499999940395355,
                        "y": 0.9599999785423279,
                        "z": -5.0
                      },
                      "cameraFollowUpper": {
                        "x": 0.3499999940395355,
                        "y": 0.9599999785423279,
                        "z": -4.599999904632568
                      },
                      "cameraFastFocusMode": true,
                      "dragButtonName": "Skill2",
                      "assistance": {
                        "ps4": {},
                        "ps5": {},
                        "other": {
                          "useGyro": true
                        }
                      },
                      "canMove": false,
                      "OMHGAKJIEFB": ""
                    }
                  ]
                },
                {
                  "$type": "Predicated",
                  "targetPredicates": [
                    {
                      "$type": "BGMAGODJEMF",
                      "featureTagIDs": [1043]
                    }
                  ],
                  "successActions": [
                    {
                      "$type": "AvatarEnterFocus",
                      "cameraFollowLower": {
                        "x": 0.3499999940395355,
                        "y": 0.9599999785423279,
                        "z": -5.0
                      },
                      "cameraFollowUpper": {
                        "x": 0.3499999940395355,
                        "y": 0.9599999785423279,
                        "z": -4.599999904632568
                      },
                      "cameraFastFocusMode": true,
                      "dragButtonName": "Skill2",
                      "assistance": {
                        "ps4": {},
                        "ps5": {},
                        "other": {
                          "useGyro": true
                        }
                      },
                      "canMove": false,
                      "OMHGAKJIEFB": ""
                    }
                  ]
                },
                {
                  "$type": "Predicated",
                  "targetPredicates": [
                    {
                      "$type": "BGMAGODJEMF",
                      "featureTagIDs": [1042]
                    }
                  ],
                  "successActions": [
                    {
                      "$type": "AvatarEnterFocus",
                      "cameraFollowLower": {
                        "x": 0.3499999940395355,
                        "y": 1.059999942779541,
                        "z": -5.0
                      },
                      "cameraFollowUpper": {
                        "x": 0.3499999940395355,
                        "y": 1.059999942779541,
                        "z": -4.599999904632568
                      },
                      "cameraFastFocusMode": true,
                      "dragButtonName": "Skill2",
                      "assistance": {
                        "ps4": {},
                        "ps5": {},
                        "other": {
                          "useGyro": true
                        }
                      },
                      "canMove": false,
                      "OMHGAKJIEFB": ""
                    }
                  ]
                },
                {
                  "$type": "Predicated",
                  "targetPredicates": [
                    {
                      "$type": "BGMAGODJEMF",
                      "featureTagIDs": [1041]
                    }
                  ],
                  "successActions": [
                    {
                      "$type": "AvatarEnterFocus",
                      "cameraFollowLower": {
                        "x": 0.3499999940395355,
                        "y": 1.159999966621399,
                        "z": -5.0
                      },
                      "cameraFollowUpper": {
                        "x": 0.3499999940395355,
                        "y": 1.159999966621399,
                        "z": -4.599999904632568
                      },
                      "cameraFastFocusMode": true,
                      "dragButtonName": "Skill2",
                      "assistance": {
                        "ps4": {},
                        "ps5": {},
                        "other": {
                          "useGyro": true
                        }
                      },
                      "canMove": false,
                      "OMHGAKJIEFB": ""
                    }
                  ]
                },
                {
                  "$type": "Predicated",
                  "targetPredicates": [
                    {
                      "$type": "BGMAGODJEMF",
                      "featureTagIDs": [1045]
                    }
                  ],
                  "successActions": [
                    {
                      "$type": "AvatarEnterFocus",
                      "cameraFollowLower": {
                        "x": 0.3499999940395355,
                        "y": 0.6600000262260437,
                        "z": -5.0
                      },
                      "cameraFollowUpper": {
                        "x": 0.3499999940395355,
                        "y": 0.6600000262260437,
                        "z": -4.599999904632568
                      },
                      "cameraFastFocusMode": true,
                      "dragButtonName": "Skill2",
                      "assistance": {
                        "ps4": {},
                        "ps5": {},
                        "other": {
                          "useGyro": true
                        }
                      },
                      "canMove": false,
                      "OMHGAKJIEFB": ""
                    }
                  ]
                }
              ],
              "failActions": [
                {
                  "$type": "AvatarEnterFocus",
                  "cameraFollowLower": {
                    "x": 0.3499999940395355,
                    "y": 0.9599999785423279,
                    "z": -5.0
                  },
                  "cameraFollowUpper": {
                    "x": 0.3499999940395355,
                    "y": 0.9599999785423279,
                    "z": -4.599999904632568
                  },
                  "cameraFastFocusMode": true,
                  "dragButtonName": "Skill2",
                  "assistance": {
                    "ps4": {},
                    "ps5": {},
                    "other": {
                      "useGyro": true
                    }
                  },
                  "canMove": false,
                  "OMHGAKJIEFB": ""
                }
              ]
            }
          ],
          "onRemoved": [
            {
              "$type": "AvatarExitFocus",
              "keepRotation": true
            }
          ],
          "onThinkInterval": [
            {
              "$type": "ApplyModifier",
              "target": "TempTarget",
              "fishtankMap": {
                "ALBJEAMOFLG": "_TempTarget"
              },
              "modifierName": "CaptureBeam"
            },
            {
              "$type": "DamageByAttackValue",
              "target": "TempTarget",
              "fishtankMap": {
                "ALBJEAMOFLG": "_TempTarget"
              },
              "attackInfo": {
                "attackTag": "WaterGun",
                "attenuationTag": "",
                "attenuationGroup": "default",
                "attackProperty": {
                  "actorGrassSubHurtDelta": 0.20000000298023224,
                  "actorWindSubHurtDelta": 0.0,
                  "elementDurability": 0.0,
                  "strikeType": "Default",
                  "HMBONGBFIAP": 0.0,
                  "trueDamage": true,
                  "GLKMCMDJBIK": 0.0
                },
                "hitPattern": {
                  "onHitEffectName": "default",
                  "hitImpulseY": "",
                  "hitImpulseType": "LV1",
                  "hitHaltTimeScale": 0.05000000074505806
                }
              }
            }
          ]
        },
        "Lock_Eff": {
          "modifierName": "",
          "duration": 10.0,
          "elementDurability": 100.0,
          "onAdded": [
            {
              "$type": "AttachEffect",
              "rotationDampTime": "Eff_Avatar_Diving_Absorb_Lock",
              "PPPDJGDDOGD": 1.0,
              "AJDILHJFNKE": -1.0
            }
          ]
        },
        "CaptureBeam": {
          "modifierName": "",
          "duration": 0.5,
          "elementDurability": 100.0,
          "modifierMixins": [
            {
              "$type": "AttachModifierToGlobalValueMixin",
              "globalValueKey": "gv_ConnectType",
              "valueSteps": [-0.5, 0.5, 3.5, 4.5],
              "modifierNameSteps": [
                "NoEffect",
                "ConnectEffect1",
                "ConnectEffect2"
              ]
            }
          ],
          "onAdded": [
            {
              "$type": "SetTargetToTargetKey",
              "target": "Caster",
              "targetKey": "_TempAvatarTarget"
            }
          ],
          "onRemoved": [
            {
              "$type": "SetGlobalValue",
              "value": 0.0,
              "key": "gv_ConnectType",
              "maxValue": 0.0,
              "minValue": 0.0
            }
          ]
        },
        "NoEffect": {
          "modifierName": "",
          "elementDurability": 100.0
        },
        "ConnectEffect1": {
          "modifierName": "",
          "elementDurability": 100.0,
          "onAdded": [
            {
              "$type": "AttachEffect",
              "target": "Caster",
              "rotationDampTime": "Eff_Avatar_Diving_SprayGun_Bullet",
              "PPPDJGDDOGD": 1.0,
              "AJDILHJFNKE": -1.0,
              "setSelfAsEffectPluginTarget": true
            }
          ]
        },
        "ConnectEffect2": {
          "modifierName": "",
          "elementDurability": 100.0,
          "onAdded": [
            {
              "$type": "AttachEffect",
              "target": "Caster",
              "rotationDampTime": "Eff_Avatar_Diving_SprayGun_Bullet_1",
              "PPPDJGDDOGD": 1.0,
              "AJDILHJFNKE": -1.0,
              "setSelfAsEffectPluginTarget": true
            }
          ]
        },
        "Bullet": {
          "modifierName": "",
          "elementDurability": 100.0,
          "thinkInterval": 0.20000000298023224,
          "onAdded": [
            {
              "$type": "SetTargetToTargetKey",
              "target": "SelfAttackTarget",
              "targetKey": "_TempTarget"
            },
            {
              "$type": "ApplyModifier",
              "target": "TempTarget",
              "fishtankMap": {
                "ALBJEAMOFLG": "_TempTarget"
              },
              "modifierName": "CaptureBeam"
            },
            {
              "$type": "DamageByAttackValue",
              "target": "TempTarget",
              "fishtankMap": {
                "ALBJEAMOFLG": "_TempTarget"
              },
              "attackInfo": {
                "attackTag": "WaterGun",
                "attenuationTag": "",
                "attenuationGroup": "default",
                "attackProperty": {
                  "actorGrassSubHurtDelta": 0.20000000298023224,
                  "actorWindSubHurtDelta": 0.0,
                  "elementDurability": 0.0,
                  "strikeType": "Default",
                  "HMBONGBFIAP": 0.0,
                  "trueDamage": true,
                  "GLKMCMDJBIK": 0.0
                },
                "hitPattern": {
                  "onHitEffectName": "default",
                  "hitImpulseY": "",
                  "hitImpulseType": "LV1",
                  "hitHaltTimeScale": 0.05000000074505806
                }
              }
            }
          ],
          "onRemoved": [
            {
              "$type": "GCHLGDKBHCC",
              "gadgetInfo": {
                "configID": 40034201
              },
              "forceKillTime": 1.5
            },
            {
              "$type": "KillSelf",
              "otherTargets": {
                "$type": "SelectTargetsByChildren",
                "configID": 40034201
              }
            }
          ],
          "onThinkInterval": [
            {
              "$type": "SetTargetToTargetKey",
              "target": "SelfAttackTarget",
              "targetKey": "_TempTarget"
            },
            {
              "$type": "ApplyModifier",
              "target": "TempTarget",
              "fishtankMap": {
                "ALBJEAMOFLG": "_TempTarget"
              },
              "modifierName": "CaptureBeam"
            },
            {
              "$type": "DamageByAttackValue",
              "target": "TempTarget",
              "fishtankMap": {
                "ALBJEAMOFLG": "_TempTarget"
              },
              "attackInfo": {
                "attackTag": "WaterGun",
                "attenuationTag": "",
                "attenuationGroup": "default",
                "attackProperty": {
                  "actorGrassSubHurtDelta": 0.20000000298023224,
                  "actorWindSubHurtDelta": 0.0,
                  "elementDurability": 0.0,
                  "strikeType": "Default",
                  "HMBONGBFIAP": 0.0,
                  "trueDamage": true,
                  "GLKMCMDJBIK": 0.0
                },
                "hitPattern": {
                  "onHitEffectName": "default",
                  "hitImpulseY": "",
                  "hitImpulseType": "LV1",
                  "hitHaltTimeScale": 0.05000000074505806
                }
              }
            }
          ]
        }
      },
      "onAdded": [
        {
          "$type": "SetGlobalValue",
          "target": "Team",
          "shieldHP": true,
          "value": 0.0,
          "key": "_ABILITY_MagicWave_State",
          "maxValue": 0.0,
          "minValue": 0.0
        },
        {
          "$type": "AttachModifier",
          "target": "Team",
          "shieldHP": true,
          "modifierName": "Activity_MagicWave_Team_Switch"
        }
      ],
      "isDynamicAbility": true
    }
  }
]
