[
  {
    "Default": {
      "$type": "ConfigAbility",
      "abilityName": "Activity_Bartender_Ban_Skill",
      "modifiers": {
        "UNIQUE_Activity_Bartender_Ban_Skill_Modifier": {
          "modifierName": "",
          "forceTriggerWhenChangeAuthority": true,
          "elementDurability": 100.0,
          "onAdded": [
            {
              "$type": "PPDJHLBHCIK",
              "shieldHP": true,
              "canBeHandledOnRecover": true,
              "muteRemoteAction": true,
              "toPlayMode": "Bartender"
            }
          ],
          "onRemoved": [
            {
              "$type": "PPDJHLBHCIK",
              "shieldHP": true,
              "muteRemoteAction": true,
              "JFDCCIECAJB": "Bartender"
            }
          ]
        }
      },
      "onAdded": [
        {
          "$type": "ApplyModifier",
          "modifierName": "UNIQUE_Activity_Bartender_Ban_Skill_Modifier"
        }
      ],
      "onRemoved": [
        {
          "$type": "RemoveModifier",
          "modifierName": "UNIQUE_Activity_Bartender_Ban_Skill_Modifier"
        }
      ],
      "isDynamicAbility": true
    }
  }
]
