[
  {
    "Default": {
      "$type": "ConfigAbility",
      "abilityName": "ActivityAbility_CrystalLink_TriggerV2_StreamReaction",
      "abilitySpecials": {
        "TriggerCD": 0.0
      },
      "modifiers": {
        "Activity_CrystalLink_TriggerV2_StreamReaction": {
          "modifierName": "",
          "elementDurability": 100.0,
          "modifierMixins": [
            {
              "$type": "DoActionByElementReactionMixin",
              "entityTypes": ["Monster"],
              "reactionTypes": ["Stream"],
              "actions": [
                {
                  "$type": "Predicated",
                  "target": "Caster",
                  "shieldHP": true,
                  "targetPredicates": [
                    {
                      "$type": "ByTargetGlobalValue",
                      "target": "Caster",
                      "key": "StreamReaction_CDState",
                      "value": 0.0,
                      "compareType": "NoneOrEqual"
                    }
                  ],
                  "successActions": [
                    {
                      "$type": "EPIMHDNFGBE",
                      "shieldHP": true,
                      "id": 19
                    },
                    {
                      "$type": "AHPEKICBIIL",
                      "shieldHP": true,
                      "luaCallType": "CurGalleryControlGroup",
                      "funcName": "SLC_Add_Fever",
                      "param1": 0.0,
                      "MGAMDEHMCOL": 0.0,
                      "MMHOHAOGPLP": 0.0
                    },
                    {
                      "$type": "ApplyModifier",
                      "shieldHP": true,
                      "modifierName": "UNIQUE_Activity_CrystalLink_TriggerV2_StreamReaction_CD"
                    }
                  ]
                }
              ]
            }
          ]
        },
        "UNIQUE_Activity_CrystalLink_TriggerV2_StreamReaction_CD": {
          "stacking": "Unique",
          "modifierName": "",
          "forceTriggerWhenChangeAuthority": true,
          "duration": "TriggerCD",
          "elementDurability": 100.0,
          "onAdded": [
            {
              "$type": "SetGlobalValue",
              "shieldHP": true,
              "value": -1.0,
              "key": "StreamReaction_CDState",
              "maxValue": 0.0,
              "minValue": 0.0
            }
          ],
          "onRemoved": [
            {
              "$type": "SetGlobalValue",
              "shieldHP": true,
              "value": 0.0,
              "key": "StreamReaction_CDState",
              "maxValue": 0.0,
              "minValue": 0.0
            }
          ]
        }
      },
      "onAdded": [
        {
          "$type": "AttachModifier",
          "modifierName": "Activity_CrystalLink_TriggerV2_StreamReaction"
        }
      ],
      "isDynamicAbility": true
    }
  },
  {
    "Default": {
      "$type": "ConfigAbility",
      "abilityName": "ActivityAbility_CrystalLink_TriggerV2_FireDamage",
      "abilitySpecials": {
        "TriggerCD": 0.0
      },
      "modifiers": {
        "Activity_CrystalLink_TriggerV2_FireDamage": {
          "modifierName": "",
          "elementDurability": 100.0,
          "onAttackLanded": [
            {
              "$type": "Predicated",
              "target": "Other",
              "shieldHP": true,
              "targetPredicates": [
                {
                  "$type": "ByHitElement",
                  "element": "Fire"
                },
                {
                  "$type": "ByHitDamage",
                  "target": "Other",
                  "damage": 0.0
                },
                {
                  "$type": "ByTargetGlobalValue",
                  "target": "Caster",
                  "key": "FireDamage_CDState",
                  "value": 0.0,
                  "compareType": "NoneOrEqual"
                },
                {
                  "$type": "ByAttackTags",
                  "attackTags": [
                    "NormalAttack_01",
                    "NormalAttack_02",
                    "NormalAttack_03",
                    "NormalAttack_04",
                    "NormalAttack_05",
                    "NormalAttack_06",
                    "ExtraAttack",
                    "FallingAttack",
                    "Elemental_Art",
                    "Elemental_Art_Hold",
                    "Elemental_Art_Extra",
                    "Elemental_Burst"
                  ]
                }
              ],
              "successActions": [
                {
                  "$type": "EPIMHDNFGBE",
                  "shieldHP": true,
                  "id": 20
                },
                {
                  "$type": "AHPEKICBIIL",
                  "shieldHP": true,
                  "luaCallType": "CurGalleryControlGroup",
                  "funcName": "SLC_Add_Fever",
                  "param1": 0.0,
                  "MGAMDEHMCOL": 0.0,
                  "MMHOHAOGPLP": 0.0
                },
                {
                  "$type": "ApplyModifier",
                  "shieldHP": true,
                  "modifierName": "UNIQUE_Activity_CrystalLink_TriggerV2_FireDamage_CD"
                }
              ]
            }
          ]
        },
        "UNIQUE_Activity_CrystalLink_TriggerV2_FireDamage_CD": {
          "stacking": "Unique",
          "modifierName": "",
          "forceTriggerWhenChangeAuthority": true,
          "duration": "TriggerCD",
          "elementDurability": 100.0,
          "onAdded": [
            {
              "$type": "SetGlobalValue",
              "shieldHP": true,
              "value": -1.0,
              "key": "FireDamage_CDState",
              "maxValue": 0.0,
              "minValue": 0.0
            }
          ],
          "onRemoved": [
            {
              "$type": "SetGlobalValue",
              "shieldHP": true,
              "value": 0.0,
              "key": "FireDamage_CDState",
              "maxValue": 0.0,
              "minValue": 0.0
            }
          ]
        }
      },
      "onAdded": [
        {
          "$type": "AttachModifier",
          "modifierName": "Activity_CrystalLink_TriggerV2_FireDamage"
        }
      ],
      "isDynamicAbility": true
    }
  },
  {
    "Default": {
      "$type": "ConfigAbility",
      "abilityName": "ActivityAbility_CrystalLink_TriggerV2_UseArtSkill",
      "abilitySpecials": {
        "TriggerCD": 0.0
      },
      "modifiers": {
        "Activity_CrystalLink_TriggerV2_UseArtSkill": {
          "modifierName": "",
          "elementDurability": 100.0,
          "modifierMixins": [
            {
              "$type": "OnAvatarUseSkillMixin",
              "onTriggerSkill": [
                {
                  "$type": "Predicated",
                  "target": "Caster",
                  "targetPredicates": [
                    {
                      "$type": "ByTargetGlobalValue",
                      "target": "Self",
                      "key": "UseArtSkill_CDState",
                      "value": 0.0,
                      "compareType": "NoneOrEqual"
                    }
                  ],
                  "successActions": [
                    {
                      "$type": "EPIMHDNFGBE",
                      "id": 21
                    },
                    {
                      "$type": "AHPEKICBIIL",
                      "luaCallType": "CurGalleryControlGroup",
                      "funcName": "SLC_Add_Fever",
                      "param1": 0.0,
                      "MGAMDEHMCOL": 0.0,
                      "MMHOHAOGPLP": 0.0
                    },
                    {
                      "$type": "ApplyModifier",
                      "modifierName": "UNIQUE_Activity_CrystalLink_TriggerV2_UseArtSkill_CD"
                    }
                  ]
                }
              ],
              "clearSkillIdDelay": 0.20000000298023224
            }
          ]
        },
        "UNIQUE_Activity_CrystalLink_TriggerV2_UseArtSkill_CD": {
          "stacking": "Unique",
          "modifierName": "",
          "forceTriggerWhenChangeAuthority": true,
          "duration": "TriggerCD",
          "elementDurability": 100.0,
          "onAdded": [
            {
              "$type": "SetGlobalValue",
              "shieldHP": true,
              "value": -1.0,
              "key": "UseArtSkill_CDState",
              "maxValue": 0.0,
              "minValue": 0.0
            }
          ],
          "onRemoved": [
            {
              "$type": "SetGlobalValue",
              "shieldHP": true,
              "value": 0.0,
              "key": "UseArtSkill_CDState",
              "maxValue": 0.0,
              "minValue": 0.0
            }
          ]
        }
      },
      "onAdded": [
        {
          "$type": "AttachModifier",
          "modifierName": "Activity_CrystalLink_TriggerV2_UseArtSkill"
        }
      ],
      "isDynamicAbility": true
    }
  },
  {
    "Default": {
      "$type": "ConfigAbility",
      "abilityName": "ActivityAbility_CrystalLink_TriggerV2_WindDamage",
      "abilitySpecials": {
        "TriggerCD": 0.0
      },
      "modifiers": {
        "Activity_CrystalLink_TriggerV2_WindDamage": {
          "modifierName": "",
          "elementDurability": 100.0,
          "onAttackLanded": [
            {
              "$type": "Predicated",
              "target": "Other",
              "shieldHP": true,
              "targetPredicates": [
                {
                  "$type": "ByHitElement",
                  "element": "Wind"
                },
                {
                  "$type": "ByHitDamage",
                  "target": "Other",
                  "damage": 0.0
                },
                {
                  "$type": "ByTargetGlobalValue",
                  "target": "Caster",
                  "key": "WindDamage_CDState",
                  "value": 0.0,
                  "compareType": "NoneOrEqual"
                }
              ],
              "successActions": [
                {
                  "$type": "EPIMHDNFGBE",
                  "shieldHP": true,
                  "id": 22
                },
                {
                  "$type": "AHPEKICBIIL",
                  "shieldHP": true,
                  "luaCallType": "CurGalleryControlGroup",
                  "funcName": "SLC_Add_Fever",
                  "param1": 0.0,
                  "MGAMDEHMCOL": 0.0,
                  "MMHOHAOGPLP": 0.0
                },
                {
                  "$type": "ApplyModifier",
                  "shieldHP": true,
                  "modifierName": "UNIQUE_Activity_CrystalLink_TriggerV2_WindDamage_CD"
                }
              ]
            }
          ]
        },
        "UNIQUE_Activity_CrystalLink_TriggerV2_WindDamage_CD": {
          "stacking": "Unique",
          "modifierName": "",
          "forceTriggerWhenChangeAuthority": true,
          "duration": "TriggerCD",
          "elementDurability": 100.0,
          "onAdded": [
            {
              "$type": "SetGlobalValue",
              "shieldHP": true,
              "value": -1.0,
              "key": "WindDamage_CDState",
              "maxValue": 0.0,
              "minValue": 0.0
            }
          ],
          "onRemoved": [
            {
              "$type": "SetGlobalValue",
              "shieldHP": true,
              "value": 0.0,
              "key": "WindDamage_CDState",
              "maxValue": 0.0,
              "minValue": 0.0
            }
          ]
        }
      },
      "onAdded": [
        {
          "$type": "AttachModifier",
          "modifierName": "Activity_CrystalLink_TriggerV2_WindDamage"
        }
      ],
      "isDynamicAbility": true
    }
  },
  {
    "Default": {
      "$type": "ConfigAbility",
      "abilityName": "ActivityAbility_CrystalLink_TriggerV2_SwirlReaction",
      "abilitySpecials": {
        "TriggerCD": 0.0
      },
      "modifiers": {
        "Activity_CrystalLink_TriggerV2_SwirlReaction": {
          "modifierName": "",
          "elementDurability": 100.0,
          "modifierMixins": [
            {
              "$type": "DoActionByElementReactionMixin",
              "entityTypes": ["Monster"],
              "reactionTypes": [
                "SwirlFire",
                "SwirlWater",
                "SwirlElectric",
                "SwirlIce"
              ],
              "actions": [
                {
                  "$type": "Predicated",
                  "target": "Caster",
                  "shieldHP": true,
                  "targetPredicates": [
                    {
                      "$type": "ByTargetGlobalValue",
                      "target": "Caster",
                      "key": "SwirlReaction_CDState",
                      "value": 0.0,
                      "compareType": "NoneOrEqual"
                    }
                  ],
                  "successActions": [
                    {
                      "$type": "EPIMHDNFGBE",
                      "shieldHP": true,
                      "id": 23
                    },
                    {
                      "$type": "AHPEKICBIIL",
                      "shieldHP": true,
                      "luaCallType": "CurGalleryControlGroup",
                      "funcName": "SLC_Add_Fever",
                      "param1": 0.0,
                      "MGAMDEHMCOL": 0.0,
                      "MMHOHAOGPLP": 0.0
                    },
                    {
                      "$type": "ApplyModifier",
                      "shieldHP": true,
                      "modifierName": "UNIQUE_Activity_CrystalLink_TriggerV2_SwirlReaction_CD"
                    }
                  ]
                }
              ]
            }
          ]
        },
        "UNIQUE_Activity_CrystalLink_TriggerV2_SwirlReaction_CD": {
          "stacking": "Unique",
          "modifierName": "",
          "forceTriggerWhenChangeAuthority": true,
          "duration": "TriggerCD",
          "elementDurability": 100.0,
          "onAdded": [
            {
              "$type": "SetGlobalValue",
              "shieldHP": true,
              "value": -1.0,
              "key": "SwirlReaction_CDState",
              "maxValue": 0.0,
              "minValue": 0.0
            }
          ],
          "onRemoved": [
            {
              "$type": "SetGlobalValue",
              "shieldHP": true,
              "value": 0.0,
              "key": "SwirlReaction_CDState",
              "maxValue": 0.0,
              "minValue": 0.0
            }
          ]
        }
      },
      "onAdded": [
        {
          "$type": "AttachModifier",
          "modifierName": "Activity_CrystalLink_TriggerV2_SwirlReaction"
        }
      ],
      "isDynamicAbility": true
    }
  },
  {
    "Default": {
      "$type": "ConfigAbility",
      "abilityName": "ActivityAbility_CrystalLink_TriggerV2_UseArtSkill_Level2",
      "abilitySpecials": {
        "TriggerCD": 0.0
      },
      "modifiers": {
        "Activity_CrystalLink_TriggerV2_UseArtSkill_Level2": {
          "modifierName": "",
          "elementDurability": 100.0,
          "modifierMixins": [
            {
              "$type": "OnAvatarUseSkillMixin",
              "onTriggerSkill": [
                {
                  "$type": "Predicated",
                  "target": "Caster",
                  "targetPredicates": [
                    {
                      "$type": "ByTargetGlobalValue",
                      "target": "Self",
                      "key": "UseArtSkill_CDState",
                      "value": 0.0,
                      "compareType": "NoneOrEqual"
                    }
                  ],
                  "successActions": [
                    {
                      "$type": "EPIMHDNFGBE",
                      "id": 24
                    },
                    {
                      "$type": "AHPEKICBIIL",
                      "luaCallType": "CurGalleryControlGroup",
                      "funcName": "SLC_Add_Fever",
                      "param1": 0.0,
                      "MGAMDEHMCOL": 0.0,
                      "MMHOHAOGPLP": 0.0
                    },
                    {
                      "$type": "ApplyModifier",
                      "modifierName": "UNIQUE_Activity_CrystalLink_TriggerV2_UseArtSkill_CD_Level2"
                    }
                  ]
                }
              ],
              "clearSkillIdDelay": 0.20000000298023224
            }
          ]
        },
        "UNIQUE_Activity_CrystalLink_TriggerV2_UseArtSkill_CD_Level2": {
          "stacking": "Unique",
          "modifierName": "",
          "forceTriggerWhenChangeAuthority": true,
          "duration": "TriggerCD",
          "elementDurability": 100.0,
          "onAdded": [
            {
              "$type": "SetGlobalValue",
              "shieldHP": true,
              "value": -1.0,
              "key": "UseArtSkill_CDState",
              "maxValue": 0.0,
              "minValue": 0.0
            }
          ],
          "onRemoved": [
            {
              "$type": "SetGlobalValue",
              "shieldHP": true,
              "value": 0.0,
              "key": "UseArtSkill_CDState",
              "maxValue": 0.0,
              "minValue": 0.0
            }
          ]
        }
      },
      "onAdded": [
        {
          "$type": "AttachModifier",
          "modifierName": "Activity_CrystalLink_TriggerV2_UseArtSkill_Level2"
        }
      ],
      "isDynamicAbility": true
    }
  },
  {
    "Default": {
      "$type": "ConfigAbility",
      "abilityName": "ActivityAbility_CrystalLink_TriggerV2_BeingHit",
      "abilitySpecials": {
        "TriggerCD": 0.0
      },
      "modifiers": {
        "Activity_CrystalLink_TriggerV2_BeingHit": {
          "modifierName": "",
          "elementDurability": 100.0,
          "onBeingHit": [
            {
              "$type": "Predicated",
              "target": "Other",
              "shieldHP": true,
              "targetPredicates": [
                {
                  "$type": "ByHitDamage",
                  "damage": 0.0
                },
                {
                  "$type": "ByTargetGlobalValue",
                  "target": "Caster",
                  "key": "BeingHit_CD",
                  "value": 0.0,
                  "compareType": "NoneOrEqual"
                }
              ],
              "successActions": [
                {
                  "$type": "EPIMHDNFGBE",
                  "id": 25
                },
                {
                  "$type": "AHPEKICBIIL",
                  "luaCallType": "CurGalleryControlGroup",
                  "funcName": "SLC_Add_Fever",
                  "param1": 0.0,
                  "MGAMDEHMCOL": 0.0,
                  "MMHOHAOGPLP": 0.0
                },
                {
                  "$type": "ApplyModifier",
                  "modifierName": "UNIQUE_Activity_CrystalLink_TriggerV2_BeingHit_CD"
                }
              ]
            }
          ]
        },
        "UNIQUE_Activity_CrystalLink_TriggerV2_BeingHit_CD": {
          "stacking": "Unique",
          "modifierName": "",
          "forceTriggerWhenChangeAuthority": true,
          "duration": "TriggerCD",
          "elementDurability": 100.0,
          "onAdded": [
            {
              "$type": "SetGlobalValue",
              "shieldHP": true,
              "value": -1.0,
              "key": "BeingHit_CD",
              "maxValue": 0.0,
              "minValue": 0.0
            }
          ],
          "onRemoved": [
            {
              "$type": "SetGlobalValue",
              "shieldHP": true,
              "value": 0.0,
              "key": "BeingHit_CD",
              "maxValue": 0.0,
              "minValue": 0.0
            }
          ]
        }
      },
      "onAdded": [
        {
          "$type": "AttachModifier",
          "modifierName": "Activity_CrystalLink_TriggerV2_BeingHit"
        }
      ],
      "isDynamicAbility": true
    }
  },
  {
    "Default": {
      "$type": "ConfigAbility",
      "abilityName": "ActivityAbility_CrystalLink_TriggerV2_FireReaction",
      "abilitySpecials": {
        "TriggerCD": 0.0
      },
      "modifiers": {
        "Activity_CrystalLink_TriggerV2_FireReaction": {
          "modifierName": "",
          "elementDurability": 100.0,
          "modifierMixins": [
            {
              "$type": "DoActionByElementReactionMixin",
              "entityTypes": ["Monster"],
              "reactionTypes": [
                "Stream",
                "Explode",
                "Burning",
                "OvergrowMushroomFire",
                "SwirlFire"
              ],
              "actions": [
                {
                  "$type": "Predicated",
                  "target": "Caster",
                  "shieldHP": true,
                  "targetPredicates": [
                    {
                      "$type": "ByTargetGlobalValue",
                      "target": "Caster",
                      "key": "FireReaction_CDState",
                      "value": 0.0,
                      "compareType": "NoneOrEqual"
                    }
                  ],
                  "successActions": [
                    {
                      "$type": "EPIMHDNFGBE",
                      "shieldHP": true,
                      "id": 26
                    },
                    {
                      "$type": "AHPEKICBIIL",
                      "shieldHP": true,
                      "luaCallType": "CurGalleryControlGroup",
                      "funcName": "SLC_Add_Fever",
                      "param1": 0.0,
                      "MGAMDEHMCOL": 0.0,
                      "MMHOHAOGPLP": 0.0
                    },
                    {
                      "$type": "ApplyModifier",
                      "shieldHP": true,
                      "modifierName": "UNIQUE_Activity_CrystalLink_Trigger_FireReaction_CD"
                    }
                  ]
                }
              ]
            }
          ]
        },
        "UNIQUE_Activity_CrystalLink_Trigger_FireReaction_CD": {
          "stacking": "Unique",
          "modifierName": "",
          "forceTriggerWhenChangeAuthority": true,
          "duration": "TriggerCD",
          "elementDurability": 100.0,
          "onAdded": [
            {
              "$type": "SetGlobalValue",
              "shieldHP": true,
              "value": -1.0,
              "key": "FireReaction_CDState",
              "maxValue": 0.0,
              "minValue": 0.0
            }
          ],
          "onRemoved": [
            {
              "$type": "SetGlobalValue",
              "shieldHP": true,
              "value": 0.0,
              "key": "FireReaction_CDState",
              "maxValue": 0.0,
              "minValue": 0.0
            }
          ]
        }
      },
      "onAdded": [
        {
          "$type": "AttachModifier",
          "modifierName": "Activity_CrystalLink_TriggerV2_FireReaction"
        }
      ],
      "isDynamicAbility": true
    }
  },
  {
    "Default": {
      "$type": "ConfigAbility",
      "abilityName": "ActivityAbility_CrystalLink_TriggerV2_OnAvatarIn",
      "abilitySpecials": {
        "TriggerCD": 0.0
      },
      "modifiers": {
        "Activity_CrystalLink_TriggerV2_OnAvatarIn": {
          "modifierName": "",
          "elementDurability": 100.0,
          "onAvatarIn": [
            {
              "$type": "Predicated",
              "target": "Caster",
              "targetPredicates": [
                {
                  "$type": "ByTargetGlobalValue",
                  "target": "Self",
                  "key": "OnAvatarIn_CDState",
                  "value": 0.0,
                  "compareType": "NoneOrEqual"
                }
              ],
              "successActions": [
                {
                  "$type": "EPIMHDNFGBE",
                  "id": 27
                },
                {
                  "$type": "AHPEKICBIIL",
                  "luaCallType": "CurGalleryControlGroup",
                  "funcName": "SLC_Add_Fever",
                  "param1": 0.0,
                  "MGAMDEHMCOL": 0.0,
                  "MMHOHAOGPLP": 0.0
                },
                {
                  "$type": "ApplyModifier",
                  "modifierName": "UNIQUE_Activity_CrystalLink_TriggerV2_OnAvatarIn_CD"
                }
              ]
            }
          ]
        },
        "UNIQUE_Activity_CrystalLink_TriggerV2_OnAvatarIn_CD": {
          "stacking": "Unique",
          "modifierName": "",
          "forceTriggerWhenChangeAuthority": true,
          "duration": "TriggerCD",
          "elementDurability": 100.0,
          "onAdded": [
            {
              "$type": "SetGlobalValue",
              "shieldHP": true,
              "value": -1.0,
              "key": "OnAvatarIn_CDState",
              "maxValue": 0.0,
              "minValue": 0.0
            }
          ],
          "onRemoved": [
            {
              "$type": "SetGlobalValue",
              "shieldHP": true,
              "value": 0.0,
              "key": "OnAvatarIn_CDState",
              "maxValue": 0.0,
              "minValue": 0.0
            }
          ]
        }
      },
      "onAdded": [
        {
          "$type": "AttachModifier",
          "modifierName": "Activity_CrystalLink_TriggerV2_OnAvatarIn"
        }
      ],
      "isDynamicAbility": true
    }
  },
  {
    "Default": {
      "$type": "ConfigAbility",
      "abilityName": "ActivityAbility_CrystalLink_TriggerV2_FreezeReaction",
      "abilitySpecials": {
        "TriggerCD": 0.0
      },
      "modifiers": {
        "Activity_CrystalLink_TriggerV2_FreezeReaction": {
          "modifierName": "",
          "elementDurability": 100.0,
          "modifierMixins": [
            {
              "$type": "DoActionByElementReactionMixin",
              "entityTypes": ["Monster"],
              "reactionTypes": ["Freeze"],
              "actions": [
                {
                  "$type": "Predicated",
                  "target": "Caster",
                  "shieldHP": true,
                  "targetPredicates": [
                    {
                      "$type": "ByTargetGlobalValue",
                      "target": "Self",
                      "key": "FreezeReaction_CDState",
                      "value": 0.0,
                      "compareType": "NoneOrEqual"
                    }
                  ],
                  "successActions": [
                    {
                      "$type": "EPIMHDNFGBE",
                      "shieldHP": true,
                      "id": 31
                    },
                    {
                      "$type": "AHPEKICBIIL",
                      "shieldHP": true,
                      "luaCallType": "CurGalleryControlGroup",
                      "funcName": "SLC_Add_Fever",
                      "param1": 0.0,
                      "MGAMDEHMCOL": 0.0,
                      "MMHOHAOGPLP": 0.0
                    },
                    {
                      "$type": "ApplyModifier",
                      "shieldHP": true,
                      "modifierName": "UNIQUE_Activity_CrystalLink_TriggerV2_FreezeReaction_CD"
                    }
                  ]
                }
              ]
            }
          ]
        },
        "UNIQUE_Activity_CrystalLink_TriggerV2_FreezeReaction_CD": {
          "stacking": "Unique",
          "modifierName": "",
          "forceTriggerWhenChangeAuthority": true,
          "duration": "TriggerCD",
          "elementDurability": 100.0,
          "onAdded": [
            {
              "$type": "SetGlobalValue",
              "shieldHP": true,
              "value": -1.0,
              "key": "FreezeReaction_CDState",
              "maxValue": 0.0,
              "minValue": 0.0
            }
          ],
          "onRemoved": [
            {
              "$type": "SetGlobalValue",
              "shieldHP": true,
              "value": 0.0,
              "key": "FreezeReaction_CDState",
              "maxValue": 0.0,
              "minValue": 0.0
            }
          ]
        }
      },
      "onAdded": [
        {
          "$type": "AttachModifier",
          "modifierName": "Activity_CrystalLink_TriggerV2_FreezeReaction"
        }
      ],
      "isDynamicAbility": true
    }
  },
  {
    "Default": {
      "$type": "ConfigAbility",
      "abilityName": "ActivityAbility_CrystalLink_TriggerV2_HitFrozenTarget",
      "abilitySpecials": {
        "TriggerCD": 0.0
      },
      "modifiers": {
        "Activity_CrystalLink_TriggerV2_HitFrozenTarget": {
          "modifierName": "",
          "elementDurability": 100.0,
          "onAttackLanded": [
            {
              "$type": "Predicated",
              "target": "Other",
              "shieldHP": true,
              "targetPredicates": [
                {
                  "$type": "ByHasAbilityState",
                  "abilityState": "ElementFrozen"
                },
                {
                  "$type": "ByTargetGlobalValue",
                  "target": "Caster",
                  "key": "HitFrozenTarget_CDState",
                  "value": 0.0,
                  "compareType": "NoneOrEqual"
                }
              ],
              "successActions": [
                {
                  "$type": "EPIMHDNFGBE",
                  "shieldHP": true,
                  "id": 32
                },
                {
                  "$type": "AHPEKICBIIL",
                  "shieldHP": true,
                  "luaCallType": "CurGalleryControlGroup",
                  "funcName": "SLC_Add_Fever",
                  "param1": 0.0,
                  "MGAMDEHMCOL": 0.0,
                  "MMHOHAOGPLP": 0.0
                },
                {
                  "$type": "ApplyModifier",
                  "shieldHP": true,
                  "modifierName": "UNIQUE_Activity_CrystalLink_TriggerV2_HitFrozenTarget_CD"
                }
              ]
            }
          ]
        },
        "UNIQUE_Activity_CrystalLink_TriggerV2_HitFrozenTarget_CD": {
          "stacking": "Unique",
          "modifierName": "",
          "forceTriggerWhenChangeAuthority": true,
          "duration": "TriggerCD",
          "elementDurability": 100.0,
          "onAdded": [
            {
              "$type": "SetGlobalValue",
              "shieldHP": true,
              "value": -1.0,
              "key": "HitFrozenTarget_CDState",
              "maxValue": 0.0,
              "minValue": 0.0
            }
          ],
          "onRemoved": [
            {
              "$type": "SetGlobalValue",
              "shieldHP": true,
              "value": 0.0,
              "key": "HitFrozenTarget_CDState",
              "maxValue": 0.0,
              "minValue": 0.0
            }
          ]
        }
      },
      "onAdded": [
        {
          "$type": "AttachModifier",
          "modifierName": "Activity_CrystalLink_TriggerV2_HitFrozenTarget"
        }
      ],
      "isDynamicAbility": true
    }
  },
  {
    "Default": {
      "$type": "ConfigAbility",
      "abilityName": "ActivityAbility_CrystalLink_TriggerV2_UseArtSkill_Level4",
      "abilitySpecials": {
        "TriggerCD": 0.0
      },
      "modifiers": {
        "Activity_CrystalLink_TriggerV2_UseArtSkill_Level4": {
          "modifierName": "",
          "elementDurability": 100.0,
          "modifierMixins": [
            {
              "$type": "OnAvatarUseSkillMixin",
              "onTriggerSkill": [
                {
                  "$type": "Predicated",
                  "target": "Caster",
                  "targetPredicates": [
                    {
                      "$type": "ByTargetGlobalValue",
                      "target": "Self",
                      "key": "UseArtSkill_CDState",
                      "value": 0.0,
                      "compareType": "NoneOrEqual"
                    }
                  ],
                  "successActions": [
                    {
                      "$type": "EPIMHDNFGBE",
                      "id": 33
                    },
                    {
                      "$type": "AHPEKICBIIL",
                      "luaCallType": "CurGalleryControlGroup",
                      "funcName": "SLC_Add_Fever",
                      "param1": 0.0,
                      "MGAMDEHMCOL": 0.0,
                      "MMHOHAOGPLP": 0.0
                    },
                    {
                      "$type": "ApplyModifier",
                      "modifierName": "UNIQUE_Activity_CrystalLink_TriggerV2_UseArtSkill_CD_Level4"
                    }
                  ]
                }
              ],
              "clearSkillIdDelay": 0.20000000298023224
            }
          ]
        },
        "UNIQUE_Activity_CrystalLink_TriggerV2_UseArtSkill_CD_Level4": {
          "stacking": "Unique",
          "modifierName": "",
          "forceTriggerWhenChangeAuthority": true,
          "duration": "TriggerCD",
          "elementDurability": 100.0,
          "onAdded": [
            {
              "$type": "SetGlobalValue",
              "shieldHP": true,
              "value": -1.0,
              "key": "UseArtSkill_CDState",
              "maxValue": 0.0,
              "minValue": 0.0
            }
          ],
          "onRemoved": [
            {
              "$type": "SetGlobalValue",
              "shieldHP": true,
              "value": 0.0,
              "key": "UseArtSkill_CDState",
              "maxValue": 0.0,
              "minValue": 0.0
            }
          ]
        }
      },
      "onAdded": [
        {
          "$type": "AttachModifier",
          "modifierName": "Activity_CrystalLink_TriggerV2_UseArtSkill_Level4"
        }
      ],
      "isDynamicAbility": true
    }
  },
  {
    "Default": {
      "$type": "ConfigAbility",
      "abilityName": "ActivityAbility_CrystalLink_TriggerV2_OverdoseGrassReaction",
      "abilitySpecials": {
        "TriggerCD": 0.0
      },
      "modifiers": {
        "Activity_CrystalLink_TriggerV2_OverdoseGrassReaction": {
          "modifierName": "",
          "elementDurability": 100.0,
          "modifierMixins": [
            {
              "$type": "DoActionByElementReactionMixin",
              "entityTypes": ["Monster"],
              "reactionTypes": ["OverdoseGrass", "OvergrowMushroomElectric"],
              "actions": [
                {
                  "$type": "Predicated",
                  "target": "Caster",
                  "shieldHP": true,
                  "targetPredicates": [
                    {
                      "$type": "ByTargetGlobalValue",
                      "target": "Self",
                      "key": "OverdoseGrass_CDState",
                      "value": 0.0,
                      "compareType": "NoneOrEqual"
                    }
                  ],
                  "successActions": [
                    {
                      "$type": "EPIMHDNFGBE",
                      "shieldHP": true,
                      "id": 34
                    },
                    {
                      "$type": "AHPEKICBIIL",
                      "shieldHP": true,
                      "luaCallType": "CurGalleryControlGroup",
                      "funcName": "SLC_Add_Fever",
                      "param1": 0.0,
                      "MGAMDEHMCOL": 0.0,
                      "MMHOHAOGPLP": 0.0
                    },
                    {
                      "$type": "ApplyModifier",
                      "shieldHP": true,
                      "modifierName": "UNIQUE_Activity_CrystalLink_TriggerV2_OverdoseGrassReaction_CD"
                    }
                  ]
                }
              ]
            }
          ]
        },
        "UNIQUE_Activity_CrystalLink_TriggerV2_OverdoseGrassReaction_CD": {
          "stacking": "Unique",
          "modifierName": "",
          "forceTriggerWhenChangeAuthority": true,
          "duration": "TriggerCD",
          "elementDurability": 100.0,
          "onAdded": [
            {
              "$type": "SetGlobalValue",
              "shieldHP": true,
              "value": -1.0,
              "key": "OverdoseGrass_CDState",
              "maxValue": 0.0,
              "minValue": 0.0
            }
          ],
          "onRemoved": [
            {
              "$type": "SetGlobalValue",
              "shieldHP": true,
              "value": 0.0,
              "key": "OverdoseGrass_CDState",
              "maxValue": 0.0,
              "minValue": 0.0
            }
          ]
        }
      },
      "onAdded": [
        {
          "$type": "AttachModifier",
          "modifierName": "Activity_CrystalLink_TriggerV2_OverdoseGrassReaction"
        }
      ],
      "isDynamicAbility": true
    }
  },
  {
    "Default": {
      "$type": "ConfigAbility",
      "abilityName": "ActivityAbility_CrystalLink_TriggerV2_HitElement",
      "abilitySpecials": {
        "TriggerCD": 0.0
      },
      "modifiers": {
        "Activity_CrystalLink_TriggerV2_HitElement": {
          "modifierName": "",
          "elementDurability": 100.0,
          "onAttackLanded": [
            {
              "$type": "Predicated",
              "target": "Target",
              "shieldHP": true,
              "targetPredicates": [
                {
                  "$type": "ByEntityTypes",
                  "entityTypes": ["Monster"]
                },
                {
                  "$type": "ByAny",
                  "predicates": [
                    {
                      "$type": "ByHitElement",
                      "element": "Wind"
                    },
                    {
                      "$type": "ByHitElement",
                      "element": "Fire"
                    },
                    {
                      "$type": "ByHitElement",
                      "element": "Water"
                    },
                    {
                      "$type": "ByHitElement",
                      "element": "Ice"
                    },
                    {
                      "$type": "ByHitElement",
                      "element": "Electric"
                    },
                    {
                      "$type": "ByHitElement",
                      "element": "Rock"
                    },
                    {
                      "$type": "ByHitElement",
                      "element": "Grass"
                    }
                  ]
                },
                {
                  "$type": "ByTargetGlobalValue",
                  "target": "Caster",
                  "key": "HitElement_CDState",
                  "value": 0.0,
                  "compareType": "NoneOrEqual"
                },
                {
                  "$type": "ByHitDamage",
                  "damage": 0.0
                }
              ],
              "successActions": [
                {
                  "$type": "EPIMHDNFGBE",
                  "shieldHP": true,
                  "id": 35
                },
                {
                  "$type": "AHPEKICBIIL",
                  "shieldHP": true,
                  "luaCallType": "CurGalleryControlGroup",
                  "funcName": "SLC_Add_Fever",
                  "param1": 0.0,
                  "MGAMDEHMCOL": 0.0,
                  "MMHOHAOGPLP": 0.0
                },
                {
                  "$type": "ApplyModifier",
                  "shieldHP": true,
                  "modifierName": "UNIQUE_Activity_CrystalLink_TriggerV2_HitElement_CD"
                }
              ]
            }
          ]
        },
        "UNIQUE_Activity_CrystalLink_TriggerV2_HitElement_CD": {
          "stacking": "Unique",
          "modifierName": "",
          "forceTriggerWhenChangeAuthority": true,
          "duration": "TriggerCD",
          "elementDurability": 100.0,
          "onAdded": [
            {
              "$type": "SetGlobalValue",
              "shieldHP": true,
              "value": -1.0,
              "key": "HitElement_CDState",
              "maxValue": 0.0,
              "minValue": 0.0
            }
          ],
          "onRemoved": [
            {
              "$type": "SetGlobalValue",
              "shieldHP": true,
              "value": 0.0,
              "key": "HitElement_CDState",
              "maxValue": 0.0,
              "minValue": 0.0
            }
          ]
        }
      },
      "onAdded": [
        {
          "$type": "AttachModifier",
          "modifierName": "Activity_CrystalLink_TriggerV2_HitElement"
        }
      ],
      "isDynamicAbility": true
    }
  },
  {
    "Default": {
      "$type": "ConfigAbility",
      "abilityName": "ActivityAbility_CrystalLink_TriggerV2_UseArtSkill_Level5",
      "abilitySpecials": {
        "TriggerCD": 0.0
      },
      "modifiers": {
        "Activity_CrystalLink_TriggerV2_UseArtSkill_Level5": {
          "modifierName": "",
          "elementDurability": 100.0,
          "modifierMixins": [
            {
              "$type": "OnAvatarUseSkillMixin",
              "onTriggerSkill": [
                {
                  "$type": "Predicated",
                  "target": "Caster",
                  "targetPredicates": [
                    {
                      "$type": "ByTargetGlobalValue",
                      "target": "Self",
                      "key": "UseArtSkill_CDState",
                      "value": 0.0,
                      "compareType": "NoneOrEqual"
                    }
                  ],
                  "successActions": [
                    {
                      "$type": "EPIMHDNFGBE",
                      "id": 36
                    },
                    {
                      "$type": "AHPEKICBIIL",
                      "luaCallType": "CurGalleryControlGroup",
                      "funcName": "SLC_Add_Fever",
                      "param1": 0.0,
                      "MGAMDEHMCOL": 0.0,
                      "MMHOHAOGPLP": 0.0
                    },
                    {
                      "$type": "ApplyModifier",
                      "modifierName": "UNIQUE_Activity_CrystalLink_TriggerV2_UseArtSkill_CD_Level5"
                    }
                  ]
                }
              ],
              "clearSkillIdDelay": 0.20000000298023224
            }
          ]
        },
        "UNIQUE_Activity_CrystalLink_TriggerV2_UseArtSkill_CD_Level5": {
          "stacking": "Unique",
          "modifierName": "",
          "forceTriggerWhenChangeAuthority": true,
          "duration": "TriggerCD",
          "elementDurability": 100.0,
          "onAdded": [
            {
              "$type": "SetGlobalValue",
              "shieldHP": true,
              "value": -1.0,
              "key": "UseArtSkill_CDState",
              "maxValue": 0.0,
              "minValue": 0.0
            }
          ],
          "onRemoved": [
            {
              "$type": "SetGlobalValue",
              "shieldHP": true,
              "value": 0.0,
              "key": "UseArtSkill_CDState",
              "maxValue": 0.0,
              "minValue": 0.0
            }
          ]
        }
      },
      "onAdded": [
        {
          "$type": "AttachModifier",
          "modifierName": "Activity_CrystalLink_TriggerV2_UseArtSkill_Level5"
        }
      ],
      "isDynamicAbility": true
    }
  },
  {
    "Default": {
      "$type": "ConfigAbility",
      "abilityName": "ActivityAbility_CrystalLink_TriggerV2_OverdoseElectricReaction",
      "abilitySpecials": {
        "TriggerCD": 0.0
      },
      "modifiers": {
        "Activity_CrystalLink_TriggerV2_OverdoseElectricReaction": {
          "modifierName": "",
          "elementDurability": 100.0,
          "modifierMixins": [
            {
              "$type": "DoActionByElementReactionMixin",
              "entityTypes": ["Monster"],
              "reactionTypes": ["OverdoseElectric", "OvergrowMushroomElectric"],
              "actions": [
                {
                  "$type": "Predicated",
                  "target": "Caster",
                  "shieldHP": true,
                  "targetPredicates": [
                    {
                      "$type": "ByTargetGlobalValue",
                      "target": "Self",
                      "key": "OverdoseElectric_CDState",
                      "value": 0.0,
                      "compareType": "NoneOrEqual"
                    }
                  ],
                  "successActions": [
                    {
                      "$type": "EPIMHDNFGBE",
                      "shieldHP": true,
                      "id": 28
                    },
                    {
                      "$type": "AHPEKICBIIL",
                      "shieldHP": true,
                      "luaCallType": "CurGalleryControlGroup",
                      "funcName": "SLC_Add_Fever",
                      "param1": 0.0,
                      "MGAMDEHMCOL": 0.0,
                      "MMHOHAOGPLP": 0.0
                    },
                    {
                      "$type": "ApplyModifier",
                      "shieldHP": true,
                      "modifierName": "UNIQUE_Activity_CrystalLink_TriggerV2_OverdoseElectricReaction_CD"
                    }
                  ]
                }
              ]
            }
          ]
        },
        "UNIQUE_Activity_CrystalLink_TriggerV2_OverdoseElectricReaction_CD": {
          "stacking": "Unique",
          "modifierName": "",
          "forceTriggerWhenChangeAuthority": true,
          "duration": "TriggerCD",
          "elementDurability": 100.0,
          "onAdded": [
            {
              "$type": "SetGlobalValue",
              "shieldHP": true,
              "value": -1.0,
              "key": "OverdoseElectric_CDState",
              "maxValue": 0.0,
              "minValue": 0.0
            }
          ],
          "onRemoved": [
            {
              "$type": "SetGlobalValue",
              "shieldHP": true,
              "value": 0.0,
              "key": "OverdoseElectric_CDState",
              "maxValue": 0.0,
              "minValue": 0.0
            }
          ]
        }
      },
      "onAdded": [
        {
          "$type": "AttachModifier",
          "modifierName": "Activity_CrystalLink_TriggerV2_OverdoseElectricReaction"
        }
      ],
      "isDynamicAbility": true
    }
  },
  {
    "Default": {
      "$type": "ConfigAbility",
      "abilityName": "ActivityAbility_CrystalLink_TriggerV2_HitElement_Level6",
      "abilitySpecials": {
        "TriggerCD": 0.0
      },
      "modifiers": {
        "Activity_CrystalLink_TriggerV2_HitElement_Level6": {
          "modifierName": "",
          "elementDurability": 100.0,
          "onAttackLanded": [
            {
              "$type": "Predicated",
              "target": "Target",
              "shieldHP": true,
              "targetPredicates": [
                {
                  "$type": "ByEntityTypes",
                  "entityTypes": ["Monster"]
                },
                {
                  "$type": "ByAny",
                  "predicates": [
                    {
                      "$type": "ByHitElement",
                      "element": "Wind"
                    },
                    {
                      "$type": "ByHitElement",
                      "element": "Fire"
                    },
                    {
                      "$type": "ByHitElement",
                      "element": "Water"
                    },
                    {
                      "$type": "ByHitElement",
                      "element": "Ice"
                    },
                    {
                      "$type": "ByHitElement",
                      "element": "Electric"
                    },
                    {
                      "$type": "ByHitElement",
                      "element": "Rock"
                    },
                    {
                      "$type": "ByHitElement",
                      "element": "Grass"
                    }
                  ]
                },
                {
                  "$type": "ByTargetGlobalValue",
                  "target": "Caster",
                  "key": "HitElement_CDState",
                  "value": 0.0,
                  "compareType": "NoneOrEqual"
                },
                {
                  "$type": "ByHitDamage",
                  "damage": 0.0
                }
              ],
              "successActions": [
                {
                  "$type": "EPIMHDNFGBE",
                  "shieldHP": true,
                  "id": 29
                },
                {
                  "$type": "AHPEKICBIIL",
                  "shieldHP": true,
                  "luaCallType": "CurGalleryControlGroup",
                  "funcName": "SLC_Add_Fever",
                  "param1": 0.0,
                  "MGAMDEHMCOL": 0.0,
                  "MMHOHAOGPLP": 0.0
                },
                {
                  "$type": "ApplyModifier",
                  "shieldHP": true,
                  "modifierName": "UNIQUE_Activity_CrystalLink_TriggerV2_HitElement_CD_Level6"
                }
              ]
            }
          ]
        },
        "UNIQUE_Activity_CrystalLink_TriggerV2_HitElement_CD_Level6": {
          "stacking": "Unique",
          "modifierName": "",
          "forceTriggerWhenChangeAuthority": true,
          "duration": "TriggerCD",
          "elementDurability": 100.0,
          "onAdded": [
            {
              "$type": "SetGlobalValue",
              "shieldHP": true,
              "value": -1.0,
              "key": "HitElement_CDState",
              "maxValue": 0.0,
              "minValue": 0.0
            }
          ],
          "onRemoved": [
            {
              "$type": "SetGlobalValue",
              "shieldHP": true,
              "value": 0.0,
              "key": "HitElement_CDState",
              "maxValue": 0.0,
              "minValue": 0.0
            }
          ]
        }
      },
      "onAdded": [
        {
          "$type": "AttachModifier",
          "modifierName": "Activity_CrystalLink_TriggerV2_HitElement_Level6"
        }
      ],
      "isDynamicAbility": true
    }
  },
  {
    "Default": {
      "$type": "ConfigAbility",
      "abilityName": "ActivityAbility_CrystalLink_TriggerV2_NormalAttackHit",
      "abilitySpecials": {
        "TriggerCD": 0.0
      },
      "modifiers": {
        "Activity_CrystalLink_TriggerV2_NormalAttackHit": {
          "modifierName": "",
          "elementDurability": 100.0,
          "onAttackLanded": [
            {
              "$type": "Predicated",
              "target": "Target",
              "shieldHP": true,
              "targetPredicates": [
                {
                  "$type": "ByEntityTypes",
                  "entityTypes": ["Monster"]
                },
                {
                  "$type": "ByAttackTags",
                  "attackTags": [
                    "NormalAttack_01",
                    "NormalAttack_02",
                    "NormalAttack_03",
                    "NormalAttack_04",
                    "NormalAttack_05",
                    "NormalAttack_06"
                  ]
                },
                {
                  "$type": "ByTargetGlobalValue",
                  "target": "Caster",
                  "key": "NormalAttackHit_CDState",
                  "value": 0.0,
                  "compareType": "NoneOrEqual"
                },
                {
                  "$type": "ByHitDamage",
                  "damage": 0.0
                }
              ],
              "successActions": [
                {
                  "$type": "EPIMHDNFGBE",
                  "shieldHP": true,
                  "id": 30
                },
                {
                  "$type": "AHPEKICBIIL",
                  "shieldHP": true,
                  "luaCallType": "CurGalleryControlGroup",
                  "funcName": "SLC_Add_Fever",
                  "param1": 0.0,
                  "MGAMDEHMCOL": 0.0,
                  "MMHOHAOGPLP": 0.0
                },
                {
                  "$type": "ApplyModifier",
                  "shieldHP": true,
                  "modifierName": "UNIQUE_Activity_CrystalLink_TriggerV2_NormalAttackHit_CD"
                }
              ]
            }
          ]
        },
        "UNIQUE_Activity_CrystalLink_TriggerV2_NormalAttackHit_CD": {
          "stacking": "Unique",
          "modifierName": "",
          "forceTriggerWhenChangeAuthority": true,
          "duration": "TriggerCD",
          "elementDurability": 100.0,
          "onAdded": [
            {
              "$type": "SetGlobalValue",
              "shieldHP": true,
              "value": -1.0,
              "key": "NormalAttackHit_CDState",
              "maxValue": 0.0,
              "minValue": 0.0
            }
          ],
          "onRemoved": [
            {
              "$type": "SetGlobalValue",
              "shieldHP": true,
              "value": 0.0,
              "key": "NormalAttackHit_CDState",
              "maxValue": 0.0,
              "minValue": 0.0
            }
          ]
        }
      },
      "onAdded": [
        {
          "$type": "AttachModifier",
          "modifierName": "Activity_CrystalLink_TriggerV2_NormalAttackHit"
        }
      ],
      "isDynamicAbility": true
    }
  }
]
