[
  {
    "Default": {
      "$type": "ConfigAbility",
      "abilityName": "ActivityAbility_CoinCollect_TestAbility",
      "isDynamicAbility": true
    }
  },
  {
    "Default": {
      "$type": "ConfigAbility",
      "abilityName": "ActivityAbility_CoinCollect_MoveSpeedUp",
      "abilityMixins": [
        {
          "$type": "AttachModifierToGlobalValueMixin",
          "globalValueTarget": "Team",
          "globalValueKey": "SGV_CoinCollect_Widget_SkillEnabled",
          "valueSteps": [-0.5, 0.5, 1.5],
          "modifierNameSteps": ["Blank", "UNIQUE_CoinCollect_MoveSpeedUp"]
        }
      ],
      "abilitySpecials": {
        "SpeedUpRatio": 0.0
      },
      "modifiers": {
        "Blank": {
          "modifierName": "",
          "elementDurability": 100.0
        },
        "UNIQUE_CoinCollect_MoveSpeedUp": {
          "stacking": "Unique",
          "modifierName": "",
          "forceTriggerWhenChangeAuthority": true,
          "elementDurability": 100.0,
          "properties": {
            "Animator_MoveSpeedRatio": "SpeedUpRatio"
          },
          "isLimitedProperties": true
        }
      },
      "isDynamicAbility": true
    }
  },
  {
    "Default": {
      "$type": "ConfigAbility",
      "abilityName": "ActivityAbility_CoinCollect_RocketJump",
      "abilityMixins": [
        {
          "$type": "AttachModifierToGlobalValueMixin",
          "globalValueTarget": "Team",
          "globalValueKey": "SGV_CoinCollect_Widget_SkillEnabled",
          "valueSteps": [-0.5, 0.5, 1.5],
          "modifierNameSteps": ["Blank", "UNIQUE_CoinCollect_RocketJump"]
        }
      ],
      "modifiers": {
        "Blank": {
          "modifierName": "",
          "elementDurability": 100.0
        },
        "UNIQUE_CoinCollect_RocketJump": {
          "stacking": "Unique",
          "modifierName": "",
          "forceTriggerWhenChangeAuthority": true,
          "elementDurability": 100.0,
          "onAdded": [
            {
              "$type": "EnableRocketJump",
              "shieldHP": true,
              "canBeHandledOnRecover": true,
              "damageRatio": "DungeonJump",
              "enable": true,
              "extention": {
                "xzMultiplier": 2.0,
                "yMultiplier": 6.0
              }
            }
          ],
          "onRemoved": [
            {
              "$type": "EnableRocketJump",
              "shieldHP": true,
              "damageRatio": "DungeonJump"
            }
          ],
          "onAvatarIn": [
            {
              "$type": "EnableRocketJump",
              "shieldHP": true,
              "canBeHandledOnRecover": true,
              "damageRatio": "DungeonJump",
              "enable": true,
              "extention": {
                "xzMultiplier": 2.0,
                "yMultiplier": 6.0
              }
            }
          ],
          "isLimitedProperties": true
        }
      },
      "isDynamicAbility": true
    }
  },
  {
    "Default": {
      "$type": "ConfigAbility",
      "abilityName": "ActivityAbility_CoinCollect_CreateWindField",
      "abilityMixins": [
        {
          "$type": "AttachModifierToGlobalValueMixin",
          "globalValueTarget": "Team",
          "globalValueKey": "GV_WINDFIELD",
          "valueSteps": [-0.5, 0.5, 1.5],
          "modifierNameSteps": [
            "Blank",
            "UNIQUE_CoinCollect_CreateWindField_ApplyTeam"
          ]
        }
      ],
      "modifiers": {
        "Blank": {
          "modifierName": "",
          "elementDurability": 100.0
        },
        "UNIQUE_CoinCollect_CreateWindField_ApplyTeam": {
          "stacking": "Unique",
          "modifierName": "",
          "forceTriggerWhenChangeAuthority": true,
          "duration": 0.10000000149011612,
          "elementDurability": 100.0,
          "onAdded": [
            {
              "$type": "SetGlobalPos",
              "target": "Team",
              "key": "CoinCollect_WindField_Pos",
              "born": {
                "$type": "ConfigBornBySelf",
                "useRotation": true
              }
            },
            {
              "$type": "ApplyModifier",
              "target": "Team",
              "modifierName": "CoinCollect_CreateWindField"
            }
          ],
          "onRemoved": [
            {
              "$type": "SetGlobalValue",
              "target": "Team",
              "shieldHP": true,
              "value": 0.0,
              "key": "GV_WINDFIELD",
              "maxValue": 0.0,
              "minValue": 0.0
            }
          ]
        },
        "CoinCollect_CreateWindField": {
          "modifierName": "",
          "duration": 0.10000000149011612,
          "elementDurability": 100.0,
          "onAdded": [
            {
              "$type": "KillGadget",
              "shieldHP": true,
              "gadgetInfo": {
                "configID": 44000549
              }
            },
            {
              "$type": "CreateGadget",
              "born": {
                "$type": "ConfigBornByGlobalValue",
                "offset": {
                  "x": 0.0,
                  "y": 0.0,
                  "z": 0.0
                },
                "direction": {
                  "$type": "ConfigDirectionByWorld",
                  "eularAngles": {
                    "x": 0.10000000149011612,
                    "y": 0.10000000149011612,
                    "z": 0.10000000149011612
                  }
                },
                "useRotation": true,
                "positionKey": "CoinCollect_WindField_Pos",
                "directionKey": ""
              },
              "gadgetID": 44000549,
              "campID": 1001,
              "campTargetType": "Enemy"
            }
          ]
        },
        "CoinCollect_RemoveWindField": {
          "modifierName": "",
          "duration": 0.10000000149011612,
          "elementDurability": 100.0,
          "onAdded": [
            {
              "$type": "KillGadget",
              "shieldHP": true,
              "gadgetInfo": {
                "configID": 44000549
              }
            }
          ]
        }
      },
      "onAdded": [
        {
          "$type": "SetGlobalValue",
          "target": "Team",
          "value": 0.0,
          "key": "GV_WINDFIELD",
          "maxValue": 0.0,
          "minValue": 0.0
        }
      ],
      "onRemoved": [
        {
          "$type": "ApplyModifier",
          "target": "Team",
          "modifierName": "CoinCollect_RemoveWindField"
        }
      ],
      "isDynamicAbility": true
    }
  },
  {
    "Default": {
      "$type": "ConfigAbility",
      "abilityName": "ActivityAbility_CoinCollect_CreateWindZone",
      "modifiers": {
        "UNIQUE_CoinCollect_WindFiled_Effect": {
          "modifierName": "",
          "forceTriggerWhenChangeAuthority": true,
          "duration": 10.0,
          "elementDurability": 100.0,
          "onAdded": [
            {
              "$type": "AttachEffect",
              "rotationDampTime": "Eff_Item_WindSeed_WindField",
              "PPPDJGDDOGD": 1.0,
              "AJDILHJFNKE": -1.0
            }
          ],
          "onRemoved": [
            {
              "$type": "KillSelf"
            }
          ]
        }
      },
      "onAdded": [
        {
          "$type": "AttachModifier",
          "modifierName": "UNIQUE_CoinCollect_WindFiled_Effect"
        }
      ],
      "isDynamicAbility": true
    }
  },
  {
    "Default": {
      "$type": "ConfigAbility",
      "abilityName": "ActivityAbility_CoinCollect_CostStamina_Zero",
      "abilityMixins": [
        {
          "$type": "AttachModifierToGlobalValueMixin",
          "globalValueTarget": "Team",
          "globalValueKey": "SGV_CoinCollect_Widget_SkillEnabled",
          "valueSteps": [-0.5, 0.5, 1.5],
          "modifierNameSteps": ["Blank", "UNIQUE_CoinCollect_CostStamina_Zero"]
        }
      ],
      "modifiers": {
        "Blank": {
          "modifierName": "",
          "elementDurability": 100.0
        },
        "UNIQUE_CoinCollect_CostStamina_Zero": {
          "stacking": "Unique",
          "modifierName": "",
          "forceTriggerWhenChangeAuthority": true,
          "elementDurability": 100.0,
          "properties": {
            "Actor_CostStaminaRatio": -999.0
          },
          "isLimitedProperties": true
        }
      },
      "isDynamicAbility": true
    }
  },
  {
    "Default": {
      "$type": "ConfigAbility",
      "abilityName": "ActivityAbility_CoinCollect_Range_Eff",
      "abilityMixins": [
        {
          "$type": "AttachModifierToGlobalValueMixin",
          "globalValueTarget": "Team",
          "globalValueKey": "SGV_CoinCollect_Widget_SkillEnabled",
          "valueSteps": [-0.5, 0.5, 1.5],
          "modifierNameSteps": ["Blank", "UNIQUE_CoinCollect_Range_Eff_Handler"]
        }
      ],
      "modifiers": {
        "Blank": {
          "modifierName": "",
          "elementDurability": 100.0
        },
        "UNIQUE_CoinCollect_Range_Eff_Handler": {
          "stacking": "Unique",
          "modifierName": "",
          "forceTriggerWhenChangeAuthority": true,
          "elementDurability": 100.0,
          "onAdded": [
            {
              "$type": "AttachModifier",
              "modifierName": "UNIQUE_CoinCollect_Range_Eff"
            }
          ],
          "onAvatarIn": [
            {
              "$type": "AttachModifier",
              "modifierName": "UNIQUE_CoinCollect_Range_Eff"
            }
          ],
          "onAvatarOut": [
            {
              "$type": "RemoveUniqueModifier",
              "shieldHP": true,
              "modifierName": "UNIQUE_CoinCollect_Range_Eff"
            }
          ],
          "isLimitedProperties": true
        },
        "UNIQUE_CoinCollect_Range_Eff": {
          "stacking": "Unique",
          "modifierName": "",
          "forceTriggerWhenChangeAuthority": true,
          "elementDurability": 100.0,
          "onAdded": [
            {
              "$type": "AttachEffect",
              "rotationDampTime": "Eff_SceneObj_DIK_BUFFC_01_Buff",
              "PPPDJGDDOGD": 1.0,
              "AJDILHJFNKE": -1.0
            }
          ],
          "isLimitedProperties": true
        }
      },
      "isDynamicAbility": true
    }
  }
]
