[
  {
    "Default": {
      "$type": "ConfigAbility",
      "abilityName": "Activity_GravenInnocence_Parkour_TeamAbility",
      "abilityMixins": [
        {
          "$type": "AttachModifierToSelfGlobalValueMixin",
          "globalValueKey": "GV_CoinRangeLevel",
          "gvInTalk": 0.0,
          "valueSteps": [-0.5, 0.5, 1.5, 100.0],
          "modifierNameSteps": ["Blank", "NormalRange", "SuperRange"]
        }
      ],
      "modifiers": {
        "Blank": {
          "modifierName": "",
          "elementDurability": 100.0
        },
        "NormalRange": {
          "modifierName": "",
          "elementDurability": 100.0,
          "thinkInterval": 0.10000000149011612,
          "onAdded": [
            {
              "$type": "DebugLog",
              "content": "基础拾取距离"
            }
          ],
          "onThinkInterval": [
            {
              "$type": "Predicated",
              "otherTargets": {
                "$type": "PBLNLAENOGB",
                "topLimit": 6,
                "sortType": "Nearest",
                "tag": "IS_COIN"
              },
              "successActions": [
                {
                  "$type": "SetGlobalValue",
                  "target": "Target",
                  "predicates": [
                    {
                      "$type": "ByTargetPositionToSelfPosition",
                      "logic": "LesserOrEqual",
                      "compareType": "XYZ",
                      "value": 2.0,
                      "DDALGNLEHOD": ""
                    }
                  ],
                  "value": 1.0,
                  "key": "GV_Picked",
                  "maxValue": 0.0,
                  "minValue": 0.0
                }
              ]
            }
          ]
        },
        "SuperRange": {
          "modifierName": "",
          "elementDurability": 100.0,
          "thinkInterval": 0.10000000149011612,
          "modifierMixins": [
            {
              "$type": "CurLocalAvatarMixinV2",
              "modifierName": "Avatar_SuperRange_Eff"
            }
          ],
          "onAdded": [
            {
              "$type": "DebugLog",
              "content": "超级拾取距离"
            }
          ],
          "onThinkInterval": [
            {
              "$type": "Predicated",
              "otherTargets": {
                "$type": "PBLNLAENOGB",
                "topLimit": 6,
                "sortType": "Nearest",
                "tag": "IS_COIN"
              },
              "successActions": [
                {
                  "$type": "SetGlobalValue",
                  "target": "Target",
                  "predicates": [
                    {
                      "$type": "ByTargetPositionToSelfPosition",
                      "logic": "LesserOrEqual",
                      "compareType": "XYZ",
                      "value": 5.0,
                      "DDALGNLEHOD": ""
                    }
                  ],
                  "value": 1.0,
                  "key": "GV_Picked",
                  "maxValue": 0.0,
                  "minValue": 0.0
                }
              ]
            }
          ]
        },
        "Avatar_SuperRange_Eff": {
          "modifierName": "",
          "elementDurability": 100.0,
          "onAdded": [
            {
              "$type": "AttachEffect",
              "shieldHP": true,
              "rotationDampTime": "Eff_SceneObj_ExpandAccessCoin_02",
              "PPPDJGDDOGD": 1.0,
              "AJDILHJFNKE": -1.0
            }
          ]
        }
      },
      "onAdded": [
        {
          "$type": "SetGlobalValue",
          "target": "Team",
          "value": 1.0,
          "key": "GV_CoinRangeLevel",
          "maxValue": 0.0,
          "minValue": 0.0
        }
      ],
      "onRemoved": [
        {
          "$type": "RemoveUniqueModifier",
          "target": "Team",
          "modifierName": "UNIQUE_PickRangeBuff"
        },
        {
          "$type": "SetGlobalValue",
          "target": "Team",
          "value": 0.0,
          "key": "GV_CoinRangeLevel",
          "maxValue": 0.0,
          "minValue": 0.0
        }
      ]
    }
  }
]
