[
  {
    "Default": {
      "$type": "ConfigAbility",
      "abilityName": "Activity_RechargeDisk_Buff_Team_Green_01",
      "abilitySpecials": {
        "AttackUpRatio": 0.0
      },
      "modifiers": {
        "Activity_RechargeDisk_Buff_Team_Green_01": {
          "modifierName": "",
          "elementDurability": 100.0,
          "thinkInterval": 1.0,
          "onAdded": [
            {
              "$type": "AttachModifier",
              "target": "CurTeamAvatars",
              "shieldHP": true,
              "modifierName": "Activity_RechargeDisk_Buff_Team_Green_01_OnAvatar"
            }
          ],
          "onThinkInterval": [
            {
              "$type": "AttachModifier",
              "target": "CurTeamAvatars",
              "shieldHP": true,
              "modifierName": "Activity_RechargeDisk_Buff_Team_Green_01_OnAvatar"
            }
          ]
        },
        "Activity_RechargeDisk_Buff_Team_Green_01_OnAvatar": {
          "stacking": "Unique",
          "modifierName": "",
          "elementDurability": 100.0,
          "properties": {
            "Actor_AttackRatio": "AttackUpRatio"
          },
          "isLimitedProperties": true
        }
      },
      "onAdded": [
        {
          "$type": "AttachModifier",
          "shieldHP": true,
          "modifierName": "Activity_RechargeDisk_Buff_Team_Green_01"
        }
      ],
      "isDynamicAbility": true
    }
  },
  {
    "Default": {
      "$type": "ConfigAbility",
      "abilityName": "Activity_RechargeDisk_Buff_Team_Green_02",
      "abilitySpecials": {
        "ElemMastery": 0.0
      },
      "modifiers": {
        "Activity_RechargeDisk_Buff_Team_Green_02": {
          "modifierName": "",
          "elementDurability": 100.0,
          "thinkInterval": 1.0,
          "onAdded": [
            {
              "$type": "AttachModifier",
              "target": "CurTeamAvatars",
              "shieldHP": true,
              "modifierName": "Activity_RechargeDisk_Buff_Team_Green_02_OnAvatar"
            }
          ],
          "onThinkInterval": [
            {
              "$type": "AttachModifier",
              "target": "CurTeamAvatars",
              "shieldHP": true,
              "modifierName": "Activity_RechargeDisk_Buff_Team_Green_02_OnAvatar"
            }
          ]
        },
        "Activity_RechargeDisk_Buff_Team_Green_02_OnAvatar": {
          "stacking": "Unique",
          "modifierName": "",
          "elementDurability": 100.0,
          "properties": {
            "Actor_ElemMasteryDelta": "ElemMastery"
          },
          "isLimitedProperties": true
        }
      },
      "onAdded": [
        {
          "$type": "AttachModifier",
          "shieldHP": true,
          "modifierName": "Activity_RechargeDisk_Buff_Team_Green_02"
        }
      ],
      "isDynamicAbility": true
    }
  },
  {
    "Default": {
      "$type": "ConfigAbility",
      "abilityName": "Activity_RechargeDisk_Buff_Team_Green_03",
      "abilitySpecials": {
        "MaxHP": 0.0
      },
      "modifiers": {
        "Activity_RechargeDisk_Buff_Team_Green_03": {
          "modifierName": "",
          "elementDurability": 100.0,
          "thinkInterval": 1.0,
          "onAdded": [
            {
              "$type": "AttachModifier",
              "target": "CurTeamAvatars",
              "shieldHP": true,
              "modifierName": "Activity_RechargeDisk_Buff_Team_Green_03_OnAvatar"
            }
          ],
          "onThinkInterval": [
            {
              "$type": "AttachModifier",
              "target": "CurTeamAvatars",
              "shieldHP": true,
              "modifierName": "Activity_RechargeDisk_Buff_Team_Green_03_OnAvatar"
            }
          ]
        },
        "Activity_RechargeDisk_Buff_Team_Green_03_OnAvatar": {
          "stacking": "Unique",
          "modifierName": "",
          "elementDurability": 100.0,
          "properties": {
            "Actor_MaxHPRatio": "MaxHP"
          },
          "isLimitedProperties": true
        }
      },
      "onAdded": [
        {
          "$type": "AttachModifier",
          "shieldHP": true,
          "modifierName": "Activity_RechargeDisk_Buff_Team_Green_03"
        }
      ],
      "isDynamicAbility": true
    }
  },
  {
    "Default": {
      "$type": "ConfigAbility",
      "abilityName": "Activity_RechargeDisk_Buff_Team_Green_04",
      "abilitySpecials": {
        "ChargeEff": 0.0
      },
      "modifiers": {
        "Activity_RechargeDisk_Buff_Team_Green_04": {
          "modifierName": "",
          "elementDurability": 100.0,
          "thinkInterval": 1.0,
          "onAdded": [
            {
              "$type": "AttachModifier",
              "target": "CurTeamAvatars",
              "shieldHP": true,
              "modifierName": "Activity_RechargeDisk_Buff_Team_Green_04_OnAvatar"
            }
          ],
          "onThinkInterval": [
            {
              "$type": "AttachModifier",
              "target": "CurTeamAvatars",
              "shieldHP": true,
              "modifierName": "Activity_RechargeDisk_Buff_Team_Green_04_OnAvatar"
            }
          ]
        },
        "Activity_RechargeDisk_Buff_Team_Green_04_OnAvatar": {
          "stacking": "Unique",
          "modifierName": "",
          "elementDurability": 100.0,
          "properties": {
            "Actor_ChargeEfficiencyDelta": "ChargeEff"
          },
          "isLimitedProperties": true
        }
      },
      "onAdded": [
        {
          "$type": "AttachModifier",
          "shieldHP": true,
          "modifierName": "Activity_RechargeDisk_Buff_Team_Green_04"
        }
      ],
      "isDynamicAbility": true
    }
  },
  {
    "Default": {
      "$type": "ConfigAbility",
      "abilityName": "Activity_RechargeDisk_Buff_Team_Green_05",
      "abilitySpecials": {
        "DefenceUpRatio": 0.0
      },
      "modifiers": {
        "Activity_RechargeDisk_Buff_Team_Green_05": {
          "modifierName": "",
          "elementDurability": 100.0,
          "thinkInterval": 1.0,
          "onAdded": [
            {
              "$type": "AttachModifier",
              "target": "CurTeamAvatars",
              "shieldHP": true,
              "modifierName": "Activity_RechargeDisk_Buff_Team_Green_05_OnAvatar"
            }
          ],
          "onThinkInterval": [
            {
              "$type": "AttachModifier",
              "target": "CurTeamAvatars",
              "shieldHP": true,
              "modifierName": "Activity_RechargeDisk_Buff_Team_Green_05_OnAvatar"
            }
          ]
        },
        "Activity_RechargeDisk_Buff_Team_Green_05_OnAvatar": {
          "stacking": "Unique",
          "modifierName": "",
          "elementDurability": 100.0,
          "properties": {
            "Actor_DefenceRatio": "DefenceUpRatio"
          },
          "isLimitedProperties": true
        }
      },
      "onAdded": [
        {
          "$type": "AttachModifier",
          "shieldHP": true,
          "modifierName": "Activity_RechargeDisk_Buff_Team_Green_05"
        }
      ],
      "isDynamicAbility": true
    }
  },
  {
    "Default": {
      "$type": "ConfigAbility",
      "abilityName": "Activity_RechargeDisk_Buff_Team_Blue_01",
      "abilitySpecials": {
        "bonusDamageRatio1": 0.0
      },
      "modifiers": {
        "Activity_RechargeDisk_Buff_Team_Blue_01": {
          "modifierName": "",
          "elementDurability": 100.0,
          "thinkInterval": 1.0,
          "onAdded": [
            {
              "$type": "AttachModifier",
              "target": "CurTeamAvatars",
              "shieldHP": true,
              "modifierName": "Activity_RechargeDisk_Buff_Team_Blue_01_OnAvatar"
            }
          ],
          "onThinkInterval": [
            {
              "$type": "AttachModifier",
              "target": "CurTeamAvatars",
              "shieldHP": true,
              "modifierName": "Activity_RechargeDisk_Buff_Team_Blue_01_OnAvatar"
            }
          ]
        },
        "Activity_RechargeDisk_Buff_Team_Blue_01_OnAvatar": {
          "stacking": "Unique",
          "modifierName": "",
          "elementDurability": 100.0,
          "thinkInterval": 0.5,
          "modifierMixins": [
            {
              "$type": "AttachModifierToGlobalValueMixin",
              "globalValueTarget": "Team",
              "globalValueKey": "_ABILITY_Activity_RechargeDisk_Blue_01_HasShield_OnTeam",
              "valueSteps": [0.5, 1.5],
              "modifierNameSteps": ["Activity_RechargeDisk_Blue_01_DamageUp"]
            }
          ],
          "onAdded": [
            {
              "$type": "Predicated",
              "targetPredicates": [
                {
                  "$type": "PDBBDHGEDJH",
                  "damageRatio": "All"
                }
              ],
              "successActions": [
                {
                  "$type": "SetGlobalValue",
                  "target": "Team",
                  "value": 1.0,
                  "key": "_ABILITY_Activity_RechargeDisk_Blue_01_HasShield_OnTeam",
                  "maxValue": 0.0,
                  "minValue": 0.0
                }
              ],
              "failActions": [
                {
                  "$type": "SetGlobalValue",
                  "target": "Team",
                  "value": 0.0,
                  "key": "_ABILITY_Activity_RechargeDisk_Blue_01_HasShield_OnTeam",
                  "maxValue": 0.0,
                  "minValue": 0.0
                }
              ]
            }
          ],
          "onThinkInterval": [
            {
              "$type": "Predicated",
              "targetPredicates": [
                {
                  "$type": "PDBBDHGEDJH",
                  "damageRatio": "All"
                }
              ],
              "successActions": [
                {
                  "$type": "SetGlobalValue",
                  "target": "Team",
                  "value": 1.0,
                  "key": "_ABILITY_Activity_RechargeDisk_Blue_01_HasShield_OnTeam",
                  "maxValue": 0.0,
                  "minValue": 0.0
                }
              ],
              "failActions": [
                {
                  "$type": "SetGlobalValue",
                  "target": "Team",
                  "value": 0.0,
                  "key": "_ABILITY_Activity_RechargeDisk_Blue_01_HasShield_OnTeam",
                  "maxValue": 0.0,
                  "minValue": 0.0
                }
              ]
            }
          ]
        },
        "Activity_RechargeDisk_Blue_01_DamageUp": {
          "modifierName": "",
          "elementDurability": 100.0,
          "properties": {
            "Actor_FireAddHurtDelta": "bonusDamageRatio1",
            "Actor_ElecAddHurtDelta": "bonusDamageRatio1",
            "Actor_WaterAddHurtDelta": "bonusDamageRatio1",
            "Actor_GrassAddHurtDelta": "bonusDamageRatio1",
            "Actor_WindAddHurtDelta": "bonusDamageRatio1",
            "Actor_IceAddHurtDelta": "bonusDamageRatio1",
            "Actor_RockAddHurtDelta": "bonusDamageRatio1"
          },
          "state": "AttackUp",
          "isLimitedProperties": true
        }
      },
      "onAdded": [
        {
          "$type": "SetGlobalValue",
          "target": "Team",
          "value": 1.0,
          "key": "_ABILITY_Activity_RechargeDisk_Blue_01_HasShield_OnTeam",
          "maxValue": 0.0,
          "minValue": 0.0
        },
        {
          "$type": "AttachModifier",
          "shieldHP": true,
          "modifierName": "Activity_RechargeDisk_Buff_Team_Blue_01"
        }
      ],
      "isDynamicAbility": true
    }
  },
  {
    "Default": {
      "$type": "ConfigAbility",
      "abilityName": "Activity_RechargeDisk_Buff_Team_Blue_02",
      "abilitySpecials": {
        "bonusDamageRatio1": 0.0,
        "BuffDuration": 0.0
      },
      "modifiers": {
        "Activity_RechargeDisk_Buff_Team_Blue_02": {
          "modifierName": "",
          "elementDurability": 100.0,
          "thinkInterval": 1.0,
          "onAdded": [
            {
              "$type": "AttachModifier",
              "target": "CurTeamAvatars",
              "shieldHP": true,
              "modifierName": "Activity_RechargeDisk_Buff_Team_Blue_02_OnAvatar"
            }
          ],
          "onThinkInterval": [
            {
              "$type": "AttachModifier",
              "target": "CurTeamAvatars",
              "shieldHP": true,
              "modifierName": "Activity_RechargeDisk_Buff_Team_Blue_02_OnAvatar"
            }
          ]
        },
        "Activity_RechargeDisk_Buff_Team_Blue_02_OnAvatar": {
          "stacking": "Unique",
          "modifierName": "",
          "elementDurability": 100.0,
          "onBeingHealed": [
            {
              "$type": "TriggerAbility",
              "target": "Team",
              "shieldHP": true,
              "abilityName": "Activity_RechargeDisk_Buff_Team_Blue_02"
            }
          ]
        },
        "UNIQUE_Activity_RechargeDisk_Blue_02_DamageUp_Team": {
          "modifierName": "",
          "forceTriggerWhenChangeAuthority": true,
          "duration": "BuffDuration",
          "elementDurability": 100.0,
          "thinkInterval": 0.5,
          "onAdded": [
            {
              "$type": "AttachModifier",
              "target": "CurTeamAvatars",
              "shieldHP": true,
              "modifierName": "Activity_RechargeDisk_Blue_02_DamageUp"
            }
          ],
          "onThinkInterval": [
            {
              "$type": "AttachModifier",
              "target": "CurTeamAvatars",
              "shieldHP": true,
              "modifierName": "Activity_RechargeDisk_Blue_02_DamageUp"
            }
          ]
        },
        "Activity_RechargeDisk_Blue_02_DamageUp": {
          "stacking": "Unique",
          "modifierName": "",
          "elementDurability": 100.0,
          "properties": {
            "Actor_FireAddHurtDelta": "bonusDamageRatio1",
            "Actor_ElecAddHurtDelta": "bonusDamageRatio1",
            "Actor_WaterAddHurtDelta": "bonusDamageRatio1",
            "Actor_GrassAddHurtDelta": "bonusDamageRatio1",
            "Actor_WindAddHurtDelta": "bonusDamageRatio1",
            "Actor_IceAddHurtDelta": "bonusDamageRatio1",
            "Actor_RockAddHurtDelta": "bonusDamageRatio1"
          },
          "state": "AttackUp",
          "isLimitedProperties": true
        }
      },
      "onAdded": [
        {
          "$type": "AttachModifier",
          "shieldHP": true,
          "modifierName": "Activity_RechargeDisk_Buff_Team_Blue_02"
        }
      ],
      "onAbilityStart": [
        {
          "$type": "AttachModifier",
          "target": "Team",
          "shieldHP": true,
          "modifierName": "UNIQUE_Activity_RechargeDisk_Blue_02_DamageUp_Team"
        }
      ],
      "isDynamicAbility": true
    }
  },
  {
    "Default": {
      "$type": "ConfigAbility",
      "abilityName": "Activity_RechargeDisk_Buff_Team_Blue_03",
      "abilitySpecials": {
        "bonusDamageRatio1": 0.0,
        "bonusDamageRatio2": 0.0,
        "BuffDuration": 0.0
      },
      "HKFPCGFFKMJ": ["_ABILITY_Activity_RechargeDisk_Blue_03_Layer"],
      "modifiers": {
        "Activity_RechargeDisk_Buff_Team_Blue_03": {
          "modifierName": "",
          "elementDurability": 100.0,
          "thinkInterval": 1.0,
          "onAdded": [
            {
              "$type": "AttachModifier",
              "target": "CurTeamAvatars",
              "shieldHP": true,
              "modifierName": "Activity_RechargeDisk_Buff_Team_Blue_03_OnAvatar"
            }
          ],
          "onThinkInterval": [
            {
              "$type": "AttachModifier",
              "target": "CurTeamAvatars",
              "shieldHP": true,
              "modifierName": "Activity_RechargeDisk_Buff_Team_Blue_03_OnAvatar"
            }
          ]
        },
        "Activity_RechargeDisk_Buff_Team_Blue_03_OnAvatar": {
          "stacking": "Unique",
          "modifierName": "",
          "elementDurability": 100.0,
          "onAttackLanded": [
            {
              "$type": "Predicated",
              "target": "Other",
              "shieldHP": true,
              "targetPredicates": [
                {
                  "$type": "ByEntityTypes",
                  "entityTypes": ["Monster"]
                },
                {
                  "$type": "ByAttackTags",
                  "attackTags": [
                    "Elemental_Art",
                    "Elemental_Art_Hold",
                    "Elemental_Art_Extra",
                    "Elemental_Burst"
                  ]
                },
                {
                  "$type": "ByNot",
                  "predicates": [
                    {
                      "$type": "BHFFBBOLCCP",
                      "target": "Team",
                      "modifierName": "Activity_RechargeDisk_Blue_03_DamageUp_Team_CD"
                    }
                  ]
                }
              ],
              "successActions": [
                {
                  "$type": "TriggerAbility",
                  "target": "Team",
                  "shieldHP": true,
                  "abilityName": "Activity_RechargeDisk_Buff_Team_Blue_03"
                },
                {
                  "$type": "ApplyModifier",
                  "target": "Team",
                  "shieldHP": true,
                  "modifierName": "Activity_RechargeDisk_Blue_03_DamageUp_Team_CD"
                }
              ]
            }
          ]
        },
        "Activity_RechargeDisk_Blue_03_DamageUp_Team": {
          "stacking": "MultipleAllRefresh",
          "stackingOption": {
            "abilitySpecialName": "",
            "maxModifierNumForMultipleType": 5.0
          },
          "modifierName": "",
          "duration": "BuffDuration",
          "elementDurability": 100.0,
          "thinkInterval": 1.0,
          "onAdded": [
            {
              "$type": "AddGlobalValue",
              "target": "Team",
              "shieldHP": true,
              "value": 1.0,
              "key": "_ABILITY_Activity_RechargeDisk_Blue_03_Layer",
              "useLimitRange": true,
              "maxValue": 5.0,
              "minValue": 0.0
            }
          ],
          "onRemoved": [
            {
              "$type": "SetGlobalValue",
              "target": "Team",
              "shieldHP": true,
              "value": 0.0,
              "key": "_ABILITY_Activity_RechargeDisk_Blue_03_Layer",
              "useLimitRange": true,
              "maxValue": 5.0,
              "minValue": 0.0
            },
            {
              "$type": "RemoveModifier",
              "target": "CurTeamAvatars",
              "shieldHP": true,
              "modifierName": "Activity_RechargeDisk_Blue_03_DamageUp"
            }
          ],
          "onThinkInterval": [
            {
              "$type": "AttachModifier",
              "target": "CurTeamAvatars",
              "shieldHP": true,
              "modifierName": "Activity_RechargeDisk_Blue_03_DamageUp"
            }
          ]
        },
        "Activity_RechargeDisk_Blue_03_DamageUp": {
          "stacking": "Unique",
          "modifierName": "",
          "elementDurability": 100.0,
          "modifierMixins": [
            {
              "$type": "ModifyDamageMixin",
              "attackTags": [
                "Elemental_Art",
                "Elemental_Art_Hold",
                "Elemental_Art_Extra"
              ],
              "actorWindSubHurtDelta": [
                "bonusDamageRatio1",
                "_ABILITY_Activity_RechargeDisk_Blue_03_Layer",
                "MUL"
              ]
            },
            {
              "$type": "ModifyDamageMixin",
              "attackTags": ["Elemental_Burst"],
              "actorWindSubHurtDelta": [
                "bonusDamageRatio2",
                "_ABILITY_Activity_RechargeDisk_Blue_03_Layer",
                "MUL"
              ]
            }
          ],
          "state": "AttackUp"
        },
        "Activity_RechargeDisk_Blue_03_DamageUp_Team_CD": {
          "stacking": "Unique",
          "modifierName": "",
          "duration": 0.20000000298023224,
          "elementDurability": 100.0
        }
      },
      "onAdded": [
        {
          "$type": "SetGlobalValue",
          "target": "Team",
          "shieldHP": true,
          "value": 0.0,
          "key": "_ABILITY_Activity_RechargeDisk_Blue_03_Layer",
          "maxValue": 0.0,
          "minValue": 0.0
        },
        {
          "$type": "AttachModifier",
          "target": "Team",
          "shieldHP": true,
          "modifierName": "Activity_RechargeDisk_Buff_Team_Blue_03"
        }
      ],
      "onAbilityStart": [
        {
          "$type": "AttachModifier",
          "target": "Team",
          "shieldHP": true,
          "modifierName": "Activity_RechargeDisk_Blue_03_DamageUp_Team"
        },
        {
          "$type": "AttachModifier",
          "target": "CurTeamAvatars",
          "shieldHP": true,
          "modifierName": "Activity_RechargeDisk_Blue_03_DamageUp"
        }
      ],
      "isDynamicAbility": true
    }
  },
  {
    "Default": {
      "$type": "ConfigAbility",
      "abilityName": "Activity_RechargeDisk_Buff_Team_Blue_04",
      "abilitySpecials": {
        "ElemDamageUpRatio": 0.0,
        "BuffDuration": 0.0,
        "TriggerType": 0.0
      },
      "HKFPCGFFKMJ": ["Activity_RechargeDisk_Blue_04_DamageUp_Layer"],
      "modifiers": {
        "Activity_RechargeDisk_Buff_Team_Blue_04": {
          "modifierName": "",
          "elementDurability": 100.0,
          "thinkInterval": 1.0,
          "onAdded": [
            {
              "$type": "AttachModifier",
              "target": "CurTeamAvatars",
              "shieldHP": true,
              "modifierName": "Activity_RechargeDisk_Buff_Team_Blue_04_OnAvatar"
            }
          ],
          "onThinkInterval": [
            {
              "$type": "AttachModifier",
              "target": "CurTeamAvatars",
              "shieldHP": true,
              "modifierName": "Activity_RechargeDisk_Buff_Team_Blue_04_OnAvatar"
            }
          ]
        },
        "Activity_RechargeDisk_Buff_Team_Blue_04_OnAvatar": {
          "stacking": "Unique",
          "modifierName": "",
          "elementDurability": 100.0,
          "onHittingOther": [
            {
              "$type": "Predicated",
              "target": "Other",
              "shieldHP": true,
              "targetPredicates": [
                {
                  "$type": "ByEntityTypes",
                  "entityTypes": ["Monster"]
                },
                {
                  "$type": "ByAttackTags",
                  "attackTags": [
                    "NormalAttack_01",
                    "NormalAttack_02",
                    "NormalAttack_03",
                    "NormalAttack_04",
                    "NormalAttack_05",
                    "NormalAttack_06"
                  ]
                },
                {
                  "$type": "ByNot",
                  "predicates": [
                    {
                      "$type": "BHFFBBOLCCP",
                      "target": "Team",
                      "modifierName": "Activity_RechargeDisk_Blue_04_DamageUp_Team_CD"
                    }
                  ]
                }
              ],
              "successActions": [
                {
                  "$type": "TriggerAbility",
                  "target": "Team",
                  "shieldHP": true,
                  "abilityName": "Activity_RechargeDisk_Buff_Team_Blue_04",
                  "abilitySpecials": {
                    "TriggerType": 1.0
                  }
                },
                {
                  "$type": "ApplyModifier",
                  "target": "Team",
                  "shieldHP": true,
                  "modifierName": "Activity_RechargeDisk_Blue_04_DamageUp_Team_CD"
                }
              ]
            },
            {
              "$type": "Predicated",
              "target": "Other",
              "shieldHP": true,
              "targetPredicates": [
                {
                  "$type": "ByEntityTypes",
                  "entityTypes": ["Monster"]
                },
                {
                  "$type": "ByAttackTags",
                  "attackTags": ["ExtraAttack", "FallingAttack"]
                },
                {
                  "$type": "ByNot",
                  "predicates": [
                    {
                      "$type": "BHFFBBOLCCP",
                      "target": "Team",
                      "modifierName": "Activity_RechargeDisk_Blue_04_DamageUp_Team_CD"
                    }
                  ]
                }
              ],
              "successActions": [
                {
                  "$type": "TriggerAbility",
                  "target": "Team",
                  "shieldHP": true,
                  "abilityName": "Activity_RechargeDisk_Buff_Team_Blue_04",
                  "abilitySpecials": {
                    "TriggerType": 2.0
                  }
                },
                {
                  "$type": "ApplyModifier",
                  "target": "Team",
                  "shieldHP": true,
                  "modifierName": "Activity_RechargeDisk_Blue_04_DamageUp_Team_CD"
                }
              ]
            }
          ]
        },
        "Activity_RechargeDisk_Blue_04_DamageUp_Team_1": {
          "stacking": "Multiple",
          "modifierName": "",
          "duration": 0.20000000298023224,
          "elementDurability": 100.0,
          "onAdded": [
            {
              "$type": "AddGlobalValue",
              "target": "Team",
              "shieldHP": true,
              "value": 1.0,
              "key": "Activity_RechargeDisk_Blue_04_DamageUp_Layer",
              "useLimitRange": true,
              "maxValue": 8.0,
              "minValue": 0.0
            },
            {
              "$type": "ApplyModifier",
              "target": "Team",
              "shieldHP": true,
              "modifierName": "Activity_RechargeDisk_Blue_04_DamageUp_Team"
            }
          ]
        },
        "Activity_RechargeDisk_Blue_04_DamageUp_Team_2": {
          "stacking": "Multiple",
          "modifierName": "",
          "duration": 0.20000000298023224,
          "elementDurability": 100.0,
          "onAdded": [
            {
              "$type": "AddGlobalValue",
              "target": "Team",
              "shieldHP": true,
              "value": 2.0,
              "key": "Activity_RechargeDisk_Blue_04_DamageUp_Layer",
              "useLimitRange": true,
              "maxValue": 8.0,
              "minValue": 0.0
            },
            {
              "$type": "ApplyModifier",
              "target": "Team",
              "shieldHP": true,
              "modifierName": "Activity_RechargeDisk_Blue_04_DamageUp_Team"
            }
          ]
        },
        "Activity_RechargeDisk_Blue_04_DamageUp_Team": {
          "modifierName": "",
          "duration": "BuffDuration",
          "elementDurability": 100.0,
          "thinkInterval": 0.5,
          "modifierMixins": [
            {
              "$type": "DoActionOnGlobalValueChangeMixin",
              "globalValueKey": "Activity_RechargeDisk_Blue_04_DamageUp_Layer",
              "actions": [
                {
                  "$type": "RemoveModifier",
                  "target": "CurTeamAvatars",
                  "shieldHP": true,
                  "modifierName": "Activity_RechargeDisk_Blue_04_DamageUp"
                },
                {
                  "$type": "AttachModifier",
                  "target": "CurTeamAvatars",
                  "shieldHP": true,
                  "predicates": [
                    {
                      "$type": "ByTargetGlobalValue",
                      "target": "Team",
                      "key": "Activity_RechargeDisk_Blue_04_DamageUp_Layer",
                      "value": 0.0,
                      "compareType": "MoreThan"
                    }
                  ],
                  "modifierName": "Activity_RechargeDisk_Blue_04_DamageUp"
                }
              ]
            }
          ],
          "onAdded": [
            {
              "$type": "RemoveModifier",
              "target": "CurTeamAvatars",
              "shieldHP": true,
              "modifierName": "Activity_RechargeDisk_Blue_04_DamageUp"
            },
            {
              "$type": "AttachModifier",
              "target": "CurTeamAvatars",
              "shieldHP": true,
              "modifierName": "Activity_RechargeDisk_Blue_04_DamageUp"
            }
          ],
          "onRemoved": [
            {
              "$type": "SetGlobalValue",
              "target": "Team",
              "shieldHP": true,
              "value": 0.0,
              "key": "Activity_RechargeDisk_Blue_04_DamageUp_Layer",
              "useLimitRange": true,
              "maxValue": 8.0,
              "minValue": 0.0
            }
          ],
          "onThinkInterval": [
            {
              "$type": "AttachModifier",
              "target": "CurTeamAvatars",
              "shieldHP": true,
              "modifierName": "Activity_RechargeDisk_Blue_04_DamageUp"
            }
          ]
        },
        "Activity_RechargeDisk_Blue_04_DamageUp": {
          "stacking": "Unique",
          "modifierName": "",
          "elementDurability": 100.0,
          "properties": {
            "Actor_FireAddHurtDelta": [
              "ElemDamageUpRatio",
              "Activity_RechargeDisk_Blue_04_DamageUp_Layer",
              "MUL"
            ],
            "Actor_WaterAddHurtDelta": [
              "ElemDamageUpRatio",
              "Activity_RechargeDisk_Blue_04_DamageUp_Layer",
              "MUL"
            ],
            "Actor_GrassAddHurtDelta": [
              "ElemDamageUpRatio",
              "Activity_RechargeDisk_Blue_04_DamageUp_Layer",
              "MUL"
            ],
            "Actor_ElecAddHurtDelta": [
              "ElemDamageUpRatio",
              "Activity_RechargeDisk_Blue_04_DamageUp_Layer",
              "MUL"
            ],
            "Actor_IceAddHurtDelta": [
              "ElemDamageUpRatio",
              "Activity_RechargeDisk_Blue_04_DamageUp_Layer",
              "MUL"
            ],
            "Actor_WindAddHurtDelta": [
              "ElemDamageUpRatio",
              "Activity_RechargeDisk_Blue_04_DamageUp_Layer",
              "MUL"
            ],
            "Actor_RockAddHurtDelta": [
              "ElemDamageUpRatio",
              "Activity_RechargeDisk_Blue_04_DamageUp_Layer",
              "MUL"
            ]
          },
          "state": "AttackUp",
          "isLimitedProperties": true
        },
        "Activity_RechargeDisk_Blue_04_DamageUp_Team_CD": {
          "stacking": "Unique",
          "modifierName": "",
          "duration": 0.20000000298023224,
          "elementDurability": 100.0
        }
      },
      "onAdded": [
        {
          "$type": "SetGlobalValue",
          "target": "Team",
          "shieldHP": true,
          "value": 0.0,
          "key": "Activity_RechargeDisk_Blue_04_DamageUp_Layer",
          "useLimitRange": true,
          "maxValue": 8.0,
          "minValue": 0.0
        },
        {
          "$type": "AttachModifier",
          "shieldHP": true,
          "modifierName": "Activity_RechargeDisk_Buff_Team_Blue_04"
        }
      ],
      "onRemoved": [
        {
          "$type": "RemoveModifier",
          "target": "Team",
          "shieldHP": true,
          "modifierName": "Activity_RechargeDisk_Blue_04_DamageUp_Team"
        }
      ],
      "onAbilityStart": [
        {
          "$type": "ApplyModifier",
          "target": "Team",
          "shieldHP": true,
          "predicates": [
            {
              "$type": "ByTargetOverrideMapValue",
              "target": "Team",
              "logic": "Equal",
              "targetAbilityName": "",
              "targetKey": "TriggerType",
              "targetValue": 1.0
            }
          ],
          "modifierName": "Activity_RechargeDisk_Blue_04_DamageUp_Team_1"
        },
        {
          "$type": "ApplyModifier",
          "target": "Team",
          "shieldHP": true,
          "predicates": [
            {
              "$type": "ByTargetOverrideMapValue",
              "target": "Team",
              "logic": "Equal",
              "targetAbilityName": "",
              "targetKey": "TriggerType",
              "targetValue": 2.0
            }
          ],
          "modifierName": "Activity_RechargeDisk_Blue_04_DamageUp_Team_2"
        }
      ],
      "isDynamicAbility": true
    }
  },
  {
    "Default": {
      "$type": "ConfigAbility",
      "abilityName": "Activity_RechargeDisk_Buff_Team_Blue_05",
      "abilitySpecials": {
        "DamageUpRate": 0.0,
        "ElemMasteryDelta": 0.0,
        "BuffDuration": 0.0
      },
      "HKFPCGFFKMJ": ["_ABILITY_Activity_RechargeDisk_Blue_05_Layer"],
      "modifiers": {
        "Activity_RechargeDisk_Buff_Team_Blue_05": {
          "modifierName": "",
          "elementDurability": 100.0,
          "thinkInterval": 1.0,
          "onAdded": [
            {
              "$type": "AttachModifier",
              "target": "CurTeamAvatars",
              "shieldHP": true,
              "modifierName": "Activity_RechargeDisk_Buff_Team_Blue_05_OnAvatar"
            }
          ],
          "onThinkInterval": [
            {
              "$type": "AttachModifier",
              "target": "CurTeamAvatars",
              "shieldHP": true,
              "modifierName": "Activity_RechargeDisk_Buff_Team_Blue_05_OnAvatar"
            }
          ]
        },
        "Activity_RechargeDisk_Buff_Team_Blue_05_OnAvatar": {
          "stacking": "Unique",
          "modifierName": "",
          "elementDurability": 100.0,
          "modifierMixins": [
            {
              "$type": "DoActionByElementReactionMixin",
              "range": 40.0,
              "entityTypes": ["Monster"],
              "reactionTypes": [
                "Burning",
                "CrystallizeElectric",
                "CrystallizeFire",
                "CrystallizeIce",
                "CrystallizeWater",
                "Explode",
                "Freeze",
                "Melt",
                "FrozenBroken",
                "Overdose",
                "OverdoseElectric",
                "OverdoseGrass",
                "Overgrow",
                "OvergrowMushroomElectric",
                "OvergrowMushroomFire",
                "Shock",
                "Stream",
                "Superconductor",
                "SwirlElectric",
                "SwirlFire",
                "SwirlIce",
                "SwirlWater"
              ],
              "actions": [
                {
                  "$type": "TriggerAbility",
                  "target": "Team",
                  "shieldHP": true,
                  "predicates": [
                    {
                      "$type": "ByNot",
                      "predicates": [
                        {
                          "$type": "BHFFBBOLCCP",
                          "target": "Team",
                          "modifierName": "Activity_RechargeDisk_Blue_05_DamageUp_Team_CD"
                        }
                      ]
                    }
                  ],
                  "abilityName": "Activity_RechargeDisk_Buff_Team_Blue_05"
                },
                {
                  "$type": "ApplyModifier",
                  "target": "Team",
                  "shieldHP": true,
                  "predicates": [
                    {
                      "$type": "ByNot",
                      "predicates": [
                        {
                          "$type": "BHFFBBOLCCP",
                          "target": "Team",
                          "modifierName": "Activity_RechargeDisk_Blue_05_DamageUp_Team_CD"
                        }
                      ]
                    }
                  ],
                  "modifierName": "Activity_RechargeDisk_Blue_05_DamageUp_Team_CD"
                }
              ]
            }
          ]
        },
        "Activity_RechargeDisk_Blue_05_DamageUp_Team": {
          "modifierName": "",
          "duration": "BuffDuration",
          "elementDurability": 100.0,
          "thinkInterval": 1.0,
          "modifierMixins": [
            {
              "$type": "DoActionOnGlobalValueChangeMixin",
              "globalValueKey": "_ABILITY_Activity_RechargeDisk_Blue_05_Layer",
              "actions": [
                {
                  "$type": "RemoveModifier",
                  "target": "CurTeamAvatars",
                  "shieldHP": true,
                  "modifierName": "Activity_RechargeDisk_Blue_05_DamageUp"
                },
                {
                  "$type": "AttachModifier",
                  "target": "CurTeamAvatars",
                  "shieldHP": true,
                  "predicates": [
                    {
                      "$type": "ByTargetGlobalValue",
                      "target": "Team",
                      "key": "_ABILITY_Activity_RechargeDisk_Blue_05_Layer",
                      "value": 0.0,
                      "compareType": "MoreThan"
                    }
                  ],
                  "modifierName": "Activity_RechargeDisk_Blue_05_DamageUp"
                }
              ]
            }
          ],
          "onAdded": [
            {
              "$type": "RemoveModifier",
              "target": "CurTeamAvatars",
              "shieldHP": true,
              "modifierName": "Activity_RechargeDisk_Blue_05_DamageUp"
            },
            {
              "$type": "AttachModifier",
              "target": "CurTeamAvatars",
              "shieldHP": true,
              "modifierName": "Activity_RechargeDisk_Blue_05_DamageUp"
            }
          ],
          "onRemoved": [
            {
              "$type": "SetGlobalValue",
              "shieldHP": true,
              "value": 0.0,
              "key": "_ABILITY_Activity_RechargeDisk_Blue_05_Layer",
              "useLimitRange": true,
              "maxValue": 5.0,
              "minValue": 0.0
            }
          ],
          "onThinkInterval": [
            {
              "$type": "AttachModifier",
              "target": "CurTeamAvatars",
              "shieldHP": true,
              "modifierName": "Activity_RechargeDisk_Blue_05_DamageUp"
            }
          ]
        },
        "Activity_RechargeDisk_Blue_05_DamageUp": {
          "stacking": "Unique",
          "modifierName": "",
          "elementDurability": 100.0,
          "properties": {
            "Actor_FireAddHurtDelta": [
              "DamageUpRate",
              "_ABILITY_Activity_RechargeDisk_Blue_05_Layer",
              "MUL"
            ],
            "Actor_WaterAddHurtDelta": [
              "DamageUpRate",
              "_ABILITY_Activity_RechargeDisk_Blue_05_Layer",
              "MUL"
            ],
            "Actor_GrassAddHurtDelta": [
              "DamageUpRate",
              "_ABILITY_Activity_RechargeDisk_Blue_05_Layer",
              "MUL"
            ],
            "Actor_ElecAddHurtDelta": [
              "DamageUpRate",
              "_ABILITY_Activity_RechargeDisk_Blue_05_Layer",
              "MUL"
            ],
            "Actor_IceAddHurtDelta": [
              "DamageUpRate",
              "_ABILITY_Activity_RechargeDisk_Blue_05_Layer",
              "MUL"
            ],
            "Actor_WindAddHurtDelta": [
              "DamageUpRate",
              "_ABILITY_Activity_RechargeDisk_Blue_05_Layer",
              "MUL"
            ],
            "Actor_RockAddHurtDelta": [
              "DamageUpRate",
              "_ABILITY_Activity_RechargeDisk_Blue_05_Layer",
              "MUL"
            ],
            "Actor_PhysicalAddHurtDelta": [
              "DamageUpRate",
              "_ABILITY_Activity_RechargeDisk_Blue_05_Layer",
              "MUL"
            ],
            "Actor_ElemMasteryDelta": [
              "ElemMasteryDelta",
              "_ABILITY_Activity_RechargeDisk_Blue_05_Layer",
              "MUL"
            ]
          },
          "state": "AttackUp",
          "isLimitedProperties": true
        },
        "Activity_RechargeDisk_Blue_05_DamageUp_Team_CD": {
          "stacking": "Unique",
          "modifierName": "",
          "duration": 1.0,
          "elementDurability": 100.0
        }
      },
      "onAdded": [
        {
          "$type": "SetGlobalValue",
          "shieldHP": true,
          "value": 0.0,
          "key": "_ABILITY_Activity_RechargeDisk_Blue_05_Layer",
          "useLimitRange": true,
          "maxValue": 5.0,
          "minValue": 0.0
        },
        {
          "$type": "AttachModifier",
          "shieldHP": true,
          "modifierName": "Activity_RechargeDisk_Buff_Team_Blue_05"
        }
      ],
      "onAbilityStart": [
        {
          "$type": "AddGlobalValue",
          "shieldHP": true,
          "value": 1.0,
          "key": "_ABILITY_Activity_RechargeDisk_Blue_05_Layer",
          "useLimitRange": true,
          "maxValue": 5.0,
          "minValue": 0.0
        },
        {
          "$type": "AttachModifier",
          "target": "Team",
          "shieldHP": true,
          "modifierName": "Activity_RechargeDisk_Blue_05_DamageUp_Team"
        }
      ],
      "isDynamicAbility": true
    }
  },
  {
    "Default": {
      "$type": "ConfigAbility",
      "abilityName": "Activity_RechargeDisk_Buff_Team_Purple_01",
      "abilitySpecials": {
        "critRatio": 0.0,
        "critHurtRatio": 0.0
      },
      "modifiers": {
        "Activity_RechargeDisk_Buff_Team_Purple_01": {
          "modifierName": "",
          "elementDurability": 100.0,
          "thinkInterval": 1.0,
          "onAdded": [
            {
              "$type": "AttachModifier",
              "target": "CurTeamAvatars",
              "shieldHP": true,
              "modifierName": "Activity_RechargeDisk_Buff_Team_Purple_01_OnAvatar"
            }
          ],
          "onThinkInterval": [
            {
              "$type": "AttachModifier",
              "target": "CurTeamAvatars",
              "shieldHP": true,
              "modifierName": "Activity_RechargeDisk_Buff_Team_Purple_01_OnAvatar"
            }
          ]
        },
        "Activity_RechargeDisk_Buff_Team_Purple_01_OnAvatar": {
          "stacking": "Unique",
          "modifierName": "",
          "elementDurability": 100.0,
          "properties": {
            "Actor_CriticalDelta": "critRatio",
            "Actor_CriticalHurtDelta": "critHurtRatio"
          },
          "isLimitedProperties": true
        }
      },
      "onAdded": [
        {
          "$type": "AttachModifier",
          "shieldHP": true,
          "modifierName": "Activity_RechargeDisk_Buff_Team_Purple_01"
        }
      ],
      "isDynamicAbility": true
    }
  },
  {
    "Default": {
      "$type": "ConfigAbility",
      "abilityName": "Activity_RechargeDisk_Buff_Team_Purple_02",
      "abilitySpecials": {
        "DefenseDown": 0.0,
        "DebuffDuration": 0.0
      },
      "modifiers": {
        "Activity_RechargeDisk_Buff_Team_Purple_02": {
          "modifierName": "",
          "elementDurability": 100.0,
          "thinkInterval": 1.0,
          "onAdded": [
            {
              "$type": "AttachModifier",
              "target": "CurTeamAvatars",
              "shieldHP": true,
              "modifierName": "Activity_RechargeDisk_Buff_Team_Purple_02_OnAvatar"
            }
          ],
          "onThinkInterval": [
            {
              "$type": "AttachModifier",
              "target": "CurTeamAvatars",
              "shieldHP": true,
              "modifierName": "Activity_RechargeDisk_Buff_Team_Purple_02_OnAvatar"
            }
          ]
        },
        "Activity_RechargeDisk_Buff_Team_Purple_02_OnAvatar": {
          "stacking": "Unique",
          "modifierName": "",
          "elementDurability": 100.0,
          "onAttackLanded": [
            {
              "$type": "Predicated",
              "target": "Other",
              "shieldHP": true,
              "targetPredicates": [
                {
                  "$type": "ByEntityTypes",
                  "entityTypes": ["Monster"]
                }
              ],
              "successActions": [
                {
                  "$type": "AttachModifier",
                  "target": "Other",
                  "shieldHP": true,
                  "modifierName": "UNIQUE_Activity_RechargeDisk_Buff_Team_Purple_02_Debuff"
                }
              ]
            }
          ]
        },
        "UNIQUE_Activity_RechargeDisk_Buff_Team_Purple_02_Debuff": {
          "stacking": "RefreshUniqueDurability",
          "modifierName": "",
          "forceTriggerWhenChangeAuthority": true,
          "duration": "DebuffDuration",
          "elementDurability": 100.0,
          "properties": {
            "Actor_DefenceRatio": [0.0, 1.0, "DefenseDown", "MUL", "SUB"]
          },
          "state": "DefenseDown",
          "isLimitedProperties": true
        }
      },
      "onAdded": [
        {
          "$type": "AttachModifier",
          "shieldHP": true,
          "modifierName": "Activity_RechargeDisk_Buff_Team_Purple_02"
        }
      ],
      "isDynamicAbility": true
    }
  },
  {
    "Default": {
      "$type": "ConfigAbility",
      "abilityName": "Activity_RechargeDisk_Buff_Team_Purple_03",
      "abilitySpecials": {
        "bonusDamageRatio1": 0.0,
        "DebuffDuration": 0.0
      },
      "modifiers": {
        "Activity_RechargeDisk_Buff_Team_Purple_03": {
          "modifierName": "",
          "elementDurability": 100.0,
          "thinkInterval": 1.0,
          "onAdded": [
            {
              "$type": "AttachModifier",
              "target": "CurTeamAvatars",
              "shieldHP": true,
              "modifierName": "Activity_RechargeDisk_Buff_Team_Purple_03_OnAvatar"
            }
          ],
          "onThinkInterval": [
            {
              "$type": "AttachModifier",
              "target": "CurTeamAvatars",
              "shieldHP": true,
              "modifierName": "Activity_RechargeDisk_Buff_Team_Purple_03_OnAvatar"
            }
          ]
        },
        "Activity_RechargeDisk_Buff_Team_Purple_03_OnAvatar": {
          "stacking": "Unique",
          "modifierName": "",
          "elementDurability": 100.0,
          "modifierMixins": [
            {
              "$type": "DoActionByElementReactionMixin",
              "range": 40.0,
              "entityTypes": ["Monster"],
              "reactionTypes": [
                "Burning",
                "CrystallizeElectric",
                "CrystallizeFire",
                "CrystallizeIce",
                "CrystallizeWater",
                "Explode",
                "Freeze",
                "Melt",
                "FrozenBroken",
                "Overdose",
                "OverdoseElectric",
                "OverdoseGrass",
                "Overgrow",
                "OvergrowMushroomElectric",
                "OvergrowMushroomFire",
                "Shock",
                "Stream",
                "Superconductor",
                "SwirlElectric",
                "SwirlFire",
                "SwirlIce",
                "SwirlWater"
              ],
              "actions": [
                {
                  "$type": "AttachModifier",
                  "target": "Other",
                  "shieldHP": true,
                  "modifierName": "UNIQUE_Activity_RechargeDisk_Buff_Team_Purple_03_Debuff"
                }
              ]
            }
          ]
        },
        "UNIQUE_Activity_RechargeDisk_Buff_Team_Purple_03_Debuff": {
          "stacking": "RefreshUniqueDurability",
          "modifierName": "",
          "forceTriggerWhenChangeAuthority": true,
          "duration": "DebuffDuration",
          "elementDurability": 100.0,
          "properties": {
            "Actor_FireSubHurtDelta": [
              0.0,
              1.0,
              "bonusDamageRatio1",
              "MUL",
              "SUB"
            ],
            "Actor_ElecSubHurtDelta": [
              0.0,
              1.0,
              "bonusDamageRatio1",
              "MUL",
              "SUB"
            ],
            "Actor_WaterSubHurtDelta": [
              0.0,
              1.0,
              "bonusDamageRatio1",
              "MUL",
              "SUB"
            ],
            "Actor_GrassSubHurtDelta": [
              0.0,
              1.0,
              "bonusDamageRatio1",
              "MUL",
              "SUB"
            ],
            "Actor_WindSubHurtDelta": [
              0.0,
              1.0,
              "bonusDamageRatio1",
              "MUL",
              "SUB"
            ],
            "Actor_IceSubHurtDelta": [
              0.0,
              1.0,
              "bonusDamageRatio1",
              "MUL",
              "SUB"
            ],
            "Actor_RockSubHurtDelta": [
              0.0,
              1.0,
              "bonusDamageRatio1",
              "MUL",
              "SUB"
            ]
          },
          "state": "DefenseDown",
          "isLimitedProperties": true
        }
      },
      "onAdded": [
        {
          "$type": "AttachModifier",
          "shieldHP": true,
          "modifierName": "Activity_RechargeDisk_Buff_Team_Purple_03"
        }
      ],
      "isDynamicAbility": true
    }
  },
  {
    "Default": {
      "$type": "ConfigAbility",
      "abilityName": "Activity_RechargeDisk_Buff_Team_Purple_04",
      "abilitySpecials": {
        "TriggerCD": 0.0
      },
      "modifiers": {
        "Activity_RechargeDisk_Buff_Team_Purple_04": {
          "modifierName": "",
          "elementDurability": 100.0,
          "thinkInterval": 1.0,
          "onAdded": [
            {
              "$type": "AttachModifier",
              "target": "CurTeamAvatars",
              "shieldHP": true,
              "modifierName": "Activity_RechargeDisk_Buff_Team_Purple_04_OnAvatar"
            }
          ],
          "onThinkInterval": [
            {
              "$type": "AttachModifier",
              "target": "CurTeamAvatars",
              "shieldHP": true,
              "modifierName": "Activity_RechargeDisk_Buff_Team_Purple_04_OnAvatar"
            }
          ]
        },
        "Activity_RechargeDisk_Buff_Team_Purple_04_OnAvatar": {
          "stacking": "Unique",
          "modifierName": "",
          "elementDurability": 100.0,
          "onAttackLanded": [
            {
              "$type": "Predicated",
              "target": "Other",
              "shieldHP": true,
              "targetPredicates": [
                {
                  "$type": "ByEntityTypes",
                  "entityTypes": ["Monster"]
                },
                {
                  "$type": "ByNot",
                  "predicates": [
                    {
                      "$type": "BHFFBBOLCCP",
                      "target": "Team",
                      "modifierName": "Activity_RechargeDisk_Buff_Team_Purple_04_CD"
                    }
                  ]
                }
              ],
              "successActions": [
                {
                  "$type": "SetGlobalPos",
                  "target": "Other",
                  "shieldHP": true,
                  "key": "_ABILITY_echargeDisk_Buff_Team_Purple_04_Pos",
                  "born": {
                    "$type": "ConfigBornByTarget",
                    "useRotation": true
                  },
                  "setTarget": false
                },
                {
                  "$type": "TriggerAbility",
                  "target": "Team",
                  "shieldHP": true,
                  "abilityName": "Activity_RechargeDisk_Buff_Team_Purple_04"
                },
                {
                  "$type": "ApplyModifier",
                  "target": "Team",
                  "shieldHP": true,
                  "modifierName": "Activity_RechargeDisk_Buff_Team_Purple_04_CD"
                }
              ]
            }
          ]
        },
        "Activity_RechargeDisk_Buff_Team_Purple_04_CD": {
          "stacking": "Unique",
          "modifierName": "",
          "duration": "TriggerCD",
          "elementDurability": 100.0
        }
      },
      "onAdded": [
        {
          "$type": "AttachModifier",
          "shieldHP": true,
          "modifierName": "Activity_RechargeDisk_Buff_Team_Purple_04"
        }
      ],
      "onAbilityStart": [
        {
          "$type": "CreateGadget",
          "born": {
            "$type": "ConfigBornByGlobalValue",
            "onGround": true,
            "onGroundIgnoreWater": true,
            "onGroundRaycastUpDist": 3.0,
            "positionKey": "_ABILITY_echargeDisk_Buff_Team_Purple_04_Pos",
            "directionKey": "_ABILITY_echargeDisk_Buff_Team_Purple_04_Pos"
          },
          "gadgetID": 42000013,
          "campID": 1001,
          "campTargetType": "Enemy"
        }
      ],
      "isDynamicAbility": true
    }
  },
  {
    "Default": {
      "$type": "ConfigAbility",
      "abilityName": "Activity_RechargeDisk_Purple_WindZone",
      "abilitySpecials": {
        "WindZoneDuratio": 0.0,
        "ElemDamageUpRatio": 0.0
      },
      "modifiers": {
        "Self_Driver": {
          "modifierName": "",
          "duration": "WindZoneDuratio",
          "elementDurability": 100.0,
          "thinkInterval": 1.0,
          "modifierMixins": [
            {
              "$type": "WindZoneMixin",
              "shapeName": "CircleR10H10",
              "born": {
                "$type": "ConfigBornBySelf",
                "offset": {
                  "x": 0.0,
                  "y": 2.0,
                  "z": 0.0
                },
                "useRotation": true
              },
              "strength": 7.0,
              "IAELBHDMINN": 2.0,
              "MMBCLAEOEFB": 0.5,
              "reverse": true,
              "targetType": "All",
              "predicates": [
                {
                  "$type": "ByEntityTypes",
                  "entityTypes": ["Monster"]
                },
                {
                  "$type": "ByTargetWeight",
                  "logic": "Lesser",
                  "BHOOHGLJDHM": 100.0
                }
              ],
              "modifierName": ""
            },
            {
              "$type": "WindZoneMixin",
              "shapeName": "CircleR10H10",
              "born": {
                "$type": "ConfigBornBySelf",
                "offset": {
                  "x": 0.0,
                  "y": 2.0,
                  "z": 0.0
                },
                "useRotation": true
              },
              "strength": 15.0,
              "IAELBHDMINN": 3.0,
              "MMBCLAEOEFB": 0.5,
              "reverse": true,
              "targetType": "All",
              "predicates": [
                {
                  "$type": "ByEntityTypes",
                  "entityTypes": ["Monster"]
                },
                {
                  "$type": "ByTargetWeight",
                  "logic": "LesserOrEqual",
                  "BHOOHGLJDHM": 150.0
                },
                {
                  "$type": "ByTargetWeight",
                  "logic": "GreaterOrEqual",
                  "BHOOHGLJDHM": 100.0
                }
              ],
              "modifierName": ""
            }
          ],
          "onAdded": [
            {
              "$type": "AttachEffect",
              "rotationDampTime": "Eff_Activity_MVM_WindZone",
              "PPPDJGDDOGD": 1.0,
              "AJDILHJFNKE": -1.0
            },
            {
              "$type": "AttachModifier",
              "target": "AllPlayerAvatars",
              "modifierName": "UNIQUE_Activity_RechargeDisk_Purple_WindZone_DamageUp"
            }
          ],
          "onRemoved": [
            {
              "$type": "KillSelf",
              "configIdArray": [42000013]
            }
          ],
          "onThinkInterval": [
            {
              "$type": "AttachModifier",
              "target": "AllPlayerAvatars",
              "modifierName": "UNIQUE_Activity_RechargeDisk_Purple_WindZone_DamageUp"
            }
          ]
        },
        "UNIQUE_Activity_RechargeDisk_Purple_WindZone_DamageUp": {
          "stacking": "RefreshUniqueDurability",
          "modifierName": "",
          "forceTriggerWhenChangeAuthority": true,
          "duration": 6.0,
          "elementDurability": 100.0,
          "properties": {
            "Actor_FireAddHurtDelta": "ElemDamageUpRatio",
            "Actor_WaterAddHurtDelta": "ElemDamageUpRatio",
            "Actor_GrassAddHurtDelta": "ElemDamageUpRatio",
            "Actor_ElecAddHurtDelta": "ElemDamageUpRatio",
            "Actor_IceAddHurtDelta": "ElemDamageUpRatio",
            "Actor_WindAddHurtDelta": "ElemDamageUpRatio",
            "Actor_RockAddHurtDelta": "ElemDamageUpRatio"
          },
          "state": "AttackUp",
          "isLimitedProperties": true
        }
      },
      "onAdded": [
        {
          "$type": "AttachModifier",
          "modifierName": "Self_Driver"
        }
      ]
    }
  }
]
