[
  {
    "Default": {
      "$type": "ConfigAbility",
      "abilityName": "ActivityAbility_BossChallenge_Water_ElementAddHurt_Ice",
      "abilitySpecials": {
        "ElementAddHurt_Ice": 0.0,
        "Time": 0.0,
        "MaxUseTime": 0.0,
        "CurBossChallengeEnergy": 0.0
      },
      "modifiers": {
        "UNIQUE_BossChallenge_ElementAddHurt_Ice": {
          "stacking": "RefreshUniqueDurability",
          "modifierName": "",
          "forceTriggerWhenChangeAuthority": true,
          "duration": "Time",
          "elementDurability": 100.0,
          "properties": {
            "Actor_IceAddHurtDelta": "ElementAddHurt_Ice"
          },
          "state": "AttackUp",
          "isLimitedProperties": true,
          "buffID": 35016
        },
        "InitData": {
          "modifierName": "",
          "duration": 0.5,
          "elementDurability": 100.0,
          "onRemoved": [
            {
              "$type": "SetGlobalValueToOverrideMap",
              "globalValueKey": "SGV_HypostasisChallenge_T_MaxTriggerCount",
              "overrideMapKey": "MaxUseTime"
            },
            {
              "$type": "SetGlobalValue",
              "value": "MaxUseTime",
              "key": "BossChallenge_Energy",
              "maxValue": 0.0,
              "minValue": 0.0
            }
          ]
        }
      },
      "onAdded": [
        {
          "$type": "MMEOBGGBNLK",
          "skillID": 20031
        },
        {
          "$type": "ApplyModifier",
          "modifierName": "InitData"
        },
        {
          "$type": "NPGCEEJFDEM",
          "enable": true
        }
      ],
      "onRemoved": [
        {
          "$type": "MMEOBGGBNLK"
        },
        {
          "$type": "SetGlobalValue",
          "value": 0.0,
          "key": "BossChallenge_Energy",
          "maxValue": 0.0,
          "minValue": 0.0
        }
      ],
      "onAbilityStart": [
        {
          "$type": "LIAKJHCLFLK"
        },
        {
          "$type": "AddGlobalValue",
          "target": "Team",
          "value": -1.0,
          "key": "BossChallenge_Energy",
          "useLimitRange": true,
          "maxValue": 100.0,
          "minValue": 0.0
        },
        {
          "$type": "SetGlobalValueToOverrideMap",
          "globalValueKey": "BossChallenge_Energy",
          "overrideMapKey": "CurBossChallengeEnergy"
        },
        {
          "$type": "AHPEKICBIIL",
          "luaCallType": "CurGalleryControlGroup",
          "funcName": "SLC_UpdateTRemainUseTime",
          "paramNum": 2,
          "param1": 0,
          "MGAMDEHMCOL": 2.0,
          "MMHOHAOGPLP": 0.0
        },
        {
          "$type": "AttachModifier",
          "target": "AllPlayerAvatars",
          "modifierName": "UNIQUE_BossChallenge_ElementAddHurt_Ice"
        }
      ],
      "isDynamicAbility": true
    }
  },
  {
    "Default": {
      "$type": "ConfigAbility",
      "abilityName": "ActivityAbility_BossChallenge_Water_ElementAddHurt_Elec",
      "abilitySpecials": {
        "ElementAddHurt_Elec": 0.0,
        "Time": 0.0,
        "MaxUseTime": 0.0,
        "CurBossChallengeEnergy": 0.0
      },
      "modifiers": {
        "UNIQUE_BossChallenge_ElementAddHurt_Elec": {
          "stacking": "RefreshUniqueDurability",
          "modifierName": "",
          "forceTriggerWhenChangeAuthority": true,
          "duration": "Time",
          "elementDurability": 100.0,
          "properties": {
            "Actor_ElecAddHurtDelta": "ElementAddHurt_Elec"
          },
          "state": "AttackUp",
          "isLimitedProperties": true,
          "buffID": 35016
        },
        "InitData": {
          "modifierName": "",
          "duration": 0.5,
          "elementDurability": 100.0,
          "onRemoved": [
            {
              "$type": "SetGlobalValueToOverrideMap",
              "globalValueKey": "SGV_HypostasisChallenge_T_MaxTriggerCount",
              "overrideMapKey": "MaxUseTime"
            },
            {
              "$type": "SetGlobalValue",
              "value": "MaxUseTime",
              "key": "BossChallenge_Energy",
              "maxValue": 0.0,
              "minValue": 0.0
            }
          ]
        }
      },
      "onAdded": [
        {
          "$type": "MMEOBGGBNLK",
          "skillID": 20032
        },
        {
          "$type": "ApplyModifier",
          "modifierName": "InitData"
        },
        {
          "$type": "NPGCEEJFDEM",
          "enable": true
        }
      ],
      "onRemoved": [
        {
          "$type": "MMEOBGGBNLK"
        },
        {
          "$type": "SetGlobalValue",
          "value": 0.0,
          "key": "BossChallenge_Energy",
          "maxValue": 0.0,
          "minValue": 0.0
        }
      ],
      "onAbilityStart": [
        {
          "$type": "AttachModifier",
          "target": "AllPlayerAvatars",
          "modifierName": "UNIQUE_BossChallenge_ElementAddHurt_Elec"
        },
        {
          "$type": "LIAKJHCLFLK"
        },
        {
          "$type": "AddGlobalValue",
          "target": "Team",
          "value": -1.0,
          "key": "BossChallenge_Energy",
          "useLimitRange": true,
          "maxValue": 100.0,
          "minValue": 0.0
        },
        {
          "$type": "SetGlobalValueToOverrideMap",
          "globalValueKey": "BossChallenge_Energy",
          "overrideMapKey": "CurBossChallengeEnergy"
        },
        {
          "$type": "AHPEKICBIIL",
          "luaCallType": "CurGalleryControlGroup",
          "funcName": "SLC_UpdateTRemainUseTime",
          "paramNum": 2,
          "param1": 0,
          "MGAMDEHMCOL": 3.0,
          "MMHOHAOGPLP": 0.0
        }
      ],
      "isDynamicAbility": true
    }
  },
  {
    "Default": {
      "$type": "ConfigAbility",
      "abilityName": "ActivityAbility_BossChallenge_Water_FreezeTriggerCJB",
      "abilitySpecials": {
        "ImpactDamageSystemValue": 0.0,
        "ImpactDamage": 0.0,
        "Time": 0.0,
        "MaxUseTime": 0.0,
        "CurBossChallengeEnergy": 0.0
      },
      "modifiers": {
        "UNIQUE_BossChallenge_FreezeTriggerCJB_Handler": {
          "stacking": "RefreshUniqueDurability",
          "modifierName": "",
          "forceTriggerWhenChangeAuthority": true,
          "duration": "Time",
          "elementDurability": 100.0,
          "modifierMixins": [
            {
              "$type": "DoActionByElementReactionMixin",
              "range": 30.0,
              "entityTypes": ["Monster"],
              "reactionTypes": ["Freeze"],
              "actions": [
                {
                  "$type": "ApplyModifier",
                  "target": "Other",
                  "shieldHP": true,
                  "predicates": [
                    {
                      "$type": "ByTargetGlobalValue",
                      "target": "Team",
                      "key": "_ABILITY_BossChallenge_Freeze_TriggerCount",
                      "value": 1.0,
                      "compareType": "LessAndEqual"
                    }
                  ],
                  "modifierName": "UNIQUE_BossChallenge_FreezeTriggerCJB_CJB"
                },
                {
                  "$type": "AddGlobalValue",
                  "target": "Team",
                  "shieldHP": true,
                  "value": 1.0,
                  "key": "_ABILITY_BossChallenge_Freeze_TriggerCount",
                  "useLimitRange": true,
                  "maxValue": 3.0,
                  "minValue": 0.0
                }
              ]
            }
          ],
          "onRemoved": [
            {
              "$type": "SetGlobalValue",
              "target": "Team",
              "value": 0.0,
              "key": "_ABILITY_BossChallenge_Freeze_TriggerCount",
              "maxValue": 0.0,
              "minValue": 0.0
            }
          ],
          "buffID": 35016
        },
        "UNIQUE_BossChallenge_FreezeTriggerCJB_CJB": {
          "modifierName": "",
          "forceTriggerWhenChangeAuthority": true,
          "duration": 0.20000000298023224,
          "elementDurability": 100.0,
          "onRemoved": [
            {
              "$type": "FireEffect",
              "rotationDampTime": "Eff_Stages_GainShieldDoDamage_Ice",
              "born": {
                "$type": "ConfigBornByTarget"
              },
              "PPPDJGDDOGD": 1.0,
              "AJDILHJFNKE": -1.0
            },
            {
              "$type": "TriggerAttackEvent",
              "target": "Applier",
              "attackEvent": {
                "attackPattern": {
                  "$type": "ConfigAttackSphere",
                  "triggerType": "TriggerNoRepeat",
                  "born": {
                    "$type": "ConfigBornBySelf"
                  },
                  "radius": 5.0
                },
                "attackInfo": {
                  "attackTag": "",
                  "attenuationTag": "",
                  "attenuationGroup": "default",
                  "attackProperty": {
                    "actorWindSubHurtDelta": 0.0,
                    "elementType": "Ice",
                    "elementDurability": 25.0,
                    "ignoreAttackerProperty": true,
                    "strikeType": "Default",
                    "enBreak": 0.0,
                    "HMBONGBFIAP": [
                      "ImpactDamage",
                      "ImpactDamageSystemValue",
                      "MUL"
                    ],
                    "trueDamage": true,
                    "ignoreModifyDamage": true,
                    "GLKMCMDJBIK": 0.0
                  },
                  "hitPattern": {
                    "onHitEffectName": "",
                    "hitImpulseY": "",
                    "hitImpulseType": "LV1",
                    "hitHaltTimeScale": 0.009999999776482582
                  }
                }
              },
              "targetType": "Enemy"
            }
          ]
        },
        "InitData": {
          "modifierName": "",
          "duration": 0.5,
          "elementDurability": 100.0,
          "onRemoved": [
            {
              "$type": "SetGlobalValueToOverrideMap",
              "globalValueKey": "SGV_HypostasisChallenge_T_MaxTriggerCount",
              "overrideMapKey": "MaxUseTime"
            },
            {
              "$type": "SetGlobalValue",
              "value": "MaxUseTime",
              "key": "BossChallenge_Energy",
              "maxValue": 0.0,
              "minValue": 0.0
            }
          ]
        }
      },
      "onAdded": [
        {
          "$type": "MMEOBGGBNLK",
          "skillID": 20030
        },
        {
          "$type": "ApplyModifier",
          "modifierName": "InitData"
        },
        {
          "$type": "NPGCEEJFDEM",
          "enable": true
        },
        {
          "$type": "GDHGMAPPGHD",
          "key": "ImpactDamageSystemValue",
          "damageRatio": "ElementLevelCo"
        },
        {
          "$type": "SetGlobalValue",
          "target": "Team",
          "value": 0.0,
          "key": "_ABILITY_BossChallenge_Freeze_TriggerCount",
          "maxValue": 0.0,
          "minValue": 0.0
        }
      ],
      "onRemoved": [
        {
          "$type": "MMEOBGGBNLK"
        },
        {
          "$type": "SetGlobalValue",
          "value": 0.0,
          "key": "BossChallenge_Energy",
          "maxValue": 0.0,
          "minValue": 0.0
        }
      ],
      "onAbilityStart": [
        {
          "$type": "LIAKJHCLFLK"
        },
        {
          "$type": "AddGlobalValue",
          "target": "Team",
          "value": -1.0,
          "key": "BossChallenge_Energy",
          "useLimitRange": true,
          "maxValue": 100.0,
          "minValue": 0.0
        },
        {
          "$type": "SetGlobalValueToOverrideMap",
          "globalValueKey": "BossChallenge_Energy",
          "overrideMapKey": "CurBossChallengeEnergy"
        },
        {
          "$type": "AHPEKICBIIL",
          "luaCallType": "CurGalleryControlGroup",
          "funcName": "SLC_UpdateTRemainUseTime",
          "paramNum": 2,
          "param1": 0,
          "MGAMDEHMCOL": 1.0,
          "MMHOHAOGPLP": 0.0
        },
        {
          "$type": "SetGlobalValue",
          "target": "Team",
          "value": 0.0,
          "key": "_ABILITY_BossChallenge_Freeze_TriggerCount",
          "maxValue": 0.0,
          "minValue": 0.0
        },
        {
          "$type": "AttachModifier",
          "target": "AllPlayerAvatars",
          "shieldHP": true,
          "modifierName": "UNIQUE_BossChallenge_FreezeTriggerCJB_Handler"
        }
      ],
      "isDynamicAbility": true
    }
  },
  {
    "Default": {
      "$type": "ConfigAbility",
      "abilityName": "ActivityAbility_BossChallenge_Water_KillMonsterHealHp",
      "abilitySpecials": {
        "ReviveEnergy": 0.0,
        "HealHPRatio": 0.0,
        "Duration": 0.0,
        "Interval": 0.0,
        "HealHPLayer": 0.0,
        "MaxUseTime": 0.0,
        "CurBossChallengeEnergy": 0.0,
        "HealHPValue": 0.0
      },
      "modifiers": {
        "UNIQUE_BossChallenge_Water_ReviveEnergy": {
          "modifierName": "",
          "forceTriggerWhenChangeAuthority": true,
          "duration": 1.0,
          "elementDurability": 100.0,
          "onAdded": [
            {
              "$type": "ReviveElemEnergy",
              "shieldHP": true,
              "value": "ReviveEnergy"
            }
          ]
        },
        "UNIQUE_BossChallenge_Water_HealHp": {
          "modifierName": "",
          "forceTriggerWhenChangeAuthority": true,
          "duration": "Duration",
          "elementDurability": 100.0,
          "thinkInterval": "Interval",
          "onAdded": [
            {
              "$type": "HealHP",
              "shieldHP": true,
              "CKDBFHCIJEK": "HealHPRatio",
              "cdRatio": ""
            }
          ],
          "onThinkInterval": [
            {
              "$type": "HealHP",
              "shieldHP": true,
              "CKDBFHCIJEK": "HealHPRatio",
              "cdRatio": ""
            }
          ],
          "buffID": 35016
        },
        "InitData": {
          "modifierName": "",
          "duration": 0.5,
          "elementDurability": 100.0,
          "onRemoved": [
            {
              "$type": "SetGlobalValueToOverrideMap",
              "globalValueKey": "SGV_HypostasisChallenge_T_MaxTriggerCount",
              "overrideMapKey": "MaxUseTime"
            },
            {
              "$type": "SetGlobalValue",
              "value": "MaxUseTime",
              "key": "BossChallenge_Energy",
              "maxValue": 0.0,
              "minValue": 0.0
            }
          ]
        }
      },
      "onAdded": [
        {
          "$type": "MMEOBGGBNLK",
          "skillID": 20033
        },
        {
          "$type": "ApplyModifier",
          "modifierName": "InitData"
        },
        {
          "$type": "NPGCEEJFDEM",
          "enable": true
        }
      ],
      "onRemoved": [
        {
          "$type": "MMEOBGGBNLK"
        },
        {
          "$type": "SetGlobalValue",
          "value": 0.0,
          "key": "BossChallenge_Energy",
          "maxValue": 0.0,
          "minValue": 0.0
        }
      ],
      "onAbilityStart": [
        {
          "$type": "LIAKJHCLFLK"
        },
        {
          "$type": "AddGlobalValue",
          "target": "Team",
          "value": -1.0,
          "key": "BossChallenge_Energy",
          "useLimitRange": true,
          "maxValue": 100.0,
          "minValue": 0.0
        },
        {
          "$type": "SetGlobalValueToOverrideMap",
          "globalValueKey": "BossChallenge_Energy",
          "overrideMapKey": "CurBossChallengeEnergy"
        },
        {
          "$type": "AHPEKICBIIL",
          "luaCallType": "CurGalleryControlGroup",
          "funcName": "SLC_UpdateTRemainUseTime",
          "paramNum": 2,
          "param1": 0,
          "MGAMDEHMCOL": 4.0,
          "MMHOHAOGPLP": 0.0
        },
        {
          "$type": "RemoveUniqueModifier",
          "target": "AllPlayerAvatars",
          "modifierName": "UNIQUE_BossChallenge_Water_HealHp"
        },
        {
          "$type": "SetGlobalValueToOverrideMap",
          "globalValueKey": "SGV_Team_HypostasisChallenge_Water",
          "overrideMapKey": "HealHPLayer"
        },
        {
          "$type": "ApplyModifier",
          "target": "AllPlayerAvatars",
          "modifierName": "UNIQUE_BossChallenge_Water_ReviveEnergy"
        },
        {
          "$type": "AttachModifier",
          "target": "AllPlayerAvatars",
          "modifierName": "UNIQUE_BossChallenge_Water_HealHp"
        }
      ],
      "isDynamicAbility": true
    }
  },
  {
    "Default": {
      "$type": "ConfigAbility",
      "abilityName": "ActivityAbility_BossChallenge_Fire_ElementAddHurt_Water",
      "abilitySpecials": {
        "ElementAddHurt_Water": 0.0,
        "Time": 0.0,
        "MaxUseTime": 0.0,
        "CurBossChallengeEnergy": 0.0
      },
      "modifiers": {
        "UNIQUE_BossChallenge_ElementAddHurt_Water": {
          "stacking": "RefreshUniqueDurability",
          "modifierName": "",
          "forceTriggerWhenChangeAuthority": true,
          "duration": "Time",
          "elementDurability": 100.0,
          "properties": {
            "Actor_WaterAddHurtDelta": "ElementAddHurt_Water"
          },
          "state": "AttackUp",
          "isLimitedProperties": true,
          "buffID": 35016
        },
        "InitData": {
          "modifierName": "",
          "duration": 0.5,
          "elementDurability": 100.0,
          "onRemoved": [
            {
              "$type": "SetGlobalValueToOverrideMap",
              "globalValueKey": "SGV_HypostasisChallenge_T_MaxTriggerCount",
              "overrideMapKey": "MaxUseTime"
            },
            {
              "$type": "SetGlobalValue",
              "value": "MaxUseTime",
              "key": "BossChallenge_Energy",
              "maxValue": 0.0,
              "minValue": 0.0
            }
          ]
        }
      },
      "onAdded": [
        {
          "$type": "MMEOBGGBNLK",
          "skillID": 20034
        },
        {
          "$type": "ApplyModifier",
          "modifierName": "InitData"
        },
        {
          "$type": "NPGCEEJFDEM",
          "enable": true
        }
      ],
      "onRemoved": [
        {
          "$type": "MMEOBGGBNLK"
        },
        {
          "$type": "SetGlobalValue",
          "value": 0.0,
          "key": "BossChallenge_Energy",
          "maxValue": 0.0,
          "minValue": 0.0
        }
      ],
      "onAbilityStart": [
        {
          "$type": "LIAKJHCLFLK"
        },
        {
          "$type": "AddGlobalValue",
          "target": "Team",
          "value": -1.0,
          "key": "BossChallenge_Energy",
          "useLimitRange": true,
          "maxValue": 100.0,
          "minValue": 0.0
        },
        {
          "$type": "SetGlobalValueToOverrideMap",
          "globalValueKey": "BossChallenge_Energy",
          "overrideMapKey": "CurBossChallengeEnergy"
        },
        {
          "$type": "AHPEKICBIIL",
          "luaCallType": "CurGalleryControlGroup",
          "funcName": "SLC_UpdateTRemainUseTime",
          "paramNum": 2,
          "param1": 0,
          "MGAMDEHMCOL": 5.0,
          "MMHOHAOGPLP": 0.0
        },
        {
          "$type": "AttachModifier",
          "target": "AllPlayerAvatars",
          "modifierName": "UNIQUE_BossChallenge_ElementAddHurt_Water"
        }
      ],
      "isDynamicAbility": true
    }
  },
  {
    "Default": {
      "$type": "ConfigAbility",
      "abilityName": "ActivityAbility_BossChallenge_Fire_Rain",
      "abilitySpecials": {
        "MaxUseTime": 0.0,
        "CurBossChallengeEnergy": 0.0
      },
      "modifiers": {
        "InitData": {
          "modifierName": "",
          "duration": 0.5,
          "elementDurability": 100.0,
          "onRemoved": [
            {
              "$type": "SetGlobalValueToOverrideMap",
              "globalValueKey": "SGV_HypostasisChallenge_T_MaxTriggerCount",
              "overrideMapKey": "MaxUseTime"
            },
            {
              "$type": "SetGlobalValue",
              "value": "MaxUseTime",
              "key": "BossChallenge_Energy",
              "maxValue": 0.0,
              "minValue": 0.0
            }
          ]
        }
      },
      "onAdded": [
        {
          "$type": "MMEOBGGBNLK",
          "skillID": 20035
        },
        {
          "$type": "ApplyModifier",
          "modifierName": "InitData"
        },
        {
          "$type": "NPGCEEJFDEM",
          "enable": true
        },
        {
          "$type": "SetGlobalValue",
          "target": "Team",
          "predicates": [
            {
              "$type": "ByBigTeamHasElementType",
              "elementType": "Water",
              "number": 1,
              "logic": "GreaterOrEqual"
            }
          ],
          "value": 1.0,
          "key": "Team_Boss_Water_Mark",
          "maxValue": 0.0,
          "minValue": 0.0
        },
        {
          "$type": "SetGlobalValue",
          "target": "Team",
          "predicates": [
            {
              "$type": "ByBigTeamHasElementType",
              "elementType": "Water",
              "logic": "Equal"
            }
          ],
          "value": 0.0,
          "key": "Team_Boss_Water_Mark",
          "maxValue": 0.0,
          "minValue": 0.0
        }
      ],
      "onRemoved": [
        {
          "$type": "MMEOBGGBNLK"
        },
        {
          "$type": "SetGlobalValue",
          "value": 0.0,
          "key": "BossChallenge_Energy",
          "maxValue": 0.0,
          "minValue": 0.0
        }
      ],
      "onAbilityStart": [
        {
          "$type": "LIAKJHCLFLK"
        },
        {
          "$type": "AddGlobalValue",
          "target": "Team",
          "value": -1.0,
          "key": "BossChallenge_Energy",
          "useLimitRange": true,
          "maxValue": 100.0,
          "minValue": 0.0
        },
        {
          "$type": "SetGlobalValueToOverrideMap",
          "globalValueKey": "BossChallenge_Energy",
          "overrideMapKey": "CurBossChallengeEnergy"
        },
        {
          "$type": "AHPEKICBIIL",
          "luaCallType": "CurGalleryControlGroup",
          "funcName": "SLC_UpdateTRemainUseTime",
          "paramNum": 2,
          "param1": 0,
          "MGAMDEHMCOL": 6.0,
          "MMHOHAOGPLP": 0.0
        },
        {
          "$type": "SetGlobalValue",
          "target": "Team",
          "predicates": [
            {
              "$type": "ByBigTeamHasElementType",
              "elementType": "Water",
              "number": 1,
              "logic": "GreaterOrEqual"
            }
          ],
          "value": 1.0,
          "key": "Team_Boss_Water_Mark",
          "maxValue": 0.0,
          "minValue": 0.0
        },
        {
          "$type": "SetGlobalValue",
          "target": "Team",
          "predicates": [
            {
              "$type": "ByBigTeamHasElementType",
              "elementType": "Water",
              "logic": "Equal"
            }
          ],
          "value": 0.0,
          "key": "Team_Boss_Water_Mark",
          "maxValue": 0.0,
          "minValue": 0.0
        },
        {
          "$type": "Predicated",
          "target": "Team",
          "targetPredicates": [
            {
              "$type": "ByTargetGlobalValue",
              "target": "Team",
              "key": "Team_Boss_Water_Mark",
              "value": 1.0
            }
          ],
          "successActions": [
            {
              "$type": "CreateGadget",
              "shieldHP": true,
              "ownerIs": "Team",
              "born": {
                "$type": "ConfigBornBySelf",
                "offset": {
                  "x": 0.0,
                  "y": 0.0,
                  "z": 0.0
                },
                "onGround": true
              },
              "gadgetID": 44000542,
              "campID": 1001,
              "campTargetType": "Enemy"
            }
          ],
          "failActions": [
            {
              "$type": "CreateGadget",
              "shieldHP": true,
              "ownerIs": "Team",
              "born": {
                "$type": "ConfigBornBySelf",
                "offset": {
                  "x": 0.0,
                  "y": 0.0,
                  "z": 0.0
                },
                "onGround": true
              },
              "gadgetID": 44000541,
              "campID": 1001,
              "campTargetType": "Enemy"
            }
          ]
        }
      ],
      "isDynamicAbility": true
    }
  },
  {
    "Default": {
      "$type": "ConfigAbility",
      "abilityName": "ActivityAbility_BossChallenge_Fire_KillMonsterAttackUp",
      "abilitySpecials": {
        "AttackEnhanceValue": 0.0,
        "AttackEnhanceRatio": 0.0,
        "Time": 0.0,
        "AttackEnhanceLayer": 0.0,
        "MaxUseTime": 0.0,
        "CurBossChallengeEnergy": 0.0
      },
      "modifiers": {
        "UNIQUE_BossChallenge_Fire_AttackEnhance_Handler": {
          "stacking": "Unique",
          "modifierName": "",
          "forceTriggerWhenChangeAuthority": true,
          "duration": "Time",
          "elementDurability": 100.0,
          "state": "AttackUp",
          "onAdded": [
            {
              "$type": "SetGlobalValueToOverrideMap",
              "globalValueKey": "SGV_Team_HypostasisChallenge_Fire",
              "overrideMapKey": "AttackEnhanceLayer"
            },
            {
              "$type": "AttachModifier",
              "target": "AllPlayerAvatars",
              "modifierName": "UNIQUE_BossChallenge_Fire_AttackEnhance_Property"
            }
          ],
          "isLimitedProperties": true
        },
        "UNIQUE_BossChallenge_Fire_AttackEnhance_Property": {
          "stacking": "Unique",
          "modifierName": "",
          "forceTriggerWhenChangeAuthority": true,
          "elementDurability": 100.0,
          "properties": {
            "Actor_AttackDelta": "AttackEnhanceValue",
            "Actor_AttackRatio": [
              "AttackEnhanceLayer",
              "AttackEnhanceRatio",
              "MUL"
            ]
          },
          "onAdded": [
            {
              "$type": "AHPEKICBIIL",
              "luaCallType": "CurGalleryControlGroup",
              "funcName": "SLC_ClearSGV",
              "param1": 0.0,
              "MGAMDEHMCOL": 0.0,
              "MMHOHAOGPLP": 0.0
            }
          ],
          "isLimitedProperties": true,
          "buffID": 35016
        },
        "InitData": {
          "modifierName": "",
          "duration": 0.5,
          "elementDurability": 100.0,
          "onRemoved": [
            {
              "$type": "SetGlobalValueToOverrideMap",
              "globalValueKey": "SGV_HypostasisChallenge_T_MaxTriggerCount",
              "overrideMapKey": "MaxUseTime"
            },
            {
              "$type": "SetGlobalValue",
              "value": "MaxUseTime",
              "key": "BossChallenge_Energy",
              "maxValue": 0.0,
              "minValue": 0.0
            }
          ]
        }
      },
      "onAdded": [
        {
          "$type": "MMEOBGGBNLK",
          "skillID": 20036
        },
        {
          "$type": "ApplyModifier",
          "modifierName": "InitData"
        },
        {
          "$type": "NPGCEEJFDEM",
          "enable": true
        }
      ],
      "onRemoved": [
        {
          "$type": "MMEOBGGBNLK"
        },
        {
          "$type": "SetGlobalValue",
          "value": 0.0,
          "key": "BossChallenge_Energy",
          "maxValue": 0.0,
          "minValue": 0.0
        }
      ],
      "onAbilityStart": [
        {
          "$type": "LIAKJHCLFLK"
        },
        {
          "$type": "AddGlobalValue",
          "target": "Team",
          "value": -1.0,
          "key": "BossChallenge_Energy",
          "useLimitRange": true,
          "maxValue": 100.0,
          "minValue": 0.0
        },
        {
          "$type": "SetGlobalValueToOverrideMap",
          "globalValueKey": "BossChallenge_Energy",
          "overrideMapKey": "CurBossChallengeEnergy"
        },
        {
          "$type": "AHPEKICBIIL",
          "luaCallType": "CurGalleryControlGroup",
          "funcName": "SLC_UpdateTRemainUseTime",
          "paramNum": 2,
          "param1": 0,
          "MGAMDEHMCOL": 7.0,
          "MMHOHAOGPLP": 0.0
        },
        {
          "$type": "RemoveUniqueModifier",
          "target": "Team",
          "modifierName": "UNIQUE_BossChallenge_Fire_AttackEnhance_Handler"
        },
        {
          "$type": "AttachModifier",
          "target": "Team",
          "modifierName": "UNIQUE_BossChallenge_Fire_AttackEnhance_Handler"
        }
      ],
      "isDynamicAbility": true
    }
  },
  {
    "Default": {
      "$type": "ConfigAbility",
      "abilityName": "ActivityAbility_BossChallenge_Fire_SubHurtDeltaDown",
      "abilitySpecials": {
        "SubHurtDelta": 0.0,
        "Time": 0.0,
        "MaxUseTime": 0.0,
        "CurBossChallengeEnergy": 0.0
      },
      "modifiers": {
        "UNIQUE_BossChallenge_Fire_SubHurtDeltaDown_Team": {
          "stacking": "RefreshUniqueDurability",
          "modifierName": "",
          "forceTriggerWhenChangeAuthority": true,
          "duration": "Time",
          "elementDurability": 100.0,
          "modifierMixins": [
            {
              "$type": "CurLocalAvatarMixinV2",
              "modifierName": "UNIQUE_BossChallenge_ElementAddHurt_Endure"
            }
          ]
        },
        "UNIQUE_BossChallenge_ElementAddHurt_Endure": {
          "stacking": "RefreshUniqueDurability",
          "modifierName": "",
          "forceTriggerWhenChangeAuthority": true,
          "elementDurability": 100.0,
          "properties": {
            "Actor_EndureDelta": 0.0,
            "Actor_SubHurtDelta": "SubHurtDelta"
          },
          "isLimitedProperties": true,
          "buffID": 35016
        },
        "InitData": {
          "modifierName": "",
          "duration": 0.5,
          "elementDurability": 100.0,
          "onRemoved": [
            {
              "$type": "SetGlobalValueToOverrideMap",
              "globalValueKey": "SGV_HypostasisChallenge_T_MaxTriggerCount",
              "overrideMapKey": "MaxUseTime"
            },
            {
              "$type": "SetGlobalValue",
              "value": "MaxUseTime",
              "key": "BossChallenge_Energy",
              "maxValue": 0.0,
              "minValue": 0.0
            }
          ]
        }
      },
      "onAdded": [
        {
          "$type": "MMEOBGGBNLK",
          "skillID": 20037
        },
        {
          "$type": "ApplyModifier",
          "modifierName": "InitData"
        },
        {
          "$type": "NPGCEEJFDEM",
          "enable": true
        }
      ],
      "onRemoved": [
        {
          "$type": "MMEOBGGBNLK"
        },
        {
          "$type": "SetGlobalValue",
          "value": 0.0,
          "key": "BossChallenge_Energy",
          "maxValue": 0.0,
          "minValue": 0.0
        }
      ],
      "onAbilityStart": [
        {
          "$type": "LIAKJHCLFLK"
        },
        {
          "$type": "AddGlobalValue",
          "target": "Team",
          "value": -1.0,
          "key": "BossChallenge_Energy",
          "useLimitRange": true,
          "maxValue": 100.0,
          "minValue": 0.0
        },
        {
          "$type": "SetGlobalValueToOverrideMap",
          "globalValueKey": "BossChallenge_Energy",
          "overrideMapKey": "CurBossChallengeEnergy"
        },
        {
          "$type": "AHPEKICBIIL",
          "luaCallType": "CurGalleryControlGroup",
          "funcName": "SLC_UpdateTRemainUseTime",
          "paramNum": 2,
          "param1": 0,
          "MGAMDEHMCOL": 8.0,
          "MMHOHAOGPLP": 0.0
        },
        {
          "$type": "AttachModifier",
          "target": "AllTeams",
          "modifierName": "UNIQUE_BossChallenge_Fire_SubHurtDeltaDown_Team"
        }
      ],
      "isDynamicAbility": true
    }
  },
  {
    "Default": {
      "$type": "ConfigAbility",
      "abilityName": "ActivityAbility_BossChallenge_Ice_DoubleDestoryShield",
      "abilitySpecials": {
        "Time": 0.0,
        "MaxUseTime": 0.0,
        "CurBossChallengeEnergy": 0.0
      },
      "modifiers": {
        "UNIQUE_BossChallenge_Ice_DoubleDestoryShield": {
          "stacking": "RefreshUniqueDurability",
          "modifierName": "",
          "forceTriggerWhenChangeAuthority": true,
          "duration": "Time",
          "elementDurability": 100.0,
          "onAdded": [
            {
              "$type": "SetGlobalValue",
              "shieldHP": true,
              "value": 1.0,
              "key": "Team_HypostasisChallenge_Ice_BreakShield",
              "maxValue": 0.0,
              "minValue": 0.0
            }
          ],
          "onRemoved": [
            {
              "$type": "SetGlobalValue",
              "shieldHP": true,
              "value": 0.0,
              "key": "Team_HypostasisChallenge_Ice_BreakShield",
              "maxValue": 0.0,
              "minValue": 0.0
            }
          ],
          "isLimitedProperties": true,
          "buffID": 35016,
          "useDummyAbility": true
        },
        "InitData": {
          "modifierName": "",
          "duration": 0.5,
          "elementDurability": 100.0,
          "onRemoved": [
            {
              "$type": "SetGlobalValueToOverrideMap",
              "globalValueKey": "SGV_HypostasisChallenge_T_MaxTriggerCount",
              "overrideMapKey": "MaxUseTime"
            },
            {
              "$type": "SetGlobalValue",
              "value": "MaxUseTime",
              "key": "BossChallenge_Energy",
              "maxValue": 0.0,
              "minValue": 0.0
            }
          ]
        }
      },
      "onAdded": [
        {
          "$type": "MMEOBGGBNLK",
          "skillID": 20038
        },
        {
          "$type": "ApplyModifier",
          "modifierName": "InitData"
        },
        {
          "$type": "NPGCEEJFDEM",
          "enable": true
        },
        {
          "$type": "RemoveUniqueModifier",
          "target": "AllTeams",
          "modifierName": "UNIQUE_BossChallenge_Ice_DoubleDestoryShield"
        }
      ],
      "onRemoved": [
        {
          "$type": "MMEOBGGBNLK"
        },
        {
          "$type": "SetGlobalValue",
          "value": 0.0,
          "key": "BossChallenge_Energy",
          "maxValue": 0.0,
          "minValue": 0.0
        }
      ],
      "onAbilityStart": [
        {
          "$type": "LIAKJHCLFLK"
        },
        {
          "$type": "AddGlobalValue",
          "target": "Team",
          "value": -1.0,
          "key": "BossChallenge_Energy",
          "useLimitRange": true,
          "maxValue": 100.0,
          "minValue": 0.0
        },
        {
          "$type": "SetGlobalValueToOverrideMap",
          "globalValueKey": "BossChallenge_Energy",
          "overrideMapKey": "CurBossChallengeEnergy"
        },
        {
          "$type": "AHPEKICBIIL",
          "luaCallType": "CurGalleryControlGroup",
          "funcName": "SLC_UpdateTRemainUseTime",
          "paramNum": 2,
          "param1": 0,
          "MGAMDEHMCOL": 9.0,
          "MMHOHAOGPLP": 0.0
        },
        {
          "$type": "ApplyModifier",
          "target": "AllTeams",
          "modifierName": "UNIQUE_BossChallenge_Ice_DoubleDestoryShield"
        },
        {
          "$type": "ApplyModifier",
          "target": "AllPlayerAvatars",
          "modifierName": "UNIQUE_BossChallenge_Ice_DoubleDestoryShield"
        }
      ],
      "isDynamicAbility": true
    }
  },
  {
    "Default": {
      "$type": "ConfigAbility",
      "abilityName": "ActivityAbility_BossChallenge_Ice_DestoryWall",
      "abilitySpecials": {
        "MaxUseTime": 0.0,
        "CurBossChallengeEnergy": 0.0
      },
      "modifiers": {
        "BossChallenge_Ice_DestoryWall_Handler": {
          "modifierName": "",
          "duration": 0.10000000149011612,
          "elementDurability": 100.0,
          "onAdded": [
            {
              "$type": "CreateGadget",
              "shieldHP": true,
              "born": {
                "$type": "ConfigBornBySelf",
                "offset": {
                  "x": 0.0,
                  "y": 0.0,
                  "z": 2.0
                },
                "onGround": true
              },
              "gadgetID": 44000543,
              "campID": 1001,
              "campTargetType": "Enemy"
            }
          ]
        },
        "InitData": {
          "modifierName": "",
          "duration": 0.5,
          "elementDurability": 100.0,
          "onRemoved": [
            {
              "$type": "SetGlobalValueToOverrideMap",
              "globalValueKey": "SGV_HypostasisChallenge_T_MaxTriggerCount",
              "overrideMapKey": "MaxUseTime"
            },
            {
              "$type": "SetGlobalValue",
              "value": "MaxUseTime",
              "key": "BossChallenge_Energy",
              "maxValue": 0.0,
              "minValue": 0.0
            }
          ]
        }
      },
      "onAdded": [
        {
          "$type": "MMEOBGGBNLK",
          "skillID": 20039
        },
        {
          "$type": "ApplyModifier",
          "modifierName": "InitData"
        },
        {
          "$type": "NPGCEEJFDEM",
          "enable": true
        }
      ],
      "onRemoved": [
        {
          "$type": "MMEOBGGBNLK"
        },
        {
          "$type": "SetGlobalValue",
          "value": 0.0,
          "key": "BossChallenge_Energy",
          "maxValue": 0.0,
          "minValue": 0.0
        }
      ],
      "onAbilityStart": [
        {
          "$type": "LIAKJHCLFLK"
        },
        {
          "$type": "AddGlobalValue",
          "target": "Team",
          "value": -1.0,
          "key": "BossChallenge_Energy",
          "useLimitRange": true,
          "maxValue": 100.0,
          "minValue": 0.0
        },
        {
          "$type": "SetGlobalValueToOverrideMap",
          "globalValueKey": "BossChallenge_Energy",
          "overrideMapKey": "CurBossChallengeEnergy"
        },
        {
          "$type": "AHPEKICBIIL",
          "luaCallType": "CurGalleryControlGroup",
          "funcName": "SLC_UpdateTRemainUseTime",
          "paramNum": 2,
          "param1": 0,
          "MGAMDEHMCOL": 10.0,
          "MMHOHAOGPLP": 0.0
        },
        {
          "$type": "ApplyModifier",
          "target": "CurLocalAvatar",
          "shieldHP": true,
          "modifierName": "BossChallenge_Ice_DestoryWall_Handler"
        }
      ],
      "isDynamicAbility": true
    }
  },
  {
    "Default": {
      "$type": "ConfigAbility",
      "abilityName": "ActivityAbility_BossChallenge_Ice_ElementAddHurt_Fire",
      "abilitySpecials": {
        "ElementAddHurt_Fire": 0.0,
        "Time": 0.0,
        "MaxUseTime": 0.0,
        "CurBossChallengeEnergy": 0.0
      },
      "modifiers": {
        "UNIQUE_BossChallenge_ElementAddHurt_Fire": {
          "stacking": "RefreshUniqueDurability",
          "modifierName": "",
          "forceTriggerWhenChangeAuthority": true,
          "duration": "Time",
          "elementDurability": 100.0,
          "properties": {
            "Actor_FireAddHurtDelta": "ElementAddHurt_Fire"
          },
          "state": "AttackUp",
          "isLimitedProperties": true,
          "buffID": 35016
        },
        "InitData": {
          "modifierName": "",
          "duration": 0.5,
          "elementDurability": 100.0,
          "onRemoved": [
            {
              "$type": "SetGlobalValueToOverrideMap",
              "globalValueKey": "SGV_HypostasisChallenge_T_MaxTriggerCount",
              "overrideMapKey": "MaxUseTime"
            },
            {
              "$type": "SetGlobalValue",
              "value": "MaxUseTime",
              "key": "BossChallenge_Energy",
              "maxValue": 0.0,
              "minValue": 0.0
            }
          ]
        }
      },
      "onAdded": [
        {
          "$type": "MMEOBGGBNLK",
          "skillID": 20040
        },
        {
          "$type": "ApplyModifier",
          "modifierName": "InitData"
        },
        {
          "$type": "NPGCEEJFDEM",
          "enable": true
        }
      ],
      "onRemoved": [
        {
          "$type": "MMEOBGGBNLK"
        },
        {
          "$type": "SetGlobalValue",
          "value": 0.0,
          "key": "BossChallenge_Energy",
          "maxValue": 0.0,
          "minValue": 0.0
        }
      ],
      "onAbilityStart": [
        {
          "$type": "LIAKJHCLFLK"
        },
        {
          "$type": "AddGlobalValue",
          "target": "Team",
          "value": -1.0,
          "key": "BossChallenge_Energy",
          "useLimitRange": true,
          "maxValue": 100.0,
          "minValue": 0.0
        },
        {
          "$type": "SetGlobalValueToOverrideMap",
          "globalValueKey": "BossChallenge_Energy",
          "overrideMapKey": "CurBossChallengeEnergy"
        },
        {
          "$type": "AHPEKICBIIL",
          "luaCallType": "CurGalleryControlGroup",
          "funcName": "SLC_UpdateTRemainUseTime",
          "paramNum": 2,
          "param1": 0,
          "MGAMDEHMCOL": 11.0,
          "MMHOHAOGPLP": 0.0
        },
        {
          "$type": "AttachModifier",
          "target": "AllPlayerAvatars",
          "modifierName": "UNIQUE_BossChallenge_ElementAddHurt_Fire"
        }
      ],
      "isDynamicAbility": true
    }
  },
  {
    "Default": {
      "$type": "ConfigAbility",
      "abilityName": "ActivityAbility_BossChallenge_Ice_HealHp",
      "abilitySpecials": {
        "MaxHPRatio": 0.0,
        "MaxUseTime": 0.0,
        "CurBossChallengeEnergy": 0.0
      },
      "modifiers": {
        "UNIQUE_BossChallenge_Ice_HealHp": {
          "modifierName": "",
          "forceTriggerWhenChangeAuthority": true,
          "duration": 1.0,
          "elementDurability": 100.0,
          "onAdded": [
            {
              "$type": "HealHP",
              "shieldHP": true,
              "CKDBFHCIJEK": "MaxHPRatio",
              "cdRatio": ""
            },
            {
              "$type": "BPCFNMBFJJO",
              "shieldHP": true,
              "climateType": "Cold",
              "value": -999.0
            }
          ]
        },
        "InitData": {
          "modifierName": "",
          "duration": 0.5,
          "elementDurability": 100.0,
          "onRemoved": [
            {
              "$type": "SetGlobalValueToOverrideMap",
              "globalValueKey": "SGV_HypostasisChallenge_T_MaxTriggerCount",
              "overrideMapKey": "MaxUseTime"
            },
            {
              "$type": "SetGlobalValue",
              "value": "MaxUseTime",
              "key": "BossChallenge_Energy",
              "maxValue": 0.0,
              "minValue": 0.0
            }
          ]
        }
      },
      "onAdded": [
        {
          "$type": "MMEOBGGBNLK",
          "skillID": 20041
        },
        {
          "$type": "ApplyModifier",
          "modifierName": "InitData"
        },
        {
          "$type": "NPGCEEJFDEM",
          "enable": true
        }
      ],
      "onRemoved": [
        {
          "$type": "MMEOBGGBNLK"
        },
        {
          "$type": "SetGlobalValue",
          "value": 0.0,
          "key": "BossChallenge_Energy",
          "maxValue": 0.0,
          "minValue": 0.0
        }
      ],
      "onAbilityStart": [
        {
          "$type": "LIAKJHCLFLK"
        },
        {
          "$type": "AddGlobalValue",
          "target": "Team",
          "value": -1.0,
          "key": "BossChallenge_Energy",
          "useLimitRange": true,
          "maxValue": 100.0,
          "minValue": 0.0
        },
        {
          "$type": "SetGlobalValueToOverrideMap",
          "globalValueKey": "BossChallenge_Energy",
          "overrideMapKey": "CurBossChallengeEnergy"
        },
        {
          "$type": "AHPEKICBIIL",
          "luaCallType": "CurGalleryControlGroup",
          "funcName": "SLC_UpdateTRemainUseTime",
          "paramNum": 2,
          "param1": 0,
          "MGAMDEHMCOL": 12.0,
          "MMHOHAOGPLP": 0.0
        },
        {
          "$type": "AttachModifier",
          "target": "AllPlayerAvatars",
          "shieldHP": true,
          "modifierName": "UNIQUE_BossChallenge_Ice_HealHp"
        }
      ],
      "isDynamicAbility": true
    }
  },
  {
    "Default": {
      "$type": "ConfigAbility",
      "abilityName": "ActivityAbility_BossChallenge_Grass_ChangeTriggerDamageUp",
      "abilitySpecials": {
        "AttackEnhanceValue": 0.0,
        "AttackEnhanceRatio": 0.0,
        "Time": 0.0,
        "AttackEnhanceLayer": 0.0,
        "MaxUseTime": 0.0,
        "CurBossChallengeEnergy": 0.0
      },
      "modifiers": {
        "UNIQUE_BossChallenge_Grass_AttackEnhance_Handler": {
          "stacking": "Unique",
          "modifierName": "",
          "forceTriggerWhenChangeAuthority": true,
          "duration": "Time",
          "elementDurability": 100.0,
          "onAdded": [
            {
              "$type": "SetGlobalValueToOverrideMap",
              "globalValueKey": "SGV_Team_HypostasisChallenge_Grass",
              "overrideMapKey": "AttackEnhanceLayer"
            },
            {
              "$type": "AttachModifier",
              "target": "AllPlayerAvatars",
              "modifierName": "UNIQUE_BossChallenge_Grass_AttackEnhance_Property"
            }
          ],
          "isLimitedProperties": true
        },
        "UNIQUE_BossChallenge_Grass_AttackEnhance_Property": {
          "stacking": "Unique",
          "modifierName": "",
          "forceTriggerWhenChangeAuthority": true,
          "elementDurability": 100.0,
          "properties": {
            "Actor_AttackDelta": "AttackEnhanceValue",
            "Actor_AttackRatio": [
              "AttackEnhanceLayer",
              "AttackEnhanceRatio",
              "MUL"
            ]
          },
          "state": "AttackUp",
          "isLimitedProperties": true,
          "buffID": 35016
        },
        "InitData": {
          "modifierName": "",
          "duration": 0.5,
          "elementDurability": 100.0,
          "onRemoved": [
            {
              "$type": "SetGlobalValueToOverrideMap",
              "globalValueKey": "SGV_HypostasisChallenge_T_MaxTriggerCount",
              "overrideMapKey": "MaxUseTime"
            },
            {
              "$type": "SetGlobalValue",
              "value": "MaxUseTime",
              "key": "BossChallenge_Energy",
              "maxValue": 0.0,
              "minValue": 0.0
            }
          ]
        }
      },
      "onAdded": [
        {
          "$type": "MMEOBGGBNLK",
          "skillID": 20042
        },
        {
          "$type": "ApplyModifier",
          "modifierName": "InitData"
        },
        {
          "$type": "NPGCEEJFDEM",
          "enable": true
        }
      ],
      "onRemoved": [
        {
          "$type": "MMEOBGGBNLK"
        },
        {
          "$type": "SetGlobalValue",
          "value": 0.0,
          "key": "BossChallenge_Energy",
          "maxValue": 0.0,
          "minValue": 0.0
        }
      ],
      "onAbilityStart": [
        {
          "$type": "LIAKJHCLFLK"
        },
        {
          "$type": "AddGlobalValue",
          "target": "Team",
          "value": -1.0,
          "key": "BossChallenge_Energy",
          "useLimitRange": true,
          "maxValue": 100.0,
          "minValue": 0.0
        },
        {
          "$type": "SetGlobalValueToOverrideMap",
          "globalValueKey": "BossChallenge_Energy",
          "overrideMapKey": "CurBossChallengeEnergy"
        },
        {
          "$type": "AHPEKICBIIL",
          "luaCallType": "CurGalleryControlGroup",
          "funcName": "SLC_UpdateTRemainUseTime",
          "paramNum": 2,
          "param1": 0,
          "MGAMDEHMCOL": 13.0,
          "MMHOHAOGPLP": 0.0
        },
        {
          "$type": "RemoveUniqueModifier",
          "target": "Team",
          "modifierName": "UNIQUE_BossChallenge_Grass_AttackEnhance_Handler"
        },
        {
          "$type": "ApplyModifier",
          "target": "Team",
          "modifierName": "UNIQUE_BossChallenge_Grass_AttackEnhance_Handler"
        }
      ],
      "isDynamicAbility": true
    }
  },
  {
    "Default": {
      "$type": "ConfigAbility",
      "abilityName": "ActivityAbility_BossChallenge_Grass_ElementAddHurt_Water",
      "abilitySpecials": {
        "ElementAddHurt_Water": 0.0,
        "Time": 0.0,
        "MaxUseTime": 0.0,
        "CurBossChallengeEnergy": 0.0
      },
      "modifiers": {
        "UNIQUE_BossChallenge_Grass_ElementAddHurt_Water": {
          "modifierName": "",
          "forceTriggerWhenChangeAuthority": true,
          "duration": "Time",
          "elementDurability": 100.0,
          "properties": {
            "Actor_WaterAddHurtDelta": "ElementAddHurt_Water"
          },
          "state": "AttackUp",
          "isLimitedProperties": true
        },
        "InitData": {
          "modifierName": "",
          "duration": 0.5,
          "elementDurability": 100.0,
          "onRemoved": [
            {
              "$type": "SetGlobalValueToOverrideMap",
              "globalValueKey": "SGV_HypostasisChallenge_T_MaxTriggerCount",
              "overrideMapKey": "MaxUseTime"
            },
            {
              "$type": "SetGlobalValue",
              "value": "MaxUseTime",
              "key": "BossChallenge_Energy",
              "maxValue": 0.0,
              "minValue": 0.0
            }
          ]
        }
      },
      "onAdded": [
        {
          "$type": "MMEOBGGBNLK",
          "skillID": 20043
        },
        {
          "$type": "ApplyModifier",
          "modifierName": "InitData"
        },
        {
          "$type": "NPGCEEJFDEM",
          "enable": true
        }
      ],
      "onAbilityStart": [
        {
          "$type": "LIAKJHCLFLK"
        },
        {
          "$type": "AddGlobalValue",
          "target": "Team",
          "value": -1.0,
          "key": "BossChallenge_Energy",
          "useLimitRange": true,
          "maxValue": 100.0,
          "minValue": 0.0
        },
        {
          "$type": "SetGlobalValueToOverrideMap",
          "globalValueKey": "BossChallenge_Energy",
          "overrideMapKey": "CurBossChallengeEnergy"
        },
        {
          "$type": "AHPEKICBIIL",
          "luaCallType": "CurGalleryControlGroup",
          "funcName": "SLC_UpdateTRemainUseTime",
          "paramNum": 1,
          "param1": 0,
          "MGAMDEHMCOL": 0.0,
          "MMHOHAOGPLP": 0.0
        },
        {
          "$type": "AttachModifier",
          "target": "AllPlayerAvatars",
          "modifierName": "UNIQUE_BossChallenge_Grass_ElementAddHurt_Water"
        }
      ],
      "isDynamicAbility": true
    }
  },
  {
    "Default": {
      "$type": "ConfigAbility",
      "abilityName": "ActivityAbility_BossChallenge_Grass_ElementAddHurt_Elec",
      "abilitySpecials": {
        "ElementAddHurt_Elec": 0.0,
        "Time": 0.0,
        "MaxUseTime": 0.0,
        "CurBossChallengeEnergy": 0.0
      },
      "modifiers": {
        "UNIQUE_BossChallenge_Grass_ElementAddHurt_Elec": {
          "modifierName": "",
          "forceTriggerWhenChangeAuthority": true,
          "duration": "Time",
          "elementDurability": 100.0,
          "properties": {
            "Actor_ElecAddHurtDelta": "ElementAddHurt_Elec"
          },
          "state": "AttackUp",
          "isLimitedProperties": true
        },
        "InitData": {
          "modifierName": "",
          "duration": 0.5,
          "elementDurability": 100.0,
          "onRemoved": [
            {
              "$type": "SetGlobalValueToOverrideMap",
              "globalValueKey": "SGV_HypostasisChallenge_T_MaxTriggerCount",
              "overrideMapKey": "MaxUseTime"
            },
            {
              "$type": "SetGlobalValue",
              "value": "MaxUseTime",
              "key": "BossChallenge_Energy",
              "maxValue": 0.0,
              "minValue": 0.0
            }
          ]
        }
      },
      "onAdded": [
        {
          "$type": "MMEOBGGBNLK",
          "skillID": 20043
        },
        {
          "$type": "ApplyModifier",
          "modifierName": "InitData"
        },
        {
          "$type": "NPGCEEJFDEM",
          "enable": true
        }
      ],
      "onAbilityStart": [
        {
          "$type": "LIAKJHCLFLK"
        },
        {
          "$type": "AddGlobalValue",
          "target": "Team",
          "value": -1.0,
          "key": "BossChallenge_Energy",
          "useLimitRange": true,
          "maxValue": 100.0,
          "minValue": 0.0
        },
        {
          "$type": "SetGlobalValueToOverrideMap",
          "globalValueKey": "BossChallenge_Energy",
          "overrideMapKey": "CurBossChallengeEnergy"
        },
        {
          "$type": "AHPEKICBIIL",
          "luaCallType": "CurGalleryControlGroup",
          "funcName": "SLC_UpdateTRemainUseTime",
          "paramNum": 1,
          "param1": 0,
          "MGAMDEHMCOL": 0.0,
          "MMHOHAOGPLP": 0.0
        },
        {
          "$type": "AttachModifier",
          "target": "AllPlayerAvatars",
          "modifierName": "UNIQUE_BossChallenge_Grass_ElementAddHurt_Elec"
        }
      ],
      "isDynamicAbility": true
    }
  },
  {
    "Default": {
      "$type": "ConfigAbility",
      "abilityName": "ActivityAbility_BossChallenge_Grass_HealHp",
      "abilitySpecials": {
        "MaxHPRatio": 0.0,
        "ThinkInterval": 0.0,
        "Time": 0.0,
        "MaxUseTime": 0.0,
        "CurBossChallengeEnergy": 0.0
      },
      "modifiers": {
        "UNIQUE_BossChallenge_Grass_HealHp": {
          "modifierName": "",
          "forceTriggerWhenChangeAuthority": true,
          "duration": "Time",
          "elementDurability": 100.0,
          "thinkInterval": "ThinkInterval",
          "onAdded": [
            {
              "$type": "HealHP",
              "shieldHP": true,
              "CKDBFHCIJEK": "MaxHPRatio",
              "cdRatio": ""
            }
          ],
          "onThinkInterval": [
            {
              "$type": "HealHP",
              "shieldHP": true,
              "CKDBFHCIJEK": "MaxHPRatio",
              "cdRatio": ""
            }
          ],
          "buffID": 35016
        },
        "InitData": {
          "modifierName": "",
          "duration": 0.5,
          "elementDurability": 100.0,
          "onRemoved": [
            {
              "$type": "SetGlobalValueToOverrideMap",
              "globalValueKey": "SGV_HypostasisChallenge_T_MaxTriggerCount",
              "overrideMapKey": "MaxUseTime"
            },
            {
              "$type": "SetGlobalValue",
              "value": "MaxUseTime",
              "key": "BossChallenge_Energy",
              "maxValue": 0.0,
              "minValue": 0.0
            }
          ]
        }
      },
      "onAdded": [
        {
          "$type": "MMEOBGGBNLK",
          "skillID": 20043
        },
        {
          "$type": "ApplyModifier",
          "modifierName": "InitData"
        },
        {
          "$type": "NPGCEEJFDEM",
          "enable": true
        }
      ],
      "onRemoved": [
        {
          "$type": "MMEOBGGBNLK"
        },
        {
          "$type": "SetGlobalValue",
          "value": 0.0,
          "key": "BossChallenge_Energy",
          "maxValue": 0.0,
          "minValue": 0.0
        }
      ],
      "onAbilityStart": [
        {
          "$type": "LIAKJHCLFLK"
        },
        {
          "$type": "AddGlobalValue",
          "target": "Team",
          "value": -1.0,
          "key": "BossChallenge_Energy",
          "useLimitRange": true,
          "maxValue": 100.0,
          "minValue": 0.0
        },
        {
          "$type": "SetGlobalValueToOverrideMap",
          "globalValueKey": "BossChallenge_Energy",
          "overrideMapKey": "CurBossChallengeEnergy"
        },
        {
          "$type": "AHPEKICBIIL",
          "luaCallType": "CurGalleryControlGroup",
          "funcName": "SLC_UpdateTRemainUseTime",
          "paramNum": 2,
          "param1": 0,
          "MGAMDEHMCOL": 14.0,
          "MMHOHAOGPLP": 0.0
        },
        {
          "$type": "AttachModifier",
          "target": "AllPlayerAvatars",
          "shieldHP": true,
          "modifierName": "UNIQUE_BossChallenge_Grass_HealHp"
        }
      ],
      "isDynamicAbility": true
    }
  },
  {
    "Default": {
      "$type": "ConfigAbility",
      "abilityName": "BossChallengeV2_WaterAmber_Mist",
      "modifiers": {
        "Mist": {
          "modifierName": "",
          "duration": 4.0,
          "elementDurability": 100.0,
          "thinkInterval": 0.5,
          "onAdded": [
            {
              "$type": "AttachEffect",
              "rotationDampTime": "Eff_Activity_BossChallenge_Water_Mist",
              "PPPDJGDDOGD": 1.0,
              "AJDILHJFNKE": -1.0
            }
          ],
          "onThinkInterval": [
            {
              "$type": "ApplyModifier",
              "otherTargets": {
                "$type": "SelectTargetsByShape",
                "shapeName": "CircleR3",
                "campTargetType": "All",
                "doOffStage": 1.0
              },
              "predicates": [
                {
                  "$type": "ByNot",
                  "predicates": [
                    {
                      "$type": "ByEntityTypes",
                      "entityTypes": ["Equip"]
                    }
                  ]
                }
              ],
              "modifierName": "SteamBangWet"
            },
            {
              "$type": "ApplyModifier",
              "otherTargets": {
                "$type": "SelectTargetsByShape",
                "shapeName": "CircleR3",
                "campTargetType": "All",
                "doOffStage": 1.0
              },
              "predicates": [
                {
                  "$type": "ByEntityTypes",
                  "entityTypes": ["MonsterEquip"]
                }
              ],
              "modifierName": "SteamBangWet"
            }
          ]
        },
        "SteamBangWet": {
          "modifierName": "",
          "duration": 8.0,
          "elementType": "Water",
          "elementDurability": 25.0
        }
      },
      "onAdded": [
        {
          "$type": "ApplyModifier",
          "modifierName": "Mist"
        }
      ]
    }
  },
  {
    "Default": {
      "$type": "ConfigAbility",
      "abilityName": "BossChallengeV2_WaterAmber_Mist_Big",
      "modifiers": {
        "Mist": {
          "modifierName": "",
          "duration": 4.0,
          "elementDurability": 100.0,
          "thinkInterval": 0.5,
          "onAdded": [
            {
              "$type": "AttachEffect",
              "rotationDampTime": "Eff_Amber_Water_Mist",
              "PPPDJGDDOGD": 1.0,
              "AJDILHJFNKE": -1.0
            }
          ],
          "onThinkInterval": [
            {
              "$type": "ApplyModifier",
              "otherTargets": {
                "$type": "SelectTargetsByShape",
                "shapeName": "CircleR9",
                "campTargetType": "All",
                "doOffStage": 1.0
              },
              "predicates": [
                {
                  "$type": "ByNot",
                  "predicates": [
                    {
                      "$type": "ByEntityTypes",
                      "entityTypes": ["Equip"]
                    }
                  ]
                }
              ],
              "modifierName": "SteamBangWet"
            },
            {
              "$type": "ApplyModifier",
              "otherTargets": {
                "$type": "SelectTargetsByShape",
                "shapeName": "CircleR9",
                "campTargetType": "All",
                "doOffStage": 1.0
              },
              "predicates": [
                {
                  "$type": "ByEntityTypes",
                  "entityTypes": ["MonsterEquip"]
                }
              ],
              "modifierName": "SteamBangWet"
            }
          ]
        },
        "SteamBangWet": {
          "modifierName": "",
          "duration": 8.0,
          "elementType": "Water",
          "elementDurability": 25.0
        }
      },
      "onAdded": [
        {
          "$type": "ApplyModifier",
          "modifierName": "Mist"
        }
      ]
    }
  },
  {
    "Default": {
      "$type": "ConfigAbility",
      "abilityName": "BossChallengeV2_Rune_Fire",
      "abilitySpecials": {
        "LifeTime": 8.0,
        "Dot_Damage": 4.0,
        "DamageSystemValue": 0.0
      },
      "modifiers": {
        "RuneLifeTime": {
          "modifierName": "",
          "duration": "LifeTime",
          "elementDurability": 100.0,
          "thinkInterval": 1.0,
          "onAdded": [
            {
              "$type": "TriggerAttackEvent",
              "attackEvent": {
                "attackPattern": {
                  "$type": "ConfigAttackCircle",
                  "triggerType": "TriggerNoRepeat",
                  "born": {
                    "$type": "ConfigBornBySelf"
                  },
                  "height": 4.0,
                  "radius": 4.0
                },
                "attackInfo": {
                  "attackTag": "BossChallenge_Rune_Fire_Hit",
                  "attenuationTag": "",
                  "attenuationGroup": "default",
                  "attackProperty": {
                    "actorWindSubHurtDelta": 0.0,
                    "elementType": "Fire",
                    "elementDurability": 40.0,
                    "ignoreAttackerProperty": true,
                    "strikeType": "Default",
                    "HMBONGBFIAP": ["Dot_Damage", "DamageSystemValue", "MUL"],
                    "trueDamage": true,
                    "ignoreModifyDamage": true,
                    "GLKMCMDJBIK": 0.0
                  },
                  "hitPattern": {
                    "onHitEffectName": "default",
                    "hitImpulseY": "",
                    "hitImpulseType": "LV3",
                    "hitHaltTimeScale": 0.05000000074505806
                  }
                }
              },
              "targetType": "Enemy"
            }
          ],
          "onRemoved": [
            {
              "$type": "KillSelf"
            }
          ],
          "onThinkInterval": [
            {
              "$type": "FireEffect",
              "rotationDampTime": "Eff_Activity_BossChallenge_Field_Damage",
              "PPPDJGDDOGD": 1.0,
              "AJDILHJFNKE": -1.0
            },
            {
              "$type": "TriggerAttackEvent",
              "attackEvent": {
                "attackPattern": {
                  "$type": "ConfigAttackCircle",
                  "triggerType": "TriggerNoRepeat",
                  "born": {
                    "$type": "ConfigBornBySelf"
                  },
                  "height": 4.0,
                  "radius": 4.0
                },
                "attackInfo": {
                  "attackTag": "BossChallenge_Rune_Fire_Hit",
                  "attenuationTag": "",
                  "attenuationGroup": "default",
                  "attackProperty": {
                    "actorWindSubHurtDelta": 0.0,
                    "elementType": "Fire",
                    "elementDurability": 40.0,
                    "ignoreAttackerProperty": true,
                    "strikeType": "Default",
                    "HMBONGBFIAP": ["Dot_Damage", "DamageSystemValue", "MUL"],
                    "trueDamage": true,
                    "ignoreModifyDamage": true,
                    "GLKMCMDJBIK": 0.0
                  },
                  "hitPattern": {
                    "onHitEffectName": "default",
                    "hitImpulseY": "",
                    "hitImpulseType": "LV3",
                    "hitHaltTimeScale": 0.05000000074505806
                  }
                }
              },
              "targetType": "Enemy"
            }
          ]
        }
      },
      "onAdded": [
        {
          "$type": "AttachEffect",
          "rotationDampTime": "Eff_Activity_BossChallenge_Field_Fire",
          "PPPDJGDDOGD": 1.0,
          "AJDILHJFNKE": -1.0
        },
        {
          "$type": "AttachModifier",
          "modifierName": "RuneLifeTime"
        },
        {
          "$type": "GDHGMAPPGHD",
          "key": "DamageSystemValue",
          "damageRatio": "ElementLevelCo"
        }
      ],
      "onKill": [
        {
          "$type": "FireEffect",
          "rotationDampTime": "Eff_Activity_BossChallenge_Field_Fire_Die",
          "PPPDJGDDOGD": 1.0,
          "AJDILHJFNKE": -1.0
        }
      ]
    }
  }
]
