[
  {
    "Default": {
      "$type": "ConfigAbility",
      "abilityName": "Activity_OceanCurrent_Parkour_AvatarAbility",
      "abilityMixins": [
        {
          "$type": "OPHOIJLIFCL",
          "tag": "OceanCurrent_Activity",
          "OADPFPBHBPM": [
            "Activity_Oceancurrent_CreateGadget",
            "Activity_Oceancurrent_ActiveGadget",
            "Activity_Oceancurrent_End",
            "Activity_Oceancurrent_SetGroupVar"
          ],
          "FBHDNPJFANK": [
            [
              {
                "$type": "MNJCJLCFFLF",
                "JCANGOGMHCP": "GV_UnderOceanCurrent_Index_"
              },
              {
                "$type": "SetGlobalValueToOverrideMap",
                "globalValueKey": "GV_UnderOceanCurrent_Index_0",
                "overrideMapKey": "CurveIndex"
              },
              {
                "$type": "SetGlobalValueToOverrideMap",
                "globalValueKey": "GV_UnderOceanCurrent_Index_1",
                "overrideMapKey": "IsNeadClear"
              },
              {
                "$type": "AHPEKICBIIL",
                "luaCallType": "CurGalleryControlGroup",
                "funcName": "SLC_CreateSuite",
                "paramNum": 2,
                "param1": 0,
                "MGAMDEHMCOL": "IsNeadClear",
                "MMHOHAOGPLP": 0.0
              }
            ],
            [
              {
                "$type": "MNJCJLCFFLF",
                "JCANGOGMHCP": "GV_UnderOceanCurrent_Index_"
              },
              {
                "$type": "SetGlobalValueToOverrideMap",
                "globalValueKey": "GV_UnderOceanCurrent_Index_0",
                "overrideMapKey": "CurveIndex"
              },
              {
                "$type": "AHPEKICBIIL",
                "luaCallType": "CurGalleryControlGroup",
                "funcName": "SLC_GadgetState_GearStart",
                "paramNum": 1,
                "param1": 0,
                "MGAMDEHMCOL": 0.0,
                "MMHOHAOGPLP": 0.0
              }
            ],
            [
              {
                "$type": "AHPEKICBIIL",
                "luaCallType": "CurGalleryControlGroup",
                "funcName": "SLC_Oceancurrent_End",
                "param1": 0.0,
                "MGAMDEHMCOL": 0.0,
                "MMHOHAOGPLP": 0.0
              }
            ],
            [
              {
                "$type": "MNJCJLCFFLF",
                "JCANGOGMHCP": "GV_UnderOceanCurrent_Index_"
              },
              {
                "$type": "SetGlobalValueToOverrideMap",
                "globalValueKey": "GV_UnderOceanCurrent_Index_0",
                "overrideMapKey": "CurveIndex"
              },
              {
                "$type": "AHPEKICBIIL",
                "luaCallType": "CurGalleryControlGroup",
                "funcName": "SLC_OceanCurrent_SetGroupVar",
                "paramNum": 1,
                "param1": 0,
                "MGAMDEHMCOL": 0.0,
                "MMHOHAOGPLP": 0.0
              }
            ]
          ]
        },
        {
          "$type": "AttachToStateIDMixin",
          "stateIDs": ["Sprint", "Walk", "Run", "Swim", "Fly", "Climb"],
          "modifierName": "OceanCurrent_Parkou_StopGallery",
          "DGFCLAIDIFI": ""
        }
      ],
      "abilitySpecials": {
        "Detect_Bubble_Dis": 15.0,
        "Detect_Bubble_Dis02": 48.0
      },
      "modifiers": {
        "OceanCurrent_Parkou_StopGallery": {
          "modifierName": "",
          "elementDurability": 100.0,
          "onAdded": [
            {
              "$type": "AHPEKICBIIL",
              "luaCallType": "CurGalleryControlGroup",
              "funcName": "SLC_OceanCurrent_Parkou_StopGallery",
              "param1": 0.0,
              "MGAMDEHMCOL": 0.0,
              "MMHOHAOGPLP": 0.0
            }
          ]
        },
        "OceanCurrent_Parkou_BoostEffect": {
          "modifierName": "",
          "elementDurability": 100.0,
          "modifierMixins": [
            {
              "$type": "AttachModifierToGlobalValueMixin",
              "globalValueKey": "GV_OceanCurrentBoost_Trail",
              "valueSteps": [0.5, 9999.0],
              "modifierNameSteps": ["OceanCurrent_Parkou_BoostEffect_On"]
            }
          ],
          "onAdded": [
            {
              "$type": "AttachEffect",
              "rotationDampTime": "Eff_SceneObj_SpeedWaterBall_Buff_01_State",
              "PPPDJGDDOGD": 1.0,
              "AJDILHJFNKE": -1.0
            }
          ]
        },
        "OceanCurrent_Parkou_BoostEffect_On": {
          "modifierName": "",
          "elementDurability": 100.0,
          "onAdded": [
            {
              "$type": "SendEffectTrigger",
              "parameter": "State",
              "attachPoint": "",
              "damageRatio": "Int",
              "value": 203,
              "rotationDampTime": "Eff_SceneObj_SpeedWaterBall_Buff_01_State"
            }
          ],
          "onRemoved": [
            {
              "$type": "SendEffectTrigger",
              "parameter": "State",
              "attachPoint": "",
              "damageRatio": "Int",
              "rotationDampTime": "Eff_SceneObj_SpeedWaterBall_Buff_01_State"
            }
          ]
        },
        "OceanCurrent_Parkou_DetectBubble": {
          "modifierName": "",
          "elementDurability": 100.0,
          "thinkInterval": 0.10000000149011612,
          "onThinkInterval": [
            {
              "$type": "Predicated",
              "otherTargets": {
                "$type": "PBLNLAENOGB",
                "topLimit": 5,
                "sortType": "Nearest",
                "tag": "Is_OceanCurrent_Bubble"
              },
              "successActions": [
                {
                  "$type": "SetGlobalValue",
                  "target": "Target",
                  "predicates": [
                    {
                      "$type": "ByTargetPositionToSelfPosition",
                      "logic": "LesserOrEqual",
                      "compareType": "XYZ",
                      "value": "Detect_Bubble_Dis",
                      "DDALGNLEHOD": ""
                    },
                    {
                      "$type": "ByTargetGlobalValue",
                      "key": "Is_Bubble_SpecDistance",
                      "value": 0.0,
                      "compareType": "NoneOrEqual"
                    }
                  ],
                  "value": 1.0,
                  "key": "OceanCurrent_Bubble_Show",
                  "maxValue": 0.0,
                  "minValue": 0.0
                },
                {
                  "$type": "SetGlobalValue",
                  "target": "Target",
                  "predicates": [
                    {
                      "$type": "ByTargetPositionToSelfPosition",
                      "logic": "LesserOrEqual",
                      "compareType": "XYZ",
                      "value": "Detect_Bubble_Dis02",
                      "DDALGNLEHOD": ""
                    },
                    {
                      "$type": "ByTargetGlobalValue",
                      "key": "Is_Bubble_SpecDistance",
                      "value": 1.0
                    }
                  ],
                  "value": 1.0,
                  "key": "OceanCurrent_Bubble_Show",
                  "maxValue": 0.0,
                  "minValue": 0.0
                }
              ]
            }
          ]
        }
      },
      "onAdded": [
        {
          "$type": "AttachModifier",
          "shieldHP": false,
          "modifierName": "OceanCurrent_Parkou_DetectBubble"
        },
        {
          "$type": "AttachModifier",
          "shieldHP": false,
          "modifierName": "OceanCurrent_Parkou_BoostEffect"
        },
        {
          "$type": "FNPMFLOOCDD",
          "value": 0.0,
          "key": "GV_OceanCurrentBoost_Trail",
          "maxValue": 0.0,
          "minValue": 0.0
        }
      ],
      "onRemoved": [
        {
          "$type": "KillGadget",
          "target": "CurTeamAvatars",
          "shieldHP": true,
          "gadgetInfo": {
            "configID": 70330667
          }
        }
      ],
      "isDynamicAbility": true
    }
  },
  {
    "Default": {
      "$type": "ConfigAbility",
      "abilityName": "RegionAbility_Boss_Nutcracker_TeamAbility",
      "abilityMixins": [
        {
          "$type": "AttachModifierToSelfGlobalValueNoInitMixin",
          "globalValueKey": "SGV_BGM_State",
          "valueSteps": [-0.5, 0.5, 1.5, 2.5],
          "modifierNameSteps": [
            "Nutcracker_BGM_State_0",
            "Nutcracker_BGM_State_1",
            "Nutcracker_BGM_State_2"
          ],
          "NMCLMHFBALJ": true
        }
      ],
      "modifiers": {
        "Nutcracker_BGM_Protector": {
          "modifierName": "",
          "elementDurability": 100.0,
          "modifierMixins": [
            {
              "$type": "AttachActionToModifierMixin",
              "onRemoved": [
                {
                  "$type": "TriggerAudio",
                  "operation": {
                    "$type": "ConfigAudioEventOp",
                    "operation": {
                      "text": "SetState_SpecialQuest_off"
                    }
                  }
                }
              ]
            }
          ],
          "onAdded": [
            {
              "$type": "AHPEKICBIIL",
              "shieldHP": true,
              "luaCallType": "SpecificGroup",
              "callParamList": [133402002],
              "funcName": "SLC_Nutcracker_OnAbilityReady",
              "param1": 0.0,
              "MGAMDEHMCOL": 0.0,
              "MMHOHAOGPLP": 0.0
            }
          ]
        },
        "Nutcracker_BGM_State_0": {
          "modifierName": "",
          "elementDurability": 100.0,
          "onAdded": [
            {
              "$type": "TriggerAudio",
              "operation": {
                "$type": "ConfigAudioEventOp",
                "operation": {
                  "text": "SetState_SpecialQuest_off"
                }
              }
            }
          ]
        },
        "Nutcracker_BGM_State_1": {
          "modifierName": "",
          "elementDurability": 100.0,
          "onAdded": [
            {
              "$type": "TriggerAudio",
              "operation": {
                "$type": "ConfigAudioEventOp",
                "operation": {
                  "text": "SetState_v40_Nutcracker_S01"
                }
              }
            },
            {
              "$type": "TriggerAbility",
              "abilityName": "RegionAbility_Boss_Nutcracker_TeamAbility"
            }
          ]
        },
        "Nutcracker_BGM_State_2": {
          "modifierName": "",
          "elementDurability": 100.0,
          "onAdded": [
            {
              "$type": "TriggerAudio",
              "operation": {
                "$type": "ConfigAudioEventOp",
                "operation": {
                  "text": "SetState_v40_Nutcracker_S02"
                }
              }
            },
            {
              "$type": "TriggerAbility",
              "abilityName": "RegionAbility_Boss_Nutcracker_TeamAbility"
            }
          ]
        }
      },
      "onAdded": [
        {
          "$type": "AttachModifier",
          "modifierName": "Nutcracker_BGM_Protector"
        }
      ],
      "onRemoved": [
        {
          "$type": "TriggerAudio",
          "operation": {
            "$type": "ConfigAudioEventOp",
            "operation": {
              "text": "SetState_SpecialQuest_off"
            }
          }
        }
      ],
      "onAbilityStart": [
        {
          "$type": "TriggerAudio",
          "operation": {
            "$type": "ConfigAudioEventOp",
            "operation": {
              "text": "SetState_specialQuest_on"
            }
          }
        }
      ],
      "isDynamicAbility": true
    }
  }
]
