{
  "common": {
    "effectAttachShape": {
      "$type": "FJNPJANPGGC",
      "mesh": "EffectMesh"
    },
    "mass": 9999999.0,
    "height": 1.0,
    "affectedByWorld": true,
    "checkInSurface": true,
    "canTriggerElementReactionText": false,
    "useGrassDisplacement": true,
    "clearAnimatorOnSetLightDeactive": true,
    "clearAIOnSetLightDeactive": true
  },
  "model": {
    "bornEffect": "",
    "attachEffect": "",
    "canBakeMesh": false,
    "BKPFGNPLDNJ": ""
  },
  "dither": {
    "showDitherDuration": 1.0
  },
  "combat": {
    "property": {
      "endureType": "Monster_Minion",
      "weight": 101.0,
      "isInvincible": true
    },
    "beHit": {
      "hitBloodEffect": "",
      "muteAllHit": true,
      "muteAllHitText": true
    },
    "combatLock": {
      "lockShape": "CircleLockEnemy",
      "lockType": "Animal_Lv2"
    },
    "die": {
      "dieEndTime": 1.7999999523162842,
      "dieForceDisappearTime": 2.0,
      "dieDisappearEffect": ""
    },
    "animEvents": {
      "MeleeAtk01": {
        "attackPattern": {
          "$type": "ConfigAttackCircle",
          "triggerType": "TriggerNoRepeat",
          "born": {
            "$type": "ConfigBornBySelf",
            "offset": {
              "x": 0.0,
              "y": -0.5,
              "z": 0.0
            }
          },
          "height": 3.0,
          "fanAngle": 180.0,
          "radius": 3.0
        },
        "attackInfo": {
          "attackTag": "Electrohercules_MeleeAttack01",
          "attenuationTag": "",
          "attenuationGroup": "default",
          "attackProperty": {
            "actorGrassSubHurtDelta": 0.0,
            "actorWindSubHurtDelta": 0.0,
            "elementDurability": 100.0,
            "strikeType": "Blunt",
            "enBreak": 0.0,
            "attackType": "Melee",
            "GLKMCMDJBIK": 0.0
          }
        }
      }
    }
  },
  "abilities": [
    {
      "abilityID": "",
      "abilityName": "Animal_Electrohercules_Properties_01",
      "abilityOverride": ""
    },
    {
      "abilityID": "",
      "abilityName": "Animal_Electrohercules_BattleStateHandler",
      "abilityOverride": ""
    },
    {
      "abilityID": "",
      "abilityName": "Animal_Electrohercules_PositionLogicHandler",
      "abilityOverride": ""
    },
    {
      "abilityID": "",
      "abilityName": "Animal_Electrohercules_PlayAlert",
      "abilityOverride": ""
    },
    {
      "abilityID": "",
      "abilityName": "Animal_Electrohercules_Enemy01_SkillManager",
      "abilityOverride": ""
    },
    {
      "abilityID": "",
      "abilityName": "Animal_Electrohercules_Enemy_RangedAttack01_Chasing",
      "abilityOverride": ""
    },
    {
      "abilityID": "",
      "abilityName": "Animal_Electrohercules_TryBreakRangedAttack",
      "abilityOverride": ""
    },
    {
      "abilityID": "",
      "abilityName": "Animal_Electrohercules_Tutorial_AddStage",
      "abilityOverride": ""
    },
    {
      "abilityID": "",
      "abilityName": "Animal_Electrohercules_Tutorial_MeleeAttack01",
      "abilityOverride": ""
    }
  ],
  "stateLayers": {
    "defaultLayer": {
      "$type": "GBGJJIIEMBD",
      "layerIndexName": "",
      "CPAANEIJCGD": "",
      "stateIDs": {
        "Born": {
          "$type": "NEDIFAKEGCO",
          "animatorStates": {
            "Born": []
          },
          "resetAnimatorTriggerOnExit": ["DoSkill"]
        },
        "NormalIdle": {
          "$type": "NEDIFAKEGCO",
          "animatorStates": {
            "Standby": []
          },
          "canDoSkill": true,
          "canSyncMove": true,
          "resetAnimatorTriggerOnEnter": ["IsCharging"],
          "resetAnimatorTriggerOnExit": ["DoSkill"]
        },
        "NormalMove": {
          "$type": "NEDIFAKEGCO",
          "animatorStates": {
            "WalkForward": [],
            "WalkBack": []
          },
          "canDoSkill": true,
          "resetAnimatorTriggerOnExit": ["DoSkill"]
        },
        "BeHit": {
          "$type": "NEDIFAKEGCO",
          "animatorStates": {
            "Hit_L": ["Audio_Animal_Electrohercules_01_Hit_L"],
            "Hit_H": ["Audio_Animal_Electrohercules_01_Hit_H"]
          },
          "resetAnimatorTriggerOnEnter": ["BeHit"],
          "resetAnimatorTriggerOnExit": ["DoSkill"]
        },
        "BeHitThrow": {
          "$type": "NEDIFAKEGCO",
          "animatorStates": {
            "HitThrow": [],
            "HitThrowDrop": [],
            "HitThrowToGround": []
          },
          "resetAnimatorTriggerOnEnter": ["BeHit", "HitAir2HitDrop"],
          "resetAnimatorTriggerOnExit": ["DoSkill"]
        },
        "Struggle": {
          "$type": "NEDIFAKEGCO",
          "animatorStates": {
            "Struggle": []
          },
          "resetAnimatorTriggerOnEnter": ["BeHit", "HitAir2HitDrop"],
          "resetAnimatorTriggerOnExit": ["DoSkill"]
        },
        "Die": {
          "$type": "NEDIFAKEGCO",
          "animatorStates": {
            "Die": ["Audio_Animal_Electrohercules_01_Die"]
          }
        },
        "Warning": {
          "$type": "NEDIFAKEGCO",
          "animatorStates": {
            "Alert": ["Audio_Animal_Electrohercules_01_Alert"]
          },
          "canSyncMove": true,
          "resetAnimatorTriggerOnExit": ["BeHit", "DoSkill"],
          "canSteer": true
        },
        "MeleeAttack01_BS": {
          "$type": "NEDIFAKEGCO",
          "animatorStates": {
            "MeleeAttack01_BS": [
              "Animal_Electrohercules_01_JumpForward_Charging",
              "Animal_Electrohercules_01_MeleeAttack01_BS"
            ],
            "MeleeAttack01_BSLoop": [],
            "MeleeAttack01_BSLoop03": [
              "Animal_Electrohercules_Tutorial_MeleeAttack01_BS"
            ]
          },
          "resetAnimatorTriggerOnExit": ["BeHit", "DoSkill"]
        },
        "MeleeAttack01": {
          "$type": "NEDIFAKEGCO",
          "animatorStates": {
            "MeleeAttack01": [
              "Animal_Electrohercules_01_JumpForward",
              "Audio_Animal_Electrohercules_01_JumpForward"
            ],
            "MeleeAttack01_AS": [
              "Animal_Electrohercules_Tutorial_MeleeAttack01_AS"
            ]
          },
          "resetAnimatorTriggerOnExit": ["BeHit", "DoSkill"]
        },
        "RangedAttack01": {
          "$type": "NEDIFAKEGCO",
          "animatorStates": {
            "RangedAttack01_BS": ["Animal_Electrohercules_01_RangedAttack01"],
            "RangedAttack01_Loop": [],
            "RangedAttack01_AS": []
          },
          "resetAnimatorTriggerOnExit": ["BeHit", "DoSkill"]
        },
        "Recoil": {
          "$type": "NEDIFAKEGCO",
          "animatorStates": {
            "Recoil": []
          },
          "resetAnimatorTriggerOnExit": ["BeHit", "DoSkill", "CriticalTrigger"]
        },
        "Taunt01": {
          "$type": "NEDIFAKEGCO",
          "animatorStates": {
            "Taunt01": []
          },
          "resetAnimatorTriggerOnExit": ["BeHit", "DoSkill"]
        },
        "Taunt02": {
          "$type": "NEDIFAKEGCO",
          "animatorStates": {
            "Taunt02": []
          },
          "resetAnimatorTriggerOnExit": ["BeHit", "DoSkill"]
        }
      }
    }
  },
  "initialPoses": {
    "Default": {
      "initialPoseID": 1,
      "initialPoseParams": {
        "intParams": {
          "ActionState": "0"
        }
      }
    }
  },
  "aibeta": {
    "enable": true,
    "sensing": {
      "settings": {
        "DefaultSetting": {
          "viewRange": 25.0,
          "viewPanoramic": true,
          "feelRange": 25.0
        }
      }
    },
    "neurons": {
      "DefaultSetting": []
    },
    "threat": {
      "GHIJMOKOLMB": "",
      "clearThreatTimerByDistance": 1.0,
      "threatDecreaseSpeed": 500.0
    },
    "defendArea": {
      "defendRange": 50.0
    },
    "ui": {
      "hasDirectionIndicator": false,
      "HMNNBFDEHLG": ""
    },
    "skillGroupCDConfigs": [
      {
        "skillGroupCDID": 1,
        "skillGroupCDTime": 9.0
      }
    ],
    "skills": {
      "1011": {
        "name": "MeleeAttack01",
        "castCondition": {
          "pose": [101],
          "needReInitCD": true,
          "pickRangeMax": 2.4000000953674316
        },
        "cd": 6.0,
        "initialCD": 1.0,
        "publicCDGroup": "",
        "HHAGODJIAPE": "",
        "stateIDs": ["MeleeAttack01_BS", "MeleeAttack01"],
        "flagTargetReachable": "11",
        "flagSelfOnTemplateCollider": "01",
        "flagSelfInZone": "10",
        "flagTargetInZone": "11"
      },
      "1012": {
        "name": "RangedAttack01",
        "castCondition": {
          "pose": [101],
          "needReInitCD": true,
          "pickRangeMin": 2.0,
          "pickRangeMax": 4.0
        },
        "cd": 10.0,
        "initialCD": 3.0,
        "publicCDGroup": "",
        "HHAGODJIAPE": "",
        "stateIDs": ["RangedAttack01"],
        "flagTargetReachable": "11",
        "flagSelfOnTemplateCollider": "01",
        "flagSelfInZone": "10",
        "flagTargetInZone": "11"
      },
      "1018": {
        "name": "Taunt01",
        "castCondition": {
          "pose": [101],
          "needReInitCD": true,
          "pickRangeMin": 2.0,
          "pickRangeMax": 99.0
        },
        "cd": 8.0,
        "initialCD": 5.0,
        "publicCDGroup": "",
        "ignoreGCD": true,
        "skillGroupCDID": 1,
        "HHAGODJIAPE": "",
        "stateIDs": ["Taunt01"],
        "flagTargetReachable": "11",
        "flagSelfOnTemplateCollider": "01",
        "flagSelfInZone": "10",
        "flagTargetInZone": "11"
      },
      "1019": {
        "name": "Taunt02",
        "castCondition": {
          "pose": [101],
          "needReInitCD": true,
          "pickRangeMin": 2.0,
          "pickRangeMax": 99.0
        },
        "cd": 8.0,
        "initialCD": 5.0,
        "publicCDGroup": "",
        "ignoreGCD": true,
        "skillGroupCDID": 1,
        "HHAGODJIAPE": "",
        "stateIDs": ["Taunt02"],
        "flagTargetReachable": "11",
        "flagSelfOnTemplateCollider": "01",
        "flagSelfInZone": "10",
        "flagTargetInZone": "11"
      }
    },
    "birdCirclingTactic": [
      {
        "$type": "EPHBMLFODKF",
        "enable": true,
        "condition": {
          "pose": [101, 111]
        },
        "JMCOBEPDIGM": {
          "rangeMin": 1.4500000476837158,
          "rangeMax": 1.9500000476837158,
          "JOJBOHEDBHC": 10.0,
          "AFILKAGDAHN": 4.0,
          "ALIBHHJHHMN": 0.5,
          "BFJBDDIIFOI": {
            "LLICGJHIGME": 0.0,
            "AEBLMKFNCDG": 0.0,
            "IGLIBIOEGBB": 0.0
          },
          "FNFGJGDBPLN": false,
          "NAOBMNGDKHL": "1111",
          "JCNIJOAIGII": "1111",
          "MNPDDAKDHGK": ""
        }
      },
      {
        "$type": "KACCHOLJDNK",
        "enable": true,
        "condition": {
          "pose": [101, 121]
        },
        "JMCOBEPDIGM": {
          "ANLAAGAMIKF": 1,
          "NBENNEKDIIA": 1.0,
          "KHDFDAAAPEI": 2.0,
          "HKJODDGJPHA": 50.0,
          "KFFGCIMPNMJ": 0.0,
          "MNPDDAKDHGK": ""
        }
      }
    ]
  },
  "inputKeys": [
    {
      "keyID": 1,
      "inputKeyCode": 257,
      "abilityName": ""
    },
    {
      "keyID": 1011,
      "inputKeyCode": 258,
      "abilityName": ""
    },
    {
      "keyID": 1012,
      "inputKeyCode": 259,
      "abilityName": ""
    },
    {
      "keyID": 1013,
      "inputKeyCode": 260,
      "abilityName": ""
    },
    {
      "keyID": 1014,
      "inputKeyCode": 261,
      "abilityName": ""
    },
    {
      "keyID": 1015,
      "inputKeyCode": 262,
      "abilityName": ""
    },
    {
      "keyID": 1016,
      "inputKeyCode": 263,
      "abilityName": ""
    },
    {
      "keyID": 1017,
      "inputKeyCode": 264,
      "abilityName": ""
    },
    {
      "keyID": 1018,
      "inputKeyCode": 265,
      "abilityName": ""
    }
  ],
  "move": {
    "$type": "IPNMJMHDMPF",
    "facingMove": "ForwardBackward",
    "PKHOMJHFAEE": "RootNode"
  },
  "audio": {
    "overrideEmitterName": "",
    "animAudio": {
      "onTransitionIn": [
        {
          "currentStateName": "WalkBack",
          "audioEvent": {
            "text": "Play_sfx_animal_electrohercules_walk_Loop"
          }
        },
        {
          "currentStateName": "WalkForward",
          "audioEvent": {
            "text": "Play_sfx_animal_electrohercules_walk_Loop"
          }
        }
      ],
      "onTransitionOut": [
        {
          "currentStateName": "WalkBack",
          "audioEvent": {
            "text": "Stop_sfx_animal_electrohercules_walk_Loop"
          }
        },
        {
          "currentStateName": "WalkForward",
          "audioEvent": {
            "text": "Stop_sfx_animal_electrohercules_walk_Loop"
          }
        }
      ]
    }
  },
  "animal": {
    "tickAbilityElement": false
  }
}
