{
  "common": {
    "effectAttachShape": {
      "$type": "FJNPJANPGGC",
      "mesh": "EffectMesh"
    },
    "mass": 10000.0,
    "height": 4.0,
    "modelHeight": 4.0,
    "viewSize": 1.5,
    "affectedByWorld": true,
    "checkInSurface": true,
    "scale": 1.399999976158142,
    "shouldPauseAnimatorBeforeReady": true,
    "useGrassDisplacement": true,
    "hasAfterImage": true,
    "useDynamicBone": true,
    "clearAnimatorOnSetLightDeactive": true,
    "clearAIOnSetLightDeactive": true
  },
  "headControl": {
    "$type": "KPIPDEBDPIH",
    "useHeadControl": true,
    "maxYawDegree": 20.0,
    "maxPitchDegree": 5.0,
    "animStates": [
      "NormalIdle/Standby",
      "NormalMove/WalkForward",
      "NormalMove/WalkBack",
      "NormalMove/WalkRight",
      "NormalMove/WalkLeft",
      "NormalMove/WalkForwardToStand",
      "TurnLeft/TurnLeft",
      "TurnRight/TurnRight"
    ]
  },
  "model": {
    "bornEffect": "",
    "attachEffect": "",
    "canBakeMesh": false,
    "BKPFGNPLDNJ": ""
  },
  "dither": {
    "showDitherDuration": 2.0
  },
  "combat": {
    "property": {
      "endureType": "Monster_Boss_Other",
      "weight": 99999.0
    },
    "beHit": {
      "hitBloodEffect": ""
    },
    "combatLock": {
      "lockShape": "CircleLockEnemy",
      "lockType": "Avatar&Monster_Lv4"
    },
    "die": {
      "hasAnimatorDie": true,
      "dieEndTime": 2.0,
      "dieForceDisappearTime": 5.0,
      "dieDisappearEffect": "Eff_Death_Avatar_Common",
      "ragDollDieEndTimeDelay": 1.0,
      "muteHitBox": true,
      "dieDenyLockOn": true,
      "dieIsGhostToEnemy": true,
      "dieIgnoreTriggerBullet": true,
      "muteBillboard": true,
      "mutePushCollider": true
    },
    "animEvents": {
      "MeleeAtk1_1": {
        "attackPattern": {
          "$type": "ConfigAttackBox",
          "triggerType": "TriggerNoRepeat",
          "ignoreMassive": true,
          "born": {
            "$type": "ConfigBornBySelf",
            "offset": {
              "x": 0.0,
              "y": 2.0,
              "z": 0.0
            }
          },
          "size": {
            "x": 2.0,
            "y": 4.0,
            "z": 3.5
          }
        },
        "attackInfo": {
          "attackTag": "",
          "attenuationTag": "",
          "attenuationGroup": "default",
          "attackProperty": {
            "actorGrassSubHurtDelta": 0.5,
            "actorWindSubHurtDelta": 0.0,
            "elementDurability": 50.0,
            "strikeType": "Slash",
            "enBreak": 100.0,
            "attackType": "Melee",
            "GLKMCMDJBIK": 0.0
          },
          "hitPattern": {
            "onHitEffectName": "default",
            "hitImpulseY": "",
            "hitImpulseType": "LV3",
            "canBeDefenceHalt": true
          }
        }
      },
      "MeleeAtk1_2": {
        "attackPattern": {
          "$type": "ConfigAttackBox",
          "triggerType": "TriggerNoRepeat",
          "ignoreMassive": true,
          "born": {
            "$type": "ConfigBornBySelf",
            "offset": {
              "x": 0.0,
              "y": 2.0,
              "z": 0.0
            }
          },
          "size": {
            "x": 2.0,
            "y": 4.0,
            "z": 3.5
          }
        },
        "attackInfo": {
          "attackTag": "",
          "attenuationTag": "",
          "attenuationGroup": "default",
          "attackProperty": {
            "actorGrassSubHurtDelta": 0.5,
            "actorWindSubHurtDelta": 0.0,
            "elementDurability": 50.0,
            "strikeType": "Slash",
            "enBreak": 100.0,
            "attackType": "Melee",
            "GLKMCMDJBIK": 0.0
          },
          "hitPattern": {
            "onHitEffectName": "default",
            "hitImpulseY": "",
            "hitImpulseType": "LV4",
            "canBeDefenceHalt": true
          }
        }
      },
      "MeleeAtk2_1Wind": {
        "attackPattern": {
          "$type": "ConfigAttackCircle",
          "triggerType": "TriggerNoRepeat",
          "ignoreMassive": true,
          "born": {
            "$type": "ConfigBornBySelf",
            "offset": {
              "x": 0.0,
              "y": -0.20000000298023224,
              "z": 0.5
            }
          },
          "height": 3.0,
          "radius": 3.5
        },
        "attackInfo": {
          "attackTag": "",
          "attenuationTag": "",
          "attenuationGroup": "default",
          "attackProperty": {
            "actorGrassSubHurtDelta": 0.5,
            "actorWindSubHurtDelta": 0.0,
            "elementType": "Wind",
            "elementDurability": 50.0,
            "strikeType": "Slash",
            "enBreak": 100.0,
            "attackType": "Melee",
            "GLKMCMDJBIK": 0.0
          },
          "hitPattern": {
            "onHitEffectName": "default",
            "hitImpulseY": "",
            "hitImpulseType": "LV3",
            "canBeDefenceHalt": true
          }
        }
      },
      "MeleeAtk2_2Wind": {
        "attackPattern": {
          "$type": "ConfigAttackBox",
          "triggerType": "TriggerNoRepeat",
          "ignoreMassive": true,
          "born": {
            "$type": "ConfigBornBySelf",
            "offset": {
              "x": 0.0,
              "y": 2.0,
              "z": 0.0
            }
          },
          "size": {
            "x": 4.0,
            "y": 4.0,
            "z": 5.0
          }
        },
        "attackInfo": {
          "attackTag": "",
          "attenuationTag": "",
          "attenuationGroup": "default",
          "attackProperty": {
            "actorGrassSubHurtDelta": 0.5,
            "actorWindSubHurtDelta": 0.0,
            "elementType": "Wind",
            "elementDurability": 50.0,
            "strikeType": "Slash",
            "enBreak": 100.0,
            "attackType": "Melee",
            "GLKMCMDJBIK": 0.0
          },
          "hitPattern": {
            "onHitEffectName": "default",
            "hitImpulseY": "",
            "hitImpulseType": "LV5",
            "canBeDefenceHalt": true
          }
        }
      },
      "RushAttack": {
        "attackPattern": {
          "$type": "ConfigAttackBox",
          "triggerType": "TriggerNoRepeat",
          "ignoreMassive": true,
          "born": {
            "$type": "ConfigBornBySelf",
            "offset": {
              "x": 0.0,
              "y": 1.5,
              "z": -11.5
            }
          },
          "size": {
            "x": 4.0,
            "y": 3.0,
            "z": 20.0
          }
        },
        "attackInfo": {
          "attackTag": "",
          "attenuationTag": "",
          "attenuationGroup": "default",
          "attackProperty": {
            "actorGrassSubHurtDelta": 0.6000000238418579,
            "actorWindSubHurtDelta": 0.0,
            "elementDurability": 50.0,
            "strikeType": "Slash",
            "enBreak": 100.0,
            "attackType": "Melee",
            "GLKMCMDJBIK": 0.0
          },
          "hitPattern": {
            "onHitEffectName": "default",
            "hitImpulseY": "",
            "hitImpulseType": "LV5",
            "retreatType": "ByHitDirection",
            "canBeDefenceHalt": true
          }
        }
      },
      "RushAttack_EndPoint": {
        "attackPattern": {
          "$type": "ConfigAttackCircle",
          "triggerType": "TriggerNoRepeat",
          "ignoreMassive": true,
          "born": {
            "$type": "ConfigBornBySelf",
            "offset": {
              "x": 0.0,
              "y": -0.5,
              "z": 0.0
            }
          },
          "height": 3.0,
          "radius": 5.0
        },
        "attackInfo": {
          "attackTag": "",
          "attenuationTag": "",
          "attenuationGroup": "default",
          "attackProperty": {
            "actorGrassSubHurtDelta": 0.6000000238418579,
            "actorWindSubHurtDelta": 0.0,
            "elementDurability": 50.0,
            "strikeType": "Slash",
            "enBreak": 100.0,
            "attackType": "Melee",
            "GLKMCMDJBIK": 0.0
          },
          "hitPattern": {
            "onHitEffectName": "default",
            "hitImpulseY": "",
            "hitImpulseType": "LV5",
            "retreatType": "ByHitDirection",
            "canBeDefenceHalt": true
          }
        }
      },
      "RushAttack_Wind": {
        "attackPattern": {
          "$type": "ConfigAttackBox",
          "triggerType": "TriggerNoRepeat",
          "ignoreMassive": true,
          "born": {
            "$type": "ConfigBornBySelf",
            "offset": {
              "x": 0.0,
              "y": 1.5,
              "z": -11.5
            }
          },
          "size": {
            "x": 6.0,
            "y": 3.0,
            "z": 20.0
          }
        },
        "attackInfo": {
          "attackTag": "",
          "attenuationTag": "",
          "attenuationGroup": "default",
          "attackProperty": {
            "actorGrassSubHurtDelta": 0.6000000238418579,
            "actorWindSubHurtDelta": 0.0,
            "elementType": "Wind",
            "elementDurability": 50.0,
            "strikeType": "Slash",
            "enBreak": 100.0,
            "attackType": "Melee",
            "GLKMCMDJBIK": 0.0
          },
          "hitPattern": {
            "onHitEffectName": "default",
            "hitImpulseY": "",
            "hitImpulseType": "LV5",
            "retreatType": "ByHitDirection",
            "canBeDefenceHalt": true
          }
        }
      },
      "RushAttack_EndPoint_Wind": {
        "attackPattern": {
          "$type": "ConfigAttackCircle",
          "triggerType": "TriggerNoRepeat",
          "ignoreMassive": true,
          "born": {
            "$type": "ConfigBornBySelf",
            "offset": {
              "x": 0.0,
              "y": -0.5,
              "z": 0.0
            }
          },
          "height": 3.0,
          "radius": 5.0
        },
        "attackInfo": {
          "attackTag": "",
          "attenuationTag": "",
          "attenuationGroup": "default",
          "attackProperty": {
            "actorGrassSubHurtDelta": 0.6000000238418579,
            "actorWindSubHurtDelta": 0.0,
            "elementType": "Wind",
            "elementDurability": 50.0,
            "strikeType": "Slash",
            "enBreak": 100.0,
            "attackType": "Melee",
            "GLKMCMDJBIK": 0.0
          },
          "hitPattern": {
            "onHitEffectName": "default",
            "hitImpulseY": "",
            "hitImpulseType": "LV5",
            "retreatType": "ByHitDirection",
            "canBeDefenceHalt": true
          }
        }
      },
      "ChargeAttack1_1": {
        "attackPattern": {
          "$type": "ConfigAttackCircle",
          "triggerType": "TriggerNoRepeat",
          "ignoreMassive": true,
          "born": {
            "$type": "ConfigBornBySelf",
            "offset": {
              "x": 0.0,
              "y": -0.5,
              "z": 0.0
            }
          },
          "height": 4.0,
          "radius": 7.0
        },
        "attackInfo": {
          "attackTag": "",
          "attenuationTag": "",
          "attenuationGroup": "default",
          "attackProperty": {
            "actorGrassSubHurtDelta": 1.0,
            "actorWindSubHurtDelta": 0.0,
            "elementDurability": 50.0,
            "strikeType": "Slash",
            "enBreak": 100.0,
            "attackType": "Melee",
            "GLKMCMDJBIK": 0.0
          },
          "hitPattern": {
            "onHitEffectName": "default",
            "hitImpulseY": "",
            "hitImpulseType": "LV5",
            "retreatType": "ByHitDirection",
            "canBeDefenceHalt": true
          }
        }
      },
      "ChargeAttack1_1Wind": {
        "attackPattern": {
          "$type": "ConfigAttackCircle",
          "triggerType": "TriggerNoRepeat",
          "ignoreMassive": true,
          "born": {
            "$type": "ConfigBornBySelf",
            "offset": {
              "x": 0.0,
              "y": -0.5,
              "z": 0.0
            }
          },
          "height": 4.0,
          "radius": 7.0
        },
        "attackInfo": {
          "attackTag": "Monster_BladeMaster_BeBlockAttack",
          "attenuationTag": "",
          "attenuationGroup": "default",
          "attackProperty": {
            "actorGrassSubHurtDelta": 1.0,
            "actorWindSubHurtDelta": 0.0,
            "elementType": "Wind",
            "elementDurability": 50.0,
            "strikeType": "Slash",
            "enBreak": 100.0,
            "attackType": "Melee",
            "GLKMCMDJBIK": 0.0
          },
          "hitPattern": {
            "onHitEffectName": "default",
            "hitImpulseY": "",
            "hitImpulseType": "LV5",
            "retreatType": "ByHitDirection",
            "canBeDefenceHalt": true
          }
        }
      },
      "ChargeAttack1_1Ice": {
        "attackPattern": {
          "$type": "ConfigAttackCircle",
          "triggerType": "TriggerNoRepeat",
          "ignoreMassive": true,
          "born": {
            "$type": "ConfigBornBySelf",
            "offset": {
              "x": 0.0,
              "y": -0.5,
              "z": 0.0
            }
          },
          "height": 4.0,
          "radius": 7.0
        },
        "attackInfo": {
          "attackTag": "Monster_BladeMaster_BeBlockAttack",
          "attenuationTag": "",
          "attenuationGroup": "default",
          "attackProperty": {
            "actorGrassSubHurtDelta": 1.0,
            "actorWindSubHurtDelta": 0.0,
            "elementType": "Ice",
            "elementDurability": 50.0,
            "strikeType": "Blunt",
            "enBreak": 100.0,
            "attackType": "Melee",
            "GLKMCMDJBIK": 0.0
          },
          "hitPattern": {
            "onHitEffectName": "default",
            "hitImpulseY": "",
            "hitImpulseType": "LV5",
            "retreatType": "ByHitDirection",
            "canBeDefenceHalt": true
          }
        }
      },
      "ChargeAttack1_2Ice": {
        "attackPattern": {
          "$type": "ConfigAttackCircle",
          "triggerType": "TriggerNoRepeat",
          "ignoreMassive": true,
          "born": {
            "$type": "ConfigBornBySelf",
            "offset": {
              "x": 0.0,
              "y": -0.5,
              "z": 0.0
            }
          },
          "height": 4.0,
          "radius": 14.0,
          "MMBCLAEOEFB": 7.0
        },
        "attackInfo": {
          "attackTag": "Monster_BladeMaster_BeBlockAttack",
          "attenuationTag": "",
          "attenuationGroup": "default",
          "attackProperty": {
            "actorGrassSubHurtDelta": 1.0,
            "actorWindSubHurtDelta": 0.0,
            "elementType": "Ice",
            "elementDurability": 50.0,
            "strikeType": "Slash",
            "enBreak": 5000.0,
            "attackType": "Melee",
            "GLKMCMDJBIK": 0.0
          },
          "hitPattern": {
            "onHitEffectName": "default",
            "hitImpulseY": "",
            "hitImpulseType": "LV5",
            "retreatType": "ByHitDirection",
            "canBeDefenceHalt": true
          },
          "forceCameraShake": true,
          "cameraShake": {
            "shakeType": "CustomVector",
            "shakeRange": 0.30000001192092896,
            "shakeTime": 0.10000000149011612,
            "shakeDir": {
              "z": 1.0
            },
            "extension": {
              "baseOnCamera": true
            }
          }
        }
      },
      "BurstAttackWind": {
        "attackPattern": {
          "$type": "ConfigAttackCircle",
          "triggerType": "TriggerNoRepeat",
          "ignoreMassive": true,
          "born": {
            "$type": "ConfigBornBySelf",
            "offset": {
              "x": 0.0,
              "y": -0.5,
              "z": 0.0
            }
          },
          "height": 4.0,
          "radius": 7.0
        },
        "attackInfo": {
          "attackTag": "",
          "attenuationTag": "",
          "attenuationGroup": "default",
          "attackProperty": {
            "actorGrassSubHurtDelta": 0.800000011920929,
            "actorWindSubHurtDelta": 0.0,
            "elementType": "Wind",
            "elementDurability": 50.0,
            "strikeType": "Slash",
            "enBreak": 100.0,
            "attackType": "Melee",
            "GLKMCMDJBIK": 0.0
          },
          "hitPattern": {
            "onHitEffectName": "default",
            "hitImpulseY": "",
            "hitImpulseType": "LV5",
            "retreatType": "ByHitDirection",
            "canBeDefenceHalt": true
          },
          "forceCameraShake": true,
          "cameraShake": {
            "shakeType": "CustomVector",
            "shakeRange": 0.30000001192092896,
            "shakeTime": 0.10000000149011612,
            "shakeDir": {
              "y": 1.0
            }
          }
        }
      },
      "BurstAttackIce": {
        "attackPattern": {
          "$type": "ConfigAttackCircle",
          "triggerType": "TriggerNoRepeat",
          "ignoreMassive": true,
          "born": {
            "$type": "ConfigBornBySelf",
            "offset": {
              "x": 0.0,
              "y": -0.5,
              "z": 0.0
            }
          },
          "height": 4.0,
          "radius": 15.0
        },
        "attackInfo": {
          "attackTag": "",
          "attenuationTag": "",
          "attenuationGroup": "default",
          "attackProperty": {
            "actorGrassSubHurtDelta": 0.800000011920929,
            "actorWindSubHurtDelta": 0.0,
            "elementType": "Ice",
            "elementDurability": 50.0,
            "strikeType": "Slash",
            "enBreak": 5000.0,
            "attackType": "Melee",
            "GLKMCMDJBIK": 0.0
          },
          "hitPattern": {
            "onHitEffectName": "default",
            "hitImpulseY": "",
            "hitImpulseType": "LV5",
            "retreatType": "ByHitDirection",
            "canBeDefenceHalt": true
          }
        }
      },
      "MaskPushAttack": {
        "attackPattern": {
          "$type": "ConfigAttackBox",
          "triggerType": "TriggerNoRepeat",
          "ignoreMassive": true,
          "born": {
            "$type": "ConfigBornBySelf",
            "offset": {
              "x": 0.0,
              "y": 1.5,
              "z": 0.0
            }
          },
          "size": {
            "x": 2.0,
            "y": 3.0,
            "z": 12.0
          }
        },
        "attackInfo": {
          "attackTag": "",
          "attenuationTag": "",
          "attenuationGroup": "default",
          "attackProperty": {
            "actorGrassSubHurtDelta": 1.0,
            "actorWindSubHurtDelta": 0.0,
            "elementType": "Wind",
            "elementDurability": 50.0,
            "strikeType": "Slash",
            "enBreak": 100.0,
            "attackType": "Melee",
            "GLKMCMDJBIK": 0.0
          },
          "hitPattern": {
            "onHitEffectName": "default",
            "hitImpulseY": "",
            "hitImpulseType": "LV5",
            "canBeDefenceHalt": true
          }
        }
      }
    }
  },
  "equipController": {
    "sheathPoint": "",
    "attachPoints": {
      "equip01": "WeaponR",
      "equip02": "WeaponL"
    }
  },
  "abilities": [
    {
      "abilityID": "",
      "abilityName": "Monster_Samurai_Ningyo_01_WeaponShowHide",
      "abilityOverride": ""
    },
    {
      "abilityID": "",
      "abilityName": "Monster_Samurai_Ningyo_MeleeAttackIce_Ghost",
      "abilityOverride": ""
    },
    {
      "abilityID": "",
      "abilityName": "Monster_Samurai_Ningyo_01_Steer",
      "abilityOverride": ""
    },
    {
      "abilityID": "",
      "abilityName": "Monster_Samurai_Ningyo_01_RushAttack",
      "abilityOverride": ""
    },
    {
      "abilityID": "",
      "abilityName": "Monster_Samurai_Ningyo_Die",
      "abilityOverride": ""
    },
    {
      "abilityID": "",
      "abilityName": "Monster_Samurai_Ningyo_BladeMaster2_SPState",
      "abilityOverride": ""
    },
    {
      "abilityID": "",
      "abilityName": "Monster_Samurai_Ningyo_MeleeAttackWind_Ghost",
      "abilityOverride": ""
    },
    {
      "abilityID": "",
      "abilityName": "Monster_Samurai_Ningyo_01_Resistant",
      "abilityOverride": ""
    },
    {
      "abilityID": "",
      "abilityName": "Monster_Samurai_Ningyo_TriggerWindBladeAir1",
      "abilityOverride": ""
    },
    {
      "abilityID": "",
      "abilityName": "Monster_Samurai_Ningyo_TriggerWindBladeAir2",
      "abilityOverride": ""
    },
    {
      "abilityID": "",
      "abilityName": "Monster_Samurai_Ningyo_FireMaskClose",
      "abilityOverride": ""
    },
    {
      "abilityID": "",
      "abilityName": "Monster_Samurai_Ningyo_FireSilkToObj",
      "abilityOverride": ""
    },
    {
      "abilityID": "",
      "abilityName": "Monster_Samurai_EnsureVisible",
      "abilityOverride": ""
    },
    {
      "abilityID": "",
      "abilityName": "Monster_Samurai_Ningyo_Alert",
      "abilityOverride": ""
    },
    {
      "abilityID": "",
      "abilityName": "Monster_Samurai_Ningyo_ChargeAttackGhost",
      "abilityOverride": ""
    },
    {
      "abilityID": "",
      "abilityName": "Monster_Samurai_Ningyo_MaskPushtAttack_MaskChange",
      "abilityOverride": ""
    },
    {
      "abilityID": "",
      "abilityName": "Monster_Samurai_Ningyo_MaskCloseAttack_MaskChange",
      "abilityOverride": ""
    },
    {
      "abilityID": "",
      "abilityName": "Monster_Samurai_Ningyo_01_SpecialAlert",
      "abilityOverride": ""
    },
    {
      "abilityID": "",
      "abilityName": "Monster_Samurai_Ningyo_WindGhost_MeleeAttack_FireBladeAir1",
      "abilityOverride": ""
    },
    {
      "abilityID": "",
      "abilityName": "Monster_Samurai_Ningyo_OutOfBattle",
      "abilityOverride": ""
    },
    {
      "abilityID": "",
      "abilityName": "Monster_Samurai_Ningyo_RushCharge",
      "abilityOverride": ""
    },
    {
      "abilityID": "",
      "abilityName": "Monster_Samurai_Ningyo_BladeMaster2_BladeAir_ChoosePos",
      "abilityOverride": ""
    },
    {
      "abilityID": "",
      "abilityName": "Monster_Samurai_Ningyo_01_ComboCheckDistance",
      "abilityOverride": ""
    },
    {
      "abilityID": "",
      "abilityName": "Monster_Samurai_Ningyo_Watcher",
      "abilityOverride": ""
    },
    {
      "abilityID": "",
      "abilityName": "Samurai_Destory_Scene",
      "abilityOverride": ""
    },
    {
      "abilityID": "",
      "abilityName": "Monster_Samurai_Ningyo_SkillWeaponShow",
      "abilityOverride": ""
    },
    {
      "abilityID": "",
      "abilityName": "Monster_Samurai_Ningyo_Born_Pos",
      "abilityOverride": ""
    },
    {
      "abilityID": "",
      "abilityName": "Monster_Samurai_Ningyo_BladeMaster2_AngrySystem",
      "abilityOverride": ""
    },
    {
      "abilityID": "",
      "abilityName": "Monster_Samurai_Ningyo_TriggerWindBladeAir1_BladeMaster",
      "abilityOverride": ""
    },
    {
      "abilityID": "",
      "abilityName": "Monster_Samurai_Ningyo_TriggerWindBladeAir2_BladeMaster",
      "abilityOverride": ""
    }
  ],
  "stateLayers": {
    "defaultLayer": {
      "$type": "GBGJJIIEMBD",
      "layerIndexName": "",
      "CPAANEIJCGD": "",
      "stateIDs": {
        "Born": {
          "$type": "NEDIFAKEGCO",
          "animatorStates": {
            "Born": []
          },
          "canDoSkill": true,
          "canSyncMove": true,
          "resetAnimatorTriggerOnExit": ["DoSkill"]
        },
        "NormalIdle": {
          "$type": "NEDIFAKEGCO",
          "animatorStates": {
            "Standby": []
          },
          "canDoSkill": true,
          "canSyncMove": true,
          "resetAnimatorTriggerOnExit": ["DoSkill"]
        },
        "NormalMove": {
          "$type": "NEDIFAKEGCO",
          "animatorStates": {
            "WalkForward": ["Audio_Samurai_Ningyo_Walk"],
            "WalkBack": ["Audio_Samurai_Ningyo_Walk"],
            "WalkRight": ["Audio_Samurai_Ningyo_Walk"],
            "WalkLeft": ["Audio_Samurai_Ningyo_Walk"],
            "WalkForwardToStand": ["Audio_Samurai_Ningyo_Walk"]
          },
          "canDoSkill": true,
          "canSyncMove": true,
          "resetAnimatorTriggerOnExit": ["DoSkill"],
          "canSteer": true
        },
        "Turn": {
          "$type": "NEDIFAKEGCO",
          "animatorStates": {
            "TurnLeft": ["Audio_Samurai_Ningyo_Walk"],
            "TurnRight": ["Audio_Samurai_Ningyo_Walk"]
          },
          "canDoSkill": true,
          "canSyncMove": true,
          "resetAnimatorTriggerOnExit": ["DoSkill"],
          "canSteer": true
        },
        "BeHit": {
          "$type": "NEDIFAKEGCO",
          "animatorStates": {
            "Hit_L": [],
            "Hit_H": ["Audio_Samurai_Ningyo_Hit_H"]
          },
          "resetAnimatorTriggerOnEnter": ["BeHit"],
          "resetAnimatorTriggerOnExit": ["DoSkill"]
        },
        "Run": {
          "$type": "NEDIFAKEGCO",
          "animatorStates": {
            "Run": ["Audio_Samurai_Ningyo_Run"]
          },
          "canDoSkill": true,
          "canSyncMove": true,
          "resetAnimatorTriggerOnExit": ["DoSkill"],
          "canSteer": true
        },
        "Die": {
          "$type": "NEDIFAKEGCO",
          "animatorStates": {
            "Die": ["Monster_Samurai_Ningyo_Die", "Audio_Samurai_Ningyo_Die"]
          }
        },
        "Die_RagDoll": {
          "$type": "NEDIFAKEGCO",
          "animatorStates": {
            "AirDie": []
          },
          "enableRagDoll": true
        },
        "Alert": {
          "$type": "NEDIFAKEGCO",
          "animatorStates": {
            "Alert": ["Audio_Samurai_Ningyo_Alert"]
          },
          "resetAnimatorTriggerOnExit": ["BeHit", "DoSkill"]
        },
        "MeleeAtk1_1": {
          "$type": "NEDIFAKEGCO",
          "animatorStates": {
            "MeleeAttack1_1": [
              "Monster_Samurai_Ningyo_MeleeAttack1_1",
              "Audio_Samurai_Ningyo_MeleeAtk1_1"
            ],
            "MeleeAttack1_1Wind": [
              "Monster_Samurai_Ningyo_MeleeAttack1_1Wind",
              "Audio_Samurai_Ningyo_MeleeAtk1_1Wind"
            ]
          },
          "resetAnimatorTriggerOnExit": ["BeHit", "DoSkill"],
          "canSteer": true
        },
        "MeleeAttack1_1Wind_Middle": {
          "$type": "NEDIFAKEGCO",
          "animatorStates": {
            "MeleeAttack1_1Wind_Middle": []
          },
          "resetAnimatorTriggerOnExit": ["BeHit", "DoSkill"],
          "canSteer": true
        },
        "MeleeAtk1_2": {
          "$type": "NEDIFAKEGCO",
          "animatorStates": {
            "MeleeAttack1_2": [
              "Monster_Samurai_Ningyo_MeleeAttack1_2",
              "Audio_Samurai_Ningyo_MeleeAtk1_2"
            ],
            "MeleeAttack1_2Wind": [
              "Monster_Samurai_Ningyo_MeleeAttack1_2Wind",
              "Audio_Samurai_Ningyo_MeleeAtk1_2Wind"
            ]
          },
          "resetAnimatorTriggerOnExit": ["BeHit", "DoSkill"],
          "canSteer": true
        },
        "MeleeAttack1_2Wind_Middle": {
          "$type": "NEDIFAKEGCO",
          "animatorStates": {
            "MeleeAttack1_2Wind_Middle": []
          },
          "resetAnimatorTriggerOnExit": ["BeHit", "DoSkill"],
          "canSteer": true
        },
        "MeleeAtk1_3": {
          "$type": "NEDIFAKEGCO",
          "animatorStates": {
            "MeleeAttack1_3": [
              "Monster_Samurai_Ningyo_MeleeAttack1_3",
              "Audio_Samurai_Ningyo_MeleeAtk1_3"
            ],
            "MeleeAttack1_3Wind": [
              "Monster_Samurai_Ningyo_MeleeAttack1_3Wind",
              "Audio_Samurai_Ningyo_MeleeAtk1_3Wind"
            ]
          },
          "resetAnimatorTriggerOnExit": ["BeHit", "DoSkill"],
          "canSteer": true
        },
        "MeleeAtk2_1": {
          "$type": "NEDIFAKEGCO",
          "animatorStates": {
            "MeleeAttack2_1": [
              "Monster_Samurai_Ningyo_MeleeAttack2_1",
              "Audio_Samurai_Ningyo_MeleeAtk2_1"
            ],
            "MeleeAttack2_1Ice": [
              "Monster_Samurai_Ningyo_MeleeAttack2_1Wind",
              "Audio_Samurai_Ningyo_MeleeAtk2_1Ice"
            ],
            "RushCombo_MeleeAttack2_1Ice": [
              "Monster_Samurai_Ningyo_MeleeAttack2_1Wind",
              "Audio_Samurai_Ningyo_MeleeAtk2_1Ice"
            ]
          },
          "resetAnimatorTriggerOnExit": ["BeHit", "DoSkill"],
          "canSteer": true
        },
        "MeleeAttack2_1Ice_Middle": {
          "$type": "NEDIFAKEGCO",
          "animatorStates": {
            "MeleeAttack2_1Ice_Middle": [],
            "RushCombo_MeleeAttack2_1Ice_Middle": []
          },
          "resetAnimatorTriggerOnExit": ["BeHit", "DoSkill"],
          "canSteer": true
        },
        "MeleeAtk2_2": {
          "$type": "NEDIFAKEGCO",
          "animatorStates": {
            "MeleeAttack2_2": [
              "Monster_Samurai_Ningyo_MeleeAttack2_2",
              "Audio_Samurai_Ningyo_MeleeAtk2_2"
            ],
            "MeleeAttack2_2Ice": [
              "Monster_Samurai_Ningyo_MeleeAttack2_2Wind",
              "Audio_Samurai_Ningyo_MeleeAtk2_2Ice"
            ],
            "RushCombo_MeleeAttack2_2Ice": [
              "Monster_Samurai_Ningyo_MeleeAttack2_2Wind",
              "Audio_Samurai_Ningyo_MeleeAtk2_2Ice"
            ]
          },
          "resetAnimatorTriggerOnExit": ["BeHit", "DoSkill"],
          "canSteer": true
        },
        "MeleeAttack2_2Ice_Middle": {
          "$type": "NEDIFAKEGCO",
          "animatorStates": {
            "MeleeAttack2_2Ice_Middle": [],
            "RushCombo_MeleeAttack2_2Ice_Middle": []
          },
          "resetAnimatorTriggerOnExit": ["BeHit", "DoSkill"],
          "canSteer": true
        },
        "MeleeAtk2_3": {
          "$type": "NEDIFAKEGCO",
          "animatorStates": {
            "MeleeAttack2_3": [
              "Monster_Samurai_Ningyo_MeleeAttack2_3",
              "Audio_Samurai_Ningyo_MeleeAtk2_3"
            ],
            "MeleeAttack2_3Ice": [
              "Monster_Samurai_Ningyo_MeleeAttack2_3Wind",
              "Audio_Samurai_Ningyo_MeleeAtk2_3Ice"
            ],
            "RushCombo_MeleeAttack2_3Ice": [
              "Monster_Samurai_Ningyo_MeleeAttack2_3Wind",
              "Audio_Samurai_Ningyo_MeleeAtk2_3Ice"
            ]
          },
          "resetAnimatorTriggerOnExit": ["BeHit", "DoSkill"],
          "canSteer": true
        },
        "RushAtk": {
          "$type": "NEDIFAKEGCO",
          "animatorStates": {
            "RushAtk": [
              "Monster_Samurai_Ningyo_RushAtk",
              "Audio_Samurai_Ningyo_RushAtk"
            ],
            "RushAtk_Wind": [
              "Monster_Samurai_Ningyo_RushAtk_Wind",
              "Audio_Samurai_Ningyo_RushAtk"
            ],
            "MeleeCombo1_RushAtk_Wind": [
              "Monster_Samurai_Ningyo_RushAtk_Wind",
              "Audio_Samurai_Ningyo_RushAtk"
            ],
            "MeleeCombo2_RushAtk_Wind": [
              "Monster_Samurai_Ningyo_RushAtk_Wind",
              "Audio_Samurai_Ningyo_RushAtk"
            ]
          },
          "resetAnimatorTriggerOnExit": ["BeHit", "DoSkill"],
          "canSteer": true
        },
        "GhostRangedChargeAttack_BS": {
          "$type": "NEDIFAKEGCO",
          "animatorStates": {
            "GhostRangedChargeAttack_BS": []
          },
          "resetAnimatorTriggerOnExit": ["BeHit", "DoSkill"],
          "canSteer": true
        },
        "BlinkToInnerCircle": {
          "$type": "NEDIFAKEGCO",
          "animatorStates": {
            "BlinkToInnerCircle": []
          },
          "resetAnimatorTriggerOnExit": ["BeHit", "DoSkill"],
          "canSteer": true
        },
        "RangedChargeAttack_BS": {
          "$type": "NEDIFAKEGCO",
          "animatorStates": {
            "RangedChargeAttack_BS": [
              "Monster_Samurai_Ningyo_WindBladeAir_BS_BladeMaster",
              "Audio_Samurai_Ningyo_RangedChargeAtk_BS"
            ],
            "RushCombo_RangedChargeAttack_BS": [
              "Monster_Samurai_Ningyo_WindBladeAir_BS_BladeMaster",
              "Audio_Samurai_Ningyo_RangedChargeAtk_BS"
            ],
            "MeleeCombo1_RangedChargeAttack_BS": [
              "Monster_Samurai_Ningyo_WindBladeAir_BS_BladeMaster",
              "Audio_Samurai_Ningyo_RangedChargeAtk_BS"
            ],
            "MeleeCombo2_RangedChargeAttack_BS": [
              "Monster_Samurai_Ningyo_WindBladeAir_BS_BladeMaster",
              "Audio_Samurai_Ningyo_RangedChargeAtk_BS"
            ]
          },
          "resetAnimatorTriggerOnExit": ["BeHit", "DoSkill"],
          "canSteer": true
        },
        "RangedChargeAttack_Loop": {
          "$type": "NEDIFAKEGCO",
          "animatorStates": {
            "RangedChargeAttack_One": [
              "Monster_Samurai_Ningyo_TriggerWindBladeAir1_BladeMaster",
              "Audio_Samurai_Ningyo_RangedChargeAtk"
            ],
            "RangedChargeAttack_Two": [
              "Monster_Samurai_Ningyo_TriggerWindBladeAir2_BladeMaster",
              "Audio_Samurai_Ningyo_RangedChargeAtk"
            ],
            "RangedChargeAttack_Three": [
              "Monster_Samurai_Ningyo_TriggerWindBladeAir1_BladeMaster",
              "Audio_Samurai_Ningyo_RangedChargeAtk"
            ],
            "RangedChargeAttack_Four": [
              "Monster_Samurai_Ningyo_TriggerWindBladeAir2_BladeMaster",
              "Audio_Samurai_Ningyo_RangedChargeAtk"
            ],
            "RangedChargeAttack_Five": [
              "Monster_Samurai_Ningyo_TriggerWindBladeAir1_BladeMaster",
              "Audio_Samurai_Ningyo_RangedChargeAtk"
            ],
            "RushCombo_RangedChargeAttack_One": [
              "Monster_Samurai_Ningyo_TriggerWindBladeAir2_BladeMaster",
              "Audio_Samurai_Ningyo_RangedChargeAtk"
            ],
            "MeleeCombo1_RangedChargeAttack_One": [
              "Monster_Samurai_Ningyo_TriggerWindBladeAir2_BladeMaster",
              "Audio_Samurai_Ningyo_RangedChargeAtk"
            ],
            "MeleeCombo2_RangedChargeAttack_One": [
              "Monster_Samurai_Ningyo_TriggerWindBladeAir2_BladeMaster",
              "Audio_Samurai_Ningyo_RangedChargeAtk"
            ]
          },
          "resetAnimatorTriggerOnExit": ["BeHit", "DoSkill"],
          "canSteer": true
        },
        "RangedChargeAttack_AS": {
          "$type": "NEDIFAKEGCO",
          "animatorStates": {
            "RangedChargeAttack_AS": [
              "Audio_Samurai_Ningyo_RangedChargeAtk_AS"
            ],
            "RushCombo_RangedChargeAttack_AS": [
              "Audio_Samurai_Ningyo_RangedChargeAtk_AS"
            ],
            "MeleeCombo1_RangedChargeAttack_AS": [
              "Audio_Samurai_Ningyo_RangedChargeAtk_AS"
            ],
            "MeleeCombo2_RangedChargeAttack_AS": [
              "Audio_Samurai_Ningyo_RangedChargeAtk_AS"
            ]
          },
          "resetAnimatorTriggerOnExit": ["BeHit", "DoSkill"],
          "canSteer": true
        },
        "ChargeAttack": {
          "$type": "NEDIFAKEGCO",
          "animatorStates": {
            "ChargeAttack": [
              "Monster_Samurai_Ningyo_ChargeAttack",
              "Audio_Samurai_Ningyo_ChargeAtk"
            ],
            "ChargeAttack_Power": [
              "Monster_Samurai_Ningyo_ChargeAttack_Power_BladeMaster2",
              "Monster_Samurai_Ningyo_BladeMaster2_HintPoint",
              "Audio_Samurai_Ningyo_ChargeAtk"
            ],
            "DodgeAttack": [
              "Monster_Samurai_Ningyo_IceChargeAttackOnce",
              "Audio_Samurai_Ningyo_ChargeAtk"
            ]
          },
          "resetAnimatorTriggerOnExit": ["BeHit", "DoSkill"],
          "canSteer": true
        },
        "BurstAttack": {
          "$type": "NEDIFAKEGCO",
          "animatorStates": {
            "BurstAttack": [
              "Monster_Samurai_Ningyo_BurstAttack",
              "Audio_Samurai_Ningyo_BurstAtk"
            ]
          },
          "resetAnimatorTriggerOnExit": ["BeHit", "DoSkill"],
          "canSteer": true
        },
        "MaskPushAttack": {
          "$type": "NEDIFAKEGCO",
          "animatorStates": {
            "MaskPushAttack": [
              "Monster_Samurai_Ningyo_MaskPushAttack",
              "Audio_Samurai_Ningyo_MaskPushAtk"
            ],
            "RushCombo_MaskPushAttack": [
              "Monster_Samurai_Ningyo_MaskPushAttack",
              "Audio_Samurai_Ningyo_MaskPushAtk"
            ]
          },
          "resetAnimatorTriggerOnExit": ["BeHit", "DoSkill"],
          "canSteer": true
        },
        "MaskCloseAttack": {
          "$type": "NEDIFAKEGCO",
          "animatorStates": {
            "MaskCloseAttack": [
              "Monster_Samurai_Ningyo_MaskCloseAttack",
              "Audio_Samurai_Ningyo_MaskCloseAtk"
            ]
          },
          "resetAnimatorTriggerOnExit": ["BeHit", "DoSkill"],
          "canSteer": true
        },
        "Dodge": {
          "$type": "NEDIFAKEGCO",
          "animatorStates": {
            "ForceDodge": ["Audio_Samurai_Ningyo_ForceDodge"]
          },
          "resetAnimatorTriggerOnExit": ["BeHit", "DoSkill"],
          "canSteer": true
        },
        "Dodge_AS": {
          "$type": "NEDIFAKEGCO",
          "animatorStates": {
            "ForceDodgeAS": []
          },
          "resetAnimatorTriggerOnExit": ["BeHit", "DoSkill"],
          "canSteer": true
        },
        "Provoke": {
          "$type": "NEDIFAKEGCO",
          "animatorStates": {
            "Provoke": ["Audio_Samurai_Ningyo_Provoke"]
          },
          "addEndure": 0.10000000149011612,
          "resetAnimatorTriggerOnExit": ["BeHit", "DoSkill"],
          "canSteer": true
        },
        "DefendHit": {
          "$type": "NEDIFAKEGCO",
          "animatorStates": {
            "Defend_Hit": ["Audio_Samurai_Ningyo_Defend_Hit"]
          },
          "resetAnimatorTriggerOnExit": ["BeHit", "DoSkill"],
          "canSteer": true
        },
        "RushCharge": {
          "$type": "NEDIFAKEGCO",
          "animatorStates": {
            "RushCharge": ["Monster_Samurai_Ningyo_RushCharge"]
          },
          "cullingModelAlwaysAnimate": true,
          "resetAnimatorTriggerOnExit": ["BeHit", "DoSkill"],
          "canSteer": true
        },
        "RushCharge_BS": {
          "$type": "NEDIFAKEGCO",
          "animatorStates": {
            "RushCharge_BS": []
          },
          "cullingModelAlwaysAnimate": true,
          "resetAnimatorTriggerOnExit": ["BeHit", "DoSkill"],
          "canSteer": true
        },
        "RushCharge_AS": {
          "$type": "NEDIFAKEGCO",
          "animatorStates": {
            "RushCharge_AS": []
          },
          "cullingModelAlwaysAnimate": true,
          "resetAnimatorTriggerOnExit": ["BeHit", "DoSkill"],
          "canSteer": true
        },
        "Weak_BS": {
          "$type": "NEDIFAKEGCO",
          "animatorStates": {
            "Weak_BS": []
          },
          "resetAnimatorTriggerOnExit": ["BeHit", "DoSkill"]
        },
        "Weak_Loop": {
          "$type": "NEDIFAKEGCO",
          "animatorStates": {
            "Weak_Loop": []
          },
          "resetAnimatorTriggerOnExit": ["BeHit", "DoSkill"]
        },
        "Weak_AS": {
          "$type": "NEDIFAKEGCO",
          "animatorStates": {
            "Weak_AS": []
          },
          "resetAnimatorTriggerOnExit": ["BeHit", "DoSkill"]
        }
      }
    }
  },
  "billboard": {
    "$type": "DNGNMAJBCNP",
    "attachPoint": "BillboardAttach",
    "offsetType": "Character",
    "showHPBar": true,
    "forceShowDistance": 50.0,
    "size": "Big"
  },
  "initialPoses": {
    "Default": {
      "initialPoseID": 1
    }
  },
  "aibeta": {
    "enable": true,
    "sensing": {
      "settings": {
        "DefaultSetting": {
          "viewRange": 50.0,
          "feelRange": 50.0
        },
        "NeverCombat": {
          "enableVision": false,
          "hearAttractionRange": 0.0,
          "feelRange": 0.0
        },
        "LowAlert": {
          "viewRange": 5.0
        }
      },
      "templates": {
        "DefaultTemplate": {
          "DefaultPoses": "DefaultSetting",
          "1001": "NeverCombat"
        },
        "NeverCombatTemplate": {
          "DefaultPoses": "NeverCombat",
          "1001": "NeverCombat"
        },
        "LowAlertTemplate": {
          "DefaultPoses": "LowAlert",
          "1001": "LowAlert"
        }
      }
    },
    "neurons": {
      "DefaultSetting": ["HIT"],
      "NeverCombat": []
    },
    "threat": {
      "GHIJMOKOLMB": "",
      "clearThreatTargetDistance": 70.0,
      "clearThreatByLostPath": true,
      "clearThreatByTargetOutOfZone": true,
      "clearThreatTimerByTargetOutOfZone": 7.0,
      "viewAttenuation": [
        {
          "x": 10.0,
          "y": 2.0
        },
        {
          "x": 15.0,
          "y": 0.800000011920929
        },
        {
          "x": 20.0,
          "y": 0.5
        },
        {
          "x": 25.0,
          "y": 0.30000001192092896
        },
        {
          "x": 30.0,
          "y": 0.20000000298023224
        }
      ],
      "resistTauntLevel": "Monster_TauntLevel_5"
    },
    "defendArea": {
      "defendRange": 100.0
    },
    "network": {
      "syncSkill": true
    },
    "skillGroupCDConfigs": [
      {
        "skillGroupCDID": 0,
        "skillGroupCDTime": 5.0
      },
      {
        "skillGroupCDID": 1,
        "skillGroupCDTime": 10.0
      },
      {
        "skillGroupCDID": 2,
        "skillGroupCDTime": 10.0
      }
    ],
    "skillSetting": {
      "skillEliteSet": {
        "1": [102, 1003],
        "2": [102, 1003],
        "3": [102, 202, 601, 5001]
      }
    },
    "skills": {
      "1": {
        "name": "OnAlert",
        "skillType": "OnAlert",
        "publicCDGroup": "",
        "ignoreGCD": true,
        "triggerGCD": false,
        "HHAGODJIAPE": "",
        "stateIDs": ["Alert"],
        "skillQueryingTime": 3.0,
        "flagTargetReachable": "10",
        "flagSelfOnTemplateCollider": "01",
        "flagSelfInZone": "10",
        "flagTargetInZone": "11"
      },
      "2": {
        "name": "RushChargeTarget",
        "priority": 4,
        "castCondition": {
          "pose": [101, 201, 501],
          "maxTargetAngleXZ": 90.0,
          "pickRangeMin": 7.0,
          "pickRangeMax": 50.0
        },
        "publicCDGroup": "",
        "ignoreGCD": true,
        "triggerGCD": false,
        "HHAGODJIAPE": "",
        "stateIDs": ["RushCharge", "RushCharge_BS", "RushCharge_AS"],
        "skillQueryingTime": 2.0,
        "flagTargetReachable": "11",
        "flagSelfOnTemplateCollider": "01",
        "flagSelfInZone": "10",
        "flagTargetInZone": "11"
      },
      "101": {
        "name": "MeleeAtk1",
        "priority": 4,
        "castCondition": {
          "pose": [101, 501],
          "pickRangeMax": 5.0
        },
        "cdUpperRange": 2.5,
        "initialCD": 1.0,
        "publicCDGroup": "",
        "skillGroupCDID": 0,
        "HHAGODJIAPE": "",
        "stateIDs": ["MeleeAtk1_1", "MeleeAtk1_2", "MeleeAtk1_3"],
        "skillQueryingTime": 2.0,
        "flagTargetReachable": "10",
        "flagSelfOnTemplateCollider": "01",
        "flagSelfInZone": "10",
        "flagTargetInZone": "11"
      },
      "102": {
        "name": "PowerMeleeAtk1",
        "priority": 4,
        "castCondition": {
          "pose": [201],
          "maxTargetAngleXZ": 90.0,
          "pickRangeMax": 5.0
        },
        "cdUpperRange": 2.5,
        "initialCD": 1.0,
        "publicCDGroup": "",
        "skillGroupCDID": 0,
        "HHAGODJIAPE": "",
        "stateIDs": [
          "MeleeAtk1_1",
          "MeleeAtk1_2",
          "MeleeAtk1_3",
          "MeleeAttack1_1Wind_Middle",
          "MeleeAttack1_2Wind_Middle",
          "RushAttack",
          "RangedChargeAttack_BS",
          "RangedChargeAttack_Loop",
          "RangedChargeAttack_AS"
        ],
        "skillQueryingTime": 2.0,
        "flagTargetReachable": "10",
        "flagSelfOnTemplateCollider": "01",
        "flagSelfInZone": "10",
        "flagTargetInZone": "11"
      },
      "202": {
        "name": "MeleeAtk2",
        "priority": 4,
        "castCondition": {
          "pose": [201],
          "maxTargetAngleXZ": 90.0,
          "pickRangeMax": 5.0
        },
        "cdUpperRange": 2.5,
        "initialCD": 1.0,
        "publicCDGroup": "",
        "skillGroupCDID": 0,
        "HHAGODJIAPE": "",
        "stateIDs": [
          "MeleeAtk2_1",
          "MeleeAtk2_2",
          "MeleeAtk2_3",
          "MeleeAttack2_1Ice_Middle",
          "MeleeAttack2_2Ice_Middle",
          "RushAttack",
          "RangedChargeAttack_BS",
          "RangedChargeAttack_Loop",
          "RangedChargeAttack_AS"
        ],
        "skillQueryingTime": 2.0,
        "flagTargetReachable": "10",
        "flagSelfOnTemplateCollider": "01",
        "flagSelfInZone": "10",
        "flagTargetInZone": "11"
      },
      "302": {
        "name": "WindRushAtk",
        "priority": 3,
        "castCondition": {
          "pose": [201],
          "maxTargetAngleXZ": 90.0,
          "pickRangeMin": 5.0,
          "pickRangeMax": 20.0
        },
        "cd": 20.0,
        "cdUpperRange": 5.0,
        "initialCD": 1.0,
        "publicCDGroup": "",
        "HHAGODJIAPE": "",
        "stateIDs": [
          "RushAtk",
          "MeleeAtk2_1",
          "MeleeAtk2_2",
          "MeleeAtk2_3",
          "MeleeAttack2_1Ice_Middle",
          "MeleeAttack2_2Ice_Middle",
          "MaskPushAttack",
          "RangedChargeAttack_BS",
          "RangedChargeAttack_Loop",
          "RangedChargeAttack_AS"
        ],
        "skillQueryingTime": 2.0,
        "flagTargetReachable": "11",
        "flagSelfOnTemplateCollider": "01",
        "flagSelfInZone": "11",
        "flagTargetInZone": "11"
      },
      "401": {
        "name": "ChargeAttack",
        "priority": 2,
        "castCondition": {
          "pose": [999],
          "maxTargetAngleXZ": 180.0,
          "pickRangeMax": 5.0
        },
        "cd": 15.0,
        "cdUpperRange": 5.0,
        "initialCD": 1.0,
        "publicCDGroup": "",
        "HHAGODJIAPE": "",
        "stateIDs": ["ChargeAttack", "ChargeAttack_Power"],
        "skillQueryingTime": 2.0,
        "flagTargetReachable": "11",
        "flagSelfOnTemplateCollider": "01",
        "flagSelfInZone": "11",
        "flagTargetInZone": "11"
      },
      "402": {
        "name": "ChargeAttack",
        "priority": 2,
        "castCondition": {
          "pose": [999],
          "maxTargetAngleXZ": 180.0,
          "pickRangeMax": 5.0
        },
        "cd": 15.0,
        "cdUpperRange": 5.0,
        "initialCD": 1.0,
        "publicCDGroup": "",
        "HHAGODJIAPE": "",
        "stateIDs": ["ChargeAttack", "ChargeAttack_Power"],
        "skillQueryingTime": 2.0,
        "flagTargetReachable": "11",
        "flagSelfOnTemplateCollider": "01",
        "flagSelfInZone": "11",
        "flagTargetInZone": "11"
      },
      "502": {
        "name": "GhostRangedChargeAttack_BS",
        "priority": 2,
        "castCondition": {
          "pose": [201, 501],
          "maxTargetAngleXZ": 90.0,
          "pickRangeMax": 50.0
        },
        "cdUpperRange": 5.0,
        "initialCD": 1.0,
        "publicCDGroup": "",
        "skillGroupCDID": 2,
        "HHAGODJIAPE": "",
        "stateIDs": [
          "GhostRangedChargeAttack_BS",
          "RangedChargeAttack_BS",
          "RangedChargeAttack_Loop",
          "RangedChargeAttack_AS"
        ],
        "skillQueryingTime": 2.0,
        "flagTargetReachable": "11",
        "flagSelfOnTemplateCollider": "01",
        "flagSelfInZone": "11",
        "flagTargetInZone": "11"
      },
      "5001": {
        "name": "RangedChargeAttack",
        "priority": 1,
        "castCondition": {
          "pose": [201, 501],
          "pickRangeMax": 5.0,
          "skillAnchorRangeMin": 10.0
        },
        "cd": 10.0,
        "cdUpperRange": 5.0,
        "initialCD": 1.0,
        "publicCDGroup": "",
        "HHAGODJIAPE": "",
        "stateIDs": [
          "BlinkToInnerCircle",
          "RangedChargeAttack_BS",
          "RangedChargeAttack_Loop",
          "RangedChargeAttack_AS"
        ],
        "skillQueryingTime": 2.0,
        "flagTargetReachable": "11",
        "flagSelfOnTemplateCollider": "01",
        "flagSelfInZone": "11",
        "flagTargetInZone": "11"
      },
      "601": {
        "name": "BurstAttack",
        "priority": 1,
        "castCondition": {
          "pose": [102, 201],
          "pickRangeMax": 15.0
        },
        "cd": 30.0,
        "cdUpperRange": 10.0,
        "initialCD": 20.0,
        "publicCDGroup": "",
        "ignoreGCD": true,
        "triggerGCD": false,
        "HHAGODJIAPE": "",
        "stateIDs": ["BurstAttack"],
        "skillQueryingTime": 2.0,
        "flagTargetReachable": "10",
        "flagSelfOnTemplateCollider": "01",
        "flagSelfInZone": "10",
        "flagTargetInZone": "11"
      },
      "701": {
        "name": "MaskPushAttack",
        "priority": 2,
        "castCondition": {
          "pose": [101, 201],
          "maxTargetAngleXZ": 90.0,
          "pickRangeMin": 5.0,
          "pickRangeMax": 10.0
        },
        "cd": 10.0,
        "cdUpperRange": 5.0,
        "initialCD": 1.0,
        "publicCDGroup": "",
        "HHAGODJIAPE": "",
        "stateIDs": ["MaskPushAttack"],
        "skillQueryingTime": 2.0,
        "flagTargetReachable": "10",
        "flagSelfOnTemplateCollider": "01",
        "flagSelfInZone": "10",
        "flagTargetInZone": "11"
      },
      "801": {
        "name": "MaskCloseAttack",
        "priority": 3,
        "castCondition": {
          "pose": [101, 201],
          "pickRangeMin": 15.0,
          "pickRangeMax": 50.0
        },
        "cd": 25.0,
        "cdUpperRange": 5.0,
        "initialCD": 1.0,
        "publicCDGroup": "",
        "ignoreGCD": true,
        "HHAGODJIAPE": "",
        "stateIDs": ["MaskCloseAttack"],
        "skillQueryingTime": 2.0,
        "flagTargetReachable": "11",
        "flagSelfOnTemplateCollider": "01",
        "flagSelfInZone": "11",
        "flagTargetInZone": "11"
      },
      "802": {
        "name": "MaskCloseAttack",
        "priority": 1,
        "castCondition": {
          "pose": [101, 201],
          "pickRangeMin": 15.0,
          "pickRangeMax": 50.0
        },
        "publicCDGroup": "",
        "ignoreGCD": true,
        "HHAGODJIAPE": "",
        "stateIDs": ["MaskCloseAttack"],
        "skillQueryingTime": 2.0,
        "flagTargetReachable": "01",
        "flagSelfOnTemplateCollider": "01",
        "flagSelfInZone": "11",
        "flagTargetInZone": "11"
      },
      "1003": {
        "name": "Provoke",
        "priority": 3,
        "castCondition": {
          "pose": [101, 201],
          "pickRangeMin": 7.0,
          "pickRangeMax": 20.0
        },
        "cd": 10.0,
        "cdUpperRange": 5.0,
        "initialCD": 1.0,
        "publicCDGroup": "",
        "ignoreGCD": true,
        "triggerGCD": false,
        "HHAGODJIAPE": "",
        "stateIDs": ["Provoke"],
        "skillQueryingTime": 2.0,
        "flagTargetReachable": "10",
        "flagSelfOnTemplateCollider": "01",
        "flagSelfInZone": "10",
        "flagTargetInZone": "11"
      },
      "1004": {
        "name": "ForceDodge",
        "priority": 2,
        "castCondition": {
          "pose": [9999],
          "pickRangeMin": 5.0,
          "pickRangeMax": 10.0
        },
        "cd": 5.0,
        "cdUpperRange": 2.5,
        "initialCD": 1.0,
        "publicCDGroup": "",
        "ignoreGCD": true,
        "triggerGCD": false,
        "HHAGODJIAPE": "",
        "stateIDs": ["Dodge", "DodgeAttack"],
        "skillQueryingTime": 2.0,
        "flagTargetReachable": "10",
        "flagSelfOnTemplateCollider": "01",
        "flagSelfInZone": "10",
        "flagTargetInZone": "11"
      }
    },
    "skillGCD": 1.5,
    "birdCirclingTactic": [
      {
        "$type": "EPHBMLFODKF",
        "enable": true,
        "condition": {
          "pose": [101, 201, 301]
        },
        "JMCOBEPDIGM": {
          "rangeMin": 0.0,
          "rangeMax": 5.0,
          "ALIBHHJHHMN": 2.0,
          "OMHBOLPFEPM": 1.0,
          "BFJBDDIIFOI": {
            "IDEFILBHNAP": 0.0,
            "IBLIPJPNOGC": 0.0,
            "AEBLMKFNCDG": 3.0,
            "IGLIBIOEGBB": 3.0
          },
          "NAOBMNGDKHL": "1111",
          "JCNIJOAIGII": "1111",
          "MNPDDAKDHGK": ""
        }
      },
      {
        "$type": "KACCHOLJDNK",
        "enable": true,
        "condition": {
          "pose": [101, 201, 301]
        },
        "JMCOBEPDIGM": {
          "ANLAAGAMIKF": 1,
          "HKJODDGJPHA": 99.0,
          "GGEBMFHFBPO": 15.0,
          "KFFGCIMPNMJ": 0.0,
          "MNPDDAKDHGK": ""
        }
      },
      {
        "$type": "NNJKLGNPMNN",
        "enable": true,
        "JMCOBEPDIGM": {
          "MNPDDAKDHGK": "",
          "GJDMDHIBCME": ""
        }
      }
    ]
  },
  "inputKeys": [
    {
      "keyID": 101,
      "inputKeyCode": 257,
      "abilityName": ""
    },
    {
      "keyID": 201,
      "inputKeyCode": 258,
      "abilityName": ""
    },
    {
      "keyID": 301,
      "inputKeyCode": 259,
      "abilityName": ""
    },
    {
      "keyID": 401,
      "inputKeyCode": 260,
      "abilityName": ""
    },
    {
      "keyID": 501,
      "inputKeyCode": 261,
      "abilityName": ""
    },
    {
      "keyID": 601,
      "inputKeyCode": 262,
      "abilityName": ""
    },
    {
      "keyID": 701,
      "inputKeyCode": 263,
      "abilityName": ""
    },
    {
      "keyID": 801,
      "inputKeyCode": 264,
      "abilityName": ""
    },
    {
      "keyID": 1003,
      "inputKeyCode": 265,
      "abilityName": ""
    },
    {
      "keyID": 102,
      "inputKeyCode": 266,
      "abilityName": ""
    },
    {
      "keyID": 202,
      "inputKeyCode": 267,
      "abilityName": ""
    },
    {
      "keyID": 302,
      "inputKeyCode": 268,
      "abilityName": ""
    },
    {
      "keyID": 402,
      "inputKeyCode": 269,
      "abilityName": ""
    },
    {
      "keyID": 502,
      "inputKeyCode": 270,
      "abilityName": ""
    },
    {
      "keyID": 702,
      "inputKeyCode": 271,
      "abilityName": ""
    },
    {
      "keyID": 1004,
      "inputKeyCode": 272,
      "abilityName": ""
    },
    {
      "keyID": 5001,
      "inputKeyCode": 273,
      "abilityName": ""
    },
    {
      "keyID": 2,
      "inputKeyCode": 274,
      "abilityName": ""
    }
  ],
  "move": {
    "$type": "IPNMJMHDMPF",
    "velocityForce": {
      "includeForces": ["FixedRushMoveType", "RushMoveType"]
    },
    "handleCombatTaskImmediately": true,
    "facingMove": "FourDirection",
    "monsterSizeType": "StoopType",
    "destroyRockWhenInit": true,
    "PKHOMJHFAEE": "RootNode"
  },
  "audio": {
    "overrideEmitterName": "",
    "animAudio": {
      "onTransitionIn": [
        {
          "currentStateName": "Weak_Loop",
          "audioEvent": {
            "text": "Play_sfx_monster_gloves_wind_weak_Loop"
          }
        },
        {
          "currentStateName": "Block_Loop",
          "audioEvent": {
            "text": "Play_sfx_monster_gloves_wind_block_Loop"
          }
        }
      ],
      "onTransitionOut": [
        {
          "currentStateName": "Weak_Loop",
          "audioEvent": {
            "text": "Stop_sfx_monster_gloves_wind_weak_Loop"
          }
        },
        {
          "currentStateName": "Block_Loop",
          "audioEvent": {
            "text": "Stop_sfx_monster_gloves_wind_block_Loop"
          }
        }
      ]
    },
    "disableEvent": {
      "text": ""
    },
    "destroyEvent": {
      "text": ""
    }
  }
}
