{
  "common": {
    "effectAttachShape": {
      "$type": "FJNPJANPGGC",
      "mesh": "EffectMesh"
    },
    "mass": 150.0,
    "height": 2.0,
    "modelHeight": 2.5,
    "affectedByWorld": true,
    "checkInSurface": true,
    "scale": 1.2999999523162842,
    "shouldPauseAnimatorBeforeReady": true,
    "useGrassDisplacement": true,
    "reconnectSupport": true,
    "recoverByInitPose": true
  },
  "model": {
    "bornEffect": "Eff_Monster_Common_Born",
    "attachEffect": "",
    "canBakeMesh": false,
    "BKPFGNPLDNJ": ""
  },
  "dither": {
    "showDitherDuration": 2.0,
    "hideEffectWhenDither": true
  },
  "combat": {
    "property": {
      "endureType": "Monster_Demiboss_Humanoid",
      "weight": 150.0
    },
    "beHit": {
      "hitBloodEffect": ""
    },
    "combatLock": {
      "lockShape": "CircleLockEnemy",
      "lockType": "Avatar&Monster_Lv4"
    },
    "die": {
      "hasAnimatorDie": true,
      "dieEndTime": 2.0,
      "dieForceDisappearTime": 4.0,
      "dieDisappearEffect": "Eff_Death_Common",
      "dieShaderData": "MonsterDie",
      "useRagDoll": true,
      "muteHitBox": true,
      "dieDenyLockOn": true,
      "dieIsGhostToEnemy": true,
      "dieIgnoreTriggerBullet": true,
      "muteBillboard": true,
      "mutePushCollider": true
    }
  },
  "abilities": [
    {
      "abilityID": "",
      "abilityName": "Monster_MachinaIustitia_Sentry_Pose",
      "abilityOverride": ""
    },
    {
      "abilityID": "",
      "abilityName": "Monster_MachinaIustitia_Sentry_RepairPose",
      "abilityOverride": ""
    },
    {
      "abilityID": "",
      "abilityName": "Monster_MachinaIustitia_CoilHanler",
      "abilityOverride": ""
    },
    {
      "abilityID": "",
      "abilityName": "Monster_MachinaIustitia_Sentry_CoilEffect",
      "abilityOverride": ""
    },
    {
      "abilityID": "",
      "abilityName": "Monster_MachinaIustitia_Sentry_HitSpecial",
      "abilityOverride": ""
    },
    {
      "abilityID": "",
      "abilityName": "Monster_MachinaIustitia_Sentry_Recover_Pneuma",
      "abilityOverride": ""
    },
    {
      "abilityID": "",
      "abilityName": "Monster_MachinaIustitia_Sentry_RecoverEffect_Pneuma",
      "abilityOverride": ""
    },
    {
      "abilityID": "",
      "abilityName": "Monster_MachinaIustitia_Recover_Effect_Pneuma",
      "abilityOverride": ""
    },
    {
      "abilityID": "",
      "abilityName": "Monster_MachinaIustitia_Sentry_RushAtk",
      "abilityOverride": ""
    },
    {
      "abilityID": "",
      "abilityName": "Monster_MachinaIustitia_Sentry_RushAtk_KillBullet",
      "abilityOverride": ""
    },
    {
      "abilityID": "",
      "abilityName": "Monster_MachinaIustitia_Sentry_EMP_Pneuma",
      "abilityOverride": ""
    },
    {
      "abilityID": "",
      "abilityName": "Monster_MachinaIustitia_Sentry_Steer",
      "abilityOverride": ""
    },
    {
      "abilityID": "",
      "abilityName": "Monster_MachinaIustitia_Sentry_ExitBattle",
      "abilityOverride": ""
    },
    {
      "abilityID": "",
      "abilityName": "Monster_MachinaIustitia_Sentry_Alert",
      "abilityOverride": ""
    }
  ],
  "stateLayers": {
    "defaultLayer": {
      "$type": "GBGJJIIEMBD",
      "layerIndexName": "",
      "CPAANEIJCGD": "",
      "stateIDs": {
        "NormalIdle": {
          "$type": "NEDIFAKEGCO",
          "animatorStates": {
            "Standby": [],
            "Born": []
          },
          "canDoSkill": true,
          "canSyncMove": true,
          "resetAnimatorTriggerOnExit": ["DoSkill"]
        },
        "NormalMove": {
          "$type": "NEDIFAKEGCO",
          "animatorStates": {
            "WalkForward": ["Audio_Monster_MachinaIustitia_Sentry_Walk"],
            "WalkBack": ["Audio_Monster_MachinaIustitia_Sentry_Walk"]
          },
          "canDoSkill": true,
          "canSyncMove": true,
          "resetAnimatorTriggerOnExit": ["DoSkill"],
          "canSteer": true
        },
        "Run": {
          "$type": "NEDIFAKEGCO",
          "animatorStates": {
            "Run": ["Audio_Monster_MachinaIustitia_Sentry_Run"]
          },
          "canDoSkill": true,
          "canSyncMove": true,
          "resetAnimatorTriggerOnExit": ["DoSkill"],
          "canSteer": true
        },
        "Turn": {
          "$type": "NEDIFAKEGCO",
          "animatorStates": {
            "TurnLeft": ["Audio_Monster_MachinaIustitia_Sentry_Turn"],
            "TurnRight": ["Audio_Monster_MachinaIustitia_Sentry_Turn"]
          },
          "canDoSkill": true,
          "canSyncMove": true,
          "resetAnimatorTriggerOnExit": ["DoSkill"],
          "canSteer": true
        },
        "BeHit": {
          "$type": "NEDIFAKEGCO",
          "animatorStates": {
            "Hit_H": ["Audio_Monster_MachinaIustitia_Sentry_Hit_H"]
          },
          "resetAnimatorTriggerOnEnter": ["BeHit"],
          "resetAnimatorTriggerOnExit": ["DoSkill"]
        },
        "HitSpecial": {
          "$type": "NEDIFAKEGCO",
          "animatorStates": {
            "HitSpecial": ["Audio_Monster_MachinaIustitia_Sentry_HitSpecial"]
          },
          "canSyncMove": true,
          "resetAnimatorTriggerOnExit": ["BeHit", "DoSkill"]
        },
        "Recover": {
          "$type": "NEDIFAKEGCO",
          "animatorStates": {
            "Recover": [
              "Monster_MachinaIustitia_Sentry_Recover_Pneuma",
              "Audio_Monster_MachinaIustitia_Sentry_Recover_Ousia"
            ]
          },
          "canSyncMove": true,
          "addEndure": 0.0,
          "resetAnimatorTriggerOnExit": ["BeHit", "DoSkill"]
        },
        "Recover_Self": {
          "$type": "NEDIFAKEGCO",
          "animatorStates": {
            "Recover_Self": [
              "Monster_MachinaIustitia_Sentry_SelfRecover_Pneuma",
              "Audio_Monster_MachinaIustitia_Sentry_Recover_Ousia"
            ]
          },
          "canSyncMove": true,
          "addEndure": 0.0,
          "resetAnimatorTriggerOnExit": ["BeHit", "DoSkill"]
        },
        "Die": {
          "$type": "NEDIFAKEGCO",
          "animatorStates": {
            "Die": ["Audio_Monster_MachinaIustitia_Sentry_Die"]
          },
          "resetAnimatorTriggerOnEnter": ["DoSkill"]
        },
        "Die_RagDoll": {
          "$type": "NEDIFAKEGCO",
          "animatorStates": {
            "Die_RagDoll": []
          },
          "resetAnimatorTriggerOnEnter": ["DoSkill"],
          "enableRagDoll": true
        },
        "Alert": {
          "$type": "NEDIFAKEGCO",
          "animatorStates": {
            "Alert": [
              "Monster_MachinaIustitia_Sentry_Alert",
              "Audio_Monster_MachinaIustitia_Sentry_Alert"
            ]
          },
          "resetAnimatorTriggerOnExit": ["BeHit", "DoSkill"]
        },
        "Life_TakePhoto": {
          "$type": "NEDIFAKEGCO",
          "animatorStates": {
            "TakePhoto": [
              "Monster_MachinaIustitia_Sentry_TakePhoto",
              "Audio_Monster_MachinaIustitia_Sentry_TakePhoto"
            ]
          },
          "canDoSkill": true,
          "resetAnimatorTriggerOnExit": ["BeHit", "DoSkill"]
        },
        "RushAtk": {
          "$type": "NEDIFAKEGCO",
          "animatorStates": {
            "RushAtk": [
              "Monster_MachinaIustitia_Sentry_RushAtk",
              "Audio_Monster_MachinaIustitia_Sentry_RushAtk"
            ]
          },
          "resetAnimatorTriggerOnExit": ["BeHit", "DoSkill"],
          "canSteer": true
        },
        "EMP": {
          "$type": "NEDIFAKEGCO",
          "animatorStates": {
            "EMP": [
              "Monster_MachinaIustitia_Sentry_EMP_Pneuma",
              "Audio_Monster_MachinaIustitia_Sentry_EMP_Pneuma"
            ]
          },
          "resetAnimatorTriggerOnExit": ["BeHit", "DoSkill"],
          "canSteer": true
        }
      }
    }
  },
  "billboard": {
    "$type": "DNGNMAJBCNP",
    "attachPoint": "BillboardAttach",
    "offsetType": "Character",
    "radiusOffset": 0.4000000059604645,
    "showHPBar": true
  },
  "initialPoses": {
    "Default": {
      "initialPoseID": 1,
      "initialPoseParams": {
        "boolParams": {
          "Sit": "false"
        }
      }
    },
    "Sit": {
      "initialPoseID": 9001,
      "initialPoseParams": {
        "boolParams": {
          "Sit": "true"
        }
      }
    }
  },
  "aibeta": {
    "enable": true,
    "buddySetting": {
      "enable": true,
      "buddyFeatureTagIDs": [4025]
    },
    "sensing": {
      "settings": {
        "DefaultSetting": {
          "viewRange": 6.0,
          "feelRange": 6.0
        },
        "Sit": {
          "viewRange": 8.0,
          "feelRange": 3.0
        },
        "NeverCombat": {
          "enableVision": false,
          "hearAttractionRange": 0.0,
          "feelRange": 0.0
        }
      },
      "templates": {
        "DefaultTemplate": {
          "DefaultPoses": "DefaultSetting"
        },
        "SitTemplate": {
          "DefaultPoses": "DefaultSetting",
          "9001": "Sit"
        },
        "NeverCombatTemplate": {
          "DefaultPoses": "NeverCombat"
        },
        "HiliSquareTemplate": {
          "DefaultPoses": "DefaultSetting",
          "9001": "NeverCombat"
        }
      }
    },
    "neurons": {
      "DefaultSetting": ["HIT"],
      "NeverCombat": []
    },
    "threat": {
      "GHIJMOKOLMB": "",
      "clearThreatByLostPath": true,
      "clearThreatTimerByLostPath": 3.0,
      "viewAttenuation": [
        {
          "x": 10.0,
          "y": 2.0
        },
        {
          "x": 15.0,
          "y": 0.800000011920929
        },
        {
          "x": 20.0,
          "y": 0.5
        },
        {
          "x": 25.0,
          "y": 0.30000001192092896
        },
        {
          "x": 30.0,
          "y": 0.20000000298023224
        }
      ],
      "resistTauntLevel": "Monster_TauntLevel_2"
    },
    "defendArea": {
      "defendRange": 50.0
    },
    "skillGroupCDConfigs": [
      {
        "skillGroupCDID": 0,
        "skillGroupCDTime": 3.0
      }
    ],
    "skillSetting": {},
    "skills": {
      "101": {
        "name": "OnAlert",
        "skillType": "OnAlert",
        "faceTarget": true,
        "publicCDGroup": "",
        "ignoreGCD": true,
        "triggerGCD": false,
        "HHAGODJIAPE": "",
        "stateIDs": ["Alert"],
        "skillQueryingTime": 3.0,
        "flagTargetReachable": "10",
        "flagSelfOnTemplateCollider": "01",
        "flagSelfInZone": "10",
        "flagTargetInZone": "11"
      },
      "111": {
        "name": "Life_TakePhoto",
        "skillType": "Free",
        "castCondition": {
          "pose": [1, 11, 21]
        },
        "cd": 15.0,
        "cdUpperRange": 10.0,
        "initialCD": 6.0,
        "initialCDUpperRange": 5.0,
        "publicCDGroup": "",
        "HHAGODJIAPE": "",
        "stateIDs": ["Life_TakePhoto"],
        "flagTargetReachable": "10",
        "flagSelfOnTemplateCollider": "01",
        "flagSelfInZone": "10",
        "flagTargetInZone": "11"
      },
      "191": {
        "name": "Recover",
        "combatSkillType": "MeleeAttack",
        "priority": 1,
        "castCondition": {
          "pose": [102]
        },
        "cd": 1.0,
        "initialCD": 1.0,
        "publicCDGroup": "",
        "ignoreGCD": true,
        "HHAGODJIAPE": "",
        "stateIDs": ["Recover"],
        "skillQueryingTime": 3.0,
        "flagTargetReachable": "11",
        "flagSelfOnTemplateCollider": "01",
        "flagSelfInZone": "11",
        "flagTargetInZone": "11"
      },
      "192": {
        "name": "Recover_Self",
        "combatSkillType": "MeleeAttack",
        "priority": 1,
        "castCondition": {
          "pose": [101],
          "globalValues": ["_MACHINAIUSTITIA_SELFRECOVER_"],
          "globalValuesTargetType": "SELF"
        },
        "cd": 5.0,
        "initialCD": 1.0,
        "publicCDGroup": "",
        "ignoreGCD": true,
        "triggerGCD": false,
        "HHAGODJIAPE": "",
        "stateIDs": ["Recover_Self"],
        "skillQueryingTime": 3.0,
        "flagTargetReachable": "11",
        "flagSelfOnTemplateCollider": "01",
        "flagSelfInZone": "11",
        "flagTargetInZone": "11"
      },
      "201": {
        "name": "RushAtk_Normal",
        "combatSkillType": "MeleeAttack",
        "priority": 2,
        "castCondition": {
          "pose": [101, 102],
          "pickRangeMax": 5.0,
          "pickRangeYMax": 2.0,
          "castRangeMax": 3.5
        },
        "cd": 5.0,
        "cdUpperRange": 2.5,
        "initialCD": 1.0,
        "initialCDUpperRange": 4.0,
        "publicCDGroup": "",
        "HHAGODJIAPE": "",
        "stateIDs": ["RushAtk"],
        "skillQueryingTime": 3.0,
        "flagTargetReachable": "10",
        "flagSelfOnTemplateCollider": "01",
        "flagSelfInZone": "11",
        "flagTargetInZone": "11"
      },
      "221": {
        "name": "RushAtk_Pneuma",
        "combatSkillType": "MeleeAttack",
        "priority": 3,
        "castCondition": {
          "pose": [301],
          "pickRangeMax": 5.0,
          "pickRangeYMax": 2.0,
          "castRangeMax": 5.0
        },
        "cd": 5.0,
        "cdUpperRange": 5.0,
        "initialCD": 5.0,
        "initialCDUpperRange": 4.0,
        "publicCDGroup": "",
        "HHAGODJIAPE": "",
        "stateIDs": ["RushAtk"],
        "skillQueryingTime": 3.0,
        "flagTargetReachable": "10",
        "flagSelfOnTemplateCollider": "01",
        "flagSelfInZone": "11",
        "flagTargetInZone": "11"
      },
      "311": {
        "name": "EMP_Pneuma",
        "combatSkillType": "MeleeAttack",
        "priority": 2,
        "enableSkillPrepare": true,
        "skillPrepareTimeout": 3.0,
        "skillPrepareSpeedLevel": 1,
        "castCondition": {
          "pose": [301],
          "pickRangeMax": 5.0,
          "castRangeMin": 2.0,
          "castRangeMax": 7.0
        },
        "cd": 8.5,
        "cdUpperRange": 5.0,
        "initialCD": 2.0,
        "initialCDUpperRange": 4.0,
        "publicCDGroup": "MachinaIustitia_Sentry_EMP",
        "HHAGODJIAPE": "",
        "stateIDs": ["EMP"],
        "skillQueryingTime": 3.0,
        "flagTargetReachable": "11",
        "flagSelfOnTemplateCollider": "01",
        "flagSelfInZone": "11",
        "flagTargetInZone": "11"
      },
      "312": {
        "name": "EMP_Pneuma",
        "combatSkillType": "MeleeAttack",
        "priority": 2,
        "castCondition": {
          "pose": [301],
          "pickRangeMin": 5.0,
          "pickRangeMax": 15.0,
          "castRangeMin": 5.0,
          "castRangeMax": 15.0
        },
        "cd": 8.5,
        "cdUpperRange": 5.0,
        "initialCD": 2.0,
        "initialCDUpperRange": 4.0,
        "publicCDGroup": "MachinaIustitia_Sentry_EMP",
        "HHAGODJIAPE": "",
        "stateIDs": ["EMP"],
        "skillQueryingTime": 3.0,
        "flagTargetReachable": "11",
        "flagSelfOnTemplateCollider": "01",
        "flagSelfInZone": "11",
        "flagTargetInZone": "11"
      }
    },
    "skillGCD": 3.0,
    "birdCirclingTactic": [
      {
        "$type": "EPHBMLFODKF",
        "enable": true,
        "condition": {
          "pose": [101, 102, 201, 301]
        },
        "JMCOBEPDIGM": {
          "rangeMax": 6.0,
          "JOJBOHEDBHC": 3.0,
          "AFILKAGDAHN": 5.0,
          "ALIBHHJHHMN": 2.0,
          "BFJBDDIIFOI": {
            "AEBLMKFNCDG": 0.0,
            "IGLIBIOEGBB": 0.0
          },
          "NAOBMNGDKHL": "1111",
          "JCNIJOAIGII": "1111",
          "MNPDDAKDHGK": ""
        },
        "PIOCBHLFLJP": {
          "201": {
            "rangeMin": 5.0,
            "rangeMax": 8.0,
            "JOJBOHEDBHC": 3.0,
            "AFILKAGDAHN": 5.0,
            "ALIBHHJHHMN": 2.0,
            "BFJBDDIIFOI": {
              "AEBLMKFNCDG": 0.0,
              "IGLIBIOEGBB": 0.0
            },
            "NAOBMNGDKHL": "1111",
            "JCNIJOAIGII": "1111",
            "MNPDDAKDHGK": ""
          },
          "301": {
            "rangeMin": 5.0,
            "rangeMax": 8.0,
            "JOJBOHEDBHC": 3.0,
            "AFILKAGDAHN": 5.0,
            "ALIBHHJHHMN": 2.0,
            "BFJBDDIIFOI": {
              "AEBLMKFNCDG": 0.0,
              "IGLIBIOEGBB": 0.0
            },
            "NAOBMNGDKHL": "1111",
            "JCNIJOAIGII": "1111",
            "MNPDDAKDHGK": ""
          }
        }
      },
      {
        "$type": "KACCHOLJDNK",
        "enable": true,
        "condition": {
          "pose": [101, 201, 301]
        },
        "JMCOBEPDIGM": {
          "NBENNEKDIIA": 3.0,
          "HKJODDGJPHA": 50.0,
          "GGEBMFHFBPO": 3.0,
          "KFFGCIMPNMJ": 8.0,
          "MNPDDAKDHGK": ""
        },
        "PIOCBHLFLJP": {
          "201": {
            "NBENNEKDIIA": 3.0,
            "HKJODDGJPHA": 50.0,
            "GGEBMFHFBPO": 7.0,
            "KFFGCIMPNMJ": 7.0,
            "MNPDDAKDHGK": ""
          },
          "301": {
            "NBENNEKDIIA": 3.0,
            "HKJODDGJPHA": 50.0,
            "GGEBMFHFBPO": 7.0,
            "KFFGCIMPNMJ": 10.0,
            "MNPDDAKDHGK": ""
          }
        }
      },
      {
        "$type": "NNJKLGNPMNN",
        "enable": true,
        "JMCOBEPDIGM": {
          "NBENNEKDIIA": 2.0,
          "MNPDDAKDHGK": "",
          "GJDMDHIBCME": ""
        }
      },
      {
        "$type": "FPELBIJFGCE",
        "enable": true,
        "condition": {
          "pose": [1, 11, 21]
        },
        "JMCOBEPDIGM": {
          "NBENNEKDIIA": 2.0,
          "KPNDPKIOPJM": 7.0,
          "PINAFKEDDLL": 5.0,
          "ANMPOPEBDIA": 7.5,
          "GMJFIMFFOEL": 3.0,
          "CHCPFDMADEI": 5.0,
          "MNPDDAKDHGK": ""
        }
      }
    ]
  },
  "inputKeys": [
    {
      "keyID": 101,
      "inputKeyCode": 257,
      "abilityName": ""
    },
    {
      "keyID": 111,
      "inputKeyCode": 258,
      "abilityName": ""
    },
    {
      "keyID": 191,
      "inputKeyCode": 259,
      "abilityName": ""
    },
    {
      "keyID": 201,
      "inputKeyCode": 260,
      "abilityName": ""
    },
    {
      "keyID": 211,
      "inputKeyCode": 261,
      "abilityName": ""
    },
    {
      "keyID": 301,
      "inputKeyCode": 262,
      "abilityName": ""
    }
  ],
  "move": {
    "$type": "IPNMJMHDMPF",
    "velocityForce": {
      "excludeForces": ["RetreatAirType"]
    },
    "facingMove": "ForwardBackward",
    "positionModifyState": "Walk",
    "PKHOMJHFAEE": "RootNode"
  },
  "audio": {
    "overrideEmitterName": "",
    "animAudio": {},
    "disableEvent": {
      "text": ""
    },
    "destroyEvent": {
      "text": ""
    },
    "randomVariantSwitchGroup": {
      "text": ""
    },
    "randomVariantSwitchValues": [
      {
        "text": ""
      }
    ]
  }
}
