{
  "common": {
    "effectAttachShape": {
      "$type": "FJNPJANPGGC",
      "mesh": "EffectMesh"
    },
    "mass": 10000.0,
    "height": 2.0999999046325684,
    "modelHeight": 2.0999999046325684,
    "viewSize": 1.5,
    "affectedByWorld": true,
    "checkInSurface": true,
    "scale": 1.100000023841858,
    "useGrassDisplacement": true,
    "clearAnimatorOnSetLightDeactive": true,
    "clearAIOnSetLightDeactive": true,
    "recoverByInitPose": true
  },
  "headControl": {
    "$type": "KPIPDEBDPIH",
    "useHeadControl": true,
    "maxYawDegree": 30.0,
    "maxPitchDegree": 10.0,
    "animStates": [
      "NormalIdle/Standby",
      "NormalMove/WalkForward",
      "NormalMove/WalkBack",
      "NormalMove/WalkRight",
      "NormalMove/WalkLeft",
      "NormalMove/Run",
      "Turn/TurnLeft",
      "Turn/TurnRight"
    ]
  },
  "model": {
    "bornEffect": "Eff_Monster_Common_Born",
    "attachEffect": "",
    "BKPFGNPLDNJ": ""
  },
  "dither": {
    "showDitherDuration": 1.0
  },
  "combat": {
    "property": {
      "endureType": "Monster_Grunt_Other",
      "weight": 80.0
    },
    "beHit": {
      "hitBloodEffect": ""
    },
    "combatLock": {
      "lockShape": "CircleLockEnemy",
      "lockType": "Avatar&Monster_Lv4"
    },
    "die": {
      "hasAnimatorDie": true,
      "dieEndTime": 2.0,
      "dieForceDisappearTime": 8.0,
      "dieDisappearEffect": "",
      "dieShaderData": "EremiteSandDie",
      "dieShaderEnableDurationTime": 1.0,
      "muteHitBox": true,
      "dieDenyLockOn": true,
      "dieIsGhostToEnemy": true,
      "dieIgnoreTriggerBullet": true,
      "muteBillboard": true,
      "mutePushCollider": true
    },
    "animEvents": {
      "MeleeAtk01_01": {
        "attackPattern": {
          "$type": "ConfigAttackCircle",
          "triggerType": "TriggerNoRepeat",
          "born": {
            "$type": "ConfigBornBySelf",
            "offset": {
              "x": 0.0,
              "y": 0.0,
              "z": -0.20000000298023224
            }
          },
          "height": 2.200000047683716,
          "fanAngle": 230.0,
          "radius": 2.4000000953674316
        },
        "attackInfo": {
          "attackTag": "",
          "attenuationTag": "",
          "attenuationGroup": "default",
          "attackProperty": {
            "actorGrassSubHurtDelta": 0.6000000238418579,
            "actorWindSubHurtDelta": 0.0,
            "elementType": "Electric",
            "elementDurability": 25.0,
            "strikeType": "Slash",
            "enBreak": 200.0,
            "attackType": "Melee",
            "GLKMCMDJBIK": 0.0
          },
          "hitPattern": {
            "onHitEffectName": "default",
            "hitImpulseY": "",
            "hitImpulseType": "LV4",
            "canBeDefenceHalt": true
          }
        }
      },
      "ImprovedMeleeAtk01_01": {
        "attackPattern": {
          "$type": "ConfigAttackCircle",
          "triggerType": "TriggerNoRepeat",
          "born": {
            "$type": "ConfigBornBySelf",
            "offset": {
              "x": 0.20000000298023224,
              "y": 0.0,
              "z": 0.0
            }
          },
          "height": 2.200000047683716,
          "fanAngle": 270.0,
          "radius": 3.5999999046325684
        },
        "attackInfo": {
          "attackTag": "",
          "attenuationTag": "",
          "attenuationGroup": "default",
          "attackProperty": {
            "actorGrassSubHurtDelta": 0.800000011920929,
            "actorWindSubHurtDelta": 0.0,
            "elementType": "Electric",
            "elementDurability": 25.0,
            "strikeType": "Blunt",
            "enBreak": 200.0,
            "attackType": "Melee",
            "GLKMCMDJBIK": 0.0
          },
          "hitPattern": {
            "onHitEffectName": "default",
            "hitImpulseY": "",
            "hitImpulseType": "LV4",
            "canBeDefenceHalt": true
          },
          "cameraShake": {
            "shakeType": "CustomVector",
            "shakeRange": 0.10000000149011612,
            "shakeTime": 0.10000000149011612,
            "shakeDistance": 30.0,
            "shakeDir": {
              "y": 1.0,
              "z": 1.0
            }
          }
        }
      },
      "MeleeAtk01_02_01": {
        "attackPattern": {
          "$type": "ConfigAttackCircle",
          "triggerType": "TriggerNoRepeat",
          "born": {
            "$type": "ConfigBornBySelf",
            "offset": {
              "x": 0.0,
              "y": 0.0,
              "z": 0.20000000298023224
            }
          },
          "height": 2.200000047683716,
          "fanAngle": 180.0,
          "radius": 2.700000047683716
        },
        "attackInfo": {
          "attackTag": "",
          "attenuationTag": "",
          "attenuationGroup": "default",
          "attackProperty": {
            "actorGrassSubHurtDelta": 0.5,
            "actorWindSubHurtDelta": 0.0,
            "elementType": "Electric",
            "elementDurability": 25.0,
            "strikeType": "Blunt",
            "enBreak": 100.0,
            "attackType": "Melee",
            "GLKMCMDJBIK": 0.0
          },
          "hitPattern": {
            "onHitEffectName": "default",
            "hitImpulseY": "",
            "hitImpulseType": "LV4",
            "canBeDefenceHalt": true
          },
          "cameraShake": {
            "shakeType": "CustomVector",
            "shakeRange": 0.10000000149011612,
            "shakeTime": 0.30000001192092896,
            "shakeDistance": 30.0,
            "shakeDir": {
              "y": 1.0,
              "z": 1.0
            }
          }
        }
      },
      "MeleeAtk01_02_02": {
        "attackPattern": {
          "$type": "ConfigAttackCircle",
          "triggerType": "TriggerNoRepeat",
          "born": {
            "$type": "ConfigBornBySelf",
            "offset": {
              "x": 0.0,
              "y": 0.0,
              "z": 0.20000000298023224
            }
          },
          "height": 2.200000047683716,
          "fanAngle": 180.0,
          "radius": 2.5
        },
        "attackInfo": {
          "attackTag": "",
          "attenuationTag": "",
          "attenuationGroup": "default",
          "attackProperty": {
            "actorGrassSubHurtDelta": 0.5,
            "actorWindSubHurtDelta": 0.0,
            "elementType": "Electric",
            "elementDurability": 25.0,
            "strikeType": "Blunt",
            "enBreak": 100.0,
            "attackType": "Melee",
            "GLKMCMDJBIK": 0.0
          },
          "hitPattern": {
            "onHitEffectName": "default",
            "hitImpulseY": "",
            "hitImpulseType": "LV4",
            "canBeDefenceHalt": true
          },
          "cameraShake": {
            "shakeType": "CustomVector",
            "shakeRange": 0.10000000149011612,
            "shakeTime": 0.30000001192092896,
            "shakeDistance": 30.0,
            "shakeDir": {
              "y": 1.0,
              "z": 1.0
            }
          }
        }
      },
      "ImprovedMeleeAtk01_02_01": {
        "attackPattern": {
          "$type": "ConfigAttackCircle",
          "triggerType": "TriggerNoRepeat",
          "born": {
            "$type": "ConfigBornBySelf",
            "offset": {
              "x": 0.0,
              "y": 0.0,
              "z": 0.0
            }
          },
          "height": 2.200000047683716,
          "fanAngle": 180.0,
          "radius": 4.0
        },
        "attackInfo": {
          "attackTag": "",
          "attenuationTag": "",
          "attenuationGroup": "default",
          "attackProperty": {
            "actorGrassSubHurtDelta": 0.699999988079071,
            "actorWindSubHurtDelta": 0.0,
            "elementType": "Electric",
            "elementDurability": 25.0,
            "strikeType": "Blunt",
            "enBreak": 100.0,
            "attackType": "Melee",
            "GLKMCMDJBIK": 0.0
          },
          "hitPattern": {
            "onHitEffectName": "default",
            "hitImpulseY": "",
            "hitImpulseType": "LV4",
            "canBeDefenceHalt": true
          },
          "cameraShake": {
            "shakeType": "CustomVector",
            "shakeRange": 0.10000000149011612,
            "shakeTime": 0.30000001192092896,
            "shakeDistance": 30.0,
            "shakeDir": {
              "y": 1.0,
              "z": 1.0
            }
          }
        }
      },
      "ImprovedMeleeAtk01_02_02": {
        "attackPattern": {
          "$type": "ConfigAttackCircle",
          "triggerType": "TriggerNoRepeat",
          "born": {
            "$type": "ConfigBornBySelf",
            "offset": {
              "x": 0.0,
              "y": 0.0,
              "z": -0.20000000298023224
            }
          },
          "height": 2.200000047683716,
          "fanAngle": 180.0,
          "radius": 4.300000190734863
        },
        "attackInfo": {
          "attackTag": "",
          "attenuationTag": "",
          "attenuationGroup": "default",
          "attackProperty": {
            "actorGrassSubHurtDelta": 0.699999988079071,
            "actorWindSubHurtDelta": 0.0,
            "elementType": "Electric",
            "elementDurability": 25.0,
            "strikeType": "Blunt",
            "enBreak": 200.0,
            "attackType": "Melee",
            "GLKMCMDJBIK": 0.0
          },
          "hitPattern": {
            "onHitEffectName": "default",
            "hitImpulseY": "",
            "hitImpulseType": "LV4",
            "canBeDefenceHalt": true
          }
        }
      },
      "MeleeAtk01_03": {
        "attackPattern": {
          "$type": "ConfigAttackCircle",
          "triggerType": "TriggerNoRepeat",
          "born": {
            "$type": "ConfigBornBySelf",
            "offset": {
              "x": 0.0,
              "y": 0.0,
              "z": 0.0
            }
          },
          "height": 2.200000047683716,
          "fanAngle": 180.0,
          "radius": 2.799999952316284
        },
        "attackInfo": {
          "attackTag": "",
          "attenuationTag": "",
          "attenuationGroup": "default",
          "attackProperty": {
            "actorGrassSubHurtDelta": 0.75,
            "actorWindSubHurtDelta": 0.0,
            "elementType": "Electric",
            "elementDurability": 25.0,
            "strikeType": "Blunt",
            "enBreak": 100.0,
            "attackType": "Melee",
            "GLKMCMDJBIK": 0.0
          },
          "hitPattern": {
            "onHitEffectName": "default",
            "hitImpulseY": "",
            "hitImpulseType": "LV5",
            "canBeDefenceHalt": true
          },
          "cameraShake": {
            "shakeType": "CustomVector",
            "shakeRange": 0.10000000149011612,
            "shakeTime": 0.10000000149011612,
            "shakeDistance": 30.0,
            "shakeDir": {
              "y": 1.0,
              "z": 1.0
            }
          }
        }
      },
      "ImprovedMeleeAtk01_03": {
        "attackPattern": {
          "$type": "ConfigAttackCircle",
          "triggerType": "TriggerNoRepeat",
          "born": {
            "$type": "ConfigBornBySelf",
            "offset": {
              "x": 0.0,
              "y": 0.0,
              "z": -0.6000000238418579
            }
          },
          "height": 2.200000047683716,
          "fanAngle": 180.0,
          "radius": 4.0
        },
        "attackInfo": {
          "attackTag": "",
          "attenuationTag": "",
          "attenuationGroup": "default",
          "attackProperty": {
            "actorGrassSubHurtDelta": 1.0,
            "actorWindSubHurtDelta": 0.0,
            "elementType": "Electric",
            "elementDurability": 50.0,
            "strikeType": "Blunt",
            "enBreak": 1000.0,
            "attackType": "Melee",
            "GLKMCMDJBIK": 0.0
          },
          "hitPattern": {
            "onHitEffectName": "default",
            "hitImpulseY": "",
            "hitImpulseType": "LV5",
            "canBeDefenceHalt": true
          },
          "cameraShake": {
            "shakeType": "CustomVector",
            "shakeRange": 0.25,
            "shakeTime": 0.30000001192092896,
            "shakeDistance": 30.0,
            "shakeDir": {
              "y": 1.0,
              "z": 1.0
            }
          }
        }
      },
      "MeleeAtk02_01": {
        "attackPattern": {
          "$type": "ConfigAttackCircle",
          "triggerType": "TriggerNoRepeat",
          "born": {
            "$type": "ConfigBornBySelf",
            "offset": {
              "x": 0.0,
              "y": 0.0,
              "z": 0.4000000059604645
            }
          },
          "height": 2.200000047683716,
          "fanAngle": 180.0,
          "radius": 2.0
        },
        "attackInfo": {
          "attackTag": "",
          "attenuationTag": "",
          "attenuationGroup": "default",
          "attackProperty": {
            "actorGrassSubHurtDelta": 0.25,
            "actorWindSubHurtDelta": 0.0,
            "elementType": "Electric",
            "elementDurability": 25.0,
            "strikeType": "Slash",
            "enBreak": 100.0,
            "attackType": "Melee",
            "GLKMCMDJBIK": 0.0
          },
          "hitPattern": {
            "onHitEffectName": "default",
            "hitImpulseY": "",
            "hitImpulseType": "LV3",
            "canBeDefenceHalt": true
          }
        }
      },
      "MeleeAtk02_02": {
        "attackPattern": {
          "$type": "ConfigAttackCircle",
          "triggerType": "TriggerNoRepeat",
          "born": {
            "$type": "ConfigBornBySelf",
            "offset": {
              "x": 0.0,
              "y": 0.0,
              "z": 0.4000000059604645
            }
          },
          "height": 2.200000047683716,
          "radius": 3.0
        },
        "attackInfo": {
          "attackTag": "",
          "attenuationTag": "",
          "attenuationGroup": "default",
          "attackProperty": {
            "actorGrassSubHurtDelta": 0.4000000059604645,
            "actorWindSubHurtDelta": 0.0,
            "elementType": "Electric",
            "elementDurability": 25.0,
            "strikeType": "Slash",
            "enBreak": 100.0,
            "attackType": "Melee",
            "GLKMCMDJBIK": 0.0
          },
          "hitPattern": {
            "onHitEffectName": "default",
            "hitImpulseY": "",
            "hitImpulseType": "LV3",
            "canBeDefenceHalt": true
          },
          "cameraShake": {
            "shakeType": "CustomVector",
            "shakeRange": 0.10000000149011612,
            "shakeTime": 0.30000001192092896,
            "shakeDistance": 30.0,
            "shakeDir": {
              "y": 1.0,
              "z": 1.0
            }
          }
        }
      },
      "MeleeAtk02_03": {
        "attackPattern": {
          "$type": "ConfigAttackCircle",
          "triggerType": "TriggerNoRepeat",
          "born": {
            "$type": "ConfigBornBySelf",
            "offset": {
              "x": 0.0,
              "y": 0.0,
              "z": 0.0
            }
          },
          "height": 2.200000047683716,
          "fanAngle": 180.0,
          "radius": 3.0
        },
        "attackInfo": {
          "attackTag": "",
          "attenuationTag": "",
          "attenuationGroup": "default",
          "attackProperty": {
            "actorGrassSubHurtDelta": 0.5,
            "actorWindSubHurtDelta": 0.0,
            "elementType": "Electric",
            "elementDurability": 25.0,
            "strikeType": "Blunt",
            "enBreak": 100.0,
            "attackType": "Melee",
            "GLKMCMDJBIK": 0.0
          },
          "hitPattern": {
            "onHitEffectName": "default",
            "hitImpulseY": "",
            "hitImpulseType": "LV4",
            "canBeDefenceHalt": true
          },
          "cameraShake": {
            "shakeType": "CustomVector",
            "shakeRange": 0.10000000149011612,
            "shakeTime": 0.30000001192092896,
            "shakeDistance": 30.0,
            "shakeDir": {
              "y": 1.0,
              "z": 1.0
            }
          }
        }
      },
      "MeleeAtk02_04": {
        "attackPattern": {
          "$type": "ConfigAttackCircle",
          "triggerType": "TriggerNoRepeat",
          "born": {
            "$type": "ConfigBornBySelf",
            "offset": {
              "x": 0.0,
              "y": 0.0,
              "z": 0.0
            }
          },
          "height": 2.200000047683716,
          "radius": 3.0,
          "MMBCLAEOEFB": 1.5
        },
        "attackInfo": {
          "attackTag": "",
          "attenuationTag": "",
          "attenuationGroup": "default",
          "attackProperty": {
            "actorGrassSubHurtDelta": 0.5,
            "actorWindSubHurtDelta": 0.0,
            "elementType": "Electric",
            "elementDurability": 25.0,
            "strikeType": "Slash",
            "enBreak": 100.0,
            "attackType": "Melee",
            "GLKMCMDJBIK": 0.0
          },
          "hitPattern": {
            "onHitEffectName": "default",
            "hitImpulseY": "",
            "hitImpulseType": "LV4",
            "canBeDefenceHalt": true
          }
        }
      },
      "ImprovedMeleeAtk02_01": {
        "attackPattern": {
          "$type": "ConfigAttackCircle",
          "triggerType": "TriggerNoRepeat",
          "born": {
            "$type": "ConfigBornBySelf",
            "offset": {
              "x": 0.0,
              "y": 0.0,
              "z": 0.4000000059604645
            }
          },
          "height": 2.200000047683716,
          "fanAngle": 180.0,
          "radius": 3.0
        },
        "attackInfo": {
          "attackTag": "",
          "attenuationTag": "",
          "attenuationGroup": "default",
          "attackProperty": {
            "actorGrassSubHurtDelta": 0.25,
            "actorWindSubHurtDelta": 0.0,
            "elementType": "Electric",
            "elementDurability": 25.0,
            "strikeType": "Slash",
            "enBreak": 200.0,
            "attackType": "Melee",
            "GLKMCMDJBIK": 0.0
          },
          "hitPattern": {
            "onHitEffectName": "default",
            "hitImpulseY": "",
            "hitImpulseType": "LV3",
            "canBeDefenceHalt": true
          },
          "forceCameraShake": true,
          "cameraShake": {
            "shakeType": "CustomVector",
            "shakeRange": 0.10000000149011612,
            "shakeTime": 0.30000001192092896,
            "shakeDistance": 30.0,
            "shakeDir": {
              "y": 1.0,
              "z": 1.0
            }
          }
        }
      },
      "ImprovedMeleeAtk02_02": {
        "attackPattern": {
          "$type": "ConfigAttackCircle",
          "triggerType": "TriggerNoRepeat",
          "born": {
            "$type": "ConfigBornBySelf",
            "offset": {
              "x": 0.0,
              "y": 0.0,
              "z": 0.4000000059604645
            }
          },
          "height": 2.200000047683716,
          "radius": 5.0
        },
        "attackInfo": {
          "attackTag": "",
          "attenuationTag": "",
          "attenuationGroup": "default",
          "attackProperty": {
            "actorGrassSubHurtDelta": 0.75,
            "actorWindSubHurtDelta": 0.0,
            "elementType": "Electric",
            "elementDurability": 25.0,
            "strikeType": "Blunt",
            "enBreak": 200.0,
            "attackType": "Melee",
            "GLKMCMDJBIK": 0.0
          },
          "hitPattern": {
            "onHitEffectName": "default",
            "hitImpulseY": "",
            "hitImpulseType": "LV4",
            "canBeDefenceHalt": true
          },
          "cameraShake": {
            "shakeType": "CustomVector",
            "shakeRange": 0.10000000149011612,
            "shakeTime": 0.30000001192092896,
            "shakeDistance": 30.0,
            "shakeDir": {
              "y": 1.0,
              "z": 1.0
            }
          }
        }
      },
      "ImprovedMeleeAtk02_03": {
        "attackPattern": {
          "$type": "ConfigAttackCircle",
          "triggerType": "TriggerNoRepeat",
          "born": {
            "$type": "ConfigBornBySelf",
            "offset": {
              "x": 0.0,
              "y": 0.0,
              "z": 0.4000000059604645
            }
          },
          "height": 2.200000047683716,
          "fanAngle": 180.0,
          "radius": 5.0
        },
        "attackInfo": {
          "attackTag": "",
          "attenuationTag": "",
          "attenuationGroup": "default",
          "attackProperty": {
            "actorGrassSubHurtDelta": 0.75,
            "actorWindSubHurtDelta": 0.0,
            "elementType": "Electric",
            "elementDurability": 50.0,
            "strikeType": "Blunt",
            "enBreak": 1000.0,
            "attackType": "Melee",
            "GLKMCMDJBIK": 0.0
          },
          "hitPattern": {
            "onHitEffectName": "default",
            "hitImpulseY": "",
            "hitImpulseType": "LV5",
            "canBeDefenceHalt": true
          },
          "cameraShake": {
            "shakeType": "CustomVector",
            "shakeRange": 0.5,
            "shakeTime": 0.30000001192092896,
            "shakeDistance": 30.0,
            "shakeDir": {
              "y": 1.0,
              "z": 1.0
            }
          }
        }
      },
      "ImprovedMeleeAtk02_04": {
        "attackPattern": {
          "$type": "ConfigAttackCircle",
          "triggerType": "TriggerNoRepeat",
          "born": {
            "$type": "ConfigBornBySelf",
            "offset": {
              "x": 0.0,
              "y": 0.0,
              "z": 0.0
            }
          },
          "height": 2.200000047683716,
          "radius": 5.0,
          "MMBCLAEOEFB": 2.0
        },
        "attackInfo": {
          "attackTag": "",
          "attenuationTag": "",
          "attenuationGroup": "default",
          "attackProperty": {
            "actorGrassSubHurtDelta": 0.75,
            "actorWindSubHurtDelta": 0.0,
            "elementType": "Electric",
            "elementDurability": 50.0,
            "strikeType": "Blunt",
            "enBreak": 1000.0,
            "attackType": "Melee",
            "GLKMCMDJBIK": 0.0
          },
          "hitPattern": {
            "onHitEffectName": "default",
            "hitImpulseY": "",
            "hitImpulseType": "LV5",
            "canBeDefenceHalt": true
          },
          "cameraShake": {
            "shakeType": "CustomVector",
            "shakeRange": 0.5,
            "shakeTime": 0.30000001192092896,
            "shakeDistance": 30.0,
            "shakeDir": {
              "y": 1.0,
              "z": 1.0
            }
          }
        }
      }
    }
  },
  "equipController": {
    "sheathPoint": "",
    "attachPoints": {
      "equip01": "WeaponR",
      "equip02": "WeaponL"
    }
  },
  "abilities": [
    {
      "abilityID": "FightControl",
      "abilityName": "Monster_Eremite_Male_Standard_Polearm_Electric_FightControl",
      "abilityOverride": ""
    },
    {
      "abilityID": "ReturntoBorn",
      "abilityName": "Monster_Eremite_Male_Standard_Polearm_Electric_ReturnToBorn",
      "abilityOverride": ""
    },
    {
      "abilityID": "Alert",
      "abilityName": "Monster_Eremite_Male_Standard_Polearm_Electric_Alert",
      "abilityOverride": ""
    },
    {
      "abilityID": "Improve",
      "abilityName": "Monster_Eremite_Male_Standard_Polearm_Electric_Improve",
      "abilityOverride": ""
    },
    {
      "abilityID": "Die",
      "abilityName": "Monster_Eremite_Male_Standard_Polearm_Electric_Improve_Die",
      "abilityOverride": ""
    },
    {
      "abilityID": "Weak",
      "abilityName": "Monster_Eremite_Male_Standard_Polearm_Electric_Weak",
      "abilityOverride": ""
    },
    {
      "abilityID": "DrawWeapon",
      "abilityName": "Monster_Eremite_Male_Standard_Polearm_Electric_DrawWeapon",
      "abilityOverride": ""
    },
    {
      "abilityID": "SheathWeapon",
      "abilityName": "Monster_Eremite_Male_Standard_Polearm_Electric_SheathWeapon",
      "abilityOverride": ""
    },
    {
      "abilityID": "HideWeapon",
      "abilityName": "Monster_Eremite_Male_Standard_Polearm_Electric_HideWeapon",
      "abilityOverride": ""
    },
    {
      "abilityID": "UnhideWeapon",
      "abilityName": "Monster_Eremite_Male_Standard_Polearm_Electric_UnhideWeapon",
      "abilityOverride": ""
    },
    {
      "abilityID": "SteerControl",
      "abilityName": "Monster_Eremite_Male_Standard_Polearm_Electric_SteerControl",
      "abilityOverride": ""
    }
  ],
  "stateLayers": {
    "defaultLayer": {
      "$type": "GBGJJIIEMBD",
      "layerIndexName": "",
      "CPAANEIJCGD": "",
      "stateIDs": {
        "NormalIdle": {
          "$type": "NEDIFAKEGCO",
          "animatorStates": {
            "Standby": [],
            "Born": []
          },
          "canDoSkill": true,
          "canSyncMove": true,
          "resetAnimatorTriggerOnExit": ["DoSkill"]
        },
        "Standby_Weak": {
          "$type": "NEDIFAKEGCO",
          "animatorStates": {
            "Standby_Weak": []
          },
          "canDoSkill": true,
          "canSyncMove": true,
          "resetAnimatorTriggerOnExit": ["DoSkill", "Recover"]
        },
        "NormalMove": {
          "$type": "NEDIFAKEGCO",
          "animatorStates": {
            "WalkForward": [
              "Audio_Monster_Eremite_Male_Standard_Polearm_01_Walk"
            ],
            "WalkBack": ["Audio_Monster_Eremite_Male_Standard_Polearm_01_Walk"],
            "WalkRight": [
              "Audio_Monster_Eremite_Male_Standard_Polearm_01_Walk"
            ],
            "WalkLeft": ["Audio_Monster_Eremite_Male_Standard_Polearm_01_Walk"],
            "Run": ["Audio_Monster_Eremite_Male_Standard_Polearm_01_Run"]
          },
          "canDoSkill": true,
          "canSyncMove": true,
          "resetAnimatorTriggerOnExit": ["DoSkill"],
          "canSteer": true
        },
        "Turn": {
          "$type": "NEDIFAKEGCO",
          "animatorStates": {
            "TurnLeft": ["Audio_Monster_Eremite_Male_Standard_Polearm_01_Walk"],
            "TurnRight": ["Audio_Monster_Eremite_Male_Standard_Polearm_01_Walk"]
          },
          "canDoSkill": true,
          "canSyncMove": true,
          "resetAnimatorTriggerOnExit": ["DoSkill"],
          "canSteer": true
        },
        "BeHit": {
          "$type": "NEDIFAKEGCO",
          "animatorStates": {
            "Hit_L": [],
            "Hit_H": ["Audio_Monster_Eremite_Male_Standard_Polearm_01_Hit_H"]
          },
          "resetAnimatorTriggerOnEnter": ["BeHit"],
          "resetAnimatorTriggerOnExit": ["DoSkill"]
        },
        "BeHitThrow": {
          "$type": "NEDIFAKEGCO",
          "animatorStates": {
            "HitThrow": [
              "Audio_Monster_Eremite_Male_Standard_Polearm_01_HitThrow"
            ],
            "HitThrowDrop": []
          },
          "resetAnimatorTriggerOnEnter": ["BeHit", "HitAir2HitDrop"],
          "resetAnimatorTriggerOnExit": ["DoSkill", "BeHit"],
          "setAnimatorBoolean": [
            {
              "name": "AirDie"
            }
          ]
        },
        "BeHitThrowToStandby": {
          "$type": "NEDIFAKEGCO",
          "animatorStates": {
            "HitThrowToGround": [
              "Audio_Monster_Eremite_Male_Standard_Polearm_01_HitThrowToGround"
            ]
          },
          "resetAnimatorTriggerOnEnter": ["BeHit", "HitAir2HitDrop"],
          "resetAnimatorTriggerOnExit": ["DoSkill", "BeHit"],
          "setAnimatorBoolean": [
            {
              "name": "AirDie",
              "normalizeEnd": 0.6200000047683716
            }
          ]
        },
        "Struggle": {
          "$type": "NEDIFAKEGCO",
          "animatorStates": {
            "Struggle": []
          },
          "resetAnimatorTriggerOnEnter": ["BeHit", "HitAir2HitDrop"],
          "resetAnimatorTriggerOnExit": ["DoSkill"]
        },
        "Die": {
          "$type": "NEDIFAKEGCO",
          "animatorStates": {
            "Die1": [
              "Monster_Eremite_Male_Standard_Polearm_Electric_Die",
              "Audio_Monster_Eremite_Male_Standard_Polearm_01_Die1"
            ],
            "Die2": [
              "Monster_Eremite_Male_Standard_Polearm_Electric_Die",
              "Audio_Monster_Eremite_Male_Standard_Polearm_01_Die1"
            ],
            "SwinDie_BS": [],
            "SwimDie": ["Monster_Eremite_SwimDie"],
            "SwimDie_AS": []
          }
        },
        "Die_RagDoll": {
          "$type": "NEDIFAKEGCO",
          "animatorStates": {
            "AirDie": ["Monster_Eremite_AirDie"]
          }
        },
        "Sit_Loop": {
          "$type": "NEDIFAKEGCO",
          "animatorStates": {
            "Sit_Loop": []
          },
          "canDoSkill": true,
          "resetAnimatorTriggerOnExit": ["BeHit", "DoSkill"]
        },
        "Lie": {
          "$type": "NEDIFAKEGCO",
          "animatorStates": {
            "Lie": []
          },
          "canDoSkill": true,
          "resetAnimatorTriggerOnExit": ["BeHit", "DoSkill"]
        },
        "Exercise": {
          "$type": "NEDIFAKEGCO",
          "animatorStates": {
            "Exercise": [
              "Audio_Monster_Eremite_Male_Standard_Polearm_01_Exercise"
            ]
          },
          "canDoSkill": true,
          "resetAnimatorTriggerOnExit": ["BeHit", "DoSkill"]
        },
        "Alert": {
          "$type": "NEDIFAKEGCO",
          "animatorStates": {
            "Alert": [
              "Monster_Eremite_Male_Standard_Polearm_Electric_Alert",
              "Audio_Monster_Eremite_Male_Standard_Polearm_01_Alert"
            ],
            "Exercise_Alert": [
              "Monster_Eremite_Male_Standard_Polearm_Electric_Alert",
              "Audio_Monster_Eremite_Male_Standard_Polearm_01_Alert"
            ]
          },
          "addEndure": 0.0,
          "massRatio": 20.0,
          "resetAnimatorTriggerOnExit": ["BeHit", "DoSkill"],
          "autoSteer": true
        },
        "Sit_Alert": {
          "$type": "NEDIFAKEGCO",
          "animatorStates": {
            "Sit_Alert": [
              "Monster_Eremite_Male_Standard_Polearm_Electric_Alert",
              "Audio_Monster_Eremite_Male_Standard_Polearm_01_SitAlert"
            ]
          },
          "addEndure": 0.0,
          "massRatio": 20.0,
          "resetAnimatorTriggerOnExit": ["BeHit", "DoSkill"],
          "autoSteer": true
        },
        "SheathWeapon": {
          "$type": "NEDIFAKEGCO",
          "animatorStates": {
            "SheathWeapon": [
              "Monster_Eremite_Male_Standard_Polearm_Electric_SheathWeapon",
              "Audio_Monster_Eremite_Male_Standard_Polearm_01_SheathWeapon"
            ]
          },
          "addEndure": 0.0,
          "massRatio": 20.0,
          "resetAnimatorTriggerOnEnter": ["SheathWeaponTrigger"],
          "resetAnimatorTriggerOnExit": [
            "BeHit",
            "DoSkill",
            "SheathWeaponTrigger"
          ]
        },
        "Improve": {
          "$type": "NEDIFAKEGCO",
          "animatorStates": {
            "Improve": [
              "Monster_Eremite_Male_Standard_Polearm_Electric_Improve",
              "Audio_Monster_Eremite_Male_Standard_Polearm_01_Improve"
            ]
          },
          "addEndure": 0.0,
          "massRatio": 20.0,
          "resetAnimatorTriggerOnEnter": ["ForceImprove"],
          "resetAnimatorTriggerOnExit": ["BeHit", "DoSkill", "ForceImprove"]
        },
        "Weak": {
          "$type": "NEDIFAKEGCO",
          "animatorStates": {
            "Weak_BS": [
              "Audio_Monster_Eremite_Male_Standard_Polearm_01_Weak_BS"
            ],
            "Weak_AS": [
              "Audio_Monster_Eremite_Male_Standard_Polearm_01_Weak_AS"
            ]
          },
          "resetAnimatorTriggerOnEnter": ["Weak"],
          "resetAnimatorTriggerOnExit": ["DoSkill", "Weak", "Recover"]
        },
        "MeleeAtk01_01": {
          "$type": "NEDIFAKEGCO",
          "animatorStates": {
            "MeleeAtk01_01": [
              "Monster_Eremite_Male_Standard_Polearm_Electric_MeleeAtk01_01",
              "Audio_Monster_Eremite_Male_Standard_Polearm_01_MeleeAtk01_01"
            ]
          },
          "addEndure": 0.0,
          "massRatio": 20.0,
          "resetAnimatorTriggerOnExit": ["BeHit", "DoSkill"],
          "canSteer": true
        },
        "MeleeAtk01_01_AS": {
          "$type": "NEDIFAKEGCO",
          "animatorStates": {
            "MeleeAtk01_01_AS": [
              "Audio_Monster_Eremite_Male_Standard_Polearm_01_MeleeAtk01_01_AS"
            ]
          },
          "addEndure": 0.0,
          "massRatio": 20.0,
          "resetAnimatorTriggerOnExit": ["BeHit", "DoSkill"],
          "canSteer": true
        },
        "MeleeAtk01_02_BS": {
          "$type": "NEDIFAKEGCO",
          "animatorStates": {
            "MeleeAtk01_02_BS": [
              "Audio_Monster_Eremite_Male_Standard_Polearm_01_MeleeAtk01_02_BS"
            ]
          },
          "addEndure": 0.0,
          "massRatio": 20.0,
          "resetAnimatorTriggerOnExit": ["BeHit", "DoSkill"],
          "canSteer": true
        },
        "MeleeAtk01_02": {
          "$type": "NEDIFAKEGCO",
          "animatorStates": {
            "MeleeAtk01_02": [
              "Monster_Eremite_Male_Standard_Polearm_Electric_MeleeAtk01_02",
              "Audio_Monster_Eremite_Male_Standard_Polearm_01_MeleeAtk01_02"
            ]
          },
          "addEndure": 0.0,
          "massRatio": 20.0,
          "resetAnimatorTriggerOnExit": ["BeHit", "DoSkill"],
          "canSteer": true
        },
        "MeleeAtk01_02_AS": {
          "$type": "NEDIFAKEGCO",
          "animatorStates": {
            "MeleeAtk01_02_AS": [
              "Audio_Monster_Eremite_Male_Standard_Polearm_01_MeleeAtk01_02_AS"
            ]
          },
          "addEndure": 0.0,
          "massRatio": 20.0,
          "resetAnimatorTriggerOnExit": ["BeHit", "DoSkill"],
          "canSteer": true
        },
        "MeleeAtk01_03_BS": {
          "$type": "NEDIFAKEGCO",
          "animatorStates": {
            "MeleeAtk01_03_BS": [
              "Monster_Eremite_Male_Standard_Polearm_Electric_MeleeAtk01_03_BS",
              "Audio_Monster_Eremite_Male_Standard_Polearm_01_MeleeAtk01_03_BS"
            ]
          },
          "addEndure": 0.0,
          "massRatio": 20.0,
          "resetAnimatorTriggerOnExit": ["BeHit", "DoSkill"],
          "canSteer": true
        },
        "MeleeAtk01_03": {
          "$type": "NEDIFAKEGCO",
          "animatorStates": {
            "MeleeAtk01_03": [
              "Monster_Eremite_Male_Standard_Polearm_Electric_MeleeAtk01_03",
              "Audio_Monster_Eremite_Male_Standard_Polearm_01_MeleeAtk01_03"
            ]
          },
          "addEndure": 0.0,
          "massRatio": 20.0,
          "resetAnimatorTriggerOnExit": ["BeHit", "DoSkill"],
          "canSteer": true
        },
        "MeleeAtk02": {
          "$type": "NEDIFAKEGCO",
          "animatorStates": {
            "MeleeAtk02": [
              "Monster_Eremite_Male_Standard_Polearm_Electric_MeleeAtk02",
              "Audio_Monster_Eremite_Male_Standard_Polearm_01_MeleeAtk02"
            ]
          },
          "canSyncMove": true,
          "addEndure": 0.0,
          "massRatio": 20.0,
          "resetAnimatorTriggerOnExit": ["BeHit", "DoSkill"],
          "canSteer": true
        },
        "Improve_MeleeAtk01_01": {
          "$type": "NEDIFAKEGCO",
          "animatorStates": {
            "Improve_MeleeAtk01_01": [
              "Monster_Eremite_Male_Standard_Polearm_Electric_ImproveMeleeAtk01_01",
              "Audio_Monster_Eremite_Male_Standard_Polearm_01_Improve_MeleeAtk01_01"
            ]
          },
          "resetAnimatorTriggerOnExit": ["BeHit", "DoSkill", "Weak"],
          "canSteer": true
        },
        "Improve_MeleeAtk01_01_AS": {
          "$type": "NEDIFAKEGCO",
          "animatorStates": {
            "Improve_MeleeAtk01_01_AS": []
          },
          "resetAnimatorTriggerOnExit": ["BeHit", "DoSkill", "Weak"],
          "canSteer": true
        },
        "Improve_MeleeAtk01_02": {
          "$type": "NEDIFAKEGCO",
          "animatorStates": {
            "Improve_MeleeAtk01_02": [
              "Monster_Eremite_Male_Standard_Polearm_Electric_ImproveMeleeAtk01_02",
              "Audio_Monster_Eremite_Male_Standard_Polearm_01_Improve_MeleeAtk01_02"
            ]
          },
          "resetAnimatorTriggerOnExit": ["BeHit", "DoSkill", "Weak"],
          "canSteer": true
        },
        "Improve_MeleeAtk01_02_AS": {
          "$type": "NEDIFAKEGCO",
          "animatorStates": {
            "Improve_MeleeAtk01_02_AS": [
              "Audio_Monster_Eremite_Male_Standard_Polearm_01_Improve_MeleeAtk01_02_AS"
            ]
          },
          "resetAnimatorTriggerOnExit": ["BeHit", "DoSkill", "Weak"],
          "canSteer": true
        },
        "Improve_MeleeAtk01_03_BS": {
          "$type": "NEDIFAKEGCO",
          "animatorStates": {
            "Improve_MeleeAtk01_03_BS": [
              "Monster_Eremite_Male_Standard_Polearm_Electric_Improve_MeleeAtk01_03_BS",
              "Audio_Monster_Eremite_Male_Standard_Polearm_01_Improve_MeleeAtk01_03_BS"
            ]
          },
          "resetAnimatorTriggerOnExit": ["BeHit", "DoSkill", "Weak"],
          "canSteer": true
        },
        "Improve_MeleeAtk01_03": {
          "$type": "NEDIFAKEGCO",
          "animatorStates": {
            "Improve_MeleeAtk01_03": [
              "Monster_Eremite_Male_Standard_Polearm_Electric_ImproveMeleeAtk01_03",
              "Audio_Monster_Eremite_Male_Standard_Polearm_01_Improve_MeleeAtk01_03"
            ]
          },
          "resetAnimatorTriggerOnExit": ["BeHit", "DoSkill", "Weak"],
          "canSteer": true
        },
        "Improve_MeleeAtk01_02_BS": {
          "$type": "NEDIFAKEGCO",
          "animatorStates": {
            "Improve_MeleeAtk01_02_BS": []
          },
          "resetAnimatorTriggerOnExit": ["BeHit", "DoSkill", "Weak"],
          "canSteer": true
        },
        "Improve_MeleeAtk01_04": {
          "$type": "NEDIFAKEGCO",
          "animatorStates": {
            "Improve_MeleeAtk01_04": [
              "Monster_Eremite_Male_Standard_Polearm_Electric_ImproveMeleeAtk01_02"
            ]
          },
          "resetAnimatorTriggerOnExit": ["BeHit", "DoSkill", "Weak"],
          "canSteer": true
        },
        "Improve_MeleeAtk02": {
          "$type": "NEDIFAKEGCO",
          "animatorStates": {
            "Improve_MeleeAtk02": [
              "Monster_Eremite_Male_Standard_Polearm_Electric_ImproveMeleeAtk02",
              "Audio_Monster_Eremite_Male_Standard_Polearm_01_Improve_MeleeAtk02"
            ]
          },
          "canSyncMove": true,
          "resetAnimatorTriggerOnExit": ["BeHit", "DoSkill", "Weak"],
          "canSteer": true
        }
      }
    }
  },
  "billboard": {
    "$type": "DNGNMAJBCNP",
    "attachPoint": "BillboardAttach",
    "offset": {
      "x": -0.3499999940395355
    },
    "offsetType": "Character",
    "showHPBar": true,
    "size": "Big"
  },
  "initialPoses": {
    "Default": {},
    "Sit": {
      "initialPoseID": 9001,
      "initialPoseParams": {
        "intParams": {
          "FreePoseMark": "9001"
        }
      }
    },
    "Exercise": {
      "initialPoseID": 9003,
      "initialPoseParams": {
        "intParams": {
          "FreePoseMark": "9003"
        }
      }
    },
    "Lie": {
      "initialPoseID": 9002,
      "initialPoseParams": {
        "intParams": {
          "FreePoseMark": "9002"
        }
      }
    }
  },
  "aibeta": {
    "enable": true,
    "moveSetting": {
      "navMeshAgentName": "Undead01",
      "almostReachedDistanceRun": 1.5
    },
    "aiCombat": {
      "combatRole": "FIGHTER"
    },
    "sensing": {
      "settings": {
        "DefaultSetting": {
          "feelRange": 8.0
        },
        "HighAlert": {
          "viewRange": 40.0,
          "feelRange": 10.0
        },
        "LowAlert": {
          "viewRange": 15.0,
          "feelRange": 6.0
        },
        "UltraLowSensing": {
          "viewRange": 10.0,
          "hearAttractionRange": 0.0,
          "feelRange": 4.0
        },
        "NeverCombat": {
          "enableVision": false,
          "hearAttractionRange": 0.0,
          "feelRange": 0.0
        }
      },
      "templates": {
        "DefaultTemplate": {
          "DefaultPoses": "DefaultSetting"
        },
        "NeverCombatTemplate": {
          "DefaultPoses": "NeverCombat"
        },
        "HighAlert": {
          "DefaultPoses": "HighAlert"
        },
        "LowAlert": {
          "DefaultPoses": "LowAlert"
        },
        "UltraLowSensing": {
          "DefaultPoses": "UltraLowSensing"
        }
      }
    },
    "neurons": {
      "DefaultSetting": ["HIT"],
      "NeverCombat": []
    },
    "threat": {
      "GHIJMOKOLMB": "",
      "clearThreatByLostPath": true,
      "clearThreatTimerByDistance": 3.0,
      "viewAttenuation": [
        {
          "x": 10.0,
          "y": 2.0
        },
        {
          "x": 15.0,
          "y": 0.800000011920929
        },
        {
          "x": 20.0,
          "y": 0.5
        },
        {
          "x": 25.0,
          "y": 0.30000001192092896
        },
        {
          "x": 30.0,
          "y": 0.20000000298023224
        }
      ],
      "resistTauntLevel": "Monster_TauntLevel_2"
    },
    "defendArea": {},
    "profiling": {},
    "network": {
      "syncSkill": true
    },
    "skillGroupCDConfigs": [
      {
        "skillGroupCDID": 1,
        "skillGroupCDTime": 1.0
      },
      {
        "skillGroupCDID": 2,
        "skillGroupCDTime": 2.0
      },
      {
        "skillGroupCDID": 3,
        "skillGroupCDTime": 3.0
      },
      {
        "skillGroupCDID": 4,
        "skillGroupCDTime": 4.0
      }
    ],
    "skills": {
      "101": {
        "name": "OnAlert",
        "skillType": "OnAlert",
        "castCondition": {
          "pose": [1, 101]
        },
        "publicCDGroup": "",
        "ignoreGCD": true,
        "triggerGCD": false,
        "HHAGODJIAPE": "",
        "stateIDs": ["Alert"],
        "skillQueryingTime": 3.0,
        "flagTargetReachable": "10",
        "flagSelfOnTemplateCollider": "01",
        "flagSelfInZone": "10",
        "flagTargetInZone": "11"
      },
      "102": {
        "name": "OnAlert",
        "skillType": "OnNerve",
        "castCondition": {
          "pose": [1]
        },
        "publicCDGroup": "",
        "ignoreGCD": true,
        "triggerGCD": false,
        "HHAGODJIAPE": "",
        "stateIDs": ["Alert"],
        "skillQueryingTime": 3.0,
        "flagTargetReachable": "10",
        "flagSelfOnTemplateCollider": "01",
        "flagSelfInZone": "10",
        "flagTargetInZone": "11",
        "nerveTrigger": ["HIT"]
      },
      "111": {
        "name": "OnAlert_Crossleg",
        "skillType": "OnAlert",
        "castCondition": {
          "pose": [9001, 9002]
        },
        "publicCDGroup": "",
        "ignoreGCD": true,
        "HHAGODJIAPE": "",
        "stateIDs": ["Sit_Alert"],
        "skillQueryingTime": 3.0,
        "flagTargetReachable": "10",
        "flagSelfOnTemplateCollider": "01",
        "flagSelfInZone": "10",
        "flagTargetInZone": "11"
      },
      "112": {
        "name": "OnAlert_Crossleg",
        "skillType": "OnNerve",
        "castCondition": {
          "pose": [9001, 9002]
        },
        "publicCDGroup": "",
        "ignoreGCD": true,
        "HHAGODJIAPE": "",
        "stateIDs": ["Sit_Alert"],
        "skillQueryingTime": 3.0,
        "flagTargetReachable": "10",
        "flagSelfOnTemplateCollider": "01",
        "flagSelfInZone": "10",
        "flagTargetInZone": "11",
        "nerveTrigger": ["HIT"]
      },
      "121": {
        "name": "OnAlert_Crossleg",
        "skillType": "OnAlert",
        "castCondition": {
          "pose": [9003]
        },
        "publicCDGroup": "",
        "ignoreGCD": true,
        "HHAGODJIAPE": "",
        "stateIDs": ["Exercise_Alert"],
        "skillQueryingTime": 3.0,
        "flagTargetReachable": "10",
        "flagSelfOnTemplateCollider": "01",
        "flagSelfInZone": "10",
        "flagTargetInZone": "11"
      },
      "122": {
        "name": "OnAlert_Crossleg",
        "skillType": "OnNerve",
        "castCondition": {
          "pose": [9003]
        },
        "publicCDGroup": "",
        "ignoreGCD": true,
        "HHAGODJIAPE": "",
        "stateIDs": ["Exercise_Alert"],
        "skillQueryingTime": 3.0,
        "flagTargetReachable": "10",
        "flagSelfOnTemplateCollider": "01",
        "flagSelfInZone": "10",
        "flagTargetInZone": "11",
        "nerveTrigger": ["HIT"]
      },
      "201": {
        "name": "MeleeAtk01_01",
        "castCondition": {
          "pose": [101, 102],
          "pickRangeMax": 5.0
        },
        "cd": 6.0,
        "cdUpperRange": 2.0,
        "publicCDGroup": "",
        "skillGroupCDID": 3,
        "HHAGODJIAPE": "",
        "stateIDs": ["MeleeAtk01_01", "MeleeAtk01_02", "MeleeAtk01_02_AS"],
        "flagTargetReachable": "10",
        "flagSelfOnTemplateCollider": "01",
        "flagSelfInZone": "11",
        "flagTargetInZone": "11"
      },
      "203": {
        "name": "MeleeAtk01_03",
        "castCondition": {
          "pose": [101, 102],
          "pickRangeMax": 3.5
        },
        "cd": 6.0,
        "cdUpperRange": 2.0,
        "publicCDGroup": "",
        "skillGroupCDID": 3,
        "HHAGODJIAPE": "",
        "stateIDs": ["MeleeAtk01_03_BS", "MeleeAtk01_03"],
        "flagTargetReachable": "10",
        "flagSelfOnTemplateCollider": "01",
        "flagSelfInZone": "11",
        "flagTargetInZone": "11"
      },
      "211": {
        "name": "MeleeAtk02",
        "priority": 2,
        "castCondition": {
          "pose": [101, 102],
          "pickRangeMin": 5.0,
          "pickRangeMax": 15.0
        },
        "cd": 10.0,
        "cdUpperRange": 2.0,
        "initialCD": 5.0,
        "initialCDUpperRange": 2.0,
        "publicCDGroup": "",
        "HHAGODJIAPE": "",
        "stateIDs": ["MeleeAtk02"],
        "flagTargetReachable": "10",
        "flagSelfOnTemplateCollider": "01",
        "flagSelfInZone": "10",
        "flagTargetInZone": "11"
      },
      "301": {
        "name": "Improve_MeleeAtk01_02",
        "castCondition": {
          "pose": [201],
          "pickRangeMax": 8.0
        },
        "cd": 3.0,
        "cdUpperRange": 2.0,
        "publicCDGroup": "",
        "ignoreGCD": true,
        "triggerGCD": false,
        "HHAGODJIAPE": "",
        "stateIDs": [
          "Improve_MeleeAtk01_01",
          "Improve_MeleeAtk01_02",
          "Improve_MeleeAtk01_02_AS"
        ],
        "flagTargetReachable": "10",
        "flagSelfOnTemplateCollider": "01",
        "flagSelfInZone": "11",
        "flagTargetInZone": "11"
      },
      "311": {
        "name": "Improve_MeleeAttk02",
        "priority": 2,
        "castCondition": {
          "pose": [201],
          "pickRangeMin": 5.0,
          "pickRangeMax": 15.0,
          "castRangeMin": 5.0,
          "castRangeMax": 15.0
        },
        "cd": 15.0,
        "cdUpperRange": 2.0,
        "publicCDGroup": "",
        "skillGroupCDID": 1,
        "HHAGODJIAPE": "",
        "stateIDs": ["Improve_MeleeAtk02"],
        "flagTargetReachable": "10",
        "flagSelfOnTemplateCollider": "01",
        "flagSelfInZone": "11",
        "flagTargetInZone": "11"
      },
      "401": {
        "name": "Improve",
        "priority": 1,
        "castCondition": {
          "pose": [111]
        },
        "cd": 4.0,
        "publicCDGroup": "",
        "ignoreGCD": true,
        "triggerGCD": false,
        "triggerCDOnFail": false,
        "HHAGODJIAPE": "",
        "stateIDs": ["Improve"],
        "skillQueryingTime": 3.0,
        "flagTargetReachable": "11",
        "flagSelfOnTemplateCollider": "11",
        "flagSelfInZone": "11",
        "flagTargetInZone": "11"
      },
      "402": {
        "name": "Improve",
        "priority": 1,
        "castCondition": {
          "pose": [102]
        },
        "cd": 30.0,
        "initialCD": 30.0,
        "publicCDGroup": "",
        "ignoreGCD": true,
        "triggerGCD": false,
        "triggerCDOnFail": false,
        "HHAGODJIAPE": "",
        "stateIDs": ["Improve"],
        "skillQueryingTime": 3.0,
        "flagTargetReachable": "11",
        "flagSelfOnTemplateCollider": "11",
        "flagSelfInZone": "11",
        "flagTargetInZone": "11"
      }
    },
    "skillGCD": 2.0,
    "birdCirclingTactic": [
      {
        "$type": "EPHBMLFODKF",
        "enable": true,
        "condition": {
          "pose": [101, 102, 201]
        },
        "JMCOBEPDIGM": {
          "rangeMax": 15.0,
          "ALIBHHJHHMN": 1.2000000476837158,
          "OMHBOLPFEPM": 1.0,
          "BFJBDDIIFOI": {
            "LLICGJHIGME": 2.0,
            "IDEFILBHNAP": 6.0,
            "IBLIPJPNOGC": 0.5,
            "AEBLMKFNCDG": 3.0,
            "IGLIBIOEGBB": 3.0
          },
          "NAOBMNGDKHL": "1111",
          "JCNIJOAIGII": "1111",
          "MNPDDAKDHGK": ""
        }
      },
      {
        "$type": "ABEPKCNGAFC",
        "enable": true,
        "JMCOBEPDIGM": {
          "ANLAAGAMIKF": 1,
          "triggerDistance": 4.0,
          "MMGOBGGLBJO": 75.0,
          "KAIGBDPLNMO": 3.0,
          "BMIEPFCPFGN": 5.0,
          "MFLJNGFAPDH": 0.5,
          "MNPDDAKDHGK": ""
        }
      },
      {
        "$type": "OJOBEDCMGKM",
        "enable": true,
        "condition": {
          "pose": [1]
        }
      },
      {
        "$type": "KACCHOLJDNK",
        "enable": true,
        "condition": {
          "pose": [101, 102, 201]
        },
        "JMCOBEPDIGM": {
          "KHDFDAAAPEI": 8.0,
          "HKJODDGJPHA": 99.0,
          "GGEBMFHFBPO": 3.0,
          "KFFGCIMPNMJ": 3.0,
          "MNPDDAKDHGK": ""
        }
      },
      {
        "$type": "NNJKLGNPMNN",
        "enable": true,
        "JMCOBEPDIGM": {
          "MNPDDAKDHGK": "",
          "GJDMDHIBCME": ""
        }
      },
      {
        "$type": "FPELBIJFGCE",
        "enable": true,
        "condition": {
          "pose": [1]
        },
        "JMCOBEPDIGM": {
          "NBENNEKDIIA": 1.0,
          "KPNDPKIOPJM": 5.0,
          "PINAFKEDDLL": 2.5,
          "ANMPOPEBDIA": 15.0,
          "GMJFIMFFOEL": 4.0,
          "CHCPFDMADEI": 6.0,
          "MNPDDAKDHGK": ""
        }
      }
    ]
  },
  "inputKeys": [
    {
      "keyID": 201,
      "inputKeyCode": 258,
      "abilityName": ""
    },
    {
      "keyID": 202,
      "inputKeyCode": 259,
      "abilityName": ""
    },
    {
      "keyID": 203,
      "inputKeyCode": 260,
      "abilityName": ""
    },
    {
      "keyID": 211,
      "inputKeyCode": 261,
      "abilityName": ""
    },
    {
      "keyID": 301,
      "inputKeyCode": 262,
      "abilityName": ""
    },
    {
      "keyID": 302,
      "inputKeyCode": 263,
      "abilityName": ""
    },
    {
      "keyID": 311,
      "inputKeyCode": 264,
      "abilityName": ""
    },
    {
      "keyID": 322,
      "inputKeyCode": 265,
      "abilityName": ""
    },
    {
      "keyID": 401,
      "inputKeyCode": 266,
      "abilityName": ""
    }
  ],
  "move": {
    "$type": "IPNMJMHDMPF",
    "facingMove": "FourDirection",
    "monsterSizeType": "StoopType",
    "positionModifyExtra": true,
    "PKHOMJHFAEE": "RootNode"
  },
  "audio": {
    "overrideEmitterName": "",
    "animAudio": {
      "onTransitionIn": [
        {
          "currentStateName": "",
          "audioEvent": {
            "text": ""
          }
        }
      ],
      "onTransitionOut": [
        {
          "currentStateName": "Exercise",
          "audioEvent": {
            "text": "Stop_sfx_monster_Eremite_Male_Standard_Polearm_exercise"
          }
        }
      ]
    }
  }
}
