{
  "common": {
    "effectAttachShape": {
      "$type": "FJNPJANPGGC",
      "mesh": "EffectMesh"
    },
    "mass": 999999.0,
    "height": 1.2000000476837158,
    "viewSize": 1.600000023841858,
    "affectedByWorld": true,
    "checkInSurface": true,
    "shouldPauseAnimatorBeforeReady": true,
    "canTriggerElementReactionText": false,
    "useGrassDisplacement": true,
    "reconnectSupport": true,
    "recoverByInitPose": true
  },
  "headControl": {
    "$type": "KPIPDEBDPIH",
    "useHeadControl": true,
    "animStates": [
      "StandbyOnGround/StandbyOnGround",
      "Sit/Sit",
      "StandInWater/StandInWater",
      "NormalMove/Walk"
    ]
  },
  "model": {
    "bornEffect": "",
    "attachEffect": "",
    "BKPFGNPLDNJ": ""
  },
  "dither": {
    "showDitherDuration": 1.0
  },
  "combat": {
    "property": {
      "endureType": "Monster_Minion",
      "weight": 80.0,
      "isInvincible": true
    },
    "beHit": {
      "hitBloodEffect": "",
      "muteAllHitText": true
    },
    "combatLock": {
      "lockShape": "CircleLockEnemy",
      "lockType": "Animal_Lv2"
    },
    "die": {
      "dieEndTime": 2.0,
      "dieForceDisappearTime": 10.0,
      "dieDisappearEffect": ""
    }
  },
  "abilities": [
    {
      "abilityID": "CommonInitial",
      "abilityName": "Animal_Common_Initial",
      "abilityOverride": ""
    },
    {
      "abilityID": "",
      "abilityName": "Animal_Capybara_TitEffect",
      "abilityOverride": ""
    },
    {
      "abilityID": "",
      "abilityName": "Animal_Capybara_ToStandby",
      "abilityOverride": ""
    },
    {
      "abilityID": "",
      "abilityName": "Animal_Capybara_ToSit",
      "abilityOverride": ""
    },
    {
      "abilityID": "",
      "abilityName": "Animal_Capybara_ToLie",
      "abilityOverride": ""
    }
  ],
  "stateLayers": {
    "defaultLayer": {
      "$type": "GBGJJIIEMBD",
      "layerIndexName": "",
      "CPAANEIJCGD": "",
      "stateIDs": {
        "Born": {
          "$type": "NEDIFAKEGCO",
          "animatorStates": {
            "Born": []
          },
          "canDoSkill": true,
          "resetAnimatorTriggerOnExit": ["DoSkill"]
        },
        "StandbyOnGround": {
          "$type": "NEDIFAKEGCO",
          "animatorStates": {
            "StandbyOnGround": []
          },
          "canDoSkill": true,
          "canSyncMove": true,
          "resetAnimatorTriggerOnExit": ["DoSkill"]
        },
        "Sit": {
          "$type": "NEDIFAKEGCO",
          "animatorStates": {
            "Sit": []
          },
          "canDoSkill": true,
          "canSyncMove": true,
          "resetAnimatorTriggerOnExit": ["DoSkill"]
        },
        "Lie": {
          "$type": "NEDIFAKEGCO",
          "animatorStates": {
            "Lie": [],
            "Lie_Bird": ["Animal_Capybara_Lie"]
          },
          "canDoSkill": true,
          "canSyncMove": true,
          "resetAnimatorTriggerOnExit": ["DoSkill"]
        },
        "NormalMove": {
          "$type": "NEDIFAKEGCO",
          "animatorStates": {
            "Walk": ["Audio_Animal_Capybara_Run"]
          },
          "canDoSkill": true,
          "canSyncMove": true,
          "resetAnimatorTriggerOnExit": ["DoSkill"],
          "canSteer": true
        },
        "Dodge": {
          "$type": "NEDIFAKEGCO",
          "animatorStates": {
            "Dodge": []
          },
          "resetAnimatorTriggerOnEnter": ["BeHit", "BeHitTrigger"],
          "resetAnimatorTriggerOnExit": ["DoSkill"],
          "canSteer": true,
          "autoSteer": true
        },
        "Die": {
          "$type": "NEDIFAKEGCO",
          "animatorStates": {
            "Die": ["Animal_Boar_Die", "Audio_Animal_Capybara_Hit_L"]
          },
          "resetAnimatorTriggerOnEnter": ["DoSkill"]
        },
        "StandbyToSit": {
          "$type": "NEDIFAKEGCO",
          "animatorStates": {
            "StandbyToSit": [
              "Animal_Capybara_ToSit",
              "Audio_Animal_Capybara_StandbyToSit"
            ]
          },
          "canDoSkill": true,
          "resetAnimatorTriggerOnExit": ["BeHit", "DoSkill"]
        },
        "SitToStandby": {
          "$type": "NEDIFAKEGCO",
          "animatorStates": {
            "SitToStandby": [
              "Animal_Capybara_ToStandby",
              "Audio_Animal_Capybara_SitToStandby"
            ]
          },
          "canDoSkill": true,
          "resetAnimatorTriggerOnExit": ["BeHit", "DoSkill"]
        },
        "StandbyToLie": {
          "$type": "NEDIFAKEGCO",
          "animatorStates": {
            "StandbyToLie": [
              "Animal_Capybara_ToLie",
              "Audio_Animal_Capybara_StandbyToLie"
            ]
          },
          "canDoSkill": true,
          "resetAnimatorTriggerOnExit": ["BeHit", "DoSkill"]
        },
        "LieToStandby": {
          "$type": "NEDIFAKEGCO",
          "animatorStates": {
            "LieToStandby_BS": [
              "Animal_Capybara_ToStandby",
              "Animal_Capybara_LieToStandby"
            ],
            "LieToStandby": ["Audio_Animal_Capybara_LieToStandby"]
          },
          "canDoSkill": true,
          "resetAnimatorTriggerOnExit": ["BeHit", "DoSkill"]
        },
        "SitToLie": {
          "$type": "NEDIFAKEGCO",
          "animatorStates": {
            "SitToLie": [
              "Animal_Capybara_ToLie",
              "Audio_Animal_Capybara_StandbyToLie"
            ]
          },
          "canDoSkill": true,
          "resetAnimatorTriggerOnExit": ["BeHit", "DoSkill"]
        },
        "LieToSit": {
          "$type": "NEDIFAKEGCO",
          "animatorStates": {
            "LieToSit_BS": [
              "Animal_Capybara_ToSit",
              "Animal_Capybara_LieToSit"
            ],
            "LieToSit": ["Audio_Animal_Capybara_StandbyToSit"]
          },
          "canDoSkill": true,
          "resetAnimatorTriggerOnExit": ["BeHit", "DoSkill"]
        },
        "Aware": {
          "$type": "NEDIFAKEGCO",
          "animatorStates": {
            "Aware": ["Audio_Animal_Capybara_Aware"]
          },
          "canDoSkill": true,
          "resetAnimatorTriggerOnExit": ["BeHit", "DoSkill"]
        },
        "Scratch": {
          "$type": "NEDIFAKEGCO",
          "animatorStates": {
            "Scratch": ["Audio_Animal_Capybara_Scratch"]
          },
          "canDoSkill": true,
          "resetAnimatorTriggerOnExit": ["BeHit", "DoSkill"]
        }
      }
    }
  },
  "initialPoses": {
    "Default": {
      "initialPoseID": 1
    }
  },
  "aibeta": {
    "enable": true,
    "friendliness": 1,
    "decisionArchetype": "Animal_Homeworld",
    "sensing": {
      "settings": {
        "DefaultSetting": {
          "enableVision": false,
          "hearAttractionRange": 0.0,
          "feelRange": 0.0
        }
      },
      "templates": {
        "DefaultTemplate": {
          "DefaultPoses": "DefaultSetting"
        },
        "NeverCombatTemplate": {
          "DefaultPoses": "NeverCombat"
        }
      }
    },
    "neurons": {
      "DefaultSetting": ["HIT"],
      "NeverCombat": []
    },
    "threat": {
      "GHIJMOKOLMB": "",
      "clearThreatTargetDistance": 15.0,
      "clearThreatTimerByDistance": 1.0,
      "hearThreatGrow": 200.0,
      "threatDecreaseSpeed": 500.0,
      "viewAttenuation": [
        {
          "x": 10.0,
          "y": 10.0
        },
        {
          "x": 12.5,
          "y": 10.0
        },
        {
          "x": 15.0,
          "y": 2.0
        },
        {
          "x": 20.0,
          "y": -1.0
        },
        {
          "x": 25.0,
          "y": -2.0
        },
        {
          "x": 30.0,
          "y": -2.0
        }
      ]
    },
    "defendArea": {
      "defendRange": 100.0
    },
    "poseControl": {
      "items": [
        {
          "minTime": 30.0,
          "maxTime": 60.0,
          "poseID": 4,
          "randomPose": [1],
          "switchOnlyInCanDoSkillState": true
        }
      ]
    },
    "ui": {
      "hasDirectionIndicator": false,
      "HMNNBFDEHLG": ""
    },
    "profiling": {
      "lodStrategy": "Best"
    },
    "skillGroupCDConfigs": [
      {
        "skillGroupCDID": 0,
        "skillGroupCDTime": 22.5
      }
    ],
    "skills": {
      "101": {
        "name": "StandbyToSit",
        "skillType": "Free",
        "priority": 1,
        "canUseCombatSkillCondition": true,
        "castCondition": {
          "pose": [1],
          "needReInitCD": true
        },
        "cd": 17.5,
        "cdUpperRange": 7.5,
        "initialCD": 10.0,
        "initialCDUpperRange": 10.5,
        "publicCDGroup": "",
        "HHAGODJIAPE": "",
        "stateIDs": ["StandbyToSit"],
        "flagTargetReachable": "11",
        "flagSelfOnTemplateCollider": "01",
        "flagSelfInZone": "10",
        "flagTargetInZone": "11"
      },
      "102": {
        "name": "StandbyToSit",
        "priority": 1,
        "canUseCombatSkillCondition": true,
        "castCondition": {
          "pose": [1],
          "needReInitCD": true
        },
        "cd": 10.5,
        "cdUpperRange": 7.5,
        "initialCD": 10.0,
        "initialCDUpperRange": 10.5,
        "publicCDGroup": "",
        "HHAGODJIAPE": "",
        "stateIDs": ["StandbyToSit"],
        "flagTargetReachable": "11",
        "flagSelfOnTemplateCollider": "01",
        "flagSelfInZone": "10",
        "flagTargetInZone": "11"
      },
      "111": {
        "name": "SitToStandby",
        "skillType": "Free",
        "priority": 1,
        "canUseCombatSkillCondition": true,
        "castCondition": {
          "pose": [2],
          "needReInitCD": true
        },
        "cd": 17.5,
        "cdUpperRange": 7.5,
        "initialCD": 15.0,
        "initialCDUpperRange": 10.5,
        "publicCDGroup": "",
        "HHAGODJIAPE": "",
        "stateIDs": ["SitToStandby"],
        "flagTargetReachable": "11",
        "flagSelfOnTemplateCollider": "01",
        "flagSelfInZone": "10",
        "flagTargetInZone": "11"
      },
      "112": {
        "name": "SitToStandby",
        "priority": 1,
        "canUseCombatSkillCondition": true,
        "castCondition": {
          "pose": [2],
          "needReInitCD": true
        },
        "cd": 10.5,
        "cdUpperRange": 7.5,
        "initialCD": 15.0,
        "initialCDUpperRange": 10.5,
        "publicCDGroup": "",
        "HHAGODJIAPE": "",
        "stateIDs": ["SitToStandby"],
        "flagTargetReachable": "11",
        "flagSelfOnTemplateCollider": "01",
        "flagSelfInZone": "10",
        "flagTargetInZone": "11"
      },
      "121": {
        "name": "StandbyToLie",
        "skillType": "Free",
        "priority": 1,
        "canUseCombatSkillCondition": true,
        "castCondition": {
          "pose": [1],
          "needReInitCD": true
        },
        "cd": 17.5,
        "cdUpperRange": 7.5,
        "initialCD": 10.0,
        "initialCDUpperRange": 10.5,
        "publicCDGroup": "",
        "HHAGODJIAPE": "",
        "stateIDs": ["StandbyToLie"],
        "flagTargetReachable": "11",
        "flagSelfOnTemplateCollider": "01",
        "flagSelfInZone": "10",
        "flagTargetInZone": "11"
      },
      "122": {
        "name": "StandbyToLie",
        "priority": 1,
        "canUseCombatSkillCondition": true,
        "castCondition": {
          "pose": [1],
          "needReInitCD": true
        },
        "cd": 10.5,
        "cdUpperRange": 7.5,
        "initialCD": 10.0,
        "initialCDUpperRange": 10.5,
        "publicCDGroup": "",
        "HHAGODJIAPE": "",
        "stateIDs": ["StandbyToLie"],
        "flagTargetReachable": "11",
        "flagSelfOnTemplateCollider": "01",
        "flagSelfInZone": "10",
        "flagTargetInZone": "11"
      },
      "131": {
        "name": "LieToStandby",
        "skillType": "Free",
        "priority": 1,
        "canUseCombatSkillCondition": true,
        "castCondition": {
          "pose": [3],
          "needReInitCD": true
        },
        "cd": 17.5,
        "cdUpperRange": 7.5,
        "initialCD": 15.0,
        "initialCDUpperRange": 10.5,
        "publicCDGroup": "",
        "HHAGODJIAPE": "",
        "stateIDs": ["LieToStandby"],
        "flagTargetReachable": "11",
        "flagSelfOnTemplateCollider": "01",
        "flagSelfInZone": "10",
        "flagTargetInZone": "11"
      },
      "132": {
        "name": "LieToStandby",
        "priority": 1,
        "canUseCombatSkillCondition": true,
        "castCondition": {
          "pose": [3],
          "needReInitCD": true
        },
        "cd": 17.5,
        "cdUpperRange": 7.5,
        "initialCD": 20.0,
        "initialCDUpperRange": 10.5,
        "publicCDGroup": "",
        "HHAGODJIAPE": "",
        "stateIDs": ["LieToStandby"],
        "flagTargetReachable": "11",
        "flagSelfOnTemplateCollider": "01",
        "flagSelfInZone": "10",
        "flagTargetInZone": "11"
      },
      "141": {
        "name": "SitToLie",
        "skillType": "Free",
        "priority": 1,
        "canUseCombatSkillCondition": true,
        "castCondition": {
          "pose": [2],
          "needReInitCD": true
        },
        "cd": 10.5,
        "cdUpperRange": 7.5,
        "initialCD": 10.0,
        "initialCDUpperRange": 10.5,
        "publicCDGroup": "",
        "HHAGODJIAPE": "",
        "stateIDs": ["SitToLie"],
        "flagTargetReachable": "11",
        "flagSelfOnTemplateCollider": "01",
        "flagSelfInZone": "10",
        "flagTargetInZone": "11"
      },
      "142": {
        "name": "SitToLie",
        "priority": 1,
        "canUseCombatSkillCondition": true,
        "castCondition": {
          "pose": [2],
          "needReInitCD": true
        },
        "cd": 10.5,
        "cdUpperRange": 7.5,
        "initialCD": 10.0,
        "initialCDUpperRange": 10.5,
        "publicCDGroup": "",
        "HHAGODJIAPE": "",
        "stateIDs": ["SitToLie"],
        "flagTargetReachable": "11",
        "flagSelfOnTemplateCollider": "01",
        "flagSelfInZone": "10",
        "flagTargetInZone": "11"
      },
      "151": {
        "name": "LieToSit",
        "skillType": "Free",
        "priority": 1,
        "canUseCombatSkillCondition": true,
        "castCondition": {
          "pose": [3],
          "needReInitCD": true
        },
        "cd": 17.5,
        "cdUpperRange": 7.5,
        "initialCD": 20.0,
        "initialCDUpperRange": 10.5,
        "publicCDGroup": "",
        "HHAGODJIAPE": "",
        "stateIDs": ["LieToSit"],
        "flagTargetReachable": "11",
        "flagSelfOnTemplateCollider": "01",
        "flagSelfInZone": "10",
        "flagTargetInZone": "11"
      },
      "152": {
        "name": "LieToSit",
        "priority": 1,
        "canUseCombatSkillCondition": true,
        "castCondition": {
          "pose": [3],
          "needReInitCD": true
        },
        "cd": 17.5,
        "cdUpperRange": 7.5,
        "initialCD": 20.0,
        "initialCDUpperRange": 10.5,
        "publicCDGroup": "",
        "HHAGODJIAPE": "",
        "stateIDs": ["LieToSit"],
        "flagTargetReachable": "11",
        "flagSelfOnTemplateCollider": "01",
        "flagSelfInZone": "10",
        "flagTargetInZone": "11"
      },
      "201": {
        "name": "Aware",
        "skillType": "Free",
        "priority": 1,
        "canUseCombatSkillCondition": true,
        "castCondition": {
          "pose": [1],
          "needReInitCD": true
        },
        "cd": 8.5,
        "cdUpperRange": 7.5,
        "initialCD": 4.0,
        "initialCDUpperRange": 3.5,
        "publicCDGroup": "",
        "HHAGODJIAPE": "",
        "stateIDs": ["Aware"],
        "flagTargetReachable": "11",
        "flagSelfOnTemplateCollider": "01",
        "flagSelfInZone": "10",
        "flagTargetInZone": "11"
      },
      "202": {
        "name": "Aware",
        "priority": 1,
        "canUseCombatSkillCondition": true,
        "castCondition": {
          "pose": [1],
          "needReInitCD": true
        },
        "cd": 8.5,
        "cdUpperRange": 7.5,
        "initialCD": 4.0,
        "initialCDUpperRange": 3.5,
        "publicCDGroup": "",
        "HHAGODJIAPE": "",
        "stateIDs": ["Aware"],
        "flagTargetReachable": "11",
        "flagSelfOnTemplateCollider": "01",
        "flagSelfInZone": "10",
        "flagTargetInZone": "11"
      },
      "301": {
        "name": "Scratch",
        "skillType": "Free",
        "priority": 3,
        "canUseCombatSkillCondition": true,
        "castCondition": {
          "pose": [3],
          "needReInitCD": true
        },
        "cd": 25.5,
        "cdUpperRange": 7.5,
        "initialCD": 10.0,
        "initialCDUpperRange": 10.5,
        "publicCDGroup": "",
        "HHAGODJIAPE": "",
        "stateIDs": ["Scratch"],
        "flagTargetReachable": "11",
        "flagSelfOnTemplateCollider": "01",
        "flagSelfInZone": "10",
        "flagTargetInZone": "11"
      },
      "302": {
        "name": "Scratch",
        "priority": 3,
        "canUseCombatSkillCondition": true,
        "castCondition": {
          "pose": [3],
          "needReInitCD": true
        },
        "cd": 25.5,
        "cdUpperRange": 7.5,
        "initialCD": 10.0,
        "initialCDUpperRange": 10.5,
        "publicCDGroup": "",
        "HHAGODJIAPE": "",
        "stateIDs": ["Scratch"],
        "flagTargetReachable": "11",
        "flagSelfOnTemplateCollider": "01",
        "flagSelfInZone": "10",
        "flagTargetInZone": "11"
      }
    },
    "skillGCD": 5.0,
    "mixin": {
      "setControllerParameterOnBeHitByEntityType": [
        {
          "poseIDs": [1, 2, 3, 4],
          "settings": [
            {
              "entityTypes": ["Avatar", "Monster", "Gadget", "Bullet"],
              "onSuccess": {
                "setPoseInt": [
                  {
                    "intID": "RandomPose",
                    "value": 4
                  }
                ],
                "setAnimatorTrigger": [
                  {
                    "triggerID": "BeHitTrigger"
                  }
                ]
              },
              "onFail": {
                "setPoseInt": [
                  {
                    "intID": "RandomPose",
                    "value": 4
                  }
                ],
                "setAnimatorTrigger": [
                  {
                    "triggerID": "BeHitTrigger"
                  }
                ]
              }
            }
          ]
        }
      ]
    },
    "birdCirclingTactic": [
      {
        "$type": "AOMGMAHGNIO"
      },
      {
        "$type": "ODHNBPJLGHF",
        "enable": true,
        "condition": {
          "pose": [1, 2, 3, 4]
        },
        "nerveTrigger": ["HIT"],
        "JMCOBEPDIGM": {
          "ANLAAGAMIKF": 1,
          "NBENNEKDIIA": 1.0,
          "cd": 3.0,
          "triggerDistance": 0.0,
          "KAIGBDPLNMO": 5.0,
          "BMIEPFCPFGN": 6.0,
          "MNPDDAKDHGK": ""
        }
      },
      {
        "$type": "NNJKLGNPMNN",
        "enable": true,
        "JMCOBEPDIGM": {
          "ANLAAGAMIKF": 1,
          "MNPDDAKDHGK": "",
          "GJDMDHIBCME": ""
        }
      },
      {
        "$type": "FPELBIJFGCE",
        "enable": true,
        "condition": {
          "pose": [1, 4]
        },
        "JMCOBEPDIGM": {
          "NBENNEKDIIA": 0.25,
          "KPNDPKIOPJM": 17.5,
          "PINAFKEDDLL": 12.5,
          "ANMPOPEBDIA": 10.0,
          "GMJFIMFFOEL": 3.0,
          "CHCPFDMADEI": 5.0,
          "MNPDDAKDHGK": ""
        }
      }
    ]
  },
  "inputKeys": [
    {
      "keyID": 1,
      "inputKeyCode": 257,
      "abilityName": ""
    },
    {
      "keyID": 101,
      "inputKeyCode": 258,
      "abilityName": ""
    },
    {
      "keyID": 111,
      "inputKeyCode": 259,
      "abilityName": ""
    },
    {
      "keyID": 201,
      "inputKeyCode": 260,
      "abilityName": ""
    },
    {
      "keyID": 211,
      "inputKeyCode": 261,
      "abilityName": ""
    },
    {
      "keyID": 301,
      "inputKeyCode": 262,
      "abilityName": ""
    },
    {
      "keyID": 401,
      "inputKeyCode": 263,
      "abilityName": ""
    }
  ],
  "move": {
    "$type": "IPNMJMHDMPF",
    "velocityForce": {
      "excludeForces": ["RetreatType", "RetreatAirType"]
    },
    "initWithGroundHitCheckV2": false,
    "monsterSizeType": "SlimeType",
    "yawSpeedRatio": 2.0,
    "PKHOMJHFAEE": "RootNode",
    "JNAPCJLHJDO": true
  },
  "animal": {
    "tickAbilityElement": false,
    "hasCharacterRenderering": false
  },
  "captureGroup": {
    "defaultConfig": {
      "captureEffect": "Eff_SceneObj_CatchAnimal_CaughtSuccess"
    }
  }
}
