{
  "common": {
    "effectAttachShape": {
      "$type": "FJNPJANPGGC",
      "mesh": "EffectMesh"
    },
    "mass": 80.0,
    "height": 1.2999999523162842,
    "modelHeight": 1.2999999523162842,
    "viewSize": 1.2000000476837158,
    "shouldPauseAnimatorBeforeReady": true,
    "reconnectSupport": true,
    "recoverByInitPose": true
  },
  "model": {
    "bornEffect": "Eff_Monster_Common_Born",
    "attachEffect": "",
    "canBakeMesh": false,
    "BKPFGNPLDNJ": ""
  },
  "dither": {
    "showDitherDuration": 2.0,
    "hideEffectWhenDither": true
  },
  "combat": {
    "property": {
      "endureType": "Monster_Demiboss_Humanoid",
      "weight": 125.0
    },
    "beHit": {
      "hitBloodEffect": ""
    },
    "combatLock": {
      "lockShape": "CircleLockEnemy",
      "lockType": "Avatar&Monster_Lv4"
    },
    "die": {
      "fallWhenAirDie": false,
      "dieEndTime": 1.100000023841858,
      "dieForceDisappearTime": 3.0,
      "dieDisappearEffect": "Eff_Death_Common",
      "dieDisappearEffectDelay": 1.100000023841858,
      "dieShaderData": "MonsterDie",
      "useRagDoll": true,
      "ragDollDieEndTimeDelay": 1.0,
      "muteHitBox": true,
      "dieDenyLockOn": true,
      "dieIsGhostToEnemy": true,
      "dieIgnoreTriggerBullet": true,
      "muteBillboard": true,
      "mutePushCollider": true
    }
  },
  "abilities": [
    {
      "abilityID": "",
      "abilityName": "Monster_MachinaIustitia_Recon_Pose",
      "abilityOverride": ""
    },
    {
      "abilityID": "",
      "abilityName": "Monster_MachinaIustitia_CoilHanler",
      "abilityOverride": ""
    },
    {
      "abilityID": "",
      "abilityName": "Monster_MachinaIustitia_Recon_CoilEffect",
      "abilityOverride": ""
    },
    {
      "abilityID": "",
      "abilityName": "Monster_MachinaIustitia_Recon_Steer",
      "abilityOverride": ""
    },
    {
      "abilityID": "",
      "abilityName": "Monster_MachinaIustitia_Recon_SirenEffect_ColorHandler",
      "abilityOverride": ""
    },
    {
      "abilityID": "",
      "abilityName": "Monster_MachinaIustitia_Recon_SirenEffect_StateHandler",
      "abilityOverride": ""
    },
    {
      "abilityID": "",
      "abilityName": "Monster_MachinaIustitia_Recon_ScanEffect_Add",
      "abilityOverride": ""
    },
    {
      "abilityID": "",
      "abilityName": "Monster_MachinaIustitia_Recon_ScanEffect_Remove",
      "abilityOverride": ""
    },
    {
      "abilityID": "",
      "abilityName": "Monster_MachinaIustitia_Recon_Alert",
      "abilityOverride": ""
    },
    {
      "abilityID": "",
      "abilityName": "Monster_MachinaIustitia_Recon_ExitBattle",
      "abilityOverride": ""
    },
    {
      "abilityID": "",
      "abilityName": "FauneAbyssale_Universal_UnderwaterSettings",
      "abilityOverride": ""
    },
    {
      "abilityID": "",
      "abilityName": "Monster_MachinaIustitia_Recon_RushAtk",
      "abilityOverride": ""
    },
    {
      "abilityID": "",
      "abilityName": "Monster_MachinaIustitia_Recon_RushAtk_End",
      "abilityOverride": ""
    },
    {
      "abilityID": "",
      "abilityName": "Monster_MachinaIustitia_Recon_Recover",
      "abilityOverride": ""
    },
    {
      "abilityID": "",
      "abilityName": "Monster_MachinaIustitia_Recover_Effect_Pneuma",
      "abilityOverride": ""
    },
    {
      "abilityID": "",
      "abilityName": "Monster_MachinaIustitia_Recon_HitSpecial",
      "abilityOverride": ""
    }
  ],
  "stateLayers": {
    "defaultLayer": {
      "$type": "GBGJJIIEMBD",
      "layerIndexName": "",
      "CPAANEIJCGD": "",
      "stateIDs": {
        "NormalIdle": {
          "$type": "NEDIFAKEGCO",
          "animatorStates": {
            "Standby": [],
            "Born": []
          },
          "canDoSkill": true,
          "canSyncMove": true,
          "resetAnimatorTriggerOnExit": ["DoSkill"]
        },
        "Collect1": {
          "$type": "NEDIFAKEGCO",
          "animatorStates": {
            "Collect1": []
          },
          "canDoSkill": true,
          "resetAnimatorTriggerOnExit": ["DoSkill"]
        },
        "Collect2": {
          "$type": "NEDIFAKEGCO",
          "animatorStates": {
            "Collect2": []
          },
          "canDoSkill": true,
          "resetAnimatorTriggerOnExit": ["DoSkill"]
        },
        "NormalMove": {
          "$type": "NEDIFAKEGCO",
          "animatorStates": {
            "WalkForward": ["Audio_Monster_MachinaIustitia_Recon_Walk"]
          },
          "canDoSkill": true,
          "canSyncMove": true,
          "resetAnimatorTriggerOnExit": ["DoSkill"],
          "canSteer": true,
          "GGODGEGHPJD": true
        },
        "Run": {
          "$type": "NEDIFAKEGCO",
          "animatorStates": {
            "Run": ["Audio_Monster_MachinaIustitia_Recon_Walk"]
          },
          "canDoSkill": true,
          "canSyncMove": true,
          "resetAnimatorTriggerOnExit": ["DoSkill"],
          "setAnimatorFloat": [
            {
              "name": "FlyMotionHor",
              "normalizeEnd": 0.0
            },
            {
              "name": "FlyMotionVer",
              "normalizeEnd": 0.0
            }
          ],
          "blendMove": "BlendMove3D"
        },
        "Turn": {
          "$type": "NEDIFAKEGCO",
          "animatorStates": {
            "TurnLeft": [],
            "TurnRight": []
          },
          "canDoSkill": true,
          "canSyncMove": true,
          "resetAnimatorTriggerOnExit": ["DoSkill"],
          "canSteer": true,
          "GGODGEGHPJD": true
        },
        "HitSpecial": {
          "$type": "NEDIFAKEGCO",
          "animatorStates": {
            "HitSpecial": ["Audio_Monster_MachinaIustitia_Recon_HitSpecial"]
          },
          "resetAnimatorTriggerOnExit": ["BeHit", "DoSkill"]
        },
        "Die": {
          "$type": "NEDIFAKEGCO",
          "animatorStates": {
            "Die": ["Audio_Monster_MachinaIustitia_Recon_Die"]
          },
          "resetAnimatorTriggerOnEnter": ["DoSkill"]
        },
        "Die_RagDoll": {
          "$type": "NEDIFAKEGCO",
          "animatorStates": {
            "Die_RagDoll": []
          },
          "resetAnimatorTriggerOnEnter": ["DoSkill"],
          "enableRagDoll": true
        },
        "Alert": {
          "$type": "NEDIFAKEGCO",
          "animatorStates": {
            "Alert": [
              "Monster_MachinaIustitia_Recon_Alert",
              "Audio_Monster_MachinaIustitia_Recon_Alert"
            ]
          },
          "resetAnimatorTriggerOnExit": ["BeHit", "DoSkill"]
        },
        "Life_Collect": {
          "$type": "NEDIFAKEGCO",
          "animatorStates": {
            "Collect": [
              "Monster_MachinaIustitia_Recon_Collet_Scan",
              "Audio_Monster_MachinaIustitia_Recon_Collect"
            ]
          },
          "canDoSkill": true,
          "resetAnimatorTriggerOnExit": ["BeHit", "DoSkill"]
        },
        "RushAtk": {
          "$type": "NEDIFAKEGCO",
          "animatorStates": {
            "RushAtk": [
              "Monster_MachinaIustitia_Recon_RushAtk",
              "Audio_Monster_MachinaIustitia_Recon_RushAtk"
            ]
          },
          "resetAnimatorTriggerOnExit": ["BeHit", "DoSkill"],
          "canSteer": true
        },
        "Recover": {
          "$type": "NEDIFAKEGCO",
          "animatorStates": {
            "Recover": ["Monster_MachinaIustitia_Recon_Recover"]
          },
          "resetAnimatorTriggerOnExit": ["BeHit", "DoSkill"],
          "canSteer": true
        }
      }
    }
  },
  "billboard": {
    "$type": "DNGNMAJBCNP",
    "attachPoint": "BillboardAttach",
    "offset": {
      "y": -0.15000000596046448
    },
    "offsetType": "Character",
    "radiusOffset": 1.0,
    "enableSelfAdapt": true,
    "showHPBar": true,
    "forceShowDistance": 25.0
  },
  "initialPoses": {
    "Default": {
      "initialPoseID": 1,
      "initialPoseParams": {
        "boolParams": {
          "Collect1": "false",
          "Collect2": "false",
          "NoCollect": "false"
        }
      }
    },
    "Collect1": {
      "initialPoseID": 9001,
      "initialPoseParams": {
        "boolParams": {
          "Collect1": "true"
        }
      }
    },
    "Collect2": {
      "initialPoseID": 9002,
      "initialPoseParams": {
        "boolParams": {
          "Collect2": "true"
        }
      }
    },
    "NoCollect": {
      "initialPoseID": 9003,
      "initialPoseParams": {
        "boolParams": {
          "NoCollect": "true"
        }
      }
    }
  },
  "aibeta": {
    "enable": true,
    "moveSetting": {
      "moveCategory": "Dive",
      "useNavMesh": false,
      "useToTheMoon": true,
      "navMeshAgentName": "Undead01"
    },
    "sensing": {
      "settings": {
        "DefaultSetting": {
          "viewRange": 15.0,
          "feelRange": 8.0
        },
        "Collect": {
          "enableVision": false,
          "viewRange": 0.0,
          "hearAttractionRange": 0.0,
          "feelRange": 0.0
        },
        "NormalCombat": {
          "viewRange": 15.0,
          "viewPanoramic": true,
          "feelRange": 8.0
        }
      },
      "templates": {
        "DefaultTemplate": {
          "DefaultPoses": "DefaultSetting",
          "101": "NormalCombat",
          "102": "NormalCombat",
          "201": "NormalCombat",
          "301": "NormalCombat"
        },
        "CollectTemplate": {
          "DefaultPoses": "DefaultSetting",
          "9001": "Collect",
          "9002": "Collect",
          "101": "NormalCombat",
          "102": "NormalCombat",
          "201": "NormalCombat",
          "301": "NormalCombat"
        }
      }
    },
    "neurons": {
      "DefaultSetting": ["HIT"]
    },
    "threat": {
      "GHIJMOKOLMB": "",
      "clearThreatByLostPath": true,
      "clearThreatTimerByLostPath": 6.0,
      "viewAttenuation": [
        {
          "x": 10.0,
          "y": 2.0
        },
        {
          "x": 15.0,
          "y": 0.800000011920929
        },
        {
          "x": 20.0,
          "y": 0.5
        },
        {
          "x": 25.0,
          "y": 0.30000001192092896
        },
        {
          "x": 30.0,
          "y": 0.20000000298023224
        }
      ],
      "resistTauntLevel": "Monster_TauntLevel_2"
    },
    "defendArea": {
      "defendRange": 50.0
    },
    "fly": {
      "enable": true,
      "IPJLPEHKCJA": [1, 11, 21, 101, 102, 201, 301, 901, 9001, 9002, 9003]
    },
    "profiling": {},
    "skillGroupCDConfigs": [
      {
        "skillGroupCDID": 0,
        "skillGroupCDTime": 3.0
      }
    ],
    "skillSetting": {},
    "skills": {
      "101": {
        "name": "OnAlert",
        "skillType": "OnAlert",
        "castCondition": {
          "pose": [1, 11, 21, 9003]
        },
        "publicCDGroup": "",
        "ignoreGCD": true,
        "triggerGCD": false,
        "HHAGODJIAPE": "",
        "stateIDs": ["Alert"],
        "skillQueryingTime": 3.0,
        "flagTargetReachable": "10",
        "flagSelfOnTemplateCollider": "01",
        "flagSelfInZone": "10",
        "flagTargetInZone": "11"
      },
      "102": {
        "name": "OnAlert",
        "skillType": "OnNerve",
        "castCondition": {
          "pose": [9001, 9002]
        },
        "publicCDGroup": "",
        "ignoreGCD": true,
        "triggerGCD": false,
        "HHAGODJIAPE": "",
        "stateIDs": ["Alert"],
        "skillQueryingTime": 3.0,
        "flagTargetReachable": "10",
        "flagSelfOnTemplateCollider": "01",
        "flagSelfInZone": "10",
        "flagTargetInZone": "11",
        "nerveTrigger": ["HIT"]
      },
      "111": {
        "name": "Life_Collect",
        "skillType": "Free",
        "castCondition": {
          "pose": [11, 21]
        },
        "cd": 5.0,
        "cdUpperRange": 10.0,
        "initialCD": 8.0,
        "initialCDUpperRange": 5.0,
        "publicCDGroup": "",
        "HHAGODJIAPE": "",
        "stateIDs": ["Life_Collect"],
        "flagTargetReachable": "10",
        "flagSelfOnTemplateCollider": "01",
        "flagSelfInZone": "10",
        "flagTargetInZone": "11"
      },
      "191": {
        "name": "Recover_Self",
        "combatSkillType": "MeleeAttack",
        "priority": 1,
        "castCondition": {
          "pose": [101],
          "BNLDGHLANLI": [0, 1, 2],
          "globalValues": ["_MACHINAIUSTITIA_SELFRECOVER_"],
          "globalValuesTargetType": "SELF"
        },
        "cd": 5.0,
        "initialCD": 1.0,
        "publicCDGroup": "",
        "ignoreGCD": true,
        "triggerGCD": false,
        "HHAGODJIAPE": "",
        "stateIDs": ["Recover"],
        "skillQueryingTime": 3.0,
        "flagTargetReachable": "11",
        "flagSelfOnTemplateCollider": "01",
        "flagSelfInZone": "11",
        "flagTargetInZone": "11"
      },
      "201": {
        "name": "RushAtk",
        "combatSkillType": "MeleeAttack",
        "priority": 3,
        "castCondition": {
          "pose": [301],
          "BNLDGHLANLI": [2],
          "pickRangeMax": 10.5,
          "castRangeMax": 10.5
        },
        "cd": 7.0,
        "cdUpperRange": 2.0,
        "initialCD": 1.0,
        "initialCDUpperRange": 2.0,
        "publicCDGroup": "",
        "HHAGODJIAPE": "",
        "stateIDs": ["RushAtk"],
        "skillQueryingTime": 3.0,
        "flagTargetReachable": "10",
        "flagSelfOnTemplateCollider": "01",
        "flagSelfInZone": "11",
        "flagTargetInZone": "11"
      }
    },
    "skillGCD": 3.0,
    "groupSurroundTactic": {
      "Default": {
        "MFNHGOKLGMO": 1.7000000476837158,
        "PPLFPCCFFNC": 5.0,
        "FAMIMLKMEDP": 5.0,
        "DLJJBMDIMKL": 2.5,
        "FODOJABAOOA": 2.5
      },
      "Flee": {
        "MFNHGOKLGMO": 2.200000047683716,
        "PPLFPCCFFNC": 5.0,
        "FAMIMLKMEDP": 5.0,
        "DLJJBMDIMKL": 2.5,
        "FODOJABAOOA": 2.5
      },
      "ReturnToBorn": {
        "MFNHGOKLGMO": 3.0,
        "PPLFPCCFFNC": 5.0,
        "FAMIMLKMEDP": 5.0,
        "DLJJBMDIMKL": 2.5,
        "FODOJABAOOA": 2.5
      }
    },
    "birdCirclingTactic": [
      {
        "$type": "MCDGOJLCMBM",
        "JMCOBEPDIGM": {
          "DMGAHPPFMPK": 1.5,
          "FLENLLDBFGP": 1.5,
          "ACOBCFCMBOC": "Auto",
          "MNPDDAKDHGK": "Default",
          "GJDMDHIBCME": ""
        }
      },
      {
        "$type": "NNJKLGNPMNN",
        "enable": true,
        "JMCOBEPDIGM": {
          "ANLAAGAMIKF": 1,
          "NBENNEKDIIA": 2.200000047683716,
          "ACOBCFCMBOC": "Spacial",
          "MNPDDAKDHGK": "ReturnToBorn",
          "GJDMDHIBCME": ""
        }
      },
      {
        "$type": "ALHOEAMCGGO",
        "enable": true,
        "condition": {
          "pose": [101, 102]
        },
        "JMCOBEPDIGM": {
          "ANLAAGAMIKF": 1,
          "NBENNEKDIIA": 0.800000011920929,
          "cd": 5.5,
          "triggerDistance": 4.0,
          "MMGOBGGLBJO": 60.0,
          "CMDFDIPMGKI": 3,
          "KAIGBDPLNMO": 3.0,
          "BMIEPFCPFGN": 8.5,
          "JIHEPOLDBPI": 30.0,
          "JEJKCNCHFLA": -30.0,
          "GLABEAKINML": 30.0,
          "DHHPBOKJCOH": -30.0,
          "ACJJECEFDPM": 0.5,
          "FFHFGBHGEIM": 0.5,
          "MNPDDAKDHGK": "Flee",
          "GJDMDHIBCME": ""
        }
      },
      {
        "$type": "EPPOBBAEPED",
        "enable": true,
        "condition": {
          "pose": [201, 301]
        },
        "JMCOBEPDIGM": {
          "ANLAAGAMIKF": 2,
          "FAKGFIDPCFL": 12.5,
          "GHCEDMEHKLN": 8.0,
          "KGNHAOIAEKG": 7.0,
          "NHHDIPGNDJA": 3.0,
          "ONFAMCFCNFM": 0.0,
          "KLODEFMNFIC": 1.0,
          "MNPDDAKDHGK": "",
          "GJDMDHIBCME": ""
        },
        "PIOCBHLFLJP": {
          "301": {
            "ANLAAGAMIKF": 2,
            "FAKGFIDPCFL": 10.0,
            "GHCEDMEHKLN": 5.5,
            "KGNHAOIAEKG": 8.0,
            "NHHDIPGNDJA": 2.0,
            "ONFAMCFCNFM": 0.0,
            "KLODEFMNFIC": 1.0,
            "MNPDDAKDHGK": "",
            "GJDMDHIBCME": ""
          }
        }
      },
      {
        "$type": "HMHOIHCBIOJ",
        "enable": true,
        "condition": {
          "pose": [1, 11, 21, 9003]
        },
        "JMCOBEPDIGM": {
          "NBENNEKDIIA": 1.7999999523162842,
          "KPNDPKIOPJM": 5.0,
          "PINAFKEDDLL": 3.0,
          "HIGLILIOAHE": 1.7999999523162842,
          "AMIIPPJEIPM": 5.0,
          "ANMPOPEBDIA": 12.0,
          "GMJFIMFFOEL": 4.0,
          "CHCPFDMADEI": 7.5,
          "OIOFLJIDENF": true,
          "MNPDDAKDHGK": "Default",
          "GJDMDHIBCME": ""
        }
      }
    ]
  },
  "inputKeys": [
    {
      "keyID": 101,
      "inputKeyCode": 257,
      "abilityName": ""
    },
    {
      "keyID": 111,
      "inputKeyCode": 258,
      "abilityName": ""
    },
    {
      "keyID": 201,
      "inputKeyCode": 259,
      "abilityName": ""
    },
    {
      "keyID": 301,
      "inputKeyCode": 260,
      "abilityName": ""
    }
  ],
  "move": {
    "$type": "IPNMJMHDMPF",
    "velocityForce": {
      "excludeForces": ["RetreatType", "RetreatAirType"]
    },
    "handleCombatTaskImmediately": true,
    "initWithGroundHitCheckV2": false,
    "raycasts": [
      {
        "raycastLength": 5.0,
        "raycastType": "DownToGroundOnlyInWater",
        "startPoint": ""
      }
    ],
    "OGBEFBMLJJI": true,
    "facingMove": "AirBlend3D",
    "airFacingMove": "AirBlend3D",
    "yawSpeedRatio": 3.0,
    "PKHOMJHFAEE": "RootNode",
    "JNAPCJLHJDO": true
  },
  "audio": {
    "overrideEmitterName": "",
    "animAudio": {},
    "disableEvent": {
      "text": ""
    },
    "destroyEvent": {
      "text": ""
    },
    "randomVariantSwitchGroup": {
      "text": ""
    },
    "randomVariantSwitchValues": [
      {
        "text": ""
      }
    ]
  }
}
