{
  "common": {
    "effectAttachShape": {
      "$type": "FJNPJANPGGC",
      "mesh": "EffectMesh"
    },
    "mass": 20.0,
    "height": 0.800000011920929,
    "modelHeight": 0.4000000059604645,
    "affectedByWorld": true,
    "checkInSurface": true,
    "scale": 2.0,
    "useGrassDisplacement": true,
    "reconnectSupport": true
  },
  "combat": {
    "property": {
      "endureType": "Monster_Slime",
      "weight": 60.0
    },
    "beHit": {
      "hitBloodEffect": ""
    },
    "combatLock": {
      "lockShape": "CircleLockEnemy",
      "lockType": "Avatar&Monster_Lv4"
    },
    "die": {
      "dieEndTime": 2.0,
      "dieForceDisappearTime": 8.0,
      "dieDisappearEffect": "",
      "muteHitBox": true,
      "dieDenyLockOn": true,
      "dieIsGhostToEnemy": true,
      "dieIgnoreTriggerBullet": true,
      "muteBillboard": true,
      "mutePushCollider": true
    },
    "animEvents": {
      "NormalAtk": {
        "attackPattern": {
          "$type": "ConfigAttackCircle",
          "triggerType": "TriggerNoRepeat",
          "born": {
            "$type": "ConfigBornBySelf",
            "offset": {
              "x": 0.0,
              "y": 0.5,
              "z": 0.5
            }
          },
          "fanAngle": 150.0,
          "radius": 0.75
        },
        "attackInfo": {
          "attackTag": "",
          "attenuationTag": "",
          "attenuationGroup": "default",
          "attackProperty": {
            "actorGrassSubHurtDelta": 1.0,
            "actorWindSubHurtDelta": 0.0,
            "elementDurability": 100.0,
            "strikeType": "Blunt",
            "enBreak": 60.0,
            "attackType": "Melee",
            "GLKMCMDJBIK": 0.0
          },
          "hitPattern": {
            "onHitEffectName": "default",
            "hitImpulseY": "",
            "hitImpulseType": "LV2"
          }
        }
      }
    }
  },
  "equipController": {
    "sheathPoint": "",
    "attachPoints": {
      "equip01": "WeaponR",
      "equip02": "WeaponL"
    }
  },
  "abilities": [
    {
      "abilityID": "AIStateControl",
      "abilityName": "Slime_Grass_02_AIStateControl",
      "abilityOverride": ""
    },
    {
      "abilityID": "DrillOut",
      "abilityName": "Slime_Grass_02_DrillOut",
      "abilityOverride": ""
    },
    {
      "abilityID": "ElementState",
      "abilityName": "Slime_Grass_02_ElementState",
      "abilityOverride": ""
    },
    {
      "abilityID": "UnderGround",
      "abilityName": "Slime_Grass_02_UnderGround",
      "abilityOverride": ""
    },
    {
      "abilityID": "UnderAttack",
      "abilityName": "Slime_Grass_02_UnderAttack",
      "abilityOverride": ""
    },
    {
      "abilityID": "AnimationSteer",
      "abilityName": "Slime_Grass_02_AnimationSteer",
      "abilityOverride": ""
    },
    {
      "abilityID": "GrassMuteHurt",
      "abilityName": "Monster_Common_GrassMuteHurt",
      "abilityOverride": ""
    }
  ],
  "stateLayers": {
    "defaultLayer": {
      "$type": "GBGJJIIEMBD",
      "layerIndexName": "",
      "CPAANEIJCGD": "",
      "stateIDs": {
        "Born": {
          "$type": "NEDIFAKEGCO",
          "animatorStates": {
            "Born": []
          },
          "canSyncMove": true,
          "resetAnimatorTriggerOnExit": ["DoSkill"]
        },
        "NormalIdle": {
          "$type": "NEDIFAKEGCO",
          "animatorStates": {
            "Standby": []
          },
          "canDoSkill": true,
          "canSyncMove": true,
          "resetAnimatorTriggerOnExit": ["DoSkill"]
        },
        "NormalIdle_Under": {
          "$type": "NEDIFAKEGCO",
          "animatorStates": {
            "Standby_Under": [],
            "Stop": ["Audio_Slime_Grass_02_Walk_Under_Stop"],
            "Watch_Random": []
          },
          "canDoSkill": true,
          "canSyncMove": true,
          "resetAnimatorTriggerOnEnter": ["AttackStopTrigger"],
          "resetAnimatorTriggerOnExit": ["DoSkill"]
        },
        "Turn": {
          "$type": "NEDIFAKEGCO",
          "animatorStates": {
            "Turn": ["Audio_Slime_02_Run"],
            "Watch": ["Monster_Slime_Grass_02_Watch"],
            "UnderAttack_Watch": ["Monster_Slime_Grass_02_Watch"]
          },
          "canDoSkill": true,
          "canSyncMove": true,
          "resetAnimatorTriggerOnExit": ["DoSkill"],
          "canSteer": true,
          "autoSteer": true
        },
        "Turn_Under": {
          "$type": "NEDIFAKEGCO",
          "animatorStates": {
            "Turn_Under": [],
            "Watch_BS": [
              "Audio_Slime_Grass_02_Watch_BS",
              "Monster_Slime_Grass_02_Watch"
            ],
            "Watch_AS": [
              "Audio_Slime_Grass_02_Watch_AS",
              "Monster_Slime_Grass_02_Watch"
            ],
            "UnderAttack_Watch_BS": [
              "Audio_Slime_Grass_02_Watch_BS",
              "Monster_Slime_Grass_02_Watch"
            ]
          },
          "canDoSkill": true,
          "canSyncMove": true,
          "resetAnimatorTriggerOnEnter": ["AttackStopTrigger"],
          "resetAnimatorTriggerOnExit": ["DoSkill"],
          "canSteer": true,
          "autoSteer": true
        },
        "NormalMove": {
          "$type": "NEDIFAKEGCO",
          "animatorStates": {
            "Walk": ["Audio_Slime_02_Walk"],
            "Run": ["Audio_Slime_02_Run"],
            "Run_OnFire": ["Audio_Slime_Grass_02_Run_OnFire"]
          },
          "canDoSkill": true,
          "canSyncMove": true,
          "resetAnimatorTriggerOnExit": ["DoSkill"],
          "canSteer": true
        },
        "NormalMove_Under": {
          "$type": "NEDIFAKEGCO",
          "animatorStates": {
            "Walk_Under": [],
            "Run_Under": []
          },
          "canDoSkill": true,
          "canSyncMove": true,
          "resetAnimatorTriggerOnEnter": ["WalkRandom"],
          "resetAnimatorTriggerOnExit": ["DoSkill"],
          "canSteer": true
        },
        "Scared": {
          "$type": "NEDIFAKEGCO",
          "animatorStates": {
            "Watch_Stop": [
              "Monster_Slime_Grass_02_Stop",
              "Audio_Slime_Grass_02_Watch_Stop"
            ],
            "UnderAttack_Stop": [
              "Monster_Slime_Grass_02_Stop",
              "Audio_Slime_Grass_02_UnderAttack_Stop"
            ]
          },
          "resetAnimatorTriggerOnExit": ["BeHit", "DoSkill"]
        },
        "BeHit": {
          "$type": "NEDIFAKEGCO",
          "animatorStates": {
            "Hit_L": ["Monster_Slime_BeHit", "Audio_Slime_02_Hit_L"],
            "Hit_H": ["Monster_Slime_BeHit", "Audio_Slime_02_Hit_H"]
          },
          "resetAnimatorTriggerOnEnter": ["BeHit"],
          "resetAnimatorTriggerOnExit": ["DoSkill"]
        },
        "BeHitThrow": {
          "$type": "NEDIFAKEGCO",
          "animatorStates": {
            "HitThrow": ["Monster_Slime_BeHit", "Audio_Slime_02_HitThrow"],
            "HitThrowDrop": [],
            "HitThrowToGround": [
              "Monster_Slime_ThrowToGround_02",
              "Audio_Slime_02_HitThrowToGround"
            ]
          },
          "resetAnimatorTriggerOnEnter": ["BeHit", "HitAir2HitDrop"],
          "resetAnimatorTriggerOnExit": ["DoSkill"]
        },
        "Struggle": {
          "$type": "NEDIFAKEGCO",
          "animatorStates": {
            "Struggle": []
          },
          "resetAnimatorTriggerOnEnter": ["BeHit", "HitAir2HitDrop"],
          "resetAnimatorTriggerOnExit": ["DoSkill"]
        },
        "Die": {
          "$type": "NEDIFAKEGCO",
          "animatorStates": {
            "Die": [
              "Monster_Slime_Die",
              "Monster_Slime_Grass_02_Die",
              "Audio_Slime_Water_02_Die"
            ],
            "SwimDie": [
              "Monster_Slime_Die",
              "Monster_Slime_Grass_02_Die",
              "Audio_Slime_Water_02_Die"
            ]
          }
        },
        "Borrow": {
          "$type": "NEDIFAKEGCO",
          "animatorStates": {
            "Borrow": [
              "Monster_Slime_Grass_02_Burrow",
              "Audio_Slime_Grass_02_Borrow"
            ]
          },
          "resetAnimatorTriggerOnExit": ["BeHit", "DoSkill"]
        },
        "DrillOut": {
          "$type": "NEDIFAKEGCO",
          "animatorStates": {
            "DrillOut": [
              "Monster_Slime_Grass_02_DrillOut",
              "Audio_Slime_Grass_02_DrillOut"
            ]
          },
          "addEndure": 0.0,
          "resetAnimatorTriggerOnExit": ["BeHit", "DoSkill"]
        },
        "NormalAttack": {
          "$type": "NEDIFAKEGCO",
          "animatorStates": {
            "NormalAttack": [
              "Monster_Slime_NormalAttack_02",
              "Monster_Slime_Grass_02_NormalAttack",
              "Audio_Slime_02_NormalAtk"
            ]
          },
          "resetAnimatorTriggerOnExit": ["BeHit", "DoSkill"],
          "enableCCD": true
        },
        "UnderAttack": {
          "$type": "NEDIFAKEGCO",
          "animatorStates": {
            "UnderAttack": [
              "Monster_Slime_Grass_02_UnderAttack",
              "Audio_Slime_Grass_02_UnderAttack"
            ],
            "UnderAttack_AS": ["Monster_Slime_Grass_02_UnderAttack_AS"]
          },
          "resetAnimatorTriggerOnEnter": ["AttackStopTrigger"],
          "resetAnimatorTriggerOnExit": ["BeHit", "DoSkill"]
        }
      }
    }
  },
  "face": {
    "characterName": "Slime_01",
    "baseFaceAnimation": "Default",
    "intervalFaceAnimation": "Blink",
    "minInterval": 1.5,
    "maxInterval": 5.5
  },
  "billboard": {
    "$type": "DNGNMAJBCNP",
    "attachPoint": "BillboardAttach",
    "offsetType": "Character",
    "radiusOffset": 0.5,
    "showHPBar": true
  },
  "initialPoses": {
    "Default": {
      "initialPoseID": 201,
      "initialPoseParams": {
        "boolParams": {
          "ElementState": "true",
          "UnderGround": "true"
        }
      }
    },
    "OnGround": {
      "initialPoseID": 101,
      "initialPoseParams": {
        "boolParams": {
          "ElementState": "true",
          "UnderGround": "false"
        }
      }
    }
  },
  "aibeta": {
    "enable": true,
    "moveSetting": {
      "navMeshAgentName": "Undead01",
      "almostReachedDistanceRun": 2.0
    },
    "sensing": {
      "settings": {
        "DefaultSetting": {
          "enableVision": false
        },
        "OnGround": {
          "viewRange": 15.0
        }
      },
      "templates": {
        "DefaultTemplate": {
          "DefaultPoses": "DefaultSetting",
          "101": "OnGround"
        }
      }
    },
    "threat": {
      "GHIJMOKOLMB": "",
      "clearThreatTargetDistance": 30.0,
      "clearThreatEdgeDistance": 4.5,
      "clearThreatTimerByDistance": 0.5
    },
    "profiling": {
      "lodStrategy": "Best"
    },
    "skills": {
      "100": {
        "name": "Borrow",
        "skillType": "OnAlert",
        "faceTarget": true,
        "castCondition": {
          "pose": [101]
        },
        "publicCDGroup": "",
        "triggerGCD": false,
        "HHAGODJIAPE": "",
        "stateIDs": ["Borrow"],
        "skillQueryingTime": 3.0,
        "flagTargetReachable": "10",
        "flagSelfOnTemplateCollider": "01",
        "flagSelfInZone": "10",
        "flagTargetInZone": "11"
      },
      "101": {
        "name": "DrillOut",
        "skillType": "Free",
        "castCondition": {
          "pose": [201]
        },
        "cd": 0.25,
        "initialCD": 15.0,
        "initialCDUpperRange": 30.0,
        "publicCDGroup": "",
        "triggerGCD": false,
        "HHAGODJIAPE": "",
        "stateIDs": ["DrillOut"],
        "flagTargetReachable": "10",
        "flagSelfOnTemplateCollider": "01",
        "flagSelfInZone": "10",
        "flagTargetInZone": "11"
      },
      "102": {
        "name": "Borrow",
        "skillType": "Free",
        "castCondition": {
          "pose": [101]
        },
        "cd": 0.25,
        "initialCD": 15.0,
        "initialCDUpperRange": 30.0,
        "publicCDGroup": "",
        "triggerGCD": false,
        "HHAGODJIAPE": "",
        "stateIDs": ["Borrow"],
        "flagTargetReachable": "10",
        "flagSelfOnTemplateCollider": "01",
        "flagSelfInZone": "10",
        "flagTargetInZone": "11"
      },
      "301": {
        "name": "NormalAttack",
        "combatSkillType": "MeleeAttack",
        "enableSkillPrepare": true,
        "castCondition": {
          "pose": [401, 402],
          "pickRangeMin": 1.5,
          "pickRangeMax": 4.5,
          "castRangeMin": 1.5,
          "castRangeMax": 2.5
        },
        "cd": 2.5,
        "publicCDGroup": "",
        "HHAGODJIAPE": "",
        "stateIDs": ["NormalAttack"],
        "flagTargetReachable": "10",
        "flagSelfOnTemplateCollider": "01",
        "flagSelfInZone": "10",
        "flagTargetInZone": "11"
      },
      "302": {
        "name": "NormalAttack",
        "combatSkillType": "MeleeAttack",
        "castCondition": {
          "pose": [401, 402],
          "pickRangeMax": 2.5
        },
        "cd": 2.5,
        "publicCDGroup": "",
        "HHAGODJIAPE": "",
        "stateIDs": ["NormalAttack"],
        "flagTargetReachable": "10",
        "flagSelfOnTemplateCollider": "01",
        "flagSelfInZone": "01",
        "flagTargetInZone": "11"
      },
      "401": {
        "name": "UnderAttack",
        "combatSkillType": "MeleeAttack",
        "faceTarget": true,
        "castCondition": {
          "pose": [301],
          "pickRangeMin": 1.5,
          "pickRangeMax": 3.0
        },
        "cd": 3.5,
        "cdUpperRange": 4.0,
        "publicCDGroup": "",
        "HHAGODJIAPE": "",
        "stateIDs": ["Turn", "Turn_Under", "UnderAttack"],
        "flagTargetReachable": "10",
        "flagSelfOnTemplateCollider": "01",
        "flagSelfInZone": "10",
        "flagTargetInZone": "11"
      }
    },
    "skillGCD": 2.5,
    "birdCirclingTactic": [
      {
        "$type": "ODHNBPJLGHF",
        "enable": true,
        "condition": {
          "pose": [312, 401, 402, 501]
        },
        "JMCOBEPDIGM": {
          "cd": 0.0,
          "triggerDistance": 4.0,
          "MMGOBGGLBJO": 15.0,
          "KAIGBDPLNMO": 1.25,
          "BMIEPFCPFGN": 2.75,
          "FEJMHENNBFA": true,
          "MNPDDAKDHGK": ""
        },
        "PIOCBHLFLJP": {
          "312": {
            "NBENNEKDIIA": 1080.0,
            "cd": 0.0,
            "triggerDistance": 200.0,
            "MMGOBGGLBJO": 15.0,
            "KAIGBDPLNMO": 7.0,
            "BMIEPFCPFGN": 9.0,
            "FEJMHENNBFA": true,
            "MNPDDAKDHGK": ""
          },
          "501": {
            "cd": 0.0,
            "triggerDistance": 200.0,
            "MMGOBGGLBJO": 120.0,
            "KAIGBDPLNMO": 2.5,
            "BMIEPFCPFGN": 5.0,
            "MNPDDAKDHGK": ""
          }
        }
      },
      {
        "$type": "KACCHOLJDNK",
        "enable": true,
        "condition": {
          "pose": [301, 401, 402]
        },
        "JMCOBEPDIGM": {
          "KHDFDAAAPEI": 4.5,
          "HKJODDGJPHA": 99.0,
          "GGEBMFHFBPO": 4.0,
          "KFFGCIMPNMJ": 4.5,
          "MNPDDAKDHGK": ""
        },
        "PIOCBHLFLJP": {
          "301": {
            "ANLAAGAMIKF": 1,
            "KHDFDAAAPEI": 5.0,
            "HKJODDGJPHA": 30.0,
            "GGEBMFHFBPO": 3.5,
            "MNPDDAKDHGK": ""
          }
        }
      },
      {
        "$type": "NNJKLGNPMNN",
        "enable": true
      },
      {
        "$type": "FPELBIJFGCE",
        "enable": true,
        "condition": {
          "pose": [101, 102]
        },
        "JMCOBEPDIGM": {
          "KPNDPKIOPJM": 5.0,
          "PINAFKEDDLL": 2.0,
          "ANMPOPEBDIA": 15.0,
          "GMJFIMFFOEL": 2.5,
          "CHCPFDMADEI": 7.5,
          "MNPDDAKDHGK": ""
        }
      }
    ]
  },
  "inputKeys": [
    {
      "keyID": 301,
      "inputKeyCode": 257,
      "abilityName": ""
    },
    {
      "keyID": 401,
      "inputKeyCode": 258,
      "abilityName": ""
    },
    {
      "keyID": 101,
      "inputKeyCode": 259,
      "abilityName": ""
    },
    {
      "keyID": 102,
      "inputKeyCode": 260,
      "abilityName": ""
    }
  ],
  "move": {
    "$type": "IPNMJMHDMPF",
    "monsterSizeType": "SlimeType",
    "PKHOMJHFAEE": "RootNode"
  },
  "audio": {
    "overrideEmitterName": "",
    "animAudio": {
      "onTransitionIn": [
        {
          "currentStateName": "Run_Under",
          "audioEvent": {
            "text": "Play_sfx_monster_slime_02_grass_runUnder_lp"
          }
        },
        {
          "currentStateName": "Walk_Under",
          "audioEvent": {
            "text": "Play_sfx_monster_slime_02_grass_walkUnder_lp"
          }
        }
      ],
      "onTransitionOut": [
        {
          "currentStateName": "Run_Under",
          "audioEvent": {
            "text": "Stop_sfx_monster_slime_02_grass_runUnder_lp"
          }
        },
        {
          "currentStateName": "Walk_Under",
          "audioEvent": {
            "text": "Stop_sfx_monster_slime_02_grass_walkUnder_lp"
          }
        }
      ]
    }
  }
}
