{
  "common": {
    "effectAttachShape": {
      "$type": "FJNPJANPGGC",
      "mesh": "EffectMesh"
    },
    "mass": 9999999.0,
    "height": 1.0,
    "affectedByWorld": true,
    "checkInSurface": true,
    "scale": 1.5,
    "canTriggerElementReactionText": false,
    "useGrassDisplacement": true,
    "reconnectSupport": true,
    "recoverByInitPose": true
  },
  "model": {
    "bornEffect": "",
    "attachEffect": "",
    "canBakeMesh": false,
    "BKPFGNPLDNJ": ""
  },
  "dither": {
    "showDitherDuration": 1.0
  },
  "globalValue": {
    "serverGlobalValues": ["SGV_SERVERROUTE_STOPWAITINGFLAG_"]
  },
  "combat": {
    "property": {
      "endureType": "Monster_Minion",
      "weight": 101.0
    },
    "beHit": {
      "hitBloodEffect": "",
      "muteAllHitText": true
    },
    "combatLock": {
      "lockShape": "CircleLockEnemy",
      "denyLockOn": true,
      "lockType": "Animal_Lv2"
    },
    "die": {
      "dieEndTime": 2.0,
      "dieForceDisappearTime": 2.0,
      "dieDisappearEffect": ""
    }
  },
  "abilities": [
    {
      "abilityID": "",
      "abilityName": "Animal_Common_Initial",
      "abilityOverride": ""
    },
    {
      "abilityID": "",
      "abilityName": "Animal_Ptromys_StartServerRoute",
      "abilityOverride": ""
    },
    {
      "abilityID": "",
      "abilityName": "Animal_Ptromys_ServerRouteManager",
      "abilityOverride": ""
    },
    {
      "abilityID": "",
      "abilityName": "Animal_Ptromys_LandingToRoutePoint",
      "abilityOverride": ""
    },
    {
      "abilityID": "",
      "abilityName": "Animal_Ptromys_DecidingLandingPose",
      "abilityOverride": ""
    },
    {
      "abilityID": "",
      "abilityName": "Animal_Ptromys_Glide",
      "abilityOverride": ""
    },
    {
      "abilityID": "",
      "abilityName": "Animal_Ptromys_Flee",
      "abilityOverride": ""
    }
  ],
  "stateLayers": {
    "defaultLayer": {
      "$type": "GBGJJIIEMBD",
      "layerIndexName": "",
      "CPAANEIJCGD": "",
      "stateIDs": {
        "Born": {
          "$type": "NEDIFAKEGCO",
          "animatorStates": {
            "Born": []
          },
          "resetAnimatorTriggerOnExit": ["DoSkill"]
        },
        "NormalIdle": {
          "$type": "NEDIFAKEGCO",
          "animatorStates": {
            "Standby": []
          },
          "canDoSkill": true,
          "canSyncMove": true,
          "resetAnimatorTriggerOnExit": ["DoSkill"]
        },
        "NormalMove": {
          "$type": "NEDIFAKEGCO",
          "animatorStates": {
            "Run": ["Audio_Animal_Pteromys_Run"]
          },
          "canSyncMove": true,
          "resetAnimatorTriggerOnExit": ["DoSkill"],
          "canSteer": true
        },
        "Flee": {
          "$type": "NEDIFAKEGCO",
          "animatorStates": {
            "Flee": ["Audio_Animal_Pteromys_Run"],
            "Flee_Disappear": ["Audio_Animal_Pteromys_Run"]
          },
          "canSyncMove": true,
          "resetAnimatorTriggerOnExit": ["DoSkill"],
          "canSteer": true
        },
        "GlideFlee": {
          "$type": "NEDIFAKEGCO",
          "animatorStates": {
            "GlideFlee": ["Audio_Animal_Pteromys_Glide"],
            "GlideFlee_Disappear": ["Audio_Animal_Pteromys_Glide"]
          },
          "canSyncMove": true,
          "resetAnimatorTriggerOnExit": ["DoSkill"],
          "canSteer": true,
          "airMoveFollowAnimation": true
        },
        "Alert": {
          "$type": "NEDIFAKEGCO",
          "animatorStates": {
            "Alert": ["Animal_Pteromys_Alert", "Audio_Animal_Pteromys_Alert"]
          },
          "canDoSkill": true,
          "resetAnimatorTriggerOnExit": ["BeHit", "DoSkill"]
        },
        "Glide_BS": {
          "$type": "NEDIFAKEGCO",
          "animatorStates": {
            "Glide_BS": ["Audio_Animal_Pteromys_Glide_BS"]
          },
          "canSyncMove": true,
          "resetAnimatorTriggerOnExit": ["DoSkill"],
          "canSteer": true
        },
        "Glide_BSToGlide": {
          "$type": "NEDIFAKEGCO",
          "animatorStates": {
            "Glide_BSToGlide": ["Audio_Animal_Pteromys_Glide"]
          },
          "canDoSkill": true,
          "canSyncMove": true,
          "resetAnimatorTriggerOnExit": ["DoSkill"],
          "canSteer": true,
          "GGODGEGHPJD": true
        },
        "Glide": {
          "$type": "NEDIFAKEGCO",
          "animatorStates": {
            "Glide": ["Audio_Animal_Pteromys_Glide"],
            "GlideToAS": ["Audio_Animal_Pteromys_Glide"]
          },
          "canDoSkill": true,
          "canSyncMove": true,
          "resetAnimatorTriggerOnExit": ["DoSkill"],
          "canSteer": true,
          "GGODGEGHPJD": true
        },
        "Glide_AS": {
          "$type": "NEDIFAKEGCO",
          "animatorStates": {
            "Glide_AS_Ditching": ["Audio_Animal_Pteromys_Glide_AS"],
            "Glide_AS_Landing": [
              "Animal_Pteromys_Glide_AS_Landing",
              "Audio_Animal_Pteromys_Glide_AS"
            ]
          },
          "canSyncMove": true,
          "resetAnimatorTriggerOnEnter": ["Land", "BeHit", "HitAir2HitDrop"],
          "resetAnimatorTriggerOnExit": ["DoSkill", "Land"],
          "canSteer": true,
          "airMoveFollowAnimation": true
        },
        "Die": {
          "$type": "NEDIFAKEGCO",
          "animatorStates": {
            "Die": ["Animal_Pteromys_Die", "Audio_Animal_Pteromys_Die"],
            "Die_Flee": [
              "Animal_Pteromys_Die_Flee",
              "Audio_Animal_Pteromys_Run"
            ],
            "Die_GlideFlee": [
              "Animal_Pteromys_Die_Flee",
              "Audio_Animal_Pteromys_Glide"
            ]
          },
          "resetAnimatorTriggerOnEnter": ["DoSkill"]
        },
        "Personality1": {
          "$type": "NEDIFAKEGCO",
          "animatorStates": {
            "Personality1": ["Audio_Animal_Pteromys_Personality1"]
          },
          "canDoSkill": true,
          "resetAnimatorTriggerOnEnter": ["Land", "BeHit", "HitAir2HitDrop"],
          "resetAnimatorTriggerOnExit": ["DoSkill", "Land"]
        },
        "Personality2": {
          "$type": "NEDIFAKEGCO",
          "animatorStates": {
            "Personality2": ["Audio_Animal_Pteromys_Personality2"]
          },
          "canDoSkill": true,
          "resetAnimatorTriggerOnEnter": ["Land", "BeHit", "HitAir2HitDrop"],
          "resetAnimatorTriggerOnExit": ["DoSkill", "Land"]
        }
      }
    }
  },
  "initialPoses": {
    "Default": {
      "initialPoseID": 1,
      "initialPoseParams": {
        "intParams": {
          "PoseFlag": "10"
        }
      }
    },
    "OnTreeWaiting": {
      "initialPoseID": 1011,
      "initialPoseParams": {
        "intParams": {
          "PoseFlag": "11"
        }
      }
    },
    "onGround": {
      "initialPoseID": 1020,
      "initialPoseParams": {
        "intParams": {
          "PoseFlag": "20"
        }
      }
    },
    "OnTreeNeedGVToGlide": {
      "initialPoseID": 1032,
      "initialPoseParams": {
        "intParams": {
          "PoseFlag": "32"
        }
      }
    }
  },
  "aibeta": {
    "enable": true,
    "friendliness": 1,
    "decisionArchetype": "Animal_Pteromys",
    "sensing": {
      "settings": {
        "DefaultSetting": {
          "viewRange": 10.0,
          "horizontalFov": 90.0,
          "verticalFov": 45.0,
          "feelRange": 3.5
        },
        "NoSensing": {
          "viewRange": 0.0,
          "hearAttractionRange": 0.0,
          "feelRange": 0.0
        }
      },
      "templates": {
        "DefaultTemplate": {
          "DefaultPoses": "DefaultSetting"
        },
        "NoSensingTemplate": {
          "DefaultPoses": "NoSensing"
        }
      }
    },
    "neurons": {
      "DefaultSetting": ["HIT"]
    },
    "threat": {
      "GHIJMOKOLMB": "",
      "clearThreatTargetDistance": 15.0,
      "clearThreatTimerByDistance": 1.0,
      "threatDecreaseSpeed": 500.0
    },
    "defendArea": {
      "defendRange": 250.0
    },
    "fly": {
      "enable": true,
      "floatingPoses": [1030, 30, 1040, 40]
    },
    "ui": {
      "hasDirectionIndicator": false,
      "HMNNBFDEHLG": ""
    },
    "skills": {
      "1": {
        "name": "OnAlert",
        "skillType": "OnAlert",
        "faceTarget": true,
        "castCondition": {
          "pose": [1010, 1020]
        },
        "publicCDGroup": "",
        "triggerGCD": false,
        "HHAGODJIAPE": "",
        "stateIDs": ["Alert"],
        "skillQueryingTime": 3.0,
        "flagTargetReachable": "10",
        "flagSelfOnTemplateCollider": "01",
        "flagSelfInZone": "10",
        "flagTargetInZone": "11"
      },
      "901": {
        "name": "Personality1",
        "skillType": "Free",
        "castCondition": {
          "pose": [1010, 1011, 1020, 1031, 1032]
        },
        "cd": 15.0,
        "initialCD": 5.0,
        "publicCDGroup": "",
        "HHAGODJIAPE": "",
        "stateIDs": ["Personality1"],
        "skillQueryingTime": 3.0,
        "flagTargetReachable": "10",
        "flagSelfOnTemplateCollider": "01",
        "flagSelfInZone": "10",
        "flagTargetInZone": "11"
      },
      "902": {
        "name": "Personality2",
        "skillType": "Free",
        "castCondition": {
          "pose": [1010, 1011, 1020, 1031, 1032]
        },
        "cd": 15.0,
        "initialCD": 5.0,
        "publicCDGroup": "",
        "HHAGODJIAPE": "",
        "stateIDs": ["Personality2"],
        "skillQueryingTime": 3.0,
        "flagTargetReachable": "10",
        "flagSelfOnTemplateCollider": "01",
        "flagSelfInZone": "10",
        "flagTargetInZone": "11"
      }
    },
    "skillGCD": 5.0,
    "groupSurroundTactic": {
      "Default": {
        "MFNHGOKLGMO": 7.0
      }
    },
    "birdCirclingTactic": [
      {
        "$type": "ODHNBPJLGHF",
        "enable": true,
        "condition": {
          "pose": [1020, 20]
        },
        "nerveTrigger": ["HIT"],
        "JMCOBEPDIGM": {
          "ANLAAGAMIKF": 1,
          "NBENNEKDIIA": 1.0,
          "cd": 0.0,
          "triggerDistance": 200.0,
          "MMGOBGGLBJO": 75.0,
          "KAIGBDPLNMO": 7.5,
          "BMIEPFCPFGN": 10.0,
          "MNPDDAKDHGK": ""
        }
      },
      {
        "$type": "MCDGOJLCMBM",
        "enable": true,
        "JMCOBEPDIGM": {
          "DMGAHPPFMPK": 1.0,
          "FLENLLDBFGP": 1.0,
          "MNPDDAKDHGK": "",
          "GJDMDHIBCME": ""
        }
      },
      {
        "$type": "COLLJLNKMLC",
        "enable": true,
        "JMCOBEPDIGM": {
          "DMGAHPPFMPK": 0.5,
          "FLENLLDBFGP": 0.5,
          "JJCOMPLOOPG": 1.7999999523162842,
          "MNPDDAKDHGK": "Default",
          "GJDMDHIBCME": "",
          "ACOBCFCMBOC": "Spacial",
          "BBPDJAFOGPF": true,
          "EFHMECGCOHJ": true,
          "PLLHMGHOAPB": "_AIGV_SERVERROUTE_STARTFLAG_",
          "NIBMADACNOP": 3.0,
          "KPIJNGFNAEF": "_AIGV_SERVERROUTE_CLOSEFLAG_",
          "GDPHPLKJGAJ": "_AIGV_SERVERROUTE_REACHFLAG_",
          "KKKOAABEHEP": "_AIGV_SERVERROUTE_BLOCKFLAG_",
          "OMHBOLPFEPM": 1.5
        }
      },
      {
        "$type": "NNJKLGNPMNN"
      },
      {
        "$type": "FPELBIJFGCE",
        "condition": {
          "pose": [101]
        },
        "JMCOBEPDIGM": {
          "NBENNEKDIIA": 0.75,
          "KPNDPKIOPJM": 12.5,
          "PINAFKEDDLL": 7.5,
          "ANMPOPEBDIA": 15.0,
          "GMJFIMFFOEL": 5.0,
          "CHCPFDMADEI": 7.5,
          "MNPDDAKDHGK": ""
        }
      }
    ]
  },
  "inputKeys": [
    {
      "keyID": 901,
      "inputKeyCode": 257,
      "abilityName": ""
    },
    {
      "keyID": 902,
      "inputKeyCode": 258,
      "abilityName": ""
    },
    {
      "inputKeyCode": 259,
      "abilityName": "Animal_Ptromys_GlideTest_StartGlide",
      "abilityCD": 1.0
    },
    {
      "inputKeyCode": 260,
      "abilityName": "Animal_Ptromys_GlideTest_StopGlideToGround",
      "abilityCD": 1.0
    }
  ],
  "move": {
    "$type": "IPNMJMHDMPF",
    "raycasts": [
      {
        "raycastLength": 5.0,
        "raycastType": "DownToGroundAndWaterOnlyInAir",
        "startPoint": ""
      }
    ],
    "facingMove": "ForwardBackward",
    "airFacingMove": "AirBlend3D",
    "monsterSizeType": "SlimeType",
    "launchStates": ["Glide_BSToGlide"],
    "landStates": ["GlideToAS"],
    "positionModifyExtra": true,
    "PKHOMJHFAEE": "RootNode"
  },
  "animal": {
    "tickAbilityElement": false,
    "hasCharacterRenderering": false
  },
  "captureGroup": {
    "defaultConfig": {
      "captureEffect": "Eff_SceneObj_CatchAnimal_CaughtSuccess"
    }
  }
}
