{
  "common": {
    "effectAttachShape": {
      "$type": "FJNPJANPGGC",
      "mesh": "EffectMesh"
    },
    "mass": 100000000.0,
    "height": 1.8550000190734863,
    "affectedByWorld": true,
    "disableTickDistance": 10000.0,
    "muteElementStickUI": true,
    "hasAfterImage": true,
    "clearAnimatorOnSetLightDeactive": true,
    "clearAIOnSetLightDeactive": true
  },
  "headControl": {
    "$type": "KPIPDEBDPIH",
    "useHeadControl": true,
    "animStates": [
      "NormalIdle",
      "NormalIdle_Blade",
      "NormalMove/WalkL",
      "NormalMove/WalkR"
    ]
  },
  "globalValue": {
    "serverGlobalValues": ["SGV_DungeonDifficulty"]
  },
  "combat": {
    "property": {
      "endureType": "Monster_Tartaglia",
      "weight": 150.0
    },
    "beHit": {
      "hitBloodEffect": ""
    },
    "combatLock": {
      "lockShape": "CircleLockEnemy",
      "lockType": "Boss_Lv5"
    },
    "die": {
      "hasAnimatorDie": true,
      "fallWhenAirDie": false,
      "dieEndTime": 4.0,
      "dieForceDisappearTime": 6.0,
      "dieDisappearEffect": "",
      "muteHitBox": true,
      "dieDenyLockOn": true,
      "dieIsGhostToEnemy": true,
      "dieIgnoreTriggerBullet": true,
      "muteBillboard": true,
      "mutePushCollider": true
    },
    "animEvents": {
      "Tartaglia_EvilEye_NormalAttack01_01": {
        "attackPattern": {
          "$type": "ConfigAttackCircle",
          "triggerType": "TriggerNoRepeat",
          "born": {
            "$type": "ConfigBornBySelf",
            "offset": {
              "x": 0.0,
              "y": 0.0,
              "z": 0.30000001192092896
            },
            "direction": {
              "$type": "ConfigDirectionByEntity",
              "angleOffset": {
                "x": 0.0,
                "y": 15.0,
                "z": 0.0
              }
            }
          },
          "height": 1.0,
          "fanAngle": 180.0,
          "radius": 2.299999952316284
        },
        "attackInfo": {
          "attackTag": "Tartaglia_ThunderClap",
          "attenuationTag": "",
          "attenuationGroup": "default",
          "attackProperty": {
            "actorGrassSubHurtDelta": 0.25,
            "actorWindSubHurtDelta": 0.0,
            "elementType": "Electric",
            "elementDurability": 0.0,
            "strikeType": "Slash",
            "enBreak": 200.0,
            "GLKMCMDJBIK": 0.0
          },
          "hitPattern": {
            "onHitEffectName": "default",
            "hitImpulseY": "",
            "hitImpulseType": "LV4",
            "hitHaltTimeScale": 0.009999999776482582
          }
        }
      },
      "Tartaglia_EvilEye_NormalAttack01_02": {
        "attackPattern": {
          "$type": "ConfigAttackCircle",
          "triggerType": "TriggerNoRepeat",
          "born": {
            "$type": "ConfigBornBySelf",
            "direction": {
              "$type": "ConfigDirectionByEntity",
              "angleOffset": {
                "x": 0.0,
                "y": 15.0,
                "z": 0.0
              }
            }
          },
          "height": 1.0,
          "fanAngle": 240.0,
          "radius": 2.0999999046325684
        },
        "attackInfo": {
          "attackTag": "Tartaglia_ThunderClap",
          "attenuationTag": "",
          "attenuationGroup": "default",
          "attackProperty": {
            "actorGrassSubHurtDelta": 0.2750000059604645,
            "actorWindSubHurtDelta": 0.0,
            "elementType": "Electric",
            "elementDurability": 0.0,
            "strikeType": "Slash",
            "enBreak": 50.0,
            "GLKMCMDJBIK": 0.0
          },
          "hitPattern": {
            "onHitEffectName": "default",
            "hitImpulseY": "",
            "hitImpulseType": "LV4",
            "hitHaltTimeScale": 0.009999999776482582
          }
        }
      },
      "Tartaglia_EvilEye_NormalAttack02": {
        "attackPattern": {
          "$type": "ConfigAttackCircle",
          "triggerType": "TriggerNoRepeat",
          "born": {
            "$type": "ConfigBornBySelf",
            "direction": {
              "$type": "ConfigDirectionByEntity",
              "angleOffset": {
                "x": 0.0,
                "y": 30.0,
                "z": 0.0
              }
            }
          },
          "height": 1.0,
          "fanAngle": 240.0,
          "radius": 2.799999952316284
        },
        "attackInfo": {
          "attackTag": "Tartaglia_ThunderClap",
          "attenuationTag": "",
          "attenuationGroup": "default",
          "attackProperty": {
            "actorGrassSubHurtDelta": 0.30000001192092896,
            "actorWindSubHurtDelta": 0.0,
            "elementType": "Electric",
            "elementDurability": 0.0,
            "strikeType": "Slash",
            "enBreak": 100.0,
            "GLKMCMDJBIK": 0.0
          },
          "hitPattern": {
            "onHitEffectName": "default",
            "hitImpulseY": "",
            "hitImpulseType": "LV5",
            "hitHaltTimeScale": 0.009999999776482582
          }
        }
      },
      "Tartaglia_EvilEye_NormalAttack03_01": {
        "attackPattern": {
          "$type": "ConfigAttackBox",
          "triggerType": "TriggerNoRepeat",
          "born": {
            "$type": "ConfigBornBySelf",
            "offset": {
              "x": 0.0,
              "y": 0.5,
              "z": -0.5
            }
          },
          "size": {
            "x": 1.2000000476837158,
            "y": 1.0,
            "z": 6.0
          }
        },
        "attackInfo": {
          "attackTag": "Tartaglia_ThunderClap",
          "attenuationTag": "Tartaglia_Attenuation_1",
          "attenuationGroup": "Monster_Tartaglia_Attenuation_1",
          "attackProperty": {
            "actorGrassSubHurtDelta": 0.3499999940395355,
            "actorWindSubHurtDelta": 0.0,
            "elementType": "Electric",
            "elementDurability": 0.0,
            "strikeType": "Slash",
            "enBreak": 100.0,
            "GLKMCMDJBIK": 0.0
          },
          "hitPattern": {
            "onHitEffectName": "default",
            "hitImpulseY": "",
            "hitImpulseType": "LV5",
            "hitHaltTimeScale": 0.009999999776482582
          }
        }
      },
      "Tartaglia_EvilEye_NormalAttack03_02": {
        "attackPattern": {
          "$type": "ConfigAttackCircle",
          "triggerType": "TriggerNoRepeat",
          "born": {
            "$type": "ConfigBornBySelf",
            "offset": {
              "x": 0.0,
              "y": 0.0,
              "z": 5.5
            }
          },
          "height": 1.0,
          "radius": 2.0
        },
        "attackInfo": {
          "attackTag": "Tartaglia_ThunderClap",
          "attenuationTag": "Tartaglia_Attenuation_1",
          "attenuationGroup": "Monster_Tartaglia_Attenuation_1",
          "attackProperty": {
            "actorGrassSubHurtDelta": 0.3499999940395355,
            "actorWindSubHurtDelta": 0.0,
            "elementType": "Electric",
            "elementDurability": 0.0,
            "strikeType": "Blunt",
            "enBreak": 100.0,
            "GLKMCMDJBIK": 0.0
          },
          "hitPattern": {
            "onHitEffectName": "default",
            "hitImpulseY": "",
            "hitImpulseType": "LV5",
            "hitHaltTimeScale": 0.009999999776482582
          }
        }
      },
      "Tartaglia_EvilEye_NormalAttack04": {
        "attackPattern": {
          "$type": "ConfigAttackCircle",
          "triggerType": "TriggerNoRepeat",
          "born": {
            "$type": "ConfigBornBySelf"
          },
          "height": 1.0,
          "radius": 4.0
        },
        "attackInfo": {
          "attackTag": "Tartaglia_ThunderClap",
          "attenuationTag": "",
          "attenuationGroup": "default",
          "attackProperty": {
            "actorGrassSubHurtDelta": 0.4000000059604645,
            "actorWindSubHurtDelta": 0.0,
            "elementType": "Electric",
            "elementDurability": 0.0,
            "strikeType": "Slash",
            "enBreak": 100.0,
            "GLKMCMDJBIK": 0.0
          },
          "hitPattern": {
            "onHitEffectName": "default",
            "hitImpulseY": "",
            "hitImpulseType": "LV5",
            "hitHaltTimeScale": 0.009999999776482582
          }
        }
      },
      "Tartaglia_EvilEye_SweepAttackL": {
        "attackPattern": {
          "$type": "ConfigAttackCircle",
          "triggerType": "TriggerNoRepeat",
          "born": {
            "$type": "ConfigBornBySelf"
          },
          "height": 1.0,
          "fanAngle": 180.0,
          "radius": 5.5
        },
        "attackInfo": {
          "attackTag": "Tartaglia_ThunderClap",
          "attenuationTag": "",
          "attenuationGroup": "default",
          "attackProperty": {
            "actorGrassSubHurtDelta": 0.5,
            "actorWindSubHurtDelta": 0.0,
            "elementType": "Electric",
            "elementDurability": 0.0,
            "strikeType": "Slash",
            "enBreak": 200.0,
            "GLKMCMDJBIK": 0.0
          },
          "hitPattern": {
            "onHitEffectName": "default",
            "hitImpulseY": "",
            "hitImpulseType": "LV5",
            "hitHaltTimeScale": 0.009999999776482582
          }
        }
      },
      "Tartaglia_EvilEye_SweepAttackR": {
        "attackPattern": {
          "$type": "ConfigAttackCircle",
          "triggerType": "TriggerNoRepeat",
          "born": {
            "$type": "ConfigBornBySelf"
          },
          "height": 1.0,
          "fanAngle": 180.0,
          "radius": 5.5
        },
        "attackInfo": {
          "attackTag": "Tartaglia_ThunderClap",
          "attenuationTag": "",
          "attenuationGroup": "default",
          "attackProperty": {
            "actorGrassSubHurtDelta": 0.5,
            "actorWindSubHurtDelta": 0.0,
            "elementType": "Electric",
            "elementDurability": 0.0,
            "strikeType": "Slash",
            "enBreak": 200.0,
            "GLKMCMDJBIK": 0.0
          },
          "hitPattern": {
            "onHitEffectName": "default",
            "hitImpulseY": "",
            "hitImpulseType": "LV5",
            "hitHaltTimeScale": 0.009999999776482582
          }
        }
      },
      "Tartaglia_EvilEye_ExtraAttack": {
        "attackPattern": {
          "$type": "ConfigAttackCircle",
          "triggerType": "TriggerNoRepeat",
          "born": {
            "$type": "ConfigBornBySelf"
          },
          "height": 1.5,
          "fanAngle": 240.0,
          "radius": 2.5
        },
        "attackInfo": {
          "attackTag": "Tartaglia_ThunderClap_Explosion",
          "attenuationTag": "",
          "attenuationGroup": "default",
          "attackProperty": {
            "actorGrassSubHurtDelta": 0.625,
            "actorWindSubHurtDelta": 0.0,
            "elementType": "Electric",
            "elementDurability": 0.0,
            "strikeType": "Slash",
            "enBreak": 200.0,
            "GLKMCMDJBIK": 0.0
          },
          "hitPattern": {
            "onHitEffectName": "default",
            "hitImpulseY": "",
            "hitImpulseType": "LV5",
            "hitHaltTimeScale": 0.009999999776482582
          },
          "cameraShake": {
            "shakeType": "CustomVector",
            "shakeRange": 0.36000001430511475,
            "shakeTime": 0.15000000596046448,
            "shakeDistance": 30.0,
            "shakeDir": {
              "x": -1.0
            }
          }
        }
      },
      "Tartaglia_EvilEye_DefendAttack01": {
        "attackPattern": {
          "$type": "ConfigAttackCircle",
          "triggerType": "TriggerNoRepeat",
          "born": {
            "$type": "ConfigBornBySelf"
          },
          "height": 1.0,
          "fanAngle": 240.0,
          "radius": 3.200000047683716
        },
        "attackInfo": {
          "attackTag": "Tartaglia_ThunderClap",
          "attenuationTag": "",
          "attenuationGroup": "default",
          "attackProperty": {
            "actorGrassSubHurtDelta": 0.5,
            "actorWindSubHurtDelta": 0.0,
            "elementType": "Electric",
            "elementDurability": 0.0,
            "strikeType": "Slash",
            "enBreak": 200.0,
            "GLKMCMDJBIK": 0.0
          },
          "hitPattern": {
            "onHitEffectName": "default",
            "hitImpulseY": "",
            "hitImpulseType": "LV5",
            "hitHaltTimeScale": 0.009999999776482582
          },
          "cameraShake": {
            "shakeType": "CustomVector",
            "shakeRange": 0.36000001430511475,
            "shakeTime": 0.15000000596046448,
            "shakeDistance": 30.0,
            "shakeDir": {
              "x": -1.0
            }
          }
        }
      },
      "Tartaglia_EvilEye_DefendAttack02": {
        "attackPattern": {
          "$type": "ConfigAttackCircle",
          "triggerType": "TriggerNoRepeat",
          "born": {
            "$type": "ConfigBornBySelf"
          },
          "height": 2.0,
          "fanAngle": 30.0,
          "radius": 7.5
        },
        "attackInfo": {
          "attackTag": "Tartaglia_ThunderClap",
          "attenuationTag": "",
          "attenuationGroup": "default",
          "attackProperty": {
            "actorGrassSubHurtDelta": 1.5,
            "actorWindSubHurtDelta": 0.0,
            "elementType": "Electric",
            "elementDurability": 0.0,
            "strikeType": "Default",
            "enBreak": 5000.0,
            "GLKMCMDJBIK": 0.0
          },
          "hitPattern": {
            "onHitEffectName": "default",
            "hitImpulseY": "",
            "hitImpulseType": "LV9",
            "hitHaltTimeScale": 0.009999999776482582
          },
          "cameraShake": {
            "shakeType": "CustomVector",
            "shakeRange": 0.36000001430511475,
            "shakeTime": 0.15000000596046448,
            "shakeDistance": 30.0,
            "shakeDir": {
              "x": -1.0
            }
          }
        }
      }
    }
  },
  "equipController": {
    "sheathPoint": "",
    "attachPoints": {
      "equip01": "WeaponL",
      "equip02": "WeaponR",
      "equip03": "WeaponL",
      "equip04": "WeaponR"
    }
  },
  "abilities": [
    {
      "abilityID": "Debut",
      "abilityName": "Tartaglia_EvilEye_Debut",
      "abilityOverride": ""
    },
    {
      "abilityID": "ReminderController",
      "abilityName": "Tartaglia_EvilEye_ReminderController",
      "abilityOverride": ""
    },
    {
      "abilityID": "EquipController",
      "abilityName": "Tartaglia_EvilEye_EquipController",
      "abilityOverride": ""
    },
    {
      "abilityID": "GapController",
      "abilityName": "Tartaglia_EvilEye_GapController",
      "abilityOverride": ""
    },
    {
      "abilityID": "ThunderClap_Detect",
      "abilityName": "Tartaglia_ThunderClap_Detect",
      "abilityOverride": ""
    },
    {
      "abilityID": "ChangePosition",
      "abilityName": "Tartaglia_EvilEye_ChangePosition",
      "abilityOverride": ""
    },
    {
      "abilityID": "Defend",
      "abilityName": "Tartaglia_EvilEye_Defend",
      "abilityOverride": ""
    },
    {
      "abilityID": "Recover",
      "abilityName": "Tartaglia_EvilEye_Recover",
      "abilityOverride": ""
    },
    {
      "abilityID": "NormalAttack",
      "abilityName": "Tartaglia_EvilEye_NormalAttack",
      "abilityOverride": ""
    },
    {
      "abilityID": "ExtraAttack",
      "abilityName": "Tartaglia_EvilEye_ExtraAttack",
      "abilityOverride": ""
    },
    {
      "abilityID": "StrikeAttack_SetPos",
      "abilityName": "Tartaglia_EvilEye_StrikeAttack_SetPos",
      "abilityOverride": ""
    },
    {
      "abilityID": "StrikeAttack",
      "abilityName": "Tartaglia_EvilEye_StrikeAttack",
      "abilityOverride": ""
    },
    {
      "abilityID": "Hiraishin",
      "abilityName": "Tartaglia_EvilEye_Hiraishin",
      "abilityOverride": ""
    },
    {
      "abilityID": "HiraishinAS",
      "abilityName": "Tartaglia_EvilEye_HiraishinAS",
      "abilityOverride": ""
    }
  ],
  "stateLayers": {
    "defaultLayer": {
      "$type": "GBGJJIIEMBD",
      "layerIndexName": "",
      "CPAANEIJCGD": "",
      "stateIDs": {
        "Born": {
          "$type": "NEDIFAKEGCO",
          "animatorStates": {
            "Born": []
          },
          "addEndure": 0.0,
          "resetAnimatorTriggerOnExit": ["DoSkill"]
        },
        "Debut": {
          "$type": "NEDIFAKEGCO",
          "animatorStates": {
            "Debut": []
          },
          "addEndure": 0.0,
          "resetAnimatorTriggerOnExit": ["DoSkill"]
        },
        "NormalIdle": {
          "$type": "NEDIFAKEGCO",
          "animatorStates": {
            "Standby": []
          },
          "canDoSkill": true,
          "canSyncMove": true,
          "resetAnimatorTriggerOnExit": ["DoSkill"]
        },
        "NormalIdle_Blade": {
          "$type": "NEDIFAKEGCO",
          "animatorStates": {
            "Standby_Blade": []
          },
          "canDoSkill": true,
          "canSyncMove": true,
          "resetAnimatorTriggerOnExit": ["DoSkill"]
        },
        "NormalMove": {
          "$type": "NEDIFAKEGCO",
          "animatorStates": {
            "WalkL": ["Audio_Tartaglia_EvilEye_WalkL"],
            "WalkR": ["Audio_Tartaglia_EvilEye_WalkL"],
            "WalkLToR": ["Audio_Tartaglia_EvilEye_WalkLToR"],
            "WalkRToL": ["Audio_Tartaglia_EvilEye_WalkLToR"]
          },
          "canDoSkill": true,
          "canSyncMove": true,
          "resetAnimatorTriggerOnExit": ["DoSkill"],
          "canSteer": true
        },
        "BeHit": {
          "$type": "NEDIFAKEGCO",
          "animatorStates": {
            "HitL": ["Audio_Tartaglia_EvilEye_HitL"],
            "HitH": ["Audio_Tartaglia_EvilEye_HitH"]
          },
          "resetAnimatorTriggerOnEnter": ["BeHit", "ShakeTrigger"],
          "resetAnimatorTriggerOnExit": ["DoSkill"]
        },
        "Die": {
          "$type": "NEDIFAKEGCO",
          "animatorStates": {
            "Die": []
          }
        },
        "NormalAttack_Blade": {
          "$type": "NEDIFAKEGCO",
          "animatorStates": {
            "NormalAttack01": [
              "Monster_Tartaglia_EvilEye_NormalAttack01",
              "Audio_Tartaglia_EvilEye_NormalAtk01"
            ],
            "NormalAttack04": [
              "Monster_Tartaglia_EvilEye_NormalAttack04",
              "Audio_Tartaglia_EvilEye_NormalAtk04"
            ]
          },
          "addEndure": 0.0,
          "resetAnimatorTriggerOnExit": ["BeHit", "ShakeTrigger", "DoSkill"]
        },
        "NormalAttack_DualBlade": {
          "$type": "NEDIFAKEGCO",
          "animatorStates": {
            "NormalAttack02": [
              "Monster_Tartaglia_EvilEye_NormalAttack02",
              "Audio_Tartaglia_EvilEye_NormalAtk02"
            ],
            "NormalAttack03": [
              "Monster_Tartaglia_EvilEye_NormalAttack03",
              "Audio_Tartaglia_EvilEye_NormalAtk03"
            ]
          },
          "addEndure": 0.0,
          "resetAnimatorTriggerOnExit": ["BeHit", "ShakeTrigger", "DoSkill"]
        },
        "NormalAttack": {
          "$type": "NEDIFAKEGCO",
          "animatorStates": {
            "NormalAttack02BS": [],
            "NormalAttack03AS": [],
            "NormalAttack04BS": []
          },
          "addEndure": 0.0,
          "resetAnimatorTriggerOnExit": ["BeHit", "ShakeTrigger", "DoSkill"]
        },
        "NormalAttack_Flexible": {
          "$type": "NEDIFAKEGCO",
          "animatorStates": {
            "NormalAttack01_Flexible": [],
            "NormalAttack02_Flexible": [],
            "NormalAttack03_Flexible": [],
            "NormalAttack04_Flexible": []
          },
          "resetAnimatorTriggerOnExit": ["BeHit", "ShakeTrigger", "DoSkill"]
        },
        "RushMove": {
          "$type": "NEDIFAKEGCO",
          "animatorStates": {
            "RushMove_Normal": [
              "Monster_Tartaglia_EvilEye_RushMove_Normal",
              "Audio_Tartaglia_EvilEye_RushMove"
            ],
            "RushMove": [
              "Monster_Tartaglia_EvilEye_RushMove",
              "Audio_Tartaglia_EvilEye_RushMove"
            ]
          },
          "addEndure": 0.0,
          "resetAnimatorTriggerOnExit": ["BeHit", "ShakeTrigger", "DoSkill"]
        },
        "ExtraAttack": {
          "$type": "NEDIFAKEGCO",
          "animatorStates": {
            "ExtraAttack": [
              "Monster_Tartaglia_EvilEye_ExtraAttack",
              "Audio_Tartaglia_EvilEye_ExtraAtk"
            ]
          },
          "addEndure": 0.0,
          "resetAnimatorTriggerOnExit": ["BeHit", "ShakeTrigger", "DoSkill"]
        },
        "StrikeAttackBS": {
          "$type": "NEDIFAKEGCO",
          "animatorStates": {
            "StrikeAttackBS": [
              "Monster_Tartaglia_EvilEye_StrikeAttackBS",
              "Audio_Tartaglia_EvilEye_StrikeAtk_BS"
            ]
          },
          "addEndure": 0.0,
          "resetAnimatorTriggerOnExit": ["BeHit", "ShakeTrigger", "DoSkill"]
        },
        "StrikeAttack": {
          "$type": "NEDIFAKEGCO",
          "animatorStates": {
            "StrikeAttack": [
              "Monster_Tartaglia_EvilEye_StrikeAttack",
              "Audio_Tartaglia_EvilEye_StrikeAtk"
            ],
            "StrikeAttackAS": ["Audio_Tartaglia_EvilEye_StrikeAtk_AS"]
          },
          "addEndure": 0.0,
          "resetAnimatorTriggerOnExit": ["BeHit", "ShakeTrigger", "DoSkill"]
        },
        "StrikeAttack_Flexible": {
          "$type": "NEDIFAKEGCO",
          "animatorStates": {
            "StrikeAttack_Flexible": []
          },
          "resetAnimatorTriggerOnExit": ["BeHit", "ShakeTrigger", "DoSkill"]
        },
        "SweepAttack": {
          "$type": "NEDIFAKEGCO",
          "animatorStates": {
            "SweepAttackL": [
              "Monster_Tartaglia_EvilEye_SweepAttackL",
              "Audio_Tartaglia_EvilEye_SweepAtkL"
            ],
            "SweepAttackR": [
              "Monster_Tartaglia_EvilEye_SweepAttackR",
              "Audio_Tartaglia_EvilEye_SweepAtkR"
            ]
          },
          "addEndure": 0.0,
          "resetAnimatorTriggerOnExit": ["BeHit", "ShakeTrigger", "DoSkill"],
          "canSteer": true,
          "followAnimRotation": true
        },
        "SweepAttack_Flexible": {
          "$type": "NEDIFAKEGCO",
          "animatorStates": {
            "SweepAttackL_Flexible": [],
            "SweepAttackR_Flexible": []
          },
          "resetAnimatorTriggerOnExit": ["BeHit", "ShakeTrigger", "DoSkill"]
        },
        "HiraishinBS": {
          "$type": "NEDIFAKEGCO",
          "animatorStates": {
            "HiraishinBS": [
              "Monster_Tartaglia_EvilEye_HiraishinBS",
              "Audio_Tartaglia_EvilEye_HiraisHin_BS"
            ]
          },
          "cullingModelAlwaysAnimate": true,
          "addEndure": 0.0,
          "resetAnimatorTriggerOnExit": ["BeHit", "ShakeTrigger", "DoSkill"]
        },
        "Hiraishin": {
          "$type": "NEDIFAKEGCO",
          "animatorStates": {
            "Hiraishin": ["Audio_Tartaglia_EvilEye_HiraisHin"],
            "HiraishinLoop": ["Audio_Tartaglia_EvilEye_HiraisHin"]
          },
          "cullingModelAlwaysAnimate": true,
          "addEndure": 0.0,
          "resetAnimatorTriggerOnExit": ["BeHit", "ShakeTrigger", "DoSkill"]
        },
        "HiraishinAS": {
          "$type": "NEDIFAKEGCO",
          "animatorStates": {
            "HiraishinAS": [
              "Monster_Tartaglia_EvilEye_Hiraishin",
              "Audio_Tartaglia_EvilEye_HiraisHin_AS"
            ]
          },
          "cullingModelAlwaysAnimate": true,
          "addEndure": 0.0,
          "resetAnimatorTriggerOnExit": ["BeHit", "ShakeTrigger", "DoSkill"]
        },
        "Hiraishin_Flexible": {
          "$type": "NEDIFAKEGCO",
          "animatorStates": {
            "Hiraishin_Flexible": []
          },
          "cullingModelAlwaysAnimate": true,
          "resetAnimatorTriggerOnExit": ["BeHit", "ShakeTrigger", "DoSkill"]
        },
        "ChangePosition": {
          "$type": "NEDIFAKEGCO",
          "animatorStates": {
            "ChangePosition01": [
              "Monster_Tartaglia_EvilEye_ChangePosition",
              "Audio_Tartaglia_EvilEye_ChangePosition01"
            ],
            "ChangePosition02": [
              "Monster_Tartaglia_EvilEye_ChangePosition",
              "Audio_Tartaglia_EvilEye_ChangePosition02"
            ],
            "ChangePosition03": [
              "Monster_Tartaglia_EvilEye_ChangePosition",
              "Audio_Tartaglia_EvilEye_ChangePosition03"
            ]
          },
          "addEndure": 0.0,
          "resetAnimatorTriggerOnExit": ["BeHit", "ShakeTrigger", "DoSkill"]
        },
        "ChangePosition_Flexible": {
          "$type": "NEDIFAKEGCO",
          "animatorStates": {
            "ChangePosition01_Flexible": [],
            "ChangePosition02_Flexible": [],
            "ChangePosition03_Flexible": []
          },
          "canDoSkill": true,
          "resetAnimatorTriggerOnExit": ["BeHit", "ShakeTrigger", "DoSkill"]
        },
        "Defend": {
          "$type": "NEDIFAKEGCO",
          "animatorStates": {
            "Defend01": ["Audio_Tartaglia_EvilEye_Defend01"],
            "Defend02": ["Audio_Tartaglia_EvilEye_Defend02"],
            "Defend03": ["Audio_Tartaglia_EvilEye_Defend03"]
          },
          "resetAnimatorTriggerOnEnter": [
            "DefendTrigger",
            "DefendAttackTrigger",
            "ForceDefendAttackTrigger"
          ],
          "resetAnimatorTriggerOnExit": ["BeHit", "ShakeTrigger", "DoSkill"]
        },
        "DefendAttack": {
          "$type": "NEDIFAKEGCO",
          "animatorStates": {
            "DefendAttack01": [
              "Monster_Tartaglia_EvilEye_DefendAttack01",
              "Audio_Tartaglia_EvilEye_DefendAtk01"
            ],
            "DefendAttack02": [
              "Monster_Tartaglia_EvilEye_DefendAttack02",
              "Audio_Tartaglia_EvilEye_DefendAtk02"
            ]
          },
          "addEndure": 0.0,
          "resetAnimatorTriggerOnEnter": [
            "DefendTrigger",
            "DefendAttackTrigger",
            "ForceDefendAttackTrigger"
          ],
          "resetAnimatorTriggerOnExit": ["BeHit", "ShakeTrigger", "DoSkill"]
        },
        "Recover": {
          "$type": "NEDIFAKEGCO",
          "animatorStates": {
            "Recover": [
              "Monster_Tartaglia_EvilEye_Recover",
              "Audio_Tartaglia_EvilEye_Recover"
            ]
          },
          "addEndure": 0.0,
          "resetAnimatorTriggerOnExit": [
            "BeHit",
            "ShakeTrigger",
            "DoSkill",
            "RecoverTrigger"
          ]
        }
      }
    }
  },
  "billboard": {
    "$type": "DNGNMAJBCNP",
    "attachPoint": "BillboardAttach",
    "offsetType": "Character",
    "radiusOffset": 0.3499999940395355,
    "showHPBar": true
  },
  "initialPoses": {
    "Default": {}
  },
  "aibeta": {
    "enable": true,
    "moveSetting": {
      "useNavMesh": false,
      "navMeshAgentName": "Undead01"
    },
    "sensing": {
      "settings": {
        "DefaultSetting": {
          "enableVision": false,
          "feelRange": 50.0
        }
      }
    },
    "threat": {
      "GHIJMOKOLMB": "",
      "resistTauntLevel": "Monster_TauntLevel_5"
    },
    "defendArea": {},
    "ui": {
      "HMNNBFDEHLG": ""
    },
    "profiling": {
      "lodStrategy": "Best"
    },
    "network": {
      "syncSkill": true,
      "resetHpOnSpawn": false
    },
    "skillGroupCDConfigs": [
      {
        "skillGroupCDID": 200,
        "skillGroupCDTime": 2.0
      },
      {
        "skillGroupCDID": 210,
        "skillGroupCDTime": 2.0
      },
      {
        "skillGroupCDID": 300,
        "skillGroupCDTime": 5.0
      },
      {
        "skillGroupCDID": 400,
        "skillGroupCDTime": 30.0
      }
    ],
    "skills": {
      "201": {
        "name": "NormalAttack",
        "faceTarget": true,
        "castCondition": {
          "pose": [101, 103, 104, 105],
          "maxTargetAngleY": 30.0,
          "pickRangeMax": 5.0
        },
        "cd": 1.0,
        "cdUpperRange": 2.0,
        "publicCDGroup": "",
        "triggerGCD": false,
        "skillGroupCDID": 200,
        "HHAGODJIAPE": "",
        "stateIDs": [
          "NormalAttack_Blade",
          "NormalAttack_DualBlade",
          "NormalAttack",
          "NormalAttack_Flexible"
        ],
        "flagTargetReachable": "10",
        "flagSelfOnTemplateCollider": "01",
        "flagSelfInZone": "10",
        "flagTargetInZone": "11"
      },
      "221": {
        "name": "NormalAttack",
        "faceTarget": true,
        "castCondition": {
          "pose": [101, 103],
          "maxTargetAngleY": 30.0,
          "pickRangeMin": 5.0,
          "pickRangeMax": 15.0
        },
        "cd": 3.0,
        "cdUpperRange": 2.0,
        "publicCDGroup": "",
        "triggerGCD": false,
        "skillGroupCDID": 200,
        "HHAGODJIAPE": "",
        "stateIDs": [
          "RushMove",
          "NormalAttack_Blade",
          "NormalAttack_DualBlade",
          "NormalAttack",
          "NormalAttack_Flexible"
        ],
        "flagTargetReachable": "10",
        "flagSelfOnTemplateCollider": "01",
        "flagSelfInZone": "10",
        "flagTargetInZone": "11"
      },
      "211": {
        "name": "ExtraAttack",
        "priority": 2,
        "faceTarget": true,
        "castCondition": {
          "pose": [101, 102, 103, 104, 105],
          "maxTargetAngleY": 30.0,
          "pickRangeMin": 15.0,
          "pickRangeMax": 99.0
        },
        "cd": 2.0,
        "cdUpperRange": 3.0,
        "publicCDGroup": "",
        "triggerGCD": false,
        "skillGroupCDID": 210,
        "HHAGODJIAPE": "",
        "stateIDs": ["RushMove", "ExtraAttack"],
        "flagTargetReachable": "10",
        "flagSelfOnTemplateCollider": "01",
        "flagSelfInZone": "10",
        "flagTargetInZone": "11"
      },
      "212": {
        "name": "ExtraAttack",
        "priority": 4,
        "faceTarget": true,
        "castCondition": {
          "pose": [104, 105],
          "maxTargetAngleY": 30.0,
          "pickRangeMin": 5.0,
          "pickRangeMax": 15.0
        },
        "cd": 3.0,
        "cdUpperRange": 5.0,
        "publicCDGroup": "",
        "triggerGCD": false,
        "skillGroupCDID": 210,
        "HHAGODJIAPE": "",
        "stateIDs": ["RushMove", "ExtraAttack"],
        "flagTargetReachable": "10",
        "flagSelfOnTemplateCollider": "01",
        "flagSelfInZone": "10",
        "flagTargetInZone": "11"
      },
      "301": {
        "name": "StrikeAttack",
        "priority": 3,
        "faceTarget": true,
        "castCondition": {
          "pose": [101, 103, 104, 105],
          "pickRangeMin": 5.0,
          "pickRangeMax": 15.0
        },
        "cd": 20.0,
        "cdUpperRange": 10.0,
        "publicCDGroup": "",
        "triggerGCD": false,
        "skillGroupCDID": 300,
        "HHAGODJIAPE": "",
        "stateIDs": ["StrikeAttack", "StrikeAttack_Flexible"],
        "flagTargetReachable": "10",
        "flagSelfOnTemplateCollider": "01",
        "flagSelfInZone": "10",
        "flagTargetInZone": "11"
      },
      "302": {
        "name": "StrikeAttack",
        "faceTarget": true,
        "castCondition": {
          "pose": [104, 105],
          "pickRangeMax": 15.0
        },
        "cd": 5.0,
        "cdUpperRange": 10.0,
        "publicCDGroup": "",
        "triggerGCD": false,
        "skillGroupCDID": 300,
        "HHAGODJIAPE": "",
        "stateIDs": ["StrikeAttack", "StrikeAttack_Flexible"],
        "flagTargetReachable": "10",
        "flagSelfOnTemplateCollider": "01",
        "flagSelfInZone": "10",
        "flagTargetInZone": "11"
      },
      "311": {
        "name": "SweepAttack",
        "priority": 3,
        "castCondition": {
          "pose": [101, 103, 104, 105],
          "minTargetAngleXZ": 90.0,
          "maxTargetAngleY": 30.0,
          "pickRangeMax": 7.0
        },
        "cd": 10.0,
        "cdUpperRange": 5.0,
        "publicCDGroup": "",
        "triggerGCD": false,
        "HHAGODJIAPE": "",
        "stateIDs": ["SweepAttack"],
        "flagTargetReachable": "10",
        "flagSelfOnTemplateCollider": "01",
        "flagSelfInZone": "10",
        "flagTargetInZone": "11"
      },
      "312": {
        "name": "SweepAttack",
        "priority": 3,
        "castCondition": {
          "pose": [102, 104, 105],
          "minTargetAngleXZ": 90.0,
          "maxTargetAngleY": 30.0,
          "pickRangeMax": 7.0
        },
        "cd": 20.0,
        "cdUpperRange": 10.0,
        "publicCDGroup": "",
        "triggerGCD": false,
        "HHAGODJIAPE": "",
        "stateIDs": ["SweepAttack"],
        "flagTargetReachable": "10",
        "flagSelfOnTemplateCollider": "01",
        "flagSelfInZone": "10",
        "flagTargetInZone": "11"
      },
      "401": {
        "name": "Hiraishin",
        "priority": 1,
        "faceTarget": true,
        "castCondition": {
          "pose": [103, 104],
          "pickRangeMax": 50.0
        },
        "cd": 60.0,
        "cdUpperRange": 30.0,
        "initialCD": 60.0,
        "publicCDGroup": "",
        "skillGroupCDID": 400,
        "HHAGODJIAPE": "",
        "stateIDs": ["Hiraishin"],
        "flagTargetReachable": "10",
        "flagSelfOnTemplateCollider": "01",
        "flagSelfInZone": "10",
        "flagTargetInZone": "11"
      },
      "402": {
        "name": "Hiraishin",
        "priority": 1,
        "faceTarget": true,
        "castCondition": {
          "pose": [105],
          "pickRangeMax": 50.0
        },
        "cd": 30.0,
        "cdUpperRange": 15.0,
        "initialCD": 30.0,
        "publicCDGroup": "",
        "skillGroupCDID": 400,
        "HHAGODJIAPE": "",
        "stateIDs": ["Hiraishin"],
        "flagTargetReachable": "10",
        "flagSelfOnTemplateCollider": "01",
        "flagSelfInZone": "10",
        "flagTargetInZone": "11"
      },
      "501": {
        "name": "ChangePosition",
        "priority": 2,
        "castCondition": {
          "pose": [101, 102, 103, 104, 105],
          "pickRangeMax": 25.0
        },
        "cd": 99999.0,
        "initialCD": 99999.0,
        "publicCDGroup": "",
        "ignoreGCD": true,
        "triggerGCD": false,
        "HHAGODJIAPE": "",
        "stateIDs": ["ChangePosition", "ChangePosition_Flexible"],
        "flagTargetReachable": "10",
        "flagSelfOnTemplateCollider": "01",
        "flagSelfInZone": "10",
        "flagTargetInZone": "11"
      },
      "601": {
        "name": "Recover",
        "priority": 2,
        "castCondition": {
          "pose": [101, 102, 103, 104, 105],
          "pickRangeMax": 99.0
        },
        "cd": 99999.0,
        "initialCD": 99999.0,
        "publicCDGroup": "",
        "ignoreGCD": true,
        "triggerGCD": false,
        "HHAGODJIAPE": "",
        "stateIDs": ["Recover"],
        "flagTargetReachable": "10",
        "flagSelfOnTemplateCollider": "01",
        "flagSelfInZone": "10",
        "flagTargetInZone": "11"
      }
    },
    "skillGCD": 3.0,
    "birdCirclingTactic": [
      {
        "$type": "EPHBMLFODKF",
        "enable": true,
        "condition": {
          "pose": [101, 102, 103, 104, 105]
        },
        "JMCOBEPDIGM": {
          "rangeMin": 0.0,
          "rangeMax": 50.0,
          "JOJBOHEDBHC": 0.0,
          "AFILKAGDAHN": 0.0,
          "ALIBHHJHHMN": 999.0,
          "OMHBOLPFEPM": 5.0,
          "BFJBDDIIFOI": {
            "LLICGJHIGME": 0.0,
            "IDEFILBHNAP": 0.0,
            "IBLIPJPNOGC": 0.0
          },
          "NAOBMNGDKHL": "1111",
          "JCNIJOAIGII": "1111",
          "MNPDDAKDHGK": ""
        }
      },
      {
        "$type": "NNJKLGNPMNN",
        "enable": true
      }
    ]
  },
  "inputKeys": [
    {
      "keyID": 251,
      "inputKeyCode": 257,
      "abilityName": ""
    },
    {
      "keyID": 221,
      "inputKeyCode": 258,
      "abilityName": ""
    },
    {
      "keyID": 231,
      "inputKeyCode": 259,
      "abilityName": ""
    },
    {
      "keyID": 241,
      "inputKeyCode": 260,
      "abilityName": ""
    },
    {
      "keyID": 211,
      "inputKeyCode": 261,
      "abilityName": ""
    },
    {
      "keyID": 301,
      "inputKeyCode": 262,
      "abilityName": ""
    },
    {
      "keyID": 311,
      "inputKeyCode": 263,
      "abilityName": ""
    },
    {
      "keyID": 401,
      "inputKeyCode": 264,
      "abilityName": ""
    },
    {
      "keyID": 201,
      "inputKeyCode": 265,
      "abilityName": ""
    }
  ],
  "move": {
    "$type": "IPNMJMHDMPF",
    "velocityForce": {
      "excludeForces": ["RetreatAirType", "WindZoneType", "AirflowType"]
    },
    "facingMove": "LeftRight",
    "positionModifyState": "Walk",
    "destroyRockWhenInit": true,
    "PKHOMJHFAEE": "RootNode"
  }
}
