{
  "common": {
    "effectAttachShape": {
      "$type": "OMIODKONOMG",
      "scaleY": 3.0
    },
    "mass": 1000.0,
    "height": 3.200000047683716,
    "viewSize": 2.5,
    "affectedByWorld": true,
    "checkInSurface": true,
    "useGrassDisplacement": true,
    "clearAnimatorOnSetLightDeactive": true,
    "clearAIOnSetLightDeactive": true
  },
  "specialPoint": {
    "elementAbsorb": "RootNode",
    "elementPendant": "",
    "elementDrop": "RootNode",
    "bulletAim": "BulletAimPoint"
  },
  "model": {
    "bornEffect": "",
    "attachEffect": "",
    "canBakeMesh": false,
    "BKPFGNPLDNJ": ""
  },
  "dither": {
    "showDitherDuration": 2.0,
    "normalBetweenCamera": {
      "detectDitherRange": 5.0
    }
  },
  "combat": {
    "property": {
      "endureType": "Monster_Demiboss_Other",
      "weight": 300.0
    },
    "beHit": {
      "hitBloodEffect": "",
      "hitAutoRedirect": false
    },
    "combatLock": {
      "lockShape": "CircleLockEnemy",
      "lockType": "Avatar&Monster_Lv4"
    },
    "die": {
      "hasAnimatorDie": true,
      "dieEndTime": 2.0,
      "dieForceDisappearTime": 4.0,
      "dieDisappearEffect": "Eff_Death_Common",
      "dieShaderData": "MonsterDie",
      "useRagDoll": true,
      "muteHitBox": true,
      "dieDenyLockOn": true,
      "dieIsGhostToEnemy": true,
      "dieIgnoreTriggerBullet": true,
      "muteBillboard": true,
      "mutePushCollider": true
    },
    "animEvents": {
      "Swipe": {
        "attackPattern": {
          "$type": "ConfigAttackCircle",
          "triggerType": "TriggerNoRepeat",
          "born": {
            "$type": "ConfigBornBySelf",
            "offset": {
              "x": 0.0,
              "y": 0.0,
              "z": 0.0
            },
            "direction": {
              "$type": "ConfigDirectionByEntity"
            }
          },
          "height": 2.0,
          "fanAngle": 220.0,
          "radius": 3.5
        },
        "attackInfo": {
          "attackTag": "",
          "attenuationTag": "",
          "attenuationGroup": "default",
          "attackProperty": {
            "actorGrassSubHurtDelta": 0.30000001192092896,
            "actorWindSubHurtDelta": 0.0,
            "elementDurability": 100.0,
            "strikeType": "Slash",
            "enBreak": 200.0,
            "GLKMCMDJBIK": 0.0
          },
          "hitPattern": {
            "onHitEffectName": "default",
            "hitImpulseY": "",
            "hitImpulseType": "LV4"
          }
        }
      },
      "PreyFinal": {
        "attackPattern": {
          "$type": "ConfigAttackSphere",
          "triggerType": "TriggerNoRepeat",
          "born": {
            "$type": "ConfigBornBySelf",
            "offset": {
              "x": 0.0,
              "y": 0.0,
              "z": 0.0
            }
          },
          "radius": 5.800000190734863
        },
        "attackInfo": {
          "attackTag": "",
          "attenuationTag": "",
          "attenuationGroup": "default",
          "attackProperty": {
            "actorGrassSubHurtDelta": 1.5,
            "actorWindSubHurtDelta": 0.0,
            "elementDurability": 100.0,
            "strikeType": "Blunt",
            "enBreak": 200.0,
            "GLKMCMDJBIK": 0.0
          },
          "hitPattern": {
            "onHitEffectName": "default",
            "hitImpulseY": "",
            "hitImpulseType": "LV5"
          },
          "forceCameraShake": true,
          "cameraShake": {
            "shakeType": "CustomVector",
            "shakeRange": 0.4000000059604645,
            "shakeTime": 0.15000000596046448,
            "shakeDistance": 30.0,
            "shakeDir": {
              "y": -1.0
            }
          }
        }
      }
    }
  },
  "abilities": [
    {
      "abilityID": "",
      "abilityName": "AbilityResistStruggle",
      "abilityOverride": ""
    },
    {
      "abilityID": "",
      "abilityName": "Monster_Apparatus_Enigma_Born",
      "abilityOverride": ""
    },
    {
      "abilityID": "",
      "abilityName": "Monster_Apparatus_Enigma_PowerOff",
      "abilityOverride": ""
    },
    {
      "abilityID": "",
      "abilityName": "Monster_Apparatus_Enigma_PowerOff_Remove",
      "abilityOverride": ""
    },
    {
      "abilityID": "",
      "abilityName": "Monster_Apparatus_Enigma_Weakness",
      "abilityOverride": ""
    },
    {
      "abilityID": "",
      "abilityName": "Monster_Apparatus_Enigma_Weakness_Remove",
      "abilityOverride": ""
    },
    {
      "abilityID": "",
      "abilityName": "Monster_Apparatus_Enigma_Break_Remove",
      "abilityOverride": ""
    },
    {
      "abilityID": "",
      "abilityName": "Monster_Apparatus_Enigma_Weak",
      "abilityOverride": ""
    },
    {
      "abilityID": "",
      "abilityName": "Monster_Apparatus_Enigma_Weak_Effect",
      "abilityOverride": ""
    },
    {
      "abilityID": "",
      "abilityName": "Monster_Apparatus_Enigma_Weak_End",
      "abilityOverride": ""
    },
    {
      "abilityID": "",
      "abilityName": "Monster_Apparatus_Enigma_ReturnToBorn",
      "abilityOverride": ""
    },
    {
      "abilityID": "",
      "abilityName": "Monster_Apparatus_Enigma_FakeDieCollider",
      "abilityOverride": ""
    },
    {
      "abilityID": "",
      "abilityName": "Monster_Apparatus_Enigma_BionicFlora_Initialization",
      "abilityOverride": ""
    },
    {
      "abilityID": "",
      "abilityName": "Monster_Apparatus_Enigma_BionicFlora_CoreActive",
      "abilityOverride": ""
    },
    {
      "abilityID": "",
      "abilityName": "Monster_Apparatus_Enigma_BionicFlora_Steer",
      "abilityOverride": ""
    },
    {
      "abilityID": "",
      "abilityName": "Monster_Apparatus_Enigma_BionicFlora_RangeAtk_TriggerBullet",
      "abilityOverride": ""
    },
    {
      "abilityID": "",
      "abilityName": "Monster_Apparatus_Enigma_BionicFlora_Prey",
      "abilityOverride": ""
    },
    {
      "abilityID": "",
      "abilityName": "Monster_Apparatus_Enigma_BionicFlora_Dig",
      "abilityOverride": ""
    },
    {
      "abilityID": "",
      "abilityName": "Monster_Apparatus_Enigma_BionicFlora_ScorchingSands",
      "abilityOverride": ""
    },
    {
      "abilityID": "",
      "abilityName": "Monster_Apparatus_Enigma_Machinery",
      "abilityOverride": ""
    },
    {
      "abilityID": "",
      "abilityName": "Monster_Apparatus_Enigma_BionicFlora_FakeDieCollider",
      "abilityOverride": ""
    }
  ],
  "stateLayers": {
    "defaultLayer": {
      "$type": "GBGJJIIEMBD",
      "layerIndexName": "",
      "CPAANEIJCGD": "",
      "stateIDs": {
        "Born": {
          "$type": "NEDIFAKEGCO",
          "animatorStates": {
            "Born": []
          },
          "canSyncMove": true,
          "resetAnimatorTriggerOnExit": ["DoSkill"]
        },
        "NormalIdle": {
          "$type": "NEDIFAKEGCO",
          "animatorStates": {
            "Standby": [],
            "Standby_Machinery": []
          },
          "canDoSkill": true,
          "canSyncMove": true,
          "resetAnimatorTriggerOnExit": ["DoSkill"]
        },
        "NormalIdle_WeakLoop": {
          "$type": "NEDIFAKEGCO",
          "animatorStates": {
            "WeakLoop": []
          },
          "canDoSkill": true,
          "canSyncMove": true,
          "resetAnimatorTriggerOnExit": ["DoSkill"]
        },
        "NormalIdle_PowerOff": {
          "$type": "NEDIFAKEGCO",
          "animatorStates": {
            "PowerOff": []
          },
          "canDoSkill": true,
          "canSyncMove": true,
          "resetAnimatorTriggerOnExit": ["DoSkill"]
        },
        "Turn": {
          "$type": "NEDIFAKEGCO",
          "animatorStates": {
            "Turn": []
          },
          "canDoSkill": true,
          "canSyncMove": true,
          "resetAnimatorTriggerOnExit": ["BeHit"]
        },
        "NormalMove": {
          "$type": "NEDIFAKEGCO",
          "animatorStates": {
            "WalkForward": [],
            "WalkBack": []
          },
          "canDoSkill": true,
          "canSyncMove": true,
          "resetAnimatorTriggerOnExit": ["DoSkill"],
          "canSteer": true
        },
        "Weak_Start": {
          "$type": "NEDIFAKEGCO",
          "animatorStates": {
            "Weak_Start": [
              "Monster_Apparatus_Enigma_BionicFlora_WeakStart",
              "Audio_Apparatus_BionicFlora_Weak_Start"
            ]
          },
          "resetAnimatorTriggerOnEnter": [
            "BeHit",
            "WeakStartTrigger",
            "BreakTrigger"
          ],
          "resetAnimatorTriggerOnExit": ["DoSkill"]
        },
        "Weak_End": {
          "$type": "NEDIFAKEGCO",
          "animatorStates": {
            "Weak_End": [
              "Monster_Apparatus_Enigma_BionicFlora_WeakStart",
              "Audio_Apparatus_BionicFlora_Weak_End"
            ]
          },
          "resetAnimatorTriggerOnEnter": ["BeHit"],
          "resetAnimatorTriggerOnExit": ["DoSkill"]
        },
        "Break": {
          "$type": "NEDIFAKEGCO",
          "animatorStates": {
            "Break": [
              "Monster_Apparatus_Enigma_BionicFlora_Break",
              "Audio_Apparatus_BionicFlora_Break"
            ]
          },
          "resetAnimatorTriggerOnEnter": ["BeHit", "BreakTrigger"],
          "resetAnimatorTriggerOnExit": ["DoSkill"]
        },
        "Die": {
          "$type": "NEDIFAKEGCO",
          "animatorStates": {
            "Die_BS": [
              "Monster_Apparatus_Enigma_BionicFlora_Die",
              "Audio_Apparatus_BionicFlora_Die"
            ],
            "WeakDie_BS": [
              "Monster_Apparatus_Enigma_BionicFlora_WeakDie",
              "Audio_Apparatus_BionicFlora_WeakDie"
            ],
            "SwimDie": []
          }
        },
        "Die_RagDoll": {
          "$type": "NEDIFAKEGCO",
          "animatorStates": {
            "Die": [],
            "WeakDie": []
          },
          "enableRagDoll": true
        },
        "PowerOff_WakeUp": {
          "$type": "NEDIFAKEGCO",
          "animatorStates": {
            "PowerOff_WakeUp": [
              "Monster_Apparatus_Enigma_BionicFlora_WakeUp",
              "Audio_Apparatus_BionicFlora_PowerOff_WakeUP"
            ]
          },
          "cullingModelAlwaysAnimate": true,
          "resetAnimatorTriggerOnEnter": ["BeHit"],
          "resetAnimatorTriggerOnExit": ["DoSkill", "LevelEnterBattle"]
        },
        "Swipe": {
          "$type": "NEDIFAKEGCO",
          "animatorStates": {
            "Swipe": [
              "Monster_Apparatus_Enigma_BionicFlora_Swipe",
              "Audio_Apparatus_BionicFlora_Swipe"
            ]
          },
          "resetAnimatorTriggerOnExit": ["BeHit", "DoSkill"]
        },
        "Prey": {
          "$type": "NEDIFAKEGCO",
          "animatorStates": {
            "PreyDigIn": [
              "Monster_Apparatus_Enigma_BionicFlora_DigIn",
              "Audio_Apparatus_BionicFlora_PreyDigIn"
            ],
            "PreyUnderGround": [],
            "PreyBS": ["Audio_Apparatus_BionicFlora_PreyBS"],
            "PreyLoop": ["Audio_Apparatus_BionicFlora_PreyLoop"],
            "PreyAS": [
              "Monster_Apparatus_Enigma_BionicFlora_PreyAS",
              "Audio_Apparatus_BionicFlora_PreyAS"
            ],
            "PreyDigOut": [
              "Monster_Apparatus_Enigma_BionicFlora_DigOut",
              "Audio_Apparatus_BionicFlora_PreyDigOut"
            ]
          },
          "resetAnimatorTriggerOnEnter": ["DigOutTrigger"],
          "resetAnimatorTriggerOnExit": ["BeHit", "DoSkill"]
        },
        "RangeAtkBS": {
          "$type": "NEDIFAKEGCO",
          "animatorStates": {
            "RangeAtkBS": ["Audio_Apparatus_BionicFlora_RangeAtkBS"]
          },
          "resetAnimatorTriggerOnEnter": ["RangeAtkEnd"],
          "resetAnimatorTriggerOnExit": ["BeHit", "DoSkill"]
        },
        "RangeAtkLoop": {
          "$type": "NEDIFAKEGCO",
          "animatorStates": {
            "RangeAtkLoop": [
              "Monster_Apparatus_Enigma_BionicFlora_RangeAtkLoop",
              "Audio_Apparatus_BionicFlora_RangeAtkLoop"
            ]
          },
          "resetAnimatorTriggerOnExit": ["BeHit", "DoSkill"]
        },
        "RangeAtkAS": {
          "$type": "NEDIFAKEGCO",
          "animatorStates": {
            "RangeAtkAS": ["Audio_Apparatus_BionicFlora_RangeAS"]
          },
          "resetAnimatorTriggerOnExit": ["BeHit", "DoSkill"]
        },
        "Dig": {
          "$type": "NEDIFAKEGCO",
          "animatorStates": {
            "DigIn": [
              "Monster_Apparatus_Enigma_BionicFlora_DigIn",
              "Audio_Apparatus_BionicFlora_PreyDigIn"
            ],
            "UnderGround": [],
            "DigOut": [
              "Monster_Apparatus_Enigma_BionicFlora_DigOut",
              "Audio_Apparatus_BionicFlora_PreyDigOut"
            ]
          },
          "resetAnimatorTriggerOnEnter": ["DigOutTrigger"],
          "resetAnimatorTriggerOnExit": ["BeHit", "DoSkill"]
        },
        "ScorchingSandsBS": {
          "$type": "NEDIFAKEGCO",
          "animatorStates": {
            "ScorchingSandsBS": ["Audio_Apparatus_BionicFlora_ScorchingSandsBS"]
          },
          "resetAnimatorTriggerOnExit": ["BeHit", "DoSkill"]
        },
        "ScorchingSandsLoop": {
          "$type": "NEDIFAKEGCO",
          "animatorStates": {
            "ScorchingSandsLoop": []
          },
          "resetAnimatorTriggerOnExit": ["BeHit", "DoSkill"]
        },
        "ScorchingSandsAS": {
          "$type": "NEDIFAKEGCO",
          "animatorStates": {
            "ScorchingSandsAS": ["Audio_Apparatus_BionicFlora_ScorchingSandsAS"]
          },
          "resetAnimatorTriggerOnExit": ["BeHit", "DoSkill"]
        },
        "Machinery": {
          "$type": "NEDIFAKEGCO",
          "animatorStates": {
            "Alert_Machinery": [
              "Monster_Apparatus_Enigma_BionicFlora_Alert_Machinery"
            ]
          },
          "cullingModelAlwaysAnimate": true,
          "resetAnimatorTriggerOnEnter": ["BeHit"],
          "resetAnimatorTriggerOnExit": ["DoSkill"]
        }
      }
    }
  },
  "billboard": {
    "$type": "DNGNMAJBCNP",
    "attachPoint": "BillboardAttach",
    "offset": {
      "y": 1.7999999523162842
    },
    "offsetType": "Character",
    "radiusOffset": 2.0,
    "enableSelfAdapt": true,
    "showDistance": 48.0,
    "showHPBar": true,
    "size": "Big"
  },
  "initialPoses": {
    "Default": {
      "initialPoseID": 100,
      "initialPoseParams": {
        "boolParams": {
          "PowerOff": "false"
        }
      }
    },
    "PowerOff": {
      "initialPoseID": 101,
      "initialPoseParams": {
        "boolParams": {
          "PowerOff": "true"
        }
      }
    },
    "Machinery": {
      "initialPoseID": 111,
      "initialPoseParams": {
        "boolParams": {
          "Machinery": "true"
        }
      }
    }
  },
  "aibeta": {
    "enable": true,
    "moveSetting": {
      "navMeshAgentName": "Undead01",
      "almostReachedDistanceWalk": 2.0
    },
    "sensing": {
      "settings": {
        "DefaultSetting": {
          "viewRange": 20.0,
          "verticalFov": 120.0,
          "feelRange": 8.0
        },
        "PowerOff_Active": {
          "enableVision": false,
          "feelRange": 8.0
        },
        "PowerOff_Passive": {
          "enableVision": false,
          "hearAttractionRange": 0.0,
          "feelRange": 0.0
        },
        "NeverCombat": {
          "enableVision": false,
          "hearAttractionRange": 0.0,
          "feelRange": 0.0
        },
        "Machinery": {
          "enableVision": false,
          "hearAttractionRange": 0.0,
          "feelRange": 0.0
        }
      },
      "templates": {
        "DefaultTemplate": {
          "DefaultPoses": "DefaultSetting",
          "101": "PowerOff_Active"
        },
        "PowerOff_Passive": {
          "DefaultPoses": "DefaultSetting",
          "101": "PowerOff_Passive"
        },
        "NeverCombatTemplate": {
          "DefaultPoses": "NeverCombat",
          "101": "NeverCombat"
        },
        "Machinery": {
          "DefaultPoses": "DefaultSetting",
          "111": "Machinery"
        }
      }
    },
    "neurons": {
      "DefaultSetting": ["HIT"],
      "PowerOff_Passive": [],
      "NeverCombat": [],
      "Machinery": []
    },
    "threat": {
      "GHIJMOKOLMB": "",
      "clearThreatByLostPath": true,
      "viewAttenuation": [
        {
          "x": 10.0,
          "y": 2.0
        },
        {
          "x": 20.0,
          "y": 1.0
        },
        {
          "x": 30.0,
          "y": 0.5
        },
        {
          "x": 50.0,
          "y": 0.10000000149011612
        }
      ],
      "resistTauntLevel": "Monster_TauntLevel_3"
    },
    "defendArea": {
      "defendRange": 50.0
    },
    "profiling": {
      "staticPoses": [101]
    },
    "skills": {
      "101": {
        "name": "OnAlert",
        "skillType": "OnAlert",
        "castCondition": {
          "pose": [101]
        },
        "publicCDGroup": "",
        "triggerGCD": false,
        "HHAGODJIAPE": "",
        "stateIDs": [
          "PowerOff_WakeUp",
          "PowerOff_Warning",
          "PowerOff_WarningAS"
        ],
        "skillQueryingTime": 3.0,
        "flagTargetReachable": "10",
        "flagSelfOnTemplateCollider": "01",
        "flagSelfInZone": "10",
        "flagTargetInZone": "11"
      },
      "102": {
        "name": "OnHitAlert",
        "skillType": "OnNerve",
        "castCondition": {
          "pose": [101]
        },
        "publicCDGroup": "",
        "triggerGCD": false,
        "HHAGODJIAPE": "",
        "stateIDs": [
          "PowerOff_WakeUp",
          "PowerOff_Warning",
          "PowerOff_WarningAS"
        ],
        "skillQueryingTime": 3.0,
        "flagTargetReachable": "10",
        "flagSelfOnTemplateCollider": "01",
        "flagSelfInZone": "10",
        "flagTargetInZone": "11",
        "nerveTrigger": ["HIT"]
      },
      "111": {
        "name": "WeakEnd",
        "castCondition": {
          "pose": [202]
        },
        "cd": 1.0,
        "publicCDGroup": "",
        "ignoreGCD": true,
        "HHAGODJIAPE": "",
        "stateIDs": ["Weak_End"],
        "flagTargetReachable": "11",
        "flagSelfOnTemplateCollider": "11",
        "flagSelfInZone": "11",
        "flagTargetInZone": "11"
      },
      "121": {
        "name": "OnAlert",
        "skillType": "OnAlert",
        "castCondition": {
          "pose": [111]
        },
        "publicCDGroup": "",
        "triggerGCD": false,
        "HHAGODJIAPE": "",
        "stateIDs": ["Machinery"],
        "skillQueryingTime": 3.0,
        "flagTargetReachable": "10",
        "flagSelfOnTemplateCollider": "01",
        "flagSelfInZone": "10",
        "flagTargetInZone": "11"
      },
      "201": {
        "name": "Swipe",
        "castCondition": {
          "pose": [201],
          "maxTargetAngleXZ": 45.0,
          "pickRangeMax": 3.0
        },
        "cd": 2.5,
        "initialCD": 2.5,
        "publicCDGroup": "Perpetual_Enigma_MeleeAttack",
        "HHAGODJIAPE": "",
        "stateIDs": ["Swipe"],
        "flagTargetReachable": "10",
        "flagSelfOnTemplateCollider": "01",
        "flagSelfInZone": "10",
        "flagTargetInZone": "11"
      },
      "211": {
        "name": "Prey",
        "castCondition": {
          "pose": [201],
          "pickRangeMax": 25.0
        },
        "cd": 20.0,
        "cdUpperRange": 4.0,
        "publicCDGroup": "Perpetual_Enigma_MeleeAttack",
        "triggerGCD": false,
        "HHAGODJIAPE": "",
        "stateIDs": ["Prey"],
        "flagTargetReachable": "10",
        "flagSelfOnTemplateCollider": "01",
        "flagSelfInZone": "10",
        "flagTargetInZone": "11"
      },
      "221": {
        "name": "RangeAtk",
        "castCondition": {
          "pose": [201],
          "maxTargetAngleXZ": 180.0,
          "pickRangeMin": 5.0,
          "pickRangeMax": 20.0
        },
        "cd": 12.0,
        "cdUpperRange": 2.4000000953674316,
        "publicCDGroup": "Perpetual_Enigma_RangeAttack",
        "HHAGODJIAPE": "",
        "stateIDs": ["RangeAtkBS", "RangeAtkLoop", "RangeAtkAS"],
        "flagTargetReachable": "11",
        "flagSelfOnTemplateCollider": "01",
        "flagSelfInZone": "11",
        "flagTargetInZone": "11"
      },
      "231": {
        "name": "Dig",
        "castCondition": {
          "pose": [201],
          "pickRangeMin": 10.0,
          "pickRangeMax": 30.0
        },
        "cd": 15.0,
        "cdUpperRange": 3.0,
        "publicCDGroup": "Perpetual_Enigma_MeleeAttack",
        "HHAGODJIAPE": "",
        "stateIDs": ["Dig"],
        "flagTargetReachable": "11",
        "flagSelfOnTemplateCollider": "01",
        "flagSelfInZone": "10",
        "flagTargetInZone": "11"
      },
      "232": {
        "name": "Dig",
        "castCondition": {
          "pose": [201],
          "pickRangeMax": 30.0
        },
        "cd": 9999.0,
        "initialCD": 9999.0,
        "publicCDGroup": "Perpetual_Enigma_MeleeAttack",
        "triggerGCD": false,
        "HHAGODJIAPE": "",
        "stateIDs": ["Dig"],
        "flagTargetReachable": "11",
        "flagSelfOnTemplateCollider": "01",
        "flagSelfInZone": "10",
        "flagTargetInZone": "11"
      },
      "241": {
        "name": "ScorchingSands",
        "castCondition": {
          "pose": [201],
          "maxTargetAngleXZ": 180.0,
          "pickRangeMax": 30.0,
          "pickRangeYMax": 5.5
        },
        "cd": 20.0,
        "cdUpperRange": 5.0,
        "publicCDGroup": "Perpetual_Enigma_RangeAttack",
        "triggerGCD": false,
        "HHAGODJIAPE": "",
        "stateIDs": [
          "ScorchingSandsBS",
          "ScorchingSandsLoop",
          "ScorchingSandsAS"
        ],
        "flagTargetReachable": "11",
        "flagSelfOnTemplateCollider": "01",
        "flagSelfInZone": "10",
        "flagTargetInZone": "11"
      }
    },
    "skillGCD": 2.0,
    "birdCirclingTactic": [
      {
        "$type": "KACCHOLJDNK",
        "enable": true,
        "condition": {
          "pose": [201]
        },
        "JMCOBEPDIGM": {
          "ANLAAGAMIKF": 1,
          "KHDFDAAAPEI": 7.0,
          "HKJODDGJPHA": 99.0,
          "GGEBMFHFBPO": 4.0,
          "FLPMDIAJDKL": false,
          "MNPDDAKDHGK": ""
        }
      },
      {
        "$type": "NNJKLGNPMNN",
        "enable": true,
        "JMCOBEPDIGM": {
          "ANLAAGAMIKF": 0,
          "JFMIFLNBKMJ": 1.0,
          "DHGJDIPNDHH": 3.0,
          "MNPDDAKDHGK": "",
          "GJDMDHIBCME": ""
        },
        "PIOCBHLFLJP": {
          "201": {
            "ANLAAGAMIKF": 1,
            "JFMIFLNBKMJ": 4.0,
            "DHGJDIPNDHH": 6.0,
            "MNPDDAKDHGK": "",
            "GJDMDHIBCME": ""
          }
        }
      },
      {
        "$type": "FPELBIJFGCE",
        "enable": true,
        "condition": {
          "pose": [100]
        },
        "JMCOBEPDIGM": {
          "NBENNEKDIIA": 0.25,
          "KPNDPKIOPJM": 5.0,
          "PINAFKEDDLL": 3.0,
          "ANMPOPEBDIA": 30.0,
          "GMJFIMFFOEL": 10.0,
          "CHCPFDMADEI": 15.0,
          "MNPDDAKDHGK": ""
        }
      }
    ]
  },
  "inputKeys": [
    {
      "keyID": 201,
      "inputKeyCode": 257,
      "abilityName": ""
    },
    {
      "keyID": 211,
      "inputKeyCode": 258,
      "abilityName": ""
    },
    {
      "keyID": 221,
      "inputKeyCode": 259,
      "abilityName": ""
    },
    {
      "keyID": 231,
      "inputKeyCode": 260,
      "abilityName": ""
    },
    {
      "keyID": 241,
      "inputKeyCode": 261,
      "abilityName": ""
    },
    {
      "keyID": 101,
      "inputKeyCode": 262,
      "abilityName": ""
    }
  ],
  "move": {
    "$type": "IPNMJMHDMPF",
    "destroyRockWhenInit": true,
    "PKHOMJHFAEE": "RootNode"
  },
  "audio": {
    "overrideEmitterName": "",
    "animAudio": {
      "onTransitionIn": [
        {
          "currentStateName": "",
          "audioEvent": {
            "text": ""
          }
        }
      ],
      "onTransitionOut": [
        {
          "currentStateName": "ScorchingSandsLoop",
          "audioEvent": {
            "text": "Stop_sfx_monster_apparatus_bionicFlora_scorchingSandsLoop"
          }
        }
      ]
    }
  }
}
