{
  "common": {
    "effectAttachShape": {
      "$type": "FJNPJANPGGC",
      "mesh": "EffectMesh"
    },
    "mass": 10000.0,
    "height": 2.4000000953674316,
    "modelHeight": 2.4000000953674316,
    "viewSize": 2.0,
    "affectedByWorld": true,
    "checkInSurface": true,
    "scale": 1.2000000476837158,
    "disableTickDistance": 200.0,
    "useGrassDisplacement": true,
    "reconnectSupport": true,
    "recoverByInitPose": true
  },
  "headControl": {
    "$type": "KPIPDEBDPIH",
    "useHeadControl": true,
    "maxYawDegree": 45.0,
    "maxPitchDegree": 30.0,
    "animStates": [
      "NormalIdle/Standby",
      "NormalMove/WalkForward",
      "NormalMove/WalkBack",
      "NormalMove/WalkRight",
      "NormalMove/WalkLeft",
      "NormalMove/Run",
      "TurnLeft/TurnLeft_BS",
      "TurnLeft/TurnLeft_AS",
      "TurnRight/TurnRight_BS",
      "TurnRight/TurnRight_AS"
    ]
  },
  "dither": {
    "showDitherDuration": 2.0
  },
  "combat": {
    "property": {
      "endureType": "Monster_Demiboss_Humanoid",
      "weight": 150.0
    },
    "beHit": {
      "hitBloodEffect": ""
    },
    "combatLock": {
      "lockShape": "CircleLockEnemy",
      "lockType": "Avatar&Monster_Lv4"
    },
    "die": {
      "hasAnimatorDie": true,
      "dieEndTime": 2.0,
      "dieForceDisappearTime": 4.0,
      "dieDisappearEffect": "Eff_Death_Common",
      "dieShaderData": "MonsterDie",
      "useRagDoll": true,
      "muteHitBox": true,
      "dieDenyLockOn": true,
      "dieIsGhostToEnemy": true,
      "dieIgnoreTriggerBullet": true,
      "muteBillboard": true,
      "mutePushCollider": true
    },
    "animEvents": {
      "Attack01": {
        "attackPattern": {
          "$type": "ConfigAttackCircle",
          "triggerType": "TriggerNoRepeat",
          "born": {
            "$type": "ConfigBornBySelf",
            "offset": {
              "x": 0.0,
              "y": 0.0,
              "z": 1.0
            }
          },
          "height": 2.0,
          "radius": 4.5
        },
        "attackInfo": {
          "attackTag": "",
          "attenuationTag": "Monster_MvM",
          "attenuationGroup": "Monster_MvM",
          "attackProperty": {
            "actorGrassSubHurtDelta": 1.0,
            "actorWindSubHurtDelta": 0.0,
            "elementDurability": 100.0,
            "strikeType": "Blunt",
            "enBreak": 100.0,
            "attackType": "Melee",
            "GLKMCMDJBIK": 0.0
          },
          "hitPattern": {
            "onHitEffectName": "default",
            "hitImpulseY": "",
            "hitImpulseType": "LV5"
          },
          "forceCameraShake": true,
          "cameraShake": {
            "shakeType": "CustomVector",
            "shakeRange": 0.03999999910593033,
            "shakeTime": 0.09000000357627869,
            "shakeDir": {
              "x": 1.0,
              "z": 1.0
            }
          }
        }
      },
      "Attack01_Fire": {
        "attackPattern": {
          "$type": "ConfigAttackCircle",
          "triggerType": "TriggerNoRepeat",
          "born": {
            "$type": "ConfigBornBySelf",
            "offset": {
              "x": 0.0,
              "y": 0.0,
              "z": 1.0
            }
          },
          "height": 2.0,
          "radius": 4.5
        },
        "attackInfo": {
          "attackTag": "",
          "attenuationTag": "Monster_MvM",
          "attenuationGroup": "Monster_MvM",
          "attackProperty": {
            "actorGrassSubHurtDelta": 1.0,
            "actorWindSubHurtDelta": 0.0,
            "elementType": "Fire",
            "elementDurability": 100.0,
            "strikeType": "Blunt",
            "enBreak": 100.0,
            "attackType": "Melee",
            "GLKMCMDJBIK": 0.0
          },
          "hitPattern": {
            "onHitEffectName": "default",
            "hitImpulseY": "",
            "hitImpulseType": "LV5"
          },
          "forceCameraShake": true,
          "cameraShake": {
            "shakeType": "CustomVector",
            "shakeRange": 0.11999999731779099,
            "shakeTime": 0.09000000357627869,
            "shakeDistance": 25.0,
            "shakeDir": {
              "x": 1.0,
              "z": 1.0
            }
          }
        }
      },
      "Attack01_Electric": {
        "attackPattern": {
          "$type": "ConfigAttackCircle",
          "triggerType": "TriggerNoRepeat",
          "born": {
            "$type": "ConfigBornBySelf",
            "offset": {
              "x": 0.0,
              "y": 0.0,
              "z": 1.2000000476837158
            }
          },
          "height": 2.0,
          "radius": 4.5
        },
        "attackInfo": {
          "attackTag": "",
          "attenuationTag": "Monster_MvM",
          "attenuationGroup": "Monster_MvM",
          "attackProperty": {
            "actorGrassSubHurtDelta": 1.0,
            "actorWindSubHurtDelta": 0.0,
            "elementType": "Electric",
            "elementDurability": 100.0,
            "strikeType": "Blunt",
            "enBreak": 100.0,
            "attackType": "Melee",
            "GLKMCMDJBIK": 0.0
          },
          "hitPattern": {
            "onHitEffectName": "default",
            "hitImpulseY": "",
            "hitImpulseType": "LV5"
          },
          "forceCameraShake": true,
          "cameraShake": {
            "shakeType": "CustomVector",
            "shakeRange": 0.11999999731779099,
            "shakeTime": 0.09000000357627869,
            "shakeDistance": 25.0,
            "shakeDir": {
              "x": 1.0,
              "z": 1.0
            }
          }
        }
      }
    }
  },
  "equipController": {
    "sheathPoint": "",
    "attachPoints": {
      "equip01": "WeaponR",
      "equip02": "WeaponL"
    }
  },
  "abilities": [
    {
      "abilityID": "Turn",
      "abilityName": "Brute_None_Axe_Turn",
      "abilityOverride": ""
    },
    {
      "abilityID": "FireAxe",
      "abilityName": "Brute_Axe_FireAxe",
      "abilityOverride": ""
    },
    {
      "abilityID": "NormalAttack",
      "abilityName": "Brute_Axe_NormalAttack",
      "abilityOverride": ""
    },
    {
      "abilityID": "Attack02_FireWave",
      "abilityName": "Brute_Axe_Attack02_FireWave",
      "abilityOverride": ""
    },
    {
      "abilityID": "Activity_V4_7_MvM_CommonThreat",
      "abilityName": "Activity_V4_7_MvM_CommonThreat",
      "abilityOverride": ""
    },
    {
      "abilityID": "",
      "abilityName": "Activity_V4_7_MvM_CommonThreatObject",
      "abilityOverride": ""
    },
    {
      "abilityID": "",
      "abilityName": "Activity_V4_7_MvM_BruteFireAxe",
      "abilityOverride": ""
    }
  ],
  "stateLayers": {
    "defaultLayer": {
      "$type": "GBGJJIIEMBD",
      "layerIndexName": "",
      "CPAANEIJCGD": "",
      "stateIDs": {
        "NormalIdle": {
          "$type": "NEDIFAKEGCO",
          "animatorStates": {
            "Standby": [],
            "Born": []
          },
          "canDoSkill": true,
          "canSyncMove": true,
          "resetAnimatorTriggerOnExit": ["DoSkill"]
        },
        "NormalMove": {
          "$type": "NEDIFAKEGCO",
          "animatorStates": {
            "WalkForward": ["Audio_Brute_Axe_WalkForward"],
            "WalkBack": ["Audio_Brute_Axe_WalkBack"],
            "Run": ["Audio_Brute_Axe_WalkForward"]
          },
          "canDoSkill": true,
          "canSyncMove": true,
          "resetAnimatorTriggerOnExit": ["DoSkill"],
          "canSteer": true
        },
        "TurnLeft": {
          "$type": "NEDIFAKEGCO",
          "animatorStates": {
            "TurnLeft_BS": ["Audio_Brute_Axe_Turn"],
            "TurnLeft_AS": ["Audio_Brute_Axe_Turn"]
          },
          "canDoSkill": true,
          "canSyncMove": true,
          "resetAnimatorTriggerOnExit": ["DoSkill"]
        },
        "TurnRight": {
          "$type": "NEDIFAKEGCO",
          "animatorStates": {
            "TurnRight_BS": ["Audio_Brute_Axe_Turn"],
            "TurnRight_AS": ["Audio_Brute_Axe_Turn"]
          },
          "canDoSkill": true,
          "canSyncMove": true,
          "resetAnimatorTriggerOnExit": ["DoSkill"]
        },
        "BeHit": {
          "$type": "NEDIFAKEGCO",
          "animatorStates": {
            "Hit_L": ["Audio_Brute_Axe_HitL"],
            "Hit_H": ["Audio_Brute_Axe_HitH"]
          },
          "resetAnimatorTriggerOnEnter": ["BeHit"],
          "resetAnimatorTriggerOnExit": ["DoSkill"]
        },
        "BeHitThrow": {
          "$type": "NEDIFAKEGCO",
          "animatorStates": {
            "HitThrow": [],
            "HitThrowDrop": [],
            "HitThrowToGround": ["Audio_Brute_Axe_HitThrowToGround"]
          },
          "resetAnimatorTriggerOnEnter": ["BeHit", "HitAir2HitDrop"],
          "resetAnimatorTriggerOnExit": ["DoSkill"]
        },
        "Struggle": {
          "$type": "NEDIFAKEGCO",
          "animatorStates": {
            "Struggle": []
          },
          "resetAnimatorTriggerOnEnter": ["BeHit", "HitAir2HitDrop"],
          "resetAnimatorTriggerOnExit": ["DoSkill"]
        },
        "Die": {
          "$type": "NEDIFAKEGCO",
          "animatorStates": {
            "Die_01": ["Audio_Brute_Axe_Die"],
            "Die_02": ["Audio_Brute_Axe_Die"]
          },
          "resetAnimatorTriggerOnEnter": ["DoSkill"]
        },
        "Die_RagDoll": {
          "$type": "NEDIFAKEGCO",
          "animatorStates": {
            "Die_RagDoll_01": ["Audio_Brute_Axe_Die"],
            "Die_RagDoll_02": ["Audio_Brute_Axe_Die"],
            "AirDie": ["Audio_Brute_Axe_AirDie"]
          },
          "enableRagDoll": true
        },
        "Attack01": {
          "$type": "NEDIFAKEGCO",
          "animatorStates": {
            "Attack01": [
              "Monster_Brute_Axe_Attack01",
              "Audio_Brute_Axe_Attack01",
              "Activity_V4_7_MvM_CommonThreat"
            ]
          },
          "addEndure": 0.0,
          "massRatio": 20.0,
          "resetAnimatorTriggerOnExit": ["BeHit", "DoSkill"]
        }
      }
    }
  },
  "billboard": {
    "$type": "DNGNMAJBCNP",
    "attachPoint": "BillboardAttach",
    "offset": {
      "x": 0.03999999910593033
    },
    "offsetType": "Character",
    "radiusOffset": 0.7200000286102295,
    "showHPBar": true,
    "size": "Big"
  },
  "initialPoses": {
    "Default": {},
    "Defend": {
      "initialPoseID": 999,
      "initialPoseParams": {
        "intParams": {
          "LevelType": "1"
        }
      }
    }
  },
  "aibeta": {
    "enable": true,
    "sensing": {
      "settings": {
        "DefaultSetting": {
          "viewRange": 15.0,
          "viewPanoramic": true,
          "feelRange": 15.0
        }
      },
      "templates": {
        "DefaultTemplate": {
          "DefaultPoses": "DefaultSetting"
        }
      }
    },
    "neurons": {
      "DefaultSetting": ["HIT", "FEAR"],
      "NeverCombat": []
    },
    "threat": {
      "GHIJMOKOLMB": "",
      "clearThreatTargetDistance": 100.0,
      "clearThreatEdgeDistance": 3.5,
      "clearThreatTimerByDistance": 1.75,
      "LHDJAIFLCOE": true,
      "viewThreatGrow": 35.0,
      "feelThreatGrow": 1000.0,
      "threatDecreaseSpeed": 5.0,
      "threatBroadcastRange": 0.0,
      "viewAttenuation": [
        {
          "x": 15.0,
          "y": 10.0
        },
        {
          "x": 200.0
        }
      ],
      "resistTauntLevel": "Monster_TauntLevel_2",
      "IIOLFCGEIHN": true,
      "APJJOOLHDAA": ["_MVM_ATTACK_TARGET"],
      "auxScoreChangeTargetCD": 0.5,
      "targetDistanceScoreSystem": {
        "weight": 100,
        "value": 100.0,
        "max": 100.0,
        "enable": true
      }
    },
    "defendArea": {
      "defendRange": 100.0
    },
    "command": {
      "enable": true,
      "HDFMIBIKJCO": true
    },
    "profiling": {
      "staticPoses": [301, 401]
    },
    "skills": {
      "210": {
        "name": "Attack01",
        "skillPrepareSpeedLevel": 1,
        "castCondition": {
          "pose": [211, 212],
          "pickRangeMax": 3.5
        },
        "cd": 3.0,
        "publicCDGroup": "",
        "triggerCDOnStart": true,
        "HHAGODJIAPE": "",
        "stateIDs": ["Attack01"],
        "flagTargetReachable": "11",
        "flagSelfOnTemplateCollider": "11",
        "flagSelfInZone": "11",
        "flagTargetInZone": "11"
      }
    },
    "skillGCD": 0.0,
    "target": {
      "defaultTargetPrioritys": ["COMMAND", "THREAT"]
    },
    "birdCirclingTactic": [
      {
        "$type": "KACCHOLJDNK",
        "enable": true,
        "condition": {
          "pose": [201, 211, 212]
        },
        "JMCOBEPDIGM": {
          "ANLAAGAMIKF": 1,
          "KHDFDAAAPEI": 3.0,
          "HKJODDGJPHA": 99.0,
          "MNPDDAKDHGK": ""
        }
      },
      {
        "$type": "MCDGOJLCMBM",
        "JMCOBEPDIGM": {
          "MNPDDAKDHGK": "",
          "GJDMDHIBCME": ""
        }
      },
      {
        "$type": "COLLJLNKMLC",
        "JMCOBEPDIGM": {
          "MNPDDAKDHGK": "",
          "GJDMDHIBCME": "",
          "BBPDJAFOGPF": true,
          "PLLHMGHOAPB": "",
          "KPIJNGFNAEF": "",
          "GDPHPLKJGAJ": "",
          "KKKOAABEHEP": ""
        }
      },
      {
        "$type": "NNJKLGNPMNN",
        "enable": true,
        "condition": {
          "pose": [221, 231]
        },
        "JMCOBEPDIGM": {
          "ANLAAGAMIKF": 1,
          "MNPDDAKDHGK": "",
          "GJDMDHIBCME": "",
          "IAJDAHDAEFP": true,
          "OILAIKJEIGB": false
        }
      }
    ]
  },
  "inputKeys": [
    {
      "keyID": 210,
      "inputKeyCode": 257,
      "abilityName": ""
    },
    {
      "keyID": 220,
      "inputKeyCode": 258,
      "abilityName": ""
    },
    {
      "keyID": 230,
      "inputKeyCode": 259,
      "abilityName": ""
    },
    {
      "keyID": 240,
      "inputKeyCode": 260,
      "abilityName": ""
    },
    {
      "keyID": 210,
      "inputKeyCode": 261,
      "abilityName": ""
    },
    {
      "keyID": 121,
      "inputKeyCode": 262,
      "abilityName": ""
    }
  ],
  "move": {
    "$type": "IPNMJMHDMPF",
    "facingMove": "ForwardBackward",
    "monsterSizeType": "StrongHumanoidType",
    "PKHOMJHFAEE": "RootNode"
  },
  "audio": {
    "overrideEmitterName": "",
    "animAudio": {
      "onTransitionOut": [
        {
          "currentStateName": "Whirl_Loop",
          "audioEvent": {
            "text": "Stop_sfx_monster_brute_axe_whirl"
          },
          "otherStateNames": ["Whirl_AS"],
          "usage": "Except"
        },
        {
          "currentStateName": "Whirl_BS",
          "audioEvent": {
            "text": "Stop_sfx_monster_brute_axe_whirl"
          },
          "otherStateNames": ["Whirl_Loop"],
          "usage": "Except"
        },
        {
          "currentStateName": "JumpAttack",
          "audioEvent": {
            "text": "Stop_sfx_monster_brute_axe_jumpAttack"
          }
        },
        {
          "currentStateName": "PickUp",
          "audioEvent": {
            "text": "Stop_sfx_monster_brute_axe_pickup"
          }
        },
        {
          "currentStateName": "JumpAttack",
          "audioEvent": {
            "text": "Stop_vo_monster_brute_axe_jumpAttack"
          }
        },
        {
          "currentStateName": "PickUp",
          "audioEvent": {
            "text": "Stop_vo_monster_brute_axe_pickUp"
          }
        }
      ]
    }
  }
}
