{
  "common": {
    "effectAttachShape": {
      "$type": "FJNPJANPGGC",
      "mesh": "EffectMesh"
    },
    "mass": 10000.0,
    "height": 7.0,
    "viewSize": 2.0,
    "affectedByWorld": true,
    "checkInSurface": true,
    "scale": 1.2999999523162842,
    "shouldPauseAnimatorBeforeReady": true,
    "useGrassDisplacement": true,
    "clearAnimatorOnSetLightDeactive": true,
    "clearAIOnSetLightDeactive": true,
    "reconnectSupport": true,
    "recoverByInitPose": true
  },
  "specialPoint": {
    "elementAbsorb": "RootNode",
    "elementPendant": "",
    "elementDrop": "RootNode",
    "bulletAim": "RootNode",
    "selectedPoints": ["RootNode"],
    "ignoreTransform": true,
    "selectedPointRadius": 2.5
  },
  "model": {
    "bornEffect": "none",
    "attachEffect": "",
    "BKPFGNPLDNJ": ""
  },
  "dither": {
    "showDitherDuration": 2.0
  },
  "combat": {
    "property": {
      "endureType": "Monster_Demiboss_Other",
      "weight": 200.0
    },
    "beHit": {
      "hitBloodEffect": "",
      "muteDefenceHitHalt": true
    },
    "combatLock": {
      "lockShape": "CircleLockEnemy",
      "lockType": "Avatar&Monster_Lv4"
    },
    "die": {
      "hasAnimatorDie": true,
      "dieEndTime": 3.200000047683716,
      "dieForceDisappearTime": 3.200000047683716,
      "dieDisappearEffect": "",
      "muteHitBox": true,
      "dieDenyLockOn": true,
      "dieIsGhostToEnemy": true,
      "muteBillboard": true,
      "mutePushCollider": true
    },
    "animEvents": {
      "ElectricFingerAtk": {
        "attackPattern": {
          "$type": "ConfigAttackBox",
          "triggerType": "TriggerNoRepeat",
          "ignoreMassive": true,
          "born": {
            "$type": "ConfigBornBySelf",
            "offset": {
              "x": 0.0,
              "y": 1.5,
              "z": 3.0
            }
          },
          "size": {
            "x": 2.0,
            "y": 3.0,
            "z": 30.0
          }
        },
        "attackInfo": {
          "attackTag": "",
          "attenuationTag": "",
          "attenuationGroup": "default",
          "attackProperty": {
            "actorGrassSubHurtDelta": 0.699999988079071,
            "actorWindSubHurtDelta": 0.0,
            "elementType": "Electric",
            "elementDurability": 50.0,
            "strikeType": "Pierce",
            "enBreak": 50.0,
            "attackType": "Range",
            "GLKMCMDJBIK": 0.0
          },
          "hitPattern": {
            "onHitEffectName": "default",
            "hitImpulseY": "",
            "hitImpulseType": "LV4",
            "canBeDefenceHalt": true
          },
          "forceCameraShake": true,
          "cameraShake": {
            "shakeType": "CustomVector",
            "shakeRange": 0.30000001192092896,
            "shakeTime": 0.10000000149011612,
            "shakeDir": {
              "z": 1.0
            }
          }
        }
      },
      "IcePushAttack": {
        "attackPattern": {
          "$type": "ConfigAttackCircle",
          "triggerType": "TriggerNoRepeat",
          "ignoreMassive": true,
          "born": {
            "$type": "ConfigBornBySelf",
            "offset": {
              "x": 0.0,
              "y": 0.0,
              "z": 0.0
            }
          },
          "height": 6.0,
          "radius": 7.0
        },
        "attackInfo": {
          "attackTag": "",
          "attenuationTag": "",
          "attenuationGroup": "default",
          "attackProperty": {
            "actorGrassSubHurtDelta": 1.0,
            "actorWindSubHurtDelta": 0.0,
            "elementType": "Ice",
            "elementDurability": 100.0,
            "strikeType": "Pierce",
            "enBreak": 101.0,
            "attackType": "Range",
            "GLKMCMDJBIK": 0.0
          },
          "hitPattern": {
            "onHitEffectName": "default",
            "hitImpulseY": "",
            "hitImpulseType": "LV5",
            "canBeDefenceHalt": true
          },
          "forceCameraShake": true,
          "cameraShake": {
            "shakeType": "CustomVector",
            "shakeRange": 0.30000001192092896,
            "shakeTime": 0.10000000149011612,
            "shakeDir": {
              "z": 1.0
            }
          }
        }
      }
    }
  },
  "equipController": {
    "sheathPoint": "",
    "attachPoints": {
      "equip01": "WeaponR",
      "equip02": "WeaponL"
    }
  },
  "abilities": [
    {
      "abilityID": "",
      "abilityName": "Monster_Invoker_Archdeacon_01_Steer",
      "abilityOverride": ""
    },
    {
      "abilityID": "",
      "abilityName": "Monster_Invoker_Archdeacon_01_Initial",
      "abilityOverride": ""
    },
    {
      "abilityID": "",
      "abilityName": "Monster_Invoker_Archdeacon_01_CreateLightInitial",
      "abilityOverride": ""
    },
    {
      "abilityID": "",
      "abilityName": "Monster_Invoker_Archdeacon_01_Alert",
      "abilityOverride": ""
    },
    {
      "abilityID": "",
      "abilityName": "Monster_Invoker_Archdeacon_01_GVControl_MagicBall",
      "abilityOverride": ""
    },
    {
      "abilityID": "",
      "abilityName": "Monster_Invoker_Archdeacon_01_SwitchBall",
      "abilityOverride": ""
    },
    {
      "abilityID": "",
      "abilityName": "Monster_Invoker_Archdeacon_Release_OverCharge",
      "abilityOverride": ""
    },
    {
      "abilityID": "",
      "abilityName": "Monster_Invoker_Archdeacon_01_SwitchBallAttack_SwitchBall",
      "abilityOverride": ""
    },
    {
      "abilityID": "",
      "abilityName": "Monster_Invoker_Archdeacon_01_ShieldControl",
      "abilityOverride": ""
    },
    {
      "abilityID": "",
      "abilityName": "Monster_Invoker_Archdeacon_01_BreakRecover_SwitchBall",
      "abilityOverride": ""
    },
    {
      "abilityID": "",
      "abilityName": "Monster_Invoker_Archdeacon_01_OutOfBattle",
      "abilityOverride": ""
    },
    {
      "abilityID": "",
      "abilityName": "Monster_Invoker_Archdeacon_01_SwitchBallAttack_HandCharge",
      "abilityOverride": ""
    },
    {
      "abilityID": "",
      "abilityName": "Monster_Invoker_Archdeacon_01_SwitchBallAttack_HandBullet",
      "abilityOverride": ""
    },
    {
      "abilityID": "",
      "abilityName": "Monster_Invoker_Archdeacon_01_SwitchBallAttack_CreateBallExplode",
      "abilityOverride": ""
    },
    {
      "abilityID": "",
      "abilityName": "Monster_Invoker_Archdeacon_01_SwitchBallAtk_MultiBullet",
      "abilityOverride": ""
    },
    {
      "abilityID": "",
      "abilityName": "Monster_Invoker_Archdeacon_FireFingerThunder",
      "abilityOverride": ""
    },
    {
      "abilityID": "",
      "abilityName": "Monster_Invoker_Archdeacon_FireRock_Release",
      "abilityOverride": ""
    },
    {
      "abilityID": "",
      "abilityName": "Monster_Invoker_Archdeacon_FireRock_Summon",
      "abilityOverride": ""
    },
    {
      "abilityID": "",
      "abilityName": "Monster_Invoker_Archdeacon_ReleaseHellFire",
      "abilityOverride": ""
    },
    {
      "abilityID": "",
      "abilityName": "Monster_Invoker_Archdeacon_Release_ElectricBall",
      "abilityOverride": ""
    },
    {
      "abilityID": "",
      "abilityName": "Monster_Invoker_Archdeacon_FireRock_CreateCircle",
      "abilityOverride": ""
    },
    {
      "abilityID": "",
      "abilityName": "Invoker_Archdeacon_ReleaseIceBlade1",
      "abilityOverride": ""
    },
    {
      "abilityID": "",
      "abilityName": "Invoker_Archdeacon_ReleaseIceBlade2",
      "abilityOverride": ""
    },
    {
      "abilityID": "",
      "abilityName": "Invoker_Archdeacon_ReleaseIceBladeCross",
      "abilityOverride": ""
    },
    {
      "abilityID": "",
      "abilityName": "Invoker_Archdeacon_ReleaseThunderSpearL",
      "abilityOverride": ""
    },
    {
      "abilityID": "",
      "abilityName": "Invoker_Archdeacon_ReleaseThunderSpearR",
      "abilityOverride": ""
    },
    {
      "abilityID": "",
      "abilityName": "Invoker_Archdeacon_Blink",
      "abilityOverride": ""
    },
    {
      "abilityID": "",
      "abilityName": "Monster_Invoker_Archdeacon_ReleaseIceHellBullet",
      "abilityOverride": ""
    },
    {
      "abilityID": "",
      "abilityName": "Monster_Invoker_Archdeacon_SummonIceHellBullet",
      "abilityOverride": ""
    },
    {
      "abilityID": "",
      "abilityName": "Monster_Invoker_Archdeacon_01_FireShieldCreateEffect",
      "abilityOverride": ""
    },
    {
      "abilityID": "",
      "abilityName": "Monster_Invoker_Archdeacon_OpenShield",
      "abilityOverride": ""
    },
    {
      "abilityID": "",
      "abilityName": "Monster_Invoker_Archdeacon_ReleaseOvercharge_BlinkToBorn",
      "abilityOverride": ""
    }
  ],
  "stateLayers": {
    "defaultLayer": {
      "$type": "GBGJJIIEMBD",
      "layerIndexName": "",
      "CPAANEIJCGD": "",
      "stateIDs": {
        "Born": {
          "$type": "NEDIFAKEGCO",
          "animatorStates": {
            "Born": []
          },
          "canSyncMove": true,
          "resetAnimatorTriggerOnExit": ["DoSkill"]
        },
        "StandbyFree": {
          "$type": "NEDIFAKEGCO",
          "animatorStates": {
            "StandbyFree": []
          },
          "canDoSkill": true,
          "canSyncMove": true,
          "resetAnimatorTriggerOnExit": ["DoSkill"]
        },
        "NormalIdle": {
          "$type": "NEDIFAKEGCO",
          "animatorStates": {
            "Standby": []
          },
          "canDoSkill": true,
          "canSyncMove": true,
          "resetAnimatorTriggerOnExit": ["DoSkill"],
          "canSteer": true,
          "autoSteer": true
        },
        "WalkF": {
          "$type": "NEDIFAKEGCO",
          "animatorStates": {
            "WalkF": []
          },
          "canDoSkill": true,
          "canSyncMove": true,
          "resetAnimatorTriggerOnExit": ["DoSkill"],
          "canSteer": true
        },
        "WalkB": {
          "$type": "NEDIFAKEGCO",
          "animatorStates": {
            "WalkB": []
          },
          "canDoSkill": true,
          "canSyncMove": true,
          "resetAnimatorTriggerOnExit": ["DoSkill"],
          "canSteer": true
        },
        "BeHit": {
          "$type": "NEDIFAKEGCO",
          "animatorStates": {
            "Hit_L": [],
            "Hit_H": []
          },
          "resetAnimatorTriggerOnEnter": ["BeHit"],
          "resetAnimatorTriggerOnExit": ["DoSkill"]
        },
        "Die": {
          "$type": "NEDIFAKEGCO",
          "animatorStates": {
            "Die": [
              "Monster_Invoker_Archdeacon_Die",
              "Audio_Monster_Invoker_Archdeacon_01_Die"
            ]
          },
          "resetAnimatorTriggerOnEnter": ["DoSkill"]
        },
        "Alert": {
          "$type": "NEDIFAKEGCO",
          "animatorStates": {
            "Alert": []
          },
          "resetAnimatorTriggerOnExit": ["BeHit", "DoSkill"],
          "canSteer": true
        },
        "Alert_BS": {
          "$type": "NEDIFAKEGCO",
          "animatorStates": {
            "Alert_BS": ["Audio_Monster_Invoker_Archdeacon_01_Alert"]
          },
          "resetAnimatorTriggerOnExit": ["BeHit", "DoSkill"],
          "canSteer": true
        },
        "BreakDown_BS": {
          "$type": "NEDIFAKEGCO",
          "animatorStates": {
            "BreakDown_BS": ["Audio_Monster_Invoker_Archdeacon_01_BreakDown_BS"]
          },
          "resetAnimatorTriggerOnExit": ["BeHit", "DoSkill"],
          "handleAnimatorStateImmediately": true,
          "canSteer": true
        },
        "BreakDown_Loop": {
          "$type": "NEDIFAKEGCO",
          "animatorStates": {
            "BreakDown_Loop": []
          },
          "resetAnimatorTriggerOnExit": ["BeHit", "DoSkill"],
          "canSteer": true
        },
        "BreakDown_AS": {
          "$type": "NEDIFAKEGCO",
          "animatorStates": {
            "BreakDown_AS": [
              "Monster_Invoker_Archdeacon_01_BreakRecover_SwitchBall",
              "Audio_Monster_Invoker_Archdeacon_01_BreakDown_AS"
            ]
          },
          "resetAnimatorTriggerOnExit": ["BeHit", "DoSkill"],
          "canSteer": true
        },
        "Weak_BS": {
          "$type": "NEDIFAKEGCO",
          "animatorStates": {
            "Weak_BS": ["Audio_Monster_Invoker_Archdeacon_01_Weak_BS"]
          },
          "resetAnimatorTriggerOnExit": ["BeHit", "DoSkill"],
          "handleAnimatorStateImmediately": true,
          "canSteer": true
        },
        "Weak_Loop": {
          "$type": "NEDIFAKEGCO",
          "animatorStates": {
            "Weak_Loop": ["Monster_Invoker_Archdeacon_WeakSync"]
          },
          "resetAnimatorTriggerOnExit": ["BeHit", "DoSkill"],
          "canSteer": true
        },
        "Weak_AS": {
          "$type": "NEDIFAKEGCO",
          "animatorStates": {
            "Weak_AS": ["Audio_Monster_Invoker_Archdeacon_01_Weak_AS"]
          },
          "resetAnimatorTriggerOnExit": ["BeHit", "DoSkill"],
          "canSteer": true
        },
        "OverCharge_Prepare": {
          "$type": "NEDIFAKEGCO",
          "animatorStates": {
            "OverCharge_Prepare": []
          },
          "cullingModelAlwaysAnimate": true,
          "resetAnimatorTriggerOnExit": ["BeHit", "DoSkill"]
        },
        "OverCharge_BS": {
          "$type": "NEDIFAKEGCO",
          "animatorStates": {
            "OverCharge_BS": [
              "Monster_Invoker_Archdeacon_ReleaseOverCharge",
              "Audio_Monster_Invoker_Archdeacon_01_OverCharge_BS"
            ]
          },
          "cullingModelAlwaysAnimate": true,
          "resetAnimatorTriggerOnExit": ["BeHit", "DoSkill"]
        },
        "OverCharge_Loop": {
          "$type": "NEDIFAKEGCO",
          "animatorStates": {
            "OverCharge_Loop": ["Monster_Invoker_Archdeacon_OverchargeSync"]
          },
          "cullingModelAlwaysAnimate": true,
          "resetAnimatorTriggerOnExit": ["BeHit", "DoSkill"]
        },
        "OverCharge_AS": {
          "$type": "NEDIFAKEGCO",
          "animatorStates": {
            "OverCharge_AS": [
              "Audio_Monster_Invoker_Archdeacon_01_OverCharge_AS"
            ]
          },
          "cullingModelAlwaysAnimate": true,
          "resetAnimatorTriggerOnExit": ["BeHit", "DoSkill"]
        },
        "OverCharge2_BS": {
          "$type": "NEDIFAKEGCO",
          "animatorStates": {
            "OverCharge2_BS": [
              "Monster_Invoker_Archdeacon_ReleaseOverCharge",
              "Audio_Monster_Invoker_Archdeacon_01_OverCharge_BS"
            ]
          },
          "cullingModelAlwaysAnimate": true,
          "resetAnimatorTriggerOnExit": ["BeHit", "DoSkill"]
        },
        "OverCharge2_Loop": {
          "$type": "NEDIFAKEGCO",
          "animatorStates": {
            "OverCharge2_Loop": ["Monster_Invoker_Archdeacon_OverchargeSync"]
          },
          "cullingModelAlwaysAnimate": true,
          "resetAnimatorTriggerOnExit": ["BeHit", "DoSkill"]
        },
        "OverCharge2_AS": {
          "$type": "NEDIFAKEGCO",
          "animatorStates": {
            "OverCharge2_AS": [
              "Audio_Monster_Invoker_Archdeacon_01_OverCharge_AS"
            ]
          },
          "cullingModelAlwaysAnimate": true,
          "resetAnimatorTriggerOnExit": ["BeHit", "DoSkill"]
        },
        "OverCharge1_BS": {
          "$type": "NEDIFAKEGCO",
          "animatorStates": {
            "OverCharge1_BS": [
              "Monster_Invoker_Archdeacon_ReleaseOverCharge",
              "Audio_Monster_Invoker_Archdeacon_01_OverCharge_BS"
            ]
          },
          "cullingModelAlwaysAnimate": true,
          "resetAnimatorTriggerOnExit": ["BeHit", "DoSkill"]
        },
        "OverCharge1_Loop": {
          "$type": "NEDIFAKEGCO",
          "animatorStates": {
            "OverCharge1_Loop": ["Monster_Invoker_Archdeacon_OverchargeSync"]
          },
          "cullingModelAlwaysAnimate": true,
          "resetAnimatorTriggerOnExit": ["BeHit", "DoSkill"]
        },
        "OverCharge1_AS": {
          "$type": "NEDIFAKEGCO",
          "animatorStates": {
            "OverCharge1_AS": [
              "Audio_Monster_Invoker_Archdeacon_01_OverCharge_AS"
            ]
          },
          "cullingModelAlwaysAnimate": true,
          "resetAnimatorTriggerOnExit": ["BeHit", "DoSkill"]
        },
        "SwitchBall": {
          "$type": "NEDIFAKEGCO",
          "animatorStates": {
            "SwitchBall": [
              "Monster_Invoker_Archdeacon_SwitchBall",
              "Monster_Invoker_Archdeacon_SwitchBallAttack",
              "Audio_Monster_Invoker_Archdeacon_01_SwitchBall"
            ]
          },
          "cullingModelAlwaysAnimate": true,
          "resetAnimatorTriggerOnExit": ["BeHit", "DoSkill"],
          "canSteer": true
        },
        "WaterBladeAir_BS": {
          "$type": "NEDIFAKEGCO",
          "animatorStates": {
            "WaterBladeAir_BS": [
              "Audio_Monster_Invoker_Archdeacon_01_WaterBladeAir_BS"
            ]
          },
          "resetAnimatorTriggerOnExit": ["BeHit", "DoSkill"],
          "canSteer": true
        },
        "WaterBladeAir_Loop1": {
          "$type": "NEDIFAKEGCO",
          "animatorStates": {
            "WaterBladeAir_Loop1": [
              "Audio_Monster_Invoker_Archdeacon_01_WaterBladeAir_Loop"
            ]
          },
          "resetAnimatorTriggerOnExit": ["BeHit", "DoSkill"],
          "canSteer": true
        },
        "WaterBladeAir_Loop2": {
          "$type": "NEDIFAKEGCO",
          "animatorStates": {
            "WaterBladeAir_Loop2": [
              "Audio_Monster_Invoker_Archdeacon_01_WaterBladeAir_Loop"
            ]
          },
          "resetAnimatorTriggerOnExit": ["BeHit", "DoSkill"],
          "canSteer": true
        },
        "WaterBladeAir_Loop3": {
          "$type": "NEDIFAKEGCO",
          "animatorStates": {
            "WaterBladeAir_Loop3": [
              "Audio_Monster_Invoker_Archdeacon_01_WaterBladeAir_Loop"
            ]
          },
          "resetAnimatorTriggerOnExit": ["BeHit", "DoSkill"],
          "canSteer": true
        },
        "WaterBladeAir_AS": {
          "$type": "NEDIFAKEGCO",
          "animatorStates": {
            "WaterBladeAir_AS": [
              "Audio_Monster_Invoker_Archdeacon_01_WaterBladeAir_AS"
            ]
          },
          "resetAnimatorTriggerOnExit": ["BeHit", "DoSkill"],
          "canSteer": true
        },
        "WaterBallAttack": {
          "$type": "NEDIFAKEGCO",
          "animatorStates": {
            "WaterBallAttack": [
              "Audio_Monster_Invoker_Archdeacon_01_WaterBallAttack"
            ]
          },
          "resetAnimatorTriggerOnExit": ["BeHit", "DoSkill"],
          "canSteer": true
        },
        "IceBladeSummon": {
          "$type": "NEDIFAKEGCO",
          "animatorStates": {
            "IceBladeSummon": [
              "Monster_Invoker_Archdeacon_FireIceHellBlade",
              "Audio_Monster_Invoker_Archdeacon_01_IceBladeSummon"
            ]
          },
          "resetAnimatorTriggerOnExit": ["BeHit", "DoSkill"],
          "canSteer": true
        },
        "IceBladeAir_BS": {
          "$type": "NEDIFAKEGCO",
          "animatorStates": {
            "IceBladeAir_BS": [
              "Invoker_Archdeacon_ReleaseIceBlade_BS",
              "Audio_Monster_Invoker_Archdeacon_01_IceBladeAir_BS"
            ]
          },
          "resetAnimatorTriggerOnExit": ["BeHit", "DoSkill"],
          "canSteer": true
        },
        "IceBladeAir_Loop1": {
          "$type": "NEDIFAKEGCO",
          "animatorStates": {
            "IceBladeAir_Loop1": [
              "Invoker_Archdeacon_ReleaseIceBlade",
              "Audio_Monster_Invoker_Archdeacon_01_IceBladeAir_Loop"
            ]
          },
          "resetAnimatorTriggerOnExit": ["BeHit", "DoSkill"],
          "canSteer": true
        },
        "IceBladeAir_Loop2": {
          "$type": "NEDIFAKEGCO",
          "animatorStates": {
            "IceBladeAir_Loop2": [
              "Invoker_Archdeacon_ReleaseIceBlade",
              "Audio_Monster_Invoker_Archdeacon_01_IceBladeAir_Loop"
            ]
          },
          "resetAnimatorTriggerOnExit": ["BeHit", "DoSkill"],
          "canSteer": true
        },
        "IceBladeAir_AS": {
          "$type": "NEDIFAKEGCO",
          "animatorStates": {
            "IceBladeAir_AS": [
              "Invoker_Archdeacon_ReleaseIceBladeCross",
              "Audio_Monster_Invoker_Archdeacon_01_IceBladeAir_AS"
            ]
          },
          "resetAnimatorTriggerOnExit": ["BeHit", "DoSkill"],
          "canSteer": true
        },
        "IcePushAttack": {
          "$type": "NEDIFAKEGCO",
          "animatorStates": {
            "IcePushAttack": [
              "Monster_Invoker_Archdeacon_IcePushAttack",
              "Audio_Monster_Invoker_Archdeacon_01_IcePushAttack"
            ]
          },
          "resetAnimatorTriggerOnExit": ["BeHit", "DoSkill"],
          "canSteer": true
        },
        "ThunderFingerAttack": {
          "$type": "NEDIFAKEGCO",
          "animatorStates": {
            "ThunderFingerAttack": [
              "Monster_Invoker_Archdeacon_ThunderFingerAtk",
              "Audio_Monster_Invoker_Archdeacon_01_ThunderFingerAttack"
            ]
          },
          "resetAnimatorTriggerOnExit": ["BeHit", "DoSkill"],
          "canSteer": true
        },
        "ThunderSpearAttack": {
          "$type": "NEDIFAKEGCO",
          "animatorStates": {
            "ThunderSpearAttack": [
              "Invoker_Archdeacon_ReleaseThunderSpear",
              "Audio_Monster_Invoker_Archdeacon_01_ThunderSpearAttack"
            ]
          },
          "resetAnimatorTriggerOnExit": ["BeHit", "DoSkill"],
          "canSteer": true
        },
        "ThunderBallAttack": {
          "$type": "NEDIFAKEGCO",
          "animatorStates": {
            "ThunderBallAttack": [
              "Monster_Invoker_Archdeacon_Release_ElectricBall",
              "Audio_Monster_Invoker_Archdeacon_01_ThunderBallAttack"
            ]
          },
          "resetAnimatorTriggerOnExit": ["BeHit", "DoSkill"],
          "canSteer": true
        },
        "FireEarthBurn": {
          "$type": "NEDIFAKEGCO",
          "animatorStates": {
            "FireEarthBurn": [
              "Monster_Invoker_Archdeacon_ReleaseHellFire",
              "Audio_Monster_Invoker_Archdeacon_01_FireEarthBurn"
            ]
          },
          "resetAnimatorTriggerOnExit": ["BeHit", "DoSkill"],
          "canSteer": true
        },
        "FireRockWave": {
          "$type": "NEDIFAKEGCO",
          "animatorStates": {
            "FireRockWave": [
              "Monster_Invoker_Archdeacon_FireRock_Summon",
              "Monster_Invoker_Archdeacon_FireRock_Release",
              "Audio_Monster_Invoker_Archdeacon_01_FireRockWave"
            ]
          },
          "resetAnimatorTriggerOnExit": ["BeHit", "DoSkill"],
          "canSteer": true
        },
        "FireMagicBall": {
          "$type": "NEDIFAKEGCO",
          "animatorStates": {
            "FireMagicBall": []
          },
          "resetAnimatorTriggerOnExit": ["BeHit", "DoSkill"],
          "canSteer": true
        },
        "Blink_BS": {
          "$type": "NEDIFAKEGCO",
          "animatorStates": {
            "Blink_BS": ["Audio_Monster_Invoker_Archdeacon_01_Blink_BS"]
          },
          "resetAnimatorTriggerOnExit": ["BeHit", "DoSkill"],
          "handleAnimatorStateImmediately": true
        },
        "Blink_AS": {
          "$type": "NEDIFAKEGCO",
          "animatorStates": {
            "Blink_AS": ["Audio_Monster_Invoker_Archdeacon_01_Blink_AS"]
          },
          "resetAnimatorTriggerOnExit": ["BeHit", "DoSkill"],
          "handleAnimatorStateImmediately": true,
          "canSteer": true
        },
        "Blink_BSStandby": {
          "$type": "NEDIFAKEGCO",
          "animatorStates": {
            "Blink_BSStandby": ["Invoker_Archdeacon_Blink"]
          },
          "resetAnimatorTriggerOnExit": ["BeHit", "DoSkill"]
        },
        "Blink_ASStandby": {
          "$type": "NEDIFAKEGCO",
          "animatorStates": {
            "Blink_ASStandby": []
          },
          "resetAnimatorTriggerOnExit": ["BeHit", "DoSkill"],
          "canSteer": true
        }
      }
    }
  },
  "partControl": {
    "parts": [
      {
        "$type": "INCPGKCDCIO",
        "angularSpeed": 3000.0,
        "partRootName": "HandPointL",
        "doOnUnEabled": "RotateToForward",
        "forwardByTransName": "",
        "limitHorizontal": 0.0,
        "limitVertical": 55.0
      }
    ]
  },
  "billboard": {
    "$type": "DNGNMAJBCNP",
    "attachPoint": "BillboardAttach",
    "offsetType": "Character",
    "showHPBar": true,
    "forceShowDistance": 50.0,
    "size": "Big"
  },
  "initialPoses": {
    "Default": {
      "initialPoseID": 1
    }
  },
  "aibeta": {
    "enable": true,
    "moveSetting": {
      "useNavMesh": false,
      "navMeshAgentName": "Undead01"
    },
    "sensing": {
      "settings": {
        "DefaultSetting": {
          "viewRange": 15.0,
          "feelRange": 15.0
        },
        "LowAlert": {
          "viewRange": 10.0
        },
        "Battle": {
          "viewRange": 50.0,
          "feelRange": 50.0
        }
      },
      "templates": {
        "DefaultTemplate": {
          "DefaultPoses": "DefaultSetting",
          "1001": "DefaultSetting",
          "1002": "LowAlert",
          "1003": "DefaultSetting",
          "101": "Battle",
          "102": "Battle",
          "103": "Battle",
          "104": "Battle",
          "105": "Battle"
        }
      }
    },
    "neurons": {
      "DefaultSetting": ["HIT"],
      "NeverCombat": []
    },
    "threat": {
      "GHIJMOKOLMB": "",
      "clearThreatEdgeDistance": 0.0,
      "clearThreatByTargetOutOfZone": true,
      "clearThreatTimerByLostPath": 11.0,
      "clearThreatTimerByTargetOutOfZone": 2.0,
      "viewAttenuation": [
        {
          "x": 10.0,
          "y": 2.0
        },
        {
          "x": 15.0,
          "y": 0.800000011920929
        },
        {
          "x": 20.0,
          "y": 0.5
        },
        {
          "x": 25.0,
          "y": 0.30000001192092896
        },
        {
          "x": 30.0,
          "y": 0.20000000298023224
        }
      ],
      "resistTauntLevel": "Monster_TauntLevel_5"
    },
    "defendArea": {
      "defendRange": 50.0
    },
    "network": {
      "syncSkill": true
    },
    "skillSetting": {
      "skillEliteSet": {
        "1": [602, 501],
        "2": [601],
        "3": [501]
      }
    },
    "skills": {
      "1": {
        "name": "OnAlert",
        "skillType": "OnAlert",
        "publicCDGroup": "",
        "ignoreGCD": true,
        "HHAGODJIAPE": "",
        "stateIDs": ["Alert", "Alert_BS"],
        "skillQueryingTime": 3.0,
        "flagTargetReachable": "10",
        "flagSelfOnTemplateCollider": "01",
        "flagSelfInZone": "10",
        "flagTargetInZone": "11"
      },
      "101": {
        "name": "FireEarthBurn",
        "priority": 3,
        "castCondition": {
          "pose": [102],
          "needReInitCD": true,
          "pickRangeMax": 50.0
        },
        "cd": 3.0,
        "initialCD": 1.0,
        "publicCDGroup": "",
        "HHAGODJIAPE": "",
        "stateIDs": ["FireEarthBurn"],
        "skillQueryingTime": 3.0,
        "flagTargetReachable": "11",
        "flagSelfOnTemplateCollider": "01",
        "flagSelfInZone": "10",
        "flagTargetInZone": "11"
      },
      "102": {
        "name": "FireRockWave",
        "priority": 3,
        "faceTarget": true,
        "castCondition": {
          "pose": [102],
          "needReInitCD": true,
          "pickRangeMax": 50.0
        },
        "cd": 3.0,
        "initialCD": 1.0,
        "publicCDGroup": "",
        "triggerGCD": false,
        "HHAGODJIAPE": "",
        "stateIDs": ["FireRockWave"],
        "skillQueryingTime": 3.0,
        "flagTargetReachable": "11",
        "flagSelfOnTemplateCollider": "01",
        "flagSelfInZone": "10",
        "flagTargetInZone": "11"
      },
      "201": {
        "name": "ThunderFingerAttack",
        "priority": 4,
        "castCondition": {
          "pose": [103],
          "needReInitCD": true,
          "pickRangeMin": 3.0,
          "pickRangeMax": 50.0
        },
        "cd": 5.0,
        "initialCD": 1.0,
        "publicCDGroup": "",
        "HHAGODJIAPE": "",
        "stateIDs": ["ThunderFingerAttack"],
        "skillQueryingTime": 3.0,
        "flagTargetReachable": "11",
        "flagSelfOnTemplateCollider": "01",
        "flagSelfInZone": "10",
        "flagTargetInZone": "11"
      },
      "202": {
        "name": "ThunderSpearAttack",
        "priority": 4,
        "castCondition": {
          "pose": [103],
          "needReInitCD": true,
          "pickRangeMax": 50.0
        },
        "cd": 3.0,
        "initialCD": 1.0,
        "publicCDGroup": "",
        "HHAGODJIAPE": "",
        "stateIDs": ["ThunderSpearAttack"],
        "skillQueryingTime": 3.0,
        "flagTargetReachable": "11",
        "flagSelfOnTemplateCollider": "01",
        "flagSelfInZone": "10",
        "flagTargetInZone": "11"
      },
      "203": {
        "name": "ThunderBallAttack",
        "priority": 4,
        "castCondition": {
          "pose": [103],
          "needReInitCD": true,
          "pickRangeMax": 50.0
        },
        "cd": 20.0,
        "initialCD": 1.0,
        "publicCDGroup": "",
        "HHAGODJIAPE": "",
        "stateIDs": ["ThunderBallAttack"],
        "skillQueryingTime": 3.0,
        "flagTargetReachable": "11",
        "flagSelfOnTemplateCollider": "01",
        "flagSelfInZone": "10",
        "flagTargetInZone": "11"
      },
      "204": {
        "name": "Blink",
        "priority": 3,
        "castCondition": {
          "pose": [103],
          "needReInitCD": true,
          "pickRangeMax": 3.0
        },
        "cd": 30.0,
        "initialCD": 1.0,
        "publicCDGroup": "",
        "ignoreGCD": true,
        "triggerGCD": false,
        "HHAGODJIAPE": "",
        "stateIDs": [
          "Blink_BS",
          "Blink_AS",
          "Blink_ASStandby",
          "Blink_BSStandby"
        ],
        "skillQueryingTime": 3.0,
        "flagTargetReachable": "11",
        "flagSelfOnTemplateCollider": "01",
        "flagSelfInZone": "10",
        "flagTargetInZone": "11"
      },
      "301": {
        "name": "IceBladeSummon",
        "priority": 4,
        "castCondition": {
          "pose": [104],
          "needReInitCD": true,
          "pickRangeMax": 50.0
        },
        "cd": 20.0,
        "initialCD": 1.0,
        "publicCDGroup": "",
        "HHAGODJIAPE": "",
        "stateIDs": ["IceBladeSummon"],
        "skillQueryingTime": 3.0,
        "flagTargetReachable": "11",
        "flagSelfOnTemplateCollider": "01",
        "flagSelfInZone": "10",
        "flagTargetInZone": "11"
      },
      "302": {
        "name": "IceBladeAir",
        "priority": 1,
        "castCondition": {
          "pose": [104],
          "needReInitCD": true,
          "pickRangeMin": 5.0,
          "pickRangeMax": 50.0
        },
        "cd": 1.0,
        "publicCDGroup": "",
        "HHAGODJIAPE": "",
        "stateIDs": [
          "IceBladeAir_BS",
          "IceBladeAir_Loop1",
          "IceBladeAir_Loop2",
          "IceBladeAir_AS"
        ],
        "skillQueryingTime": 3.0,
        "flagTargetReachable": "11",
        "flagSelfOnTemplateCollider": "01",
        "flagSelfInZone": "10",
        "flagTargetInZone": "11"
      },
      "303": {
        "name": "IcePushAttack",
        "priority": 3,
        "castCondition": {
          "pose": [104],
          "needReInitCD": true,
          "pickRangeMax": 7.0
        },
        "cd": 2.5,
        "initialCD": 1.0,
        "publicCDGroup": "",
        "HHAGODJIAPE": "",
        "stateIDs": ["IcePushAttack"],
        "skillQueryingTime": 3.0,
        "flagTargetReachable": "11",
        "flagSelfOnTemplateCollider": "01",
        "flagSelfInZone": "10",
        "flagTargetInZone": "11"
      },
      "401": {
        "name": "WaterBladeAir",
        "priority": 4,
        "castCondition": {
          "pose": [105],
          "needReInitCD": true,
          "pickRangeMin": 5.0,
          "pickRangeMax": 50.0
        },
        "cd": 3.0,
        "initialCD": 1.0,
        "publicCDGroup": "",
        "ignoreGCD": true,
        "HHAGODJIAPE": "",
        "stateIDs": [
          "WaterBladeAir_BS",
          "WaterBladeAir_Loop1",
          "WaterBladeAir_Loop2",
          "WaterBladeAir_Loop3",
          "WaterBladeAir_AS"
        ],
        "skillQueryingTime": 3.0,
        "flagTargetReachable": "11",
        "flagSelfOnTemplateCollider": "01",
        "flagSelfInZone": "10",
        "flagTargetInZone": "11"
      },
      "403": {
        "name": "WaterBallAttack",
        "priority": 4,
        "faceTarget": true,
        "castCondition": {
          "pose": [105],
          "needReInitCD": true,
          "pickRangeMax": 50.0
        },
        "cd": 1.0,
        "initialCD": 1.0,
        "publicCDGroup": "",
        "ignoreGCD": true,
        "HHAGODJIAPE": "",
        "stateIDs": ["WaterBallAttack"],
        "skillQueryingTime": 3.0,
        "flagTargetReachable": "11",
        "flagSelfOnTemplateCollider": "01",
        "flagSelfInZone": "10",
        "flagTargetInZone": "11"
      },
      "501": {
        "name": "SwitchBall",
        "priority": 2,
        "castCondition": {
          "pose": [102, 103, 104, 105],
          "needReInitCD": true,
          "pickRangeMax": 50.0
        },
        "cd": 30.0,
        "initialCD": 30.0,
        "publicCDGroup": "",
        "ignoreGCD": true,
        "HHAGODJIAPE": "",
        "stateIDs": ["SwitchBall"],
        "skillQueryingTime": 3.0,
        "flagTargetReachable": "11",
        "flagSelfOnTemplateCollider": "01",
        "flagSelfInZone": "10",
        "flagTargetInZone": "11"
      },
      "601": {
        "name": "OverCharge",
        "priority": 1,
        "castCondition": {
          "pose": [101, 102, 103, 104, 105],
          "needReInitCD": true
        },
        "cd": 9999.0,
        "initialCD": 25.0,
        "publicCDGroup": "",
        "ignoreGCD": true,
        "triggerGCD": false,
        "triggerCDOnStart": true,
        "triggerCDOnFail": false,
        "HHAGODJIAPE": "",
        "stateIDs": [
          "OverCharge_Prepare",
          "OverCharge_BS",
          "OverCharge_Loop",
          "OverCharge_AS",
          "OverCharge2_BS",
          "OverCharge2_Loop",
          "OverCharge2_AS",
          "OverCharge1_BS",
          "OverCharge1_Loop",
          "OverCharge1_AS"
        ],
        "skillQueryingTime": 3.0,
        "flagTargetReachable": "11",
        "flagSelfOnTemplateCollider": "01",
        "flagSelfInZone": "10",
        "flagTargetInZone": "11"
      },
      "602": {
        "name": "OverCharge",
        "priority": 1,
        "castCondition": {
          "pose": [101, 102, 103, 104, 105],
          "needReInitCD": true
        },
        "cd": 9999.0,
        "initialCD": 0.699999988079071,
        "publicCDGroup": "",
        "ignoreGCD": true,
        "triggerCDOnStart": true,
        "triggerCDOnFail": false,
        "HHAGODJIAPE": "",
        "stateIDs": [
          "OverCharge_Prepare",
          "OverCharge_BS",
          "OverCharge_Loop",
          "OverCharge_AS",
          "OverCharge2_BS",
          "OverCharge2_Loop",
          "OverCharge2_AS",
          "OverCharge1_BS",
          "OverCharge1_Loop",
          "OverCharge1_AS"
        ],
        "skillQueryingTime": 3.0,
        "flagTargetReachable": "11",
        "flagSelfOnTemplateCollider": "01",
        "flagSelfInZone": "10",
        "flagTargetInZone": "11"
      },
      "701": {
        "name": "Weak_BS",
        "priority": 3,
        "castCondition": {
          "pose": [999],
          "pickRangeMax": 50.0
        },
        "cd": 10.0,
        "initialCD": 5.0,
        "publicCDGroup": "",
        "ignoreGCD": true,
        "HHAGODJIAPE": "",
        "stateIDs": ["Weak_BS"],
        "skillQueryingTime": 3.0,
        "flagTargetReachable": "10",
        "flagSelfOnTemplateCollider": "01",
        "flagSelfInZone": "10",
        "flagTargetInZone": "11"
      },
      "901": {
        "name": "BreakDown",
        "priority": 3,
        "castCondition": {
          "pose": [999],
          "pickRangeMax": 50.0
        },
        "cd": 10.0,
        "initialCD": 5.0,
        "publicCDGroup": "",
        "ignoreGCD": true,
        "HHAGODJIAPE": "",
        "stateIDs": ["BreakDown"],
        "skillQueryingTime": 3.0,
        "flagTargetReachable": "10",
        "flagSelfOnTemplateCollider": "01",
        "flagSelfInZone": "10",
        "flagTargetInZone": "11"
      }
    },
    "birdCirclingTactic": [
      {
        "$type": "EPHBMLFODKF",
        "condition": {
          "pose": [102]
        },
        "JMCOBEPDIGM": {
          "rangeMin": 7.0,
          "rangeMax": 15.0,
          "JOJBOHEDBHC": 2.0,
          "AFILKAGDAHN": 5.0,
          "ALIBHHJHHMN": 1.0,
          "OMHBOLPFEPM": 1.0,
          "BFJBDDIIFOI": {
            "LLICGJHIGME": 0.0,
            "IDEFILBHNAP": 0.0,
            "IBLIPJPNOGC": 0.0,
            "AEBLMKFNCDG": 0.0,
            "IGLIBIOEGBB": 0.0
          },
          "NAOBMNGDKHL": "1111",
          "JCNIJOAIGII": "1111",
          "MNPDDAKDHGK": ""
        }
      },
      {
        "$type": "KACCHOLJDNK",
        "enable": true,
        "condition": {
          "pose": [102, 103, 104, 105]
        },
        "JMCOBEPDIGM": {
          "ANLAAGAMIKF": 1,
          "KHDFDAAAPEI": 30.0,
          "HKJODDGJPHA": 99.0,
          "GGEBMFHFBPO": 15.0,
          "KFFGCIMPNMJ": 0.0,
          "MNPDDAKDHGK": ""
        }
      },
      {
        "$type": "NNJKLGNPMNN",
        "enable": true,
        "JMCOBEPDIGM": {
          "JFMIFLNBKMJ": 0.0,
          "DHGJDIPNDHH": 3.5,
          "MNPDDAKDHGK": "",
          "GJDMDHIBCME": ""
        }
      }
    ]
  },
  "inputKeys": [
    {
      "keyID": 101,
      "inputKeyCode": 257,
      "abilityName": ""
    },
    {
      "keyID": 102,
      "inputKeyCode": 258,
      "abilityName": ""
    },
    {
      "keyID": 204,
      "inputKeyCode": 259,
      "abilityName": ""
    },
    {
      "keyID": 201,
      "inputKeyCode": 260,
      "abilityName": ""
    },
    {
      "keyID": 202,
      "inputKeyCode": 261,
      "abilityName": ""
    },
    {
      "keyID": 203,
      "inputKeyCode": 262,
      "abilityName": ""
    },
    {
      "keyID": 301,
      "inputKeyCode": 263,
      "abilityName": ""
    },
    {
      "keyID": 302,
      "inputKeyCode": 264,
      "abilityName": ""
    },
    {
      "keyID": 303,
      "inputKeyCode": 265,
      "abilityName": ""
    },
    {
      "keyID": 401,
      "inputKeyCode": 266,
      "abilityName": ""
    },
    {
      "keyID": 402,
      "inputKeyCode": 267,
      "abilityName": ""
    },
    {
      "keyID": 403,
      "inputKeyCode": 268,
      "abilityName": ""
    },
    {
      "keyID": 501,
      "inputKeyCode": 269,
      "abilityName": ""
    },
    {
      "keyID": 601,
      "inputKeyCode": 270,
      "abilityName": ""
    },
    {
      "keyID": 901,
      "inputKeyCode": 271,
      "abilityName": ""
    },
    {
      "keyID": 701,
      "inputKeyCode": 272,
      "abilityName": ""
    },
    {
      "keyID": 10005,
      "inputKeyCode": 273,
      "abilityName": ""
    },
    {
      "keyID": 9001,
      "inputKeyCode": 274,
      "abilityName": ""
    }
  ],
  "move": {
    "$type": "IPNMJMHDMPF",
    "velocityForce": {
      "excludeForces": ["RetreatAirType", "RetreatType", "WindZoneType"]
    },
    "facingMove": "FourDirection",
    "destroyRockWhenInit": true,
    "yawSpeedRatio": 1.0,
    "PKHOMJHFAEE": "RootNode"
  },
  "audio": {
    "overrideEmitterName": "",
    "animAudio": {
      "onTransitionIn": [
        {
          "currentStateName": "WalkF",
          "audioEvent": {
            "text": "Play_Sfx_Monster_Invoker_Archdeacon_01_Walk_LP"
          }
        },
        {
          "currentStateName": "WalkB",
          "audioEvent": {
            "text": "Play_Sfx_Monster_Invoker_Archdeacon_01_Walk_LP"
          }
        },
        {
          "currentStateName": "OverCharge_Loop",
          "audioEvent": {
            "text": "Play_Sfx_Monster_Invoker_Archdeacon_01_OverCharge_LP"
          }
        },
        {
          "currentStateName": "OverCharge1_Loop",
          "audioEvent": {
            "text": "Play_Sfx_Monster_Invoker_Archdeacon_01_OverCharge_LP"
          }
        },
        {
          "currentStateName": "OverCharge2_Loop",
          "audioEvent": {
            "text": "Play_Sfx_Monster_Invoker_Archdeacon_01_OverCharge_LP"
          }
        }
      ],
      "onTransitionOut": [
        {
          "currentStateName": "WalkF",
          "audioEvent": {
            "text": "Stop_Sfx_Monster_Invoker_Archdeacon_01_Walk_LP"
          }
        },
        {
          "currentStateName": "WalkB",
          "audioEvent": {
            "text": "Stop_Sfx_Monster_Invoker_Archdeacon_01_Walk_LP"
          }
        },
        {
          "currentStateName": "OverCharge_Loop",
          "audioEvent": {
            "text": "Stop_Sfx_Monster_Invoker_Archdeacon_01_OverCharge_LP"
          }
        },
        {
          "currentStateName": "OverCharge1_Loop",
          "audioEvent": {
            "text": "Stop_Sfx_Monster_Invoker_Archdeacon_01_OverCharge_LP"
          }
        },
        {
          "currentStateName": "OverCharge2_Loop",
          "audioEvent": {
            "text": "Stop_Sfx_Monster_Invoker_Archdeacon_01_OverCharge_LP"
          }
        }
      ]
    },
    "disableEvent": {
      "text": ""
    },
    "destroyEvent": {
      "text": ""
    }
  },
  "cameraAdjustMap": {
    "default": {
      "$type": "NJCCPGFPIHI",
      "priority": 1.0,
      "enterRadius": 25.0,
      "exitRadius": 30.0,
      "heightAdjust": 0.5,
      "fov": 45.0,
      "zoom": 8.300000190734863,
      "sphericalY": 11.0,
      "lockSphericalY": false,
      "sphericalYUp": 50.0,
      "sphericalYDown": 50.0,
      "autoTurnStartMin": 50.0,
      "autoTurnStartMax": 40.0,
      "autoTurnEndMin": 100.0,
      "autoTurnEndMax": 145.0,
      "enterShape": "CircleR25",
      "exitShape": "CircleR30"
    }
  }
}
