{
  "common": {
    "effectAttachShape": {
      "$type": "FJNPJANPGGC",
      "mesh": "EffectMesh"
    },
    "mass": 100000000.0,
    "height": 1.8550000190734863,
    "affectedByWorld": true,
    "disableTickDistance": 10000.0,
    "muteElementStickUI": true,
    "hasAfterImage": true,
    "clearAnimatorOnSetLightDeactive": true,
    "clearAIOnSetLightDeactive": true
  },
  "headControl": {
    "$type": "KPIPDEBDPIH",
    "useHeadControl": true,
    "animStates": [
      "NormalIdle",
      "NormalIdle_Bow",
      "NormalIdle_Blade",
      "NormalMove/WalkL",
      "NormalMove/WalkR"
    ]
  },
  "globalValue": {
    "serverGlobalValues": ["SGV_DungeonDifficulty"]
  },
  "combat": {
    "property": {
      "endureType": "Monster_Tartaglia",
      "weight": 150.0
    },
    "beHit": {
      "hitBloodEffect": ""
    },
    "combatLock": {
      "lockShape": "CircleLockEnemy",
      "lockType": "Boss_Lv5"
    },
    "die": {
      "hasAnimatorDie": true,
      "fallWhenAirDie": false,
      "dieEndTime": 4.0,
      "dieForceDisappearTime": 6.0,
      "dieDisappearEffect": "",
      "muteHitBox": true,
      "dieDenyLockOn": true,
      "dieIsGhostToEnemy": true,
      "dieIgnoreTriggerBullet": true,
      "muteBillboard": true,
      "mutePushCollider": true
    },
    "animEvents": {
      "Tartaglia_ExtraAttack": {
        "attackPattern": {
          "$type": "ConfigAttackCircle",
          "triggerType": "TriggerNoRepeat",
          "born": {
            "$type": "ConfigBornBySelf"
          },
          "height": 1.5,
          "fanAngle": 240.0,
          "radius": 2.5
        },
        "attackInfo": {
          "attackTag": "Tartaglia_Riptide_Explosion",
          "attenuationTag": "",
          "attenuationGroup": "default",
          "attackProperty": {
            "actorGrassSubHurtDelta": 0.625,
            "actorWindSubHurtDelta": 0.0,
            "elementType": "Water",
            "elementDurability": 0.0,
            "strikeType": "Slash",
            "enBreak": 200.0,
            "GLKMCMDJBIK": 0.0
          },
          "hitPattern": {
            "onHitEffectName": "default",
            "hitImpulseY": "",
            "hitImpulseType": "LV5",
            "hitHaltTimeScale": 0.009999999776482582
          },
          "cameraShake": {
            "shakeType": "CustomVector",
            "shakeRange": 0.36000001430511475,
            "shakeTime": 0.15000000596046448,
            "shakeDistance": 30.0,
            "shakeDir": {
              "x": -1.0
            }
          }
        }
      },
      "Tartaglia_DefendAttack01": {
        "attackPattern": {
          "$type": "ConfigAttackCircle",
          "triggerType": "TriggerNoRepeat",
          "born": {
            "$type": "ConfigBornBySelf"
          },
          "height": 1.0,
          "fanAngle": 240.0,
          "radius": 3.200000047683716
        },
        "attackInfo": {
          "attackTag": "Tartaglia_Riptide",
          "attenuationTag": "",
          "attenuationGroup": "default",
          "attackProperty": {
            "actorGrassSubHurtDelta": 0.5,
            "actorWindSubHurtDelta": 0.0,
            "elementType": "Water",
            "elementDurability": 0.0,
            "strikeType": "Slash",
            "enBreak": 200.0,
            "GLKMCMDJBIK": 0.0
          },
          "hitPattern": {
            "onHitEffectName": "default",
            "hitImpulseY": "",
            "hitImpulseType": "LV5",
            "hitHaltTimeScale": 0.009999999776482582
          },
          "cameraShake": {
            "shakeType": "CustomVector",
            "shakeRange": 0.36000001430511475,
            "shakeTime": 0.15000000596046448,
            "shakeDistance": 30.0,
            "shakeDir": {
              "x": -1.0
            }
          }
        }
      },
      "Tartaglia_DefendAttack02": {
        "attackPattern": {
          "$type": "ConfigAttackCircle",
          "triggerType": "TriggerNoRepeat",
          "born": {
            "$type": "ConfigBornBySelf"
          },
          "height": 2.0,
          "fanAngle": 30.0,
          "radius": 7.5
        },
        "attackInfo": {
          "attackTag": "Tartaglia_Riptide",
          "attenuationTag": "",
          "attenuationGroup": "default",
          "attackProperty": {
            "actorGrassSubHurtDelta": 1.5,
            "actorWindSubHurtDelta": 0.0,
            "elementType": "Water",
            "elementDurability": 0.0,
            "strikeType": "Default",
            "enBreak": 5000.0,
            "GLKMCMDJBIK": 0.0
          },
          "hitPattern": {
            "onHitEffectName": "default",
            "hitImpulseY": "",
            "hitImpulseType": "LV9",
            "hitHaltTimeScale": 0.009999999776482582
          },
          "cameraShake": {
            "shakeType": "CustomVector",
            "shakeRange": 0.36000001430511475,
            "shakeTime": 0.15000000596046448,
            "shakeDistance": 30.0,
            "shakeDir": {
              "x": -1.0
            }
          }
        }
      }
    }
  },
  "equipController": {
    "sheathPoint": "",
    "attachPoints": {
      "equip01": "WeaponL",
      "equip02": "WeaponR",
      "equip03": "WeaponL",
      "equip04": "WeaponR"
    }
  },
  "abilities": [
    {
      "abilityID": "Initialize",
      "abilityName": "Tartaglia_Initialize",
      "abilityOverride": ""
    },
    {
      "abilityID": "ReminderController",
      "abilityName": "Tartaglia_ReminderController",
      "abilityOverride": ""
    },
    {
      "abilityID": "EquipController",
      "abilityName": "Tartaglia_EquipController",
      "abilityOverride": ""
    },
    {
      "abilityID": "GapController",
      "abilityName": "Tartaglia_GapController",
      "abilityOverride": ""
    },
    {
      "abilityID": "Riptide_Detect",
      "abilityName": "Tartaglia_Riptide_Detect",
      "abilityOverride": ""
    },
    {
      "abilityID": "ResetPosition",
      "abilityName": "Tartaglia_ResetPosition",
      "abilityOverride": ""
    },
    {
      "abilityID": "ResetPosition_Done",
      "abilityName": "Tartaglia_ResetPosition_Done",
      "abilityOverride": ""
    },
    {
      "abilityID": "ClearUp",
      "abilityName": "Tartaglia_ClearUp",
      "abilityOverride": ""
    },
    {
      "abilityID": "ClearUp_Done",
      "abilityName": "Tartaglia_ClearUp_Done",
      "abilityOverride": ""
    },
    {
      "abilityID": "Transform",
      "abilityName": "Tartaglia_Transform",
      "abilityOverride": ""
    },
    {
      "abilityID": "ChangePosition",
      "abilityName": "Tartaglia_ChangePosition",
      "abilityOverride": ""
    },
    {
      "abilityID": "Defend",
      "abilityName": "Tartaglia_Defend",
      "abilityOverride": ""
    },
    {
      "abilityID": "Recover",
      "abilityName": "Tartaglia_Recover",
      "abilityOverride": ""
    },
    {
      "abilityID": "NormalAttack",
      "abilityName": "Tartaglia_NormalAttack",
      "abilityOverride": ""
    },
    {
      "abilityID": "RangeAttack",
      "abilityName": "Tartaglia_RangeAttack",
      "abilityOverride": ""
    },
    {
      "abilityID": "ComboAttack_Default",
      "abilityName": "Tartaglia_ComboAttack_Default",
      "abilityOverride": ""
    },
    {
      "abilityID": "ComboAttack_Special_01",
      "abilityName": "Tartaglia_ComboAttack_Special_01",
      "abilityOverride": ""
    },
    {
      "abilityID": "ComboAttack_Special_02",
      "abilityName": "Tartaglia_ComboAttack_Special_02",
      "abilityOverride": ""
    },
    {
      "abilityID": "CoverAttack",
      "abilityName": "Tartaglia_CoverAttack",
      "abilityOverride": ""
    },
    {
      "abilityID": "ExtraAttack",
      "abilityName": "Tartaglia_ExtraAttack",
      "abilityOverride": ""
    },
    {
      "abilityID": "PowerAttackBS",
      "abilityName": "Tartaglia_PowerAttackBS",
      "abilityOverride": ""
    },
    {
      "abilityID": "PowerAttack",
      "abilityName": "Tartaglia_PowerAttack",
      "abilityOverride": ""
    },
    {
      "abilityID": "PowerAttack_Summon",
      "abilityName": "Tartaglia_PowerAttack_Summon",
      "abilityOverride": ""
    }
  ],
  "stateLayers": {
    "defaultLayer": {
      "$type": "GBGJJIIEMBD",
      "layerIndexName": "",
      "CPAANEIJCGD": "",
      "stateIDs": {
        "Born": {
          "$type": "NEDIFAKEGCO",
          "animatorStates": {
            "Born": []
          },
          "addEndure": 0.0,
          "resetAnimatorTriggerOnExit": ["DoSkill"]
        },
        "NormalIdle": {
          "$type": "NEDIFAKEGCO",
          "animatorStates": {
            "Standby": []
          },
          "canDoSkill": true,
          "canSyncMove": true,
          "resetAnimatorTriggerOnExit": ["DoSkill"]
        },
        "NormalIdle_Bow": {
          "$type": "NEDIFAKEGCO",
          "animatorStates": {
            "Standby_Bow": []
          },
          "canDoSkill": true,
          "canSyncMove": true,
          "resetAnimatorTriggerOnExit": ["DoSkill"]
        },
        "NormalIdle_Blade": {
          "$type": "NEDIFAKEGCO",
          "animatorStates": {
            "Standby_Blade": []
          },
          "canDoSkill": true,
          "canSyncMove": true,
          "resetAnimatorTriggerOnExit": ["DoSkill"]
        },
        "NormalMove": {
          "$type": "NEDIFAKEGCO",
          "animatorStates": {
            "WalkL": ["Audio_Tartaglia_WalkL"],
            "WalkR": ["Audio_Tartaglia_WalkL"],
            "WalkLToR": ["Audio_Tartaglia_WalkLToR"],
            "WalkRToL": ["Audio_Tartaglia_WalkLToR"]
          },
          "canDoSkill": true,
          "canSyncMove": true,
          "resetAnimatorTriggerOnExit": ["DoSkill"],
          "canSteer": true
        },
        "BeHit": {
          "$type": "NEDIFAKEGCO",
          "animatorStates": {
            "HitL": ["Audio_Tartaglia_HitL"],
            "HitH": ["Audio_Tartaglia_HitH"]
          },
          "resetAnimatorTriggerOnEnter": ["BeHit", "ShakeTrigger"],
          "resetAnimatorTriggerOnExit": ["DoSkill"]
        },
        "Transform": {
          "$type": "NEDIFAKEGCO",
          "animatorStates": {
            "ResetPosition": ["Monster_Tartaglia_ResetPosition"],
            "ClearUp": ["Monster_Tartaglia_ClearUp", "Audio_Tartaglia_Recover"],
            "Transform": ["Audio_Tartaglia_Transform"]
          },
          "addEndure": 0.0,
          "resetAnimatorTriggerOnExit": ["BeHit", "ShakeTrigger", "DoSkill"]
        },
        "Die": {
          "$type": "NEDIFAKEGCO",
          "animatorStates": {
            "Die": ["Monster_Tartaglia_Die"]
          }
        },
        "NormalAttack": {
          "$type": "NEDIFAKEGCO",
          "animatorStates": {
            "NormalAttackBS": ["Audio_Tartaglia_NormalAtk_BS"],
            "NormalAttackLoop": [
              "Monster_Tartaglia_NormalAttack",
              "Audio_Tartaglia_NormalAtk"
            ],
            "NormalAttackAS": [
              "Monster_Tartaglia_NormalAttackAS",
              "Audio_Tartaglia_NormalAtk_AS"
            ]
          },
          "addEndure": 0.0,
          "resetAnimatorTriggerOnExit": ["BeHit", "ShakeTrigger", "DoSkill"]
        },
        "NormalAttack_Flexible": {
          "$type": "NEDIFAKEGCO",
          "animatorStates": {
            "NormalAttack_Flexible": []
          },
          "resetAnimatorTriggerOnExit": ["BeHit", "ShakeTrigger", "DoSkill"]
        },
        "RangeAttack": {
          "$type": "NEDIFAKEGCO",
          "animatorStates": {
            "RangeAttackBS": [
              "Monster_Tartaglia_RangeAttackBS",
              "Audio_Tartaglia_RangeAtk_BS"
            ],
            "RangeAttackLoop01": [
              "Monster_Tartaglia_RangeAttack",
              "Audio_Tartaglia_RangeAtk"
            ],
            "RangeAttackAS": [
              "Monster_Tartaglia_RangeAttackAS",
              "Audio_Tartaglia_RangeAtk_AS"
            ]
          },
          "addEndure": 0.0,
          "resetAnimatorTriggerOnExit": ["BeHit", "ShakeTrigger", "DoSkill"]
        },
        "RangeAttack_Steer": {
          "$type": "NEDIFAKEGCO",
          "animatorStates": {
            "RangeAttackLoop02": []
          },
          "addEndure": 0.0,
          "resetAnimatorTriggerOnExit": ["BeHit", "ShakeTrigger", "DoSkill"]
        },
        "RangeAttack_Flexible": {
          "$type": "NEDIFAKEGCO",
          "animatorStates": {
            "RangeAttack_Flexible": []
          },
          "resetAnimatorTriggerOnExit": ["BeHit", "ShakeTrigger", "DoSkill"]
        },
        "ComboAttack": {
          "$type": "NEDIFAKEGCO",
          "animatorStates": {
            "ComboAttack": [
              "Monster_Tartaglia_ComboAttack",
              "Audio_Tartaglia_ComboAtk"
            ]
          },
          "addEndure": 0.0,
          "resetAnimatorTriggerOnExit": ["BeHit", "ShakeTrigger", "DoSkill"]
        },
        "ComboAttack_Flexible": {
          "$type": "NEDIFAKEGCO",
          "animatorStates": {
            "ComboAttack_Flexible": []
          },
          "resetAnimatorTriggerOnExit": ["BeHit", "ShakeTrigger", "DoSkill"]
        },
        "CoverAttack": {
          "$type": "NEDIFAKEGCO",
          "animatorStates": {
            "CoverAttackBS": ["Audio_Tartaglia_CoverAtk_BS"],
            "CoverAttackLoop": [
              "Monster_Tartaglia_CoverAttack",
              "Audio_Tartaglia_CoverAtk"
            ],
            "CoverAttackAS": [
              "Monster_Tartaglia_CoverAttackAS",
              "Audio_Tartaglia_CoverAtk_AS"
            ]
          },
          "addEndure": 0.0,
          "resetAnimatorTriggerOnExit": ["BeHit", "ShakeTrigger", "DoSkill"]
        },
        "CoverAttack_Flexible": {
          "$type": "NEDIFAKEGCO",
          "animatorStates": {
            "CoverAttack_Flexible": []
          },
          "resetAnimatorTriggerOnExit": ["BeHit", "ShakeTrigger", "DoSkill"]
        },
        "PowerAttack_RushMove": {
          "$type": "NEDIFAKEGCO",
          "animatorStates": {
            "PowerAttackBS": [
              "Monster_Tartaglia_PowerAttackBS",
              "Audio_Tartaglia_PowerAtk_BS"
            ]
          },
          "addEndure": 0.0,
          "resetAnimatorTriggerOnExit": ["BeHit", "ShakeTrigger", "DoSkill"]
        },
        "PowerAttack": {
          "$type": "NEDIFAKEGCO",
          "animatorStates": {
            "PowerAttack": [
              "Monster_Tartaglia_PowerAttack",
              "Audio_Tartaglia_PowerAtk"
            ]
          },
          "addEndure": 0.0,
          "resetAnimatorTriggerOnExit": ["BeHit", "ShakeTrigger", "DoSkill"]
        },
        "PowerAttack_Flexible": {
          "$type": "NEDIFAKEGCO",
          "animatorStates": {
            "PowerAttackAS": ["Audio_Tartaglia_PowerAtk_AS"]
          },
          "resetAnimatorTriggerOnExit": ["BeHit", "ShakeTrigger", "DoSkill"]
        },
        "RushMove": {
          "$type": "NEDIFAKEGCO",
          "animatorStates": {
            "RushMove": [
              "Monster_Tartaglia_RushMove",
              "Audio_Tartaglia_RushMove"
            ]
          },
          "addEndure": 0.0,
          "resetAnimatorTriggerOnExit": ["BeHit", "ShakeTrigger", "DoSkill"]
        },
        "ExtraAttack": {
          "$type": "NEDIFAKEGCO",
          "animatorStates": {
            "ExtraAttack": [
              "Monster_Tartaglia_ExtraAttack",
              "Audio_Tartaglia_ExtraAtk"
            ]
          },
          "addEndure": 0.0,
          "resetAnimatorTriggerOnExit": ["BeHit", "ShakeTrigger", "DoSkill"]
        },
        "ChangePosition": {
          "$type": "NEDIFAKEGCO",
          "animatorStates": {
            "ChangePosition01": [
              "Monster_Tartaglia_ChangePosition",
              "Audio_Tartaglia_ChangePosition01"
            ],
            "ChangePosition02": [
              "Monster_Tartaglia_ChangePosition",
              "Audio_Tartaglia_ChangePosition02"
            ],
            "ChangePosition03": [
              "Monster_Tartaglia_ChangePosition",
              "Audio_Tartaglia_ChangePosition03"
            ]
          },
          "addEndure": 0.0,
          "resetAnimatorTriggerOnExit": ["BeHit", "ShakeTrigger", "DoSkill"]
        },
        "ChangePosition_Flexible": {
          "$type": "NEDIFAKEGCO",
          "animatorStates": {
            "ChangePosition01_Flexible": [],
            "ChangePosition02_Flexible": [],
            "ChangePosition03_Flexible": []
          },
          "canDoSkill": true,
          "resetAnimatorTriggerOnExit": ["BeHit", "ShakeTrigger", "DoSkill"]
        },
        "Defend": {
          "$type": "NEDIFAKEGCO",
          "animatorStates": {
            "Defend01": ["Audio_Tartaglia_Defend1"],
            "Defend02": ["Audio_Tartaglia_Defend2"],
            "Defend03": ["Audio_Tartaglia_Defend3"]
          },
          "resetAnimatorTriggerOnEnter": [
            "DefendTrigger",
            "DefendAttackTrigger",
            "ForceDefendAttackTrigger"
          ],
          "resetAnimatorTriggerOnExit": ["BeHit", "ShakeTrigger", "DoSkill"]
        },
        "DefendAttack": {
          "$type": "NEDIFAKEGCO",
          "animatorStates": {
            "DefendAttack01": [
              "Monster_Tartaglia_DefendAttack01",
              "Audio_Tartaglia_DefendAtk01"
            ],
            "DefendAttack02": [
              "Monster_Tartaglia_DefendAttack02",
              "Audio_Tartaglia_DefendAtk02"
            ]
          },
          "addEndure": 0.0,
          "resetAnimatorTriggerOnEnter": [
            "DefendTrigger",
            "DefendAttackTrigger",
            "ForceDefendAttackTrigger"
          ],
          "resetAnimatorTriggerOnExit": ["BeHit", "ShakeTrigger", "DoSkill"]
        },
        "Recover": {
          "$type": "NEDIFAKEGCO",
          "animatorStates": {
            "Recover": ["Monster_Tartaglia_Recover", "Audio_Tartaglia_Recover"]
          },
          "addEndure": 0.0,
          "resetAnimatorTriggerOnExit": [
            "BeHit",
            "ShakeTrigger",
            "DoSkill",
            "RecoverTrigger"
          ]
        }
      }
    }
  },
  "billboard": {
    "$type": "DNGNMAJBCNP",
    "attachPoint": "BillboardAttach",
    "offsetType": "Character",
    "radiusOffset": 0.3499999940395355,
    "showHPBar": true
  },
  "initialPoses": {
    "Default": {}
  },
  "aibeta": {
    "enable": true,
    "moveSetting": {
      "useNavMesh": false,
      "navMeshAgentName": "Undead01"
    },
    "sensing": {
      "settings": {
        "DefaultSetting": {
          "enableVision": false,
          "feelRange": 15.0
        }
      }
    },
    "threat": {
      "GHIJMOKOLMB": "",
      "resistTauntLevel": "Monster_TauntLevel_5"
    },
    "defendArea": {},
    "ui": {
      "HMNNBFDEHLG": ""
    },
    "profiling": {
      "lodStrategy": "Best"
    },
    "network": {
      "syncSkill": true,
      "resetHpOnSpawn": false
    },
    "skillGroupCDConfigs": [
      {
        "skillGroupCDID": 210,
        "skillGroupCDTime": 10.0
      },
      {
        "skillGroupCDID": 300,
        "skillGroupCDTime": 5.0
      },
      {
        "skillGroupCDID": 410,
        "skillGroupCDTime": 30.0
      },
      {
        "skillGroupCDID": 500,
        "skillGroupCDTime": 10.0
      }
    ],
    "skills": {
      "201": {
        "name": "NormalAttack",
        "faceTarget": true,
        "castCondition": {
          "pose": [101, 103, 104, 105],
          "maxTargetAngleY": 60.0,
          "pickRangeMin": 10.0,
          "pickRangeMax": 99.0
        },
        "publicCDGroup": "",
        "triggerGCD": false,
        "HHAGODJIAPE": "",
        "stateIDs": ["NormalAttack", "NormalAttack_Flexible"],
        "flagTargetReachable": "10",
        "flagSelfOnTemplateCollider": "01",
        "flagSelfInZone": "10",
        "flagTargetInZone": "11"
      },
      "202": {
        "name": "NormalAttack",
        "faceTarget": true,
        "castCondition": {
          "pose": [101, 103, 104, 105],
          "maxTargetAngleY": 60.0,
          "pickRangeMax": 10.0
        },
        "cd": 1.0,
        "publicCDGroup": "",
        "triggerGCD": false,
        "HHAGODJIAPE": "",
        "stateIDs": ["NormalAttack", "NormalAttack_Flexible"],
        "flagTargetReachable": "10",
        "flagSelfOnTemplateCollider": "01",
        "flagSelfInZone": "10",
        "flagTargetInZone": "11"
      },
      "211": {
        "name": "RangeAttack",
        "priority": 4,
        "faceTarget": true,
        "castCondition": {
          "pose": [101, 103, 104, 105],
          "maxTargetAngleY": 30.0,
          "pickRangeMin": 10.0,
          "pickRangeMax": 99.0
        },
        "cd": 5.0,
        "cdUpperRange": 10.0,
        "initialCD": 5.0,
        "publicCDGroup": "",
        "triggerGCD": false,
        "skillGroupCDID": 210,
        "HHAGODJIAPE": "",
        "stateIDs": [
          "RangeAttack",
          "RangeAttack_Steer",
          "RangeAttack_Flexible"
        ],
        "flagTargetReachable": "10",
        "flagSelfOnTemplateCollider": "01",
        "flagSelfInZone": "10",
        "flagTargetInZone": "11"
      },
      "212": {
        "name": "RangeAttack",
        "faceTarget": true,
        "castCondition": {
          "pose": [103, 104, 105],
          "maxTargetAngleY": 30.0,
          "pickRangeMax": 10.0
        },
        "cd": 15.0,
        "cdUpperRange": 15.0,
        "initialCD": 5.0,
        "publicCDGroup": "",
        "triggerGCD": false,
        "skillGroupCDID": 210,
        "HHAGODJIAPE": "",
        "stateIDs": [
          "RangeAttack",
          "RangeAttack_Steer",
          "RangeAttack_Flexible"
        ],
        "flagTargetReachable": "10",
        "flagSelfOnTemplateCollider": "01",
        "flagSelfInZone": "10",
        "flagTargetInZone": "11"
      },
      "301": {
        "name": "ComboAttack",
        "faceTarget": true,
        "castCondition": {
          "pose": [101, 103, 104, 105],
          "maxTargetAngleY": 60.0,
          "pickRangeMax": 10.0
        },
        "cd": 5.0,
        "cdUpperRange": 5.0,
        "publicCDGroup": "",
        "triggerGCD": false,
        "skillGroupCDID": 300,
        "HHAGODJIAPE": "",
        "stateIDs": ["ComboAttack"],
        "flagTargetReachable": "10",
        "flagSelfOnTemplateCollider": "01",
        "flagSelfInZone": "10",
        "flagTargetInZone": "11"
      },
      "302": {
        "name": "ComboAttack",
        "faceTarget": true,
        "castCondition": {
          "pose": [101, 103, 104, 105],
          "maxTargetAngleY": 60.0,
          "pickRangeMin": 10.0,
          "pickRangeMax": 99.0
        },
        "cd": 20.0,
        "cdUpperRange": 20.0,
        "publicCDGroup": "",
        "triggerGCD": false,
        "skillGroupCDID": 300,
        "HHAGODJIAPE": "",
        "stateIDs": ["ComboAttack"],
        "flagTargetReachable": "10",
        "flagSelfOnTemplateCollider": "01",
        "flagSelfInZone": "10",
        "flagTargetInZone": "11"
      },
      "311": {
        "name": "CoverAttack",
        "priority": 4,
        "faceTarget": true,
        "castCondition": {
          "pose": [104],
          "pickRangeMax": 99.0
        },
        "cd": 4.0,
        "cdUpperRange": 3.0,
        "publicCDGroup": "",
        "triggerGCD": false,
        "HHAGODJIAPE": "",
        "stateIDs": ["CoverAttack", "CoverAttack_Flexible"],
        "flagTargetReachable": "10",
        "flagSelfOnTemplateCollider": "01",
        "flagSelfInZone": "10",
        "flagTargetInZone": "11"
      },
      "312": {
        "name": "CoverAttack",
        "priority": 3,
        "faceTarget": true,
        "castCondition": {
          "pose": [105],
          "pickRangeMax": 99.0
        },
        "publicCDGroup": "",
        "triggerGCD": false,
        "HHAGODJIAPE": "",
        "stateIDs": ["CoverAttack", "CoverAttack_Flexible"],
        "flagTargetReachable": "10",
        "flagSelfOnTemplateCollider": "01",
        "flagSelfInZone": "10",
        "flagTargetInZone": "11"
      },
      "401": {
        "name": "ExtraAttack",
        "priority": 1,
        "faceTarget": true,
        "castCondition": {
          "pose": [101, 102, 103, 104, 105],
          "maxTargetAngleY": 30.0,
          "pickRangeMin": 25.0,
          "pickRangeMax": 99.0
        },
        "cd": 2.0,
        "cdUpperRange": 3.0,
        "publicCDGroup": "",
        "triggerGCD": false,
        "HHAGODJIAPE": "",
        "stateIDs": ["RushMove", "ExtraAttack"],
        "flagTargetReachable": "10",
        "flagSelfOnTemplateCollider": "01",
        "flagSelfInZone": "10",
        "flagTargetInZone": "11"
      },
      "411": {
        "name": "PowerAttack",
        "priority": 1,
        "castCondition": {
          "pose": [104],
          "pickRangeMax": 99.0
        },
        "cd": 60.0,
        "initialCD": 45.0,
        "publicCDGroup": "",
        "skillGroupCDID": 410,
        "HHAGODJIAPE": "",
        "stateIDs": [
          "PowerAttack_RushMove",
          "PowerAttack",
          "PowerAttack_Flexible"
        ],
        "flagTargetReachable": "10",
        "flagSelfOnTemplateCollider": "01",
        "flagSelfInZone": "10",
        "flagTargetInZone": "11"
      },
      "412": {
        "name": "PowerAttack",
        "priority": 1,
        "castCondition": {
          "pose": [105],
          "pickRangeMax": 99.0
        },
        "cd": 30.0,
        "initialCD": 30.0,
        "publicCDGroup": "",
        "skillGroupCDID": 410,
        "HHAGODJIAPE": "",
        "stateIDs": [
          "PowerAttack_RushMove",
          "PowerAttack",
          "PowerAttack_Flexible"
        ],
        "flagTargetReachable": "10",
        "flagSelfOnTemplateCollider": "01",
        "flagSelfInZone": "10",
        "flagTargetInZone": "11"
      },
      "501": {
        "name": "ChangePosition",
        "priority": 2,
        "castCondition": {
          "pose": [101, 102, 103, 104, 105],
          "pickRangeMax": 25.0
        },
        "cd": 99999.0,
        "initialCD": 99999.0,
        "publicCDGroup": "",
        "ignoreGCD": true,
        "triggerGCD": false,
        "skillGroupCDID": 500,
        "HHAGODJIAPE": "",
        "stateIDs": ["ChangePosition", "ChangePosition_Flexible"],
        "flagTargetReachable": "10",
        "flagSelfOnTemplateCollider": "01",
        "flagSelfInZone": "10",
        "flagTargetInZone": "11"
      },
      "502": {
        "name": "ChangePosition",
        "priority": 2,
        "castCondition": {
          "pose": [101, 102, 103, 104, 105],
          "pickRangeMax": 5.0
        },
        "cd": 20.0,
        "cdUpperRange": 10.0,
        "initialCD": 20.0,
        "publicCDGroup": "",
        "ignoreGCD": true,
        "triggerGCD": false,
        "skillGroupCDID": 500,
        "HHAGODJIAPE": "",
        "stateIDs": ["ChangePosition", "ChangePosition_Flexible"],
        "flagTargetReachable": "10",
        "flagSelfOnTemplateCollider": "01",
        "flagSelfInZone": "10",
        "flagTargetInZone": "11"
      },
      "503": {
        "name": "ChangePosition",
        "priority": 2,
        "castCondition": {
          "pose": [101, 102, 103, 104, 105],
          "pickRangeMin": 5.0,
          "pickRangeMax": 10.0
        },
        "cd": 30.0,
        "cdUpperRange": 15.0,
        "initialCD": 30.0,
        "publicCDGroup": "",
        "ignoreGCD": true,
        "triggerGCD": false,
        "skillGroupCDID": 500,
        "HHAGODJIAPE": "",
        "stateIDs": ["ChangePosition", "ChangePosition_Flexible"],
        "flagTargetReachable": "10",
        "flagSelfOnTemplateCollider": "01",
        "flagSelfInZone": "10",
        "flagTargetInZone": "11"
      },
      "601": {
        "name": "Recover",
        "priority": 2,
        "castCondition": {
          "pose": [101, 102, 103, 104, 105],
          "pickRangeMax": 99.0
        },
        "cd": 99999.0,
        "initialCD": 99999.0,
        "publicCDGroup": "",
        "ignoreGCD": true,
        "triggerGCD": false,
        "HHAGODJIAPE": "",
        "stateIDs": ["Recover"],
        "flagTargetReachable": "10",
        "flagSelfOnTemplateCollider": "01",
        "flagSelfInZone": "10",
        "flagTargetInZone": "11"
      }
    },
    "skillGCD": 3.0,
    "birdCirclingTactic": [
      {
        "$type": "EPHBMLFODKF",
        "enable": true,
        "condition": {
          "pose": [102]
        },
        "JMCOBEPDIGM": {
          "rangeMin": 0.0,
          "rangeMax": 50.0,
          "JOJBOHEDBHC": 0.0,
          "AFILKAGDAHN": 0.0,
          "ALIBHHJHHMN": 999.0,
          "OMHBOLPFEPM": 5.0,
          "BFJBDDIIFOI": {
            "LLICGJHIGME": 0.0,
            "IDEFILBHNAP": 0.0,
            "IBLIPJPNOGC": 0.0
          },
          "NAOBMNGDKHL": "1111",
          "JCNIJOAIGII": "1111",
          "MNPDDAKDHGK": ""
        }
      },
      {
        "$type": "NNJKLGNPMNN",
        "enable": true
      }
    ]
  },
  "inputKeys": [
    {
      "keyID": 201,
      "inputKeyCode": 257,
      "abilityName": ""
    },
    {
      "keyID": 211,
      "inputKeyCode": 258,
      "abilityName": ""
    },
    {
      "keyID": 301,
      "inputKeyCode": 259,
      "abilityName": ""
    },
    {
      "keyID": 311,
      "inputKeyCode": 260,
      "abilityName": ""
    },
    {
      "keyID": 401,
      "inputKeyCode": 261,
      "abilityName": ""
    },
    {
      "keyID": 411,
      "inputKeyCode": 262,
      "abilityName": ""
    },
    {
      "keyID": 501,
      "inputKeyCode": 263,
      "abilityName": ""
    }
  ],
  "move": {
    "$type": "IPNMJMHDMPF",
    "velocityForce": {
      "excludeForces": ["RetreatAirType", "WindZoneType", "AirflowType"]
    },
    "facingMove": "LeftRight",
    "positionModifyState": "Walk",
    "destroyRockWhenInit": true,
    "PKHOMJHFAEE": "RootNode"
  }
}
