{
  "common": {
    "effectAttachShape": {
      "$type": "FJNPJANPGGC",
      "mesh": "EffectMesh"
    },
    "mass": 30.0,
    "height": 1.7000000476837158,
    "modelHeight": 1.7000000476837158,
    "viewSize": 1.100000023841858,
    "affectedByWorld": true,
    "checkInSurface": true,
    "scale": 1.100000023841858,
    "useGrassDisplacement": true,
    "clearAIOnSetLightDeactive": true,
    "reconnectSupport": true,
    "recoverByInitPose": true
  },
  "headControl": {
    "$type": "KPIPDEBDPIH",
    "useHeadControl": true,
    "maxYawDegree": 60.0,
    "maxPitchDegree": 30.0,
    "animStates": [
      "NormalIdle/Standby",
      "NormalMove/WalkForward",
      "NormalMove/WalkBack",
      "NormalMove/WalkRight",
      "NormalMove/WalkLeft",
      "NormalMove/Run",
      "Turn/TurnLeft",
      "Turn/TurnRight"
    ]
  },
  "model": {
    "bornEffect": "Eff_Monster_Common_Born",
    "attachEffect": "",
    "BKPFGNPLDNJ": ""
  },
  "dither": {
    "showDitherDuration": 1.0
  },
  "combat": {
    "property": {
      "endureType": "Avatar_Sword",
      "weight": 90.0
    },
    "beHit": {
      "hitBloodEffect": ""
    },
    "combatLock": {
      "lockShape": "CircleLockEnemy",
      "lockType": "Avatar&Monster_Lv4"
    },
    "die": {
      "hasAnimatorDie": true,
      "dieEndTime": 2.5,
      "dieForceDisappearTime": 1.5,
      "dieDisappearEffect": "Eff_Death_Avatar_Common",
      "dieShaderData": "AvatarDie",
      "useRagDoll": true,
      "ragDollDieEndTimeDelay": 1.25,
      "muteHitBox": true,
      "dieDenyLockOn": true,
      "dieIsGhostToEnemy": true,
      "dieIgnoreTriggerBullet": true,
      "muteBillboard": true,
      "mutePushCollider": true
    },
    "animEvents": {
      "AE_Attack01": {
        "attackPattern": {
          "$type": "ConfigAttackBox",
          "triggerType": "TriggerNoRepeat",
          "born": {
            "$type": "ConfigBornBySelf",
            "offset": {
              "x": 0.20000000298023224,
              "y": 1.0,
              "z": 0.5
            },
            "useRotation": true
          },
          "size": {
            "x": 2.0,
            "y": 2.0,
            "z": 4.0
          }
        },
        "attackInfo": {
          "attackTag": "",
          "attenuationTag": "",
          "attenuationGroup": "default",
          "attackProperty": {
            "actorGrassSubHurtDelta": 0.699999988079071,
            "actorWindSubHurtDelta": 0.0,
            "elementDurability": 100.0,
            "strikeType": "Pierce",
            "enBreak": 50.0,
            "attackType": "Melee",
            "GLKMCMDJBIK": 0.0
          },
          "hitPattern": {
            "onHitEffectName": "default",
            "hitImpulseY": "",
            "hitImpulseType": "LV3"
          }
        }
      },
      "AE_Attack02": {
        "attackPattern": {
          "$type": "ConfigAttackBox",
          "triggerType": "TriggerNoRepeat",
          "born": {
            "$type": "ConfigBornBySelf",
            "offset": {
              "x": 0.0,
              "y": 1.090000033378601,
              "z": -0.12999999523162842
            },
            "direction": {
              "$type": "ConfigDirectionByDefault",
              "angleOffsetCorrect": {
                "x": 0.0,
                "y": 0.0,
                "z": 0.0
              }
            },
            "useRotation": true
          },
          "size": {
            "x": 2.5,
            "y": 2.9000000953674316,
            "z": 2.700000047683716
          }
        },
        "attackInfo": {
          "attackTag": "",
          "attenuationTag": "",
          "attenuationGroup": "default",
          "attackProperty": {
            "actorGrassSubHurtDelta": 0.6000000238418579,
            "actorWindSubHurtDelta": 0.0,
            "elementDurability": 100.0,
            "strikeType": "Slash",
            "enBreak": 50.0,
            "attackType": "Melee",
            "GLKMCMDJBIK": 0.0
          },
          "hitPattern": {
            "onHitEffectName": "default",
            "hitImpulseY": "",
            "hitImpulseType": "LV3"
          }
        }
      },
      "AE_Combo01_2": {
        "attackPattern": {
          "$type": "ConfigAttackBox",
          "triggerType": "TriggerNoRepeat",
          "born": {
            "$type": "ConfigBornBySelf",
            "offset": {
              "x": 0.20000000298023224,
              "y": 1.0,
              "z": 0.5
            },
            "useRotation": true
          },
          "size": {
            "x": 2.0,
            "y": 2.0,
            "z": 3.5
          }
        },
        "attackInfo": {
          "attackTag": "",
          "attenuationTag": "",
          "attenuationGroup": "default",
          "attackProperty": {
            "actorGrassSubHurtDelta": 0.800000011920929,
            "actorWindSubHurtDelta": 0.0,
            "elementDurability": 100.0,
            "strikeType": "Slash",
            "enBreak": 50.0,
            "attackType": "Melee",
            "GLKMCMDJBIK": 0.0
          },
          "hitPattern": {
            "onHitEffectName": "default",
            "hitImpulseY": "",
            "hitImpulseType": "LV4"
          }
        }
      },
      "AE_Combo01_3": {
        "attackPattern": {
          "$type": "ConfigAttackBox",
          "triggerType": "TriggerNoRepeat",
          "born": {
            "$type": "ConfigBornBySelf",
            "offset": {
              "x": 0.20000000298023224,
              "y": 1.0,
              "z": 0.5
            },
            "useRotation": true
          },
          "size": {
            "x": 2.0,
            "y": 2.0,
            "z": 3.5
          }
        },
        "attackInfo": {
          "attackTag": "",
          "attenuationTag": "",
          "attenuationGroup": "default",
          "attackProperty": {
            "actorGrassSubHurtDelta": 0.800000011920929,
            "actorWindSubHurtDelta": 0.0,
            "elementDurability": 100.0,
            "strikeType": "Slash",
            "enBreak": 50.0,
            "attackType": "Melee",
            "GLKMCMDJBIK": 0.0
          },
          "hitPattern": {
            "onHitEffectName": "default",
            "hitImpulseY": "",
            "hitImpulseType": "LV4"
          }
        }
      },
      "AE_Combo02_1": {
        "attackPattern": {
          "$type": "ConfigAttackCircle",
          "triggerType": "TriggerNoRepeat",
          "fanAngle": 150.0,
          "radius": 3.5
        },
        "attackInfo": {
          "attackTag": "",
          "attenuationTag": "",
          "attenuationGroup": "default",
          "attackProperty": {
            "actorGrassSubHurtDelta": 0.6000000238418579,
            "actorWindSubHurtDelta": 0.0,
            "elementDurability": 100.0,
            "strikeType": "Slash",
            "enBreak": 50.0,
            "attackType": "Melee",
            "GLKMCMDJBIK": 0.0
          },
          "hitPattern": {
            "onHitEffectName": "default",
            "hitImpulseY": "",
            "hitImpulseType": "LV4"
          }
        }
      },
      "AE_Combo02_2": {
        "attackPattern": {
          "$type": "ConfigAttackCircle",
          "triggerType": "TriggerNoRepeat",
          "fanAngle": 150.0,
          "radius": 3.5
        },
        "attackInfo": {
          "attackTag": "",
          "attenuationTag": "",
          "attenuationGroup": "default",
          "attackProperty": {
            "actorGrassSubHurtDelta": 0.6000000238418579,
            "actorWindSubHurtDelta": 0.0,
            "elementDurability": 100.0,
            "strikeType": "Slash",
            "enBreak": 50.0,
            "attackType": "Melee",
            "GLKMCMDJBIK": 0.0
          },
          "hitPattern": {
            "onHitEffectName": "default",
            "hitImpulseY": "",
            "hitImpulseType": "LV2"
          }
        }
      },
      "AE_Combo02_3": {
        "attackPattern": {
          "$type": "ConfigAttackCircle",
          "triggerType": "TriggerNoRepeat",
          "fanAngle": 150.0,
          "radius": 3.5
        },
        "attackInfo": {
          "attackTag": "",
          "attenuationTag": "",
          "attenuationGroup": "default",
          "attackProperty": {
            "actorGrassSubHurtDelta": 0.800000011920929,
            "actorWindSubHurtDelta": 0.0,
            "elementDurability": 100.0,
            "strikeType": "Slash",
            "enBreak": 50.0,
            "attackType": "Melee",
            "GLKMCMDJBIK": 0.0
          },
          "hitPattern": {
            "onHitEffectName": "default",
            "hitImpulseY": "",
            "hitImpulseType": "LV5"
          }
        }
      },
      "AE_DownSlash": {
        "attackPattern": {
          "$type": "ConfigAttackBox",
          "triggerType": "TriggerNoRepeat",
          "born": {
            "$type": "ConfigBornBySelf",
            "offset": {
              "x": 0.0,
              "y": 1.2999999523162842,
              "z": 0.6100000143051147
            },
            "useRotation": true
          },
          "size": {
            "x": 1.600000023841858,
            "y": 3.200000047683716,
            "z": 2.6700000762939453
          }
        },
        "attackInfo": {
          "attackTag": "",
          "attenuationTag": "",
          "attenuationGroup": "default",
          "attackProperty": {
            "actorGrassSubHurtDelta": 1.0,
            "actorWindSubHurtDelta": 0.0,
            "elementDurability": 100.0,
            "strikeType": "Slash",
            "enBreak": 200.0,
            "attackType": "Melee",
            "GLKMCMDJBIK": 0.0
          },
          "hitPattern": {
            "onHitEffectName": "default",
            "hitImpulseY": "",
            "hitImpulseType": "LV4"
          }
        }
      }
    }
  },
  "equipController": {
    "sheathPoint": "",
    "attachPoints": {
      "equip01": "WeaponR",
      "equip02": "WeaponL"
    }
  },
  "abilities": [
    {
      "abilityID": "",
      "abilityName": "Eremite_TurnState_AnimatorSteer",
      "abilityOverride": ""
    },
    {
      "abilityID": "",
      "abilityName": "BoxMatch_Pole_Equip_Display_Manager",
      "abilityOverride": ""
    },
    {
      "abilityID": "",
      "abilityName": "BoxMatch_Equip_SheathWeapon",
      "abilityOverride": ""
    },
    {
      "abilityID": "",
      "abilityName": "BoxMatch_Distance_Calc",
      "abilityOverride": ""
    },
    {
      "abilityID": "",
      "abilityName": "BoxMatch_Pole_AttackSteer",
      "abilityOverride": ""
    }
  ],
  "stateLayers": {
    "defaultLayer": {
      "$type": "GBGJJIIEMBD",
      "layerIndexName": "",
      "CPAANEIJCGD": "",
      "stateIDs": {
        "NormalIdle": {
          "$type": "NEDIFAKEGCO",
          "animatorStates": {
            "Standby": []
          },
          "canDoSkill": true,
          "canSyncMove": true,
          "resetAnimatorTriggerOnExit": ["DoSkill"]
        },
        "NormalBorn": {
          "$type": "NEDIFAKEGCO",
          "animatorStates": {
            "Born": []
          },
          "canDoSkill": true,
          "resetAnimatorTriggerOnExit": ["DoSkill"]
        },
        "NormalMove": {
          "$type": "NEDIFAKEGCO",
          "animatorStates": {
            "WalkForward": ["Audio_Eremite_Male_Standard_Pole_01_walk"],
            "WalkBack": ["Audio_Eremite_Male_Standard_Pole_01_walk"],
            "WalkRight": ["Audio_Eremite_Male_Standard_Pole_01_walk"],
            "WalkLeft": ["Audio_Eremite_Male_Standard_Pole_01_walk"],
            "Run": ["Audio_Eremite_Male_Standard_Pole_01_run"]
          },
          "canDoSkill": true,
          "canSyncMove": true,
          "resetAnimatorTriggerOnExit": ["DoSkill"],
          "canSteer": true
        },
        "Turn": {
          "$type": "NEDIFAKEGCO",
          "animatorStates": {
            "TurnLeft": ["Audio_Eremite_Male_Standard_Pole_01_walk"],
            "TurnRight": ["Audio_Eremite_Male_Standard_Pole_01_walk"]
          },
          "canDoSkill": true,
          "canSyncMove": true,
          "resetAnimatorTriggerOnExit": ["DoSkill"],
          "canSteer": true
        },
        "BeHit": {
          "$type": "NEDIFAKEGCO",
          "animatorStates": {
            "Hit_L": [],
            "Hit_H": ["Audio_Eremite_Male_Standard_Pole_01_hit_H"]
          },
          "resetAnimatorTriggerOnEnter": ["BeHit"],
          "resetAnimatorTriggerOnExit": ["DoSkill"]
        },
        "BeHitThrow": {
          "$type": "NEDIFAKEGCO",
          "animatorStates": {
            "HitThrow": [],
            "HitThrowDrop": []
          },
          "resetAnimatorTriggerOnEnter": ["BeHit", "HitAir2HitDrop"],
          "resetAnimatorTriggerOnExit": ["DoSkill", "BeHit"],
          "setAnimatorBoolean": [
            {
              "name": "AirDie"
            },
            {
              "name": "BurstUnavailable"
            }
          ]
        },
        "BeHitThrowToStandby": {
          "$type": "NEDIFAKEGCO",
          "animatorStates": {
            "HitThrowToGround": [
              "Audio_Eremite_Male_Standard_Pole_01_hitthrowtogroud"
            ]
          },
          "resetAnimatorTriggerOnEnter": ["BeHit", "HitAir2HitDrop"],
          "resetAnimatorTriggerOnExit": ["DoSkill", "BeHit"],
          "setAnimatorBoolean": [
            {
              "name": "AirDie",
              "normalizeEnd": 0.5
            },
            {
              "name": "BurstUnavailable"
            }
          ]
        },
        "Struggle": {
          "$type": "NEDIFAKEGCO",
          "animatorStates": {
            "Struggle": []
          },
          "resetAnimatorTriggerOnEnter": ["BeHit", "HitAir2HitDrop"],
          "resetAnimatorTriggerOnExit": ["DoSkill"]
        },
        "Die": {
          "$type": "NEDIFAKEGCO",
          "animatorStates": {
            "Die1": ["Audio_Monster_LiYue_Sergeant_Male_02_Die_NoVO"],
            "Die2": ["Audio_Monster_LiYue_Sergeant_Male_02_Die_NoVO"],
            "SwimDie": ["Audio_Monster_Thoarder_NoWeapon_SwimDie"],
            "SwimDie_AS": ["Audio_Monster_Thoarder_NoWeapon_SwimDie"]
          },
          "resetAnimatorTriggerOnEnter": ["DoSkill"]
        },
        "Die_RagDoll": {
          "$type": "NEDIFAKEGCO",
          "animatorStates": {
            "AirDie": []
          },
          "resetAnimatorTriggerOnEnter": ["DoSkill"],
          "enableRagDoll": true
        },
        "NormalAttack": {
          "$type": "NEDIFAKEGCO",
          "animatorStates": {
            "Attack01": [
              "Monster_BoxMatch_Pole_Attack01",
              "Audio_Monster_BoxMatch_Male_Standard_Pole_Attack01"
            ],
            "Rush_BS": [],
            "DownSlash": ["Monster_BoxMatch_Pole_DownSlash"]
          },
          "addEndure": 0.4000000059604645
        },
        "NormalAttack_Attack02": {
          "$type": "NEDIFAKEGCO",
          "animatorStates": {
            "Attack02": [
              "Monster_BoxMatch_Pole_Attack02",
              "Audio_Monster_BoxMatch_Male_Standard_Pole_Attack02"
            ]
          },
          "addEndure": 0.4000000059604645
        },
        "NormalAttack_Combo01": {
          "$type": "NEDIFAKEGCO",
          "animatorStates": {
            "Combo01": [
              "Monster_BoxMatch_Pole_Combo1",
              "Audio_Monster_BoxMatch_Male_Standard_Pole_Combo01"
            ]
          },
          "addEndure": 0.4000000059604645
        },
        "NormalAttack_Combo02": {
          "$type": "NEDIFAKEGCO",
          "animatorStates": {
            "Combo02": [
              "Monster_BoxMatch_Pole_Combo2",
              "Audio_Monster_BoxMatch_Male_Standard_Pole_Combo02"
            ]
          },
          "addEndure": 0.4000000059604645
        },
        "NormalAttack_Rush_Transition": {
          "$type": "NEDIFAKEGCO",
          "animatorStates": {
            "Rush_Transition": ["Audio_Eremite_Male_Standard_Pole_01_slash"]
          },
          "addEndure": 0.0,
          "setAnimatorBoolean": [
            {
              "name": "BurstUnavailable"
            }
          ]
        },
        "Alert1": {
          "$type": "NEDIFAKEGCO",
          "animatorStates": {
            "Warning1": ["Audio_Monster_BoxMatch_Male_Standard_Pole_Warning"]
          },
          "resetAnimatorTriggerOnExit": ["BeHit", "DoSkill"]
        },
        "Alert2": {
          "$type": "NEDIFAKEGCO",
          "animatorStates": {
            "Warning2": ["Audio_Monster_BoxMatch_Male_Standard_Pole_Warning"],
            "Warning2_AS": [
              "Audio_Monster_BoxMatch_Male_Standard_Pole_Warning_AS"
            ]
          },
          "resetAnimatorTriggerOnExit": ["BeHit", "DoSkill"]
        }
      }
    }
  },
  "billboard": {
    "$type": "DNGNMAJBCNP",
    "attachPoint": "BillboardAttach",
    "offset": {
      "x": -0.05000000074505806
    },
    "offsetType": "Character",
    "radiusOffset": 0.25,
    "showHPBar": true
  },
  "initialPoses": {
    "Default": {}
  },
  "aibeta": {
    "enable": true,
    "moveSetting": {
      "navMeshAgentName": "Undead01",
      "almostReachedDistanceRun": 1.5
    },
    "sensing": {
      "settings": {
        "DefaultSetting": {
          "feelRange": 30.0
        },
        "NoSensing": {
          "enableVision": false,
          "feelRange": 0.0
        }
      },
      "templates": {
        "DefaultTemplate": {
          "DefaultPoses": "DefaultSetting"
        },
        "BoxMatch": {
          "DefaultPoses": "DefaultSetting",
          "1001": "NoSensing"
        }
      }
    },
    "neurons": {
      "DefaultSetting": ["HIT"],
      "NeverCombat": []
    },
    "threat": {
      "GHIJMOKOLMB": "",
      "clearThreatByLostPath": true,
      "clearThreatTimerByDistance": 3.0,
      "viewAttenuation": [
        {
          "x": 10.0,
          "y": 2.0
        },
        {
          "x": 15.0,
          "y": 0.800000011920929
        },
        {
          "x": 20.0,
          "y": 0.5
        },
        {
          "x": 25.0,
          "y": 0.30000001192092896
        },
        {
          "x": 30.0,
          "y": 0.20000000298023224
        }
      ]
    },
    "defendArea": {},
    "poseControl": {
      "items": [
        {
          "minTime": 4.0,
          "maxTime": 8.0,
          "poseID": 101,
          "randomPose": [2]
        },
        {
          "minTime": 4.0,
          "maxTime": 8.0,
          "poseID": 102,
          "randomPose": [1]
        }
      ]
    },
    "skillSetting": {
      "skillEliteSet": {
        "0": [101],
        "1": [102]
      }
    },
    "skills": {
      "101": {
        "name": "OnAlert",
        "skillType": "OnAlert",
        "faceTarget": true,
        "publicCDGroup": "",
        "ignoreGCD": true,
        "triggerGCD": false,
        "HHAGODJIAPE": "",
        "stateIDs": ["Alert1"],
        "skillQueryingTime": 3.0,
        "flagTargetReachable": "10",
        "flagSelfOnTemplateCollider": "01",
        "flagSelfInZone": "10",
        "flagTargetInZone": "11"
      },
      "102": {
        "name": "OnAlert",
        "skillType": "OnAlert",
        "faceTarget": true,
        "publicCDGroup": "",
        "ignoreGCD": true,
        "triggerGCD": false,
        "HHAGODJIAPE": "",
        "stateIDs": ["Alert2"],
        "skillQueryingTime": 3.0,
        "flagTargetReachable": "10",
        "flagSelfOnTemplateCollider": "01",
        "flagSelfInZone": "10",
        "flagTargetInZone": "11"
      },
      "201": {
        "name": "NormalAttack",
        "castCondition": {
          "pose": [101, 102],
          "maxTargetAngleXZ": 30.0,
          "pickRangeMax": 6.199999809265137
        },
        "publicCDGroup": "",
        "HHAGODJIAPE": "",
        "stateIDs": [
          "NormalAttack",
          "NormalAttack_Attack02",
          "NormalAttack_Combo01",
          "NormalAttack_Combo02",
          "NormalAttack_Rush_Transition"
        ],
        "flagTargetReachable": "10",
        "flagSelfOnTemplateCollider": "01",
        "flagSelfInZone": "10",
        "flagTargetInZone": "11"
      },
      "202": {
        "name": "NormalAttack",
        "castCondition": {
          "pose": [101, 102],
          "maxTargetAngleXZ": 30.0,
          "pickRangeMax": 6.199999809265137
        },
        "publicCDGroup": "",
        "HHAGODJIAPE": "",
        "stateIDs": [
          "NormalAttack",
          "NormalAttack_Attack02",
          "NormalAttack_Combo01",
          "NormalAttack_Combo02",
          "NormalAttack_Rush_Transition"
        ],
        "flagTargetReachable": "10",
        "flagSelfOnTemplateCollider": "01",
        "flagSelfInZone": "01",
        "flagTargetInZone": "11"
      }
    },
    "skillGCD": 0.5,
    "birdCirclingTactic": [
      {
        "$type": "EPHBMLFODKF",
        "enable": true,
        "condition": {
          "pose": [101, 102]
        },
        "JMCOBEPDIGM": {
          "rangeMax": 4.0,
          "BFJBDDIIFOI": {
            "IDEFILBHNAP": 0.0,
            "IBLIPJPNOGC": 0.0,
            "AEBLMKFNCDG": 2.0,
            "IGLIBIOEGBB": 2.0
          },
          "NAOBMNGDKHL": "1111",
          "JCNIJOAIGII": "1111",
          "MNPDDAKDHGK": ""
        },
        "PIOCBHLFLJP": {
          "102": {
            "rangeMin": 4.5,
            "rangeMax": 7.0,
            "BFJBDDIIFOI": {
              "IDEFILBHNAP": 0.0,
              "IBLIPJPNOGC": 0.0,
              "AEBLMKFNCDG": 2.0,
              "IGLIBIOEGBB": 2.0
            },
            "NAOBMNGDKHL": "1111",
            "JCNIJOAIGII": "1111",
            "MNPDDAKDHGK": ""
          }
        }
      },
      {
        "$type": "KACCHOLJDNK",
        "enable": true,
        "condition": {
          "pose": [101, 102]
        },
        "JMCOBEPDIGM": {
          "KHDFDAAAPEI": 9.0,
          "HKJODDGJPHA": 50.0,
          "GGEBMFHFBPO": 4.0,
          "KFFGCIMPNMJ": 6.0,
          "MNPDDAKDHGK": ""
        }
      },
      {
        "$type": "FPELBIJFGCE",
        "enable": true,
        "condition": {
          "pose": [1001]
        },
        "JMCOBEPDIGM": {
          "KPNDPKIOPJM": 3.0,
          "PINAFKEDDLL": 1.5,
          "ANMPOPEBDIA": 15.0,
          "GMJFIMFFOEL": 3.75,
          "CHCPFDMADEI": 7.5,
          "MNPDDAKDHGK": ""
        }
      }
    ]
  },
  "inputKeys": [
    {
      "keyID": 201,
      "inputKeyCode": 258,
      "abilityName": ""
    },
    {
      "keyID": 301,
      "inputKeyCode": 259,
      "abilityName": ""
    }
  ],
  "move": {
    "$type": "IPNMJMHDMPF",
    "facingMove": "FourDirection",
    "monsterSizeType": "StoopType",
    "PKHOMJHFAEE": "RootNode"
  }
}
