{
  "common": {
    "effectAttachShape": {
      "$type": "FJNPJANPGGC",
      "mesh": "EffectMesh"
    },
    "mass": 30.0,
    "height": 0.6000000238418579,
    "reconnectSupport": true,
    "recoverByInitPose": true
  },
  "model": {
    "bornEffect": "",
    "attachEffect": "",
    "BKPFGNPLDNJ": ""
  },
  "dither": {
    "showDitherDuration": 2.0
  },
  "combat": {
    "property": {
      "endureType": "Monster_Slime",
      "weight": 80.0
    },
    "beHit": {
      "hitBloodEffect": "",
      "IEKJNLDFOCL": true
    },
    "combatLock": {
      "lockShape": "CircleLockEnemy",
      "lockType": "Avatar&Monster_Lv4"
    },
    "die": {
      "hasAnimatorDie": true,
      "fallWhenAirDie": false,
      "dieEndTime": 1.0,
      "dieForceDisappearTime": 4.0,
      "dieDisappearEffect": "Eff_Death_InWater_Common",
      "dieShaderData": "MonsterDieInWater",
      "dieShaderEnableDurationTime": 0.5,
      "dieModelFadeDelay": 0.5,
      "muteHitBox": true,
      "dieDenyLockOn": true,
      "dieIsGhostToEnemy": true,
      "dieIgnoreTriggerBullet": true,
      "muteBillboard": true,
      "mutePushCollider": true
    }
  },
  "abilities": [
    {
      "abilityID": "",
      "abilityName": "Monster_FauneAbyssale_JellyFish_Larva_Born",
      "abilityOverride": ""
    },
    {
      "abilityID": "",
      "abilityName": "Monster_FauneAbyssale_JellyFish_TriggerBullet",
      "abilityOverride": ""
    },
    {
      "abilityID": "",
      "abilityName": "FauneAbyssale_JellyFish_Larva_FreeSkillsBinding",
      "abilityOverride": ""
    },
    {
      "abilityID": "",
      "abilityName": "FauneAbyssale_JellyFish_HideUIBillBoard",
      "abilityOverride": ""
    }
  ],
  "stateLayers": {
    "defaultLayer": {
      "$type": "GBGJJIIEMBD",
      "layerIndexName": "",
      "CPAANEIJCGD": "",
      "stateIDs": {
        "Born": {
          "$type": "NEDIFAKEGCO",
          "animatorStates": {
            "Born": []
          }
        },
        "NormalIdle": {
          "$type": "NEDIFAKEGCO",
          "animatorStates": {
            "Standby": []
          },
          "canDoSkill": true,
          "canSyncMove": true,
          "resetAnimatorTriggerOnExit": ["DoSkill"],
          "canSteer": true
        },
        "NormalMove": {
          "$type": "NEDIFAKEGCO",
          "animatorStates": {
            "FlyInWater": []
          },
          "canDoSkill": true,
          "canSyncMove": true,
          "resetAnimatorTriggerOnExit": ["DoSkill"],
          "canSteer": true,
          "GGODGEGHPJD": true
        },
        "BeHit": {
          "$type": "NEDIFAKEGCO",
          "animatorStates": {
            "Hit_H": ["Audio_Monster_FauneAbyssale_JellyFish_Larva_01_Hit_H"]
          },
          "resetAnimatorTriggerOnEnter": ["BeHit"],
          "resetAnimatorTriggerOnExit": ["DoSkill"],
          "airMoveFollowAnimation": true
        },
        "Struggle": {
          "$type": "NEDIFAKEGCO",
          "animatorStates": {
            "Struggle": []
          },
          "resetAnimatorTriggerOnEnter": ["BeHit", "HitAir2HitDrop"],
          "resetAnimatorTriggerOnExit": ["DoSkill"],
          "airMoveFollowAnimation": true
        },
        "Die": {
          "$type": "NEDIFAKEGCO",
          "animatorStates": {
            "Die": [
              "Monster_FauneAbyssale_JellyFish_Die",
              "Audio_Monster_FauneAbyssale_JellyFish_Larva_01_Die"
            ]
          },
          "resetAnimatorTriggerOnEnter": ["BeHit", "DoSkill", "BeHit"]
        },
        "NormalAttack": {
          "$type": "NEDIFAKEGCO",
          "animatorStates": {
            "NormalAttack": [
              "Monster_FauneAbyssale_JellyFish_TriggerBullet",
              "Audio_Monster_FauneAbyssale_JellyFish_Larva_01_NormalAttack"
            ]
          },
          "resetAnimatorTriggerOnExit": ["BeHit", "DoSkill"],
          "canSteer": true
        },
        "Alert": {
          "$type": "NEDIFAKEGCO",
          "animatorStates": {
            "Alert": [
              "Monster_FauneAbyssale_JellyFish_Alert",
              "Audio_Monster_FauneAbyssale_JellyFish_Larva_01_Alert"
            ]
          },
          "resetAnimatorTriggerOnExit": ["BeHit", "DoSkill"],
          "canSteer": true
        },
        "Personality1": {
          "$type": "NEDIFAKEGCO",
          "animatorStates": {
            "Personality1": [
              "Audio_Monster_FauneAbyssale_JellyFish_Larva_01_Personality1"
            ]
          },
          "canDoSkill": true,
          "resetAnimatorTriggerOnExit": ["BeHit", "DoSkill"],
          "canSteer": true
        },
        "Personality2": {
          "$type": "NEDIFAKEGCO",
          "animatorStates": {
            "Personality2": [
              "Monster_FauneAbyssale_JellyFish_Larva_SyncDance",
              "Audio_Monster_FauneAbyssale_JellyFish_Larva_01_Personality2"
            ]
          },
          "canDoSkill": true,
          "canSyncMove": true,
          "cullingModelAlwaysAnimate": true,
          "resetAnimatorTriggerOnExit": ["BeHit", "DoSkill"],
          "canSteer": true
        },
        "Personality3": {
          "$type": "NEDIFAKEGCO",
          "animatorStates": {
            "Personality3": [
              "Audio_Monster_FauneAbyssale_JellyFish_Larva_01_Personality3"
            ]
          },
          "canDoSkill": true,
          "resetAnimatorTriggerOnExit": ["BeHit", "DoSkill"],
          "canSteer": true
        },
        "Personality4": {
          "$type": "NEDIFAKEGCO",
          "animatorStates": {
            "Personality4": [
              "Audio_Monster_FauneAbyssale_JellyFish_Larva_01_Personality4"
            ]
          },
          "canDoSkill": true,
          "canSyncMove": true,
          "cullingModelAlwaysAnimate": true,
          "resetAnimatorTriggerOnExit": ["BeHit", "DoSkill"],
          "canSteer": true
        }
      }
    }
  },
  "billboard": {
    "$type": "DNGNMAJBCNP",
    "attachPoint": "BillboardAttach",
    "offset": {
      "y": 0.75
    },
    "radiusOffset": 1.0,
    "enableSelfAdapt": true,
    "showHPBar": true,
    "forceShowDistance": 15.0
  },
  "initialPoses": {
    "Default": {
      "initialPoseID": 11,
      "initialPoseParams": {
        "intParams": {
          "FreeState": "0"
        }
      }
    },
    "Dance": {
      "initialPoseID": 12,
      "initialPoseParams": {
        "intParams": {
          "FreeState": "1"
        }
      }
    },
    "DancePartner": {
      "initialPoseID": 13,
      "initialPoseParams": {
        "intParams": {
          "FreeState": "2"
        }
      }
    },
    "Mute": {
      "initialPoseID": 99,
      "initialPoseParams": {
        "intParams": {
          "FreeState": "99"
        }
      }
    }
  },
  "aibeta": {
    "enable": true,
    "moveSetting": {
      "moveCategory": "Dive",
      "useNavMesh": false,
      "useToTheMoon": true,
      "navMeshAgentName": "Undead01",
      "almostReachedDistanceRun": 2.0
    },
    "sensing": {
      "settings": {
        "DefaultSetting": {
          "viewRange": 25.0,
          "horizontalFov": 150.0,
          "verticalFov": 100.0,
          "hearAttractionRange": 5.0,
          "feelRange": 0.0
        },
        "NeverCombat": {
          "enableVision": false,
          "hearAttractionRange": 0.0,
          "feelRange": 0.0
        },
        "NormalAlert": {
          "viewPanoramic": true,
          "hearAttractionRange": 5.0,
          "feelRange": 17.5
        }
      },
      "templates": {
        "DefaultTemplate": {
          "DefaultPoses": "DefaultSetting",
          "201": "NormalAlert"
        },
        "NeverCombatTemplate": {
          "DefaultPoses": "NeverCombat",
          "201": "NormalAlert"
        },
        "NormalAlertTemplate": {
          "DefaultPoses": "NormalAlert"
        }
      }
    },
    "neurons": {
      "DefaultSetting": ["HIT"],
      "NeverCombat": []
    },
    "threat": {
      "GHIJMOKOLMB": "",
      "clearThreatTargetDistance": 25.0,
      "viewThreatGrow": 25.0,
      "feelThreatGrow": 150.0,
      "threatDecreaseSpeed": 45.0,
      "threatBroadcastRange": 8.0,
      "viewAttenuation": [
        {
          "x": 4.5,
          "y": 1.0
        },
        {
          "x": 8.0,
          "y": 0.5
        },
        {
          "x": 15.0,
          "y": 0.20000000298023224
        },
        {
          "x": 22.5,
          "y": 0.10000000149011612
        }
      ]
    },
    "defendArea": {
      "defendRange": 120.0
    },
    "fly": {
      "enable": true,
      "IPJLPEHKCJA": [11, 12, 13, 99, 201, 901]
    },
    "skills": {
      "201": {
        "name": "NormalAttack",
        "combatSkillType": "RangedAttack",
        "priority": 2,
        "castCondition": {
          "pose": [201],
          "BNLDGHLANLI": [2],
          "pickRangeMax": 25.0
        },
        "cd": 8.0,
        "cdUpperRange": 2.0,
        "publicCDGroup": "",
        "HHAGODJIAPE": "",
        "stateIDs": ["NormalAttack"],
        "flagTargetReachable": "11",
        "flagSelfOnTemplateCollider": "11",
        "flagSelfInZone": "11",
        "flagTargetInZone": "11"
      },
      "100": {
        "name": "OnAlert",
        "skillType": "OnAlert",
        "faceTarget": true,
        "publicCDGroup": "",
        "ignoreGCD": true,
        "triggerGCD": false,
        "HHAGODJIAPE": "",
        "stateIDs": ["Alert"],
        "skillQueryingTime": 3.0,
        "flagTargetReachable": "10",
        "flagSelfOnTemplateCollider": "01",
        "flagSelfInZone": "10",
        "flagTargetInZone": "11",
        "nerveTrigger": ["HIT"]
      },
      "101": {
        "name": "Personality1",
        "skillType": "Free",
        "priority": 2,
        "castCondition": {
          "pose": [11]
        },
        "cd": 15.0,
        "cdUpperRange": 2.0,
        "initialCD": 5.0,
        "publicCDGroup": "",
        "HHAGODJIAPE": "",
        "stateIDs": ["Personality1"],
        "flagTargetReachable": "10",
        "flagSelfOnTemplateCollider": "01",
        "flagSelfInZone": "10",
        "flagTargetInZone": "11"
      },
      "102": {
        "name": "Personality2",
        "skillType": "Free",
        "priority": 2,
        "castCondition": {
          "pose": [12]
        },
        "cd": 5.0,
        "cdUpperRange": 2.0,
        "initialCD": 5.0,
        "publicCDGroup": "",
        "HHAGODJIAPE": "",
        "stateIDs": ["Personality2"],
        "flagTargetReachable": "10",
        "flagSelfOnTemplateCollider": "01",
        "flagSelfInZone": "10",
        "flagTargetInZone": "11"
      },
      "103": {
        "name": "Personality3",
        "skillType": "Free",
        "priority": 2,
        "canUseCombatSkillCondition": true,
        "castCondition": {
          "pose": [11],
          "skillAnchorRangeMin": -1.0,
          "targetSkillAnchorRangeMin": -1.0,
          "EELFCDOLLPM": 5.0,
          "pickRangeByRaycast": [
            {
              "min": 7.5,
              "max": -1.0,
              "raycastType": "DownToGroundOnlyInWater"
            }
          ]
        },
        "cd": 15.0,
        "cdUpperRange": 2.0,
        "initialCD": 5.0,
        "publicCDGroup": "",
        "HHAGODJIAPE": "",
        "stateIDs": ["Personality3"],
        "flagTargetReachable": "11",
        "flagSelfOnTemplateCollider": "11",
        "flagSelfInZone": "11",
        "flagTargetInZone": "11"
      }
    },
    "skillGCD": 3.5,
    "groupSurroundTactic": {
      "Temp1": {
        "MFNHGOKLGMO": 0.75,
        "PPLFPCCFFNC": 5.0,
        "FAMIMLKMEDP": 5.0,
        "FODOJABAOOA": 5.0
      },
      "Temp2": {
        "MFNHGOKLGMO": 1.5,
        "PPLFPCCFFNC": 5.0,
        "FAMIMLKMEDP": 5.0,
        "FODOJABAOOA": 5.0
      }
    },
    "birdCirclingTactic": [
      {
        "$type": "MCDGOJLCMBM",
        "JMCOBEPDIGM": {
          "DMGAHPPFMPK": 2.0,
          "FLENLLDBFGP": 2.0,
          "ACOBCFCMBOC": "Auto",
          "MNPDDAKDHGK": "Temp1",
          "GJDMDHIBCME": ""
        }
      },
      {
        "$type": "COLLJLNKMLC",
        "JMCOBEPDIGM": {
          "ANLAAGAMIKF": 1,
          "MNPDDAKDHGK": "Temp1",
          "GJDMDHIBCME": "",
          "ACOBCFCMBOC": "Auto",
          "PLLHMGHOAPB": "",
          "KPIJNGFNAEF": "",
          "GDPHPLKJGAJ": "",
          "KKKOAABEHEP": ""
        }
      },
      {
        "$type": "GPEMIAJPPJG",
        "enable": true,
        "condition": {
          "pose": [99]
        },
        "JMCOBEPDIGM": {
          "ANLAAGAMIKF": 1,
          "ACOBCFCMBOC": "Auto",
          "MNPDDAKDHGK": "Temp1",
          "GJDMDHIBCME": ""
        }
      },
      {
        "$type": "NNJKLGNPMNN",
        "enable": true,
        "JMCOBEPDIGM": {
          "NBENNEKDIIA": 5.0,
          "ACOBCFCMBOC": "Auto",
          "MNPDDAKDHGK": "Temp2",
          "GJDMDHIBCME": ""
        }
      },
      {
        "$type": "MJJFBALNDCH",
        "JMCOBEPDIGM": {
          "ANLAAGAMIKF": 1,
          "DDFIKIJKKOE": true,
          "MNPDDAKDHGK": "Temp1",
          "GJDMDHIBCME": ""
        }
      },
      {
        "$type": "EPPOBBAEPED",
        "enable": true,
        "condition": {
          "pose": [11, 12, 13, 201, 901]
        },
        "JMCOBEPDIGM": {
          "ANLAAGAMIKF": 2,
          "FAKGFIDPCFL": 13.5,
          "GHCEDMEHKLN": 5.5,
          "KGNHAOIAEKG": 7.0,
          "NHHDIPGNDJA": 3.0,
          "ONFAMCFCNFM": 0.0,
          "KLODEFMNFIC": 1.0,
          "MNPDDAKDHGK": "Temp2",
          "GJDMDHIBCME": ""
        }
      },
      {
        "$type": "MNBBAPLOENP",
        "enable": true,
        "condition": {
          "pose": [11, 201, 901]
        },
        "JMCOBEPDIGM": {
          "ANLAAGAMIKF": 2,
          "GOMIFCDDDLF": 3.0,
          "JCPAFNBJDEN": 12.0,
          "JOJBOHEDBHC": 2.5,
          "AFILKAGDAHN": 4.0,
          "OMHBOLPFEPM": 1.5,
          "BJIEHJIOICI": 3.0,
          "FPNBEHAAJOL": {
            "LLICGJHIGME": 0.0,
            "IDEFILBHNAP": 0.20000000298023224,
            "OJLPFPNFMDJ": 1.5,
            "JFBDDDBIHDE": 2.5,
            "EHLPOCLAEFO": 2.0,
            "APHHENPJNLO": 4.0,
            "AKMJKEIJEHM": 2.0,
            "PELOBMPBAJF": 4.0,
            "BLOIJOGPILM": 2.0,
            "GNFCHLHAPNI": 4.0,
            "DDIPMLEHIJP": 1.0,
            "PIJHGEOHOOO": 0.5,
            "OCMLCHDANPJ": 2.0
          },
          "GLBILFHBNFD": false,
          "MNPDDAKDHGK": "Temp1",
          "GJDMDHIBCME": ""
        }
      },
      {
        "$type": "AFPKJOCDEIF",
        "enable": true,
        "condition": {
          "pose": [11, 201]
        },
        "JMCOBEPDIGM": {
          "ANLAAGAMIKF": 1,
          "OODBIGLAFGG": {
            "OJLPFPNFMDJ": 3.5,
            "JFBDDDBIHDE": 7.5,
            "EHLPOCLAEFO": 2.0,
            "APHHENPJNLO": 5.0,
            "AKMJKEIJEHM": 3.0,
            "PELOBMPBAJF": 7.0,
            "BLOIJOGPILM": 3.0,
            "GNFCHLHAPNI": 7.0,
            "DFHLPPNLGIE": 2.0,
            "CLDDLKFCODO": 6.0,
            "GNJEAKAKLHD": 2.0,
            "EHAGCHIFFHA": 6.0
          },
          "NBENNEKDIIA": 2.0,
          "NNMEJAFDPEJ": 10.0,
          "KPNDPKIOPJM": 0.20000000298023224,
          "PINAFKEDDLL": 0.10000000149011612,
          "MNPDDAKDHGK": "Temp1",
          "GJDMDHIBCME": "",
          "KHJGKBJCNLM": 1.5,
          "OIGAJIFCDMI": 3.0,
          "BMDNOGNPICH": 3.0,
          "EIGFLPCINME": 3.0,
          "LGEJMHHKDHD": 1.5,
          "LDOEAHKEMMH": 0.5,
          "FJELCNEOPLE": 0.33000001311302185,
          "BKPKJEDPJCK": -0.5,
          "CMCKJBFDDDM": 0.5,
          "JJGCFCNPKAD": 0.6600000262260437
        }
      }
    ]
  },
  "inputKeys": [
    {
      "keyID": 101,
      "inputKeyCode": 257,
      "abilityName": ""
    },
    {
      "keyID": 102,
      "inputKeyCode": 258,
      "abilityName": ""
    },
    {
      "keyID": 103,
      "inputKeyCode": 259,
      "abilityName": ""
    },
    {
      "keyID": 201,
      "inputKeyCode": 260,
      "abilityName": ""
    },
    {
      "keyID": 100,
      "inputKeyCode": 261,
      "abilityName": ""
    }
  ],
  "move": {
    "$type": "IPNMJMHDMPF",
    "velocityForce": {
      "excludeForces": ["RetreatType", "RetreatAirType"]
    },
    "handleCombatTaskImmediately": true,
    "initWithGroundHitCheckV2": false,
    "moveOnWater": true,
    "raycasts": [
      {
        "raycastLength": 5.0,
        "raycastType": "DownToGroundOnlyInWater",
        "startPoint": ""
      }
    ],
    "facingMove": "AirBlend",
    "airFacingMove": "AirBlend",
    "yawSpeedRatio": 2.0,
    "positionModifyExtra": true,
    "PKHOMJHFAEE": "RootNode",
    "NIDFEFPEKAI": 30.0,
    "JNAPCJLHJDO": true
  },
  "audio": {
    "overrideEmitterName": "",
    "animAudio": {
      "onTransitionIn": [
        {
          "currentStateName": "FlyInWater",
          "audioEvent": {
            "text": "Play_Sfx_Monster_FauneAbyssale_JellyFish_Larva_01_Flyinwater_LP"
          },
          "otherStateNames": ["FlyInWater"],
          "usage": "Except"
        }
      ],
      "onTransitionOut": [
        {
          "currentStateName": "FlyInWater",
          "audioEvent": {
            "text": "Stop_Sfx_Monster_FauneAbyssale_JellyFish_Larva_01_Flyinwater_LP"
          },
          "otherStateNames": ["FlyInWater"],
          "usage": "Except"
        }
      ]
    }
  }
}
