{
  "common": {
    "effectAttachShape": {
      "$type": "FJNPJANPGGC",
      "mesh": "EffectMesh"
    },
    "mass": 500.0,
    "height": 2.0,
    "modelHeight": 1.7000000476837158,
    "viewSize": 1.2999999523162842,
    "affectedByWorld": true,
    "checkInSurface": true,
    "scale": 1.2999999523162842,
    "useGrassDisplacement": true
  },
  "headControl": {
    "$type": "KPIPDEBDPIH",
    "useHeadControl": true,
    "maxYawDegree": 75.0,
    "maxPitchDegree": 30.0,
    "animStates": [
      "NormalIdle/Standby",
      "NormalMove/WalkForward",
      "NormalMove/WalkBack",
      "NormalMove/WalkRight",
      "NormalMove/WalkLeft",
      "NormalMove/Run",
      "Turn/TurnLeft",
      "Turn/TurnRight"
    ]
  },
  "model": {
    "bornEffect": "Eff_Monster_Common_Born",
    "attachEffect": "",
    "BKPFGNPLDNJ": ""
  },
  "dither": {
    "showDitherDuration": 1.0
  },
  "combat": {
    "property": {
      "endureType": "Monster_Grunt_Humanoid",
      "weight": 100.0
    },
    "beHit": {
      "hitBloodEffect": ""
    },
    "combatLock": {
      "lockShape": "CircleLockEnemy",
      "lockType": "Avatar&Monster_Lv4"
    },
    "die": {
      "hasAnimatorDie": true,
      "dieEndTime": 4.0,
      "dieForceDisappearTime": 15.0,
      "dieDisappearEffect": "",
      "useRagDoll": true,
      "ragDollDieEndTimeDelay": 15.0,
      "muteHitBox": true,
      "dieDenyLockOn": true,
      "dieIsGhostToEnemy": true,
      "dieIgnoreTriggerBullet": true,
      "muteBillboard": true,
      "mutePushCollider": true
    },
    "animEvents": {
      "NormalAtk": {
        "attackPattern": {
          "$type": "ConfigAttackCircle",
          "triggerType": "TriggerNoRepeat",
          "born": {
            "$type": "ConfigBornBySelf",
            "offset": {
              "x": 0.0,
              "y": 0.0,
              "z": 0.0
            }
          },
          "fanAngle": 90.0,
          "radius": 2.25
        },
        "attackInfo": {
          "attackTag": "",
          "attenuationTag": "",
          "attenuationGroup": "default",
          "attackProperty": {
            "actorGrassSubHurtDelta": 1.0,
            "actorWindSubHurtDelta": 0.0,
            "elementDurability": 100.0,
            "strikeType": "Blunt",
            "enBreak": 200.0,
            "attackType": "Melee",
            "GLKMCMDJBIK": 0.0
          },
          "hitPattern": {
            "onHitEffectName": "default",
            "hitImpulseY": "",
            "hitImpulseType": "LV3",
            "hitHaltTimeScale": 0.009999999776482582
          }
        }
      },
      "WildAtk01": {
        "attackPattern": {
          "$type": "ConfigAttackBox",
          "triggerType": "TriggerNoRepeat",
          "born": {
            "$type": "ConfigBornBySelf",
            "offset": {
              "x": 0.0,
              "y": 0.800000011920929,
              "z": 0.0
            }
          },
          "size": {
            "x": 2.4000000953674316,
            "y": 1.0,
            "z": 2.799999952316284
          }
        },
        "attackInfo": {
          "attackTag": "",
          "attenuationTag": "",
          "attenuationGroup": "default",
          "attackProperty": {
            "actorGrassSubHurtDelta": 0.5,
            "actorWindSubHurtDelta": 0.0,
            "elementDurability": 100.0,
            "strikeType": "Blunt",
            "enBreak": 200.0,
            "GLKMCMDJBIK": 0.0
          },
          "hitPattern": {
            "onHitEffectName": "default",
            "hitImpulseY": "",
            "hitImpulseType": "LV4",
            "retreatType": "ByHitDirection",
            "hitHaltTime": 0.05999999865889549,
            "hitHaltTimeScale": 0.009999999776482582
          },
          "cameraShake": {
            "shakeType": "HitVector",
            "shakeRange": 0.1599999964237213,
            "shakeTime": 0.11999999731779099,
            "shakeDistance": 25.0,
            "shakeDir": {
              "z": 1.0
            }
          }
        }
      },
      "WildAtk02": {
        "attackPattern": {
          "$type": "ConfigAttackBox",
          "triggerType": "TriggerNoRepeat",
          "born": {
            "$type": "ConfigBornBySelf",
            "offset": {
              "x": 0.0,
              "y": 0.800000011920929,
              "z": 0.699999988079071
            }
          },
          "size": {
            "x": 3.0,
            "y": 2.0,
            "z": 2.799999952316284
          }
        },
        "attackInfo": {
          "attackTag": "",
          "attenuationTag": "",
          "attenuationGroup": "default",
          "attackProperty": {
            "actorGrassSubHurtDelta": 0.5,
            "actorWindSubHurtDelta": 0.0,
            "elementDurability": 100.0,
            "strikeType": "Blunt",
            "enBreak": 200.0,
            "GLKMCMDJBIK": 0.0
          },
          "hitPattern": {
            "onHitEffectName": "default",
            "hitImpulseY": "",
            "hitImpulseType": "LV4",
            "retreatType": "ByHitDirection",
            "hitHaltTime": 0.05999999865889549,
            "hitHaltTimeScale": 0.009999999776482582
          },
          "cameraShake": {
            "shakeType": "HitVector",
            "shakeRange": 0.1599999964237213,
            "shakeTime": 0.11999999731779099,
            "shakeDistance": 25.0,
            "shakeDir": {
              "z": 1.0
            }
          }
        }
      },
      "WildAtk03": {
        "attackPattern": {
          "$type": "ConfigAttackCircle",
          "triggerType": "TriggerNoRepeat",
          "born": {
            "$type": "ConfigBornBySelf",
            "offset": {
              "x": 0.0,
              "y": 0.0,
              "z": 0.0
            }
          },
          "height": 3.0,
          "fanAngle": 45.0,
          "radius": 3.5
        },
        "attackInfo": {
          "attackTag": "",
          "attenuationTag": "",
          "attenuationGroup": "default",
          "attackProperty": {
            "actorGrassSubHurtDelta": 1.0,
            "actorWindSubHurtDelta": 0.0,
            "elementDurability": 100.0,
            "strikeType": "Blunt",
            "enBreak": 200.0,
            "GLKMCMDJBIK": 0.0
          },
          "hitPattern": {
            "onHitEffectName": "default",
            "hitImpulseY": "",
            "hitImpulseType": "LV6",
            "hitHaltTime": 0.05999999865889549,
            "hitHaltTimeScale": 0.009999999776482582
          },
          "cameraShake": {
            "shakeType": "HitVector",
            "shakeRange": 0.1599999964237213,
            "shakeTime": 0.15000000596046448,
            "shakeDistance": 25.0,
            "shakeDir": {
              "x": 1.0,
              "y": -1.0
            }
          }
        }
      },
      "PowerSlam01": {
        "attackPattern": {
          "$type": "ConfigAttackCircle",
          "triggerType": "TriggerNoRepeat",
          "born": {
            "$type": "ConfigBornBySelf",
            "offset": {
              "x": 0.0,
              "y": 0.0,
              "z": -0.5
            }
          },
          "fanAngle": 75.0,
          "radius": 2.75
        },
        "attackInfo": {
          "attackTag": "",
          "attenuationTag": "",
          "attenuationGroup": "default",
          "attackProperty": {
            "actorGrassSubHurtDelta": 1.2000000476837158,
            "actorWindSubHurtDelta": 0.0,
            "elementDurability": 100.0,
            "strikeType": "Blunt",
            "enBreak": 200.0,
            "attackType": "Melee",
            "GLKMCMDJBIK": 0.0
          },
          "hitPattern": {
            "onHitEffectName": "default",
            "hitImpulseY": "",
            "hitImpulseType": "LV4"
          },
          "cameraShake": {
            "shakeType": "HitVector",
            "shakeRange": 0.05999999865889549,
            "shakeTime": 0.09000000357627869,
            "shakeDir": {
              "y": -1.0
            }
          }
        }
      }
    }
  },
  "equipController": {
    "sheathPoint": "",
    "attachPoints": {
      "equip01": "WeaponR",
      "equip02": "WeaponL"
    }
  },
  "abilities": [
    {
      "abilityID": "SteerAttack",
      "abilityName": "Thoarder_Male_Shovel_SteerAttack",
      "abilityOverride": ""
    },
    {
      "abilityID": "ShovelAttack_Bullet",
      "abilityName": "Monster_Thoarder_Male_Shovel_ShovelAttack_Bullet",
      "abilityOverride": ""
    },
    {
      "abilityID": "WildSlam_Loop",
      "abilityName": "Monster_Thoarder_Male_Shovel_WildSlam_Loop",
      "abilityOverride": ""
    },
    {
      "abilityID": "WildSlam_RushMove01",
      "abilityName": "Monster_Thoarder_Male_Shovel_WildSlam_RushMove01",
      "abilityOverride": ""
    },
    {
      "abilityID": "WeaponOnBack",
      "abilityName": "Thoarder_WeaponOnBack",
      "abilityOverride": ""
    },
    {
      "abilityID": "DrawWeapon",
      "abilityName": "Thoarder_DrawWeapon",
      "abilityOverride": ""
    },
    {
      "abilityID": "SheathWeapon",
      "abilityName": "Thoarder_SheathWeapon",
      "abilityOverride": ""
    },
    {
      "abilityID": "HideWeapon",
      "abilityName": "Thoarder_HideWeapon",
      "abilityOverride": ""
    },
    {
      "abilityID": "ReturnToBorn",
      "abilityName": "Thoarder_ReturnToBorn",
      "abilityOverride": ""
    },
    {
      "abilityID": "StepShake",
      "abilityName": "Monster_Thoarder_Male_Shovel_StepShake",
      "abilityOverride": ""
    },
    {
      "abilityID": "SmokeBombInHandR_Start",
      "abilityName": "Thoarder_Die_SmokeBombInHandR_Start",
      "abilityOverride": ""
    },
    {
      "abilityID": "SmokeBombEffect_End",
      "abilityName": "Thoarder_Die_SmokeBombEffect_End",
      "abilityOverride": ""
    },
    {
      "abilityID": "Shovel_AuxWeaponTrans",
      "abilityName": "Monster_Thoarder_Male_Shovel_AuxWeaponTrans",
      "abilityOverride": ""
    },
    {
      "abilityID": "SteerMove",
      "abilityName": "Thoarder_Male_Shovel_SteerMove",
      "abilityOverride": ""
    },
    {
      "abilityID": "SteerMove",
      "abilityName": "Thoarder_Male_Shovel_SteerMove",
      "abilityOverride": ""
    },
    {
      "abilityID": "EndureModifier",
      "abilityName": "Thoarder_EndureModifier",
      "abilityOverride": ""
    }
  ],
  "stateLayers": {
    "defaultLayer": {
      "$type": "GBGJJIIEMBD",
      "layerIndexName": "",
      "CPAANEIJCGD": "",
      "stateIDs": {
        "NormalIdle": {
          "$type": "NEDIFAKEGCO",
          "animatorStates": {
            "Standby": [],
            "Born": []
          },
          "canDoSkill": true,
          "canSyncMove": true,
          "resetAnimatorTriggerOnExit": ["DoSkill"]
        },
        "NormalMove": {
          "$type": "NEDIFAKEGCO",
          "animatorStates": {
            "WalkForward": ["Audio_Monster_Thoarder_Shovel_Walk"],
            "WalkBack": ["Audio_Monster_Thoarder_Shovel_Walk"],
            "WalkRight": ["Audio_Monster_Thoarder_Shovel_Walk"],
            "WalkLeft": ["Audio_Monster_Thoarder_Shovel_Walk"],
            "Run": ["Audio_Monster_Thoarder_Shovel_Run"]
          },
          "canDoSkill": true,
          "canSyncMove": true,
          "resetAnimatorTriggerOnExit": ["DoSkill"],
          "canSteer": true
        },
        "Turn": {
          "$type": "NEDIFAKEGCO",
          "animatorStates": {
            "TurnLeft": ["Audio_Monster_Thoarder_Shovel_Walk"],
            "TurnRight": ["Audio_Monster_Thoarder_Shovel_Walk"]
          },
          "canDoSkill": true,
          "canSyncMove": true,
          "resetAnimatorTriggerOnExit": ["DoSkill"],
          "canSteer": true
        },
        "BeHit": {
          "$type": "NEDIFAKEGCO",
          "animatorStates": {
            "Hit_L": ["Audio_Monster_Thoarder_Shovel_Hit_L"],
            "Hit_H": ["Audio_Monster_Thoarder_Shovel_Hit_H"],
            "DHit": []
          },
          "resetAnimatorTriggerOnEnter": ["BeHit"],
          "resetAnimatorTriggerOnExit": ["DoSkill"]
        },
        "BeHitThrow": {
          "$type": "NEDIFAKEGCO",
          "animatorStates": {
            "HitThrow": ["Audio_Monster_Thoarder_Shovel_HitThrow"],
            "HitThrowDrop": [],
            "HitThrowToGround": [
              "Audio_Monster_Thoarder_Shovel_HitThrowToGround"
            ]
          },
          "resetAnimatorTriggerOnEnter": ["BeHit", "HitAir2HitDrop"],
          "resetAnimatorTriggerOnExit": ["DoSkill"]
        },
        "Struggle": {
          "$type": "NEDIFAKEGCO",
          "animatorStates": {
            "Struggle": []
          },
          "resetAnimatorTriggerOnEnter": ["BeHit", "HitAir2HitDrop"],
          "resetAnimatorTriggerOnExit": ["DoSkill"]
        },
        "Die": {
          "$type": "NEDIFAKEGCO",
          "animatorStates": {
            "Die1": [
              "Monster_Thoarder_Male_Shovel_Die",
              "Audio_Monster_Thoarder_Shovel_Die"
            ],
            "Die2": [
              "Monster_Thoarder_Male_Shovel_Die",
              "Audio_Monster_Thoarder_Shovel_Die"
            ],
            "SwimDie": ["Audio_Monster_Thoarder_NoWeapon_SwimDie"],
            "SwimDie_AS": ["Monster_Thoarder_Common_SwimDie"]
          }
        },
        "Die_RagDoll": {
          "$type": "NEDIFAKEGCO",
          "animatorStates": {
            "AirDie": ["Monster_Thoarder_Common_AirDie"]
          },
          "enableRagDoll": true
        },
        "Life_Alert": {
          "$type": "NEDIFAKEGCO",
          "animatorStates": {
            "Alert": ["Audio_Monster_Thoarder_Shovel_Alert"]
          },
          "resetAnimatorTriggerOnExit": ["BeHit", "DoSkill"]
        },
        "Life_Warning": {
          "$type": "NEDIFAKEGCO",
          "animatorStates": {
            "Warning": [
              "Monster_Undead01_Warning",
              "Monster_Thoarder_DrawWeapon",
              "Audio_Monster_Thoarder_Shovel_Alert"
            ]
          },
          "resetAnimatorTriggerOnExit": ["BeHit", "DoSkill"]
        },
        "NormalAtk": {
          "$type": "NEDIFAKEGCO",
          "animatorStates": {
            "NormalAtk": [
              "Monster_Thoarder_Male_Shovel_NormalAtk",
              "Audio_Monster_Thoarder_Shovel_NormalAtk"
            ]
          },
          "resetAnimatorTriggerOnExit": ["BeHit", "DoSkill"]
        },
        "WildSlam_BS": {
          "$type": "NEDIFAKEGCO",
          "animatorStates": {
            "WildSlam_BS": [
              "Monster_Thoarder_Male_Shovel_WildSlam_BS",
              "Audio_Monster_Thoarder_Shovel_WildSlam_BS"
            ]
          },
          "massRatio": 20.0,
          "resetAnimatorTriggerOnExit": ["BeHit", "DoSkill"]
        },
        "WildSlam_Loop": {
          "$type": "NEDIFAKEGCO",
          "animatorStates": {
            "WildSlam_Loop": [
              "Monster_Thoarder_Male_Shovel_WildSlam_Loop",
              "Audio_Monster_Thoarder_Shovel_WildSlam_Loop"
            ]
          },
          "massRatio": 20.0,
          "resetAnimatorTriggerOnExit": ["BeHit", "DoSkill"]
        },
        "WildSlam_AS": {
          "$type": "NEDIFAKEGCO",
          "animatorStates": {
            "WildSlam_AS": [
              "Monster_Thoarder_Male_Shovel_WildSlam_AS",
              "Audio_Monster_Thoarder_Shovel_WildSlam_AS"
            ]
          },
          "massRatio": 20.0,
          "resetAnimatorTriggerOnExit": [
            "BeHit",
            "DoSkill",
            "WildSlamLoopEndTrigger"
          ]
        },
        "PowerSlam": {
          "$type": "NEDIFAKEGCO",
          "animatorStates": {
            "PowerSlam": [
              "Monster_Thoarder_Male_Shovel_PowerSlam",
              "Audio_Monster_Thoarder_Shovel_PowerSlam"
            ]
          },
          "addEndure": 0.6000000238418579,
          "resetAnimatorTriggerOnExit": ["BeHit", "DoSkill"]
        },
        "ShovelAttack": {
          "$type": "NEDIFAKEGCO",
          "animatorStates": {
            "ShovelAttack": [
              "Monster_Thoarder_Male_Shovel_ShovelAttack",
              "Audio_Monster_Thoarder_Shovel_ShovelAtk"
            ]
          },
          "resetAnimatorTriggerOnExit": ["BeHit", "DoSkill"]
        },
        "Taunt": {
          "$type": "NEDIFAKEGCO",
          "animatorStates": {
            "Taunt_1": ["Audio_Monster_Thoarder_Shovel_Taunt1"],
            "Taunt_2": ["Audio_Monster_Thoarder_Shovel_Taunt2"],
            "Taunt_3": ["Audio_Monster_Thoarder_Shovel_Taunt3"]
          },
          "resetAnimatorTriggerOnExit": ["BeHit", "DoSkill"]
        },
        "SheathWeapon": {
          "$type": "NEDIFAKEGCO",
          "animatorStates": {
            "SheathWeapon": [
              "Monster_Thoarder_SheathWeapon",
              "Audio_Monster_Thoarder_Shovel_SheathWeapon"
            ]
          },
          "resetAnimatorTriggerOnExit": ["SheathWeaponTrigger"]
        }
      }
    }
  },
  "billboard": {
    "$type": "DNGNMAJBCNP",
    "attachPoint": "BillboardAttach",
    "offset": {
      "x": -0.05000000074505806
    },
    "offsetType": "Character",
    "radiusOffset": 0.25,
    "showHPBar": true
  },
  "initialPoses": {
    "Default": {}
  },
  "aibeta": {
    "enable": true,
    "moveSetting": {
      "navMeshAgentName": "Undead01",
      "almostReachedDistanceRun": 1.5
    },
    "sensing": {
      "settings": {
        "DefaultSetting": {
          "feelRange": 8.0
        },
        "HighAlert": {
          "viewRange": 40.0,
          "feelRange": 10.0
        }
      },
      "templates": {
        "DefaultTemplate": {
          "DefaultPoses": "DefaultSetting"
        },
        "HighAlertTemplate": {
          "DefaultPoses": "HighAlert"
        }
      }
    },
    "neurons": {
      "DefaultSetting": ["HIT"]
    },
    "threat": {
      "GHIJMOKOLMB": "",
      "clearThreatByLostPath": true,
      "clearThreatTimerByDistance": 3.0,
      "viewAttenuation": [
        {
          "x": 10.0,
          "y": 2.0
        },
        {
          "x": 15.0,
          "y": 0.800000011920929
        },
        {
          "x": 20.0,
          "y": 0.5
        },
        {
          "x": 25.0,
          "y": 0.30000001192092896
        },
        {
          "x": 30.0,
          "y": 0.20000000298023224
        }
      ]
    },
    "defendArea": {},
    "profiling": {},
    "skills": {
      "101": {
        "name": "OnAlert",
        "skillType": "OnAlert",
        "faceTarget": true,
        "publicCDGroup": "",
        "ignoreGCD": true,
        "triggerGCD": false,
        "HHAGODJIAPE": "",
        "stateIDs": ["Life_Warning"],
        "skillQueryingTime": 3.0,
        "flagTargetReachable": "10",
        "flagSelfOnTemplateCollider": "01",
        "flagSelfInZone": "10",
        "flagTargetInZone": "11"
      },
      "201": {
        "name": "NormalAtk",
        "combatSkillType": "MeleeAttack",
        "castCondition": {
          "pose": [1001],
          "maxTargetAngleXZ": 60.0,
          "pickRangeMax": 3.0,
          "castRangeMin": 1.5,
          "castRangeMax": 2.0
        },
        "cd": 3.0,
        "cdUpperRange": 1.0,
        "publicCDGroup": "",
        "HHAGODJIAPE": "",
        "stateIDs": ["NormalAtk"],
        "flagTargetReachable": "10",
        "flagSelfOnTemplateCollider": "01",
        "flagSelfInZone": "10",
        "flagTargetInZone": "11"
      },
      "202": {
        "name": "PowerSlam",
        "priority": 3,
        "castCondition": {
          "pose": [1001],
          "maxTargetAngleXZ": 60.0,
          "pickRangeMax": 5.5,
          "castRangeMin": 2.5,
          "castRangeMax": 4.5
        },
        "cd": 3.0,
        "cdUpperRange": 5.0,
        "publicCDGroup": "meleeAttack_long",
        "HHAGODJIAPE": "",
        "stateIDs": ["PowerSlam"],
        "flagTargetReachable": "10",
        "flagSelfOnTemplateCollider": "01",
        "flagSelfInZone": "10",
        "flagTargetInZone": "11"
      },
      "203": {
        "name": "WildSlam",
        "priority": 2,
        "castCondition": {
          "pose": [1001],
          "maxTargetAngleXZ": 90.0,
          "pickRangeMin": 4.0,
          "pickRangeMax": 20.0
        },
        "cd": 20.0,
        "cdUpperRange": 10.0,
        "initialCD": 5.0,
        "initialCDUpperRange": 3.0,
        "publicCDGroup": "meleeAttack_long",
        "HHAGODJIAPE": "",
        "stateIDs": ["WildSlam_BS", "WildSlam_Loop", "WildSlam_AS"],
        "flagTargetReachable": "10",
        "flagSelfOnTemplateCollider": "01",
        "flagSelfInZone": "10",
        "flagTargetInZone": "11"
      },
      "301": {
        "name": "ShovelAttack",
        "combatSkillType": "RangedAttack",
        "castCondition": {
          "pose": [1001],
          "pickRangeMin": 4.75,
          "pickRangeMax": 10.0
        },
        "cd": 15.0,
        "initialCD": 20.0,
        "publicCDGroup": "",
        "HHAGODJIAPE": "",
        "stateIDs": ["ShovelAttack"],
        "flagTargetReachable": "10",
        "flagSelfOnTemplateCollider": "01",
        "flagSelfInZone": "10",
        "flagTargetInZone": "11"
      },
      "901": {
        "name": "Taunt",
        "faceTarget": true,
        "castCondition": {
          "pose": [1001],
          "maxTargetAngleY": 45.0,
          "pickRangeMin": 2.0,
          "pickRangeMax": 10.0
        },
        "cd": 1.0,
        "cdUpperRange": 3.0,
        "publicCDGroup": "RandomAction",
        "ignoreGCD": true,
        "triggerGCD": false,
        "HHAGODJIAPE": "",
        "stateIDs": ["Taunt"],
        "flagTargetReachable": "10",
        "flagSelfOnTemplateCollider": "01",
        "flagSelfInZone": "01",
        "flagTargetInZone": "11"
      },
      "902": {
        "name": "Taunt",
        "faceTarget": true,
        "castCondition": {
          "pose": [1001],
          "maxTargetAngleY": 45.0,
          "pickRangeMax": 10.0
        },
        "cd": 1.0,
        "cdUpperRange": 3.0,
        "publicCDGroup": "RandomAction",
        "ignoreGCD": true,
        "triggerGCD": false,
        "HHAGODJIAPE": "",
        "stateIDs": ["Taunt"],
        "flagTargetReachable": "01",
        "flagSelfOnTemplateCollider": "01",
        "flagSelfInZone": "10",
        "flagTargetInZone": "11"
      },
      "904": {
        "name": "Taunt",
        "priority": 2,
        "faceTarget": true,
        "castCondition": {
          "pose": [1001],
          "maxTargetAngleY": 45.0,
          "pickRangeMin": 10.0,
          "pickRangeMax": 30.0
        },
        "cd": 5.0,
        "cdUpperRange": 15.0,
        "publicCDGroup": "RandomAction",
        "HHAGODJIAPE": "",
        "stateIDs": ["Taunt"],
        "flagTargetReachable": "10",
        "flagSelfOnTemplateCollider": "01",
        "flagSelfInZone": "10",
        "flagTargetInZone": "11"
      }
    },
    "skillGCD": 3.0,
    "birdCirclingTactic": [
      {
        "$type": "EPHBMLFODKF",
        "enable": true,
        "condition": {
          "pose": [1001]
        },
        "JMCOBEPDIGM": {
          "rangeMax": 4.5,
          "BFJBDDIIFOI": {
            "LLICGJHIGME": 2.0,
            "IDEFILBHNAP": 0.0,
            "IBLIPJPNOGC": 0.0
          },
          "NAOBMNGDKHL": "1111",
          "JCNIJOAIGII": "1111",
          "MNPDDAKDHGK": ""
        }
      },
      {
        "$type": "OJOBEDCMGKM",
        "enable": true,
        "condition": {
          "pose": [1]
        }
      },
      {
        "$type": "KACCHOLJDNK",
        "enable": true,
        "condition": {
          "pose": [1001]
        },
        "JMCOBEPDIGM": {
          "KHDFDAAAPEI": 9.0,
          "HKJODDGJPHA": 50.0,
          "GGEBMFHFBPO": 7.5,
          "KFFGCIMPNMJ": 7.5,
          "MNPDDAKDHGK": ""
        }
      },
      {
        "$type": "HGJGHLOFFHM",
        "enable": true,
        "JMCOBEPDIGM": {}
      },
      {
        "$type": "NNJKLGNPMNN",
        "enable": true,
        "JMCOBEPDIGM": {
          "MNPDDAKDHGK": "",
          "GJDMDHIBCME": ""
        }
      },
      {
        "$type": "FPELBIJFGCE",
        "enable": true,
        "condition": {
          "pose": [1]
        },
        "JMCOBEPDIGM": {
          "KPNDPKIOPJM": 3.0,
          "PINAFKEDDLL": 1.5,
          "ANMPOPEBDIA": 15.0,
          "GMJFIMFFOEL": 3.75,
          "CHCPFDMADEI": 7.5,
          "MNPDDAKDHGK": ""
        }
      }
    ]
  },
  "inputKeys": [
    {
      "keyID": 201,
      "inputKeyCode": 257,
      "abilityName": ""
    },
    {
      "keyID": 202,
      "inputKeyCode": 258,
      "abilityName": ""
    },
    {
      "keyID": 203,
      "inputKeyCode": 259,
      "abilityName": ""
    },
    {
      "keyID": 301,
      "inputKeyCode": 260,
      "abilityName": ""
    },
    {
      "keyID": 901,
      "inputKeyCode": 262,
      "abilityName": ""
    }
  ],
  "move": {
    "$type": "IPNMJMHDMPF",
    "facingMove": "FourDirection",
    "monsterSizeType": "StoopType",
    "PKHOMJHFAEE": "RootNode"
  },
  "audio": {
    "overrideEmitterName": "",
    "animAudio": {},
    "disableEvent": {
      "text": ""
    },
    "destroyEvent": {
      "text": ""
    },
    "randomVariantSwitchGroup": {
      "text": ""
    },
    "randomVariantSwitchValues": [
      {
        "text": ""
      }
    ]
  }
}
