{
  "common": {
    "effectAttachShape": {
      "$type": "FJNPJANPGGC",
      "mesh": "EffectMesh"
    },
    "mass": 10000.0,
    "height": 5.0,
    "affectedByWorld": true,
    "checkInSurface": true,
    "scale": 1.100000023841858,
    "disableTickDistance": 100000.0,
    "useGrassDisplacement": true,
    "clearAIOnSetLightDeactive": true,
    "reconnectSupport": true,
    "recoverByInitPose": true
  },
  "emojiBubble": {
    "PPDAMPGDFMJ": true,
    "BFGBBFDNKIA": false,
    "animStates": [
      "WalkForward",
      "BigTurn_L",
      "BigTurn_R",
      "Standby_TurnLeft",
      "Standby_TurnRight"
    ],
    "doOnUnEabled": "RotateToForward",
    "OMLMADPPKGF": [
      {
        "layerIndex": 2,
        "OGLKAAPJFCD": "Body",
        "forwardByTransName": "",
        "CCABFANALIC": "",
        "HCHJLPMPHED": 0.0,
        "limitHorizontal": 45.0,
        "limitVertical": 0.0,
        "EAGJBJENNDM": 60.0,
        "DAKBGLAEOIM": 30.0,
        "IBJEIMOAKHL": 30.0,
        "KMCJJDNGIEI": "Normalized",
        "MJLFJGNKJKF": "BodyHor",
        "ODCPDLMPAFI": "BodyVer"
      },
      {
        "layerIndex": 3,
        "OGLKAAPJFCD": "Head",
        "forwardByTransName": "",
        "CCABFANALIC": "",
        "limitHorizontal": 60.0,
        "limitVertical": 45.0,
        "IBJEIMOAKHL": 150.0,
        "KMCJJDNGIEI": "Normalized",
        "MJLFJGNKJKF": "HeadHor",
        "ODCPDLMPAFI": "HeadVer"
      }
    ],
    "DKCDJDOPDPB": 25.0,
    "LGONHACBGNJ": 50.0
  },
  "specialPoint": {
    "elementAbsorb": "RootNode",
    "elementPendant": "",
    "elementDrop": "RootNode",
    "bulletAim": "Body",
    "selectedPoints": ["SelectedPoint1", "SelectedPoint2"],
    "selectedPointRadius": 1.0
  },
  "model": {
    "bornEffect": "Eff_Monster_Common_Born",
    "attachEffect": "",
    "canBakeMesh": false,
    "JKLKJPMFNGD": true,
    "BKPFGNPLDNJ": ""
  },
  "dither": {
    "showDitherDuration": 2.0
  },
  "combat": {
    "property": {
      "endureType": "Monster_Boss_Other",
      "weight": 300.0
    },
    "beHit": {
      "hitBloodEffect": "",
      "hitAutoRedirect": false,
      "blendShake": {
        "$type": "HNNFKJBHGCC",
        "shakeFlagMap": [
          {
            "shakeFlag": 0.5,
            "hitBoxNames": ["HitBox_UpperBody"]
          },
          {
            "shakeFlag": 1.0,
            "hitBoxNames": [
              "HitBox_Leg1",
              "HitBox_Leg2",
              "HitBox_Leg3",
              "HitBox_Leg4",
              "HitBox_Middle",
              "Hitbox_MiddleExtra",
              "HitBox_Base"
            ]
          }
        ]
      }
    },
    "combatLock": {
      "lockShape": "CircleLockEnemy",
      "lockType": "Avatar&Monster_Lv4"
    },
    "die": {
      "hasAnimatorDie": true,
      "dieEndTime": 1.0,
      "dieForceDisappearTime": 4.0,
      "dieDisappearEffect": "",
      "muteHitBox": true,
      "dieDenyLockOn": true,
      "dieIsGhostToEnemy": true,
      "dieIgnoreTriggerBullet": true,
      "muteBillboard": true,
      "mutePushCollider": true
    },
    "animEvents": {
      "AtkNo": {
        "attackPattern": {
          "$type": "ConfigAttackCircle",
          "triggerType": "TriggerNoRepeat",
          "born": {
            "$type": "ConfigBornBySelf",
            "offset": {
              "x": 0.0,
              "y": 0.0,
              "z": -0.5
            }
          },
          "fanAngle": 60.0,
          "radius": 1.5
        },
        "attackInfo": {
          "attackTag": "",
          "attenuationTag": "",
          "attenuationGroup": "default",
          "attackProperty": {
            "actorGrassSubHurtDelta": 0.5,
            "actorWindSubHurtDelta": 0.0,
            "elementDurability": 100.0,
            "strikeType": "Blunt",
            "attackType": "Melee",
            "GLKMCMDJBIK": 0.0
          },
          "hitPattern": {
            "onHitEffectName": "default",
            "hitImpulseY": "",
            "hitImpulseType": "LV2",
            "hitHaltTimeScale": 0.009999999776482582
          }
        }
      },
      "Centaur_HitScene": {
        "attackPattern": {
          "$type": "ConfigAttackCircle",
          "triggerType": "TriggerNoRepeat",
          "checkHitLayerType": "OnlyHitScene",
          "born": {
            "$type": "ConfigBornBySelf",
            "offset": {
              "x": 0.0,
              "y": 1.0,
              "z": 1.0
            }
          },
          "fanAngle": 45.0,
          "radius": 4.5
        }
      },
      "Atk00_1": {
        "attackPattern": {
          "$type": "ConfigAttackCircle",
          "triggerType": "TriggerNoRepeat",
          "born": {
            "$type": "ConfigBornBySelf",
            "offset": {
              "x": 0.0,
              "y": 0.0,
              "z": 2.0
            }
          },
          "height": 2.5,
          "radius": 5.400000095367432
        },
        "attackInfo": {
          "attackTag": "",
          "attenuationTag": "",
          "attenuationGroup": "default",
          "attackProperty": {
            "actorGrassSubHurtDelta": 0.5,
            "actorWindSubHurtDelta": 0.0,
            "elementDurability": 100.0,
            "strikeType": "Blunt",
            "enBreak": 100.0,
            "attackType": "Melee",
            "GLKMCMDJBIK": 0.0
          },
          "hitPattern": {
            "onHitEffectName": "default",
            "hitImpulseY": "",
            "hitImpulseType": "LV5",
            "hitHaltTimeScale": 0.009999999776482582
          }
        }
      },
      "Atk01_1": {
        "attackPattern": {
          "$type": "ConfigAttackCircle",
          "triggerType": "TriggerNoRepeat",
          "born": {
            "$type": "ConfigBornBySelf",
            "offset": {
              "x": 0.0,
              "y": 0.0,
              "z": 2.0
            },
            "direction": {
              "$type": "ConfigDirectionByDefault",
              "angleOffset": {
                "x": 20.0,
                "y": 0.0,
                "z": 0.0
              }
            }
          },
          "height": 3.0,
          "fanAngle": 120.0,
          "radius": 4.5
        },
        "attackInfo": {
          "attackTag": "",
          "attenuationTag": "",
          "attenuationGroup": "default",
          "attackProperty": {
            "actorGrassSubHurtDelta": 0.5,
            "actorWindSubHurtDelta": 0.0,
            "elementType": "Fire",
            "elementDurability": 25.0,
            "strikeType": "Blunt",
            "enBreak": 100.0,
            "attackType": "Melee",
            "GLKMCMDJBIK": 0.0
          },
          "hitPattern": {
            "onHitEffectName": "default",
            "hitImpulseY": "",
            "hitImpulseType": "LV3",
            "hitHaltTimeScale": 0.009999999776482582
          }
        }
      },
      "Atk01_2": {
        "attackPattern": {
          "$type": "ConfigAttackCircle",
          "triggerType": "TriggerNoRepeat",
          "born": {
            "$type": "ConfigBornBySelf",
            "offset": {
              "x": 0.0,
              "y": 0.0,
              "z": 2.0
            }
          },
          "height": 3.0,
          "fanAngle": 100.0,
          "radius": 4.199999809265137
        },
        "attackInfo": {
          "attackTag": "",
          "attenuationTag": "",
          "attenuationGroup": "default",
          "attackProperty": {
            "actorGrassSubHurtDelta": 0.6000000238418579,
            "actorWindSubHurtDelta": 0.0,
            "elementType": "Fire",
            "elementDurability": 25.0,
            "strikeType": "Blunt",
            "enBreak": 100.0,
            "attackType": "Melee",
            "GLKMCMDJBIK": 0.0
          },
          "hitPattern": {
            "onHitEffectName": "default",
            "hitImpulseY": "",
            "hitImpulseType": "LV4",
            "hitHaltTimeScale": 0.009999999776482582
          }
        }
      },
      "Atk01_3": {
        "attackPattern": {
          "$type": "ConfigAttackBox",
          "triggerType": "TriggerNoRepeat",
          "born": {
            "$type": "ConfigBornBySelf",
            "offset": {
              "x": -1.0,
              "y": 2.0,
              "z": 3.0
            }
          },
          "size": {
            "x": 2.5,
            "y": 3.5,
            "z": 5.0
          }
        },
        "attackInfo": {
          "attackTag": "",
          "attenuationTag": "",
          "attenuationGroup": "default",
          "attackProperty": {
            "actorGrassSubHurtDelta": 0.800000011920929,
            "actorWindSubHurtDelta": 0.0,
            "elementType": "Fire",
            "elementDurability": 25.0,
            "strikeType": "Blunt",
            "enBreak": 100.0,
            "attackType": "Melee",
            "GLKMCMDJBIK": 0.0
          },
          "hitPattern": {
            "onHitEffectName": "default",
            "hitImpulseY": "",
            "hitImpulseType": "LV4",
            "hitHaltTimeScale": 0.009999999776482582
          }
        }
      },
      "Atk02_1": {
        "attackPattern": {
          "$type": "ConfigAttackCircle",
          "triggerType": "TriggerNoRepeat",
          "born": {
            "$type": "ConfigBornBySelf",
            "offset": {
              "x": 0.0,
              "y": 0.0,
              "z": 3.5
            }
          },
          "height": 2.0,
          "radius": 3.200000047683716
        },
        "attackInfo": {
          "attackTag": "",
          "attenuationTag": "",
          "attenuationGroup": "default",
          "attackProperty": {
            "actorGrassSubHurtDelta": 0.699999988079071,
            "actorWindSubHurtDelta": 0.0,
            "elementType": "Fire",
            "elementDurability": 25.0,
            "strikeType": "Blunt",
            "enBreak": 100.0,
            "attackType": "Melee",
            "GLKMCMDJBIK": 0.0
          },
          "hitPattern": {
            "onHitEffectName": "default",
            "hitImpulseY": "",
            "hitImpulseType": "LV4",
            "hitHaltTimeScale": 0.009999999776482582
          }
        }
      },
      "Atk04_1": {
        "attackPattern": {
          "$type": "ConfigAttackBox",
          "triggerType": "TriggerNoRepeat",
          "born": {
            "$type": "ConfigBornBySelf",
            "offset": {
              "x": 3.0,
              "y": 1.75,
              "z": 2.0
            },
            "direction": {
              "$type": "ConfigDirectionByDefault",
              "angleOffset": {
                "x": 0.0,
                "y": -30.0,
                "z": 0.0
              }
            }
          },
          "size": {
            "x": 3.299999952316284,
            "y": 6.0,
            "z": 6.0
          }
        },
        "attackInfo": {
          "attackTag": "",
          "attenuationTag": "",
          "attenuationGroup": "default",
          "attackProperty": {
            "actorGrassSubHurtDelta": 0.699999988079071,
            "actorWindSubHurtDelta": 0.0,
            "elementType": "Fire",
            "elementDurability": 25.0,
            "strikeType": "Blunt",
            "enBreak": 100.0,
            "attackType": "Melee",
            "GLKMCMDJBIK": 0.0
          },
          "hitPattern": {
            "onHitEffectName": "default",
            "hitImpulseY": "",
            "hitImpulseType": "LV5"
          }
        }
      },
      "Atk08_1": {
        "attackPattern": {
          "$type": "ConfigAttackCircle",
          "triggerType": "TriggerNoRepeat",
          "born": {
            "$type": "ConfigBornBySelf",
            "onGround": true,
            "useRotation": true
          },
          "height": 2.0,
          "radius": 5.0
        },
        "attackInfo": {
          "attackTag": "",
          "attenuationTag": "",
          "attenuationGroup": "default",
          "attackProperty": {
            "actorGrassSubHurtDelta": 1.0,
            "actorWindSubHurtDelta": 0.0,
            "elementType": "Fire",
            "elementDurability": 25.0,
            "strikeType": "Blunt",
            "enBreak": 100.0,
            "attackType": "Melee",
            "GLKMCMDJBIK": 0.0
          },
          "hitPattern": {
            "onHitEffectName": "default",
            "hitImpulseY": "",
            "hitImpulseType": "LV5",
            "overrideHitImpulse": {
              "hitLevel": "Air",
              "IMIJMPGJOGG": 0.0,
              "BPCDKKBKOBM": 600.0
            },
            "hitHaltTimeScale": 0.009999999776482582
          }
        }
      },
      "Atk08_2": {
        "attackPattern": {
          "$type": "ConfigAttackCircle",
          "triggerType": "TriggerNoRepeat",
          "born": {
            "$type": "ConfigBornBySelf",
            "onGround": true,
            "useRotation": true
          },
          "height": 2.0,
          "radius": 10.0,
          "MMBCLAEOEFB": 5.0
        },
        "attackInfo": {
          "attackTag": "",
          "attenuationTag": "",
          "attenuationGroup": "default",
          "attackProperty": {
            "actorGrassSubHurtDelta": 1.0,
            "actorWindSubHurtDelta": 0.0,
            "elementType": "Fire",
            "elementDurability": 25.0,
            "strikeType": "Blunt",
            "enBreak": 100.0,
            "attackType": "Melee",
            "GLKMCMDJBIK": 0.0
          },
          "hitPattern": {
            "onHitEffectName": "default",
            "hitImpulseY": "",
            "hitImpulseType": "LV5",
            "overrideHitImpulse": {
              "hitLevel": "Air",
              "IMIJMPGJOGG": 0.0,
              "BPCDKKBKOBM": 600.0
            },
            "hitHaltTimeScale": 0.009999999776482582
          }
        }
      },
      "Atk08_3": {
        "attackPattern": {
          "$type": "ConfigAttackCircle",
          "triggerType": "TriggerNoRepeat",
          "born": {
            "$type": "ConfigBornBySelf",
            "onGround": true,
            "useRotation": true
          },
          "height": 2.0,
          "radius": 15.0,
          "MMBCLAEOEFB": 10.0
        },
        "attackInfo": {
          "attackTag": "",
          "attenuationTag": "",
          "attenuationGroup": "default",
          "attackProperty": {
            "actorGrassSubHurtDelta": 1.0,
            "actorWindSubHurtDelta": 0.0,
            "elementType": "Fire",
            "elementDurability": 25.0,
            "strikeType": "Blunt",
            "enBreak": 100.0,
            "attackType": "Melee",
            "GLKMCMDJBIK": 0.0
          },
          "hitPattern": {
            "onHitEffectName": "default",
            "hitImpulseY": "",
            "hitImpulseType": "LV5",
            "overrideHitImpulse": {
              "hitLevel": "Air",
              "IMIJMPGJOGG": 0.0,
              "BPCDKKBKOBM": 600.0
            },
            "hitHaltTimeScale": 0.009999999776482582
          }
        }
      },
      "Atk08_4": {
        "attackPattern": {
          "$type": "ConfigAttackCircle",
          "triggerType": "TriggerNoRepeat",
          "born": {
            "$type": "ConfigBornBySelf",
            "offset": {
              "x": 1.0,
              "y": 0.0,
              "z": -8.0
            }
          },
          "height": 4.0,
          "fanAngle": 29.0,
          "radius": 35.5,
          "MMBCLAEOEFB": 8.5
        },
        "attackInfo": {
          "attackTag": "",
          "attenuationTag": "",
          "attenuationGroup": "default",
          "attackProperty": {
            "actorGrassSubHurtDelta": 2.0,
            "actorWindSubHurtDelta": 0.0,
            "elementType": "Fire",
            "elementDurability": 25.0,
            "strikeType": "Blunt",
            "enBreak": 200.0,
            "attackType": "Melee",
            "GLKMCMDJBIK": 0.0
          },
          "hitPattern": {
            "onHitEffectName": "default",
            "hitImpulseY": "",
            "hitImpulseType": "LV6",
            "overrideHitImpulse": {
              "hitLevel": "Air",
              "IMIJMPGJOGG": 300.0,
              "BPCDKKBKOBM": 1200.0
            },
            "hitHaltTimeScale": 0.009999999776482582
          }
        }
      }
    }
  },
  "abilities": [
    {
      "abilityID": "",
      "abilityName": "Monster_Centaur_InitialPos",
      "abilityOverride": ""
    },
    {
      "abilityID": "",
      "abilityName": "Monster_Centaur_KillGadget",
      "abilityOverride": ""
    },
    {
      "abilityID": "",
      "abilityName": "Monster_Centaur_ShaderDie",
      "abilityOverride": ""
    },
    {
      "abilityID": "",
      "abilityName": "Monster_Centaur_WeaponDie",
      "abilityOverride": ""
    },
    {
      "abilityID": "",
      "abilityName": "Monster_Centaur_Die",
      "abilityOverride": ""
    },
    {
      "abilityID": "",
      "abilityName": "Monster_Centaur_Alert",
      "abilityOverride": ""
    },
    {
      "abilityID": "",
      "abilityName": "Monster_Centaur_ReturnToBorn",
      "abilityOverride": ""
    },
    {
      "abilityID": "",
      "abilityName": "Monster_Centaur_Weak",
      "abilityOverride": ""
    },
    {
      "abilityID": "",
      "abilityName": "Monster_Centaur_WeakAS",
      "abilityOverride": ""
    },
    {
      "abilityID": "",
      "abilityName": "Monster_Centaur_ShieldManager",
      "abilityOverride": ""
    },
    {
      "abilityID": "",
      "abilityName": "Monster_Centaur_SteerAttack",
      "abilityOverride": ""
    },
    {
      "abilityID": "",
      "abilityName": "Monster_Centaur_RushMove",
      "abilityOverride": ""
    },
    {
      "abilityID": "",
      "abilityName": "Monster_Centaur_Attack01",
      "abilityOverride": ""
    },
    {
      "abilityID": "",
      "abilityName": "Monster_Centaur_Attack02",
      "abilityOverride": ""
    },
    {
      "abilityID": "",
      "abilityName": "Monster_Centaur_Attack03",
      "abilityOverride": ""
    },
    {
      "abilityID": "",
      "abilityName": "Monster_Centaur_Attack04",
      "abilityOverride": ""
    },
    {
      "abilityID": "",
      "abilityName": "Monster_Centaur_Attack05",
      "abilityOverride": ""
    },
    {
      "abilityID": "",
      "abilityName": "Monster_Centaur_Attack06",
      "abilityOverride": ""
    },
    {
      "abilityID": "",
      "abilityName": "Monster_Centaur_Attack06Big",
      "abilityOverride": ""
    },
    {
      "abilityID": "",
      "abilityName": "Monster_Centaur_Attack07",
      "abilityOverride": ""
    },
    {
      "abilityID": "",
      "abilityName": "Monster_Centaur_Attack08",
      "abilityOverride": ""
    },
    {
      "abilityID": "",
      "abilityName": "Monster_Centaur_Attack10",
      "abilityOverride": ""
    },
    {
      "abilityID": "",
      "abilityName": "Monster_Centaur_DistanceCheck",
      "abilityOverride": ""
    }
  ],
  "stateLayers": {
    "defaultLayer": {
      "$type": "GBGJJIIEMBD",
      "layerIndexName": "",
      "CPAANEIJCGD": "",
      "stateIDs": {
        "Born": {
          "$type": "NEDIFAKEGCO",
          "animatorStates": {
            "Born": []
          },
          "canDoSkill": true,
          "canSyncMove": true,
          "resetAnimatorTriggerOnExit": ["DoSkill"]
        },
        "Standby": {
          "$type": "NEDIFAKEGCO",
          "animatorStates": {
            "Standby": []
          },
          "canDoSkill": true,
          "canSyncMove": true,
          "resetAnimatorTriggerOnExit": ["DoSkill"]
        },
        "StandbyStatue": {
          "$type": "NEDIFAKEGCO",
          "animatorStates": {
            "StandbyStatue": []
          },
          "canDoSkill": true,
          "resetAnimatorTriggerOnExit": ["DoSkill"]
        },
        "Run": {
          "$type": "NEDIFAKEGCO",
          "animatorStates": {
            "Run": ["Audio_Monster_Golem_Centaur_01_Run"]
          },
          "canDoSkill": true,
          "canSyncMove": true,
          "resetAnimatorTriggerOnExit": ["DoSkill"],
          "canSteer": true
        },
        "WalkForward": {
          "$type": "NEDIFAKEGCO",
          "animatorStates": {
            "WalkForward": ["Audio_Monster_Golem_Centaur_01_WalkForward"]
          },
          "canDoSkill": true,
          "canSyncMove": true,
          "resetAnimatorTriggerOnExit": ["DoSkill"],
          "canSteer": true
        },
        "BigTurn_L": {
          "$type": "NEDIFAKEGCO",
          "animatorStates": {
            "BigTurn_L": ["Audio_Monster_Golem_Centaur_01_BigTurn_L"]
          },
          "canSyncMove": true,
          "resetAnimatorTriggerOnExit": ["DoSkill"],
          "canSteer": true,
          "followAnimRotation": true
        },
        "BigTurn_R": {
          "$type": "NEDIFAKEGCO",
          "animatorStates": {
            "BigTurn_R": ["Audio_Monster_Golem_Centaur_01_BigTurn_R"]
          },
          "canSyncMove": true,
          "resetAnimatorTriggerOnExit": ["DoSkill"],
          "canSteer": true,
          "followAnimRotation": true
        },
        "Standby_TurnLeft": {
          "$type": "NEDIFAKEGCO",
          "animatorStates": {
            "Standby_TurnLeft": ["Audio_Monster_Golem_Centaur_01_TurnLeft"]
          },
          "canSyncMove": true,
          "resetAnimatorTriggerOnExit": ["DoSkill"],
          "canSteer": true
        },
        "Standby_TurnRight": {
          "$type": "NEDIFAKEGCO",
          "animatorStates": {
            "Standby_TurnRight": ["Audio_Monster_Golem_Centaur_01_TurnRight"]
          },
          "canSyncMove": true,
          "resetAnimatorTriggerOnExit": ["DoSkill"],
          "canSteer": true
        },
        "TurnLeft": {
          "$type": "NEDIFAKEGCO",
          "animatorStates": {
            "Attack01_TurnLeft": [
              "Audio_Monster_Golem_Centaur_01_Attack01_T1_L"
            ],
            "Attack03_TurnLeft": [
              "Audio_Monster_Golem_Centaur_01_Attack01_T1_L"
            ],
            "Attack04_TurnLeft": [
              "Audio_Monster_Golem_Centaur_01_Attack01_T1_L"
            ],
            "Attack07_TurnLeft": [
              "Audio_Monster_Golem_Centaur_01_Attack01_T1_L"
            ],
            "Attack09_TurnLeft": [
              "Audio_Monster_Golem_Centaur_01_Attack01_T1_L"
            ]
          },
          "resetAnimatorTriggerOnExit": ["DoSkill"],
          "handleAnimatorStateImmediately": true,
          "canSteer": true
        },
        "TurnRight": {
          "$type": "NEDIFAKEGCO",
          "animatorStates": {
            "Attack01_TurnRight": [
              "Audio_Monster_Golem_Centaur_01_Attack01_TurnRight"
            ],
            "Attack03_TurnRight": [
              "Audio_Monster_Golem_Centaur_01_Attack01_TurnRight"
            ],
            "Attack04_TurnRight": [
              "Audio_Monster_Golem_Centaur_01_Attack01_TurnRight"
            ],
            "Attack07_TurnRight": [
              "Audio_Monster_Golem_Centaur_01_Attack01_TurnRight"
            ],
            "Attack09_TurnRight": [
              "Audio_Monster_Golem_Centaur_01_Attack01_TurnRight"
            ]
          },
          "resetAnimatorTriggerOnExit": ["DoSkill"],
          "handleAnimatorStateImmediately": true,
          "canSteer": true
        },
        "TurnBack": {
          "$type": "NEDIFAKEGCO",
          "animatorStates": {
            "Attack01_TurnBack": ["Audio_Monster_Golem_Centaur_01_TurnBack"],
            "Attack03_TurnBack": ["Audio_Monster_Golem_Centaur_01_TurnBack"],
            "Attack04_TurnBack": ["Audio_Monster_Golem_Centaur_01_TurnBack"],
            "Attack07_TurnBack": ["Audio_Monster_Golem_Centaur_01_TurnBack"],
            "Attack09_TurnBack": ["Audio_Monster_Golem_Centaur_01_TurnBack"]
          },
          "resetAnimatorTriggerOnExit": ["DoSkill"],
          "handleAnimatorStateImmediately": true,
          "canSteer": true,
          "followAnimRotation": true
        },
        "NoTurn": {
          "$type": "NEDIFAKEGCO",
          "animatorStates": {
            "NoTurn": []
          },
          "resetAnimatorTriggerOnExit": ["DoSkill"],
          "handleAnimatorStateImmediately": true,
          "canSteer": true
        },
        "RunTurn": {
          "$type": "NEDIFAKEGCO",
          "animatorStates": {
            "RunTurn": ["Audio_Monster_Golem_Centaur_01_Attack03Plus_RunTurn"]
          },
          "resetAnimatorTriggerOnExit": ["DoSkill"],
          "handleAnimatorStateImmediately": true,
          "canSteer": true,
          "followAnimRotation": true
        },
        "Weak_BS": {
          "$type": "NEDIFAKEGCO",
          "animatorStates": {
            "Weak_BS": ["Audio_Monster_Golem_Centaur_01_Weak_BS"]
          },
          "canSyncMove": true,
          "cullingModelAlwaysAnimate": true,
          "addEndure": 9.999999747378752e-5,
          "resetAnimatorTriggerOnExit": ["DoSkill"],
          "handleAnimatorStateImmediately": true
        },
        "Weak_Loop": {
          "$type": "NEDIFAKEGCO",
          "animatorStates": {
            "Weak_Loop": []
          },
          "canDoSkill": true,
          "canSyncMove": true,
          "cullingModelAlwaysAnimate": true,
          "addEndure": 9.999999747378752e-5,
          "resetAnimatorTriggerOnExit": ["DoSkill"],
          "handleAnimatorStateImmediately": true
        },
        "Weak_AS": {
          "$type": "NEDIFAKEGCO",
          "animatorStates": {
            "Weak_AS": [
              "Monster_Golem_Centaur_Weak_AS",
              "Audio_Monster_Golem_Centaur_01_Weak_AS"
            ]
          },
          "cullingModelAlwaysAnimate": true,
          "addEndure": 9.999999747378752e-5,
          "resetAnimatorTriggerOnExit": ["DoSkill"],
          "handleAnimatorStateImmediately": true
        },
        "Weak_Die": {
          "$type": "NEDIFAKEGCO",
          "animatorStates": {
            "Weak_Die": [
              "Monster_Golem_Centaur_WeakDie",
              "Audio_Monster_Golem_Centaur_01_Weak_Die"
            ]
          },
          "resetAnimatorTriggerOnEnter": ["DoSkill", "WeakTrigger"]
        },
        "Die": {
          "$type": "NEDIFAKEGCO",
          "animatorStates": {
            "Die": [
              "Monster_Golem_Centaur_Die",
              "Audio_Monster_Golem_Centaur_01_Die"
            ]
          },
          "resetAnimatorTriggerOnEnter": ["DoSkill", "WeakTrigger"]
        },
        "Alert_BS": {
          "$type": "NEDIFAKEGCO",
          "animatorStates": {
            "Alert_BS": [
              "Monster_Golem_Centaur_Alert_BS",
              "Audio_Monster_Golem_Centaur_01_Alert_BS"
            ]
          },
          "cullingModelAlwaysAnimate": true,
          "resetAnimatorTriggerOnExit": ["BeHit", "DoSkill"],
          "handleAnimatorStateImmediately": true
        },
        "Alert_Loop": {
          "$type": "NEDIFAKEGCO",
          "animatorStates": {
            "Alert_Loop": [
              "Monster_Golem_Centaur_Alert_Loop",
              "Audio_Monster_Golem_Centaur_01_Alert_Loop"
            ]
          },
          "cullingModelAlwaysAnimate": true,
          "resetAnimatorTriggerOnExit": ["BeHit", "DoSkill"],
          "handleAnimatorStateImmediately": true
        },
        "Alert_AS": {
          "$type": "NEDIFAKEGCO",
          "animatorStates": {
            "Alert_AS": [
              "Monster_Golem_Centaur_Alert_AS",
              "Audio_Monster_Golem_Centaur_01_Alert_AS"
            ]
          },
          "cullingModelAlwaysAnimate": true,
          "resetAnimatorTriggerOnExit": ["BeHit", "DoSkill"],
          "handleAnimatorStateImmediately": true
        },
        "Attack01_B1": {
          "$type": "NEDIFAKEGCO",
          "animatorStates": {
            "Attack01_B1": [
              "Monster_Golem_Centaur_Attack01_1",
              "Audio_Monster_Golem_Centaur_01_Attack01_B1"
            ],
            "Attack04_Attack01_B1": [
              "Monster_Golem_Centaur_Attack01_1",
              "Audio_Monster_Golem_Centaur_01_Attack01_B1"
            ],
            "Attack09_Attack01_B1": [
              "Monster_Golem_Centaur_Attack01_1",
              "Audio_Monster_Golem_Centaur_01_Attack01_B1"
            ]
          },
          "cullingModelAlwaysAnimate": true,
          "resetAnimatorTriggerOnExit": ["BeHit", "DoSkill"],
          "handleAnimatorStateImmediately": true,
          "canSteer": true
        },
        "Attack01_B2": {
          "$type": "NEDIFAKEGCO",
          "animatorStates": {
            "Attack01_B2": [
              "Monster_Golem_Centaur_Attack01_2",
              "Audio_Monster_Golem_Centaur_01_Attack01_B2"
            ],
            "Attack04_Attack01_B2": [
              "Monster_Golem_Centaur_Attack01_2",
              "Audio_Monster_Golem_Centaur_01_Attack01_B2"
            ],
            "Attack09_Attack01_B2": [
              "Monster_Golem_Centaur_Attack01_2",
              "Audio_Monster_Golem_Centaur_01_Attack01_B2"
            ]
          },
          "cullingModelAlwaysAnimate": true,
          "resetAnimatorTriggerOnExit": ["BeHit", "DoSkill"],
          "handleAnimatorStateImmediately": true,
          "canSteer": true
        },
        "Attack01_B3": {
          "$type": "NEDIFAKEGCO",
          "animatorStates": {
            "Attack01_B3": [
              "Monster_Golem_Centaur_Attack01_3",
              "Audio_Monster_Golem_Centaur_01_Attack01_B3"
            ],
            "Attack04_Attack01_B3": [
              "Monster_Golem_Centaur_Attack01_3",
              "Audio_Monster_Golem_Centaur_01_Attack01_B3"
            ],
            "Attack09_Attack01_B3": [
              "Monster_Golem_Centaur_Attack01_3",
              "Audio_Monster_Golem_Centaur_01_Attack01_B3"
            ]
          },
          "cullingModelAlwaysAnimate": true,
          "resetAnimatorTriggerOnExit": ["BeHit", "DoSkill"],
          "handleAnimatorStateImmediately": true,
          "canSteer": true
        },
        "Attack01_T1_L": {
          "$type": "NEDIFAKEGCO",
          "animatorStates": {
            "Attack01_T1_L": [
              "Monster_Golem_Centaur_Attack02_1",
              "Audio_Monster_Golem_Centaur_01_Attack01_T1_L"
            ],
            "Attack04_Attack01_T1_L": [
              "Monster_Golem_Centaur_Attack02_1",
              "Audio_Monster_Golem_Centaur_01_Attack01_T1_L"
            ],
            "Attack09_Attack01_T1_L": [
              "Monster_Golem_Centaur_Attack02_1",
              "Audio_Monster_Golem_Centaur_01_Attack01_T1_L"
            ]
          },
          "cullingModelAlwaysAnimate": true,
          "resetAnimatorTriggerOnExit": ["BeHit", "DoSkill"],
          "handleAnimatorStateImmediately": true,
          "canSteer": true
        },
        "Attack01_T1_R": {
          "$type": "NEDIFAKEGCO",
          "animatorStates": {
            "Attack01_T1_R": [
              "Monster_Golem_Centaur_Attack02_1",
              "Audio_Monster_Golem_Centaur_01_Attack01_T1_L"
            ],
            "Attack04_Attack01_T1_R": [
              "Monster_Golem_Centaur_Attack02_1",
              "Audio_Monster_Golem_Centaur_01_Attack01_T1_L"
            ],
            "Attack09_Attack01_T1_R": [
              "Monster_Golem_Centaur_Attack02_1",
              "Audio_Monster_Golem_Centaur_01_Attack01_T1_L"
            ]
          },
          "cullingModelAlwaysAnimate": true,
          "resetAnimatorTriggerOnExit": ["BeHit", "DoSkill"],
          "handleAnimatorStateImmediately": true,
          "canSteer": true
        },
        "Attack01_T2": {
          "$type": "NEDIFAKEGCO",
          "animatorStates": {
            "Attack01_T2": [
              "Monster_Golem_Centaur_Attack02_2",
              "Audio_Monster_Golem_Centaur_01_Attack01_T2"
            ],
            "Attack04_Attack01_T2": [
              "Monster_Golem_Centaur_Attack02_2",
              "Audio_Monster_Golem_Centaur_01_Attack01_T2"
            ],
            "Attack09_Attack01_T2": [
              "Monster_Golem_Centaur_Attack02_2",
              "Audio_Monster_Golem_Centaur_01_Attack01_T2"
            ]
          },
          "cullingModelAlwaysAnimate": true,
          "resetAnimatorTriggerOnExit": ["BeHit", "DoSkill"],
          "handleAnimatorStateImmediately": true,
          "canSteer": true
        },
        "Attack02_T1_L": {
          "$type": "NEDIFAKEGCO",
          "animatorStates": {
            "Attack02_T1_L": [
              "Monster_Golem_Centaur_Attack02_1",
              "Audio_Monster_Golem_Centaur_01_Attack01_T1_L"
            ],
            "Attack04_Attack02_T1_L": [
              "Monster_Golem_Centaur_Attack02_1",
              "Audio_Monster_Golem_Centaur_01_Attack01_T1_L"
            ],
            "Attack09_Attack02_T1_L": [
              "Monster_Golem_Centaur_Attack02_1",
              "Audio_Monster_Golem_Centaur_01_Attack01_T1_L"
            ]
          },
          "cullingModelAlwaysAnimate": true,
          "resetAnimatorTriggerOnExit": ["BeHit", "DoSkill"],
          "handleAnimatorStateImmediately": true,
          "canSteer": true
        },
        "Attack02_T1_R": {
          "$type": "NEDIFAKEGCO",
          "animatorStates": {
            "Attack02_T1_R": [
              "Monster_Golem_Centaur_Attack02_1",
              "Audio_Monster_Golem_Centaur_01_Attack01_T1_L"
            ],
            "Attack04_Attack02_T1_R": [
              "Monster_Golem_Centaur_Attack02_1",
              "Audio_Monster_Golem_Centaur_01_Attack01_T1_L"
            ],
            "Attack09_Attack02_T1_R": [
              "Monster_Golem_Centaur_Attack02_1",
              "Audio_Monster_Golem_Centaur_01_Attack01_T1_L"
            ]
          },
          "cullingModelAlwaysAnimate": true,
          "resetAnimatorTriggerOnExit": ["BeHit", "DoSkill"],
          "handleAnimatorStateImmediately": true,
          "canSteer": true
        },
        "Attack02_T2": {
          "$type": "NEDIFAKEGCO",
          "animatorStates": {
            "Attack02_T2": [
              "Monster_Golem_Centaur_Attack02_2",
              "Audio_Monster_Golem_Centaur_01_Attack01_T2"
            ],
            "Attack04_Attack02_T2": [
              "Monster_Golem_Centaur_Attack02_2",
              "Audio_Monster_Golem_Centaur_01_Attack01_T2"
            ],
            "Attack09_Attack02_T2": [
              "Monster_Golem_Centaur_Attack02_2",
              "Audio_Monster_Golem_Centaur_01_Attack01_T2"
            ]
          },
          "cullingModelAlwaysAnimate": true,
          "resetAnimatorTriggerOnExit": ["BeHit", "DoSkill"],
          "handleAnimatorStateImmediately": true,
          "canSteer": true
        },
        "Attack02_B3": {
          "$type": "NEDIFAKEGCO",
          "animatorStates": {
            "Attack02_B3": [
              "Monster_Golem_Centaur_Attack01_3",
              "Audio_Monster_Golem_Centaur_01_Attack01_B3"
            ],
            "Attack04_Attack02_B3": [
              "Monster_Golem_Centaur_Attack01_3",
              "Audio_Monster_Golem_Centaur_01_Attack01_B3"
            ],
            "Attack09_Attack02_B3": [
              "Monster_Golem_Centaur_Attack01_3",
              "Audio_Monster_Golem_Centaur_01_Attack01_B3"
            ]
          },
          "cullingModelAlwaysAnimate": true,
          "resetAnimatorTriggerOnExit": ["BeHit", "DoSkill"],
          "handleAnimatorStateImmediately": true,
          "canSteer": true
        },
        "Attack03": {
          "$type": "NEDIFAKEGCO",
          "animatorStates": {
            "Attack03": [
              "Monster_Golem_Centaur_Attack03",
              "Audio_Monster_Golem_Centaur_01_Attack03"
            ],
            "Attack04_Attack03": [
              "Monster_Golem_Centaur_Attack03",
              "Audio_Monster_Golem_Centaur_01_Attack03"
            ],
            "Attack09_Attack03": [
              "Monster_Golem_Centaur_Attack03",
              "Audio_Monster_Golem_Centaur_01_Attack03"
            ]
          },
          "cullingModelAlwaysAnimate": true,
          "resetAnimatorTriggerOnExit": ["BeHit", "DoSkill"],
          "handleAnimatorStateImmediately": true,
          "canSteer": true
        },
        "Attack032": {
          "$type": "NEDIFAKEGCO",
          "animatorStates": {
            "Attack032": [
              "Monster_Golem_Centaur_Attack03",
              "Audio_Monster_Golem_Centaur_01_Attack03"
            ]
          },
          "cullingModelAlwaysAnimate": true,
          "resetAnimatorTriggerOnExit": ["BeHit", "DoSkill"],
          "handleAnimatorStateImmediately": true,
          "canSteer": true
        },
        "Attack04_BS": {
          "$type": "NEDIFAKEGCO",
          "animatorStates": {
            "Attack04_BS": [
              "Monster_Golem_Centaur_Attack04_BS",
              "Audio_Monster_Golem_Centaur_01_Attack04_BS"
            ],
            "Attack09_Attack04_BS": [
              "Monster_Golem_Centaur_Attack04_BS",
              "Audio_Monster_Golem_Centaur_01_Attack04_BS"
            ]
          },
          "cullingModelAlwaysAnimate": true,
          "resetAnimatorTriggerOnExit": ["BeHit", "DoSkill"],
          "handleAnimatorStateImmediately": true,
          "canSteer": true
        },
        "Attack04_Loop": {
          "$type": "NEDIFAKEGCO",
          "animatorStates": {
            "Attack04_Loop": ["Audio_Monster_Golem_Centaur_01_Attack04_Loop"],
            "Attack09_Attack04_Loop": [
              "Audio_Monster_Golem_Centaur_01_Attack04_Loop"
            ]
          },
          "cullingModelAlwaysAnimate": true,
          "resetAnimatorTriggerOnExit": ["BeHit", "DoSkill"],
          "handleAnimatorStateImmediately": true,
          "canSteer": true
        },
        "Attack04_AS": {
          "$type": "NEDIFAKEGCO",
          "animatorStates": {
            "Attack04_AS": [
              "Monster_Golem_Centaur_Attack04",
              "Audio_Monster_Golem_Centaur_01_Attack04_AS"
            ],
            "Attack09_Attack04_AS": [
              "Monster_Golem_Centaur_Attack04",
              "Audio_Monster_Golem_Centaur_01_Attack04_AS"
            ]
          },
          "cullingModelAlwaysAnimate": true,
          "resetAnimatorTriggerOnExit": ["BeHit", "DoSkill"],
          "handleAnimatorStateImmediately": true,
          "canSteer": true
        },
        "Attack05": {
          "$type": "NEDIFAKEGCO",
          "animatorStates": {
            "Attack05": [
              "Monster_Golem_Centaur_Attack05",
              "Audio_Monster_Golem_Centaur_01_Attack05_sfx"
            ]
          },
          "cullingModelAlwaysAnimate": true,
          "resetAnimatorTriggerOnExit": ["BeHit", "DoSkill"],
          "handleAnimatorStateImmediately": true
        },
        "Attack07": {
          "$type": "NEDIFAKEGCO",
          "animatorStates": {
            "Attack07": [
              "Monster_Golem_Centaur_Attack07",
              "Audio_Monster_Golem_Centaur_01_Attack07"
            ],
            "Attack09_Attack07": [
              "Monster_Golem_Centaur_Attack07",
              "Audio_Monster_Golem_Centaur_01_Attack07"
            ]
          },
          "cullingModelAlwaysAnimate": true,
          "resetAnimatorTriggerOnExit": ["BeHit", "DoSkill"],
          "handleAnimatorStateImmediately": true,
          "canSteer": true
        },
        "Attack07_Break": {
          "$type": "NEDIFAKEGCO",
          "animatorStates": {
            "Attack07_Break": [
              "Monster_Golem_Centaur_Attack07_Break",
              "Audio_Monster_Golem_Centaur_01_Attack07_Break"
            ],
            "Attack09_Attack07_Break": [
              "Monster_Golem_Centaur_Attack07_Break",
              "Audio_Monster_Golem_Centaur_01_Attack07_Break"
            ]
          },
          "cullingModelAlwaysAnimate": true,
          "resetAnimatorTriggerOnExit": ["BeHit", "DoSkill"],
          "handleAnimatorStateImmediately": true,
          "canSteer": true
        },
        "Attack08_Turn": {
          "$type": "NEDIFAKEGCO",
          "animatorStates": {
            "Attack08_Turn": ["Audio_Monster_Golem_Centaur_01_TurnBack"],
            "RunBack_Attack08_Turn": [
              "Audio_Monster_Golem_Centaur_01_TurnBack"
            ],
            "Attack10_Attack08_Turn": [
              "Audio_Monster_Golem_Centaur_01_TurnBack"
            ]
          },
          "cullingModelAlwaysAnimate": true,
          "resetAnimatorTriggerOnExit": ["BeHit", "DoSkill"],
          "handleAnimatorStateImmediately": true,
          "canSteer": true,
          "followAnimRotation": true
        },
        "Attack08_Run_BS": {
          "$type": "NEDIFAKEGCO",
          "animatorStates": {
            "Attack08_Run_BS": [
              "Audio_Monster_Golem_Centaur_01_Attack08_Run_BS"
            ],
            "RunBack_Attack08_Run_BS": [
              "Audio_Monster_Golem_Centaur_01_Attack08_Run_BS"
            ],
            "Attack10_Attack08_Run_BS": [
              "Audio_Monster_Golem_Centaur_01_Attack08_Run_BS"
            ]
          },
          "cullingModelAlwaysAnimate": true,
          "resetAnimatorTriggerOnExit": ["BeHit", "DoSkill"],
          "handleAnimatorStateImmediately": true,
          "canSteer": true
        },
        "Attack08_Run": {
          "$type": "NEDIFAKEGCO",
          "animatorStates": {
            "Attack08_Run": ["Audio_Monster_Golem_Centaur_01_Run"],
            "RunBack_Attack08_Run": ["Audio_Monster_Golem_Centaur_01_Run"],
            "Attack10_Attack08_Run": ["Audio_Monster_Golem_Centaur_01_Run"]
          },
          "cullingModelAlwaysAnimate": true,
          "resetAnimatorTriggerOnExit": ["BeHit", "DoSkill"],
          "handleAnimatorStateImmediately": true,
          "canSteer": true
        },
        "Attack08_Run_AS": {
          "$type": "NEDIFAKEGCO",
          "animatorStates": {
            "Attack08_Run_AS": [
              "Monster_Golem_Centaur_Run_AS",
              "Audio_Monster_Golem_Centaur_01_Attack08_Run_AS"
            ],
            "RunBack_Attack08_Run_AS": [
              "Monster_Golem_Centaur_Run_AS",
              "Audio_Monster_Golem_Centaur_01_Attack08_Run_AS"
            ],
            "Attack10_Attack08_Run_AS": [
              "Monster_Golem_Centaur_Run_AS",
              "Audio_Monster_Golem_Centaur_01_Attack08_Run_AS"
            ]
          },
          "cullingModelAlwaysAnimate": true,
          "resetAnimatorTriggerOnExit": ["BeHit", "DoSkill"],
          "handleAnimatorStateImmediately": true,
          "canSteer": true
        },
        "Attack08_BS": {
          "$type": "NEDIFAKEGCO",
          "animatorStates": {
            "Attack08_BS": [
              "Monster_Golem_Centaur_Attack08_BS",
              "Audio_Monster_Golem_Centaur_01_Attack08_BS_sfx"
            ],
            "Attack10_Attack08_BS": [
              "Monster_Golem_Centaur_Attack08_BS",
              "Audio_Monster_Golem_Centaur_01_Attack08_BS_sfx"
            ]
          },
          "cullingModelAlwaysAnimate": true,
          "resetAnimatorTriggerOnExit": ["BeHit", "DoSkill"],
          "handleAnimatorStateImmediately": true,
          "canSteer": true
        },
        "Attack08_Loop": {
          "$type": "NEDIFAKEGCO",
          "animatorStates": {
            "Attack08_Loop": ["Monster_Golem_Centaur_Attack08_Loop"],
            "Attack10_Attack08_Loop": ["Monster_Golem_Centaur_Attack08_Loop"]
          },
          "cullingModelAlwaysAnimate": true,
          "resetAnimatorTriggerOnExit": ["BeHit", "DoSkill"],
          "handleAnimatorStateImmediately": true,
          "canSteer": true
        },
        "Attack08_AS": {
          "$type": "NEDIFAKEGCO",
          "animatorStates": {
            "Attack08_AS": [
              "Monster_Golem_Centaur_Attack08_AS",
              "Audio_Monster_Golem_Centaur_01_Attack08_AS"
            ],
            "Attack10_Attack08_AS": [
              "Monster_Golem_Centaur_Attack08_AS",
              "Audio_Monster_Golem_Centaur_01_Attack08_AS"
            ]
          },
          "cullingModelAlwaysAnimate": true,
          "resetAnimatorTriggerOnExit": ["BeHit", "DoSkill"],
          "handleAnimatorStateImmediately": true,
          "canSteer": true
        },
        "Skill_RunLeave_BS": {
          "$type": "NEDIFAKEGCO",
          "animatorStates": {
            "Skill_RunLeave_BS": [
              "Audio_Monster_Golem_Centaur_01_Attack08_BS_sfx"
            ]
          },
          "cullingModelAlwaysAnimate": true,
          "resetAnimatorTriggerOnExit": ["BeHit", "DoSkill"],
          "handleAnimatorStateImmediately": true,
          "canSteer": true
        },
        "Skill_RunLeave": {
          "$type": "NEDIFAKEGCO",
          "animatorStates": {
            "Skill_RunLeave": [
              "Monster_Golem_Centaur_HitScene",
              "Audio_Monster_Golem_Centaur_01_Run"
            ]
          },
          "cullingModelAlwaysAnimate": true,
          "resetAnimatorTriggerOnExit": ["BeHit", "DoSkill"],
          "handleAnimatorStateImmediately": true,
          "canSteer": true
        },
        "Attack06": {
          "$type": "NEDIFAKEGCO",
          "animatorStates": {
            "Attack06": [
              "Monster_Golem_Centaur_Attack06",
              "Audio_Monster_Golem_Centaur_01_Attack06_sfx"
            ],
            "Attack09_Attack06": [
              "Monster_Golem_Centaur_Attack06",
              "Audio_Monster_Golem_Centaur_01_Attack06_sfx"
            ]
          },
          "cullingModelAlwaysAnimate": true,
          "resetAnimatorTriggerOnExit": ["BeHit", "DoSkill"],
          "handleAnimatorStateImmediately": true,
          "canSteer": true
        },
        "Attack10_1": {
          "$type": "NEDIFAKEGCO",
          "animatorStates": {
            "Attack10_1": [
              "Monster_Golem_Centaur_Attack10",
              "Audio_Monster_Golem_Centaur_01_Attack07"
            ]
          },
          "cullingModelAlwaysAnimate": true,
          "resetAnimatorTriggerOnExit": ["BeHit", "DoSkill"],
          "handleAnimatorStateImmediately": true,
          "canSteer": true
        },
        "Attack10_2": {
          "$type": "NEDIFAKEGCO",
          "animatorStates": {
            "Attack10_2": [
              "Monster_Golem_Centaur_Attack10",
              "Audio_Monster_Golem_Centaur_01_Attack07"
            ]
          },
          "cullingModelAlwaysAnimate": true,
          "resetAnimatorTriggerOnExit": ["BeHit", "DoSkill"],
          "handleAnimatorStateImmediately": true,
          "canSteer": true
        },
        "Attack10_3": {
          "$type": "NEDIFAKEGCO",
          "animatorStates": {
            "Attack10_3": [
              "Monster_Golem_Centaur_Attack10",
              "Audio_Monster_Golem_Centaur_01_Attack07"
            ]
          },
          "cullingModelAlwaysAnimate": true,
          "resetAnimatorTriggerOnExit": ["BeHit", "DoSkill"],
          "handleAnimatorStateImmediately": true,
          "canSteer": true
        },
        "Attack10_Break": {
          "$type": "NEDIFAKEGCO",
          "animatorStates": {
            "Attack10_Break": [
              "Monster_Golem_Centaur_Attack07_Break",
              "Audio_Monster_Golem_Centaur_01_Attack07_Break"
            ]
          },
          "cullingModelAlwaysAnimate": true,
          "resetAnimatorTriggerOnExit": ["BeHit", "DoSkill"],
          "handleAnimatorStateImmediately": true,
          "canSteer": true
        }
      }
    }
  },
  "billboard": {
    "$type": "DNGNMAJBCNP",
    "attachPoint": "BillboardAttach",
    "offset": {
      "x": -0.30000001192092896,
      "y": -0.10000000149011612
    },
    "offsetType": "Character",
    "showDistance": 48.0,
    "size": "Grand"
  },
  "initialPoses": {
    "Default": {
      "initialPoseID": 1,
      "initialPoseParams": {
        "boolParams": {
          "Statue": "false"
        }
      }
    },
    "Statue": {
      "initialPoseID": 111,
      "initialPoseParams": {
        "boolParams": {
          "Statue": "true"
        }
      }
    },
    "Weak": {
      "initialPoseID": 204,
      "initialPoseParams": {
        "boolParams": {
          "SpecialWeak": "true"
        }
      }
    }
  },
  "aibeta": {
    "enable": true,
    "decisionArchetype": "Golem",
    "moveSetting": {
      "useNavMesh": false,
      "navMeshAgentName": "Undead01"
    },
    "sensing": {
      "settings": {
        "DefaultSetting": {
          "viewRange": 15.0,
          "feelRange": 10.0
        },
        "StatueSensensing": {
          "viewRange": 16.5,
          "feelRange": 16.5
        },
        "CombatSensing": {
          "viewRange": 50.0,
          "viewPanoramic": true,
          "feelRange": 50.0
        }
      },
      "templates": {
        "DefaultTemplate": {
          "DefaultPoses": "DefaultSetting",
          "111": "StatueSensensing",
          "201": "CombatSensing",
          "203": "CombatSensing"
        }
      }
    },
    "threat": {
      "GHIJMOKOLMB": "",
      "clearThreatTargetDistance": 65.0,
      "clearThreatEdgeDistance": 7.5,
      "clearThreatByTargetOutOfZone": true,
      "clearThreatTimerByTargetOutOfZone": 8.0,
      "viewThreatGrow": 35.0,
      "threatDecreaseSpeed": 200.0,
      "viewAttenuation": [
        {
          "x": 10.0,
          "y": 2.0
        },
        {
          "x": 15.0,
          "y": 0.800000011920929
        },
        {
          "x": 20.0,
          "y": 0.5
        },
        {
          "x": 25.0,
          "y": 0.30000001192092896
        },
        {
          "x": 30.0,
          "y": 0.20000000298023224
        }
      ],
      "resistTauntLevel": "Monster_TauntLevel_4"
    },
    "defendArea": {
      "defendRange": 50.0
    },
    "profiling": {
      "staticPoses": [111]
    },
    "network": {
      "syncSkill": true
    },
    "skillGroupCDConfigs": [
      {
        "skillGroupCDID": 1,
        "skillGroupCDTime": 5.0
      },
      {
        "skillGroupCDID": 5,
        "skillGroupCDTime": 5.0
      },
      {
        "skillGroupCDID": 3,
        "skillGroupCDTime": 35.0
      },
      {
        "skillGroupCDID": 4,
        "skillGroupCDTime": 60.0
      }
    ],
    "skillSetting": {
      "skillEliteSet": {
        "0": [
          101, 111, 601, 611, 621, 631, 641, 651, 661, 672, 673, 675, 701, 702,
          703, 704, 901, 902
        ],
        "1": [
          101, 111, 601, 611, 621, 631, 641, 651, 662, 672, 673, 675, 701, 702,
          703, 704
        ]
      },
      "dynamicCD": {
        "enable": true,
        "OBAJGNGOJLK": 7.0,
        "CBJLPEGGBOG": 9.0
      }
    },
    "skills": {
      "101": {
        "name": "OnAlert",
        "castCondition": {
          "pose": [111]
        },
        "publicCDGroup": "",
        "ignoreGCD": true,
        "triggerGCD": false,
        "triggerDynamicCD": false,
        "ignoreDynamicCD": true,
        "HHAGODJIAPE": "",
        "stateIDs": ["Alert_BS", "Alert_Loop", "Alert_AS"],
        "skillQueryingTime": 3.0,
        "flagTargetReachable": "11",
        "flagSelfOnTemplateCollider": "01",
        "flagSelfInZone": "10",
        "flagTargetInZone": "11"
      },
      "111": {
        "name": "WeakAS",
        "castCondition": {
          "pose": [203]
        },
        "cd": 9999.0,
        "initialCD": 9999.0,
        "publicCDGroup": "",
        "ignoreGCD": true,
        "triggerGCD": false,
        "triggerCDOnFail": false,
        "ignoreDynamicCD": true,
        "HHAGODJIAPE": "",
        "stateIDs": ["Weak_AS"],
        "flagTargetReachable": "11",
        "flagSelfOnTemplateCollider": "11",
        "flagSelfInZone": "11",
        "flagTargetInZone": "11"
      },
      "601": {
        "name": "Attack01",
        "combatSkillType": "MeleeAttack",
        "castCondition": {
          "pose": [201],
          "pickRangeMax": 6.0
        },
        "publicCDGroup": "",
        "triggerGCD": false,
        "skillGroupCDID": 1,
        "triggerDynamicCD": false,
        "ignoreDynamicCD": true,
        "HHAGODJIAPE": "",
        "stateIDs": [
          "TurnLeft",
          "TurnRight",
          "TurnBack",
          "Attack01_B1",
          "Attack01_B2",
          "Attack01_B3",
          "Attack01_T1_L",
          "Attack01_T1_R",
          "Attack01_T2"
        ],
        "flagTargetReachable": "11",
        "flagSelfOnTemplateCollider": "01",
        "flagSelfInZone": "10",
        "flagTargetInZone": "10"
      },
      "611": {
        "name": "Attack02",
        "combatSkillType": "MeleeAttack",
        "castCondition": {
          "pose": [201],
          "minTargetAngleXZ": 30.0,
          "maxTargetAngleXZ": 135.0,
          "pickRangeMax": 6.0
        },
        "publicCDGroup": "",
        "triggerGCD": false,
        "skillGroupCDID": 5,
        "triggerDynamicCD": false,
        "ignoreDynamicCD": true,
        "HHAGODJIAPE": "",
        "stateIDs": [
          "Attack02_T1_L",
          "Attack02_T1_R",
          "Attack02_T2",
          "Attack02_B3"
        ],
        "flagTargetReachable": "11",
        "flagSelfOnTemplateCollider": "01",
        "flagSelfInZone": "10",
        "flagTargetInZone": "10"
      },
      "621": {
        "name": "Attack03",
        "combatSkillType": "RangedAttack",
        "castCondition": {
          "pose": [201],
          "pickRangeMin": 10.0,
          "pickRangeMax": 20.0
        },
        "cd": 15.0,
        "cdUpperRange": 5.0,
        "initialCD": 8.0,
        "initialCDUpperRange": 6.0,
        "publicCDGroup": "",
        "triggerGCD": false,
        "triggerDynamicCD": false,
        "ignoreDynamicCD": true,
        "HHAGODJIAPE": "",
        "stateIDs": ["TurnLeft", "TurnRight", "TurnBack", "Attack03"],
        "flagTargetReachable": "11",
        "flagSelfOnTemplateCollider": "01",
        "flagSelfInZone": "10",
        "flagTargetInZone": "11"
      },
      "631": {
        "name": "Attack04",
        "combatSkillType": "RangedAttack",
        "castCondition": {
          "pose": [201],
          "pickRangeMin": 12.0,
          "pickRangeMax": 40.0
        },
        "cd": 18.0,
        "cdUpperRange": 2.0,
        "initialCD": 5.0,
        "initialCDUpperRange": 5.0,
        "publicCDGroup": "",
        "triggerGCD": false,
        "triggerDynamicCD": false,
        "ignoreDynamicCD": true,
        "HHAGODJIAPE": "",
        "stateIDs": [
          "Attack04_BS",
          "Attack04_Loop",
          "Attack04_AS",
          "Attack01_B1",
          "Attack01_B2",
          "Attack01_B3",
          "Attack01_T1_L",
          "Attack01_T1_R",
          "Attack01_T2",
          "Attack02_T1_L",
          "Attack02_T1_R",
          "Attack02_T2",
          "Attack02_B3",
          "Attack03",
          "TurnLeft",
          "TurnRight",
          "TurnBack"
        ],
        "flagTargetReachable": "11",
        "flagSelfOnTemplateCollider": "01",
        "flagSelfInZone": "10",
        "flagTargetInZone": "10"
      },
      "641": {
        "name": "Attack05",
        "combatSkillType": "MeleeAttack",
        "castCondition": {
          "pose": [201],
          "pickRangeMax": 8.0
        },
        "cd": 16.0,
        "cdUpperRange": 4.0,
        "initialCD": 6.0,
        "publicCDGroup": "",
        "triggerGCD": false,
        "triggerDynamicCD": false,
        "ignoreDynamicCD": true,
        "HHAGODJIAPE": "",
        "stateIDs": ["Attack05"],
        "flagTargetReachable": "11",
        "flagSelfOnTemplateCollider": "01",
        "flagSelfInZone": "10",
        "flagTargetInZone": "10"
      },
      "651": {
        "name": "Attack06",
        "combatSkillType": "RangedAttack",
        "castCondition": {
          "pose": [201],
          "pickRangeMin": 8.0,
          "pickRangeMax": 30.0
        },
        "cd": 12.0,
        "cdUpperRange": 1.0,
        "publicCDGroup": "",
        "triggerGCD": false,
        "triggerDynamicCD": false,
        "ignoreDynamicCD": true,
        "HHAGODJIAPE": "",
        "stateIDs": ["Attack06"],
        "flagTargetReachable": "11",
        "flagSelfOnTemplateCollider": "01",
        "flagSelfInZone": "10",
        "flagTargetInZone": "11"
      },
      "661": {
        "name": "Attack07",
        "combatSkillType": "RangedAttack",
        "priority": 4,
        "castCondition": {
          "pose": [201],
          "pickRangeMax": 20.0
        },
        "cd": 30.0,
        "cdUpperRange": 5.0,
        "initialCD": 20.0,
        "publicCDGroup": "",
        "triggerGCD": false,
        "triggerDynamicCD": false,
        "ignoreDynamicCD": true,
        "HHAGODJIAPE": "",
        "stateIDs": [
          "TurnLeft",
          "TurnRight",
          "TurnBack",
          "Attack07",
          "Attack07_Break"
        ],
        "flagTargetReachable": "11",
        "flagSelfOnTemplateCollider": "01",
        "flagSelfInZone": "10",
        "flagTargetInZone": "10"
      },
      "662": {
        "name": "Attack07",
        "combatSkillType": "RangedAttack",
        "priority": 4,
        "castCondition": {
          "pose": [201],
          "pickRangeMax": 20.0
        },
        "cd": 47.5,
        "cdUpperRange": 5.0,
        "initialCD": 35.0,
        "publicCDGroup": "",
        "triggerGCD": false,
        "triggerDynamicCD": false,
        "ignoreDynamicCD": true,
        "HHAGODJIAPE": "",
        "stateIDs": [
          "TurnLeft",
          "TurnRight",
          "TurnBack",
          "Attack07",
          "Attack07_Break"
        ],
        "flagTargetReachable": "11",
        "flagSelfOnTemplateCollider": "01",
        "flagSelfInZone": "10",
        "flagTargetInZone": "10"
      },
      "672": {
        "name": "Attack08_1",
        "combatSkillType": "RangedAttack",
        "priority": 2,
        "castCondition": {
          "pose": [201],
          "skillAnchorRangeMin": 6.0,
          "skillAnchorAngle": {
            "xzMin": 120.0
          }
        },
        "cd": 60.0,
        "cdUpperRange": 10.0,
        "initialCD": 40.0,
        "publicCDGroup": "",
        "ignoreGCD": true,
        "skillGroupCDID": 4,
        "ignoreDynamicCD": true,
        "HHAGODJIAPE": "",
        "stateIDs": [
          "Attack08_BS",
          "Attack08_Loop",
          "Attack08_AS",
          "Attack08_Turn",
          "Attack08_Run_BS",
          "Attack08_Run",
          "Attack08_Run_AS"
        ],
        "flagTargetReachable": "11",
        "flagSelfOnTemplateCollider": "01",
        "flagSelfInZone": "10",
        "flagTargetInZone": "10"
      },
      "673": {
        "name": "Attack08_2",
        "combatSkillType": "RangedAttack",
        "priority": 2,
        "castCondition": {
          "pose": [201],
          "skillAnchorRangeMin": 6.0,
          "skillAnchorAngle": {
            "xzMax": 120.0
          }
        },
        "cd": 60.0,
        "cdUpperRange": 10.0,
        "initialCD": 40.0,
        "publicCDGroup": "",
        "ignoreGCD": true,
        "skillGroupCDID": 4,
        "ignoreDynamicCD": true,
        "HHAGODJIAPE": "",
        "stateIDs": [
          "Attack08_BS",
          "Attack08_Loop",
          "Attack08_AS",
          "Attack08_Run_BS",
          "Attack08_Run",
          "Attack08_Run_AS"
        ],
        "flagTargetReachable": "11",
        "flagSelfOnTemplateCollider": "01",
        "flagSelfInZone": "10",
        "flagTargetInZone": "10"
      },
      "675": {
        "name": "Attack08_3",
        "combatSkillType": "RangedAttack",
        "priority": 2,
        "castCondition": {
          "pose": [201],
          "skillAnchorRangeMax": 6.0,
          "skillAnchorAngle": {
            "xzMax": 90.0
          }
        },
        "cd": 60.0,
        "cdUpperRange": 10.0,
        "initialCD": 40.0,
        "publicCDGroup": "",
        "ignoreGCD": true,
        "skillGroupCDID": 4,
        "ignoreDynamicCD": true,
        "HHAGODJIAPE": "",
        "stateIDs": ["Attack08_BS", "Attack08_Loop", "Attack08_AS"],
        "flagTargetReachable": "11",
        "flagSelfOnTemplateCollider": "01",
        "flagSelfInZone": "10",
        "flagTargetInZone": "10"
      },
      "701": {
        "name": "Attack09_1",
        "combatSkillType": "RangedAttack",
        "priority": 3,
        "castCondition": {
          "pose": [201],
          "minTargetAngleXZ": 90.0,
          "pickRangeMax": 5.0,
          "globalValues": ["CentaurWeakRecover"],
          "globalValuesTargetType": "SELF"
        },
        "cd": 30.0,
        "cdUpperRange": 10.0,
        "initialCD": 22.5,
        "publicCDGroup": "",
        "skillGroupCDID": 3,
        "ignoreDynamicCD": true,
        "HHAGODJIAPE": "",
        "stateIDs": [
          "Skill_RunLeave_BS",
          "Skill_RunLeave",
          "Attack03",
          "Attack032",
          "Attack04_BS",
          "Attack04_Loop",
          "Attack04_AS",
          "Attack02_T1_L",
          "Attack02_T1_R",
          "Attack02_T2",
          "Attack02_B3",
          "TurnLeft",
          "TurnRight",
          "TurnBack",
          "NoTurn",
          "Attack01_B1",
          "Attack01_B2",
          "Attack01_B3",
          "Attack01_T1_L",
          "Attack01_T1_R",
          "Attack01_T2",
          "Attack06",
          "Attack07",
          "Attack07_Break"
        ],
        "flagTargetReachable": "11",
        "flagSelfOnTemplateCollider": "01",
        "flagSelfInZone": "10",
        "flagTargetInZone": "10"
      },
      "702": {
        "name": "Attack09_2",
        "combatSkillType": "RangedAttack",
        "priority": 3,
        "castCondition": {
          "pose": [201],
          "pickRangeMin": 8.0,
          "pickRangeMax": 30.0,
          "globalValues": ["CentaurWeakRecover"],
          "globalValuesTargetType": "SELF"
        },
        "cd": 30.0,
        "cdUpperRange": 10.0,
        "initialCD": 22.5,
        "publicCDGroup": "",
        "skillGroupCDID": 3,
        "ignoreDynamicCD": true,
        "HHAGODJIAPE": "",
        "stateIDs": [
          "Attack03",
          "Attack032",
          "Attack04_BS",
          "Attack04_Loop",
          "Attack04_AS",
          "Attack02_T1_L",
          "Attack02_T1_R",
          "Attack02_T2",
          "Attack02_B3",
          "TurnLeft",
          "TurnRight",
          "TurnBack",
          "NoTurn",
          "Attack01_B1",
          "Attack01_B2",
          "Attack01_B3",
          "Attack01_T1_L",
          "Attack01_T1_R",
          "Attack01_T2",
          "Attack06",
          "Attack07",
          "Attack07_Break"
        ],
        "flagTargetReachable": "11",
        "flagSelfOnTemplateCollider": "01",
        "flagSelfInZone": "10",
        "flagTargetInZone": "10"
      },
      "703": {
        "name": "Attack09_3",
        "combatSkillType": "RangedAttack",
        "priority": 3,
        "castCondition": {
          "pose": [201],
          "maxTargetAngleXZ": 90.0,
          "pickRangeMin": 5.0,
          "pickRangeMax": 8.0,
          "globalValues": ["CentaurWeakRecover"],
          "globalValuesTargetType": "SELF"
        },
        "cd": 30.0,
        "cdUpperRange": 10.0,
        "initialCD": 22.5,
        "publicCDGroup": "",
        "skillGroupCDID": 3,
        "ignoreDynamicCD": true,
        "HHAGODJIAPE": "",
        "stateIDs": [
          "Attack03",
          "Attack032",
          "Attack04_BS",
          "Attack04_Loop",
          "Attack04_AS",
          "Attack02_T1_L",
          "Attack02_T1_R",
          "Attack02_T2",
          "Attack02_B3",
          "TurnLeft",
          "TurnRight",
          "TurnBack",
          "NoTurn",
          "Attack01_B1",
          "Attack01_B2",
          "Attack01_B3",
          "Attack01_T1_L",
          "Attack01_T1_R",
          "Attack01_T2",
          "Attack06",
          "Attack07",
          "Attack07_Break"
        ],
        "flagTargetReachable": "11",
        "flagSelfOnTemplateCollider": "01",
        "flagSelfInZone": "10",
        "flagTargetInZone": "10"
      },
      "704": {
        "name": "Attack09_4",
        "combatSkillType": "RangedAttack",
        "priority": 3,
        "castCondition": {
          "pose": [201],
          "minTargetAngleXZ": 90.0,
          "pickRangeMin": 5.0,
          "pickRangeMax": 8.0,
          "globalValues": ["CentaurWeakRecover"],
          "globalValuesTargetType": "SELF"
        },
        "cd": 30.0,
        "cdUpperRange": 10.0,
        "initialCD": 22.5,
        "publicCDGroup": "",
        "skillGroupCDID": 3,
        "ignoreDynamicCD": true,
        "HHAGODJIAPE": "",
        "stateIDs": [
          "Attack03",
          "Attack032",
          "Attack04_BS",
          "Attack04_Loop",
          "Attack04_AS",
          "Attack02_T1_L",
          "Attack02_T1_R",
          "Attack02_T2",
          "Attack02_B3",
          "TurnLeft",
          "TurnRight",
          "TurnBack",
          "NoTurn",
          "Attack01_B1",
          "Attack01_B2",
          "Attack01_B3",
          "Attack01_T1_L",
          "Attack01_T1_R",
          "Attack01_T2",
          "Attack06",
          "Attack07",
          "Attack07_Break"
        ],
        "flagTargetReachable": "11",
        "flagSelfOnTemplateCollider": "01",
        "flagSelfInZone": "10",
        "flagTargetInZone": "10"
      },
      "705": {
        "name": "Attack09_5",
        "combatSkillType": "RangedAttack",
        "priority": 3,
        "castCondition": {
          "pose": [201],
          "minTargetAngleXZ": 45.0,
          "maxTargetAngleXZ": 90.0,
          "pickRangeMax": 5.0,
          "globalValues": ["CentaurWeakRecover"],
          "globalValuesTargetType": "SELF"
        },
        "cd": 30.0,
        "cdUpperRange": 10.0,
        "initialCD": 22.5,
        "publicCDGroup": "",
        "skillGroupCDID": 3,
        "ignoreDynamicCD": true,
        "HHAGODJIAPE": "",
        "stateIDs": [
          "Attack03",
          "Attack032",
          "Attack04_BS",
          "Attack04_Loop",
          "Attack04_AS",
          "Attack02_T1_L",
          "Attack02_T1_R",
          "Attack02_T2",
          "Attack02_B3",
          "TurnLeft",
          "TurnRight",
          "TurnBack",
          "NoTurn",
          "Attack01_B1",
          "Attack01_B2",
          "Attack01_B3",
          "Attack01_T1_L",
          "Attack01_T1_R",
          "Attack01_T2",
          "Attack06",
          "Attack07",
          "Attack07_Break",
          "RunTurn"
        ],
        "flagTargetReachable": "11",
        "flagSelfOnTemplateCollider": "01",
        "flagSelfInZone": "10",
        "flagTargetInZone": "10"
      },
      "706": {
        "name": "Attack09_6",
        "combatSkillType": "RangedAttack",
        "priority": 3,
        "castCondition": {
          "pose": [201],
          "maxTargetAngleXZ": 45.0,
          "pickRangeMax": 5.0,
          "globalValues": ["CentaurWeakRecover"],
          "globalValuesTargetType": "SELF"
        },
        "cd": 30.0,
        "cdUpperRange": 10.0,
        "initialCD": 22.5,
        "publicCDGroup": "",
        "skillGroupCDID": 3,
        "ignoreDynamicCD": true,
        "HHAGODJIAPE": "",
        "stateIDs": [
          "Attack03",
          "Attack032",
          "Attack04_BS",
          "Attack04_Loop",
          "Attack04_AS",
          "Attack02_T1_L",
          "Attack02_T1_R",
          "Attack02_T2",
          "Attack02_B3",
          "TurnLeft",
          "TurnRight",
          "TurnBack",
          "NoTurn",
          "Attack01_B1",
          "Attack01_B2",
          "Attack01_B3",
          "Attack01_T1_L",
          "Attack01_T1_R",
          "Attack01_T2",
          "Attack06",
          "Attack07",
          "Attack07_Break",
          "RunTurn"
        ],
        "flagTargetReachable": "11",
        "flagSelfOnTemplateCollider": "01",
        "flagSelfInZone": "10",
        "flagTargetInZone": "10"
      },
      "901": {
        "name": "RunBack_1",
        "combatSkillType": "RangedAttack",
        "priority": 1,
        "castCondition": {
          "pose": [201],
          "skillAnchorAngle": {
            "xzMin": 90.0
          }
        },
        "cd": 20.0,
        "cdUpperRange": 2.0,
        "publicCDGroup": "",
        "ignoreGCD": true,
        "ignoreDynamicCD": true,
        "HHAGODJIAPE": "",
        "stateIDs": [
          "Attack08_Run_BS",
          "Attack08_Run",
          "Attack08_Run_AS",
          "Attack08_Turn"
        ],
        "flagTargetReachable": "11",
        "flagSelfOnTemplateCollider": "01",
        "flagSelfInZone": "01",
        "flagTargetInZone": "11"
      },
      "902": {
        "name": "RunBack_2",
        "combatSkillType": "RangedAttack",
        "priority": 1,
        "castCondition": {
          "pose": [201],
          "skillAnchorAngle": {
            "xzMax": 90.0
          }
        },
        "cd": 20.0,
        "cdUpperRange": 2.0,
        "publicCDGroup": "",
        "ignoreGCD": true,
        "ignoreDynamicCD": true,
        "HHAGODJIAPE": "",
        "stateIDs": ["Attack08_Run_BS", "Attack08_Run", "Attack08_Run_AS"],
        "flagTargetReachable": "11",
        "flagSelfOnTemplateCollider": "01",
        "flagSelfInZone": "01",
        "flagTargetInZone": "11"
      }
    },
    "skillGCD": 4.0,
    "birdCirclingTactic": [
      {
        "$type": "PLNFINGKOCP",
        "enable": true,
        "condition": {
          "pose": [101, 201]
        },
        "JMCOBEPDIGM": {
          "KMGKMELGKKG": [
            {
              "HEFKOHLJNMN": 12.5,
              "MNPDDAKDHGK": "",
              "NBENNEKDIIA": 0.15000000596046448,
              "GACMJDCMLLA": 1.7999999523162842,
              "DFPDCHDFOMI": 99.0,
              "BOLLAEHMJDB": 99.0
            },
            {
              "HEFKOHLJNMN": 999.0,
              "MNPDDAKDHGK": "",
              "NBENNEKDIIA": 0.5,
              "GACMJDCMLLA": 8.0,
              "DFPDCHDFOMI": 99.0,
              "BOLLAEHMJDB": 99.0
            }
          ],
          "LEGOOCKKGNE": 0.0,
          "NEGABCNNJKM": 999.0,
          "cd": 0.10000000149011612,
          "OFPCELPELIG": ["BigTurn_L", "BigTurn_R"],
          "DHFKFHDMCPL": 0.8999999761581421,
          "FPOLOLBBKEO": 2.0
        },
        "PIOCBHLFLJP": {
          "101": {
            "KMGKMELGKKG": [
              {
                "HEFKOHLJNMN": 999.0,
                "MNPDDAKDHGK": "",
                "NBENNEKDIIA": 0.3499999940395355,
                "GACMJDCMLLA": 8.5
              }
            ],
            "LEGOOCKKGNE": 0.0,
            "NEGABCNNJKM": 999.0,
            "OFPCELPELIG": ["BigTurn_L", "BigTurn_R"],
            "DHFKFHDMCPL": 0.8999999761581421,
            "FPOLOLBBKEO": 2.0
          }
        }
      },
      {
        "$type": "KACCHOLJDNK",
        "enable": true,
        "condition": {
          "pose": [201]
        },
        "JMCOBEPDIGM": {
          "ANLAAGAMIKF": 1,
          "NBENNEKDIIA": 0.5,
          "KHDFDAAAPEI": 25.0,
          "HKJODDGJPHA": 999.0,
          "GGEBMFHFBPO": 12.0,
          "KFFGCIMPNMJ": 10.0,
          "MNPDDAKDHGK": ""
        }
      },
      {
        "$type": "NNJKLGNPMNN",
        "enable": true,
        "JMCOBEPDIGM": {
          "MNPDDAKDHGK": "",
          "GJDMDHIBCME": ""
        }
      }
    ]
  },
  "inputKeys": [
    {
      "keyID": 601,
      "inputKeyCode": 257,
      "abilityName": ""
    },
    {
      "keyID": 602,
      "inputKeyCode": 258,
      "abilityName": ""
    },
    {
      "keyID": 603,
      "inputKeyCode": 259,
      "abilityName": ""
    },
    {
      "keyID": 604,
      "inputKeyCode": 260,
      "abilityName": ""
    },
    {
      "keyID": 611,
      "inputKeyCode": 261,
      "abilityName": ""
    },
    {
      "keyID": 612,
      "inputKeyCode": 262,
      "abilityName": ""
    },
    {
      "keyID": 621,
      "inputKeyCode": 263,
      "abilityName": ""
    },
    {
      "keyID": 631,
      "inputKeyCode": 264,
      "abilityName": ""
    },
    {
      "keyID": 641,
      "inputKeyCode": 265,
      "abilityName": ""
    },
    {
      "keyID": 651,
      "inputKeyCode": 266,
      "abilityName": ""
    },
    {
      "keyID": 661,
      "inputKeyCode": 267,
      "abilityName": ""
    },
    {
      "keyID": 672,
      "inputKeyCode": 268,
      "abilityName": ""
    },
    {
      "keyID": 673,
      "inputKeyCode": 269,
      "abilityName": ""
    },
    {
      "keyID": 675,
      "inputKeyCode": 270,
      "abilityName": ""
    },
    {
      "keyID": 701,
      "inputKeyCode": 271,
      "abilityName": ""
    },
    {
      "keyID": 702,
      "inputKeyCode": 272,
      "abilityName": ""
    },
    {
      "keyID": 703,
      "inputKeyCode": 273,
      "abilityName": ""
    },
    {
      "keyID": 801,
      "inputKeyCode": 274,
      "abilityName": ""
    }
  ],
  "move": {
    "$type": "IPNMJMHDMPF",
    "destroyRockWhenInit": true,
    "positionModifyExtra": true,
    "PKHOMJHFAEE": "RootNode"
  },
  "audio": {
    "overrideEmitterName": "",
    "behaviours": [
      {
        "$type": "PJDPLFIPJFE",
        "JDNMAKIIMGM": true,
        "EPGJJDIKKDK": {
          "SAT_484873486_1": [
            {
              "$type": "DELPJNMAIHM",
              "OPEMPFCFHMO": "__DefaultSync__",
              "action": {
                "$type": "HOANNOFIPNJ",
                "switchGroup": {
                  "text": "SwitchGroup_Golem_Voilin"
                },
                "switchValue": {
                  "text": "Switch_A"
                }
              }
            }
          ],
          "SAT_484873486_2": [
            {
              "$type": "DELPJNMAIHM",
              "OPEMPFCFHMO": "__DefaultSync__",
              "action": {
                "$type": "HOANNOFIPNJ",
                "switchGroup": {
                  "text": "SwitchGroup_Golem_Voilin"
                },
                "switchValue": {
                  "text": "Switch_C"
                }
              }
            }
          ],
          "SAT_484873486_3": [
            {
              "$type": "DELPJNMAIHM",
              "OPEMPFCFHMO": "__DefaultSync__",
              "action": {
                "$type": "HOANNOFIPNJ",
                "switchGroup": {
                  "text": "SwitchGroup_Golem_Voilin"
                },
                "switchValue": {
                  "text": "Switch_C"
                }
              }
            }
          ],
          "SAT_484873486_4": [
            {
              "$type": "DELPJNMAIHM",
              "OPEMPFCFHMO": "__DefaultSync__",
              "action": {
                "$type": "HOANNOFIPNJ",
                "switchGroup": {
                  "text": "SwitchGroup_Golem_Voilin"
                },
                "switchValue": {
                  "text": "Switch_A"
                }
              }
            }
          ],
          "SAT_484873486_5": [
            {
              "$type": "DELPJNMAIHM",
              "OPEMPFCFHMO": "__DefaultSync__",
              "action": {
                "$type": "HOANNOFIPNJ",
                "switchGroup": {
                  "text": "SwitchGroup_Golem_Voilin"
                },
                "switchValue": {
                  "text": "Switch_C"
                }
              }
            }
          ],
          "SAT_484873486_6": [
            {
              "$type": "DELPJNMAIHM",
              "OPEMPFCFHMO": "__DefaultSync__",
              "action": {
                "$type": "HOANNOFIPNJ",
                "switchGroup": {
                  "text": "SwitchGroup_Golem_Voilin"
                },
                "switchValue": {
                  "text": "Switch_A"
                }
              }
            }
          ]
        }
      }
    ]
  },
  "cameraAdjustMap": {
    "default": {
      "$type": "NJCCPGFPIHI",
      "priority": 1.0,
      "enterRadius": 40.0,
      "exitRadius": 50.0,
      "heightAdjust": 0.800000011920929,
      "fov": 45.0,
      "zoom": 8.5,
      "sphericalY": -10.0,
      "lockSphericalY": false,
      "sphericalYUp": 79.0,
      "sphericalYDown": 99.0,
      "autoTurnStartMin": 50.0,
      "autoTurnStartMax": 40.0,
      "autoTurnEndMin": 100.0,
      "autoTurnEndMax": 145.0,
      "enterShape": "CircleLockEnemyR50H30HC",
      "exitShape": "CircleLockEnemyR50H30HC",
      "enableHandleResetBackward": true,
      "dieDelayExitTime": 0.009999999776482582,
      "blendDuration": 3.0,
      "CIJLABMEGDC": 13
    },
    "Attack08LockUp": {
      "$type": "NJCCPGFPIHI",
      "priority": 2.0,
      "heightAdjust": 1.5499999523162842,
      "fov": 46.5,
      "zoom": 12.5,
      "sphericalY": -18.0,
      "lockSphericalY": false,
      "sphericalYUp": 80.0,
      "sphericalYDown": 60.0,
      "enterShape": "CircleLockEnemyR50H30HC",
      "exitShape": "CircleLockEnemyR55H30HC",
      "enableHandleResetBackward": true,
      "blendDuration": 1.2000000476837158
    },
    "DieCamera": {
      "$type": "NJCCPGFPIHI",
      "priority": 1.0,
      "enterRadius": 25.0,
      "exitRadius": 30.0,
      "heightAdjust": 0.15000000596046448,
      "fov": 45.5,
      "zoom": 6.0,
      "lockSphericalY": false,
      "sphericalYUp": 50.0,
      "sphericalYDown": 50.0,
      "autoTurnStartMin": 50.0,
      "autoTurnStartMax": 40.0,
      "autoTurnEndMin": 100.0,
      "autoTurnEndMax": 145.0,
      "enterShape": "CircleLockEnemyR50H30HC",
      "exitShape": "CircleLockEnemyR50H30HC",
      "enableHandleResetBackward": true,
      "dieDelayExitTime": 0.009999999776482582,
      "blendDuration": 1.5,
      "CIJLABMEGDC": 13
    }
  }
}
