{
  "common": {
    "effectAttachShape": {
      "$type": "FJNPJANPGGC",
      "mesh": "EffectMesh"
    },
    "mass": 10000.0,
    "height": 1.5,
    "viewSize": 0.5,
    "affectedByWorld": true,
    "checkInSurface": true,
    "useGrassDisplacement": true,
    "clearAIOnSetLightDeactive": true,
    "reconnectSupport": true,
    "recoverByInitPose": true
  },
  "headControl": {
    "$type": "KPIPDEBDPIH",
    "useHeadControl": true,
    "maxYawDegree": 45.0,
    "maxPitchDegree": 10.0,
    "speed": 2.0
  },
  "model": {
    "bornEffect": "Eff_Monster_Common_Born",
    "attachEffect": "",
    "BKPFGNPLDNJ": ""
  },
  "dither": {
    "showDitherDuration": 2.0
  },
  "combat": {
    "property": {
      "endureType": "Monster_Minion",
      "weight": 80.0
    },
    "beHit": {
      "hitBloodEffect": ""
    },
    "combatLock": {
      "lockShape": "CircleLockEnemy",
      "lockType": "Avatar&Monster_Lv4"
    },
    "die": {
      "hasAnimatorDie": true,
      "dieEndTime": 0.30000001192092896,
      "dieForceDisappearTime": 1.2000000476837158,
      "dieDisappearEffect": "Eff_Death_Common_Animal",
      "muteHitBox": true,
      "dieDenyLockOn": true,
      "dieIsGhostToEnemy": true,
      "dieIgnoreTriggerBullet": true,
      "muteBillboard": true,
      "mutePushCollider": true
    },
    "animEvents": {
      "AtkNo": {
        "attackPattern": {
          "$type": "ConfigAttackCircle",
          "triggerType": "TriggerNoRepeat",
          "born": {
            "$type": "ConfigBornBySelf",
            "offset": {
              "x": 0.0,
              "y": 0.0,
              "z": -0.5
            }
          },
          "fanAngle": 60.0,
          "radius": 1.5
        },
        "attackInfo": {
          "attackTag": "",
          "attenuationTag": "",
          "attenuationGroup": "default",
          "attackProperty": {
            "actorGrassSubHurtDelta": 0.5,
            "actorWindSubHurtDelta": 0.0,
            "elementDurability": 100.0,
            "strikeType": "Blunt",
            "attackType": "Melee",
            "GLKMCMDJBIK": 0.0
          },
          "hitPattern": {
            "onHitEffectName": "default",
            "hitImpulseY": "",
            "hitImpulseType": "LV2",
            "hitHaltTimeScale": 0.009999999776482582
          }
        }
      },
      "Atk01_1": {
        "attackPattern": {
          "$type": "ConfigAttackCircle",
          "triggerType": "TriggerNoRepeat",
          "born": {
            "$type": "ConfigBornBySelf",
            "offset": {
              "x": 0.0,
              "y": 0.0,
              "z": 0.0
            }
          },
          "height": 1.0,
          "fanAngle": 90.0,
          "radius": 1.5
        },
        "attackInfo": {
          "attackTag": "",
          "attenuationTag": "",
          "attenuationGroup": "default",
          "attackProperty": {
            "actorGrassSubHurtDelta": 0.6000000238418579,
            "actorWindSubHurtDelta": 0.0,
            "elementDurability": 100.0,
            "strikeType": "Blunt",
            "enBreak": 60.0,
            "attackType": "Melee",
            "GLKMCMDJBIK": 0.0
          },
          "hitPattern": {
            "onHitEffectName": "default",
            "hitImpulseY": "",
            "hitImpulseType": "LV3",
            "hitHaltTimeScale": 0.009999999776482582
          }
        }
      },
      "Atk01_2": {
        "attackPattern": {
          "$type": "ConfigAttackCircle",
          "triggerType": "TriggerNoRepeat",
          "born": {
            "$type": "ConfigBornBySelf",
            "offset": {
              "x": 0.0,
              "y": 0.0,
              "z": 0.0
            }
          },
          "height": 1.0,
          "fanAngle": 90.0,
          "radius": 1.5
        },
        "attackInfo": {
          "attackTag": "",
          "attenuationTag": "",
          "attenuationGroup": "default",
          "attackProperty": {
            "actorGrassSubHurtDelta": 0.4000000059604645,
            "actorWindSubHurtDelta": 0.0,
            "elementDurability": 100.0,
            "strikeType": "Blunt",
            "enBreak": 60.0,
            "attackType": "Melee",
            "GLKMCMDJBIK": 0.0
          },
          "hitPattern": {
            "onHitEffectName": "default",
            "hitImpulseY": "",
            "hitImpulseType": "LV4",
            "hitHaltTimeScale": 0.009999999776482582
          }
        }
      }
    }
  },
  "abilities": [
    {
      "abilityID": "",
      "abilityName": "Monster_Scorpion_None_SteerAttack",
      "abilityOverride": ""
    },
    {
      "abilityID": "",
      "abilityName": "Monster_Scorpion_None_Personality1",
      "abilityOverride": ""
    },
    {
      "abilityID": "",
      "abilityName": "Monster_Scorpion_None_SitState",
      "abilityOverride": ""
    },
    {
      "abilityID": "",
      "abilityName": "Monster_Scorpion_None_SleepState",
      "abilityOverride": ""
    }
  ],
  "stateLayers": {
    "defaultLayer": {
      "$type": "GBGJJIIEMBD",
      "layerIndexName": "",
      "CPAANEIJCGD": "",
      "stateIDs": {
        "NormalIdle": {
          "$type": "NEDIFAKEGCO",
          "animatorStates": {
            "Standby": [],
            "Born": []
          },
          "canDoSkill": true,
          "canSyncMove": true,
          "resetAnimatorTriggerOnExit": ["DoSkill"]
        },
        "Sit": {
          "$type": "NEDIFAKEGCO",
          "animatorStates": {
            "Sit": []
          },
          "canDoSkill": true,
          "canSyncMove": true,
          "resetAnimatorTriggerOnExit": ["DoSkill"]
        },
        "Lying": {
          "$type": "NEDIFAKEGCO",
          "animatorStates": {
            "Lying": []
          },
          "canDoSkill": true,
          "canSyncMove": true,
          "resetAnimatorTriggerOnExit": ["DoSkill"]
        },
        "Run": {
          "$type": "NEDIFAKEGCO",
          "animatorStates": {
            "Run": ["Audio_Monster_Scorpion_Run_Loop"]
          },
          "canDoSkill": true,
          "canSyncMove": true,
          "resetAnimatorTriggerOnExit": ["DoSkill"],
          "canSteer": true
        },
        "WalkForward": {
          "$type": "NEDIFAKEGCO",
          "animatorStates": {
            "WalkForward": ["Audio_Monster_Scorpion_Run_walk_Loop"]
          },
          "canDoSkill": true,
          "canSyncMove": true,
          "resetAnimatorTriggerOnExit": ["DoSkill"],
          "canSteer": true
        },
        "WalkBack": {
          "$type": "NEDIFAKEGCO",
          "animatorStates": {
            "WalkBack": ["Audio_Monster_Scorpion_Run_walk_Loop"]
          },
          "canDoSkill": true,
          "canSyncMove": true,
          "resetAnimatorTriggerOnExit": ["DoSkill"],
          "canSteer": true
        },
        "WalkLeft": {
          "$type": "NEDIFAKEGCO",
          "animatorStates": {
            "WalkLeft": ["Audio_Monster_Scorpion_Run_walk_Loop"]
          },
          "canDoSkill": true,
          "canSyncMove": true,
          "resetAnimatorTriggerOnExit": ["DoSkill"],
          "canSteer": true
        },
        "WalkRight": {
          "$type": "NEDIFAKEGCO",
          "animatorStates": {
            "WalkRight": ["Audio_Monster_Scorpion_Run_walk_Loop"]
          },
          "canDoSkill": true,
          "canSyncMove": true,
          "resetAnimatorTriggerOnExit": ["DoSkill"],
          "canSteer": true
        },
        "Turn": {
          "$type": "NEDIFAKEGCO",
          "animatorStates": {
            "Turn": ["Audio_Monster_Scorpion_Run_walk_Loop"]
          },
          "canDoSkill": true,
          "canSyncMove": true,
          "resetAnimatorTriggerOnExit": ["DoSkill"],
          "canSteer": true
        },
        "BeHit": {
          "$type": "NEDIFAKEGCO",
          "animatorStates": {
            "Hit_L": ["Audio_Monster_Scorpion_Hit_L"]
          },
          "resetAnimatorTriggerOnEnter": ["BeHit"],
          "resetAnimatorTriggerOnExit": ["DoSkill"]
        },
        "Die": {
          "$type": "NEDIFAKEGCO",
          "animatorStates": {
            "Die": ["Audio_Monster_Scorpion_Die"],
            "Lying_Die": []
          }
        },
        "Personality1": {
          "$type": "NEDIFAKEGCO",
          "animatorStates": {
            "Personality1": ["Audio_Monster_Scorpion_Personality1"]
          },
          "canDoSkill": true,
          "resetAnimatorTriggerOnExit": ["BeHit", "DoSkill"]
        },
        "Personality2": {
          "$type": "NEDIFAKEGCO",
          "animatorStates": {
            "Personality2": ["Audio_Monster_Scorpion_Personality2"]
          },
          "canDoSkill": true,
          "resetAnimatorTriggerOnExit": ["BeHit", "DoSkill"]
        },
        "Alert": {
          "$type": "NEDIFAKEGCO",
          "animatorStates": {
            "Alert": ["Audio_Monster_Scorpion_Alert"]
          },
          "resetAnimatorTriggerOnExit": ["BeHit", "DoSkill"]
        },
        "Sit_Alert_BS": {
          "$type": "NEDIFAKEGCO",
          "animatorStates": {
            "Sit_Alert_BS": ["Audio_Monster_Scorpion_SitAlert"]
          },
          "resetAnimatorTriggerOnExit": ["BeHit", "DoSkill"]
        },
        "Sit_Alert_AS": {
          "$type": "NEDIFAKEGCO",
          "animatorStates": {
            "Sit_Alert_AS": []
          },
          "resetAnimatorTriggerOnExit": ["BeHit", "DoSkill"]
        },
        "Sleep_Alert_BS": {
          "$type": "NEDIFAKEGCO",
          "animatorStates": {
            "Sleep_Alert_BS": ["Audio_Monster_Scorpion_SleepAlert"]
          },
          "resetAnimatorTriggerOnExit": ["BeHit", "DoSkill"]
        },
        "Sleep_Alert_AS": {
          "$type": "NEDIFAKEGCO",
          "animatorStates": {
            "Sleep_Alert_AS": []
          },
          "resetAnimatorTriggerOnExit": ["BeHit", "DoSkill"]
        },
        "Attack_01": {
          "$type": "NEDIFAKEGCO",
          "animatorStates": {
            "Attack_01": [
              "Monster_Scorpion_None_Attack01",
              "Audio_Monster_Scorpion_Attack01"
            ]
          },
          "resetAnimatorTriggerOnExit": ["BeHit", "DoSkill"],
          "canSteer": true
        },
        "Flee": {
          "$type": "NEDIFAKEGCO",
          "animatorStates": {
            "Flee": ["Audio_Monster_Scorpion_Flee"]
          },
          "resetAnimatorTriggerOnExit": ["BeHit", "DoSkill"],
          "canSteer": true
        }
      }
    }
  },
  "billboard": {
    "$type": "DNGNMAJBCNP",
    "attachPoint": "BillboardAttach",
    "offset": {
      "x": 0.20000000298023224,
      "y": 0.20000000298023224
    },
    "offsetType": "Character",
    "radiusOffset": 0.25,
    "showHPBar": true
  },
  "initialPoses": {
    "Default": {
      "initialPoseID": 1
    },
    "Sit": {
      "initialPoseID": 2,
      "initialPoseParams": {
        "boolParams": {
          "Sit": "true"
        }
      }
    },
    "Sleep": {
      "initialPoseID": 3,
      "initialPoseParams": {
        "boolParams": {
          "Sleep": "true"
        }
      }
    },
    "Sit_Sensitive": {
      "initialPoseID": 4,
      "initialPoseParams": {
        "boolParams": {
          "Sit_Sensitive": "true"
        }
      }
    }
  },
  "aibeta": {
    "enable": true,
    "moveSetting": {
      "navMeshAgentName": "Undead01"
    },
    "sensing": {
      "settings": {
        "HighSensingForUnderGround": {
          "viewRange": 12.0,
          "feelRange": 12.0
        },
        "LowSensingForUnderGround": {
          "viewRange": 6.0,
          "feelRange": 6.0
        },
        "DefaultSetting": {
          "viewRange": 6.0,
          "feelRange": 2.0
        },
        "NoSensing": {
          "viewRange": 0.0,
          "feelRange": 0.0
        },
        "LowSensing": {
          "viewRange": 6.0,
          "feelRange": 2.0
        },
        "HighSensing": {
          "viewRange": 12.0,
          "feelRange": 4.0
        }
      },
      "templates": {
        "DefaultTemplate": {
          "DefaultPoses": "DefaultSetting",
          "2": "LowSensingForUnderGround",
          "3": "NoSensing",
          "4": "HighSensingForUnderGround"
        },
        "NoSensing": {
          "DefaultPoses": "NoSensing",
          "2": "LowSensingForUnderGround",
          "3": "NoSensing",
          "4": "HighSensingForUnderGround"
        },
        "LowSensing": {
          "DefaultPoses": "LowSensing",
          "2": "LowSensingForUnderGround",
          "3": "NoSensing",
          "4": "HighSensingForUnderGround"
        },
        "HighSensing": {
          "DefaultPoses": "HighSensing",
          "2": "LowSensingForUnderGround",
          "3": "NoSensing",
          "4": "HighSensingForUnderGround"
        }
      }
    },
    "threat": {
      "GHIJMOKOLMB": "",
      "clearThreatTargetDistance": 35.0,
      "clearThreatEdgeDistance": 35.0,
      "clearThreatByLostPath": true,
      "clearThreatByTargetOutOfZone": true,
      "clearThreatTimerByDistance": 2.0,
      "clearThreatTimerByLostPath": 35.0,
      "viewAttenuation": [
        {
          "x": 10.0,
          "y": 2.0
        },
        {
          "x": 20.0,
          "y": 1.0
        },
        {
          "x": 30.0,
          "y": 0.5
        },
        {
          "x": 50.0,
          "y": 0.10000000149011612
        }
      ]
    },
    "defendArea": {},
    "skillGroupCDConfigs": [
      {
        "skillGroupCDID": 2,
        "skillGroupCDTime": 20.0
      },
      {
        "skillGroupCDID": 3,
        "skillGroupCDTime": 2.0
      }
    ],
    "skills": {
      "101": {
        "name": "OnAlert",
        "skillType": "OnAlert",
        "faceTarget": true,
        "castCondition": {
          "pose": [1]
        },
        "publicCDGroup": "",
        "ignoreGCD": true,
        "triggerGCD": false,
        "HHAGODJIAPE": "",
        "stateIDs": ["Alert"],
        "skillQueryingTime": 3.0,
        "flagTargetReachable": "10",
        "flagSelfOnTemplateCollider": "01",
        "flagSelfInZone": "10",
        "flagTargetInZone": "11"
      },
      "111": {
        "name": "Sit_Alert",
        "skillType": "OnAlert",
        "faceTarget": true,
        "castCondition": {
          "pose": [2, 4]
        },
        "publicCDGroup": "",
        "ignoreGCD": true,
        "triggerGCD": false,
        "HHAGODJIAPE": "",
        "stateIDs": ["Sit_Alert_BS", "Sit_Alert_AS"],
        "skillQueryingTime": 3.0,
        "flagTargetReachable": "10",
        "flagSelfOnTemplateCollider": "01",
        "flagSelfInZone": "10",
        "flagTargetInZone": "11"
      },
      "121": {
        "name": "Sleep_Alert",
        "skillType": "OnAlert",
        "faceTarget": true,
        "castCondition": {
          "pose": [3]
        },
        "publicCDGroup": "",
        "ignoreGCD": true,
        "triggerGCD": false,
        "HHAGODJIAPE": "",
        "stateIDs": ["Sleep_Alert_BS", "Sleep_Alert_AS"],
        "skillQueryingTime": 3.0,
        "flagTargetReachable": "10",
        "flagSelfOnTemplateCollider": "01",
        "flagSelfInZone": "10",
        "flagTargetInZone": "11"
      },
      "201": {
        "name": "Personality1",
        "skillType": "Free",
        "priority": 6,
        "castCondition": {
          "pose": [1]
        },
        "cd": 15.0,
        "cdUpperRange": 10.0,
        "initialCD": 2.5,
        "initialCDUpperRange": 5.0,
        "publicCDGroup": "",
        "skillGroupCDID": 2,
        "HHAGODJIAPE": "",
        "stateIDs": ["Personality1"],
        "flagTargetReachable": "10",
        "flagSelfOnTemplateCollider": "01",
        "flagSelfInZone": "10",
        "flagTargetInZone": "11"
      },
      "211": {
        "name": "Personality2",
        "skillType": "Free",
        "priority": 6,
        "castCondition": {
          "pose": [1]
        },
        "cd": 20.0,
        "cdUpperRange": 10.0,
        "initialCD": 8.5,
        "initialCDUpperRange": 5.0,
        "publicCDGroup": "",
        "skillGroupCDID": 2,
        "HHAGODJIAPE": "",
        "stateIDs": ["Personality2"],
        "flagTargetReachable": "10",
        "flagSelfOnTemplateCollider": "01",
        "flagSelfInZone": "10",
        "flagTargetInZone": "11"
      },
      "601": {
        "name": "RangedAttack1",
        "combatSkillType": "RangedAttack",
        "enableSkillPrepare": true,
        "skillPrepareTimeout": 8.0,
        "skillPrepareGiveUp": true,
        "castCondition": {
          "pose": [101],
          "maxTargetAngleXZ": 90.0,
          "pickRangeMax": 8.0,
          "castRangeMax": 2.0
        },
        "cd": 9.0,
        "cdUpperRange": 1.0,
        "publicCDGroup": "",
        "HHAGODJIAPE": "",
        "stateIDs": ["Attack_01"],
        "flagTargetReachable": "11",
        "flagSelfOnTemplateCollider": "11",
        "flagSelfInZone": "11",
        "flagTargetInZone": "11"
      },
      "611": {
        "name": "Flee",
        "castCondition": {
          "pose": [106]
        },
        "cd": 999999.0,
        "publicCDGroup": "",
        "ignoreGCD": true,
        "triggerGCD": false,
        "HHAGODJIAPE": "",
        "stateIDs": ["Flee"],
        "flagTargetReachable": "11",
        "flagSelfOnTemplateCollider": "11",
        "flagSelfInZone": "11",
        "flagTargetInZone": "11"
      }
    },
    "skillGCD": 7.0,
    "birdCirclingTactic": [
      {
        "$type": "EPHBMLFODKF",
        "enable": true,
        "condition": {
          "pose": [101]
        },
        "JMCOBEPDIGM": {
          "rangeMax": 7.0,
          "JOJBOHEDBHC": 3.0,
          "ALIBHHJHHMN": 1.5,
          "BFJBDDIIFOI": {
            "LLICGJHIGME": 0.20000000298023224,
            "IDEFILBHNAP": 0.20000000298023224,
            "IBLIPJPNOGC": 0.4000000059604645
          },
          "NAOBMNGDKHL": "1111",
          "JCNIJOAIGII": "1111",
          "MNPDDAKDHGK": ""
        }
      },
      {
        "$type": "ODHNBPJLGHF",
        "enable": true,
        "condition": {
          "pose": [105]
        },
        "JMCOBEPDIGM": {
          "NBENNEKDIIA": 1.5,
          "cd": 0.0,
          "triggerDistance": 100.0,
          "EMNPEHPCDLB": 4,
          "CMDFDIPMGKI": 8,
          "KAIGBDPLNMO": 8.0,
          "BMIEPFCPFGN": 16.0,
          "MNPDDAKDHGK": ""
        }
      },
      {
        "$type": "KACCHOLJDNK",
        "enable": true,
        "condition": {
          "pose": [101]
        },
        "JMCOBEPDIGM": {
          "NBENNEKDIIA": 1.0,
          "KHDFDAAAPEI": 8.0,
          "HKJODDGJPHA": 50.0,
          "GGEBMFHFBPO": 3.0,
          "KFFGCIMPNMJ": 4.0,
          "MNPDDAKDHGK": ""
        }
      },
      {
        "$type": "NNJKLGNPMNN",
        "enable": true,
        "condition": {
          "pose": [1, 2, 3, 4, 101, 105]
        },
        "JMCOBEPDIGM": {
          "MNPDDAKDHGK": "",
          "GJDMDHIBCME": ""
        }
      },
      {
        "$type": "FPELBIJFGCE",
        "enable": true,
        "condition": {
          "pose": [1]
        },
        "JMCOBEPDIGM": {
          "NBENNEKDIIA": 0.30000001192092896,
          "KPNDPKIOPJM": 16.0,
          "PINAFKEDDLL": 8.0,
          "ANMPOPEBDIA": 20.0,
          "GMJFIMFFOEL": 6.0,
          "MNPDDAKDHGK": ""
        }
      }
    ]
  },
  "inputKeys": [
    {
      "keyID": 201,
      "inputKeyCode": 257,
      "abilityName": ""
    },
    {
      "keyID": 211,
      "inputKeyCode": 258,
      "abilityName": ""
    },
    {
      "keyID": 601,
      "inputKeyCode": 259,
      "abilityName": ""
    },
    {
      "keyID": 111,
      "inputKeyCode": 260,
      "abilityName": ""
    },
    {
      "keyID": 121,
      "inputKeyCode": 261,
      "abilityName": ""
    }
  ],
  "move": {
    "$type": "IPNMJMHDMPF",
    "velocityForce": {
      "excludeForces": ["RetreatAirType"]
    },
    "facingMove": "FourDirection",
    "yawSpeedRatio": 1.0,
    "PKHOMJHFAEE": "RootNode"
  },
  "audio": {
    "overrideEmitterName": "",
    "animAudio": {
      "onTransitionIn": [
        {
          "currentStateName": "WalkForward",
          "audioEvent": {
            "text": "Play_sfx_monster_Scorpion_run_walk_Loop"
          },
          "otherStateNames": ["WalkForward"],
          "usage": "Except"
        },
        {
          "currentStateName": "Run",
          "audioEvent": {
            "text": "Play_sfx_monster_Scorpion_run_Loop"
          },
          "otherStateNames": ["Run"],
          "usage": "Except"
        },
        {
          "currentStateName": "WalkBack",
          "audioEvent": {
            "text": "Play_sfx_monster_Scorpion_run_walk_Loop"
          },
          "otherStateNames": ["WalkBack"],
          "usage": "Except"
        },
        {
          "currentStateName": "WalkLeft",
          "audioEvent": {
            "text": "Play_sfx_monster_Scorpion_run_walk_Loop"
          },
          "otherStateNames": ["WalkLeft"],
          "usage": "Except"
        },
        {
          "currentStateName": "WalkRight",
          "audioEvent": {
            "text": "Play_sfx_monster_Scorpion_run_walk_Loop"
          },
          "otherStateNames": ["WalkRight"],
          "usage": "Except"
        },
        {
          "currentStateName": "Turn",
          "audioEvent": {
            "text": "Play_sfx_monster_Scorpion_run_walk_Loop"
          },
          "otherStateNames": ["Turn"],
          "usage": "Except"
        }
      ],
      "onTransitionOut": [
        {
          "currentStateName": "WalkForward",
          "audioEvent": {
            "text": "Stop_sfx_monster_Scorpion_run_walk_Loop"
          },
          "otherStateNames": ["WalkForward"],
          "usage": "Except"
        },
        {
          "currentStateName": "Run",
          "audioEvent": {
            "text": "Stop_sfx_monster_Scorpion_run_Loop"
          },
          "otherStateNames": ["Run"],
          "usage": "Except"
        },
        {
          "currentStateName": "WalkBack",
          "audioEvent": {
            "text": "Stop_sfx_monster_Scorpion_run_walk_Loop"
          },
          "otherStateNames": ["WalkBack"],
          "usage": "Except"
        },
        {
          "currentStateName": "WalkLeft",
          "audioEvent": {
            "text": "Stop_sfx_monster_Scorpion_run_walk_Loop"
          },
          "otherStateNames": ["WalkLeft"],
          "usage": "Except"
        },
        {
          "currentStateName": "WalkRight",
          "audioEvent": {
            "text": "Stop_sfx_monster_Scorpion_run_walk_Loop"
          },
          "otherStateNames": ["WalkRight"],
          "usage": "Except"
        },
        {
          "currentStateName": "Turn",
          "audioEvent": {
            "text": "Stop_sfx_monster_Scorpion_run_walk_Loop"
          },
          "otherStateNames": ["Turn"],
          "usage": "Except"
        }
      ]
    }
  }
}
