{
  "common": {
    "effectAttachShape": {
      "$type": "FJNPJANPGGC",
      "mesh": "EffectMesh"
    },
    "mass": 10000.0,
    "height": 2.4000000953674316,
    "modelHeight": 2.5999999046325684,
    "viewSize": 2.0,
    "affectedByWorld": true,
    "checkInSurface": true,
    "useGrassDisplacement": true
  },
  "headControl": {
    "$type": "KPIPDEBDPIH",
    "useHeadControl": true,
    "maxYawDegree": 20.0,
    "maxPitchDegree": 5.0,
    "animStates": [
      "NormalIdle/Standby",
      "NormalMove/WalkForward",
      "NormalMove/WalkBack",
      "NormalMove/WalkRight",
      "NormalMove/WalkLeft",
      "NormalMove/WalkFree",
      "TurnLeft/TurnLeft",
      "TurnRight/TurnRight"
    ]
  },
  "model": {
    "bornEffect": "Eff_Monster_Common_Born",
    "attachEffect": "",
    "BKPFGNPLDNJ": ""
  },
  "dither": {
    "showDitherDuration": 1.0
  },
  "combat": {
    "property": {
      "endureType": "Monster_Demiboss_Humanoid",
      "weight": 150.0
    },
    "beHit": {
      "hitBloodEffect": ""
    },
    "combatLock": {
      "lockShape": "CircleLockEnemy",
      "lockType": "Avatar&Monster_Lv4"
    },
    "die": {
      "hasAnimatorDie": true,
      "dieEndTime": 2.5,
      "dieForceDisappearTime": 5.0,
      "dieDisappearEffect": "Eff_Death_Avatar_Common",
      "dieShaderData": "AvatarDie",
      "useRagDoll": true,
      "ragDollDieEndTimeDelay": 1.0,
      "muteHitBox": true,
      "dieDenyLockOn": true,
      "dieIsGhostToEnemy": true,
      "dieIgnoreTriggerBullet": true,
      "muteBillboard": true,
      "mutePushCollider": true
    },
    "animEvents": {
      "MeleeAtk": {
        "attackPattern": {
          "$type": "ConfigAttackBox",
          "triggerType": "TriggerNoRepeat",
          "ignoreMassive": true,
          "born": {
            "$type": "ConfigBornBySelf",
            "offset": {
              "x": 0.0,
              "y": 1.5,
              "z": 0.0
            }
          },
          "size": {
            "x": 2.0,
            "y": 2.5,
            "z": 3.5
          }
        },
        "attackInfo": {
          "attackTag": "",
          "attenuationTag": "",
          "attenuationGroup": "default",
          "attackProperty": {
            "actorGrassSubHurtDelta": 1.0,
            "actorWindSubHurtDelta": 0.0,
            "elementDurability": 100.0,
            "strikeType": "Blunt",
            "enBreak": 100.0,
            "attackType": "Melee",
            "GLKMCMDJBIK": 0.0
          },
          "hitPattern": {
            "onHitEffectName": "default",
            "hitImpulseY": "",
            "hitImpulseType": "LV5",
            "canBeDefenceHalt": true
          },
          "forceCameraShake": true,
          "cameraShake": {
            "shakeType": "CustomVector",
            "shakeRange": 0.5,
            "shakeTime": 0.30000001192092896,
            "shakeDistance": 30.0,
            "shakeDir": {
              "y": 1.0,
              "z": 1.0
            },
            "extension": {
              "baseCycle": 0.4000000059604645,
              "cycleDamping": 0.0,
              "rangeAttenuation": 0.20000000298023224
            }
          }
        }
      }
    }
  },
  "equipController": {
    "sheathPoint": "",
    "attachPoints": {
      "equip01": "WeaponR",
      "equip02": "BackPack"
    }
  },
  "abilities": [
    {
      "abilityID": "Monster_Skirmisher_Male_Fat_SprayGun_Water_Steer",
      "abilityName": "Monster_Skirmisher_Male_Fat_SprayGun_Water_Steer",
      "abilityOverride": ""
    },
    {
      "abilityID": "Monster_Skirmisher_Male_Fat_SprayGun_Water_Improve",
      "abilityName": "Monster_Skirmisher_Male_Fat_SprayGun_Water_Improve",
      "abilityOverride": ""
    },
    {
      "abilityID": "Monster_Skirmisher_Male_Fat_SprayGun_Water_Weak",
      "abilityName": "Monster_Skirmisher_Male_Fat_SprayGun_Water_Weak",
      "abilityOverride": ""
    },
    {
      "abilityID": "Monster_Skirmisher_Male_Fat_SprayGun_Water_RocketJump",
      "abilityName": "Monster_Skirmisher_Male_Fat_SprayGun_Water_RocketJump",
      "abilityOverride": ""
    },
    {
      "abilityID": "Monster_Skirmisher_Male_Fat_SprayGun_Water_HealingWave",
      "abilityName": "Monster_Skirmisher_Male_Fat_SprayGun_Water_HealingWave",
      "abilityOverride": ""
    },
    {
      "abilityID": "Monster_Skirmisher_Male_Fat_SprayGun_Water_DamageWave",
      "abilityName": "Monster_Skirmisher_Male_Fat_SprayGun_Water_DamageWave",
      "abilityOverride": ""
    },
    {
      "abilityID": "Monster_Skirmisher_Male_Fat_SprayGun_Water_ImprovedHealingWave",
      "abilityName": "Monster_Skirmisher_Male_Fat_SprayGun_Water_ImprovedHealingWave",
      "abilityOverride": ""
    },
    {
      "abilityID": "Monster_Skirmisher_Male_Fat_SprayGun_Water_SprayGunAlert",
      "abilityName": "Monster_Skirmisher_Male_Fat_SprayGun_Water_SprayGunAlert",
      "abilityOverride": ""
    },
    {
      "abilityID": "Monster_Skirmisher_Male_Fat_SprayGun_Water_BackPackAlert",
      "abilityName": "Monster_Skirmisher_Male_Fat_SprayGun_Water_BackPackAlert",
      "abilityOverride": ""
    },
    {
      "abilityID": "Monster_Skirmisher_Male_Fat_SprayGun_Water_EyeAlert",
      "abilityName": "Monster_Skirmisher_Male_Fat_SprayGun_Water_EyeAlert",
      "abilityOverride": ""
    },
    {
      "abilityID": "Monster_Skirmisher_Male_Fat_SprayGun_Water_WeaponSpecialElementState",
      "abilityName": "Monster_Skirmisher_Male_Fat_SprayGun_Water_WeaponSpecialElementState",
      "abilityOverride": ""
    },
    {
      "abilityID": "Monster_Skirmisher_Male_Fat_SprayGun_Water_Die",
      "abilityName": "Monster_Skirmisher_Male_Fat_SprayGun_Water_Die",
      "abilityOverride": ""
    },
    {
      "abilityID": "PreCombatReset",
      "abilityName": "Monster_Skirmisher_Rifle_Fire_PreCombatRecover",
      "abilityOverride": ""
    },
    {
      "abilityID": "EatEffect",
      "abilityName": "Monster_Skirmisher_Male_Fat_EatEffect",
      "abilityOverride": ""
    }
  ],
  "stateLayers": {
    "defaultLayer": {
      "$type": "GBGJJIIEMBD",
      "layerIndexName": "",
      "CPAANEIJCGD": "",
      "stateIDs": {
        "NormalIdle": {
          "$type": "NEDIFAKEGCO",
          "animatorStates": {
            "Standby": [],
            "Born": []
          },
          "canDoSkill": true,
          "canSyncMove": true,
          "resetAnimatorTriggerOnExit": ["DoSkill"]
        },
        "NormalMove": {
          "$type": "NEDIFAKEGCO",
          "animatorStates": {
            "WalkForward": ["Audio_Monster_SprayGun_Water_Footstep_Walk"],
            "WalkBack": ["Audio_Monster_SprayGun_Water_Footstep_Walk"],
            "WalkRight": ["Audio_Monster_SprayGun_Water_Footstep_Walk"],
            "WalkLeft": ["Audio_Monster_SprayGun_Water_Footstep_Walk"],
            "WalkFree": ["Audio_Monster_SprayGun_Water_Footstep_Walk"]
          },
          "canDoSkill": true,
          "canSyncMove": true,
          "resetAnimatorTriggerOnExit": ["DoSkill"],
          "canSteer": true
        },
        "Turn": {
          "$type": "NEDIFAKEGCO",
          "animatorStates": {
            "TurnLeft": ["Audio_Monster_SprayGun_Water_Footstep_Walk"],
            "TurnRight": ["Audio_Monster_SprayGun_Water_Footstep_Walk"]
          },
          "canDoSkill": true,
          "canSyncMove": true,
          "resetAnimatorTriggerOnExit": ["DoSkill"],
          "canSteer": true
        },
        "BeHit": {
          "$type": "NEDIFAKEGCO",
          "animatorStates": {
            "Hit_L": ["Audio_Monster_SprayGun_Water_Hit_L"],
            "Hit_H": ["Audio_Monster_SprayGun_Water_Hit_H"]
          },
          "resetAnimatorTriggerOnEnter": ["BeHit"],
          "resetAnimatorTriggerOnExit": ["DoSkill"]
        },
        "BeHitThrow": {
          "$type": "NEDIFAKEGCO",
          "animatorStates": {
            "HitThrow": [],
            "HitThrowDrop": [],
            "HitThrowToGround": [
              "Audio_Monster_SprayGun_Water_HitThrowToGround"
            ]
          },
          "resetAnimatorTriggerOnEnter": ["BeHit", "HitAir2HitDrop"],
          "resetAnimatorTriggerOnExit": ["DoSkill"]
        },
        "Struggle": {
          "$type": "NEDIFAKEGCO",
          "animatorStates": {
            "Struggle": []
          },
          "resetAnimatorTriggerOnEnter": ["BeHit", "HitAir2HitDrop"],
          "resetAnimatorTriggerOnExit": ["DoSkill"]
        },
        "Die": {
          "$type": "NEDIFAKEGCO",
          "animatorStates": {
            "Die1": [
              "Skirmisher_Male_Fat_SprayGun_Water_Die",
              "Audio_Monster_SprayGun_Water_Die"
            ],
            "Die2": [
              "Skirmisher_Male_Fat_SprayGun_Water_Die",
              "Audio_Monster_SprayGun_Water_Die"
            ],
            "SwimDie": ["Skirmisher_Male_Fat_SprayGun_Water_Die"],
            "SwimDie_AS": []
          }
        },
        "Die_RagDoll": {
          "$type": "NEDIFAKEGCO",
          "animatorStates": {
            "AirDie": []
          },
          "enableRagDoll": true
        },
        "Alert": {
          "$type": "NEDIFAKEGCO",
          "animatorStates": {
            "Alert": [
              "Skirmisher_Male_Fat_SprayGun_Ice_Alert",
              "Audio_Monster_SprayGun_Water_Alert"
            ]
          },
          "resetAnimatorTriggerOnExit": ["BeHit", "DoSkill"],
          "canSteer": true
        },
        "ShowWeapon": {
          "$type": "NEDIFAKEGCO",
          "animatorStates": {
            "ShowWeapon": [
              "Skirmisher_Male_Fat_SprayGun_Ice_Alert",
              "Skirmisher_Male_Fat_SprayGun_PreCombat",
              "Audio_Monster_SprayGun_Water_Alert"
            ]
          },
          "resetAnimatorTriggerOnExit": ["BeHit", "DoSkill"],
          "canSteer": true
        },
        "Improve": {
          "$type": "NEDIFAKEGCO",
          "animatorStates": {
            "Improve": [
              "Skirmisher_Male_Fat_SprayGun_Water_Improve",
              "Audio_Monster_SprayGun_Water_Improve"
            ]
          },
          "addEndure": 0.0,
          "massRatio": 20.0,
          "resetAnimatorTriggerOnEnter": ["ForceImprove"],
          "resetAnimatorTriggerOnExit": ["BeHit", "DoSkill", "ForceImprove"]
        },
        "RocketJump": {
          "$type": "NEDIFAKEGCO",
          "animatorStates": {
            "RocketJump": [
              "Skirmisher_Male_Fat_SprayGun_Water_RockJump",
              "Audio_Monster_SprayGun_Water_RocketJump"
            ]
          },
          "addEndure": 0.0,
          "massRatio": 20.0,
          "resetAnimatorTriggerOnExit": ["BeHit", "DoSkill"],
          "canSteer": true
        },
        "MeleeAtk": {
          "$type": "NEDIFAKEGCO",
          "animatorStates": {
            "MeleeAtk": [
              "Skirmisher_Male_Fat_SprayGun_Water_MeleeAtk",
              "Audio_Monster_SprayGun_Water_MeleeAtk"
            ]
          },
          "massRatio": 20.0,
          "resetAnimatorTriggerOnExit": ["BeHit", "DoSkill"],
          "canSteer": true
        },
        "HealingWave_BS": {
          "$type": "NEDIFAKEGCO",
          "animatorStates": {
            "HealingWave_BS": [
              "Skirmisher_Male_Fat_SprayGun_Water_HealingWaveBS"
            ]
          },
          "resetAnimatorTriggerOnExit": ["BeHit", "DoSkill"],
          "canSteer": true
        },
        "HealingWave_AS": {
          "$type": "NEDIFAKEGCO",
          "animatorStates": {
            "HealingWave_AS": [
              "Skirmisher_Male_Fat_SprayGun_Water_HealingWaveAS",
              "Audio_Monster_SprayGun_Water_HealingWave_AS"
            ]
          },
          "resetAnimatorTriggerOnExit": ["BeHit", "DoSkill"],
          "canSteer": true
        },
        "DamageWave_BS": {
          "$type": "NEDIFAKEGCO",
          "animatorStates": {
            "DamageWave_BS": ["Skirmisher_Male_Fat_SprayGun_Water_DamageWaveBS"]
          },
          "resetAnimatorTriggerOnExit": ["BeHit", "DoSkill"],
          "canSteer": true
        },
        "DamageWave_AS": {
          "$type": "NEDIFAKEGCO",
          "animatorStates": {
            "DamageWave_AS": [
              "Skirmisher_Male_Fat_SprayGun_Water_DamageWaveAS",
              "Audio_Monster_SprayGun_Water_DamageWave_AS"
            ]
          },
          "resetAnimatorTriggerOnExit": ["BeHit", "DoSkill"],
          "canSteer": true
        },
        "ImprovedHealingWave_BS": {
          "$type": "NEDIFAKEGCO",
          "animatorStates": {
            "ImprovedHealingWave_BS": [
              "Skirmisher_Male_Fat_SprayGun_Water_HealingWaveBS"
            ]
          },
          "resetAnimatorTriggerOnExit": ["BeHit", "DoSkill"],
          "canSteer": true
        },
        "ImprovedHealingWave_AS": {
          "$type": "NEDIFAKEGCO",
          "animatorStates": {
            "ImprovedHealingWave_AS": [
              "Skirmisher_Male_Fat_SprayGun_Water_ImprovedHealingWaveAS",
              "Audio_Monster_SprayGun_Water_ImprovedHealingWave_AS"
            ]
          },
          "resetAnimatorTriggerOnExit": ["BeHit", "DoSkill"],
          "canSteer": true
        },
        "Weak": {
          "$type": "NEDIFAKEGCO",
          "animatorStates": {
            "Weak_BS": [
              "Skirmisher_Male_Fat_SprayGun_Water_Weak",
              "Audio_Monster_SprayGun_Water_Weak_BS"
            ],
            "WeakLoop": [],
            "Weak_AS": ["Audio_Monster_SprayGun_Water_Weak_AS"]
          },
          "addEndure": 0.009999999776482582,
          "massRatio": 20.0,
          "resetAnimatorTriggerOnEnter": ["WeakStart"],
          "resetAnimatorTriggerOnExit": [
            "BeHit",
            "DoSkill",
            "Recover",
            "WeakStart"
          ]
        },
        "Search": {
          "$type": "NEDIFAKEGCO",
          "animatorStates": {
            "Search": []
          },
          "canDoSkill": true,
          "resetAnimatorTriggerOnExit": ["BeHit", "DoSkill"]
        },
        "Practice": {
          "$type": "NEDIFAKEGCO",
          "animatorStates": {
            "Practice": []
          },
          "canDoSkill": true,
          "resetAnimatorTriggerOnExit": ["BeHit", "DoSkill"]
        },
        "Threat": {
          "$type": "NEDIFAKEGCO",
          "animatorStates": {
            "Threat": []
          },
          "canDoSkill": true,
          "resetAnimatorTriggerOnExit": ["BeHit", "DoSkill"]
        }
      }
    }
  },
  "billboard": {
    "$type": "DNGNMAJBCNP",
    "attachPoint": "BillboardAttach",
    "offset": {
      "x": -0.3499999940395355
    },
    "offsetType": "Character",
    "showDistance": 48.0,
    "showHPBar": true,
    "size": "Big"
  },
  "initialPoses": {
    "Default": {},
    "Search": {
      "initialPoseID": 9001,
      "initialPoseParams": {
        "boolParams": {
          "Search": "true"
        }
      }
    },
    "Practice": {
      "initialPoseID": 9011,
      "initialPoseParams": {
        "boolParams": {
          "Practice": "true"
        }
      }
    },
    "Threat": {
      "initialPoseID": 9014,
      "initialPoseParams": {
        "boolParams": {
          "Threat": "true"
        }
      }
    }
  },
  "aibeta": {
    "enable": true,
    "aiCombat": {
      "combatRole": "FIGHTER"
    },
    "buddySetting": {
      "enable": true,
      "buddyFeatureTagIDs": [4009]
    },
    "sensing": {
      "settings": {
        "DefaultSetting": {
          "viewRange": 25.0,
          "feelRange": 10.0
        },
        "CannonV42": {
          "viewRange": 10.0,
          "hearAttractionRange": 0.0,
          "feelRange": 0.0
        }
      },
      "templates": {
        "DefaultTemplate": {
          "DefaultPoses": "DefaultSetting"
        },
        "CannonV42": {
          "DefaultPoses": "CannonV42"
        }
      }
    },
    "neurons": {
      "DefaultSetting": ["HIT"]
    },
    "threat": {
      "GHIJMOKOLMB": "",
      "clearThreatByLostPath": true,
      "clearThreatTimerByLostPath": 11.0,
      "viewAttenuation": [
        {
          "x": 10.0,
          "y": 2.0
        },
        {
          "x": 15.0,
          "y": 0.800000011920929
        },
        {
          "x": 20.0,
          "y": 0.5
        },
        {
          "x": 25.0,
          "y": 0.30000001192092896
        },
        {
          "x": 30.0,
          "y": 0.20000000298023224
        }
      ],
      "resistTauntLevel": "Monster_TauntLevel_2"
    },
    "defendArea": {
      "defendRange": 50.0
    },
    "skillGroupCDConfigs": [
      {
        "skillGroupCDID": 0,
        "skillGroupCDTime": 15.0
      },
      {
        "skillGroupCDID": 1,
        "skillGroupCDTime": 5.0
      },
      {
        "skillGroupCDID": 2,
        "skillGroupCDTime": 15.0
      }
    ],
    "skillSetting": {
      "skillEliteSet": {
        "0": [401, 402, 403],
        "1": [404],
        "2": []
      }
    },
    "skills": {
      "1": {
        "name": "OnAlert",
        "skillType": "OnAlert",
        "faceTarget": true,
        "castCondition": {
          "pose": [9001, 9011, 9014]
        },
        "publicCDGroup": "",
        "ignoreGCD": true,
        "triggerGCD": false,
        "HHAGODJIAPE": "",
        "stateIDs": ["Alert", "ShowWeapon"],
        "skillQueryingTime": 3.0,
        "flagTargetReachable": "10",
        "flagSelfOnTemplateCollider": "01",
        "flagSelfInZone": "10",
        "flagTargetInZone": "11"
      },
      "2": {
        "name": "OnAlert",
        "skillType": "OnNerve",
        "faceTarget": true,
        "castCondition": {
          "pose": [1, 9001, 9011, 9014]
        },
        "publicCDGroup": "",
        "triggerGCD": false,
        "HHAGODJIAPE": "",
        "stateIDs": ["Alert"],
        "skillQueryingTime": 3.0,
        "flagTargetReachable": "10",
        "flagSelfOnTemplateCollider": "01",
        "flagSelfInZone": "10",
        "flagTargetInZone": "11",
        "nerveTrigger": ["HIT"]
      },
      "3": {
        "name": "OnAlert",
        "skillType": "OnAlert",
        "faceTarget": true,
        "castCondition": {
          "pose": [1]
        },
        "publicCDGroup": "",
        "ignoreGCD": true,
        "triggerGCD": false,
        "HHAGODJIAPE": "",
        "stateIDs": ["Alert"],
        "skillQueryingTime": 3.0,
        "flagTargetReachable": "10",
        "flagSelfOnTemplateCollider": "01",
        "flagSelfInZone": "10",
        "flagTargetInZone": "11"
      },
      "101": {
        "name": "HealingWave",
        "skillType": "CombatBuddy",
        "priority": 3,
        "castCondition": {
          "pose": [101, 102]
        },
        "cd": 5.0,
        "cdUpperRange": 2.5,
        "initialCD": 3.0,
        "publicCDGroup": "",
        "HHAGODJIAPE": "",
        "stateIDs": ["HealingWave_BS", "HealingWave_AS"],
        "skillQueryingTime": 3.0,
        "flagTargetReachable": "10",
        "flagSelfOnTemplateCollider": "01",
        "flagSelfInZone": "10",
        "flagTargetInZone": "11",
        "buddySkillCondition": {
          "selectRange": 50.0,
          "buddyScoring": {
            "hpFactor": -1,
            "roleScores": [1.0, 1.0, 1.0, 1.0]
          }
        }
      },
      "201": {
        "name": "MeleeAtk",
        "castCondition": {
          "pose": [101, 102],
          "pickRangeMax": 3.5
        },
        "cd": 7.5,
        "cdUpperRange": 5.0,
        "initialCD": 3.0,
        "publicCDGroup": "",
        "ignoreGCD": true,
        "HHAGODJIAPE": "",
        "stateIDs": ["MeleeAtk"],
        "skillQueryingTime": 3.0,
        "flagTargetReachable": "11",
        "flagSelfOnTemplateCollider": "01",
        "flagSelfInZone": "11",
        "flagTargetInZone": "11"
      },
      "401": {
        "name": "Improve",
        "priority": 1,
        "castCondition": {
          "pose": [101]
        },
        "cd": 100000000.0,
        "initialCD": 10.0,
        "initialCDUpperRange": 5.0,
        "publicCDGroup": "",
        "ignoreGCD": true,
        "triggerGCD": false,
        "HHAGODJIAPE": "",
        "stateIDs": ["Improve"],
        "skillQueryingTime": 3.0,
        "flagTargetReachable": "10",
        "flagSelfOnTemplateCollider": "01",
        "flagSelfInZone": "10",
        "flagTargetInZone": "11"
      },
      "402": {
        "name": "Improve",
        "priority": 2,
        "castCondition": {
          "pose": [101, 102]
        },
        "cd": 25.0,
        "cdUpperRange": 5.0,
        "initialCD": 25.0,
        "initialCDUpperRange": 5.0,
        "publicCDGroup": "",
        "ignoreGCD": true,
        "triggerGCD": false,
        "HHAGODJIAPE": "",
        "stateIDs": ["Improve"],
        "skillQueryingTime": 3.0,
        "flagTargetReachable": "10",
        "flagSelfOnTemplateCollider": "01",
        "flagSelfInZone": "10",
        "flagTargetInZone": "11"
      },
      "403": {
        "name": "Improve",
        "priority": 1,
        "castCondition": {
          "pose": [102]
        },
        "cd": 100000000.0,
        "publicCDGroup": "",
        "ignoreGCD": true,
        "triggerGCD": false,
        "HHAGODJIAPE": "",
        "stateIDs": ["Improve"],
        "skillQueryingTime": 3.0,
        "flagTargetReachable": "10",
        "flagSelfOnTemplateCollider": "01",
        "flagSelfInZone": "10",
        "flagTargetInZone": "11"
      },
      "404": {
        "name": "Improve",
        "priority": 1,
        "castCondition": {
          "pose": [101, 102]
        },
        "cd": 100000000.0,
        "publicCDGroup": "",
        "ignoreGCD": true,
        "triggerGCD": false,
        "HHAGODJIAPE": "",
        "stateIDs": ["Improve"],
        "flagTargetReachable": "10",
        "flagSelfOnTemplateCollider": "01",
        "flagSelfInZone": "10",
        "flagTargetInZone": "11"
      },
      "501": {
        "name": "ImprovedHealingWave",
        "skillType": "CombatBuddy",
        "priority": 3,
        "castCondition": {
          "pose": [201]
        },
        "cd": 5.0,
        "cdUpperRange": 2.5,
        "publicCDGroup": "",
        "HHAGODJIAPE": "",
        "stateIDs": ["ImprovedHealingWave_BS", "ImprovedHealingWave_AS"],
        "skillQueryingTime": 3.0,
        "flagTargetReachable": "10",
        "flagSelfOnTemplateCollider": "01",
        "flagSelfInZone": "10",
        "flagTargetInZone": "11",
        "buddySkillCondition": {
          "selectRange": 50.0,
          "buddyScoring": {
            "hpFactor": -1,
            "roleScores": [1.0, 1.0, 1.0, 1.0]
          }
        }
      },
      "601": {
        "name": "Weak",
        "cd": 999999.0,
        "initialCD": 999999.0,
        "publicCDGroup": "",
        "HHAGODJIAPE": "",
        "stateIDs": ["Weak"],
        "flagTargetReachable": "10",
        "flagSelfOnTemplateCollider": "01",
        "flagSelfInZone": "10",
        "flagTargetInZone": "11"
      },
      "701": {
        "name": "DamageWave",
        "castCondition": {
          "pose": [101, 102, 201],
          "pickRangeMin": 3.5,
          "pickRangeMax": 50.0
        },
        "cd": 5.0,
        "cdUpperRange": 2.5,
        "initialCD": 3.0,
        "publicCDGroup": "",
        "skillGroupCDID": 1,
        "HHAGODJIAPE": "",
        "stateIDs": ["DamageWave_BS", "DamageWave_AS"],
        "skillQueryingTime": 3.0,
        "flagTargetReachable": "11",
        "flagSelfOnTemplateCollider": "01",
        "flagSelfInZone": "11",
        "flagTargetInZone": "11"
      },
      "702": {
        "name": "DamageWave",
        "priority": 4,
        "castCondition": {
          "pose": [101, 102, 201],
          "pickRangeMin": 3.5,
          "pickRangeMax": 50.0,
          "globalValues": [
            "_SKIRMISHER_ELEMENT_ICE_",
            "_SKIRMISHER_ELEMENT_FIRE_",
            "_SKIRMISHER_ELEMENT_ELECTRIC_"
          ],
          "globalValuesLogicAnd": false
        },
        "cd": 5.0,
        "cdUpperRange": 2.5,
        "initialCD": 3.0,
        "publicCDGroup": "",
        "ignoreGCD": true,
        "skillGroupCDID": 1,
        "HHAGODJIAPE": "",
        "stateIDs": ["DamageWave_BS", "DamageWave_AS"],
        "skillQueryingTime": 3.0,
        "flagTargetReachable": "11",
        "flagSelfOnTemplateCollider": "01",
        "flagSelfInZone": "11",
        "flagTargetInZone": "11"
      },
      "703": {
        "name": "DamageWave",
        "castCondition": {
          "pose": [101, 102, 201],
          "pickRangeMax": 50.0
        },
        "cd": 1.0,
        "cdUpperRange": 2.5,
        "publicCDGroup": "",
        "HHAGODJIAPE": "",
        "stateIDs": ["DamageWave_BS", "DamageWave_AS"],
        "skillQueryingTime": 3.0,
        "flagTargetReachable": "01",
        "flagSelfOnTemplateCollider": "01",
        "flagSelfInZone": "11",
        "flagTargetInZone": "11"
      },
      "9001": {
        "name": "Search",
        "skillType": "Free",
        "castCondition": {
          "pose": [9001]
        },
        "cd": 5.0,
        "cdUpperRange": 1.0,
        "publicCDGroup": "",
        "HHAGODJIAPE": "",
        "stateIDs": ["Search"],
        "flagTargetReachable": "10",
        "flagSelfOnTemplateCollider": "01",
        "flagSelfInZone": "10",
        "flagTargetInZone": "11"
      },
      "9011": {
        "name": "Practice",
        "skillType": "Free",
        "castCondition": {
          "pose": [9011]
        },
        "cd": 5.0,
        "cdUpperRange": 1.0,
        "publicCDGroup": "",
        "HHAGODJIAPE": "",
        "stateIDs": ["Practice"],
        "flagTargetReachable": "10",
        "flagSelfOnTemplateCollider": "01",
        "flagSelfInZone": "10",
        "flagTargetInZone": "11"
      },
      "9014": {
        "name": "Threat",
        "skillType": "Free",
        "castCondition": {
          "pose": [9014]
        },
        "cd": 5.0,
        "cdUpperRange": 1.0,
        "publicCDGroup": "",
        "HHAGODJIAPE": "",
        "stateIDs": ["Threat"],
        "flagTargetReachable": "10",
        "flagSelfOnTemplateCollider": "01",
        "flagSelfInZone": "10",
        "flagTargetInZone": "11"
      }
    },
    "skillGCD": 3.0,
    "birdCirclingTactic": [
      {
        "$type": "EPHBMLFODKF",
        "enable": true,
        "condition": {
          "pose": [101, 201]
        },
        "JMCOBEPDIGM": {
          "rangeMin": 3.5,
          "rangeMax": 50.0,
          "JOJBOHEDBHC": 5.0,
          "AFILKAGDAHN": 10.0,
          "ALIBHHJHHMN": 2.5,
          "OMHBOLPFEPM": 1.0,
          "BFJBDDIIFOI": {
            "LLICGJHIGME": 1.5,
            "IDEFILBHNAP": 0.0,
            "IBLIPJPNOGC": 0.0
          },
          "NAOBMNGDKHL": "1111",
          "JCNIJOAIGII": "1111",
          "MNPDDAKDHGK": ""
        }
      },
      {
        "$type": "NNJKLGNPMNN",
        "enable": true,
        "JMCOBEPDIGM": {
          "ANLAAGAMIKF": 1,
          "MNPDDAKDHGK": "",
          "GJDMDHIBCME": "",
          "JJJLPMLDNAJ": 15.0
        }
      },
      {
        "$type": "FPELBIJFGCE",
        "enable": true,
        "condition": {
          "pose": [1]
        },
        "JMCOBEPDIGM": {
          "NBENNEKDIIA": 1.0,
          "KPNDPKIOPJM": 5.0,
          "PINAFKEDDLL": 2.5,
          "ANMPOPEBDIA": 15.0,
          "GMJFIMFFOEL": 4.0,
          "CHCPFDMADEI": 6.0,
          "MNPDDAKDHGK": ""
        }
      }
    ]
  },
  "inputKeys": [
    {
      "keyID": 101,
      "inputKeyCode": 257,
      "abilityName": ""
    },
    {
      "keyID": 201,
      "inputKeyCode": 258,
      "abilityName": ""
    },
    {
      "keyID": 301,
      "inputKeyCode": 259,
      "abilityName": ""
    },
    {
      "keyID": 401,
      "inputKeyCode": 260,
      "abilityName": ""
    },
    {
      "keyID": 501,
      "inputKeyCode": 261,
      "abilityName": ""
    },
    {
      "keyID": 601,
      "inputKeyCode": 262,
      "abilityName": ""
    },
    {
      "keyID": 701,
      "inputKeyCode": 263,
      "abilityName": ""
    },
    {
      "keyID": 9011,
      "inputKeyCode": 264,
      "abilityName": ""
    }
  ],
  "move": {
    "$type": "IPNMJMHDMPF",
    "facingMove": "FourDirection",
    "monsterSizeType": "StrongHumanoidType",
    "PKHOMJHFAEE": "RootNode"
  },
  "audio": {
    "overrideEmitterName": "",
    "animAudio": {
      "onTransitionIn": [
        {
          "currentStateName": "WeakLoop",
          "audioEvent": {
            "text": "Play_sfx_monster_spraygun_water_weak_Loop"
          }
        }
      ],
      "onTransitionOut": [
        {
          "currentStateName": "WeakLoop",
          "audioEvent": {
            "text": "Stop_sfx_monster_spraygun_water_weak_Loop"
          }
        },
        {
          "currentStateName": "DamageWave_AS",
          "audioEvent": {
            "text": "Stop_sfx_monster_spraygun_water_damagewave"
          }
        },
        {
          "currentStateName": "HealingWave_AS",
          "audioEvent": {
            "text": "Stop_sfx_monster_spraygun_water_healingwave"
          }
        },
        {
          "currentStateName": "ImprovedHealingWave_AS",
          "audioEvent": {
            "text": "Stop_sfx_monster_spraygun_water_improvedhealingwave"
          }
        }
      ]
    },
    "disableEvent": {
      "text": ""
    },
    "destroyEvent": {
      "text": ""
    }
  }
}
