{
  "common": {
    "effectAttachShape": {
      "$type": "FJNPJANPGGC",
      "mesh": "EffectMesh"
    },
    "mass": 10000.0,
    "height": 2.4000000953674316,
    "modelHeight": 2.4000000953674316,
    "viewSize": 2.0,
    "affectedByWorld": true,
    "checkInSurface": true,
    "scale": 1.2000000476837158,
    "useGrassDisplacement": true
  },
  "headControl": {
    "$type": "KPIPDEBDPIH",
    "useHeadControl": true,
    "maxYawDegree": 45.0,
    "maxPitchDegree": 30.0,
    "animStates": [
      "NormalIdle/Standby",
      "NormalMove/WalkForward",
      "NormalMove/WalkBack",
      "NormalMove/WalkRight",
      "NormalMove/WalkLeft",
      "NormalMove/Run",
      "TurnLeft/TurnLeft_BS",
      "TurnLeft/TurnLeft_AS",
      "TurnRight/TurnRight_BS",
      "TurnRight/TurnRight_AS"
    ]
  },
  "dither": {
    "showDitherDuration": 2.0
  },
  "combat": {
    "property": {
      "endureType": "Monster_Demiboss_Humanoid",
      "weight": 150.0
    },
    "beHit": {
      "hitBloodEffect": ""
    },
    "combatLock": {
      "lockShape": "CircleLockEnemy",
      "lockType": "Avatar&Monster_Lv4"
    },
    "die": {
      "hasAnimatorDie": true,
      "dieEndTime": 2.0,
      "dieForceDisappearTime": 4.0,
      "dieDisappearEffect": "Eff_Death_Common",
      "dieShaderData": "MonsterDie",
      "useRagDoll": true,
      "muteHitBox": true,
      "dieDenyLockOn": true,
      "dieIsGhostToEnemy": true,
      "dieIgnoreTriggerBullet": true,
      "muteBillboard": true,
      "mutePushCollider": true
    },
    "animEvents": {
      "Attack01": {
        "attackPattern": {
          "$type": "ConfigAttackCircle",
          "triggerType": "TriggerNoRepeat",
          "born": {
            "$type": "ConfigBornBySelf",
            "offset": {
              "x": 0.0,
              "y": 0.0,
              "z": 1.0
            }
          },
          "radius": 4.5
        },
        "attackInfo": {
          "attackTag": "",
          "attenuationTag": "",
          "attenuationGroup": "default",
          "attackProperty": {
            "actorGrassSubHurtDelta": 0.5,
            "actorWindSubHurtDelta": 0.0,
            "elementDurability": 100.0,
            "strikeType": "Blunt",
            "enBreak": 100.0,
            "attackType": "Melee",
            "GLKMCMDJBIK": 0.0
          },
          "hitPattern": {
            "onHitEffectName": "default",
            "hitImpulseY": "",
            "hitImpulseType": "LV5"
          },
          "forceCameraShake": true,
          "cameraShake": {
            "shakeType": "CustomVector",
            "shakeRange": 0.03999999910593033,
            "shakeTime": 0.09000000357627869,
            "shakeDir": {
              "x": 1.0,
              "z": 1.0
            }
          }
        }
      },
      "Attack01_Fire": {
        "attackPattern": {
          "$type": "ConfigAttackCircle",
          "triggerType": "TriggerNoRepeat",
          "born": {
            "$type": "ConfigBornBySelf",
            "offset": {
              "x": 0.0,
              "y": 0.0,
              "z": 1.0
            }
          },
          "radius": 4.5
        },
        "attackInfo": {
          "attackTag": "",
          "attenuationTag": "",
          "attenuationGroup": "default",
          "attackProperty": {
            "actorGrassSubHurtDelta": 0.5,
            "actorWindSubHurtDelta": 0.0,
            "elementType": "Fire",
            "elementDurability": 100.0,
            "strikeType": "Blunt",
            "enBreak": 100.0,
            "attackType": "Melee",
            "GLKMCMDJBIK": 0.0
          },
          "hitPattern": {
            "onHitEffectName": "default",
            "hitImpulseY": "",
            "hitImpulseType": "LV5"
          },
          "forceCameraShake": true,
          "cameraShake": {
            "shakeType": "CustomVector",
            "shakeRange": 0.11999999731779099,
            "shakeTime": 0.09000000357627869,
            "shakeDistance": 25.0,
            "shakeDir": {
              "x": 1.0,
              "z": 1.0
            }
          }
        }
      },
      "Attack02": {
        "attackPattern": {
          "$type": "ConfigAttackBox",
          "triggerType": "TriggerNoRepeat",
          "born": {
            "$type": "ConfigBornBySelf",
            "offset": {
              "x": 0.0,
              "y": 3.0,
              "z": -4.0
            }
          },
          "size": {
            "x": 2.4000000953674316,
            "y": 5.5,
            "z": 9.0
          }
        },
        "attackInfo": {
          "attackTag": "",
          "attenuationTag": "",
          "attenuationGroup": "default",
          "attackProperty": {
            "actorGrassSubHurtDelta": 0.5,
            "actorWindSubHurtDelta": 0.0,
            "elementDurability": 100.0,
            "strikeType": "Blunt",
            "enBreak": 200.0,
            "attackType": "Melee",
            "GLKMCMDJBIK": 0.0
          },
          "hitPattern": {
            "onHitEffectName": "default",
            "hitImpulseY": "",
            "hitImpulseType": "LV6"
          },
          "forceCameraShake": true,
          "cameraShake": {
            "shakeType": "CustomVector",
            "shakeRange": 0.05999999865889549,
            "shakeTime": 0.23999999463558197,
            "shakeDir": {
              "y": -1.0
            }
          }
        }
      },
      "Attack02_Fire": {
        "attackPattern": {
          "$type": "ConfigAttackBox",
          "triggerType": "TriggerNoRepeat",
          "born": {
            "$type": "ConfigBornBySelf",
            "offset": {
              "x": 0.0,
              "y": 3.0,
              "z": -4.0
            }
          },
          "size": {
            "x": 2.4000000953674316,
            "y": 5.5,
            "z": 9.0
          }
        },
        "attackInfo": {
          "attackTag": "",
          "attenuationTag": "",
          "attenuationGroup": "default",
          "attackProperty": {
            "actorGrassSubHurtDelta": 0.5,
            "actorWindSubHurtDelta": 0.0,
            "elementType": "Fire",
            "elementDurability": 100.0,
            "strikeType": "Blunt",
            "enBreak": 200.0,
            "attackType": "Melee",
            "GLKMCMDJBIK": 0.0
          },
          "hitPattern": {
            "onHitEffectName": "default",
            "hitImpulseY": "",
            "hitImpulseType": "LV6"
          },
          "forceCameraShake": true,
          "cameraShake": {
            "shakeType": "CustomVector",
            "shakeRange": 0.20000000298023224,
            "shakeTime": 0.23999999463558197,
            "shakeDistance": 25.0,
            "shakeDir": {
              "y": -1.0
            }
          }
        }
      },
      "Attack03": {
        "attackPattern": {
          "$type": "ConfigAttackCircle",
          "triggerType": "TriggerNoRepeat",
          "born": {
            "$type": "ConfigBornBySelf",
            "offset": {
              "x": 0.0,
              "y": 0.0,
              "z": 1.0
            }
          },
          "radius": 4.5
        },
        "attackInfo": {
          "attackTag": "",
          "attenuationTag": "",
          "attenuationGroup": "default",
          "attackProperty": {
            "actorGrassSubHurtDelta": 0.5,
            "actorWindSubHurtDelta": 0.0,
            "elementDurability": 100.0,
            "strikeType": "Blunt",
            "enBreak": 100.0,
            "attackType": "Melee",
            "GLKMCMDJBIK": 0.0
          },
          "hitPattern": {
            "onHitEffectName": "default",
            "hitImpulseY": "",
            "hitImpulseType": "LV5"
          },
          "forceCameraShake": true,
          "cameraShake": {
            "shakeType": "CustomVector",
            "shakeRange": 0.05000000074505806,
            "shakeTime": 0.09000000357627869,
            "shakeDir": {
              "x": 1.0,
              "z": 1.0
            }
          }
        }
      },
      "Attack03_Fire": {
        "attackPattern": {
          "$type": "ConfigAttackCircle",
          "triggerType": "TriggerNoRepeat",
          "born": {
            "$type": "ConfigBornBySelf",
            "offset": {
              "x": 0.0,
              "y": 0.0,
              "z": 1.0
            }
          },
          "radius": 4.5
        },
        "attackInfo": {
          "attackTag": "",
          "attenuationTag": "",
          "attenuationGroup": "default",
          "attackProperty": {
            "actorGrassSubHurtDelta": 0.5,
            "actorWindSubHurtDelta": 0.0,
            "elementType": "Fire",
            "elementDurability": 100.0,
            "strikeType": "Blunt",
            "enBreak": 100.0,
            "attackType": "Melee",
            "GLKMCMDJBIK": 0.0
          },
          "hitPattern": {
            "onHitEffectName": "default",
            "hitImpulseY": "",
            "hitImpulseType": "LV5"
          },
          "forceCameraShake": true,
          "cameraShake": {
            "shakeType": "CustomVector",
            "shakeRange": 0.1599999964237213,
            "shakeTime": 0.15000000596046448,
            "shakeDistance": 25.0,
            "shakeDir": {
              "x": 1.0,
              "z": 1.0
            }
          }
        }
      },
      "JumpAttack": {
        "attackPattern": {
          "$type": "ConfigAttackCircle",
          "triggerType": "TriggerNoRepeat",
          "born": {
            "$type": "ConfigBornBySelf",
            "offset": {
              "x": 0.0,
              "y": 0.0,
              "z": 2.5
            }
          },
          "radius": 3.0
        },
        "attackInfo": {
          "attackTag": "",
          "attenuationTag": "",
          "attenuationGroup": "default",
          "attackProperty": {
            "actorGrassSubHurtDelta": 1.0,
            "actorWindSubHurtDelta": 0.0,
            "elementDurability": 100.0,
            "strikeType": "Blunt",
            "enBreak": 200.0,
            "attackType": "Melee",
            "GLKMCMDJBIK": 0.0
          },
          "hitPattern": {
            "onHitEffectName": "default",
            "hitImpulseY": "",
            "hitImpulseType": "LV6"
          },
          "forceCameraShake": true,
          "cameraShake": {
            "shakeType": "CustomVector",
            "shakeRange": 0.11999999731779099,
            "shakeTime": 0.23999999463558197,
            "shakeDir": {
              "y": -1.0
            }
          }
        }
      },
      "JumpAttack_Fire": {
        "attackPattern": {
          "$type": "ConfigAttackCircle",
          "triggerType": "TriggerNoRepeat",
          "born": {
            "$type": "ConfigBornBySelf",
            "offset": {
              "x": 0.0,
              "y": 0.0,
              "z": 2.5
            }
          },
          "radius": 3.0
        },
        "attackInfo": {
          "attackTag": "",
          "attenuationTag": "",
          "attenuationGroup": "default",
          "attackProperty": {
            "actorGrassSubHurtDelta": 1.0,
            "actorWindSubHurtDelta": 0.0,
            "elementType": "Fire",
            "elementDurability": 100.0,
            "strikeType": "Blunt",
            "enBreak": 200.0,
            "attackType": "Melee",
            "GLKMCMDJBIK": 0.0
          },
          "hitPattern": {
            "onHitEffectName": "default",
            "hitImpulseY": "",
            "hitImpulseType": "LV6"
          },
          "forceCameraShake": true,
          "cameraShake": {
            "shakeType": "CustomVector",
            "shakeRange": 0.1599999964237213,
            "shakeTime": 0.23999999463558197,
            "shakeDistance": 25.0,
            "shakeDir": {
              "y": -1.0
            }
          }
        }
      },
      "Whirl01": {
        "attackPattern": {
          "$type": "ConfigAttackBox",
          "triggerType": "TriggerNoRepeat",
          "born": {
            "$type": "ConfigBornBySelf",
            "offset": {
              "x": 0.0,
              "y": 1.0,
              "z": 0.0
            },
            "direction": {
              "$type": "ConfigDirectionByEntity",
              "angleOffset": {
                "x": 0.0,
                "y": 0.0,
                "z": 0.0
              }
            }
          },
          "size": {
            "x": 2.0,
            "y": 2.0,
            "z": 4.0
          }
        },
        "attackInfo": {
          "attackTag": "",
          "attenuationTag": "",
          "attenuationGroup": "default",
          "attackProperty": {
            "actorGrassSubHurtDelta": 0.125,
            "actorWindSubHurtDelta": 0.0,
            "elementDurability": 100.0,
            "strikeType": "Blunt",
            "enBreak": 100.0,
            "attackType": "Melee",
            "GLKMCMDJBIK": 0.0
          },
          "hitPattern": {
            "onHitEffectName": "default",
            "hitImpulseY": "",
            "hitImpulseType": "LV4",
            "hitHaltTime": 0.11999999731779099,
            "hitHaltTimeScale": 0.05000000074505806
          },
          "cameraShake": {
            "shakeType": "HitVector",
            "shakeRange": 0.1599999964237213,
            "shakeTime": 0.11999999731779099,
            "shakeDistance": 25.0,
            "shakeDir": {
              "z": 1.0
            }
          }
        }
      },
      "Whirl02": {
        "attackPattern": {
          "$type": "ConfigAttackBox",
          "triggerType": "TriggerNoRepeat",
          "born": {
            "$type": "ConfigBornBySelf",
            "offset": {
              "x": 0.0,
              "y": 1.0,
              "z": 0.0
            },
            "direction": {
              "$type": "ConfigDirectionByEntity",
              "angleOffset": {
                "x": 0.0,
                "y": 90.0,
                "z": 0.0
              }
            }
          },
          "size": {
            "x": 2.0,
            "y": 2.0,
            "z": 4.0
          }
        },
        "attackInfo": {
          "attackTag": "",
          "attenuationTag": "",
          "attenuationGroup": "default",
          "attackProperty": {
            "actorGrassSubHurtDelta": 0.125,
            "actorWindSubHurtDelta": 0.0,
            "elementDurability": 100.0,
            "strikeType": "Blunt",
            "enBreak": 100.0,
            "attackType": "Melee",
            "GLKMCMDJBIK": 0.0
          },
          "hitPattern": {
            "onHitEffectName": "default",
            "hitImpulseY": "",
            "hitImpulseType": "LV4",
            "hitHaltTime": 0.11999999731779099,
            "hitHaltTimeScale": 0.05000000074505806
          },
          "cameraShake": {
            "shakeType": "HitVector",
            "shakeRange": 0.1599999964237213,
            "shakeTime": 0.11999999731779099,
            "shakeDistance": 25.0,
            "shakeDir": {
              "z": 1.0
            }
          }
        }
      },
      "Whirl03": {
        "attackPattern": {
          "$type": "ConfigAttackBox",
          "triggerType": "TriggerNoRepeat",
          "born": {
            "$type": "ConfigBornBySelf",
            "offset": {
              "x": 0.0,
              "y": 1.0,
              "z": 0.0
            },
            "direction": {
              "$type": "ConfigDirectionByEntity",
              "angleOffset": {
                "x": 0.0,
                "y": 180.0,
                "z": 0.0
              }
            }
          },
          "size": {
            "x": 2.0,
            "y": 2.0,
            "z": 4.0
          }
        },
        "attackInfo": {
          "attackTag": "",
          "attenuationTag": "",
          "attenuationGroup": "default",
          "attackProperty": {
            "actorGrassSubHurtDelta": 0.125,
            "actorWindSubHurtDelta": 0.0,
            "elementDurability": 100.0,
            "strikeType": "Blunt",
            "enBreak": 100.0,
            "attackType": "Melee",
            "GLKMCMDJBIK": 0.0
          },
          "hitPattern": {
            "onHitEffectName": "default",
            "hitImpulseY": "",
            "hitImpulseType": "LV4",
            "hitHaltTime": 0.11999999731779099,
            "hitHaltTimeScale": 0.05000000074505806
          },
          "cameraShake": {
            "shakeType": "HitVector",
            "shakeRange": 0.1599999964237213,
            "shakeTime": 0.11999999731779099,
            "shakeDistance": 25.0,
            "shakeDir": {
              "z": 1.0
            }
          }
        }
      },
      "Whirl04": {
        "attackPattern": {
          "$type": "ConfigAttackBox",
          "triggerType": "TriggerNoRepeat",
          "born": {
            "$type": "ConfigBornBySelf",
            "offset": {
              "x": 0.0,
              "y": 1.0,
              "z": 0.0
            },
            "direction": {
              "$type": "ConfigDirectionByEntity",
              "angleOffset": {
                "x": 0.0,
                "y": 270.0,
                "z": 0.0
              }
            }
          },
          "size": {
            "x": 2.0,
            "y": 2.0,
            "z": 4.0
          }
        },
        "attackInfo": {
          "attackTag": "",
          "attenuationTag": "",
          "attenuationGroup": "default",
          "attackProperty": {
            "actorGrassSubHurtDelta": 0.125,
            "actorWindSubHurtDelta": 0.0,
            "elementDurability": 100.0,
            "strikeType": "Blunt",
            "enBreak": 100.0,
            "attackType": "Melee",
            "GLKMCMDJBIK": 0.0
          },
          "hitPattern": {
            "onHitEffectName": "default",
            "hitImpulseY": "",
            "hitImpulseType": "LV4",
            "hitHaltTime": 0.11999999731779099,
            "hitHaltTimeScale": 0.05000000074505806
          },
          "cameraShake": {
            "shakeType": "HitVector",
            "shakeRange": 0.1599999964237213,
            "shakeTime": 0.11999999731779099,
            "shakeDistance": 25.0,
            "shakeDir": {
              "z": 1.0
            }
          }
        }
      },
      "Whirl05": {
        "attackPattern": {
          "$type": "ConfigAttackBox",
          "triggerType": "TriggerNoRepeat",
          "born": {
            "$type": "ConfigBornBySelf",
            "offset": {
              "x": 0.0,
              "y": 1.0,
              "z": 0.0
            },
            "direction": {
              "$type": "ConfigDirectionByEntity",
              "angleOffset": {
                "x": 0.0,
                "y": 0.0,
                "z": 0.0
              }
            }
          },
          "size": {
            "x": 2.0,
            "y": 2.0,
            "z": 4.0
          }
        },
        "attackInfo": {
          "attackTag": "",
          "attenuationTag": "",
          "attenuationGroup": "default",
          "attackProperty": {
            "actorGrassSubHurtDelta": 0.125,
            "actorWindSubHurtDelta": 0.0,
            "elementDurability": 100.0,
            "strikeType": "Blunt",
            "enBreak": 100.0,
            "attackType": "Melee",
            "GLKMCMDJBIK": 0.0
          },
          "hitPattern": {
            "onHitEffectName": "default",
            "hitImpulseY": "",
            "hitImpulseType": "LV6",
            "hitHaltTime": 0.11999999731779099,
            "hitHaltTimeScale": 0.05000000074505806
          },
          "cameraShake": {
            "shakeType": "HitVector",
            "shakeRange": 0.1599999964237213,
            "shakeTime": 0.11999999731779099,
            "shakeDistance": 25.0,
            "shakeDir": {
              "z": 1.0
            }
          }
        }
      },
      "Whirl01_Fire": {
        "attackPattern": {
          "$type": "ConfigAttackBox",
          "triggerType": "TriggerNoRepeat",
          "born": {
            "$type": "ConfigBornBySelf",
            "offset": {
              "x": 0.0,
              "y": 1.0,
              "z": 0.0
            },
            "direction": {
              "$type": "ConfigDirectionByEntity",
              "angleOffset": {
                "x": 0.0,
                "y": 0.0,
                "z": 0.0
              }
            }
          },
          "size": {
            "x": 2.0,
            "y": 2.0,
            "z": 4.0
          }
        },
        "attackInfo": {
          "attackTag": "",
          "attenuationTag": "",
          "attenuationGroup": "default",
          "attackProperty": {
            "actorGrassSubHurtDelta": 0.125,
            "actorWindSubHurtDelta": 0.0,
            "elementType": "Fire",
            "elementDurability": 100.0,
            "strikeType": "Blunt",
            "enBreak": 100.0,
            "attackType": "Melee",
            "GLKMCMDJBIK": 0.0
          },
          "hitPattern": {
            "onHitEffectName": "default",
            "hitImpulseY": "",
            "hitImpulseType": "LV4",
            "hitHaltTime": 0.11999999731779099,
            "hitHaltTimeScale": 0.05000000074505806
          },
          "cameraShake": {
            "shakeType": "HitVector",
            "shakeRange": 0.1599999964237213,
            "shakeTime": 0.11999999731779099,
            "shakeDistance": 25.0,
            "shakeDir": {
              "z": 1.0
            }
          }
        }
      },
      "Whirl02_Fire": {
        "attackPattern": {
          "$type": "ConfigAttackBox",
          "triggerType": "TriggerNoRepeat",
          "born": {
            "$type": "ConfigBornBySelf",
            "offset": {
              "x": 0.0,
              "y": 1.0,
              "z": 0.0
            },
            "direction": {
              "$type": "ConfigDirectionByEntity",
              "angleOffset": {
                "x": 0.0,
                "y": 90.0,
                "z": 0.0
              }
            }
          },
          "size": {
            "x": 2.0,
            "y": 2.0,
            "z": 4.0
          }
        },
        "attackInfo": {
          "attackTag": "",
          "attenuationTag": "",
          "attenuationGroup": "default",
          "attackProperty": {
            "actorGrassSubHurtDelta": 0.125,
            "actorWindSubHurtDelta": 0.0,
            "elementType": "Fire",
            "elementDurability": 100.0,
            "strikeType": "Blunt",
            "enBreak": 100.0,
            "attackType": "Melee",
            "GLKMCMDJBIK": 0.0
          },
          "hitPattern": {
            "onHitEffectName": "default",
            "hitImpulseY": "",
            "hitImpulseType": "LV4",
            "hitHaltTime": 0.11999999731779099,
            "hitHaltTimeScale": 0.05000000074505806
          },
          "cameraShake": {
            "shakeType": "HitVector",
            "shakeRange": 0.1599999964237213,
            "shakeTime": 0.11999999731779099,
            "shakeDistance": 25.0,
            "shakeDir": {
              "z": 1.0
            }
          }
        }
      },
      "Whirl03_Fire": {
        "attackPattern": {
          "$type": "ConfigAttackBox",
          "triggerType": "TriggerNoRepeat",
          "born": {
            "$type": "ConfigBornBySelf",
            "offset": {
              "x": 0.0,
              "y": 1.0,
              "z": 0.0
            },
            "direction": {
              "$type": "ConfigDirectionByEntity",
              "angleOffset": {
                "x": 0.0,
                "y": 180.0,
                "z": 0.0
              }
            }
          },
          "size": {
            "x": 2.0,
            "y": 2.0,
            "z": 4.0
          }
        },
        "attackInfo": {
          "attackTag": "",
          "attenuationTag": "",
          "attenuationGroup": "default",
          "attackProperty": {
            "actorGrassSubHurtDelta": 0.125,
            "actorWindSubHurtDelta": 0.0,
            "elementType": "Fire",
            "elementDurability": 100.0,
            "strikeType": "Blunt",
            "enBreak": 100.0,
            "attackType": "Melee",
            "GLKMCMDJBIK": 0.0
          },
          "hitPattern": {
            "onHitEffectName": "default",
            "hitImpulseY": "",
            "hitImpulseType": "LV4",
            "hitHaltTime": 0.11999999731779099,
            "hitHaltTimeScale": 0.05000000074505806
          },
          "cameraShake": {
            "shakeType": "HitVector",
            "shakeRange": 0.1599999964237213,
            "shakeTime": 0.11999999731779099,
            "shakeDistance": 25.0,
            "shakeDir": {
              "z": 1.0
            }
          }
        }
      },
      "Whirl04_Fire": {
        "attackPattern": {
          "$type": "ConfigAttackBox",
          "triggerType": "TriggerNoRepeat",
          "born": {
            "$type": "ConfigBornBySelf",
            "offset": {
              "x": 0.0,
              "y": 1.0,
              "z": 0.0
            },
            "direction": {
              "$type": "ConfigDirectionByEntity",
              "angleOffset": {
                "x": 0.0,
                "y": 270.0,
                "z": 0.0
              }
            }
          },
          "size": {
            "x": 2.0,
            "y": 2.0,
            "z": 4.0
          }
        },
        "attackInfo": {
          "attackTag": "",
          "attenuationTag": "",
          "attenuationGroup": "default",
          "attackProperty": {
            "actorGrassSubHurtDelta": 0.125,
            "actorWindSubHurtDelta": 0.0,
            "elementType": "Fire",
            "elementDurability": 100.0,
            "strikeType": "Blunt",
            "enBreak": 100.0,
            "attackType": "Melee",
            "GLKMCMDJBIK": 0.0
          },
          "hitPattern": {
            "onHitEffectName": "default",
            "hitImpulseY": "",
            "hitImpulseType": "LV4",
            "hitHaltTime": 0.11999999731779099,
            "hitHaltTimeScale": 0.05000000074505806
          },
          "cameraShake": {
            "shakeType": "HitVector",
            "shakeRange": 0.1599999964237213,
            "shakeTime": 0.11999999731779099,
            "shakeDistance": 25.0,
            "shakeDir": {
              "z": 1.0
            }
          }
        }
      },
      "Whirl05_Fire": {
        "attackPattern": {
          "$type": "ConfigAttackBox",
          "triggerType": "TriggerNoRepeat",
          "born": {
            "$type": "ConfigBornBySelf",
            "offset": {
              "x": 0.0,
              "y": 1.0,
              "z": 0.0
            },
            "direction": {
              "$type": "ConfigDirectionByEntity",
              "angleOffset": {
                "x": 0.0,
                "y": 0.0,
                "z": 0.0
              }
            }
          },
          "size": {
            "x": 2.0,
            "y": 2.0,
            "z": 4.0
          }
        },
        "attackInfo": {
          "attackTag": "",
          "attenuationTag": "",
          "attenuationGroup": "default",
          "attackProperty": {
            "actorGrassSubHurtDelta": 0.125,
            "actorWindSubHurtDelta": 0.0,
            "elementType": "Fire",
            "elementDurability": 100.0,
            "strikeType": "Blunt",
            "enBreak": 100.0,
            "attackType": "Melee",
            "GLKMCMDJBIK": 0.0
          },
          "hitPattern": {
            "onHitEffectName": "default",
            "hitImpulseY": "",
            "hitImpulseType": "LV6",
            "hitHaltTime": 0.11999999731779099,
            "hitHaltTimeScale": 0.05000000074505806
          },
          "cameraShake": {
            "shakeType": "HitVector",
            "shakeRange": 0.1599999964237213,
            "shakeTime": 0.11999999731779099,
            "shakeDistance": 25.0,
            "shakeDir": {
              "z": 1.0
            }
          }
        }
      }
    }
  },
  "equipController": {
    "sheathPoint": "",
    "attachPoints": {
      "equip01": "WeaponR",
      "equip02": "WeaponL"
    }
  },
  "abilities": [
    {
      "abilityID": "Turn",
      "abilityName": "Brute_None_Axe_Turn",
      "abilityOverride": ""
    },
    {
      "abilityID": "Alert",
      "abilityName": "Brute_None_Alert",
      "abilityOverride": "",
      "lightWeightRemove": true
    },
    {
      "abilityID": "FireAxe",
      "abilityName": "Brute_Axe_FireAxe",
      "abilityOverride": ""
    },
    {
      "abilityID": "NormalAttack",
      "abilityName": "Brute_Axe_NormalAttack",
      "abilityOverride": ""
    },
    {
      "abilityID": "Attack02_FireWave",
      "abilityName": "Brute_Axe_Attack02_FireWave",
      "abilityOverride": ""
    },
    {
      "abilityID": "JumpAttack_Alert",
      "abilityName": "Brute_Axe_JumpAttack_Alert",
      "abilityOverride": ""
    },
    {
      "abilityID": "JumpAttack_FireWave",
      "abilityName": "Brute_Axe_JumpAttack_FireWave",
      "abilityOverride": ""
    },
    {
      "abilityID": "Whirl",
      "abilityName": "Brute_Axe_Whirl",
      "abilityOverride": ""
    },
    {
      "abilityID": "PickUpAndThrow",
      "abilityName": "Brute_Axe_PickUpAndThrow",
      "abilityOverride": ""
    },
    {
      "abilityID": "ThrowFireSlime_Fire",
      "abilityName": "Brute_Axe_ThrowFireSlime_Fire",
      "abilityOverride": ""
    },
    {
      "abilityID": "ThrowFireSlime_None",
      "abilityName": "Brute_Axe_ThrowFireSlime_None",
      "abilityOverride": ""
    },
    {
      "abilityID": "Brute_None_Axe_TurnToSit",
      "abilityName": "Brute_None_Axe_TurnToSit",
      "abilityOverride": "",
      "lightWeightRemove": true
    },
    {
      "abilityID": "Brute_None_OutOfSit",
      "abilityName": "Brute_None_OutOfSit",
      "abilityOverride": "",
      "lightWeightRemove": true
    },
    {
      "abilityID": "Brute_None_AwakeAlert",
      "abilityName": "Brute_None_AwakeAlert",
      "abilityOverride": "",
      "lightWeightRemove": true
    }
  ],
  "stateLayers": {
    "defaultLayer": {
      "$type": "GBGJJIIEMBD",
      "layerIndexName": "",
      "CPAANEIJCGD": "",
      "stateIDs": {
        "NormalIdle": {
          "$type": "NEDIFAKEGCO",
          "animatorStates": {
            "Standby": [],
            "Born": []
          },
          "canDoSkill": true,
          "canSyncMove": true,
          "resetAnimatorTriggerOnExit": ["DoSkill"]
        },
        "NormalMove": {
          "$type": "NEDIFAKEGCO",
          "animatorStates": {
            "WalkForward": ["Audio_Brute_Axe_WalkForward"],
            "WalkBack": ["Audio_Brute_Axe_WalkBack"],
            "WalkRight": ["Audio_Brute_Axe_WalkForward"],
            "WalkLeft": ["Audio_Brute_Axe_WalkForward"],
            "Run": ["Audio_Brute_Axe_WalkForward"]
          },
          "canDoSkill": true,
          "canSyncMove": true,
          "resetAnimatorTriggerOnExit": ["DoSkill"],
          "canSteer": true
        },
        "TurnLeft": {
          "$type": "NEDIFAKEGCO",
          "animatorStates": {
            "TurnLeft_BS": ["Audio_Brute_Axe_Turn"],
            "TurnLeft_AS": ["Audio_Brute_Axe_Turn"]
          },
          "canDoSkill": true,
          "canSyncMove": true,
          "resetAnimatorTriggerOnExit": ["DoSkill"]
        },
        "TurnRight": {
          "$type": "NEDIFAKEGCO",
          "animatorStates": {
            "TurnRight_BS": ["Audio_Brute_Axe_Turn"],
            "TurnRight_AS": ["Audio_Brute_Axe_Turn"]
          },
          "canDoSkill": true,
          "canSyncMove": true,
          "resetAnimatorTriggerOnExit": ["DoSkill"]
        },
        "TurnToSit": {
          "$type": "NEDIFAKEGCO",
          "animatorStates": {
            "TurnToSit": ["Monster_Brute_None_Axe_TurnToSit"]
          },
          "canDoSkill": true,
          "resetAnimatorTriggerOnExit": ["BeHit", "DoSkill"]
        },
        "OutOfSit": {
          "$type": "NEDIFAKEGCO",
          "animatorStates": {
            "OutOfSit": ["Monster_Brute_None_OutOfSit"]
          },
          "canDoSkill": true,
          "resetAnimatorTriggerOnExit": ["BeHit", "DoSkill"]
        },
        "Sit": {
          "$type": "NEDIFAKEGCO",
          "animatorStates": {
            "Sit": []
          },
          "canDoSkill": true,
          "canSyncMove": true,
          "resetAnimatorTriggerOnExit": ["DoSkill"]
        },
        "Life_Talk": {
          "$type": "NEDIFAKEGCO",
          "animatorStates": {
            "Talk": [],
            "Talk_Sit": []
          },
          "canDoSkill": true,
          "resetAnimatorTriggerOnExit": ["BeHit", "DoSkill"]
        },
        "BeHit": {
          "$type": "NEDIFAKEGCO",
          "animatorStates": {
            "Hit_L": ["Audio_Brute_Axe_HitL"],
            "Hit_H": ["Audio_Brute_Axe_HitH"]
          },
          "resetAnimatorTriggerOnEnter": ["BeHit"],
          "resetAnimatorTriggerOnExit": ["DoSkill"]
        },
        "BeHitThrow": {
          "$type": "NEDIFAKEGCO",
          "animatorStates": {
            "HitThrow": [],
            "HitThrowDrop": [],
            "HitThrowToGround": ["Audio_Brute_Axe_HitThrowToGround"]
          },
          "resetAnimatorTriggerOnEnter": ["BeHit", "HitAir2HitDrop"],
          "resetAnimatorTriggerOnExit": ["DoSkill"]
        },
        "Struggle": {
          "$type": "NEDIFAKEGCO",
          "animatorStates": {
            "Struggle": []
          },
          "resetAnimatorTriggerOnEnter": ["BeHit", "HitAir2HitDrop"],
          "resetAnimatorTriggerOnExit": ["DoSkill"]
        },
        "Die": {
          "$type": "NEDIFAKEGCO",
          "animatorStates": {
            "Die_01": ["Audio_Brute_Axe_Die"],
            "Die_02": ["Audio_Brute_Axe_Die"],
            "SwimDie": ["Monster_Brute_None_Die"],
            "SwimDie_AS": []
          }
        },
        "Die_RagDoll": {
          "$type": "NEDIFAKEGCO",
          "animatorStates": {
            "Die_RagDoll_01": ["Audio_Brute_Axe_Die"],
            "Die_RagDoll_02": ["Audio_Brute_Axe_Die"],
            "AirDie": ["Audio_Brute_Axe_AirDie"]
          },
          "enableRagDoll": true
        },
        "Alert": {
          "$type": "NEDIFAKEGCO",
          "animatorStates": {
            "Alert": ["Monster_Brute_None_Alert"]
          },
          "resetAnimatorTriggerOnExit": ["BeHit", "DoSkill"]
        },
        "AwakeAlert": {
          "$type": "NEDIFAKEGCO",
          "animatorStates": {
            "AwakeAlert": ["Monster_Brute_None_AwakeAlert"]
          },
          "canDoSkill": true,
          "resetAnimatorTriggerOnExit": ["BeHit", "DoSkill", "AwakeAlert"]
        },
        "Attack01": {
          "$type": "NEDIFAKEGCO",
          "animatorStates": {
            "Attack01": [
              "Monster_Brute_Axe_Attack01",
              "Audio_Brute_Axe_Attack01"
            ]
          },
          "addEndure": 0.800000011920929,
          "massRatio": 20.0,
          "resetAnimatorTriggerOnExit": ["BeHit", "DoSkill"]
        },
        "Attack02": {
          "$type": "NEDIFAKEGCO",
          "animatorStates": {
            "Attack02": [
              "Monster_Brute_Axe_Attack02",
              "Audio_Brute_Axe_Attack02"
            ]
          },
          "addEndure": 0.800000011920929,
          "massRatio": 20.0,
          "resetAnimatorTriggerOnExit": ["BeHit", "DoSkill"]
        },
        "Attack03": {
          "$type": "NEDIFAKEGCO",
          "animatorStates": {
            "Attack03": [
              "Monster_Brute_Axe_Attack03",
              "Audio_Brute_Axe_Attack03"
            ]
          },
          "addEndure": 0.800000011920929,
          "massRatio": 20.0,
          "resetAnimatorTriggerOnExit": ["BeHit", "DoSkill"]
        },
        "Whirl_BS": {
          "$type": "NEDIFAKEGCO",
          "animatorStates": {
            "Whirl_BS": ["Audio_Brute_Axe_Whirl_BS"]
          },
          "addEndure": 0.0,
          "massRatio": 20.0,
          "resetAnimatorTriggerOnExit": ["BeHit", "DoSkill"]
        },
        "Whirl_Loop": {
          "$type": "NEDIFAKEGCO",
          "animatorStates": {
            "Whirl_Loop": [
              "Monster_Brute_Axe_Whirl_Loop",
              "Audio_Brute_Axe_Whirl_Loop"
            ]
          },
          "addEndure": 0.0,
          "massRatio": 20.0,
          "resetAnimatorTriggerOnExit": ["BeHit", "DoSkill"]
        },
        "Whirl_AS": {
          "$type": "NEDIFAKEGCO",
          "animatorStates": {
            "Whirl_AS": [
              "Monster_Brute_Axe_Whirl_AS",
              "Audio_Brute_Axe_Whirl_AS"
            ]
          },
          "massRatio": 20.0,
          "resetAnimatorTriggerOnExit": ["BeHit", "DoSkill", "NextSkillTrigger"]
        },
        "Whirl_Crash": {
          "$type": "NEDIFAKEGCO",
          "animatorStates": {
            "Whirl_Crash": ["Audio_Brute_Axe_Whirl_Crash"]
          },
          "resetAnimatorTriggerOnExit": ["BeHit", "DoSkill", "NextSkillTrigger"]
        },
        "JumpAttack": {
          "$type": "NEDIFAKEGCO",
          "animatorStates": {
            "JumpAttack": [
              "Monster_Brute_Axe_JumpAttack",
              "Audio_Brute_Axe_JumpAttack"
            ]
          },
          "cullingModelAlwaysAnimate": true,
          "addEndure": 0.0,
          "massRatio": 20.0,
          "resetAnimatorTriggerOnExit": ["BeHit", "DoSkill"]
        },
        "PickUp": {
          "$type": "NEDIFAKEGCO",
          "animatorStates": {
            "PickUp": ["Monster_Brute_Axe_PickUp", "Audio_Brute_Axe_Pickup"]
          },
          "addEndure": 0.0,
          "massRatio": 20.0,
          "resetAnimatorTriggerOnExit": ["BeHit", "DoSkill"]
        },
        "Throw": {
          "$type": "NEDIFAKEGCO",
          "animatorStates": {
            "Throw": [
              "Monster_Brute_Axe_ThrowSlime_Fire",
              "Audio_Brute_Axe_Throw"
            ]
          },
          "addEndure": 0.0,
          "massRatio": 20.0,
          "resetAnimatorTriggerOnExit": ["BeHit", "DoSkill"]
        },
        "CastAndThrow": {
          "$type": "NEDIFAKEGCO",
          "animatorStates": {
            "CastAndThrow": [
              "Monster_Brute_Axe_CastAndThrow",
              "Audio_Brute_Axe_CastAndThrow"
            ]
          },
          "addEndure": 0.0,
          "massRatio": 20.0,
          "resetAnimatorTriggerOnExit": ["BeHit", "DoSkill"]
        }
      }
    }
  },
  "billboard": {
    "$type": "DNGNMAJBCNP",
    "attachPoint": "BillboardAttach",
    "offset": {
      "x": 0.03999999910593033
    },
    "offsetType": "Character",
    "radiusOffset": 0.7200000286102295,
    "showHPBar": true,
    "size": "Big"
  },
  "initialPoses": {
    "Default": {
      "initialPoseParams": {
        "boolParams": {
          "Sleep": "false",
          "Sit": "false"
        }
      }
    },
    "Sit": {
      "initialPoseID": 401,
      "initialPoseParams": {
        "boolParams": {
          "Sit": "true"
        }
      }
    }
  },
  "aibeta": {
    "enable": true,
    "sensing": {
      "settings": {
        "DefaultSetting": {
          "viewRange": 40.0,
          "feelRange": 10.0
        },
        "HighAlert": {
          "viewRange": 50.0,
          "feelRange": 12.0
        },
        "Sleep": {
          "viewRange": 0.0,
          "feelRange": 3.0
        },
        "Sit": {
          "viewRange": 15.0
        },
        "NeverCombat": {
          "enableVision": false,
          "hearAttractionRange": 0.0,
          "feelRange": 0.0
        }
      },
      "templates": {
        "DefaultTemplate": {
          "DefaultPoses": "DefaultSetting",
          "301": "Sleep",
          "401": "Sit"
        },
        "HighAlertTemplate": {
          "DefaultPoses": "HighAlert",
          "301": "Sleep",
          "401": "Sit"
        },
        "NeverCombatTemplate": {
          "DefaultPoses": "NeverCombat",
          "301": "NeverCombat",
          "401": "NeverCombat"
        }
      }
    },
    "neurons": {
      "DefaultSetting": ["HIT"],
      "NeverCombat": []
    },
    "threat": {
      "GHIJMOKOLMB": "",
      "clearThreatByLostPath": true,
      "viewAttenuation": [
        {
          "x": 10.0,
          "y": 2.0
        },
        {
          "x": 15.0,
          "y": 0.800000011920929
        },
        {
          "x": 20.0,
          "y": 0.5
        },
        {
          "x": 25.0,
          "y": 0.30000001192092896
        },
        {
          "x": 30.0,
          "y": 0.20000000298023224
        }
      ],
      "resistTauntLevel": "Monster_TauntLevel_2"
    },
    "defendArea": {
      "defendRange": 50.0
    },
    "profiling": {
      "staticPoses": [301, 401]
    },
    "skillSetting": {
      "skillEliteSet": {
        "1": [221, 231],
        "2": [222, 223, 232]
      }
    },
    "skills": {
      "103": {
        "name": "OnAlert",
        "skillType": "OnAlert",
        "faceTarget": true,
        "publicCDGroup": "",
        "ignoreGCD": true,
        "triggerGCD": false,
        "HHAGODJIAPE": "",
        "stateIDs": ["Alert"],
        "skillQueryingTime": 3.0,
        "flagTargetReachable": "10",
        "flagSelfOnTemplateCollider": "01",
        "flagSelfInZone": "10",
        "flagTargetInZone": "11"
      },
      "104": {
        "name": "OnAlert",
        "skillType": "OnNerve",
        "faceTarget": true,
        "castCondition": {
          "pose": [301, 401]
        },
        "publicCDGroup": "",
        "triggerGCD": false,
        "HHAGODJIAPE": "",
        "stateIDs": ["Alert"],
        "skillQueryingTime": 3.0,
        "flagTargetReachable": "10",
        "flagSelfOnTemplateCollider": "01",
        "flagSelfInZone": "10",
        "flagTargetInZone": "11",
        "nerveTrigger": ["HIT"]
      },
      "121": {
        "name": "TurnToSit",
        "skillType": "ActionPoint",
        "castCondition": {
          "pose": [101, 111, 201, 211, 212]
        },
        "publicCDGroup": "",
        "triggerGCD": false,
        "HHAGODJIAPE": "",
        "stateIDs": ["TurnToSit"],
        "skillQueryingTime": 3.0,
        "flagTargetReachable": "10",
        "flagSelfOnTemplateCollider": "01",
        "flagSelfInZone": "10",
        "flagTargetInZone": "11"
      },
      "122": {
        "name": "OutOfSit",
        "skillType": "OnNerve",
        "castCondition": {
          "pose": [401]
        },
        "publicCDGroup": "",
        "triggerGCD": false,
        "HHAGODJIAPE": "",
        "stateIDs": ["OutOfSit"],
        "skillQueryingTime": 3.0,
        "flagTargetReachable": "10",
        "flagSelfOnTemplateCollider": "01",
        "flagSelfInZone": "10",
        "flagTargetInZone": "11",
        "nerveTrigger": ["AWAKE"]
      },
      "123": {
        "name": "Talk_Sit",
        "skillType": "Free",
        "castCondition": {
          "pose": [401]
        },
        "cd": 10.0,
        "cdUpperRange": 20.0,
        "initialCD": 10.0,
        "initialCDUpperRange": 20.0,
        "publicCDGroup": "",
        "ignoreGCD": true,
        "HHAGODJIAPE": "",
        "stateIDs": ["Life_Talk"],
        "flagTargetReachable": "10",
        "flagSelfOnTemplateCollider": "01",
        "flagSelfInZone": "10",
        "flagTargetInZone": "11"
      },
      "210": {
        "name": "Attack01",
        "enableSkillPrepare": true,
        "castCondition": {
          "pose": [211, 212],
          "maxTargetAngleXZ": 90.0,
          "maxTargetAngleY": 45.0,
          "pickRangeMax": 8.0,
          "castRangeMax": 3.0
        },
        "cd": 5.0,
        "publicCDGroup": "",
        "HHAGODJIAPE": "",
        "stateIDs": ["Attack01", "Attack02", "Attack03"],
        "flagTargetReachable": "10",
        "flagSelfOnTemplateCollider": "01",
        "flagSelfInZone": "10",
        "flagTargetInZone": "11"
      },
      "221": {
        "name": "Whirl",
        "priority": 3,
        "castCondition": {
          "pose": [211, 212],
          "maxTargetAngleY": 45.0,
          "pickRangeMax": 99.0
        },
        "cd": 30.0,
        "initialCD": 30.0,
        "publicCDGroup": "",
        "HHAGODJIAPE": "",
        "stateIDs": ["Whirl_BS", "Whirl_Loop", "Whirl_AS"],
        "flagTargetReachable": "10",
        "flagSelfOnTemplateCollider": "01",
        "flagSelfInZone": "10",
        "flagTargetInZone": "11"
      },
      "222": {
        "name": "Whirl",
        "priority": 3,
        "castCondition": {
          "pose": [211],
          "maxTargetAngleY": 45.0,
          "pickRangeMax": 99.0
        },
        "cd": 30.0,
        "initialCD": 30.0,
        "publicCDGroup": "",
        "HHAGODJIAPE": "",
        "stateIDs": ["Whirl_BS", "Whirl_Loop", "Whirl_AS"],
        "flagTargetReachable": "10",
        "flagSelfOnTemplateCollider": "01",
        "flagSelfInZone": "10",
        "flagTargetInZone": "11"
      },
      "223": {
        "name": "Whirl",
        "priority": 3,
        "castCondition": {
          "pose": [212],
          "maxTargetAngleY": 45.0,
          "pickRangeMax": 99.0
        },
        "cd": 15.0,
        "initialCD": 15.0,
        "publicCDGroup": "",
        "ignoreGCD": true,
        "triggerGCD": false,
        "HHAGODJIAPE": "",
        "stateIDs": ["Whirl_BS", "Whirl_Loop", "Whirl_AS"],
        "flagTargetReachable": "10",
        "flagSelfOnTemplateCollider": "01",
        "flagSelfInZone": "10",
        "flagTargetInZone": "11"
      },
      "231": {
        "name": "JumpAttack",
        "priority": 4,
        "castCondition": {
          "pose": [211, 212],
          "maxTargetAngleXZ": 90.0,
          "pickRangeMin": 6.0,
          "pickRangeMax": 99.0
        },
        "cd": 20.0,
        "initialCD": 15.0,
        "publicCDGroup": "",
        "HHAGODJIAPE": "",
        "stateIDs": ["JumpAttack"],
        "flagTargetReachable": "10",
        "flagSelfOnTemplateCollider": "01",
        "flagSelfInZone": "10",
        "flagTargetInZone": "11"
      },
      "232": {
        "name": "JumpAttack",
        "priority": 1,
        "castCondition": {
          "pose": [211, 212],
          "maxTargetAngleXZ": 90.0,
          "pickRangeMin": 6.0,
          "pickRangeMax": 99.0
        },
        "cd": 10.0,
        "initialCD": 15.0,
        "publicCDGroup": "",
        "ignoreGCD": true,
        "triggerGCD": false,
        "HHAGODJIAPE": "",
        "stateIDs": ["JumpAttack"],
        "flagTargetReachable": "10",
        "flagSelfOnTemplateCollider": "01",
        "flagSelfInZone": "10",
        "flagTargetInZone": "11"
      },
      "240": {
        "name": "ThrowSlime",
        "priority": 2,
        "castCondition": {
          "pose": [211],
          "maxTargetAngleXZ": 90.0,
          "pickRangeMax": 99.0
        },
        "cd": 3000.0,
        "initialCD": 10.0,
        "publicCDGroup": "",
        "HHAGODJIAPE": "",
        "stateIDs": ["PickUp", "Throw", "CastAndThrow"],
        "flagTargetReachable": "10",
        "flagSelfOnTemplateCollider": "01",
        "flagSelfInZone": "10",
        "flagTargetInZone": "11"
      },
      "241": {
        "name": "ThrowSlime",
        "priority": 2,
        "castCondition": {
          "pose": [211],
          "maxTargetAngleXZ": 90.0,
          "pickRangeMax": 99.0
        },
        "cd": 30.0,
        "initialCD": 30.0,
        "publicCDGroup": "",
        "HHAGODJIAPE": "",
        "stateIDs": ["PickUp", "Throw", "CastAndThrow"],
        "flagTargetReachable": "10",
        "flagSelfOnTemplateCollider": "01",
        "flagSelfInZone": "10",
        "flagTargetInZone": "11"
      },
      "242": {
        "name": "ThrowSlime",
        "priority": 2,
        "castCondition": {
          "pose": [211, 212],
          "maxTargetAngleXZ": 90.0,
          "pickRangeMax": 30.0
        },
        "cd": 7.0,
        "publicCDGroup": "",
        "HHAGODJIAPE": "",
        "stateIDs": ["PickUp", "Throw", "CastAndThrow"],
        "flagTargetReachable": "11",
        "flagSelfOnTemplateCollider": "01",
        "flagSelfInZone": "01",
        "flagTargetInZone": "11"
      },
      "243": {
        "name": "ThrowSlime",
        "priority": 2,
        "castCondition": {
          "pose": [211, 212],
          "maxTargetAngleXZ": 90.0,
          "pickRangeMax": 30.0
        },
        "cd": 7.0,
        "publicCDGroup": "",
        "HHAGODJIAPE": "",
        "stateIDs": ["PickUp", "Throw", "CastAndThrow"],
        "flagTargetReachable": "01",
        "flagSelfOnTemplateCollider": "01",
        "flagSelfInZone": "10",
        "flagTargetInZone": "11"
      }
    },
    "skillGCD": 5.0,
    "birdCirclingTactic": [
      {
        "$type": "EPHBMLFODKF",
        "enable": true,
        "condition": {
          "pose": [211, 212]
        },
        "JMCOBEPDIGM": {
          "rangeMin": 3.0,
          "rangeMax": 6.0,
          "BFJBDDIIFOI": {
            "IDEFILBHNAP": 2.0,
            "IBLIPJPNOGC": 0.0,
            "AEBLMKFNCDG": 0.0,
            "IGLIBIOEGBB": 0.0
          },
          "NAOBMNGDKHL": "1111",
          "JCNIJOAIGII": "1111",
          "MNPDDAKDHGK": "",
          "DMNFPKOHNBN": "ForwardBackward"
        }
      },
      {
        "$type": "KACCHOLJDNK",
        "enable": true,
        "condition": {
          "pose": [111, 211, 212]
        },
        "JMCOBEPDIGM": {
          "KHDFDAAAPEI": 12.0,
          "HKJODDGJPHA": 99.0,
          "GGEBMFHFBPO": 6.0,
          "KFFGCIMPNMJ": 0.0,
          "MNPDDAKDHGK": ""
        }
      },
      {
        "$type": "NNJKLGNPMNN",
        "enable": true,
        "JMCOBEPDIGM": {
          "MNPDDAKDHGK": "",
          "GJDMDHIBCME": ""
        }
      },
      {
        "$type": "FPELBIJFGCE",
        "enable": true,
        "condition": {
          "pose": [101, 201]
        },
        "JMCOBEPDIGM": {
          "NBENNEKDIIA": 2.0,
          "KPNDPKIOPJM": 3.0,
          "PINAFKEDDLL": 1.5,
          "ANMPOPEBDIA": 15.0,
          "GMJFIMFFOEL": 3.75,
          "CHCPFDMADEI": 7.5,
          "MNPDDAKDHGK": ""
        }
      }
    ]
  },
  "inputKeys": [
    {
      "keyID": 210,
      "inputKeyCode": 257,
      "abilityName": ""
    },
    {
      "keyID": 220,
      "inputKeyCode": 258,
      "abilityName": ""
    },
    {
      "keyID": 230,
      "inputKeyCode": 259,
      "abilityName": ""
    },
    {
      "keyID": 240,
      "inputKeyCode": 260,
      "abilityName": ""
    },
    {
      "keyID": 210,
      "inputKeyCode": 261,
      "abilityName": ""
    },
    {
      "keyID": 121,
      "inputKeyCode": 262,
      "abilityName": ""
    }
  ],
  "move": {
    "$type": "IPNMJMHDMPF",
    "facingMove": "ForwardBackward",
    "monsterSizeType": "StrongHumanoidType",
    "PKHOMJHFAEE": "RootNode"
  },
  "audio": {
    "overrideEmitterName": "",
    "animAudio": {
      "onTransitionOut": [
        {
          "currentStateName": "Whirl_Loop",
          "audioEvent": {
            "text": "Stop_sfx_monster_brute_axe_whirl"
          },
          "otherStateNames": ["Whirl_AS"],
          "usage": "Except"
        },
        {
          "currentStateName": "Whirl_BS",
          "audioEvent": {
            "text": "Stop_sfx_monster_brute_axe_whirl"
          },
          "otherStateNames": ["Whirl_Loop"],
          "usage": "Except"
        },
        {
          "currentStateName": "JumpAttack",
          "audioEvent": {
            "text": "Stop_sfx_monster_brute_axe_jumpAttack"
          }
        },
        {
          "currentStateName": "PickUp",
          "audioEvent": {
            "text": "Stop_sfx_monster_brute_axe_pickup"
          }
        },
        {
          "currentStateName": "JumpAttack",
          "audioEvent": {
            "text": "Stop_vo_monster_brute_axe_jumpAttack"
          }
        },
        {
          "currentStateName": "PickUp",
          "audioEvent": {
            "text": "Stop_vo_monster_brute_axe_pickUp"
          }
        }
      ]
    }
  }
}
