{
  "common": {
    "effectAttachShape": {
      "$type": "FJNPJANPGGC",
      "mesh": "EffectMesh"
    },
    "mass": 200.0,
    "height": 0.6000000238418579,
    "scale": 1.5,
    "reconnectSupport": true,
    "recoverByInitPose": true
  },
  "model": {
    "bornEffect": "",
    "attachEffect": "",
    "BKPFGNPLDNJ": ""
  },
  "dither": {
    "showDitherDuration": 2.0
  },
  "combat": {
    "property": {
      "endureType": "Monster_Slime",
      "weight": 300.0
    },
    "beHit": {
      "hitBloodEffect": "",
      "IEKJNLDFOCL": true
    },
    "combatLock": {
      "lockShape": "CircleLockEnemy",
      "lockType": "Avatar&Monster_Lv4"
    },
    "die": {
      "hasAnimatorDie": true,
      "fallWhenAirDie": false,
      "dieEndTime": 1.0,
      "dieForceDisappearTime": 4.0,
      "dieDisappearEffect": "Eff_Death_InWater_Common",
      "dieShaderData": "MonsterDieInWater",
      "dieShaderEnableDurationTime": 0.5,
      "dieModelFadeDelay": 0.5,
      "muteHitBox": true,
      "dieDenyLockOn": true,
      "dieIsGhostToEnemy": true,
      "dieIgnoreTriggerBullet": true,
      "muteBillboard": true,
      "mutePushCollider": true
    }
  },
  "abilities": [
    {
      "abilityID": "",
      "abilityName": "FauneAbyssale_Seal_Larva_Born",
      "abilityOverride": ""
    },
    {
      "abilityID": "",
      "abilityName": "Monster_FauneAbyssale_Seal_TriggerEnhanceBullet",
      "abilityOverride": ""
    },
    {
      "abilityID": "",
      "abilityName": "FauneAbyssale_Seal_Larva_FreeSkillsBinding",
      "abilityOverride": ""
    },
    {
      "abilityID": "",
      "abilityName": "Monster_FauneAbyssale_Seal_Large_Pace",
      "abilityOverride": ""
    },
    {
      "abilityID": "",
      "abilityName": "Monster_FauneAbyssale_Seal_HideBody",
      "abilityOverride": ""
    },
    {
      "abilityID": "",
      "abilityName": "Monster_FauneAbyssale_Seal_EnhanceBullet_AS",
      "abilityOverride": ""
    }
  ],
  "stateLayers": {
    "defaultLayer": {
      "$type": "GBGJJIIEMBD",
      "layerIndexName": "",
      "CPAANEIJCGD": "",
      "stateIDs": {
        "Born": {
          "$type": "NEDIFAKEGCO",
          "animatorStates": {
            "Born": []
          }
        },
        "NormalIdle": {
          "$type": "NEDIFAKEGCO",
          "animatorStates": {
            "Standby": [],
            "StandbyFree": []
          },
          "canDoSkill": true,
          "canSyncMove": true,
          "resetAnimatorTriggerOnExit": ["DoSkill"],
          "canSteer": true
        },
        "NormalMove": {
          "$type": "NEDIFAKEGCO",
          "animatorStates": {
            "Walk": [],
            "Walk_BS": [],
            "WalkFreeForLarge": [],
            "WalkFreeForLarge_BS": []
          },
          "canDoSkill": true,
          "canSyncMove": true,
          "resetAnimatorTriggerOnExit": ["DoSkill"],
          "canSteer": true,
          "blendMove": "BlendMove"
        },
        "Struggle": {
          "$type": "NEDIFAKEGCO",
          "animatorStates": {
            "Struggle": ["Audio_Seal_Enormous_01Struggle_Absorbed"]
          },
          "resetAnimatorTriggerOnEnter": ["BeHit", "HitAir2HitDrop"],
          "resetAnimatorTriggerOnExit": ["DoSkill"],
          "airMoveFollowAnimation": true
        },
        "Die": {
          "$type": "NEDIFAKEGCO",
          "animatorStates": {
            "Die": [
              "Monster_FauneAbyssale_Seal_Die",
              "Audio_Monster_FauneAbyssale_Seal_Larva_02_Personality1_Die"
            ]
          },
          "resetAnimatorTriggerOnEnter": ["BeHit", "DoSkill", "BeHit"]
        },
        "NormalAttack1_BS": {
          "$type": "NEDIFAKEGCO",
          "animatorStates": {
            "NormalAttack1_BS": [
              "Audio_Monster_FauneAbyssale_Seal_Larva_02_NormalAttack1_BS"
            ]
          },
          "canSyncMove": true,
          "cullingModelAlwaysAnimate": true,
          "resetAnimatorTriggerOnExit": ["BeHit", "DoSkill"],
          "canSteer": true
        },
        "NormalAttack1_Loop": {
          "$type": "NEDIFAKEGCO",
          "animatorStates": {
            "NormalAttack1_Loop1": [
              "Monster_FauneAbyssale_Seal_TriggerEnhanceBullet",
              "Audio_Monster_FauneAbyssale_Seal_Larva_02_NormalAttack1_Loop1"
            ]
          },
          "canSyncMove": true,
          "cullingModelAlwaysAnimate": true,
          "resetAnimatorTriggerOnExit": ["BeHit", "DoSkill"],
          "canSteer": true
        },
        "NormalAttack1_AS": {
          "$type": "NEDIFAKEGCO",
          "animatorStates": {
            "NormalAttack1_AS": [
              "Audio_Monster_FauneAbyssale_Seal_Larva_02_NormalAttack1_AS"
            ]
          },
          "resetAnimatorTriggerOnExit": ["BeHit", "DoSkill"],
          "canSteer": true
        },
        "Alert": {
          "$type": "NEDIFAKEGCO",
          "animatorStates": {
            "Alert": [
              "Eff_Monster_FauneAbyssale_Seal_Alert",
              "Audio_Monster_FauneAbyssale_Seal_Larva_02_Alert"
            ]
          },
          "resetAnimatorTriggerOnExit": ["BeHit", "DoSkill"],
          "canSteer": true
        },
        "Personality1_BS": {
          "$type": "NEDIFAKEGCO",
          "animatorStates": {
            "Personality1_BS": [
              "Audio_Monster_FauneAbyssale_Seal_Larva_Personality1_BS"
            ]
          },
          "resetAnimatorTriggerOnExit": ["BeHit", "DoSkill"],
          "canSteer": true
        },
        "Personality1": {
          "$type": "NEDIFAKEGCO",
          "animatorStates": {
            "Personality1_Loop": [
              "Monster_FauneAbyssale_Seal_Larva_SingleSing",
              "Audio_Monster_FauneAbyssale_Seal_Larva_02_Personality1_Loop"
            ]
          },
          "resetAnimatorTriggerOnExit": ["BeHit", "DoSkill"],
          "canSteer": true
        },
        "Personality1_AS": {
          "$type": "NEDIFAKEGCO",
          "animatorStates": {
            "Personality1_AS": [
              "Audio_Monster_FauneAbyssale_Seal_Larva_02_Personality1_AS"
            ]
          },
          "resetAnimatorTriggerOnExit": ["BeHit", "DoSkill"],
          "canSteer": true
        },
        "Personality4": {
          "$type": "NEDIFAKEGCO",
          "animatorStates": {
            "Personality4": []
          },
          "resetAnimatorTriggerOnExit": ["BeHit", "DoSkill"],
          "canSteer": true,
          "BNFBKHPGMMB": true
        }
      }
    }
  },
  "billboard": {
    "$type": "DNGNMAJBCNP",
    "attachPoint": "BillboardAttach",
    "offset": {
      "y": 0.5
    },
    "radiusOffset": 1.0,
    "enableSelfAdapt": true,
    "showHPBar": true,
    "forceShowDistance": 15.0
  },
  "initialPoses": {
    "Mute": {
      "initialPoseID": 99,
      "initialPoseParams": {
        "intParams": {
          "FreeState": "99"
        }
      }
    },
    "Default": {
      "initialPoseID": 11,
      "initialPoseParams": {
        "intParams": {
          "FreeState": "0"
        }
      }
    },
    "Circling2": {
      "initialPoseID": 13,
      "initialPoseParams": {
        "intParams": {
          "FreeState": "6"
        }
      }
    },
    "Circling": {
      "initialPoseID": 17,
      "initialPoseParams": {
        "intParams": {
          "FreeState": "6"
        }
      }
    }
  },
  "aibeta": {
    "enable": true,
    "decisionArchetype": "EnableCastSkillWhenCircling",
    "moveSetting": {
      "moveCategory": "Dive",
      "useNavMesh": false,
      "useToTheMoon": true,
      "navMeshAgentName": "Undead01"
    },
    "sensing": {
      "settings": {
        "DefaultSetting": {
          "viewRange": 25.0,
          "hearAttractionRange": 0.0,
          "feelRange": 10.0,
          "sourcelessHitAttractionRange": 20.0
        },
        "HighAlert": {
          "viewRange": 25.0,
          "viewPanoramic": true,
          "hearAttractionRange": 0.0,
          "feelRange": 10.0,
          "sourcelessHitAttractionRange": 20.0
        }
      },
      "templates": {
        "DefaultTemplate": {
          "DefaultPoses": "DefaultSetting",
          "201": "HighAlert",
          "203": "HighAlert",
          "901": "HighAlert"
        }
      }
    },
    "neurons": {
      "DefaultSetting": ["HIT"]
    },
    "threat": {
      "GHIJMOKOLMB": "",
      "threatDecreaseSpeed": 45.0,
      "viewAttenuation": [
        {
          "x": 10.0,
          "y": 1.0
        },
        {
          "x": 15.0,
          "y": 0.800000011920929
        },
        {
          "x": 20.0,
          "y": 0.4000000059604645
        },
        {
          "x": 25.0,
          "y": 0.20000000298023224
        }
      ]
    },
    "defendArea": {
      "defendRange": 80.0
    },
    "fly": {
      "enable": true,
      "IPJLPEHKCJA": [11, 13, 17, 99, 201, 203, 901]
    },
    "skills": {
      "201": {
        "name": "NormalAttack1",
        "combatSkillType": "RangedAttack",
        "priority": 2,
        "castCondition": {
          "pose": [201, 203],
          "BNLDGHLANLI": [2]
        },
        "cd": 5.5,
        "cdUpperRange": 2.0,
        "initialCD": 7.0,
        "publicCDGroup": "",
        "HHAGODJIAPE": "",
        "stateIDs": [
          "NormalAttack1_BS",
          "NormalAttack1_Loop",
          "NormalAttack1_AS"
        ],
        "flagTargetReachable": "11",
        "flagSelfOnTemplateCollider": "11",
        "flagSelfInZone": "11",
        "flagTargetInZone": "11"
      },
      "202": {
        "name": "Personality1",
        "priority": 1,
        "castCondition": {
          "pose": [203],
          "BNLDGHLANLI": [2]
        },
        "cd": 7.5,
        "initialCD": 6.0,
        "publicCDGroup": "",
        "HHAGODJIAPE": "",
        "stateIDs": [
          "Personality1_BS",
          "Personality1",
          "Personality1_AS",
          "Personality4"
        ],
        "flagTargetReachable": "11",
        "flagSelfOnTemplateCollider": "11",
        "flagSelfInZone": "11",
        "flagTargetInZone": "11"
      },
      "203": {
        "name": "Personality4",
        "priority": 2,
        "canUseCombatSkillCondition": true,
        "castCondition": {
          "pose": [201],
          "BNLDGHLANLI": [2],
          "skillAnchorRangeMin": -1.0,
          "targetSkillAnchorRangeMin": -1.0,
          "EELFCDOLLPM": 7.5,
          "pickRangeByRaycast": [
            {
              "min": 5.0,
              "max": -1.0,
              "raycastType": "DownToGroundOnlyInWater"
            }
          ]
        },
        "cd": 20.0,
        "cdUpperRange": 2.5,
        "initialCD": 5.0,
        "publicCDGroup": "",
        "HHAGODJIAPE": "",
        "stateIDs": ["Personality4"],
        "flagTargetReachable": "11",
        "flagSelfOnTemplateCollider": "11",
        "flagSelfInZone": "11",
        "flagTargetInZone": "11"
      },
      "100": {
        "name": "OnAlert",
        "skillType": "OnAlert",
        "faceTarget": true,
        "castCondition": {
          "pose": [11, 13, 17, 99]
        },
        "publicCDGroup": "",
        "ignoreGCD": true,
        "triggerGCD": false,
        "HHAGODJIAPE": "",
        "stateIDs": ["Alert"],
        "skillQueryingTime": 3.0,
        "flagTargetReachable": "10",
        "flagSelfOnTemplateCollider": "01",
        "flagSelfInZone": "10",
        "flagTargetInZone": "11",
        "nerveTrigger": ["HIT"]
      }
    },
    "skillGCD": 3.5,
    "aidingTactic": {
      "Temp1": {
        "KBHAIMODNGL": 0.30000001192092896,
        "IKCMKBHPKMA": 0.699999988079071,
        "GINJMMLNHIA": 30.0,
        "HIFACMDKHHK": -30.0
      },
      "Temp2": {
        "DFOBCOJHJHD": false,
        "DMIEPEEDPDJ": 30.0,
        "GINJMMLNHIA": 90.0,
        "HIFACMDKHHK": -90.0
      }
    },
    "birdCirclingTactic": [
      {
        "$type": "ALAPAEDAFML",
        "enable": true,
        "condition": {
          "pose": [13, 17]
        },
        "JMCOBEPDIGM": {
          "GILNINLDIAJ": false
        },
        "PIOCBHLFLJP": {
          "13": {
            "radius": 1.0,
            "GILNINLDIAJ": false
          }
        }
      },
      {
        "$type": "MCDGOJLCMBM",
        "JMCOBEPDIGM": {
          "DMGAHPPFMPK": 2.0,
          "FLENLLDBFGP": 2.0,
          "ACOBCFCMBOC": "Auto",
          "MNPDDAKDHGK": "",
          "GJDMDHIBCME": "Temp2"
        }
      },
      {
        "$type": "COLLJLNKMLC",
        "JMCOBEPDIGM": {
          "ANLAAGAMIKF": 1,
          "MNPDDAKDHGK": "",
          "GJDMDHIBCME": "Temp2",
          "ACOBCFCMBOC": "Auto",
          "PLLHMGHOAPB": "",
          "KPIJNGFNAEF": "",
          "GDPHPLKJGAJ": "",
          "KKKOAABEHEP": ""
        }
      },
      {
        "$type": "GPEMIAJPPJG",
        "enable": true,
        "condition": {
          "pose": [99]
        },
        "JMCOBEPDIGM": {
          "ANLAAGAMIKF": 1,
          "ACOBCFCMBOC": "Auto",
          "MNPDDAKDHGK": "",
          "GJDMDHIBCME": "Temp2"
        }
      },
      {
        "$type": "NNJKLGNPMNN",
        "enable": true,
        "JMCOBEPDIGM": {
          "NBENNEKDIIA": 5.0,
          "DHGJDIPNDHH": 5.0,
          "ACOBCFCMBOC": "Auto",
          "MNPDDAKDHGK": "",
          "GJDMDHIBCME": "Temp2"
        }
      },
      {
        "$type": "MJJFBALNDCH",
        "JMCOBEPDIGM": {
          "ANLAAGAMIKF": 1,
          "DDFIKIJKKOE": true,
          "MNPDDAKDHGK": "",
          "GJDMDHIBCME": "Temp2"
        }
      },
      {
        "$type": "EPPOBBAEPED",
        "enable": true,
        "condition": {
          "pose": [11, 201, 203]
        },
        "JMCOBEPDIGM": {
          "ANLAAGAMIKF": 2,
          "FAKGFIDPCFL": 30.5,
          "GHCEDMEHKLN": 20.5,
          "ONFAMCFCNFM": 0.0,
          "KLODEFMNFIC": 1.0,
          "MNPDDAKDHGK": "",
          "GJDMDHIBCME": "Temp2"
        }
      },
      {
        "$type": "AFPKJOCDEIF",
        "enable": true,
        "condition": {
          "pose": [11, 201, 203]
        },
        "JMCOBEPDIGM": {
          "ANLAAGAMIKF": 1,
          "OODBIGLAFGG": {
            "OJLPFPNFMDJ": 4.5,
            "JFBDDDBIHDE": 10.5,
            "EHLPOCLAEFO": 0.0,
            "APHHENPJNLO": 0.0,
            "AKMJKEIJEHM": 4.0,
            "PELOBMPBAJF": 10.0,
            "BLOIJOGPILM": 4.0,
            "GNFCHLHAPNI": 10.0,
            "DFHLPPNLGIE": 3.0,
            "CLDDLKFCODO": 10.0,
            "GNJEAKAKLHD": 3.0,
            "EHAGCHIFFHA": 10.0
          },
          "NBENNEKDIIA": 1.0,
          "NNMEJAFDPEJ": 10.0,
          "KPNDPKIOPJM": 0.20000000298023224,
          "PINAFKEDDLL": 0.10000000149011612,
          "MNPDDAKDHGK": "",
          "GJDMDHIBCME": "",
          "KHJGKBJCNLM": 1.5,
          "DNEGGCDNMKL": 120.0,
          "OPPALPGLBJI": 60.0,
          "BHEHHOJOGEI": 0.30000001192092896,
          "OIGAJIFCDMI": 3.0,
          "BMDNOGNPICH": 3.0,
          "EIGFLPCINME": 3.0,
          "IGPFOHBHOCM": true,
          "LGEJMHHKDHD": 1.5,
          "LDOEAHKEMMH": 0.5,
          "FJELCNEOPLE": 0.33000001311302185,
          "BKPKJEDPJCK": -0.5,
          "CMCKJBFDDDM": 0.5,
          "JJGCFCNPKAD": 0.6600000262260437
        },
        "PIOCBHLFLJP": {
          "201": {
            "OODBIGLAFGG": {
              "OJLPFPNFMDJ": 12.5,
              "JFBDDDBIHDE": 20.0,
              "EHLPOCLAEFO": 0.0,
              "APHHENPJNLO": 0.0,
              "AKMJKEIJEHM": 13.0,
              "PELOBMPBAJF": 15.0,
              "BLOIJOGPILM": 13.0,
              "GNFCHLHAPNI": 15.0,
              "DFHLPPNLGIE": 3.5,
              "CLDDLKFCODO": 7.5,
              "GNJEAKAKLHD": 3.5,
              "EHAGCHIFFHA": 7.5
            },
            "NBENNEKDIIA": 2.0,
            "NNMEJAFDPEJ": 5.0,
            "KPNDPKIOPJM": 3.0,
            "PINAFKEDDLL": 1.0,
            "MNPDDAKDHGK": "",
            "GJDMDHIBCME": "",
            "BHEHHOJOGEI": 0.75,
            "OIGAJIFCDMI": 3.0,
            "BMDNOGNPICH": 3.0,
            "EIGFLPCINME": 3.0,
            "ANMPOPEBDIA": 50.0
          },
          "203": {
            "OODBIGLAFGG": {
              "OJLPFPNFMDJ": 12.5,
              "JFBDDDBIHDE": 20.0,
              "EHLPOCLAEFO": 0.0,
              "APHHENPJNLO": 0.0,
              "AKMJKEIJEHM": 13.0,
              "PELOBMPBAJF": 15.0,
              "BLOIJOGPILM": 13.0,
              "GNFCHLHAPNI": 15.0,
              "DFHLPPNLGIE": 3.5,
              "CLDDLKFCODO": 7.5,
              "GNJEAKAKLHD": 3.5,
              "EHAGCHIFFHA": 7.5
            },
            "NBENNEKDIIA": 2.0,
            "NNMEJAFDPEJ": 5.0,
            "KPNDPKIOPJM": 3.0,
            "PINAFKEDDLL": 1.0,
            "MNPDDAKDHGK": "",
            "GJDMDHIBCME": "Temp2",
            "BHEHHOJOGEI": 0.75,
            "OIGAJIFCDMI": 3.0,
            "BMDNOGNPICH": 3.0,
            "EIGFLPCINME": 3.0,
            "ANMPOPEBDIA": 50.0
          }
        }
      }
    ]
  },
  "inputKeys": [
    {
      "keyID": 101,
      "inputKeyCode": 257,
      "abilityName": ""
    },
    {
      "keyID": 102,
      "inputKeyCode": 258,
      "abilityName": ""
    },
    {
      "keyID": 103,
      "inputKeyCode": 259,
      "abilityName": ""
    },
    {
      "keyID": 201,
      "inputKeyCode": 260,
      "abilityName": ""
    },
    {
      "keyID": 100,
      "inputKeyCode": 261,
      "abilityName": ""
    },
    {
      "keyID": 104,
      "inputKeyCode": 262,
      "abilityName": ""
    },
    {
      "keyID": 202,
      "inputKeyCode": 263,
      "abilityName": ""
    },
    {
      "keyID": 203,
      "inputKeyCode": 264,
      "abilityName": ""
    },
    {
      "keyID": 105,
      "inputKeyCode": 265,
      "abilityName": ""
    }
  ],
  "move": {
    "$type": "IPNMJMHDMPF",
    "velocityForce": {
      "excludeForces": ["RetreatType", "RetreatAirType"]
    },
    "handleCombatTaskImmediately": true,
    "initWithGroundHitCheckV2": false,
    "raycasts": [
      {
        "raycastLength": 5.0,
        "raycastType": "DownToGroundOnlyInWater",
        "startPoint": ""
      }
    ],
    "OGBEFBMLJJI": true,
    "positionModifyState": "None",
    "yawSpeedRatio": 0.75,
    "positionModifyExtra": true,
    "PKHOMJHFAEE": "RootNode",
    "NIDFEFPEKAI": 30.0,
    "JNAPCJLHJDO": true
  },
  "audio": {
    "overrideEmitterName": "",
    "animAudio": {
      "onTransitionIn": [
        {
          "currentStateName": "",
          "audioEvent": {
            "text": ""
          }
        }
      ],
      "onTransitionOut": [
        {
          "currentStateName": "",
          "audioEvent": {
            "text": ""
          }
        }
      ]
    }
  }
}
