{
  "common": {
    "effectAttachShape": {
      "$type": "FJNPJANPGGC",
      "mesh": "EffectMesh"
    },
    "mass": 9999999.0,
    "height": 0.699999988079071,
    "viewSize": 1.5,
    "affectedByWorld": true,
    "checkInSurface": true,
    "scale": 1.5,
    "canTriggerElementReactionText": false
  },
  "model": {
    "bornEffect": "",
    "attachEffect": "",
    "canBakeMesh": false,
    "BKPFGNPLDNJ": ""
  },
  "dither": {
    "showDitherDuration": 2.0
  },
  "globalValue": {
    "serverGlobalValues": ["SGV_STAGE"],
    "initServerGlobalValues": {
      "SGV_STAGE": 1.0
    }
  },
  "combat": {
    "property": {
      "endureType": "Monster_Minion",
      "weight": 40.0
    },
    "beHit": {
      "hitBloodEffect": "",
      "muteAllHitText": true
    },
    "combatLock": {
      "lockShape": "CircleLockEnemy",
      "lockType": "Animal_Lv2"
    },
    "die": {
      "fallWhenAirDie": false,
      "dieEndTime": 2.0,
      "dieForceDisappearTime": 10.0,
      "dieDisappearEffect": ""
    }
  },
  "abilities": [
    {
      "abilityID": "AIStateInitial",
      "abilityName": "Animal_Wigeon_AIStateInitial",
      "abilityOverride": ""
    },
    {
      "abilityID": "Random",
      "abilityName": "Animal_Wigeon_Random",
      "abilityOverride": ""
    },
    {
      "abilityID": "FlyDown",
      "abilityName": "Animal_Wigeon_FlyDown",
      "abilityOverride": ""
    },
    {
      "abilityID": "FlyUp",
      "abilityName": "Animal_Wigeon_FlyUp",
      "abilityOverride": ""
    },
    {
      "abilityID": "ToWander",
      "abilityName": "Animal_Wigeon_ToWander",
      "abilityOverride": ""
    },
    {
      "abilityID": "ToIdle",
      "abilityName": "Animal_Wigeon_ToIdle",
      "abilityOverride": ""
    },
    {
      "abilityID": "Animal_Wigeon_Flee",
      "abilityName": "Animal_Wigeon_Flee",
      "abilityOverride": ""
    },
    {
      "abilityID": "Bird_Feather",
      "abilityName": "Animal_Wigeon_FlyEffect",
      "abilityOverride": ""
    },
    {
      "abilityID": "Animal_Wigeon_Disappear",
      "abilityName": "Animal_Wigeon_Disappear",
      "abilityOverride": ""
    },
    {
      "abilityID": "",
      "abilityName": "Animal_Boar_Hunt_BeCaptured_Disappear",
      "abilityOverride": ""
    },
    {
      "abilityID": "",
      "abilityName": "Animal_Hunt_Sneak_Attract_Effect",
      "abilityOverride": ""
    },
    {
      "abilityID": "",
      "abilityName": "Animal_Hunt_AlertHideBillboard",
      "abilityOverride": ""
    },
    {
      "abilityID": "",
      "abilityName": "Animal_Wigeon_Hunt_Disappear",
      "abilityOverride": ""
    }
  ],
  "stateLayers": {
    "defaultLayer": {
      "$type": "GBGJJIIEMBD",
      "layerIndexName": "",
      "CPAANEIJCGD": "",
      "stateIDs": {
        "Born": {
          "$type": "NEDIFAKEGCO",
          "animatorStates": {
            "Born": []
          },
          "resetAnimatorTriggerOnExit": ["DoSkill"]
        },
        "NormalIdle": {
          "$type": "NEDIFAKEGCO",
          "animatorStates": {
            "Standby": ["Audio_Wigeon_Standby"]
          },
          "canDoSkill": true,
          "canSyncMove": true,
          "resetAnimatorTriggerOnExit": ["DoSkill"]
        },
        "NormalMove": {
          "$type": "NEDIFAKEGCO",
          "animatorStates": {
            "Walk": ["Audio_Wigeon_Walk"],
            "LandWalk": ["Audio_Wigeon_Walk"]
          },
          "canDoSkill": true,
          "canSyncMove": true,
          "resetAnimatorTriggerOnExit": ["DoSkill"],
          "canSteer": true
        },
        "Run": {
          "$type": "NEDIFAKEGCO",
          "animatorStates": {
            "Run": ["Audio_Wigeon_Run"],
            "Scard": ["Animal_Wigeon_Scard", "Audio_Wigeon_TakeOff"]
          },
          "canDoSkill": true,
          "canSyncMove": true,
          "resetAnimatorTriggerOnExit": ["DoSkill"],
          "canSteer": true
        },
        "FlyDown": {
          "$type": "NEDIFAKEGCO",
          "animatorStates": {
            "FlyDown": ["Audio_Wigeon_Land"],
            "Land": ["Audio_Wigeon_Land"],
            "LandToGround": [
              "Animal_Wigeon_LandToGround",
              "Audio_Wigeon_LandToGround"
            ]
          },
          "canSyncMove": true,
          "resetAnimatorTriggerOnEnter": ["HitAir2HitDrop"],
          "resetAnimatorTriggerOnExit": ["DoSkill"],
          "canSteer": true
        },
        "FlyUp": {
          "$type": "NEDIFAKEGCO",
          "animatorStates": {
            "TakeOff": ["Animal_Wigeon_TakeOff", "Audio_Wigeon_LandToGround"],
            "FlyUp": ["Audio_Wigeon_FlyUp"],
            "Disappear": ["Animal_Wigeon_Disappear", "Audio_Wigeon_FlyUp"]
          },
          "canSyncMove": true,
          "resetAnimatorTriggerOnExit": ["DoSkill"],
          "canSteer": true
        },
        "BeHit": {
          "$type": "NEDIFAKEGCO",
          "animatorStates": {
            "Hit_L": ["Audio_Wigeon_Standby"]
          },
          "resetAnimatorTriggerOnEnter": ["BeHit"],
          "resetAnimatorTriggerOnExit": ["DoSkill"]
        },
        "Die": {
          "$type": "NEDIFAKEGCO",
          "animatorStates": {
            "Die": ["Animal_Wigeon_Die"],
            "Die_Disappear": ["Animal_Wigeon_Disappear"]
          }
        },
        "Alert": {
          "$type": "NEDIFAKEGCO",
          "animatorStates": {
            "Alert": ["Animal_Wigeon_Alert"]
          },
          "canDoSkill": true,
          "resetAnimatorTriggerOnExit": ["BeHit", "DoSkill"]
        },
        "ToWander": {
          "$type": "NEDIFAKEGCO",
          "animatorStates": {
            "ToWander": ["Animal_Wigeon_ToWander", "Audio_Wigeon_Standby"]
          },
          "canDoSkill": true,
          "resetAnimatorTriggerOnExit": ["BeHit", "DoSkill"]
        },
        "ToIdle": {
          "$type": "NEDIFAKEGCO",
          "animatorStates": {
            "ToIdle": ["Animal_Wigeon_ToIdle", "Audio_Wigeon_Standby"]
          },
          "canDoSkill": true,
          "resetAnimatorTriggerOnExit": ["BeHit", "DoSkill"]
        },
        "Personality_101": {
          "$type": "NEDIFAKEGCO",
          "animatorStates": {
            "Personality_101": [
              "Animal_Wigeon_Personality1",
              "Audio_Wigeon_Personality_101"
            ]
          },
          "canDoSkill": true,
          "resetAnimatorTriggerOnExit": ["BeHit", "DoSkill"]
        },
        "Personality_102": {
          "$type": "NEDIFAKEGCO",
          "animatorStates": {
            "Personality_102": [
              "Animal_Wigeon_Personality_102",
              "Animal_Wigeon_Personality2",
              "Audio_Wigeon_Personality_102"
            ]
          },
          "canDoSkill": true,
          "resetAnimatorTriggerOnExit": ["BeHit", "DoSkill"]
        },
        "Personality_103": {
          "$type": "NEDIFAKEGCO",
          "animatorStates": {
            "Personality_103": ["Audio_Wigeon_Personality_103"]
          },
          "canDoSkill": true,
          "resetAnimatorTriggerOnExit": ["BeHit", "DoSkill"]
        },
        "SurroundAction": {
          "$type": "NEDIFAKEGCO",
          "animatorStates": {
            "SurroundAction01": [
              "Animal_Wigeon_Personality1",
              "Animal_Wigeon_ToIdle",
              "Audio_Wigeon_Personality_101"
            ]
          },
          "canDoSkill": true,
          "resetAnimatorTriggerOnExit": ["BeHit", "DoSkill"]
        },
        "Attract": {
          "$type": "NEDIFAKEGCO",
          "animatorStates": {
            "Attract": []
          },
          "canDoSkill": true,
          "resetAnimatorTriggerOnExit": ["BeHit", "DoSkill"]
        },
        "Search": {
          "$type": "NEDIFAKEGCO",
          "animatorStates": {
            "Search": []
          },
          "canDoSkill": true,
          "resetAnimatorTriggerOnExit": ["BeHit", "DoSkill"]
        }
      }
    }
  },
  "billboard": {
    "$type": "DNGNMAJBCNP",
    "attachPoint": "BillboardAttach",
    "offset": {
      "y": 0.6000000238418579
    },
    "offsetType": "Character",
    "showDistance": 50.0,
    "showHPBar": true,
    "size": "Small",
    "shieldBarOnly": true
  },
  "initialPoses": {
    "Default": {},
    "FlyDown": {
      "initialPoseID": 901,
      "initialPoseParams": {
        "boolParams": {
          "FlyState": "true"
        }
      }
    },
    "Idle": {
      "initialPoseID": 2,
      "initialPoseParams": {
        "boolParams": {
          "FlyState": "false",
          "WanderState": "false"
        }
      }
    },
    "Hunt_Sneak": {
      "initialPoseID": 1001,
      "initialPoseParams": {
        "boolParams": {
          "HuntSneak": "true"
        }
      }
    }
  },
  "aibeta": {
    "enable": true,
    "moveSetting": {
      "moveCategory": "Water",
      "useNavMesh": false,
      "navMeshAgentName": "Undead01"
    },
    "sensing": {
      "settings": {
        "DefaultSetting": {
          "sensitivity": 2.5,
          "viewRange": 7.0,
          "hearAttractionRange": 8.0,
          "feelRange": 7.0
        }
      }
    },
    "neurons": {
      "DefaultSetting": ["HIT", "FEAR"],
      "Surround": ["HIT", "SURROUND"]
    },
    "threat": {
      "GHIJMOKOLMB": "",
      "clearThreatTargetDistance": 15.0,
      "clearThreatTimerByDistance": 1.0,
      "viewThreatGrow": 35.0,
      "feelThreatGrow": 67.0,
      "threatDecreaseSpeed": 100.0,
      "viewAttenuation": [
        {
          "x": 5.0,
          "y": 1.0
        },
        {
          "x": 10.0,
          "y": 0.75
        }
      ]
    },
    "defendArea": {
      "defendRange": 100.0
    },
    "ui": {
      "hasDirectionIndicator": false,
      "HMNNBFDEHLG": ""
    },
    "skills": {
      "2": {
        "name": "OnAlert",
        "skillType": "OnAlert",
        "publicCDGroup": "",
        "ignoreGCD": true,
        "triggerGCD": false,
        "HHAGODJIAPE": "",
        "stateIDs": ["Alert"],
        "skillQueryingTime": 3.0,
        "flagTargetReachable": "10",
        "flagSelfOnTemplateCollider": "01",
        "flagSelfInZone": "10",
        "flagTargetInZone": "11"
      },
      "101": {
        "name": "Personality_101",
        "skillType": "Free",
        "castCondition": {
          "pose": [2]
        },
        "cd": 15.0,
        "cdUpperRange": 25.0,
        "initialCD": 2.5,
        "initialCDUpperRange": 5.0,
        "publicCDGroup": "",
        "HHAGODJIAPE": "",
        "stateIDs": ["Personality_101"],
        "flagTargetReachable": "10",
        "flagSelfOnTemplateCollider": "01",
        "flagSelfInZone": "10",
        "flagTargetInZone": "11"
      },
      "102": {
        "name": "Personality_102",
        "skillType": "Free",
        "castCondition": {
          "pose": [2]
        },
        "cd": 15.0,
        "cdUpperRange": 25.0,
        "initialCD": 2.5,
        "initialCDUpperRange": 5.0,
        "publicCDGroup": "",
        "HHAGODJIAPE": "",
        "stateIDs": ["Personality_102"],
        "flagTargetReachable": "10",
        "flagSelfOnTemplateCollider": "01",
        "flagSelfInZone": "10",
        "flagTargetInZone": "11"
      },
      "103": {
        "name": "Personality_103",
        "skillType": "Free",
        "castCondition": {
          "pose": [2]
        },
        "cd": 15.0,
        "cdUpperRange": 25.0,
        "initialCD": 2.5,
        "initialCDUpperRange": 5.0,
        "publicCDGroup": "",
        "HHAGODJIAPE": "",
        "stateIDs": ["Personality_103"],
        "flagTargetReachable": "10",
        "flagSelfOnTemplateCollider": "01",
        "flagSelfInZone": "10",
        "flagTargetInZone": "11"
      },
      "201": {
        "name": "ToWander",
        "skillType": "Free",
        "priority": 1,
        "castCondition": {
          "pose": [2]
        },
        "cd": 5.0,
        "cdUpperRange": 5.0,
        "initialCD": 5.0,
        "initialCDUpperRange": 5.0,
        "publicCDGroup": "",
        "ignoreGCD": true,
        "HHAGODJIAPE": "",
        "stateIDs": ["ToWander"],
        "flagTargetReachable": "10",
        "flagSelfOnTemplateCollider": "01",
        "flagSelfInZone": "10",
        "flagTargetInZone": "11"
      },
      "202": {
        "name": "ToIdle",
        "skillType": "Free",
        "priority": 1,
        "castCondition": {
          "pose": [1]
        },
        "cd": 20.0,
        "cdUpperRange": 20.0,
        "initialCD": 20.0,
        "initialCDUpperRange": 20.0,
        "publicCDGroup": "",
        "ignoreGCD": true,
        "HHAGODJIAPE": "",
        "stateIDs": ["ToIdle"],
        "flagTargetReachable": "10",
        "flagSelfOnTemplateCollider": "01",
        "flagSelfInZone": "10",
        "flagTargetInZone": "11"
      },
      "1001": {
        "name": "SurroundAction",
        "skillType": "ActionPoint",
        "castCondition": {
          "pose": [1, 2]
        },
        "publicCDGroup": "",
        "ignoreGCD": true,
        "triggerGCD": false,
        "HHAGODJIAPE": "",
        "stateIDs": ["SurroundAction"],
        "flagTargetReachable": "10",
        "flagSelfOnTemplateCollider": "01",
        "flagSelfInZone": "10",
        "flagTargetInZone": "11"
      }
    },
    "skillGCD": 2.5
  },
  "inputKeys": [
    {
      "keyID": 101,
      "inputKeyCode": 257,
      "abilityName": ""
    },
    {
      "keyID": 102,
      "inputKeyCode": 258,
      "abilityName": ""
    },
    {
      "keyID": 103,
      "inputKeyCode": 259,
      "abilityName": ""
    }
  ],
  "move": {
    "$type": "IPNMJMHDMPF",
    "moveOnGround": false,
    "moveOnWater": true,
    "moveOnWaterDepth": 0.10000000149011612,
    "PKHOMJHFAEE": "RootNode"
  },
  "animal": {
    "tickAbilityElement": false,
    "hasCharacterRenderering": false
  },
  "captureGroup": {
    "defaultConfig": {
      "captureEffect": "Eff_SceneObj_CatchAnimal_CaughtSuccess"
    }
  }
}
