{
  "common": {
    "effectAttachShape": {
      "$type": "FJNPJANPGGC",
      "mesh": "EffectMesh"
    },
    "mass": 80.0,
    "height": 0.6000000238418579,
    "viewSize": 1.75,
    "affectedByWorld": true,
    "checkInSurface": true,
    "clearAnimatorOnSetLightDeactive": true,
    "clearAIOnSetLightDeactive": true,
    "recoverByInitPose": true
  },
  "headControl": {
    "$type": "KPIPDEBDPIH",
    "useHeadControl": true,
    "maxPitchDegree": 45.0
  },
  "model": {
    "bornEffect": "",
    "attachEffect": "",
    "canBakeMesh": false,
    "BKPFGNPLDNJ": ""
  },
  "dither": {
    "showDitherDuration": 2.0
  },
  "combat": {
    "property": {
      "endureType": "Monster_Grunt_Humanoid",
      "weight": 80.0
    },
    "beHit": {
      "hitBloodEffect": ""
    },
    "combatLock": {
      "lockShape": "CircleLockEnemy",
      "lockType": "Avatar&Monster_Lv4"
    },
    "die": {
      "dieEndTime": 0.20000000298023224,
      "dieForceDisappearTime": 1.0,
      "dieDisappearEffect": "",
      "dieShaderData": "MonsterDie",
      "muteHitBox": true,
      "dieDenyLockOn": true,
      "dieIsGhostToEnemy": true,
      "dieIgnoreTriggerBullet": true,
      "muteBillboard": true,
      "mutePushCollider": true
    },
    "animEvents": {
      "Activated_Barrage_Hit1": {
        "attackPattern": {
          "$type": "ConfigAttackCircle",
          "triggerType": "TriggerNoRepeat",
          "born": {
            "$type": "ConfigBornByAttachPoint",
            "offset": {
              "x": 0.0,
              "y": -2.0,
              "z": 0.0
            },
            "attachPointName": "RootNode"
          },
          "height": 4.0,
          "radius": 3.5
        },
        "attackInfo": {
          "attackTag": "",
          "attenuationTag": "",
          "attenuationGroup": "default",
          "attackProperty": {
            "actorGrassSubHurtDelta": 1.0,
            "actorWindSubHurtDelta": 0.0,
            "elementType": "Grass",
            "elementDurability": 60.0,
            "strikeType": "Default",
            "enBreak": 100.0,
            "GLKMCMDJBIK": 0.0
          },
          "hitPattern": {
            "onHitEffectName": "default",
            "hitImpulseY": "",
            "hitImpulseType": "LV3",
            "retreatType": "ByHitDirection"
          },
          "canBeModifiedBy": "OriginOwner"
        }
      },
      "Activated_Barrage_Hit2": {
        "attackPattern": {
          "$type": "ConfigAttackCircle",
          "triggerType": "TriggerNoRepeat",
          "born": {
            "$type": "ConfigBornByAttachPoint",
            "offset": {
              "x": 0.0,
              "y": -2.0,
              "z": 0.0
            },
            "attachPointName": "RootNode"
          },
          "height": 4.0,
          "radius": 4.0
        },
        "attackInfo": {
          "attackTag": "",
          "attenuationTag": "",
          "attenuationGroup": "default",
          "attackProperty": {
            "actorGrassSubHurtDelta": 1.0,
            "actorWindSubHurtDelta": 0.0,
            "elementType": "Grass",
            "elementDurability": 80.0,
            "strikeType": "Default",
            "enBreak": 100.0,
            "GLKMCMDJBIK": 0.0
          },
          "hitPattern": {
            "onHitEffectName": "default",
            "hitImpulseY": "",
            "hitImpulseType": "LV3",
            "retreatType": "ByHitDirection"
          },
          "canBeModifiedBy": "OriginOwner"
        }
      },
      "Activated_Barrage_Hit3": {
        "attackPattern": {
          "$type": "ConfigAttackCircle",
          "triggerType": "TriggerNoRepeat",
          "born": {
            "$type": "ConfigBornByAttachPoint",
            "offset": {
              "x": 0.0,
              "y": -2.0,
              "z": 0.0
            },
            "attachPointName": "RootNode"
          },
          "height": 4.0,
          "radius": 5.0
        },
        "attackInfo": {
          "attackTag": "",
          "attenuationTag": "",
          "attenuationGroup": "default",
          "attackProperty": {
            "actorGrassSubHurtDelta": 1.0,
            "actorWindSubHurtDelta": 0.0,
            "elementType": "Grass",
            "elementDurability": 100.0,
            "strikeType": "Default",
            "enBreak": 100.0,
            "GLKMCMDJBIK": 0.0
          },
          "hitPattern": {
            "onHitEffectName": "default",
            "hitImpulseY": "",
            "hitImpulseType": "LV3",
            "retreatType": "ByHitDirection"
          },
          "canBeModifiedBy": "OriginOwner"
        }
      }
    }
  },
  "abilities": [
    {
      "abilityID": "",
      "abilityName": "Monster_Sylph_Activated_FaceChange",
      "abilityOverride": ""
    },
    {
      "abilityID": "",
      "abilityName": "Monster_Sylph_Grass_PoseHandler",
      "abilityOverride": ""
    },
    {
      "abilityID": "",
      "abilityName": "Monster_Sylph_Grass_PoseAction",
      "abilityOverride": ""
    },
    {
      "abilityID": "",
      "abilityName": "Monster_Sylph_Grass_Steer",
      "abilityOverride": ""
    },
    {
      "abilityID": "",
      "abilityName": "Monster_Sylph_Grass_ExitBattle",
      "abilityOverride": ""
    },
    {
      "abilityID": "",
      "abilityName": "Monster_Common_GrassMuteHurt",
      "abilityOverride": ""
    },
    {
      "abilityID": "",
      "abilityName": "Monster_Sylph_Grass_GrassBullet",
      "abilityOverride": ""
    },
    {
      "abilityID": "",
      "abilityName": "Monster_Sylph_Grass_GrassBulletTrigger",
      "abilityOverride": ""
    },
    {
      "abilityID": "",
      "abilityName": "Monster_Sylph_FlyHit",
      "abilityOverride": ""
    },
    {
      "abilityID": "",
      "abilityName": "Monster_Sylph_Grass_FlyHigh",
      "abilityOverride": ""
    },
    {
      "abilityID": "",
      "abilityName": "Monster_Sylph_Grass_Deathrattle",
      "abilityOverride": ""
    },
    {
      "abilityID": "",
      "abilityName": "Monster_Sylph_Grass_Activated_Barrage",
      "abilityOverride": ""
    },
    {
      "abilityID": "",
      "abilityName": "Monster_Sylph_Grass_Activated_Deathrattle",
      "abilityOverride": ""
    },
    {
      "abilityID": "",
      "abilityName": "Monster_Sylph_Deathrattle_PlayOnce",
      "abilityOverride": ""
    },
    {
      "abilityID": "",
      "abilityName": "Monster_Sylph_AlertnessTag",
      "abilityOverride": ""
    }
  ],
  "stateLayers": {
    "defaultLayer": {
      "$type": "GBGJJIIEMBD",
      "layerIndexName": "",
      "CPAANEIJCGD": "",
      "stateIDs": {
        "Born": {
          "$type": "NEDIFAKEGCO",
          "animatorStates": {
            "Born": ["Monster_Sylph_Born"]
          },
          "canSyncMove": true,
          "resetAnimatorTriggerOnExit": ["DoSkill"]
        },
        "NormalIdle": {
          "$type": "NEDIFAKEGCO",
          "animatorStates": {
            "StandbyFree": [],
            "Standby": []
          },
          "canDoSkill": true,
          "canSyncMove": true,
          "resetAnimatorTriggerOnExit": ["DoSkill"],
          "canSteer": true
        },
        "Activated_Standby": {
          "$type": "NEDIFAKEGCO",
          "animatorStates": {
            "Activated_Standby": []
          },
          "canDoSkill": true,
          "canSyncMove": true,
          "resetAnimatorTriggerOnExit": ["DoSkill"],
          "canSteer": true
        },
        "NormalMove": {
          "$type": "NEDIFAKEGCO",
          "animatorStates": {
            "Activated_Fly": [],
            "Walk": [],
            "Activated_Walk": []
          },
          "canDoSkill": true,
          "canSyncMove": true,
          "resetAnimatorTriggerOnExit": ["DoSkill"],
          "setAnimatorFloat": [
            {
              "name": "FlyMotionHor",
              "normalizeEnd": 0.0
            },
            {
              "name": "FlyMotionVer",
              "normalizeEnd": 0.0
            }
          ],
          "canSteer": true
        },
        "NormalFly": {
          "$type": "NEDIFAKEGCO",
          "animatorStates": {
            "Fly": []
          },
          "canDoSkill": true,
          "canSyncMove": true,
          "resetAnimatorTriggerOnExit": ["DoSkill"],
          "setAnimatorFloat": [
            {
              "name": "FlyMotionHor",
              "normalizeEnd": 0.0
            },
            {
              "name": "FlyMotionVer",
              "normalizeEnd": 0.0
            }
          ],
          "canSteer": true,
          "blendMove": "BlendMove"
        },
        "HitThrow": {
          "$type": "NEDIFAKEGCO",
          "animatorStates": {
            "HitThrow": []
          },
          "canSyncMove": true,
          "resetAnimatorTriggerOnEnter": ["BeHit"],
          "remoteForceCloseAirMove": true,
          "airMoveFollowAnimation": true
        },
        "HitThrowDrop": {
          "$type": "NEDIFAKEGCO",
          "animatorStates": {
            "HitThrowDrop": []
          },
          "canSyncMove": true,
          "remoteForceCloseAirMove": true,
          "airMoveFollowAnimation": true
        },
        "HitThrowToGround": {
          "$type": "NEDIFAKEGCO",
          "animatorStates": {
            "HitThrowToGround": []
          },
          "canSyncMove": true,
          "resetAnimatorTriggerOnExit": ["DoSkill"],
          "remoteForceCloseAirMove": true,
          "airMoveFollowAnimation": true
        },
        "Struggle": {
          "$type": "NEDIFAKEGCO",
          "animatorStates": {
            "Struggle": []
          },
          "resetAnimatorTriggerOnEnter": ["BeHit", "HitAir2HitDrop"],
          "resetAnimatorTriggerOnExit": ["DoSkill"]
        },
        "BeHit": {
          "$type": "NEDIFAKEGCO",
          "animatorStates": {
            "Activated_Hit_H": []
          },
          "canSyncMove": true,
          "resetAnimatorTriggerOnEnter": ["BeHit"],
          "resetAnimatorTriggerOnExit": ["DoSkill"],
          "airMoveFollowAnimation": true
        },
        "Die": {
          "$type": "NEDIFAKEGCO",
          "animatorStates": {
            "Die": ["Audio_Monster_Sylph_Grass_Die"],
            "Activated_Die": ["Audio_Monster_Sylph_Grass_Die_Activated"]
          }
        },
        "Warning": {
          "$type": "NEDIFAKEGCO",
          "animatorStates": {
            "Warning": [
              "Monster_Sylph_Grass_Warning",
              "Audio_Monster_Sylph_Grass_Alert"
            ]
          },
          "canSyncMove": true,
          "resetAnimatorTriggerOnExit": ["BeHit", "DoSkill"],
          "canSteer": true
        },
        "GrassBullet": {
          "$type": "NEDIFAKEGCO",
          "animatorStates": {
            "GrassBullet": [
              "Monster_Sylph_Grass_GrassBullet",
              "Audio_Monster_Sylph_Grass_Bullet"
            ]
          },
          "cullingModelAlwaysAnimate": true,
          "addEndure": 0.009999999776482582,
          "resetAnimatorTriggerOnExit": ["BeHit", "DoSkill"],
          "canSteer": true
        },
        "FlyHigh": {
          "$type": "NEDIFAKEGCO",
          "animatorStates": {
            "FlyHigh": [
              "Monster_Sylph_Grass_FlyHigh",
              "Audio_Monster_Sylph_Grass_FlyHigh"
            ]
          },
          "canSyncMove": true,
          "cullingModelAlwaysAnimate": true,
          "addEndure": 0.009999999776482582,
          "resetAnimatorTriggerOnExit": ["BeHit", "DoSkill"],
          "canSteer": true
        },
        "FlyHigh_AS1": {
          "$type": "NEDIFAKEGCO",
          "animatorStates": {
            "FlyHigh_AS1": [
              "Monster_Sylph_Grass_FlyHighAS1",
              "Audio_Monster_Sylph_Grass_FlyHigh_AS1"
            ]
          },
          "canSyncMove": true,
          "cullingModelAlwaysAnimate": true,
          "addEndure": 0.009999999776482582,
          "resetAnimatorTriggerOnExit": ["BeHit", "DoSkill"],
          "canSteer": true
        },
        "FlyHigh_AS2": {
          "$type": "NEDIFAKEGCO",
          "animatorStates": {
            "FlyHigh_AS2": [
              "Monster_Sylph_Grass_FlyHighAS2",
              "Audio_Monster_Sylph_Grass_FlyHigh_AS2"
            ]
          },
          "canSyncMove": true,
          "cullingModelAlwaysAnimate": true,
          "addEndure": 0.009999999776482582,
          "resetAnimatorTriggerOnExit": ["BeHit", "DoSkill"],
          "canSteer": true
        },
        "Deathrattle": {
          "$type": "NEDIFAKEGCO",
          "animatorStates": {
            "Deathrattle": [
              "Monster_Sylph_Die",
              "Monster_Sylph_Grass_Deathrattle_PlayOnce",
              "Audio_Monster_Sylph_Grass_Die"
            ]
          },
          "canSyncMove": true,
          "resetAnimatorTriggerOnExit": ["BeHit", "DoSkill"]
        },
        "Activated": {
          "$type": "NEDIFAKEGCO",
          "animatorStates": {
            "Activated_BS": [
              "Monster_Sylph_Grass_Activated_Transform",
              "Audio_Monster_Sylph_Grass_Activated_BS"
            ],
            "Activated_AS": ["Audio_Monster_Sylph_Grass_Activated_AS"]
          },
          "canSyncMove": true,
          "resetAnimatorTriggerOnExit": ["BeHit", "DoSkill"]
        },
        "Activated_Barrage": {
          "$type": "NEDIFAKEGCO",
          "animatorStates": {
            "Activated_Barrage": [
              "Monster_Sylph_Grass_Activated_Barrage",
              "Audio_Monster_Sylph_Grass_Activated_Barrage"
            ]
          },
          "canSyncMove": true,
          "cullingModelAlwaysAnimate": true,
          "addEndure": 0.009999999776482582,
          "resetAnimatorTriggerOnExit": ["BeHit", "DoSkill"],
          "canSteer": true
        },
        "Activated_Deathrattle": {
          "$type": "NEDIFAKEGCO",
          "animatorStates": {
            "Activated_Deathrattle": [
              "Monster_Sylph_Grass_Deathrattle_PlayOnce",
              "Audio_Monster_Sylph_Grass_Die_Activated"
            ]
          },
          "canSyncMove": true,
          "resetAnimatorTriggerOnExit": ["BeHit", "DoSkill"]
        },
        "Unactivated": {
          "$type": "NEDIFAKEGCO",
          "animatorStates": {
            "Unactivated": ["Audio_Monster_Sylph_Grass_Unactivated"]
          },
          "canSyncMove": true,
          "resetAnimatorTriggerOnExit": ["BeHit", "DoSkill"]
        }
      }
    }
  },
  "face": {
    "characterName": "Sylph_07",
    "baseFaceAnimation": "Default",
    "intervalFaceAnimation": "Blink",
    "minInterval": 1.5,
    "maxInterval": 5.5
  },
  "billboard": {
    "$type": "DNGNMAJBCNP",
    "attachPoint": "BillboardAttach",
    "offset": {
      "y": 0.5
    },
    "radiusOffset": 1.0,
    "enableSelfAdapt": true,
    "showHPBar": true
  },
  "initialPoses": {
    "Default": {
      "initialPoseID": 101
    }
  },
  "aibeta": {
    "enable": true,
    "moveSetting": {
      "useNavMesh": false,
      "navMeshAgentName": "Undead01"
    },
    "sensing": {
      "settings": {
        "DefaultSetting": {
          "viewRange": 22.0,
          "feelRange": 8.75
        }
      },
      "templates": {
        "DefaultTemplate": {
          "DefaultPoses": "DefaultSetting"
        }
      }
    },
    "threat": {
      "GHIJMOKOLMB": "",
      "clearThreatTargetDistance": 30.0,
      "clearThreatEdgeDistance": 5.0,
      "clearThreatTimerByDistance": 2.0,
      "viewAttenuation": [
        {
          "x": 12.0,
          "y": 1.0
        },
        {
          "x": 20.0,
          "y": 0.5
        }
      ]
    },
    "defendArea": {
      "defendRange": 50.0
    },
    "fly": {
      "enable": true,
      "floatingPoses": [101, 201, 301, 211, 311, 901]
    },
    "skills": {
      "100": {
        "name": "OnAlert",
        "skillType": "OnAlert",
        "faceTarget": true,
        "publicCDGroup": "",
        "triggerGCD": false,
        "HHAGODJIAPE": "",
        "stateIDs": ["Warning"],
        "skillQueryingTime": 3.0,
        "flagTargetReachable": "10",
        "flagSelfOnTemplateCollider": "01",
        "flagSelfInZone": "10",
        "flagTargetInZone": "11"
      },
      "201": {
        "name": "GrassBullet",
        "priority": 2,
        "castCondition": {
          "pose": [201],
          "pickRangeMin": 5.0,
          "pickRangeMax": 18.0,
          "castRangeMin": 5.0,
          "castRangeMax": 15.0
        },
        "cd": 7.5,
        "publicCDGroup": "",
        "HHAGODJIAPE": "",
        "stateIDs": ["GrassBullet"],
        "flagTargetReachable": "11",
        "flagSelfOnTemplateCollider": "01",
        "flagSelfInZone": "11",
        "flagTargetInZone": "11"
      },
      "401": {
        "name": "FlyHigh",
        "castCondition": {
          "pose": [201],
          "pickRangeMax": 12.0
        },
        "cd": 4.5,
        "publicCDGroup": "",
        "HHAGODJIAPE": "",
        "stateIDs": ["FlyHigh", "FlyHigh_AS1", "FlyHigh_AS2"],
        "flagTargetReachable": "11",
        "flagSelfOnTemplateCollider": "01",
        "flagSelfInZone": "11",
        "flagTargetInZone": "11"
      },
      "501": {
        "name": "Activated_Barrage",
        "castCondition": {
          "pose": [301],
          "pickRangeMax": 3.5,
          "pickRangeYMax": 0.800000011920929,
          "castRangeMax": 3.5
        },
        "cd": 0.5,
        "publicCDGroup": "",
        "HHAGODJIAPE": "",
        "stateIDs": ["Activated_Barrage"],
        "flagTargetReachable": "11",
        "flagSelfOnTemplateCollider": "01",
        "flagSelfInZone": "11",
        "flagTargetInZone": "11"
      },
      "601": {
        "name": "Activated",
        "priority": 1,
        "castCondition": {
          "pose": [301]
        },
        "cd": 999999.0,
        "initialCD": 9999999.0,
        "publicCDGroup": "",
        "HHAGODJIAPE": "",
        "stateIDs": ["Activated"],
        "flagTargetReachable": "11",
        "flagSelfOnTemplateCollider": "01",
        "flagSelfInZone": "11",
        "flagTargetInZone": "11"
      },
      "701": {
        "name": "Deathrattle",
        "priority": 1,
        "castCondition": {
          "pose": [211]
        },
        "publicCDGroup": "",
        "HHAGODJIAPE": "",
        "stateIDs": ["Deathrattle"],
        "flagTargetReachable": "11",
        "flagSelfOnTemplateCollider": "01",
        "flagSelfInZone": "11",
        "flagTargetInZone": "11"
      },
      "801": {
        "name": "Activated_Deathrattle",
        "priority": 1,
        "castCondition": {
          "pose": [311]
        },
        "publicCDGroup": "",
        "HHAGODJIAPE": "",
        "stateIDs": ["Activated_Deathrattle"],
        "flagTargetReachable": "11",
        "flagSelfOnTemplateCollider": "01",
        "flagSelfInZone": "11",
        "flagTargetInZone": "11"
      }
    },
    "skillGCD": 3.5,
    "birdCirclingTactic": [
      {
        "$type": "NNJKLGNPMNN",
        "enable": true,
        "JMCOBEPDIGM": {
          "ACOBCFCMBOC": "Spacial",
          "MNPDDAKDHGK": "",
          "GJDMDHIBCME": ""
        }
      },
      {
        "$type": "DGNJLJKOKEE",
        "enable": true,
        "condition": {
          "pose": [201, 301]
        },
        "JMCOBEPDIGM": {
          "ANLAAGAMIKF": 2,
          "HJODGEKLAAK": 0.0,
          "CFBKFJKHEEH": 1.0,
          "MNPDDAKDHGK": ""
        },
        "PIOCBHLFLJP": {
          "301": {
            "HJODGEKLAAK": -1.0,
            "CFBKFJKHEEH": 0.5,
            "MNPDDAKDHGK": ""
          }
        }
      },
      {
        "$type": "EPPOBBAEPED",
        "enable": true,
        "condition": {
          "pose": [201, 301]
        },
        "JMCOBEPDIGM": {
          "ANLAAGAMIKF": 2,
          "FAKGFIDPCFL": 13.5,
          "GHCEDMEHKLN": 5.5,
          "ONFAMCFCNFM": 0.0,
          "KLODEFMNFIC": 1.0,
          "MNPDDAKDHGK": "",
          "GJDMDHIBCME": ""
        },
        "PIOCBHLFLJP": {
          "301": {
            "ANLAAGAMIKF": 2,
            "FAKGFIDPCFL": 3.5,
            "GHCEDMEHKLN": 1.7999999523162842,
            "ONFAMCFCNFM": 0.0,
            "KLODEFMNFIC": 0.5,
            "MNPDDAKDHGK": "",
            "GJDMDHIBCME": ""
          }
        }
      },
      {
        "$type": "MNBBAPLOENP",
        "enable": true,
        "condition": {
          "pose": [201]
        },
        "JMCOBEPDIGM": {
          "ANLAAGAMIKF": 2,
          "GOMIFCDDDLF": 0.0,
          "JCPAFNBJDEN": 13.5,
          "JOJBOHEDBHC": 5.0,
          "AFILKAGDAHN": 8.5,
          "OMHBOLPFEPM": 1.5,
          "BJIEHJIOICI": 3.0,
          "FPNBEHAAJOL": {
            "LLICGJHIGME": 0.0,
            "IDEFILBHNAP": 0.20000000298023224,
            "OJLPFPNFMDJ": 0.4000000059604645,
            "AKMJKEIJEHM": 2.0,
            "PELOBMPBAJF": 4.0,
            "BLOIJOGPILM": 2.0,
            "GNFCHLHAPNI": 4.0,
            "DDIPMLEHIJP": 1.0,
            "PIJHGEOHOOO": 0.5,
            "OCMLCHDANPJ": 2.0
          },
          "MNPDDAKDHGK": "",
          "GJDMDHIBCME": ""
        }
      },
      {
        "$type": "HMHOIHCBIOJ",
        "enable": true,
        "condition": {
          "pose": [101]
        },
        "JMCOBEPDIGM": {
          "KPNDPKIOPJM": 5.0,
          "PINAFKEDDLL": 3.0,
          "HIGLILIOAHE": 0.30000001192092896,
          "AMIIPPJEIPM": 1.0,
          "ANMPOPEBDIA": 12.0,
          "GMJFIMFFOEL": 4.0,
          "CHCPFDMADEI": 7.5,
          "OIOFLJIDENF": true,
          "MNPDDAKDHGK": "",
          "GJDMDHIBCME": ""
        }
      }
    ]
  },
  "inputKeys": [
    {
      "keyID": 100,
      "inputKeyCode": 257,
      "abilityName": ""
    },
    {
      "keyID": 201,
      "inputKeyCode": 258,
      "abilityName": ""
    },
    {
      "keyID": 301,
      "inputKeyCode": 259,
      "abilityName": ""
    },
    {
      "keyID": 401,
      "inputKeyCode": 260,
      "abilityName": ""
    },
    {
      "keyID": 501,
      "inputKeyCode": 261,
      "abilityName": ""
    },
    {
      "keyID": 601,
      "inputKeyCode": 262,
      "abilityName": ""
    },
    {
      "keyID": 701,
      "inputKeyCode": 263,
      "abilityName": ""
    },
    {
      "keyID": 801,
      "inputKeyCode": 264,
      "abilityName": ""
    }
  ],
  "move": {
    "$type": "IPNMJMHDMPF",
    "velocityForce": {
      "excludeForces": ["RetreatAirType"]
    },
    "handleCombatTaskImmediately": true,
    "moveOnWater": true,
    "facingMove": "AirBlend",
    "airFacingMove": "AirBlend",
    "monsterSizeType": "SlimeType",
    "yawSpeedRatio": 2.0,
    "PKHOMJHFAEE": "RootNode"
  },
  "audio": {
    "overrideEmitterName": "",
    "animAudio": {
      "onTransitionIn": [
        {
          "currentStateName": "",
          "audioEvent": {
            "text": ""
          }
        }
      ],
      "onTransitionOut": [
        {
          "currentStateName": "Hit_H_AS",
          "audioEvent": {
            "text": "Stop_sfx_monster_sylph_grass_hit_H_AS"
          }
        },
        {
          "currentStateName": "Activated_Barrage",
          "audioEvent": {
            "text": "Stop_sfx_monster_sylph_grass_activated_barrage"
          }
        },
        {
          "currentStateName": "FlyHigh",
          "audioEvent": {
            "text": "Stop_sfx_monster_sylph_grass_flyHigh"
          }
        }
      ]
    }
  }
}
