{
  "common": {
    "effectAttachShape": {
      "$type": "FJNPJANPGGC",
      "mesh": "EffectMesh"
    },
    "mass": 40.0,
    "height": 1.3799999952316284,
    "scale": 1.149999976158142,
    "reconnectSupport": true,
    "recoverByInitPose": true
  },
  "model": {
    "bornEffect": "",
    "attachEffect": "",
    "BKPFGNPLDNJ": ""
  },
  "dither": {
    "showDitherDuration": 2.0
  },
  "combat": {
    "property": {
      "endureType": "Monster_Slime",
      "weight": 60.0
    },
    "beHit": {
      "hitBloodEffect": ""
    },
    "combatLock": {
      "lockShape": "CircleLockEnemy",
      "lockType": "Avatar&Monster_Lv4"
    },
    "die": {
      "hasAnimatorDie": true,
      "fallWhenAirDie": false,
      "dieEndTime": 2.0,
      "dieForceDisappearTime": 3.0,
      "dieDisappearEffect": "Eff_Death_InWater_Common",
      "dieDisappearEffectDelay": 0.11999999731779099,
      "dieShaderData": "MonsterDieInWater",
      "dieShaderEnableDurationTime": 0.800000011920929,
      "dieModelFadeDelay": 0.30000001192092896,
      "muteHitBox": true,
      "dieDenyLockOn": true,
      "dieIsGhostToEnemy": true,
      "dieIgnoreTriggerBullet": true,
      "muteBillboard": true,
      "mutePushCollider": true
    }
  },
  "abilities": [
    {
      "abilityID": "",
      "abilityName": "FauneAbyssale_Universal_UnderwaterSettings",
      "abilityOverride": ""
    },
    {
      "abilityID": "",
      "abilityName": "FauneAbyssale_SeaHorse_Larva_BubbleTrigger",
      "abilityOverride": ""
    },
    {
      "abilityID": "",
      "abilityName": "FauneAbyssale_SeaHorse_Larva_FreePose",
      "abilityOverride": ""
    },
    {
      "abilityID": "",
      "abilityName": "FauneAbyssale_SeaHorse_Larva_FrolicBubbleTrigger",
      "abilityOverride": ""
    },
    {
      "abilityID": "",
      "abilityName": "FauneAbyssale_SeaHorse_Larva_Bubble_Interest",
      "abilityOverride": ""
    },
    {
      "abilityID": "",
      "abilityName": "FauneAbyssale_ResetPoseParam",
      "abilityOverride": ""
    }
  ],
  "stateLayers": {
    "defaultLayer": {
      "$type": "GBGJJIIEMBD",
      "layerIndexName": "",
      "CPAANEIJCGD": "",
      "stateIDs": {
        "Born": {
          "$type": "NEDIFAKEGCO",
          "animatorStates": {
            "Born": []
          }
        },
        "NormalIdle": {
          "$type": "NEDIFAKEGCO",
          "animatorStates": {
            "Standby": []
          },
          "canDoSkill": true,
          "canSyncMove": true,
          "resetAnimatorTriggerOnExit": ["DoSkill"],
          "canSteer": true,
          "GGODGEGHPJD": true
        },
        "NormalSwim": {
          "$type": "NEDIFAKEGCO",
          "animatorStates": {
            "Swim": []
          },
          "canDoSkill": true,
          "canSyncMove": true,
          "resetAnimatorTriggerOnExit": ["DoSkill"],
          "canSteer": true,
          "GGODGEGHPJD": true
        },
        "BeHit": {
          "$type": "NEDIFAKEGCO",
          "animatorStates": {
            "Hit_L": ["Audio_Monster_FauneAbyssale_SeaHorse_Larva_Hit_L"],
            "Hit_H": ["Audio_Monster_FauneAbyssale_SeaHorse_Larva_Hit_H"],
            "BubbleHit_BS": [
              "Audio_Monster_FauneAbyssale_SeaHorse_Larva_Hit_L"
            ],
            "BubbleHit_AS": [
              "Audio_Monster_FauneAbyssale_SeaHorse_Larva_Somersaulting"
            ]
          },
          "resetAnimatorTriggerOnEnter": ["BeHit", "DoSkill"],
          "airMoveFollowAnimation": true
        },
        "Die": {
          "$type": "NEDIFAKEGCO",
          "animatorStates": {
            "Die": [
              "FauneAbyssale_SeaHorse_Larva_Die",
              "Audio_Monster_FauneAbyssale_SeaHorse_Larva_Die"
            ]
          },
          "resetAnimatorTriggerOnEnter": ["DoSkill", "BeHit"],
          "setAnimatorBoolean": [
            {
              "name": "StopFlapping"
            }
          ]
        },
        "Alert": {
          "$type": "NEDIFAKEGCO",
          "animatorStates": {
            "Alert": [
              "FauneAbyssale_Common_Alert",
              "Audio_Monster_FauneAbyssale_SeaHorse_Larva_Alert"
            ]
          },
          "resetAnimatorTriggerOnExit": ["DoSkill"]
        },
        "BubbleAttack": {
          "$type": "NEDIFAKEGCO",
          "animatorStates": {
            "BubbleAttack_Combo1": [
              "FauneAbyssale_SeaHorse_Larva_BubbleAttack",
              "FauneAbyssale_SeaHorse_Larva_BubbleAttack_BS",
              "Audio_Monster_FauneAbyssale_SeaHorse_Larva_BubbleAttack_Combo"
            ],
            "BubbleAttack_Combo2": [
              "FauneAbyssale_SeaHorse_Larva_BubbleAttack",
              "Audio_Monster_FauneAbyssale_SeaHorse_Larva_BubbleAttack_Combo02"
            ],
            "BubbleAttack_Combo3": [
              "FauneAbyssale_SeaHorse_Larva_BubbleAttack",
              "Audio_Monster_FauneAbyssale_SeaHorse_Larva_BubbleAttack_Combo03"
            ]
          },
          "resetAnimatorTriggerOnExit": ["DoSkill"]
        },
        "BubbleAttack_Frolic": {
          "$type": "NEDIFAKEGCO",
          "animatorStates": {
            "BubbleAttack_Frolic": [
              "FauneAbyssale_SeaHorse_Larva_FrolicBubble",
              "Audio_Monster_FauneAbyssale_SeaHorse_Larva_BubbleAttack_Combo"
            ]
          },
          "resetAnimatorTriggerOnEnter": ["BubbleHit"],
          "resetAnimatorTriggerOnExit": ["DoSkill"]
        },
        "Bubble_Interest": {
          "$type": "NEDIFAKEGCO",
          "animatorStates": {
            "Bubble_Interest": [
              "FauneAbyssale_SeaHorse_Larva_Bubble_Interest",
              "Audio_Monster_FauneAbyssale_SeaHorse_Larva_BubbleAttack_Combo"
            ]
          },
          "resetAnimatorTriggerOnExit": ["DoSkill"]
        },
        "Sleeping": {
          "$type": "NEDIFAKEGCO",
          "animatorStates": {
            "Sleeping": []
          },
          "canDoSkill": true,
          "canSyncMove": true,
          "resetAnimatorTriggerOnExit": ["DoSkill"],
          "setAnimatorBoolean": [
            {
              "name": "StopFlapping"
            }
          ]
        },
        "Frustrated": {
          "$type": "NEDIFAKEGCO",
          "animatorStates": {
            "Frustrated": []
          },
          "canDoSkill": true,
          "canSyncMove": true,
          "resetAnimatorTriggerOnExit": ["DoSkill"],
          "setAnimatorBoolean": [
            {
              "name": "StopFlapping"
            }
          ]
        },
        "Somersaulting": {
          "$type": "NEDIFAKEGCO",
          "animatorStates": {
            "Somersaulting": [
              "Audio_Monster_FauneAbyssale_SeaHorse_Larva_Somersaulting"
            ],
            "Somersaulting_AS": []
          },
          "resetAnimatorTriggerOnExit": ["DoSkill"]
        },
        "Playing": {
          "$type": "NEDIFAKEGCO",
          "animatorStates": {
            "Playing": ["Audio_Monster_FauneAbyssale_SeaHorse_Larva_Playing"]
          },
          "canDoSkill": true,
          "resetAnimatorTriggerOnExit": ["DoSkill"]
        }
      }
    }
  },
  "billboard": {
    "$type": "DNGNMAJBCNP",
    "attachPoint": "BillboardAttach",
    "offset": {
      "y": 0.800000011920929
    },
    "radiusOffset": 1.0,
    "enableSelfAdapt": true,
    "showHPBar": true,
    "forceShowDistance": 15.0
  },
  "initialPoses": {
    "Default": {
      "initialPoseID": 1,
      "initialPoseParams": {
        "intParams": {
          "FreePoseMark": "1"
        },
        "boolParams": {
          "DisableWhenReturnToBorn": "false"
        }
      }
    },
    "MuteAll": {
      "initialPoseID": 2,
      "initialPoseParams": {
        "intParams": {
          "FreePoseMark": "2"
        },
        "boolParams": {
          "DisableWhenReturnToBorn": "false"
        }
      }
    },
    "Frolic": {
      "initialPoseID": 3,
      "initialPoseParams": {
        "intParams": {
          "FreePoseMark": "3"
        },
        "boolParams": {
          "DisableWhenReturnToBorn": "true"
        }
      }
    },
    "ShootForward": {
      "initialPoseID": 4,
      "initialPoseParams": {
        "intParams": {
          "FreePoseMark": "4"
        },
        "boolParams": {
          "DisableWhenReturnToBorn": "true"
        }
      }
    },
    "FreeSleeping": {
      "initialPoseID": 1001,
      "initialPoseParams": {
        "intParams": {
          "FreePoseMark": "1001"
        },
        "boolParams": {
          "DisableWhenReturnToBorn": "true"
        }
      }
    },
    "AlwaysSleeping": {
      "initialPoseID": 1002,
      "initialPoseParams": {
        "intParams": {
          "FreePoseMark": "1002"
        },
        "boolParams": {
          "DisableWhenReturnToBorn": "true"
        }
      }
    },
    "Frustrated": {
      "initialPoseID": 1003,
      "initialPoseParams": {
        "intParams": {
          "FreePoseMark": "1003"
        },
        "boolParams": {
          "DisableWhenReturnToBorn": "true"
        }
      }
    }
  },
  "aibeta": {
    "enable": true,
    "moveSetting": {
      "moveCategory": "Dive",
      "useNavMesh": false,
      "useToTheMoon": true,
      "navMeshAgentName": "Undead01"
    },
    "aiCombat": {
      "combatRole": "MAGE"
    },
    "buddySetting": {
      "enable": true,
      "buddyFeatureTagIDs": [4027, 4028]
    },
    "sensing": {
      "settings": {
        "DefaultSetting": {
          "viewRange": 25.0,
          "horizontalFov": 150.0,
          "verticalFov": 100.0,
          "hearAttractionRange": 5.0,
          "feelRange": 0.0
        },
        "NeverCombat": {
          "enableVision": false,
          "hearAttractionRange": 0.0,
          "feelRange": 0.0
        },
        "NormalAlert": {
          "viewPanoramic": true,
          "hearAttractionRange": 5.0,
          "feelRange": 17.5
        }
      },
      "templates": {
        "DefaultTemplate": {
          "DefaultPoses": "DefaultSetting",
          "101": "NormalAlert",
          "1001": "NeverCombat"
        },
        "NeverCombatTemplate": {
          "DefaultPoses": "NeverCombat",
          "101": "NormalAlert"
        },
        "NormalAlertTemplate": {
          "DefaultPoses": "NormalAlert",
          "101": "NormalAlert",
          "1001": "DefaultSetting"
        }
      }
    },
    "neurons": {
      "DefaultSetting": ["HIT"],
      "NeverCombat": []
    },
    "threat": {
      "GHIJMOKOLMB": "",
      "clearThreatTargetDistance": 25.0,
      "viewThreatGrow": 25.0,
      "feelThreatGrow": 150.0,
      "threatDecreaseSpeed": 45.0,
      "threatBroadcastRange": 8.0,
      "viewAttenuation": [
        {
          "x": 4.5,
          "y": 1.0
        },
        {
          "x": 8.0,
          "y": 0.5
        },
        {
          "x": 15.0,
          "y": 0.20000000298023224
        },
        {
          "x": 22.5,
          "y": 0.10000000149011612
        }
      ]
    },
    "defendArea": {
      "defendRange": 120.0
    },
    "fly": {
      "enable": true,
      "IPJLPEHKCJA": [1, 2, 3, 4, 101, 901, 1001, 1002, 1003]
    },
    "poseControl": {
      "items": [
        {
          "minTime": 40.0,
          "maxTime": 80.0,
          "poseID": 1,
          "randomPose": [1001],
          "switchOnlyInCanDoSkillState": true
        },
        {
          "minTime": 40.0,
          "maxTime": 80.0,
          "poseID": 1001,
          "randomPose": [1],
          "switchOnlyInCanDoSkillState": true
        }
      ]
    },
    "skillGroupCDConfigs": [
      {
        "skillGroupCDID": 1,
        "skillGroupCDTime": 12.0
      }
    ],
    "skills": {
      "101": {
        "name": "Alert",
        "skillType": "OnAlert",
        "publicCDGroup": "",
        "ignoreGCD": true,
        "HHAGODJIAPE": "",
        "stateIDs": ["Alert"],
        "skillQueryingTime": 3.0,
        "flagTargetReachable": "10",
        "flagSelfOnTemplateCollider": "01",
        "flagSelfInZone": "10",
        "flagTargetInZone": "11"
      },
      "201": {
        "name": "BubbleAttack",
        "combatSkillType": "RangedAttack",
        "priority": 3,
        "castCondition": {
          "pose": [101],
          "BNLDGHLANLI": [2],
          "maxTargetAngleY": 30.0,
          "pickRangeMin": 2.5,
          "pickRangeMax": 30.0
        },
        "cd": 5.0,
        "cdUpperRange": 3.0,
        "publicCDGroup": "",
        "HHAGODJIAPE": "",
        "stateIDs": ["BubbleAttack"],
        "flagTargetReachable": "11",
        "flagSelfOnTemplateCollider": "11",
        "flagSelfInZone": "11",
        "flagTargetInZone": "11"
      },
      "9001": {
        "name": "Somersaulting",
        "skillType": "Free",
        "priority": 3,
        "castCondition": {
          "pose": [1]
        },
        "cd": 10.0,
        "cdUpperRange": 20.0,
        "initialCD": 6.0,
        "initialCDUpperRange": 16.0,
        "publicCDGroup": "",
        "skillGroupCDID": 1,
        "HHAGODJIAPE": "",
        "stateIDs": ["Somersaulting"],
        "flagTargetReachable": "10",
        "flagSelfOnTemplateCollider": "01",
        "flagSelfInZone": "10",
        "flagTargetInZone": "11"
      },
      "9002": {
        "name": "Playing",
        "skillType": "Free",
        "priority": 3,
        "castCondition": {
          "pose": [1]
        },
        "cd": 10.0,
        "cdUpperRange": 20.0,
        "initialCD": 6.0,
        "initialCDUpperRange": 16.0,
        "publicCDGroup": "",
        "skillGroupCDID": 1,
        "HHAGODJIAPE": "",
        "stateIDs": ["Playing"],
        "flagTargetReachable": "10",
        "flagSelfOnTemplateCollider": "01",
        "flagSelfInZone": "10",
        "flagTargetInZone": "11"
      },
      "9003": {
        "name": "BubbleAttack_Frolic",
        "skillType": "FreeBuddy",
        "priority": 2,
        "castCondition": {
          "pose": [3],
          "BNLDGHLANLI": [0, 1, 2],
          "maxTargetAngleY": 30.0
        },
        "cd": 2.0,
        "cdUpperRange": 10.0,
        "initialCDUpperRange": 8.0,
        "publicCDGroup": "",
        "ignoreGCD": true,
        "triggerCDOnStart": true,
        "HHAGODJIAPE": "",
        "stateIDs": ["BubbleAttack_Frolic"],
        "flagTargetReachable": "10",
        "flagSelfOnTemplateCollider": "01",
        "flagSelfInZone": "10",
        "flagTargetInZone": "11",
        "buddySkillCondition": {
          "buddyScoring": {
            "roleScores": [1.0, 1.0, 1.0, 1.0]
          }
        }
      },
      "9004": {
        "name": "Bubble_Interest",
        "skillType": "Free",
        "castCondition": {
          "pose": [4]
        },
        "cd": 2.0,
        "cdUpperRange": 6.0,
        "initialCDUpperRange": 8.0,
        "publicCDGroup": "",
        "ignoreGCD": true,
        "triggerCDOnStart": true,
        "HHAGODJIAPE": "",
        "stateIDs": ["Bubble_Interest"],
        "flagTargetReachable": "10",
        "flagSelfOnTemplateCollider": "01",
        "flagSelfInZone": "10",
        "flagTargetInZone": "11"
      }
    },
    "skillGCD": 3.5,
    "groupSurroundTactic": {
      "Default": {
        "MFNHGOKLGMO": 3.4000000953674316,
        "PPLFPCCFFNC": 5.0,
        "FAMIMLKMEDP": 5.0,
        "FODOJABAOOA": 5.0,
        "OADPAECCPPP": 0.4000000059604645,
        "IAIPPCLBLHB": 0.6000000238418579,
        "FHJNEHJAIKC": 0.4000000059604645,
        "IBCPEGIJEMI": 0.6000000238418579
      }
    },
    "birdCirclingTactic": [
      {
        "$type": "MCDGOJLCMBM",
        "JMCOBEPDIGM": {
          "ACOBCFCMBOC": "Spacial",
          "MNPDDAKDHGK": "Default",
          "GJDMDHIBCME": ""
        }
      },
      {
        "$type": "COLLJLNKMLC",
        "JMCOBEPDIGM": {
          "ANLAAGAMIKF": 1,
          "MNPDDAKDHGK": "Default",
          "GJDMDHIBCME": "",
          "ACOBCFCMBOC": "Spacial",
          "PLLHMGHOAPB": "",
          "KPIJNGFNAEF": "",
          "GDPHPLKJGAJ": "",
          "KKKOAABEHEP": ""
        }
      },
      {
        "$type": "NNJKLGNPMNN",
        "enable": true,
        "JMCOBEPDIGM": {
          "ACOBCFCMBOC": "Spacial",
          "OJGLKPBCLGB": 2.0,
          "MNPDDAKDHGK": "Default",
          "GJDMDHIBCME": ""
        }
      },
      {
        "$type": "MJJFBALNDCH",
        "JMCOBEPDIGM": {
          "ANLAAGAMIKF": 1,
          "DDFIKIJKKOE": true,
          "MNPDDAKDHGK": "Default",
          "GJDMDHIBCME": ""
        }
      },
      {
        "$type": "EPPOBBAEPED",
        "enable": true,
        "condition": {
          "pose": [101]
        },
        "JMCOBEPDIGM": {
          "ANLAAGAMIKF": 2,
          "FAKGFIDPCFL": 20.0,
          "GHCEDMEHKLN": 13.0,
          "KGNHAOIAEKG": 7.0,
          "NHHDIPGNDJA": 3.0,
          "ONFAMCFCNFM": 0.0,
          "KLODEFMNFIC": 1.0,
          "MNPDDAKDHGK": "Default",
          "GJDMDHIBCME": ""
        }
      },
      {
        "$type": "MNBBAPLOENP",
        "enable": true,
        "condition": {
          "pose": [101]
        },
        "JMCOBEPDIGM": {
          "ANLAAGAMIKF": 2,
          "GOMIFCDDDLF": 13.0,
          "JCPAFNBJDEN": 15.0,
          "JOJBOHEDBHC": 2.0,
          "AFILKAGDAHN": 6.0,
          "ALIBHHJHHMN": 1.0,
          "OMHBOLPFEPM": 1.5,
          "BJIEHJIOICI": 3.0,
          "FPNBEHAAJOL": {
            "LLICGJHIGME": 0.6000000238418579,
            "IDEFILBHNAP": 0.20000000298023224,
            "OJLPFPNFMDJ": 0.4000000059604645,
            "EHLPOCLAEFO": 3.0,
            "APHHENPJNLO": 5.0,
            "AKMJKEIJEHM": 2.0,
            "PELOBMPBAJF": 4.0,
            "BLOIJOGPILM": 2.0,
            "GNFCHLHAPNI": 4.0,
            "DFHLPPNLGIE": 0.10000000149011612,
            "CLDDLKFCODO": 0.5,
            "GNJEAKAKLHD": 0.10000000149011612,
            "EHAGCHIFFHA": 0.5
          },
          "GLBILFHBNFD": false,
          "MNPDDAKDHGK": "Default",
          "GJDMDHIBCME": ""
        }
      },
      {
        "$type": "AFPKJOCDEIF",
        "enable": true,
        "condition": {
          "pose": [1, 2]
        },
        "JMCOBEPDIGM": {
          "ANLAAGAMIKF": 1,
          "OODBIGLAFGG": {
            "IDEFILBHNAP": 0.699999988079071,
            "JFBDDDBIHDE": 10.0,
            "APHHENPJNLO": 10.0,
            "PELOBMPBAJF": 10.0,
            "GNFCHLHAPNI": 10.0
          },
          "KPNDPKIOPJM": 6.0,
          "MNPDDAKDHGK": "Default",
          "GJDMDHIBCME": "",
          "BHEHHOJOGEI": 0.75,
          "OIGAJIFCDMI": 3.0,
          "BMDNOGNPICH": 3.0,
          "ANMPOPEBDIA": 20.0
        }
      }
    ]
  },
  "inputKeys": [
    {
      "keyID": 201,
      "inputKeyCode": 257,
      "abilityName": ""
    }
  ],
  "move": {
    "$type": "IPNMJMHDMPF",
    "velocityForce": {
      "excludeForces": ["RetreatType", "RetreatAirType"]
    },
    "initWithGroundHitCheckV2": false,
    "OGBEFBMLJJI": true,
    "facingMove": "AirBlend",
    "airFacingMove": "AirBlend",
    "monsterSizeType": "SlimeType",
    "yawSpeedRatio": 3.0,
    "rotationModifyExtra": true,
    "PKHOMJHFAEE": "RootNode",
    "JNAPCJLHJDO": true
  }
}
