{
  "common": {
    "effectAttachShape": {
      "$type": "FJNPJANPGGC",
      "mesh": "EffectMesh"
    },
    "mass": 10000.0,
    "height": 1.7999999523162842,
    "modelHeight": 1.7999999523162842,
    "viewSize": 1.149999976158142,
    "affectedByWorld": true,
    "checkInSurface": true,
    "scale": 1.149999976158142,
    "useGrassDisplacement": true,
    "reconnectSupport": true,
    "recoverByInitPose": true
  },
  "headControl": {
    "$type": "KPIPDEBDPIH",
    "useHeadControl": true,
    "maxYawDegree": 90.0,
    "maxPitchDegree": 25.0,
    "animStates": [
      "NormalIdle/Standby",
      "BossStand_Idle/BossStand_Idle",
      "NormalMove/WalkForward",
      "NormalMove/WalkBack",
      "NormalMove/WalkRight",
      "NormalMove/WalkLeft",
      "NormalMove/Run",
      "Turn/TurnLeft",
      "Turn/TurnRight",
      "Aware/Aware",
      "NormalIdle/AwareIdle",
      "TauntAware01/TauntAware01",
      "TauntAware_BS/TauntAware_BS",
      "TauntAware_AS/TauntAware_AS",
      "TauntAware02/TauntAware02",
      "TauntAware02/TauntAware03"
    ]
  },
  "model": {
    "bornEffect": "Eff_Monster_Common_Born",
    "attachEffect": "",
    "BKPFGNPLDNJ": ""
  },
  "dither": {
    "showDitherDuration": 1.0
  },
  "combat": {
    "property": {
      "endureType": "Monster_Grunt_Other",
      "weight": 100.0
    },
    "beHit": {
      "hitBloodEffect": ""
    },
    "combatLock": {
      "lockShape": "CircleLockEnemy",
      "lockType": "Avatar&Monster_Lv4"
    },
    "die": {
      "hasAnimatorDie": true,
      "dieForceDisappearTime": 8.0,
      "dieDisappearEffect": "",
      "dieShaderData": "MonsterDie",
      "dieShaderEnableDurationTime": 0.0,
      "ragDollDieEndTimeDelay": 8.0,
      "muteHitBox": true,
      "dieDenyLockOn": true,
      "dieIsGhostToEnemy": true,
      "dieIgnoreTriggerBullet": true,
      "muteBillboard": true,
      "mutePushCollider": true
    },
    "animEvents": {
      "AE_MeleeAtk01": {
        "attackPattern": {
          "$type": "ConfigAttackCircle",
          "triggerType": "TriggerNoRepeat",
          "born": {
            "$type": "ConfigBornBySelf",
            "offset": {
              "x": 0.30000001192092896,
              "y": 0.0,
              "z": 0.5
            }
          },
          "height": 2.0999999046325684,
          "fanAngle": 260.0,
          "radius": 1.600000023841858
        },
        "attackInfo": {
          "attackTag": "",
          "attenuationTag": "",
          "attenuationGroup": "default",
          "attackProperty": {
            "actorGrassSubHurtDelta": 0.5,
            "actorWindSubHurtDelta": 0.0,
            "elementDurability": 100.0,
            "strikeType": "Blunt",
            "enBreak": 200.0,
            "GLKMCMDJBIK": 0.0
          },
          "hitPattern": {
            "onHitEffectName": "default",
            "hitImpulseY": "",
            "hitImpulseType": "LV4"
          }
        }
      },
      "AE_MeleeAtk02_01": {
        "attackPattern": {
          "$type": "ConfigAttackCircle",
          "triggerType": "TriggerNoRepeat",
          "born": {
            "$type": "ConfigBornBySelf",
            "offset": {
              "x": 0.0,
              "y": 0.0,
              "z": 1.5
            }
          },
          "height": 1.7999999523162842,
          "radius": 2.0
        },
        "attackInfo": {
          "attackTag": "",
          "attenuationTag": "",
          "attenuationGroup": "default",
          "attackProperty": {
            "actorGrassSubHurtDelta": 0.699999988079071,
            "actorWindSubHurtDelta": 0.0,
            "elementDurability": 100.0,
            "strikeType": "Blunt",
            "enBreak": 200.0,
            "GLKMCMDJBIK": 0.0
          },
          "hitPattern": {
            "onHitEffectName": "default",
            "hitImpulseY": "",
            "hitImpulseType": "LV4"
          }
        }
      },
      "UltAtk01": {
        "attackPattern": {
          "$type": "ConfigAttackCircle",
          "triggerType": "TriggerNoRepeat",
          "born": {
            "$type": "ConfigBornBySelf",
            "offset": {
              "x": 0.0,
              "y": 0.0,
              "z": 0.5
            }
          },
          "height": 2.5,
          "radius": 4.5
        },
        "attackInfo": {
          "attackTag": "",
          "attenuationTag": "",
          "attenuationGroup": "default",
          "attackProperty": {
            "actorGrassSubHurtDelta": 0.800000011920929,
            "actorWindSubHurtDelta": 0.0,
            "elementType": "Grass",
            "elementDurability": 25.0,
            "strikeType": "Blunt",
            "enBreak": 200.0,
            "GLKMCMDJBIK": 0.0
          },
          "hitPattern": {
            "onHitEffectName": "default",
            "hitImpulseY": "",
            "hitImpulseType": "LV4"
          }
        }
      }
    }
  },
  "equipController": {
    "sheathPoint": "",
    "attachPoints": {
      "equip01": "WeaponR",
      "equip02": "WeaponL"
    }
  },
  "abilities": [
    {
      "abilityID": "",
      "abilityName": "Monster_Tribalwarrior_Female_Standard_Launcher_HookWalker_Steer",
      "abilityOverride": ""
    },
    {
      "abilityID": "",
      "abilityName": "Monster_Tribalwarrior_Female_Standard_Launcher_AwareManager",
      "abilityOverride": ""
    },
    {
      "abilityID": "",
      "abilityName": "Monster_Tribalwarrior_Female_Standard_Launcher_HookWalker_RangedAttack02",
      "abilityOverride": ""
    },
    {
      "abilityID": "",
      "abilityName": "Monster_Tribalwarrior_Female_Standard_Launcher_HookWalker_RangedAttack01",
      "abilityOverride": ""
    },
    {
      "abilityID": "",
      "abilityName": "Monster_Tribalwarrior_Female_Standard_Launcher_HookWalker_TribalUltLine",
      "abilityOverride": ""
    },
    {
      "abilityID": "",
      "abilityName": "Monster_Tribalwarrior_Female_Standard_Launcher_HookWalker_TribalUlt",
      "abilityOverride": ""
    },
    {
      "abilityID": "",
      "abilityName": "Monster_Tribalwarrior_Female_Standard_Launcher_HookWalker_LeftLine",
      "abilityOverride": ""
    },
    {
      "abilityID": "",
      "abilityName": "Monster_Tribalwarrior_Female_Standard_Launcher_HookWalker_RightLine",
      "abilityOverride": ""
    },
    {
      "abilityID": "",
      "abilityName": "Monster_Tribalwarrior_HookWalker_Personality_Female",
      "abilityOverride": ""
    },
    {
      "abilityID": "",
      "abilityName": "Monster_Tribalwarrior_Female_Standard_Launcher_HookWalker_JumpLandLine",
      "abilityOverride": ""
    },
    {
      "abilityID": "",
      "abilityName": "TribalWarrior_ReturnToBorn",
      "abilityOverride": ""
    },
    {
      "abilityID": "",
      "abilityName": "Monster_TribalWarrior_HookWalker_FreePoseManager",
      "abilityOverride": ""
    },
    {
      "abilityID": "",
      "abilityName": "Monster_Tribalwarrior_Female_Standard_Launcher_HookWalker_WeaponVisibilityManager",
      "abilityOverride": ""
    }
  ],
  "stateLayers": {
    "defaultLayer": {
      "$type": "GBGJJIIEMBD",
      "layerIndexName": "",
      "CPAANEIJCGD": "",
      "stateIDs": {
        "NormalIdle": {
          "$type": "NEDIFAKEGCO",
          "animatorStates": {
            "Standby": [],
            "AwareIdle": []
          },
          "canDoSkill": true,
          "canSyncMove": true,
          "resetAnimatorTriggerOnExit": ["DoSkill"]
        },
        "BossStand_Idle": {
          "$type": "NEDIFAKEGCO",
          "animatorStates": {
            "BossStand_Idle": []
          },
          "canDoSkill": true,
          "canSyncMove": true,
          "resetAnimatorTriggerOnEnter": ["DoSkill"]
        },
        "Squat": {
          "$type": "NEDIFAKEGCO",
          "animatorStates": {
            "Squat": []
          },
          "canDoSkill": true,
          "canSyncMove": true,
          "resetAnimatorTriggerOnExit": ["DoSkill"]
        },
        "NormalBorn": {
          "$type": "NEDIFAKEGCO",
          "animatorStates": {
            "Born": []
          },
          "canDoSkill": true,
          "resetAnimatorTriggerOnExit": ["DoSkill"]
        },
        "NormalMove": {
          "$type": "NEDIFAKEGCO",
          "animatorStates": {
            "WalkForward": [
              "Audio_Monster_Tribalwarrior_Female_Standard_Launcher_Hookwalker_WalkForward"
            ],
            "WalkBack": [
              "Audio_Monster_Tribalwarrior_Female_Standard_Launcher_Hookwalker_WalkBack"
            ],
            "WalkRight": [
              "Audio_Monster_Tribalwarrior_Female_Standard_Launcher_Hookwalker_WalkL"
            ],
            "WalkLeft": [
              "Audio_Monster_Tribalwarrior_Female_Standard_Launcher_Hookwalker_WalkL"
            ],
            "Run": [
              "Audio_Monster_Tribalwarrior_Female_Standard_Launcher_Hookwalker_Run"
            ]
          },
          "canDoSkill": true,
          "canSyncMove": true,
          "resetAnimatorTriggerOnExit": ["DoSkill"],
          "canSteer": true
        },
        "Turn": {
          "$type": "NEDIFAKEGCO",
          "animatorStates": {
            "TurnLeft": [
              "Audio_Monster_Tribalwarrior_Female_Standard_Launcher_Hookwalker_WalkL"
            ],
            "TurnRight": [
              "Audio_Monster_Tribalwarrior_Female_Standard_Launcher_Hookwalker_WalkL"
            ]
          },
          "canDoSkill": true,
          "canSyncMove": true,
          "resetAnimatorTriggerOnExit": ["DoSkill"],
          "canSteer": true,
          "autoSteer": true
        },
        "BeHit": {
          "$type": "NEDIFAKEGCO",
          "animatorStates": {
            "Hit_L": [],
            "Hit_H": [
              "Audio_Monster_Tribalwarrior_Female_Standard_Launcher_Hookwalker_Hit_H"
            ]
          },
          "resetAnimatorTriggerOnEnter": ["BeHit"],
          "resetAnimatorTriggerOnExit": ["DoSkill"]
        },
        "BeHitThrow": {
          "$type": "NEDIFAKEGCO",
          "animatorStates": {
            "HitThrow": [],
            "HitThrowDrop": []
          },
          "resetAnimatorTriggerOnEnter": ["BeHit", "HitAir2HitDrop"],
          "resetAnimatorTriggerOnExit": ["DoSkill", "BeHit"],
          "setAnimatorBoolean": [
            {
              "name": "AirDie"
            }
          ]
        },
        "BeHitThrowToStandby": {
          "$type": "NEDIFAKEGCO",
          "animatorStates": {
            "HitThrowToGround": [
              "Audio_Monster_Tribalwarrior_Female_Standard_Launcher_Hookwalker_HitThrowToGround",
              "Audio_Monster_Natlan_TribalWarrior_Female_launcher_hookwalker_HitThrow_VO"
            ]
          },
          "resetAnimatorTriggerOnEnter": ["BeHit", "HitAir2HitDrop"],
          "resetAnimatorTriggerOnExit": ["DoSkill", "BeHit"],
          "setAnimatorBoolean": [
            {
              "name": "AirDie",
              "normalizeEnd": 0.4000000059604645
            }
          ]
        },
        "Struggle": {
          "$type": "NEDIFAKEGCO",
          "animatorStates": {
            "Struggle": []
          },
          "resetAnimatorTriggerOnEnter": ["BeHit", "HitAir2HitDrop"],
          "resetAnimatorTriggerOnExit": ["DoSkill"]
        },
        "Die": {
          "$type": "NEDIFAKEGCO",
          "animatorStates": {
            "Die1": [
              "Monster_Tribalwarrior_Female_Standard_Launcher_Die",
              "Audio_Monster_Tribalwarrior_Female_Standard_Launcher_Hookwalker_Die"
            ],
            "Die2": [
              "Monster_Tribalwarrior_Female_Standard_Launcher_Die",
              "Audio_Monster_Tribalwarrior_Female_Standard_Launcher_Hookwalker_Die",
              "Audio_Monster_Natlan_TribalWarrior_Female_launcher_hookwalker_die_01_VO"
            ],
            "SwimDie_BS": [],
            "SwimDie": ["Monster_Human_SwimDie"],
            "SwimDie_AS": []
          },
          "resetAnimatorTriggerOnEnter": ["DoSkill"]
        },
        "Die_RagDoll": {
          "$type": "NEDIFAKEGCO",
          "animatorStates": {
            "AirDie": ["Monster_Tribalwarrior_Female_Standard_Launcher_Die"]
          }
        },
        "Alert": {
          "$type": "NEDIFAKEGCO",
          "animatorStates": {
            "Alert": [
              "Monster_Eremite_Clear_FreePoseMark",
              "Monster_Undead01_Warning",
              "Audio_Monster_Tribalwarrior_Female_Standard_Launcher_Hookwalker_Alert",
              "Audio_Monster_Natlan_TribalWarrior_Female_launcher_hookwalker_alert_01_VO"
            ]
          },
          "addEndure": 0.0,
          "resetAnimatorTriggerOnEnter": ["DoSkill"],
          "resetAnimatorTriggerOnExit": ["DoSkill"]
        },
        "Aware": {
          "$type": "NEDIFAKEGCO",
          "animatorStates": {
            "Aware": [
              "Monster_Human_AwareIcon",
              "Audio_Monster_Natlan_TribalWarrior_Female_launcher_hookwalker_aware_01_VO"
            ]
          },
          "canDoSkill": true,
          "resetAnimatorTriggerOnEnter": ["DoSkill"],
          "resetAnimatorTriggerOnExit": ["DoSkill"]
        },
        "Tutor": {
          "$type": "NEDIFAKEGCO",
          "animatorStates": {
            "Tutor": []
          },
          "canDoSkill": true,
          "resetAnimatorTriggerOnEnter": ["DoSkill"],
          "resetAnimatorTriggerOnExit": ["DoSkill"]
        },
        "FixWeapon": {
          "$type": "NEDIFAKEGCO",
          "animatorStates": {
            "FixWeapon_BS": [
              "Audio_Monster_Tribalwarrior_Female_Standard_Launcher_Hookwalker_FixWeapon"
            ],
            "FixWeapon_Loop": [],
            "FixWeapon_AS": []
          },
          "canDoSkill": true,
          "resetAnimatorTriggerOnEnter": ["DoSkill"],
          "resetAnimatorTriggerOnExit": ["DoSkill"]
        },
        "Rest_BS": {
          "$type": "NEDIFAKEGCO",
          "animatorStates": {
            "Rest_BS": []
          },
          "canDoSkill": true,
          "resetAnimatorTriggerOnEnter": ["DoSkill"],
          "resetAnimatorTriggerOnExit": ["DoSkill"]
        },
        "Rest_Loop1": {
          "$type": "NEDIFAKEGCO",
          "animatorStates": {
            "Rest_Loop1": []
          },
          "canDoSkill": true,
          "resetAnimatorTriggerOnEnter": ["DoSkill"],
          "resetAnimatorTriggerOnExit": ["DoSkill"]
        },
        "Rest_Loop2": {
          "$type": "NEDIFAKEGCO",
          "animatorStates": {
            "Rest_Loop2": []
          },
          "canDoSkill": true,
          "resetAnimatorTriggerOnEnter": ["DoSkill"],
          "resetAnimatorTriggerOnExit": ["DoSkill"]
        },
        "Rest_AS": {
          "$type": "NEDIFAKEGCO",
          "animatorStates": {
            "Rest_AS": []
          },
          "canDoSkill": true,
          "resetAnimatorTriggerOnEnter": ["DoSkill"],
          "resetAnimatorTriggerOnExit": ["DoSkill"]
        },
        "BossStand": {
          "$type": "NEDIFAKEGCO",
          "animatorStates": {
            "BossStand": []
          },
          "canDoSkill": true,
          "resetAnimatorTriggerOnEnter": ["DoSkill"],
          "resetAnimatorTriggerOnExit": ["DoSkill"]
        },
        "TauntAware01": {
          "$type": "NEDIFAKEGCO",
          "animatorStates": {
            "TauntAware01": [
              "Audio_Monster_Natlan_TribalWarrior_Female_launcher_hookwalker_TauntAware_VO"
            ]
          },
          "canDoSkill": true,
          "resetAnimatorTriggerOnEnter": ["DoSkill"],
          "resetAnimatorTriggerOnExit": ["DoSkill"]
        },
        "TauntAware02": {
          "$type": "NEDIFAKEGCO",
          "animatorStates": {
            "TauntAware02": []
          },
          "canDoSkill": true,
          "resetAnimatorTriggerOnEnter": ["DoSkill"],
          "resetAnimatorTriggerOnExit": ["DoSkill"]
        },
        "AwareAS": {
          "$type": "NEDIFAKEGCO",
          "animatorStates": {
            "AwareAS": []
          },
          "canDoSkill": true,
          "resetAnimatorTriggerOnEnter": ["DoSkill"],
          "resetAnimatorTriggerOnExit": ["DoSkill"]
        },
        "TauntAware_BS": {
          "$type": "NEDIFAKEGCO",
          "animatorStates": {
            "TauntAware_BS": []
          },
          "canDoSkill": true,
          "resetAnimatorTriggerOnEnter": ["DoSkill"],
          "resetAnimatorTriggerOnExit": ["DoSkill"]
        },
        "TauntAware_AS": {
          "$type": "NEDIFAKEGCO",
          "animatorStates": {
            "TauntAware_AS": []
          },
          "canDoSkill": true,
          "resetAnimatorTriggerOnEnter": ["DoSkill"],
          "resetAnimatorTriggerOnExit": ["DoSkill"]
        },
        "TauntAware03": {
          "$type": "NEDIFAKEGCO",
          "animatorStates": {
            "TauntAware03": []
          },
          "canDoSkill": true,
          "resetAnimatorTriggerOnEnter": ["DoSkill"],
          "resetAnimatorTriggerOnExit": ["DoSkill"]
        },
        "SheathWeapon": {
          "$type": "NEDIFAKEGCO",
          "animatorStates": {
            "SheathWeapon": [
              "Audio_Monster_Tribalwarrior_Female_Standard_Launcher_Hookwalker_SheathWeapon"
            ]
          },
          "addEndure": 0.0,
          "resetAnimatorTriggerOnEnter": ["DoSkill"],
          "resetAnimatorTriggerOnExit": ["DoSkill"]
        },
        "MeleeAttack01": {
          "$type": "NEDIFAKEGCO",
          "animatorStates": {
            "MeleeAttack01": [
              "Monster_Tribalwarrior_Female_Standard_Launcher_HookWalker_MeleeAttack01",
              "Audio_Monster_Tribalwarrior_Female_Standard_Launcher_Hookwalker_MeleeAttack01",
              "Audio_Monster_Natlan_TribalWarrior_Female_launcher_hookwalker_meleeAtk_01_VO"
            ]
          },
          "resetAnimatorTriggerOnEnter": ["DoSkill"],
          "resetAnimatorTriggerOnExit": ["DoSkill"]
        },
        "MeleeAttack02": {
          "$type": "NEDIFAKEGCO",
          "animatorStates": {
            "MeleeAttack02": [
              "Monster_Tribalwarrior_Female_Standard_Launcher_HookWalker_MeleeAttack02",
              "Audio_Monster_Tribalwarrior_Female_Standard_Launcher_Hookwalker_MeleeAttack02"
            ]
          },
          "resetAnimatorTriggerOnEnter": ["DoSkill"],
          "resetAnimatorTriggerOnExit": ["DoSkill"]
        },
        "RangedAttack_BS": {
          "$type": "NEDIFAKEGCO",
          "animatorStates": {
            "RangedAttack_BS": [
              "Audio_Monster_Tribalwarrior_Female_Standard_Launcher_Hookwalker_RangedAttack_BS"
            ]
          },
          "resetAnimatorTriggerOnEnter": ["DoSkill"],
          "resetAnimatorTriggerOnExit": ["DoSkill"]
        },
        "RangedAttack02_BS": {
          "$type": "NEDIFAKEGCO",
          "animatorStates": {
            "RangedAttack02_BS": [
              "Audio_Monster_Tribalwarrior_Female_Standard_Launcher_Hookwalker_RangedAttack_BS"
            ]
          },
          "resetAnimatorTriggerOnEnter": ["DoSkill"],
          "resetAnimatorTriggerOnExit": ["DoSkill"]
        },
        "RangedAttack_SideStepLeft": {
          "$type": "NEDIFAKEGCO",
          "animatorStates": {
            "RangedAttack_SideStepLeft": [
              "Monster_Tribalwarrior_Female_Standard_Launcher_HookWalker_LeftLine",
              "Audio_Monster_Tribalwarrior_Female_Standard_Launcher_Hookwalker_RangedAttack_SideStep"
            ]
          },
          "resetAnimatorTriggerOnEnter": ["DoSkill"],
          "resetAnimatorTriggerOnExit": ["DoSkill"],
          "handleAnimatorStateImmediately": true
        },
        "RangedAttack_SideStepRight": {
          "$type": "NEDIFAKEGCO",
          "animatorStates": {
            "RangedAttack_SideStepRight": [
              "Monster_Tribalwarrior_Female_Standard_Launcher_HookWalker_RightLine",
              "Audio_Monster_Tribalwarrior_Female_Standard_Launcher_Hookwalker_RangedAttack_SideStep"
            ]
          },
          "resetAnimatorTriggerOnEnter": ["DoSkill"],
          "resetAnimatorTriggerOnExit": ["DoSkill"],
          "handleAnimatorStateImmediately": true
        },
        "RangedAttack02": {
          "$type": "NEDIFAKEGCO",
          "animatorStates": {
            "RangedAttack02": [
              "Monster_Tribalwarrior_Female_Standard_Launcher_HookWalker_RangedAttack02",
              "Audio_Monster_Tribalwarrior_Female_Standard_Launcher_Hookwalker_RangedAttack02"
            ]
          },
          "resetAnimatorTriggerOnEnter": ["DoSkill"],
          "resetAnimatorTriggerOnExit": ["DoSkill"]
        },
        "RangedAttack01": {
          "$type": "NEDIFAKEGCO",
          "animatorStates": {
            "RangedAttack01": [
              "Monster_Tribalwarrior_Female_Standard_Launcher_HookWalker_RangedAttack01",
              "Audio_Monster_Tribalwarrior_Female_Standard_Launcher_Hookwalker_RangedAttack01"
            ]
          },
          "resetAnimatorTriggerOnEnter": ["DoSkill"],
          "resetAnimatorTriggerOnExit": ["DoSkill"]
        },
        "RangedAttack_Reload": {
          "$type": "NEDIFAKEGCO",
          "animatorStates": {
            "RangedAttack_Reload": [
              "Monster_Tribalwarrior_Female_Standard_Launcher_Hookwalker_RangedAttack01_Reload",
              "Audio_Monster_Tribalwarrior_Female_Standard_Launcher_Hookwalker_RangedAttack_Reload"
            ]
          },
          "resetAnimatorTriggerOnEnter": ["DoSkill"],
          "resetAnimatorTriggerOnExit": ["DoSkill"]
        },
        "RangedAttack_AS": {
          "$type": "NEDIFAKEGCO",
          "animatorStates": {
            "RangedAttack_AS": [
              "Audio_Monster_Tribalwarrior_Female_Standard_Launcher_Hookwalker_RangedAttack_AS"
            ]
          },
          "resetAnimatorTriggerOnEnter": ["DoSkill"],
          "resetAnimatorTriggerOnExit": ["DoSkill"]
        },
        "TribalUlt": {
          "$type": "NEDIFAKEGCO",
          "animatorStates": {
            "TribalUlt": [
              "Monster_Tribalwarrior_Female_Standard_Launcher_HookWalker_TribalUlt",
              "Audio_Monster_Tribalwarrior_Female_Standard_Launcher_Hookwalker_TribalUlt",
              "Audio_Monster_Natlan_TribalWarrior_Female_launcher_hookwalker_TribalUlt_01_VO"
            ]
          },
          "resetAnimatorTriggerOnEnter": ["DoSkill"],
          "resetAnimatorTriggerOnExit": ["DoSkill"]
        },
        "SquatToFight_BS": {
          "$type": "NEDIFAKEGCO",
          "animatorStates": {
            "SquatToFight_BS": [
              "Monster_Tribalwarrior_Female_Standard_Launcher_HookWalker_JumpLandLine",
              "Audio_Monster_Tribalwarrior_Female_Standard_Launcher_Hookwalker_SquatToFight_BS"
            ]
          },
          "cullingModelAlwaysAnimate": true,
          "resetAnimatorTriggerOnEnter": ["DoSkill"],
          "resetAnimatorTriggerOnExit": ["DoSkill"],
          "forceSetAirMove": true
        },
        "SquatToFight_Loop": {
          "$type": "NEDIFAKEGCO",
          "animatorStates": {
            "SquatToFight_Loop": []
          },
          "cullingModelAlwaysAnimate": true,
          "resetAnimatorTriggerOnEnter": ["DoSkill"],
          "resetAnimatorTriggerOnExit": ["DoSkill"],
          "forceSetAirMove": true
        },
        "SquatToFight_AS": {
          "$type": "NEDIFAKEGCO",
          "animatorStates": {
            "SquatToFight_AS": [
              "Audio_Monster_Tribalwarrior_Female_Standard_Launcher_Hookwalker_SquatToFight_AS"
            ]
          },
          "cullingModelAlwaysAnimate": true,
          "resetAnimatorTriggerOnEnter": ["DoSkill"],
          "resetAnimatorTriggerOnExit": ["DoSkill"]
        },
        "Personality01": {
          "$type": "NEDIFAKEGCO",
          "animatorStates": {
            "Personality01": [
              "Audio_Monster_Tribalwarrior_Female_Standard_Launcher_Hookwalker_Personality01"
            ]
          },
          "canDoSkill": true,
          "resetAnimatorTriggerOnEnter": ["DoSkill"],
          "resetAnimatorTriggerOnExit": ["DoSkill"]
        },
        "SquatPersonality01": {
          "$type": "NEDIFAKEGCO",
          "animatorStates": {
            "SquatPersonality01": []
          },
          "canDoSkill": true,
          "resetAnimatorTriggerOnEnter": ["DoSkill"],
          "resetAnimatorTriggerOnExit": ["DoSkill"]
        }
      }
    }
  },
  "billboard": {
    "$type": "DNGNMAJBCNP",
    "attachPoint": "BillboardAttach",
    "offset": {
      "x": -0.05000000074505806
    },
    "offsetType": "Character",
    "radiusOffset": 0.25,
    "showHPBar": true,
    "forceShowDistance": 15.0
  },
  "initialPoses": {
    "Default": {
      "initialPoseParams": {
        "intParams": {
          "FreePoseMark": "1001"
        }
      }
    },
    "Squat": {
      "initialPoseID": 9003,
      "initialPoseParams": {
        "intParams": {
          "FreePoseMark": "9003"
        }
      }
    },
    "Tutor": {
      "initialPoseID": 1002,
      "initialPoseParams": {
        "intParams": {
          "FreePoseMark": "1002"
        }
      }
    },
    "BossStand": {
      "initialPoseID": 9001,
      "initialPoseParams": {
        "intParams": {
          "FreePoseMark": "9001"
        }
      }
    },
    "Rest": {
      "initialPoseID": 1005,
      "initialPoseParams": {
        "intParams": {
          "FreePoseMark": "1005"
        }
      }
    },
    "FixWeapon": {
      "initialPoseID": 1006,
      "initialPoseParams": {
        "intParams": {
          "FreePoseMark": "1006"
        }
      }
    }
  },
  "aibeta": {
    "enable": true,
    "moveSetting": {
      "navMeshAgentName": "Undead01",
      "almostReachedDistanceRun": 1.5
    },
    "sensing": {
      "settings": {
        "DefaultSetting": {
          "viewRange": 20.0
        },
        "HighAlert": {
          "feelRange": 8.0
        },
        "LowAlert": {
          "viewRange": 13.0
        },
        "UltraLowSensing": {
          "viewRange": 9.0,
          "hearAttractionRange": 0.0,
          "feelRange": 2.0
        },
        "NeverCombat": {
          "enableVision": false,
          "hearAttractionRange": 0.0,
          "feelRange": 0.0
        }
      },
      "templates": {
        "DefaultTemplate": {
          "DefaultPoses": "DefaultSetting"
        },
        "HighAlert": {
          "DefaultPoses": "HighAlert"
        },
        "LowAlert": {
          "DefaultPoses": "LowAlert"
        },
        "UltraLowSensing": {
          "DefaultPoses": "UltraLowSensing"
        },
        "NeverCombat": {
          "DefaultPoses": "NeverCombat"
        }
      }
    },
    "neurons": {
      "DefaultSetting": ["HIT"],
      "NeverCombat": []
    },
    "threat": {
      "GHIJMOKOLMB": "DefaultTemplate"
    },
    "spacialWanderTactic": {
      "settings": {
        "Default": {
          "GHIJMOKOLMB": "",
          "clearThreatByLostPath": true,
          "clearThreatTimerByDistance": 3.0,
          "clearThreatTimerByLostPath": 16.0,
          "viewAttenuation": [
            {
              "x": 6.0,
              "y": 10.0
            },
            {
              "x": 12.0,
              "y": 0.032999999821186066
            },
            {
              "x": 50.0,
              "y": 0.009999999776482582
            }
          ],
          "OIMBHHFADNC": [
            {
              "distance": 12.0,
              "ICJJNKNKCFB": [11.0]
            },
            {
              "distance": 50.0,
              "ICJJNKNKCFB": [7.0]
            }
          ],
          "timeDecreaseTemper": 5.0,
          "JOHFJMNGOEG": true
        },
        "HighAlert": {
          "GHIJMOKOLMB": "",
          "clearThreatByLostPath": true,
          "clearThreatTimerByDistance": 3.0,
          "clearThreatTimerByLostPath": 16.0,
          "viewAttenuation": [
            {
              "x": 8.0,
              "y": 10.0
            },
            {
              "x": 18.0,
              "y": 0.032999999821186066
            },
            {
              "x": 50.0,
              "y": 0.009999999776482582
            }
          ],
          "OIMBHHFADNC": [
            {
              "distance": 18.0,
              "ICJJNKNKCFB": [11.0]
            },
            {
              "distance": 50.0,
              "ICJJNKNKCFB": [7.0]
            }
          ],
          "timeDecreaseTemper": 5.0,
          "JOHFJMNGOEG": true
        },
        "LowAlert": {
          "GHIJMOKOLMB": "",
          "clearThreatByLostPath": true,
          "clearThreatTimerByDistance": 3.0,
          "clearThreatTimerByLostPath": 16.0,
          "viewAttenuation": [
            {
              "x": 4.0,
              "y": 10.0
            },
            {
              "x": 8.0,
              "y": 0.032999999821186066
            },
            {
              "x": 50.0,
              "y": 0.009999999776482582
            }
          ],
          "OIMBHHFADNC": [
            {
              "distance": 8.0,
              "ICJJNKNKCFB": [11.0]
            },
            {
              "distance": 50.0,
              "ICJJNKNKCFB": [7.0]
            }
          ],
          "timeDecreaseTemper": 5.0,
          "JOHFJMNGOEG": true
        },
        "UltraLowSensing": {
          "GHIJMOKOLMB": "",
          "clearThreatByLostPath": true,
          "clearThreatTimerByDistance": 3.0,
          "clearThreatTimerByLostPath": 16.0,
          "viewAttenuation": [
            {
              "x": 2.0,
              "y": 10.0
            },
            {
              "x": 6.0,
              "y": 0.032999999821186066
            },
            {
              "x": 50.0,
              "y": 0.009999999776482582
            }
          ],
          "OIMBHHFADNC": [
            {
              "distance": 6.0,
              "ICJJNKNKCFB": [11.0]
            },
            {
              "distance": 50.0,
              "ICJJNKNKCFB": [7.0]
            }
          ],
          "timeDecreaseTemper": 5.0,
          "JOHFJMNGOEG": true
        },
        "BattleSensitive": {
          "GHIJMOKOLMB": "",
          "clearThreatByLostPath": true,
          "clearThreatTimerByDistance": 3.0,
          "clearThreatTimerByLostPath": 16.0,
          "viewThreatGrow": 500.0,
          "timeDecreaseTemper": 5.0,
          "JOHFJMNGOEG": true
        },
        "SquatSensing": {
          "GHIJMOKOLMB": "",
          "clearThreatTimerByDistance": 3.0,
          "clearThreatTimerByLostPath": 16.0,
          "viewAttenuation": [
            {
              "x": 6.0,
              "y": 10.0
            },
            {
              "x": 12.0,
              "y": 0.032999999821186066
            },
            {
              "x": 50.0,
              "y": 0.009999999776482582
            }
          ],
          "OIMBHHFADNC": [
            {
              "distance": 12.0,
              "ICJJNKNKCFB": [11.0]
            },
            {
              "distance": 50.0,
              "ICJJNKNKCFB": [7.0]
            }
          ],
          "timeDecreaseTemper": 5.0,
          "JOHFJMNGOEG": true
        }
      },
      "HJHOBMICILD": {
        "DefaultTemplate": {
          "DefaultPoses": "Default"
        },
        "HighAlert": {
          "DefaultPoses": "HighAlert"
        },
        "LowAlert": {
          "DefaultPoses": "LowAlert"
        },
        "UltraLowSensing": {
          "DefaultPoses": "UltraLowSensing"
        },
        "BattleSensitive": {
          "DefaultPoses": "BattleSensitive"
        },
        "SquatSensing": {
          "DefaultPoses": "Default",
          "9003": "SquatSensing"
        }
      }
    },
    "defendArea": {},
    "skillSetting": {
      "skillEliteSet": {
        "0": [],
        "1": [11, 12]
      }
    },
    "skills": {
      "10021": {
        "name": "Tutor",
        "skillType": "Free",
        "castCondition": {
          "pose": [1002],
          "needReInitCD": true
        },
        "cd": 6.0,
        "cdUpperRange": 12.0,
        "initialCD": 6.0,
        "initialCDUpperRange": 12.0,
        "publicCDGroup": "",
        "ignoreGCD": true,
        "triggerGCD": false,
        "HHAGODJIAPE": "",
        "stateIDs": ["Tutor"],
        "flagTargetReachable": "10",
        "flagSelfOnTemplateCollider": "01",
        "flagSelfInZone": "10",
        "flagTargetInZone": "11"
      },
      "10051": {
        "name": "Rest",
        "skillType": "Free",
        "castCondition": {
          "pose": [1005],
          "needReInitCD": true
        },
        "cd": 6.0,
        "cdUpperRange": 12.0,
        "initialCD": 6.0,
        "initialCDUpperRange": 12.0,
        "publicCDGroup": "",
        "ignoreGCD": true,
        "triggerGCD": false,
        "HHAGODJIAPE": "",
        "stateIDs": ["Rest_BS", "Rest_Loop1", "Rest_Loop2", "Rest_AS"],
        "flagTargetReachable": "10",
        "flagSelfOnTemplateCollider": "01",
        "flagSelfInZone": "10",
        "flagTargetInZone": "11"
      },
      "10061": {
        "name": "FixWeapon",
        "skillType": "Free",
        "castCondition": {
          "pose": [1006],
          "needReInitCD": true
        },
        "cd": 2.0,
        "cdUpperRange": 6.0,
        "initialCD": 2.0,
        "initialCDUpperRange": 6.0,
        "publicCDGroup": "",
        "ignoreGCD": true,
        "triggerGCD": false,
        "HHAGODJIAPE": "",
        "stateIDs": ["FixWeapon"],
        "flagTargetReachable": "10",
        "flagSelfOnTemplateCollider": "01",
        "flagSelfInZone": "10",
        "flagTargetInZone": "11"
      },
      "90011": {
        "name": "Tutor",
        "skillType": "Free",
        "castCondition": {
          "pose": [9001],
          "needReInitCD": true
        },
        "cd": 6.0,
        "cdUpperRange": 12.0,
        "initialCD": 6.0,
        "initialCDUpperRange": 12.0,
        "publicCDGroup": "",
        "ignoreGCD": true,
        "triggerGCD": false,
        "HHAGODJIAPE": "",
        "stateIDs": ["BossStand"],
        "flagTargetReachable": "10",
        "flagSelfOnTemplateCollider": "01",
        "flagSelfInZone": "10",
        "flagTargetInZone": "11"
      },
      "1": {
        "name": "OnAlert",
        "skillType": "AdvancedAlert",
        "canUseCombatSkillCondition": true,
        "faceTarget": true,
        "castCondition": {
          "skillAnchorRangeMin": -1.0,
          "targetSkillAnchorRangeMin": -1.0,
          "globalValues": [
            "_Tribalwarrior_Female_Standard_Launcher_HookWalker_NotSquatState"
          ],
          "globalValuesTargetType": "SELF"
        },
        "publicCDGroup": "",
        "ignoreGCD": true,
        "triggerGCD": false,
        "HHAGODJIAPE": "",
        "stateIDs": ["Alert"],
        "skillQueryingTime": 3.0,
        "flagTargetReachable": "11",
        "flagSelfOnTemplateCollider": "11",
        "flagSelfInZone": "11",
        "flagTargetInZone": "11"
      },
      "11": {
        "name": "OnAware",
        "skillType": "OnAware",
        "canUseCombatSkillCondition": true,
        "faceTarget": true,
        "castCondition": {
          "skillAnchorRangeMin": -1.0,
          "targetSkillAnchorRangeMin": -1.0,
          "globalValues": [
            "_Tribalwarrior_Female_Standard_Launcher_HookWalker_NotSquatState"
          ],
          "globalValuesTargetType": "SELF"
        },
        "publicCDGroup": "",
        "ignoreGCD": true,
        "triggerGCD": false,
        "HHAGODJIAPE": "",
        "stateIDs": ["Aware"],
        "skillQueryingTime": 3.0,
        "flagTargetReachable": "10",
        "flagSelfOnTemplateCollider": "01",
        "flagSelfInZone": "10",
        "flagTargetInZone": "11"
      },
      "30001": {
        "name": "TauntAware01",
        "skillType": "Aware",
        "castCondition": {
          "pose": [101],
          "needReInitCD": true
        },
        "cd": 6.0,
        "cdUpperRange": 5.0,
        "initialCD": 6.0,
        "initialCDUpperRange": 5.0,
        "publicCDGroup": "",
        "ignoreGCD": true,
        "triggerGCD": false,
        "HHAGODJIAPE": "",
        "stateIDs": ["TauntAware01"],
        "skillQueryingTime": 3.0,
        "flagTargetReachable": "11",
        "flagSelfOnTemplateCollider": "11",
        "flagSelfInZone": "11",
        "flagTargetInZone": "11"
      },
      "30011": {
        "name": "TauntAware02",
        "skillType": "Aware",
        "castCondition": {
          "pose": [101],
          "needReInitCD": true
        },
        "cd": 6.0,
        "cdUpperRange": 5.0,
        "initialCD": 6.0,
        "initialCDUpperRange": 5.0,
        "publicCDGroup": "",
        "ignoreGCD": true,
        "triggerGCD": false,
        "HHAGODJIAPE": "",
        "stateIDs": ["TauntAware02"],
        "skillQueryingTime": 3.0,
        "flagTargetReachable": "11",
        "flagSelfOnTemplateCollider": "11",
        "flagSelfInZone": "11",
        "flagTargetInZone": "11"
      },
      "30012": {
        "name": "TauntAware02",
        "skillType": "Aware",
        "castCondition": {
          "pose": [101],
          "needReInitCD": true,
          "minTargetAngleXZ": 60.0
        },
        "initialCD": 3.0,
        "publicCDGroup": "",
        "ignoreGCD": true,
        "HHAGODJIAPE": "",
        "stateIDs": ["TauntAware02"],
        "skillQueryingTime": 3.0,
        "flagTargetReachable": "11",
        "flagSelfOnTemplateCollider": "11",
        "flagSelfInZone": "11",
        "flagTargetInZone": "11"
      },
      "30021": {
        "name": "TauntAware03",
        "skillType": "Aware",
        "castCondition": {
          "pose": [101],
          "needReInitCD": true
        },
        "cd": 10.0,
        "cdUpperRange": 5.0,
        "initialCD": 10.0,
        "publicCDGroup": "",
        "HHAGODJIAPE": "",
        "stateIDs": ["TauntAware_BS", "TauntAware03", "TauntAware_AS"],
        "skillQueryingTime": 3.0,
        "flagTargetReachable": "11",
        "flagSelfOnTemplateCollider": "11",
        "flagSelfInZone": "11",
        "flagTargetInZone": "11"
      },
      "30022": {
        "name": "TauntAware03",
        "skillType": "Aware",
        "castCondition": {
          "pose": [101],
          "needReInitCD": true,
          "minTargetAngleXZ": 60.0
        },
        "initialCD": 3.0,
        "publicCDGroup": "",
        "ignoreGCD": true,
        "HHAGODJIAPE": "",
        "stateIDs": ["TauntAware_BS", "TauntAware03", "TauntAware_AS"],
        "skillQueryingTime": 3.0,
        "flagTargetReachable": "11",
        "flagSelfOnTemplateCollider": "11",
        "flagSelfInZone": "11",
        "flagTargetInZone": "11"
      },
      "101": {
        "name": "MeleeAttack",
        "combatSkillType": "MeleeAttack",
        "priority": 2,
        "castCondition": {
          "pose": [1],
          "pickRangeMax": 4.0
        },
        "cd": 2.5,
        "cdUpperRange": 2.0,
        "publicCDGroup": "",
        "ignoreGCD": true,
        "HHAGODJIAPE": "",
        "stateIDs": ["MeleeAttack01", "MeleeAttack02"],
        "flagTargetReachable": "10",
        "flagSelfOnTemplateCollider": "11",
        "flagSelfInZone": "11",
        "flagTargetInZone": "11"
      },
      "201": {
        "name": "RangedAttack01",
        "combatSkillType": "RangedAttack",
        "priority": 2,
        "castCondition": {
          "pose": [1],
          "pickRangeMin": 5.0,
          "pickRangeMax": 20.0
        },
        "cd": 10.0,
        "cdUpperRange": 6.0,
        "publicCDGroup": "",
        "HHAGODJIAPE": "",
        "stateIDs": [
          "RangedAttack_BS",
          "RangedAttack_Reload",
          "RangedAttack01",
          "RangedAttack_AS"
        ],
        "flagTargetReachable": "11",
        "flagSelfOnTemplateCollider": "11",
        "flagSelfInZone": "11",
        "flagTargetInZone": "11"
      },
      "301": {
        "name": "RangedAttack_SideStepLeft",
        "combatSkillType": "MeleeAttack",
        "priority": 2,
        "castCondition": {
          "pose": [1],
          "pickRangeMax": 10.0,
          "DECNNMAFEAP": true,
          "FJHPBNNBOMA": true,
          "HNGCJBLCPOE": 0.10000000149011612
        },
        "cd": 5.0,
        "publicCDGroup": "",
        "ignoreGCD": true,
        "ignoreDynamicCD": true,
        "HHAGODJIAPE": "",
        "stateIDs": [
          "RangedAttack_SideStepLeft",
          "RangedAttack02_BS",
          "RangedAttack02",
          "RangedAttack_AS"
        ],
        "flagTargetReachable": "11",
        "flagSelfOnTemplateCollider": "11",
        "flagSelfInZone": "11",
        "flagTargetInZone": "11"
      },
      "302": {
        "name": "RangedAttack_SideStepRight",
        "combatSkillType": "MeleeAttack",
        "priority": 2,
        "castCondition": {
          "pose": [1],
          "pickRangeMax": 10.0,
          "DECNNMAFEAP": true,
          "FJHPBNNBOMA": true,
          "HCMJEEPGPJE": -0.10000000149011612
        },
        "cd": 5.0,
        "publicCDGroup": "",
        "ignoreGCD": true,
        "ignoreDynamicCD": true,
        "HHAGODJIAPE": "",
        "stateIDs": [
          "RangedAttack_SideStepRight",
          "RangedAttack02_BS",
          "RangedAttack02",
          "RangedAttack_AS"
        ],
        "flagTargetReachable": "11",
        "flagSelfOnTemplateCollider": "11",
        "flagSelfInZone": "11",
        "flagTargetInZone": "11"
      },
      "401": {
        "name": "SquatToFight",
        "skillType": "AdvancedAlert",
        "canUseCombatSkillCondition": true,
        "castCondition": {
          "skillAnchorRangeMin": -1.0,
          "targetSkillAnchorRangeMin": -1.0,
          "globalValues": ["_MONSTER_Tribalwarrior_SquatState"],
          "globalValuesTargetType": "SELF"
        },
        "publicCDGroup": "",
        "ignoreGCD": true,
        "triggerGCD": false,
        "HHAGODJIAPE": "",
        "stateIDs": ["SquatToFight_BS", "SquatToFight_Loop", "SquatToFight_AS"],
        "skillQueryingTime": 3.0,
        "flagTargetReachable": "11",
        "flagSelfOnTemplateCollider": "11",
        "flagSelfInZone": "11",
        "flagTargetInZone": "11"
      },
      "801": {
        "name": "TribalUlt",
        "combatSkillType": "MeleeAttack",
        "priority": 2,
        "castCondition": {
          "pose": [1],
          "pickRangeMax": 20.0
        },
        "cd": 30.0,
        "cdUpperRange": 15.0,
        "initialCD": 15.0,
        "initialCDUpperRange": 5.0,
        "publicCDGroup": "",
        "HHAGODJIAPE": "",
        "stateIDs": ["TribalUlt"],
        "flagTargetReachable": "10",
        "flagSelfOnTemplateCollider": "11",
        "flagSelfInZone": "11",
        "flagTargetInZone": "11"
      },
      "901": {
        "name": "Personality01",
        "skillType": "Free",
        "priority": 3,
        "castCondition": {
          "pose": [1001],
          "needReInitCD": true
        },
        "cd": 12.0,
        "cdUpperRange": 2.0,
        "initialCD": 6.0,
        "initialCDUpperRange": 6.0,
        "publicCDGroup": "",
        "ignoreGCD": true,
        "HHAGODJIAPE": "",
        "stateIDs": ["Personality01"],
        "flagTargetReachable": "10",
        "flagSelfOnTemplateCollider": "01",
        "flagSelfInZone": "10",
        "flagTargetInZone": "11"
      },
      "911": {
        "name": "SquatPersonality01",
        "skillType": "Free",
        "priority": 3,
        "castCondition": {
          "pose": [9003]
        },
        "cd": 12.0,
        "cdUpperRange": 2.0,
        "initialCD": 5.0,
        "publicCDGroup": "",
        "ignoreGCD": true,
        "HHAGODJIAPE": "",
        "stateIDs": ["SquatPersonality01"],
        "flagTargetReachable": "10",
        "flagSelfOnTemplateCollider": "01",
        "flagSelfInZone": "10",
        "flagTargetInZone": "11"
      }
    },
    "skillGCD": 2.0,
    "target": {
      "defaultTargetPrioritys": ["THREAT", "AWAKE_TARGET"]
    },
    "birdCirclingTactic": [
      {
        "$type": "MCDGOJLCMBM",
        "enable": true,
        "condition": {
          "pose": [1001]
        }
      },
      {
        "$type": "COLLJLNKMLC",
        "enable": true,
        "condition": {
          "pose": [1001]
        }
      },
      {
        "$type": "EPHBMLFODKF",
        "enable": true,
        "condition": {
          "pose": [1]
        },
        "JMCOBEPDIGM": {
          "rangeMax": 13.0,
          "BFJBDDIIFOI": {
            "LLICGJHIGME": 1.2000000476837158,
            "IDEFILBHNAP": 0.30000001192092896,
            "IBLIPJPNOGC": 0.30000001192092896,
            "AEBLMKFNCDG": 3.0,
            "IGLIBIOEGBB": 3.0
          },
          "NAOBMNGDKHL": "1111",
          "JCNIJOAIGII": "1111",
          "MNPDDAKDHGK": ""
        }
      },
      {
        "$type": "KACCHOLJDNK",
        "enable": true,
        "condition": {
          "pose": [1]
        },
        "JMCOBEPDIGM": {
          "HKJODDGJPHA": 50.0,
          "GGEBMFHFBPO": 13.0,
          "KFFGCIMPNMJ": 15.0,
          "MNPDDAKDHGK": ""
        }
      },
      {
        "$type": "NNJKLGNPMNN",
        "enable": true,
        "JMCOBEPDIGM": {
          "OJGLKPBCLGB": 4.0,
          "MNPDDAKDHGK": "",
          "GJDMDHIBCME": ""
        }
      },
      {
        "$type": "FPELBIJFGCE",
        "enable": true,
        "condition": {
          "pose": [1001]
        },
        "JMCOBEPDIGM": {
          "NBENNEKDIIA": 0.5,
          "KPNDPKIOPJM": 3.0,
          "PINAFKEDDLL": 1.5,
          "ANMPOPEBDIA": 15.0,
          "GMJFIMFFOEL": 3.75,
          "CHCPFDMADEI": 7.5,
          "MNPDDAKDHGK": ""
        }
      }
    ]
  },
  "inputKeys": [
    {
      "keyID": 1,
      "inputKeyCode": 257,
      "abilityName": ""
    },
    {
      "keyID": 101,
      "inputKeyCode": 258,
      "abilityName": ""
    },
    {
      "keyID": 201,
      "inputKeyCode": 259,
      "abilityName": ""
    },
    {
      "keyID": 301,
      "inputKeyCode": 260,
      "abilityName": ""
    },
    {
      "keyID": 302,
      "inputKeyCode": 261,
      "abilityName": ""
    },
    {
      "keyID": 801,
      "inputKeyCode": 262,
      "abilityName": ""
    },
    {
      "keyID": 1101,
      "inputKeyCode": 266,
      "abilityName": ""
    },
    {
      "keyID": 1102,
      "inputKeyCode": 267,
      "abilityName": ""
    },
    {
      "keyID": 899,
      "inputKeyCode": 269,
      "abilityName": ""
    },
    {
      "keyID": 901,
      "inputKeyCode": 270,
      "abilityName": ""
    },
    {
      "keyID": 902,
      "inputKeyCode": 271,
      "abilityName": ""
    },
    {
      "keyID": 903,
      "inputKeyCode": 272,
      "abilityName": ""
    },
    {
      "keyID": 904,
      "inputKeyCode": 273,
      "abilityName": ""
    },
    {
      "keyID": 905,
      "inputKeyCode": 274,
      "abilityName": ""
    }
  ],
  "move": {
    "$type": "IPNMJMHDMPF",
    "facingMove": "FourDirection",
    "monsterSizeType": "StoopType",
    "PKHOMJHFAEE": "RootNode"
  }
}
