{
  "common": {
    "effectAttachShape": {
      "$type": "FJNPJANPGGC",
      "mesh": "EffectMesh"
    },
    "mass": 40.0,
    "height": 2.0,
    "modelHeight": 2.0,
    "viewSize": 1.2999999523162842,
    "affectedByWorld": true,
    "checkInSurface": true,
    "scale": 0.8999999761581421,
    "useGrassDisplacement": true,
    "clearAnimatorOnSetLightDeactive": true,
    "clearAIOnSetLightDeactive": true,
    "recoverByInitPose": true
  },
  "model": {
    "bornEffect": "",
    "attachEffect": "",
    "canBakeMesh": false,
    "BKPFGNPLDNJ": ""
  },
  "dither": {
    "showDitherDuration": 2.0
  },
  "combat": {
    "property": {
      "endureType": "Monster_Demiboss_Humanoid",
      "weight": 125.0
    },
    "beHit": {
      "hitBloodEffect": ""
    },
    "combatLock": {
      "lockShape": "CircleLockEnemy",
      "lockType": "Avatar&Monster_Lv4"
    },
    "die": {
      "hasAnimatorDie": true,
      "dieEndTime": 2.0,
      "dieForceDisappearTime": 1.5,
      "dieDisappearEffect": "Eff_Death_Common",
      "dieShaderData": "MonsterDie",
      "muteHitBox": true,
      "dieDenyLockOn": true,
      "dieIsGhostToEnemy": true,
      "dieIgnoreTriggerBullet": true,
      "muteBillboard": true,
      "mutePushCollider": true
    },
    "animEvents": {
      "MeleeAttack01Normal": {
        "attackPattern": {
          "$type": "ConfigAttackCircle",
          "triggerType": "TriggerNoRepeat",
          "born": {
            "$type": "ConfigBornBySelf",
            "offset": {
              "x": 0.0,
              "y": 0.0,
              "z": 0.5
            }
          },
          "height": 1.7999999523162842,
          "fanAngle": 180.0,
          "radius": 4.0
        },
        "attackInfo": {
          "attackTag": "",
          "attenuationTag": "",
          "attenuationGroup": "default",
          "attackProperty": {
            "actorGrassSubHurtDelta": 0.699999988079071,
            "actorWindSubHurtDelta": 0.0,
            "elementDurability": 100.0,
            "strikeType": "Blunt",
            "enBreak": 150.0,
            "attackType": "Melee",
            "GLKMCMDJBIK": 0.0
          },
          "hitPattern": {
            "onHitEffectName": "default",
            "hitImpulseY": "",
            "hitImpulseType": "LV4"
          }
        }
      },
      "MeleeAttack01Decay": {
        "attackPattern": {
          "$type": "ConfigAttackCircle",
          "triggerType": "TriggerNoRepeat",
          "born": {
            "$type": "ConfigBornBySelf",
            "offset": {
              "x": 0.0,
              "y": 0.0,
              "z": 0.5
            }
          },
          "height": 2.0,
          "radius": 5.5
        },
        "attackInfo": {
          "attackTag": "",
          "attenuationTag": "",
          "attenuationGroup": "default",
          "attackProperty": {
            "actorGrassSubHurtDelta": 0.8500000238418579,
            "actorWindSubHurtDelta": 0.0,
            "elementDurability": 100.0,
            "strikeType": "Blunt",
            "enBreak": 150.0,
            "attackType": "Melee",
            "GLKMCMDJBIK": 0.0
          },
          "hitPattern": {
            "onHitEffectName": "default",
            "hitImpulseY": "",
            "hitImpulseType": "LV4"
          }
        }
      }
    }
  },
  "abilities": [
    {
      "abilityID": "",
      "abilityName": "Monster_Fungus_Amanita_Unu_AirStateManager",
      "abilityOverride": ""
    },
    {
      "abilityID": "",
      "abilityName": "Monster_Fungus_Amanita_Unu_AirWeakness",
      "abilityOverride": ""
    },
    {
      "abilityID": "",
      "abilityName": "Monster_Fungus_Amanita_Unu_ReturnToBorn",
      "abilityOverride": ""
    },
    {
      "abilityID": "",
      "abilityName": "Monster_Fungus_Amanita_FungusStateManager",
      "abilityOverride": ""
    },
    {
      "abilityID": "",
      "abilityName": "Monster_Fungus_Alert",
      "abilityOverride": ""
    },
    {
      "abilityID": "",
      "abilityName": "Monster_Fungus_Amanita_Unu_Anudatta_Grass_Steer",
      "abilityOverride": ""
    },
    {
      "abilityID": "",
      "abilityName": "Monster_Fungus_Amanita_Unu_Anudatta_Grass_ShootNormal",
      "abilityOverride": ""
    },
    {
      "abilityID": "",
      "abilityName": "Monster_Fungus_Amanita_Unu_Anudatta_Grass_ShootNormal_Tail",
      "abilityOverride": ""
    },
    {
      "abilityID": "",
      "abilityName": "Monster_Fungus_Amanita_Unu_Anudatta_Grass_ShootDecay",
      "abilityOverride": ""
    },
    {
      "abilityID": "",
      "abilityName": "Monster_Fungus_Amanita_Unu_Anudatta_Grass_ShootDecay_Tail",
      "abilityOverride": ""
    },
    {
      "abilityID": "",
      "abilityName": "Monster_Fungus_Amanita_Unu_Anudatta_Grass_DiveBombingNormal",
      "abilityOverride": ""
    },
    {
      "abilityID": "",
      "abilityName": "Monster_Fungus_Amanita_Unu_Anudatta_Grass_DiveBombingNormal02",
      "abilityOverride": ""
    },
    {
      "abilityID": "",
      "abilityName": "Monster_Fungus_Amanita_Unu_Anudatta_Grass_DiveBombingDecay",
      "abilityOverride": ""
    },
    {
      "abilityID": "",
      "abilityName": "Monster_Fungus_Amanita_Unu_Anudatta_Grass_DiveBombingDecay02",
      "abilityOverride": ""
    }
  ],
  "stateLayers": {
    "defaultLayer": {
      "$type": "GBGJJIIEMBD",
      "layerIndexName": "",
      "CPAANEIJCGD": "",
      "stateIDs": {
        "Born": {
          "$type": "NEDIFAKEGCO",
          "animatorStates": {
            "Born": []
          },
          "resetAnimatorTriggerOnExit": ["DoSkill"]
        },
        "NormalIdle": {
          "$type": "NEDIFAKEGCO",
          "animatorStates": {
            "Standby_WingUp01": [],
            "Standby_WingDown01": [
              "Audio_Monster_Fungus_Amanita_Unu_Anudatta_FlyStandBy_WingDown_01"
            ],
            "Standby_WingUp02": [],
            "Standby_WingDown02": [
              "Audio_Monster_Fungus_Amanita_Unu_Anudatta_FlyStandBy_WingDown_02"
            ]
          },
          "canDoSkill": true,
          "canSyncMove": true,
          "canSteer": true
        },
        "GroundedIdle": {
          "$type": "NEDIFAKEGCO",
          "animatorStates": {
            "Standby_Grounded": []
          },
          "canDoSkill": true,
          "canSyncMove": true,
          "resetAnimatorTriggerOnExit": ["DoSkill"]
        },
        "NormalFly": {
          "$type": "NEDIFAKEGCO",
          "animatorStates": {
            "Fly_WingUp01": [],
            "Fly_WingDown01": [],
            "Fly_WingUp02": [],
            "Fly_WingDown02": []
          },
          "canDoSkill": true,
          "canSyncMove": true,
          "setAnimatorFloat": [
            {
              "name": "FlyMotionHor",
              "normalizeEnd": 0.0
            },
            {
              "name": "FlyMotionVer",
              "normalizeEnd": 0.0
            }
          ],
          "canSteer": true,
          "blendMove": "BlendMove3D"
        },
        "FlyRush": {
          "$type": "NEDIFAKEGCO",
          "animatorStates": {
            "FlyRush_BS": [
              "Audio_Monster_Fungus_Amanita_Unu_Anudatta_FlyRush_BS"
            ],
            "FlyRush_WingUp01": [
              "Monster_Fungus_Amanita_Unu_FlyRush",
              "Audio_Monster_Fungus_Amanita_Unu_FlyRush"
            ],
            "FlyRush_WingDown01": [
              "Monster_Fungus_Amanita_Unu_FlyRush",
              "Audio_Monster_Fungus_Amanita_Unu_FlyRush"
            ],
            "FlyRush_WingUp02": [
              "Monster_Fungus_Amanita_Unu_FlyRush",
              "Audio_Monster_Fungus_Amanita_Unu_FlyRush"
            ],
            "FlyRush_WingDown02": [
              "Monster_Fungus_Amanita_Unu_FlyRush",
              "Audio_Monster_Fungus_Amanita_Unu_FlyRush"
            ]
          },
          "canDoSkill": true,
          "canSyncMove": true,
          "canSteer": true
        },
        "BeHit": {
          "$type": "NEDIFAKEGCO",
          "animatorStates": {
            "Hit_H": ["Audio_Monster_Fungus_Amanita_Unu_Hit_H"]
          },
          "canSyncMove": true,
          "resetAnimatorTriggerOnEnter": ["BeHit"],
          "resetAnimatorTriggerOnExit": ["DoSkill"],
          "airMoveFollowAnimation": true
        },
        "BeHitThrow": {
          "$type": "NEDIFAKEGCO",
          "animatorStates": {
            "HitThrow": [],
            "HitThrowDrop": [],
            "HitThrowToGround": [
              "Audio_Monster_Fungus_Amanita_Unu_hitThrowToGround_BS"
            ]
          },
          "resetAnimatorTriggerOnEnter": ["BeHit", "HitAir2HitDrop"],
          "resetAnimatorTriggerOnExit": ["DoSkill"],
          "remoteForceCloseAirMove": true
        },
        "Struggle": {
          "$type": "NEDIFAKEGCO",
          "animatorStates": {
            "Struggle": []
          },
          "resetAnimatorTriggerOnEnter": ["BeHit", "HitAir2HitDrop"],
          "resetAnimatorTriggerOnExit": ["DoSkill"]
        },
        "Die": {
          "$type": "NEDIFAKEGCO",
          "animatorStates": {
            "Die_BS": [],
            "Die": [
              "Monster_Fungus_Amanita_Unu_Die",
              "Audio_Monster_Fungus_Amanita_Unu_Die"
            ],
            "AirDie": ["Monster_Fungus_Amanita_Unu_Die"],
            "SwimDie_BS": [],
            "SwimDie": []
          }
        },
        "Warning": {
          "$type": "NEDIFAKEGCO",
          "animatorStates": {
            "Warning": [
              "Monster_Fungus_Amanita_Unu_Alert",
              "Audio_Monster_Fungus_Amanita_Unu_Warning"
            ]
          },
          "canSyncMove": true,
          "addEndure": 0.009999999776482582,
          "resetAnimatorTriggerOnExit": ["BeHit", "DoSkill"],
          "canSteer": true
        },
        "ClimbUp": {
          "$type": "NEDIFAKEGCO",
          "animatorStates": {
            "ClimbUp_BS": [
              "Monster_Fungus_Amanita_Unu_ClimbUp_BS",
              "Audio_Monster_Fungus_Amanita_Unu_Anudatta_ClimbUp_BS"
            ],
            "ClimbUp_Loop": [],
            "ClimbUp_AS": [
              "Audio_Monster_Fungus_Amanita_Unu_Anudatta_ClimbUp_AS"
            ]
          },
          "resetAnimatorTriggerOnExit": ["BeHit", "DoSkill"],
          "canSteer": true
        },
        "MeleeAttackNormal_BS": {
          "$type": "NEDIFAKEGCO",
          "animatorStates": {
            "MeleeAttackNormal_BS": [
              "Audio_Monster_Fungus_Amanita_Unu_Anudatta_Grass_MeleeAttac_BS"
            ]
          },
          "resetAnimatorTriggerOnExit": ["BeHit", "DoSkill"],
          "canSteer": true
        },
        "MeleeAttackOverdose_BS": {
          "$type": "NEDIFAKEGCO",
          "animatorStates": {
            "MeleeAttackOverdose_BS": [
              "Audio_Monster_Fungus_Amanita_Unu_Anudatta_Grass_MeleeAttac_BS"
            ]
          },
          "resetAnimatorTriggerOnExit": ["BeHit", "DoSkill"],
          "canSteer": true
        },
        "MeleeAttackDecay_BS": {
          "$type": "NEDIFAKEGCO",
          "animatorStates": {
            "MeleeAttackDecay_BS": [
              "Monster_Fungus_Amanita_Unu_Anudatta_Grass_MeleeAttackDecay_BS",
              "Audio_Monster_Fungus_Amanita_Unu_Anudatta_Grass_MeleeAttackDecay_BS"
            ]
          },
          "resetAnimatorTriggerOnExit": ["BeHit", "DoSkill"],
          "canSteer": true
        },
        "MeleeAttack_AS": {
          "$type": "NEDIFAKEGCO",
          "animatorStates": {
            "MeleeAttackNormal_Attack": [
              "Monster_Fungus_Amanita_Unu_Anudatta_Grass_MeleeAttackNormal_Attack",
              "Audio_Monster_Fungus_Amanita_Unu_Anudatta_Grass_MeleeAttackNormal_Attack"
            ],
            "MeleeAttackNormal_AS": [],
            "MeleeAttackOverdose_Attack": [
              "Monster_Fungus_Amanita_Unu_Anudatta_Grass_MeleeAttackNormal_Attack",
              "Audio_Monster_Fungus_Amanita_Unu_Anudatta_Grass_MeleeAttackNormal_Attack"
            ],
            "MeleeAttackOverdose_AS": [],
            "MeleeAttackDecay_Attack": [
              "Monster_Fungus_Amanita_Unu_Anudatta_Grass_MeleeAttackDecay_Attack",
              "Audio_Monster_Fungus_Amanita_Unu_Anudatta_Grass_MeleeAttackDecay_Attack"
            ],
            "MeleeAttackDecay_AS": []
          },
          "resetAnimatorTriggerOnExit": ["BeHit", "DoSkill"],
          "canSteer": true
        },
        "ShootNormal_BS": {
          "$type": "NEDIFAKEGCO",
          "animatorStates": {
            "ShootNormal_BS": [
              "Monster_Fungus_Amanita_Unu_Anudatta_Grass_ShootNormal_BS",
              "Audio_Monster_Fungus_Amanita_Unu_Anudatta_Grass_shootNormal_BS"
            ]
          },
          "resetAnimatorTriggerOnExit": ["BeHit", "DoSkill"],
          "canSteer": true
        },
        "ShootOverdose_BS": {
          "$type": "NEDIFAKEGCO",
          "animatorStates": {
            "ShootOverdose_BS": [
              "Monster_Fungus_Amanita_Unu_Anudatta_Grass_ShootNormal_BS",
              "Audio_Monster_Fungus_Amanita_Unu_Anudatta_Grass_shootNormal_BS"
            ]
          },
          "resetAnimatorTriggerOnExit": ["BeHit", "DoSkill"],
          "canSteer": true
        },
        "ShootDecay_BS": {
          "$type": "NEDIFAKEGCO",
          "animatorStates": {
            "ShootDecay_BS": [
              "Monster_Fungus_Amanita_Unu_Anudatta_Grass_ShootDecay_BS",
              "Audio_Monster_Fungus_Amanita_Unu_Anudatta_Grass_shootNormal_BS"
            ]
          },
          "resetAnimatorTriggerOnExit": ["BeHit", "DoSkill"],
          "canSteer": true
        },
        "Shoot": {
          "$type": "NEDIFAKEGCO",
          "animatorStates": {
            "ShootNormal_Attack": [
              "Monster_Fungus_Amanita_Unu_Anudatta_Grass_ShootNormal_Attack",
              "Audio_Monster_Fungus_Amanita_Unu_Anudatta_Grass_Shoot_Attack"
            ],
            "ShootNormal_AS": [],
            "ShootOverdose_Attack": [
              "Monster_Fungus_Amanita_Unu_Anudatta_Grass_ShootNormal_Attack",
              "Audio_Monster_Fungus_Amanita_Unu_Anudatta_Grass_Shoot_Attack"
            ],
            "ShootOverdose_AS": [],
            "ShootDecay_Attack": [
              "Monster_Fungus_Amanita_Unu_Anudatta_Grass_ShootDecay_Attack",
              "Audio_Monster_Fungus_Amanita_Unu_Anudatta_Grass_Shoot_Attack"
            ],
            "ShootDecay_AS": []
          },
          "resetAnimatorTriggerOnExit": ["BeHit", "DoSkill"],
          "canSteer": true
        },
        "RollingShootLNormal_BS": {
          "$type": "NEDIFAKEGCO",
          "animatorStates": {
            "RollingShootLNormal_BS": [
              "Monster_Fungus_Amanita_Unu_Anudatta_Grass_RollingShootLNormal_BS",
              "Audio_Monster_Fungus_Amanita_Unu_Anudatta_Grass_shootNormal_BS"
            ]
          },
          "resetAnimatorTriggerOnExit": ["BeHit", "DoSkill"],
          "canSteer": true
        },
        "RollingShootLOverdose_BS": {
          "$type": "NEDIFAKEGCO",
          "animatorStates": {
            "RollingShootLOverdose_BS": [
              "Monster_Fungus_Amanita_Unu_Anudatta_Grass_RollingShootLNormal_BS",
              "Audio_Monster_Fungus_Amanita_Unu_Anudatta_Grass_shootNormal_BS"
            ]
          },
          "resetAnimatorTriggerOnExit": ["BeHit", "DoSkill"],
          "canSteer": true
        },
        "RollingShootLDecay_BS": {
          "$type": "NEDIFAKEGCO",
          "animatorStates": {
            "RollingShootLDecay_BS": [
              "Audio_Monster_Fungus_Amanita_Unu_Anudatta_Grass_RollingShoot_BS",
              "Audio_Monster_Fungus_Amanita_Unu_Anudatta_Grass_Shoot_BS"
            ]
          },
          "resetAnimatorTriggerOnExit": ["BeHit", "DoSkill"],
          "canSteer": true
        },
        "RollingShootL": {
          "$type": "NEDIFAKEGCO",
          "animatorStates": {
            "RollingShootLNormal_Attack": [
              "Monster_Fungus_Amanita_Unu_Anudatta_Grass_RollingShootLNormal_Attack",
              "Audio_Monster_Fungus_Amanita_Unu_Anudatta_Grass_RollingShoot_Attack"
            ],
            "RollingShootLNormal_AS": [
              "Audio_Monster_Fungus_Amanita_Unu_Anudatta_Grass_RollingShoot_AS"
            ],
            "RollingShootLOverdose_Attack": [
              "Monster_Fungus_Amanita_Unu_Anudatta_Grass_RollingShootLNormal_Attack",
              "Audio_Monster_Fungus_Amanita_Unu_Anudatta_Grass_RollingShoot_Attack"
            ],
            "RollingShootLOverdose_AS": [
              "Audio_Monster_Fungus_Amanita_Unu_Anudatta_Grass_RollingShoot_AS"
            ],
            "RollingShootLDecay_Attack": [
              "Monster_Fungus_Amanita_Unu_Anudatta_Grass_ShootDecay_Attack",
              "Audio_Monster_Fungus_Amanita_Unu_Anudatta_Grass_RollingShoot_Attack"
            ],
            "RollingShootLDecay_AS": [
              "Audio_Monster_Fungus_Amanita_Unu_Anudatta_Grass_RollingShoot_AS"
            ]
          },
          "resetAnimatorTriggerOnExit": ["BeHit", "DoSkill"],
          "canSteer": true
        },
        "RollingShootRNormal_BS": {
          "$type": "NEDIFAKEGCO",
          "animatorStates": {
            "RollingShootRNormal_BS": [
              "Monster_Fungus_Amanita_Unu_Anudatta_Grass_RollingShootLNormal_BS",
              "Audio_Monster_Fungus_Amanita_Unu_Anudatta_Grass_RollingShoot_BS"
            ]
          },
          "resetAnimatorTriggerOnExit": ["BeHit", "DoSkill"],
          "canSteer": true
        },
        "RollingShootROverdose_BS": {
          "$type": "NEDIFAKEGCO",
          "animatorStates": {
            "RollingShootROverdose_BS": [
              "Monster_Fungus_Amanita_Unu_Anudatta_Grass_RollingShootLNormal_BS",
              "Audio_Monster_Fungus_Amanita_Unu_Anudatta_Grass_RollingShoot_BS"
            ]
          },
          "resetAnimatorTriggerOnExit": ["BeHit", "DoSkill"],
          "canSteer": true
        },
        "RollingShootRDecay_BS": {
          "$type": "NEDIFAKEGCO",
          "animatorStates": {
            "RollingShootRDecay_BS": [
              "Audio_Monster_Fungus_Amanita_Unu_Anudatta_Grass_RollingShoot_BS"
            ]
          },
          "resetAnimatorTriggerOnExit": ["BeHit", "DoSkill"],
          "canSteer": true
        },
        "RollingShootR": {
          "$type": "NEDIFAKEGCO",
          "animatorStates": {
            "RollingShootRNormal_Attack": [
              "Monster_Fungus_Amanita_Unu_Anudatta_Grass_ShootNormal_Attack",
              "Audio_Monster_Fungus_Amanita_Unu_Anudatta_Grass_RollingShoot_Attack"
            ],
            "RollingShootRNormal_AS": [
              "Audio_Monster_Fungus_Amanita_Unu_Anudatta_Grass_RollingShoot_AS"
            ],
            "RollingShootROverdose_Attack": [
              "Monster_Fungus_Amanita_Unu_Anudatta_Grass_ShootNormal_Attack",
              "Audio_Monster_Fungus_Amanita_Unu_Anudatta_Grass_RollingShoot_Attack"
            ],
            "RollingShootROverdose_AS": [
              "Audio_Monster_Fungus_Amanita_Unu_Anudatta_Grass_RollingShoot_AS"
            ],
            "RollingShootRDecay_Attack": [
              "Monster_Fungus_Amanita_Unu_Anudatta_Grass_ShootDecay_Attack",
              "Audio_Monster_Fungus_Amanita_Unu_Anudatta_Grass_RollingShoot_Attack"
            ],
            "RollingShootRDecay_AS": [
              "Audio_Monster_Fungus_Amanita_Unu_Anudatta_Grass_RollingShoot_AS"
            ]
          },
          "resetAnimatorTriggerOnExit": ["BeHit", "DoSkill"],
          "canSteer": true
        },
        "DiveBombingNormal_BS": {
          "$type": "NEDIFAKEGCO",
          "animatorStates": {
            "DiveBombingNormal_BS": [
              "Monster_Fungus_Amanita_Unu_Anudatta_Grass_DiveBombingNormal_BS",
              "Audio_Monster_Fungus_Amanita_Unu_Anudatta_Grass_DiveBombing_BS"
            ]
          },
          "resetAnimatorTriggerOnExit": ["BeHit", "DoSkill"],
          "canSteer": true
        },
        "DiveBombingOverdose_BS": {
          "$type": "NEDIFAKEGCO",
          "animatorStates": {
            "DiveBombingOverdose_BS": [
              "Monster_Fungus_Amanita_Unu_Anudatta_Grass_DiveBombingNormal_BS",
              "Audio_Monster_Fungus_Amanita_Unu_Anudatta_Grass_DiveBombing_BS"
            ]
          },
          "resetAnimatorTriggerOnExit": ["BeHit", "DoSkill"],
          "canSteer": true
        },
        "DiveBombingDecay_BS": {
          "$type": "NEDIFAKEGCO",
          "animatorStates": {
            "DiveBombingDecay_BS": [
              "Monster_Fungus_Amanita_Unu_Anudatta_Grass_DiveBombingDecay_BS",
              "Audio_Monster_Fungus_Amanita_Unu_Anudatta_Grass_DiveBombing_BS"
            ]
          },
          "resetAnimatorTriggerOnExit": ["BeHit", "DoSkill"],
          "canSteer": true
        },
        "DiveBombingNormal_Loop": {
          "$type": "NEDIFAKEGCO",
          "animatorStates": {
            "DiveBombingNormal_Loop": [
              "Monster_Fungus_Amanita_Unu_Anudatta_Grass_DiveBombingNormal_Loop",
              "Audio_Monster_Fungus_Amanita_Unu_Anudatta_Grass_DiveBombing_Dash"
            ]
          },
          "resetAnimatorTriggerOnExit": ["BeHit", "DoSkill"],
          "canSteer": true
        },
        "DiveBombingOverdose_Loop": {
          "$type": "NEDIFAKEGCO",
          "animatorStates": {
            "DiveBombingOverdose_Loop": [
              "Monster_Fungus_Amanita_Unu_Anudatta_Grass_DiveBombingNormal_Loop",
              "Audio_Monster_Fungus_Amanita_Unu_Anudatta_Grass_DiveBombing_Dash"
            ]
          },
          "resetAnimatorTriggerOnExit": ["BeHit", "DoSkill"],
          "canSteer": true
        },
        "DiveBombingDecay_Loop": {
          "$type": "NEDIFAKEGCO",
          "animatorStates": {
            "DiveBombingDecay_Loop": [
              "Monster_Fungus_Amanita_Unu_Anudatta_Grass_DiveBombingDecay_Loop"
            ]
          },
          "resetAnimatorTriggerOnExit": ["BeHit", "DoSkill"],
          "canSteer": true
        },
        "DiveBombingNormal_Attack": {
          "$type": "NEDIFAKEGCO",
          "animatorStates": {
            "DiveBombingNormal_Attack": [
              "Monster_Fungus_Amanita_Unu_Anudatta_Grass_DiveBombingNormal_Attack",
              "Audio_Monster_Fungus_Amanita_Unu_Anudatta_Grass_DiveBombing_Attack"
            ]
          },
          "resetAnimatorTriggerOnExit": ["BeHit", "DoSkill"],
          "canSteer": true
        },
        "DiveBombingOverdose_Attack": {
          "$type": "NEDIFAKEGCO",
          "animatorStates": {
            "DiveBombingOverdose_Attack": [
              "Monster_Fungus_Amanita_Unu_Anudatta_Grass_DiveBombingNormal_Attack",
              "Audio_Monster_Fungus_Amanita_Unu_Anudatta_Grass_DiveBombing_Attack"
            ]
          },
          "resetAnimatorTriggerOnExit": ["BeHit", "DoSkill"],
          "canSteer": true
        },
        "DiveBombingDecay_Attack": {
          "$type": "NEDIFAKEGCO",
          "animatorStates": {
            "DiveBombingDecay_Attack": [
              "Monster_Fungus_Amanita_Unu_Anudatta_Grass_DiveBombingDecay_Attack",
              "Audio_Monster_Fungus_Amanita_Unu_Anudatta_Grass_DiveBombing_Attack"
            ]
          },
          "resetAnimatorTriggerOnExit": ["BeHit", "DoSkill"],
          "canSteer": true
        },
        "DiveBombingNormal_AS": {
          "$type": "NEDIFAKEGCO",
          "animatorStates": {
            "DiveBombingNormal_AS": [
              "Audio_Monster_Fungus_Amanita_Unu_Anudatta_Grass_DiveBombing_AS"
            ]
          },
          "resetAnimatorTriggerOnExit": ["BeHit", "DoSkill"],
          "canSteer": true
        },
        "DiveBombingOverdose_AS": {
          "$type": "NEDIFAKEGCO",
          "animatorStates": {
            "DiveBombingOverdose_AS": [
              "Audio_Monster_Fungus_Amanita_Unu_Anudatta_Grass_DiveBombing_AS"
            ]
          },
          "resetAnimatorTriggerOnExit": ["BeHit", "DoSkill"],
          "canSteer": true
        },
        "DiveBombingDecay_AS": {
          "$type": "NEDIFAKEGCO",
          "animatorStates": {
            "DiveBombingDecay_AS": [
              "Audio_Monster_Fungus_Amanita_Unu_Anudatta_Grass_DiveBombing_AS"
            ]
          },
          "resetAnimatorTriggerOnExit": ["BeHit", "DoSkill"],
          "canSteer": true
        },
        "Taunt": {
          "$type": "NEDIFAKEGCO",
          "animatorStates": {
            "Taunt01": ["Audio_Monster_Fungus_Amanita_Unu_taunt01"]
          },
          "resetAnimatorTriggerOnExit": ["BeHit", "DoSkill"],
          "canSteer": true
        },
        "Grounded_AS": {
          "$type": "NEDIFAKEGCO",
          "animatorStates": {
            "Grounded_AS": []
          },
          "addEndure": 0.009999999776482582,
          "resetAnimatorTriggerOnExit": ["BeHit", "DoSkill"],
          "canSteer": true
        },
        "Dance": {
          "$type": "NEDIFAKEGCO",
          "animatorStates": {
            "Dance": [
              "Monster_Fungus_Amanita_Unu_Dance",
              "Audio_Monster_Fungus_Amanita_Unu_Dance"
            ]
          },
          "canDoSkill": true,
          "resetAnimatorTriggerOnExit": ["BeHit", "DoSkill"],
          "canSteer": true,
          "airMoveFollowAnimation": true
        },
        "Tease": {
          "$type": "NEDIFAKEGCO",
          "animatorStates": {
            "Tease": ["Audio_Monster_Fungus_Amanita_Unu_Tease"]
          },
          "canDoSkill": true,
          "resetAnimatorTriggerOnExit": ["BeHit", "DoSkill"],
          "canSteer": true,
          "airMoveFollowAnimation": true
        },
        "Absorb": {
          "$type": "NEDIFAKEGCO",
          "animatorStates": {
            "Absorb": [
              "Monster_Fungus_Amanita_Unu_Absorb",
              "Audio_Monster_Fungus_Amanita_Unu_Absorb"
            ]
          },
          "canDoSkill": true,
          "resetAnimatorTriggerOnExit": ["BeHit", "DoSkill"],
          "canSteer": true,
          "airMoveFollowAnimation": true
        }
      }
    }
  },
  "billboard": {
    "$type": "DNGNMAJBCNP",
    "attachPoint": "BillboardAttach",
    "offset": {
      "y": 0.5
    },
    "radiusOffset": 1.0,
    "enableSelfAdapt": true,
    "showHPBar": true,
    "size": "Big"
  },
  "initialPoses": {
    "Default": {
      "initialPoseID": 201
    },
    "Dance": {
      "initialPoseID": 102,
      "initialPoseParams": {
        "boolParams": {
          "Dance": "true"
        }
      }
    },
    "Tease": {
      "initialPoseID": 103,
      "initialPoseParams": {
        "boolParams": {
          "Tease": "true"
        }
      }
    },
    "Absorb": {
      "initialPoseID": 104,
      "initialPoseParams": {
        "boolParams": {
          "Absorb": "true"
        }
      }
    }
  },
  "aibeta": {
    "enable": true,
    "moveSetting": {
      "useNavMesh": false,
      "navMeshAgentName": "Undead01"
    },
    "sensing": {
      "settings": {
        "DefaultSetting": {
          "viewRange": 22.0,
          "feelRange": 8.75
        },
        "NoSensing": {
          "enableVision": false,
          "hearAttractionRange": 0.0,
          "feelRange": 0.0
        }
      },
      "templates": {
        "DefaultTemplate": {
          "DefaultPoses": "DefaultSetting"
        },
        "NoSensing": {
          "DefaultPoses": "NoSensing"
        }
      }
    },
    "threat": {
      "GHIJMOKOLMB": "",
      "clearThreatTargetDistance": 30.0,
      "clearThreatEdgeDistance": 5.0,
      "clearThreatTimerByDistance": 2.0,
      "viewAttenuation": [
        {
          "x": 12.0,
          "y": 1.0
        },
        {
          "x": 20.0,
          "y": 0.5
        }
      ]
    },
    "defendArea": {
      "defendRange": 50.0
    },
    "fly": {
      "enable": true,
      "floatingPoses": [
        102, 103, 104, 201, 211, 221, 202, 212, 222, 501, 511, 521, 502, 512,
        522, 401, 402, 411, 412
      ]
    },
    "skills": {
      "100": {
        "name": "OnAlert",
        "skillType": "OnAlert",
        "faceTarget": true,
        "publicCDGroup": "",
        "triggerGCD": false,
        "HHAGODJIAPE": "",
        "stateIDs": ["Warning"],
        "skillQueryingTime": 3.0,
        "flagTargetReachable": "10",
        "flagSelfOnTemplateCollider": "01",
        "flagSelfInZone": "10",
        "flagTargetInZone": "11"
      },
      "102": {
        "name": "Dance",
        "skillType": "Free",
        "castCondition": {
          "pose": [102]
        },
        "cd": 10.0,
        "cdUpperRange": 10.0,
        "initialCD": 5.0,
        "initialCDUpperRange": 10.0,
        "publicCDGroup": "",
        "triggerGCD": false,
        "HHAGODJIAPE": "",
        "stateIDs": ["Dance"],
        "skillQueryingTime": 3.0,
        "flagTargetReachable": "10",
        "flagSelfOnTemplateCollider": "01",
        "flagSelfInZone": "10",
        "flagTargetInZone": "11"
      },
      "103": {
        "name": "Tease",
        "skillType": "Free",
        "castCondition": {
          "pose": [103]
        },
        "cd": 10.0,
        "cdUpperRange": 10.0,
        "initialCD": 5.0,
        "initialCDUpperRange": 10.0,
        "publicCDGroup": "",
        "triggerGCD": false,
        "HHAGODJIAPE": "",
        "stateIDs": ["Tease"],
        "skillQueryingTime": 3.0,
        "flagTargetReachable": "10",
        "flagSelfOnTemplateCollider": "01",
        "flagSelfInZone": "10",
        "flagTargetInZone": "11"
      },
      "104": {
        "name": "Absorb",
        "skillType": "Free",
        "castCondition": {
          "pose": [104]
        },
        "cd": 10.0,
        "cdUpperRange": 10.0,
        "initialCD": 5.0,
        "initialCDUpperRange": 10.0,
        "publicCDGroup": "",
        "triggerGCD": false,
        "HHAGODJIAPE": "",
        "stateIDs": ["Absorb"],
        "skillQueryingTime": 3.0,
        "flagTargetReachable": "10",
        "flagSelfOnTemplateCollider": "01",
        "flagSelfInZone": "10",
        "flagTargetInZone": "11"
      },
      "301": {
        "name": "MeleeAttackNormal",
        "castCondition": {
          "pose": [501],
          "pickRangeMax": 2.0,
          "pickRangeYMax": 0.800000011920929,
          "pickRangeYMin": -1.0
        },
        "cd": 3.0,
        "initialCD": 5.0,
        "publicCDGroup": "",
        "ignoreGCD": true,
        "triggerGCD": false,
        "HHAGODJIAPE": "",
        "stateIDs": ["MeleeAttack_AS", "MeleeAttackNormal_BS"],
        "flagTargetReachable": "11",
        "flagSelfOnTemplateCollider": "01",
        "flagSelfInZone": "11",
        "flagTargetInZone": "11"
      },
      "311": {
        "name": "MeleeAttackOverdose",
        "castCondition": {
          "pose": [511],
          "pickRangeMax": 2.5,
          "pickRangeYMax": 0.800000011920929,
          "pickRangeYMin": -1.0
        },
        "cd": 2.0,
        "initialCD": 5.0,
        "publicCDGroup": "",
        "ignoreGCD": true,
        "triggerGCD": false,
        "HHAGODJIAPE": "",
        "stateIDs": ["MeleeAttack_AS", "MeleeAttackOverdose_BS"],
        "flagTargetReachable": "11",
        "flagSelfOnTemplateCollider": "01",
        "flagSelfInZone": "11",
        "flagTargetInZone": "11"
      },
      "321": {
        "name": "MeleeAttackDecay",
        "enableSkillPrepare": true,
        "skillPrepareSpeedLevel": 1,
        "castCondition": {
          "pose": [521],
          "pickRangeMax": 6.0,
          "pickRangeYMax": 1.600000023841858,
          "pickRangeYMin": -1.0,
          "castRangeType": "RangeXZ_Y",
          "castRangeXZY": {
            "castRangeXZMax": 2.0,
            "castRangeYMin": -0.5,
            "castRangeYMax": 0.6000000238418579
          }
        },
        "cd": 3.0,
        "publicCDGroup": "",
        "ignoreGCD": true,
        "triggerGCD": false,
        "HHAGODJIAPE": "",
        "stateIDs": ["MeleeAttack_AS", "MeleeAttackDecay_BS"],
        "flagTargetReachable": "11",
        "flagSelfOnTemplateCollider": "01",
        "flagSelfInZone": "11",
        "flagTargetInZone": "11"
      },
      "302": {
        "name": "ClimbUp",
        "castCondition": {
          "pose": [501, 511, 502, 512],
          "pickRangeYMax": 1.0,
          "pickRangeYMin": -1.0,
          "pickRangeByRaycast": [
            {
              "max": 0.699999988079071
            }
          ]
        },
        "cd": 10.0,
        "publicCDGroup": "",
        "HHAGODJIAPE": "",
        "stateIDs": ["ClimbUp"],
        "flagTargetReachable": "10",
        "flagSelfOnTemplateCollider": "01",
        "flagSelfInZone": "10",
        "flagTargetInZone": "11"
      },
      "309": {
        "name": "Grounded_AS",
        "castCondition": {
          "pose": [301, 311, 321],
          "needReInitCD": true
        },
        "initialCD": 3.0,
        "publicCDGroup": "",
        "HHAGODJIAPE": "",
        "stateIDs": ["Grounded_AS"],
        "flagTargetReachable": "10",
        "flagSelfOnTemplateCollider": "01",
        "flagSelfInZone": "10",
        "flagTargetInZone": "11"
      },
      "501": {
        "name": "ShootNormal",
        "castCondition": {
          "pose": [501, 502],
          "needReInitCD": true,
          "pickRangeMax": 16.0,
          "castRangeType": "RangeXZ_Y",
          "castRangeXZY": {
            "castRangeXZMax": 16.0,
            "castRangeYMax": 8.0
          }
        },
        "cd": 5.0,
        "cdUpperRange": 10.0,
        "initialCD": 1.0,
        "initialCDUpperRange": 2.5,
        "publicCDGroup": "Fungus_RangedAttack",
        "HHAGODJIAPE": "",
        "stateIDs": ["Shoot", "ShootNormal_BS"],
        "flagTargetReachable": "11",
        "flagSelfOnTemplateCollider": "01",
        "flagSelfInZone": "11",
        "flagTargetInZone": "11"
      },
      "511": {
        "name": "ShootOverdose",
        "castCondition": {
          "pose": [511, 512],
          "needReInitCD": true,
          "pickRangeMax": 16.0,
          "castRangeType": "RangeXZ_Y",
          "castRangeXZY": {
            "castRangeXZMax": 16.0,
            "castRangeYMax": 8.0
          }
        },
        "cd": 5.0,
        "cdUpperRange": 3.0,
        "initialCD": 0.5,
        "initialCDUpperRange": 1.5,
        "publicCDGroup": "Fungus_RangedAttack",
        "HHAGODJIAPE": "",
        "stateIDs": ["Shoot", "ShootOverdose_BS"],
        "flagTargetReachable": "11",
        "flagSelfOnTemplateCollider": "01",
        "flagSelfInZone": "11",
        "flagTargetInZone": "11"
      },
      "521": {
        "name": "ShootDecay",
        "castCondition": {
          "pose": [521, 522],
          "needReInitCD": true,
          "pickRangeMax": 16.0,
          "castRangeType": "RangeXZ_Y",
          "castRangeXZY": {
            "castRangeXZMax": 3.0,
            "castRangeYMax": 8.0
          }
        },
        "cd": 2.0,
        "cdUpperRange": 2.0,
        "initialCD": 2.0,
        "initialCDUpperRange": 1.0,
        "publicCDGroup": "Fungus_RangedAttack",
        "HHAGODJIAPE": "",
        "stateIDs": ["Shoot", "ShootDecay_BS"],
        "flagTargetReachable": "11",
        "flagSelfOnTemplateCollider": "01",
        "flagSelfInZone": "11",
        "flagTargetInZone": "11"
      },
      "502": {
        "name": "RollingShootLNormal",
        "castCondition": {
          "pose": [502],
          "needReInitCD": true,
          "pickRangeMax": 16.0,
          "pickRangeByRaycast": [
            {
              "min": 2.200000047683716,
              "max": 8.0
            }
          ],
          "castRangeType": "RangeXZ_Y",
          "castRangeXZY": {
            "castRangeXZMax": 16.0,
            "castRangeYMax": 8.0
          }
        },
        "cd": 2.0,
        "cdUpperRange": 2.0,
        "initialCD": 5.0,
        "initialCDUpperRange": 2.5,
        "publicCDGroup": "Fungus_RangedAttack",
        "HHAGODJIAPE": "",
        "stateIDs": ["RollingShootL", "RollingShootLNormal_BS"],
        "flagTargetReachable": "11",
        "flagSelfOnTemplateCollider": "01",
        "flagSelfInZone": "11",
        "flagTargetInZone": "11"
      },
      "512": {
        "name": "RollingShootLOverdose",
        "castCondition": {
          "pose": [512],
          "needReInitCD": true,
          "pickRangeMin": 6.0,
          "pickRangeMax": 16.0,
          "pickRangeByRaycast": [
            {
              "min": 2.200000047683716,
              "max": 8.0
            }
          ],
          "castRangeType": "RangeXZ_Y",
          "castRangeXZY": {
            "castRangeXZMax": 16.0,
            "castRangeYMax": 8.0
          }
        },
        "cd": 1.0,
        "cdUpperRange": 1.0,
        "publicCDGroup": "Fungus_RangedAttack",
        "ignoreGCD": true,
        "HHAGODJIAPE": "",
        "stateIDs": ["RollingShootL", "RollingShootLOverdose_BS"],
        "flagTargetReachable": "11",
        "flagSelfOnTemplateCollider": "01",
        "flagSelfInZone": "11",
        "flagTargetInZone": "11"
      },
      "503": {
        "name": "RollingShootRNormal",
        "castCondition": {
          "pose": [502],
          "needReInitCD": true,
          "pickRangeMax": 16.0,
          "pickRangeByRaycast": [
            {
              "min": 2.200000047683716,
              "max": 8.0
            }
          ],
          "castRangeType": "RangeXZ_Y",
          "castRangeXZY": {
            "castRangeXZMax": 16.0,
            "castRangeYMax": 8.0
          }
        },
        "cd": 2.0,
        "cdUpperRange": 2.0,
        "initialCD": 5.0,
        "initialCDUpperRange": 2.5,
        "publicCDGroup": "Fungus_RangedAttack",
        "HHAGODJIAPE": "",
        "stateIDs": ["RollingShootR", "RollingShootRNormal_BS"],
        "flagTargetReachable": "11",
        "flagSelfOnTemplateCollider": "01",
        "flagSelfInZone": "11",
        "flagTargetInZone": "11"
      },
      "513": {
        "name": "RollingShootROverdose",
        "castCondition": {
          "pose": [512],
          "needReInitCD": true,
          "pickRangeMin": 6.0,
          "pickRangeMax": 16.0,
          "pickRangeByRaycast": [
            {
              "min": 2.200000047683716,
              "max": 8.0
            }
          ],
          "castRangeType": "RangeXZ_Y",
          "castRangeXZY": {
            "castRangeXZMax": 16.0,
            "castRangeYMax": 8.0
          }
        },
        "cd": 1.0,
        "cdUpperRange": 1.0,
        "publicCDGroup": "Fungus_RangedAttack",
        "ignoreGCD": true,
        "HHAGODJIAPE": "",
        "stateIDs": ["RollingShootR", "RollingShootROverdose_BS"],
        "flagTargetReachable": "11",
        "flagSelfOnTemplateCollider": "01",
        "flagSelfInZone": "11",
        "flagTargetInZone": "11"
      },
      "504": {
        "name": "DiveBombingNormal",
        "priority": 1,
        "castCondition": {
          "pose": [502],
          "needReInitCD": true,
          "pickRangeMax": 9.0,
          "pickRangeYMax": 9.0,
          "pickRangeYMin": 1.5,
          "pickRangeByRaycast": [
            {
              "min": 1.5,
              "max": 9.0
            }
          ],
          "castRangeType": "RangeXZ_Y",
          "castRangeXZY": {
            "castRangeXZMax": 9.0,
            "castRangeYMax": 8.0
          }
        },
        "cd": 5.0,
        "cdUpperRange": 10.0,
        "initialCD": 1.0,
        "initialCDUpperRange": 2.5,
        "publicCDGroup": "Fungus_RangedAttack",
        "HHAGODJIAPE": "",
        "stateIDs": [
          "DiveBombingNormal_Attack",
          "DiveBombingNormal_Loop",
          "DiveBombingNormal_BS",
          "DiveBombingNormal_AS"
        ],
        "flagTargetReachable": "11",
        "flagSelfOnTemplateCollider": "01",
        "flagSelfInZone": "11",
        "flagTargetInZone": "11"
      },
      "514": {
        "name": "DiveBombingOverdose",
        "priority": 1,
        "castCondition": {
          "pose": [512],
          "needReInitCD": true,
          "pickRangeMax": 9.0,
          "pickRangeYMax": 9.0,
          "pickRangeYMin": 1.5,
          "pickRangeByRaycast": [
            {
              "min": 1.5,
              "max": 9.0
            }
          ],
          "castRangeType": "RangeXZ_Y",
          "castRangeXZY": {
            "castRangeXZMax": 9.0,
            "castRangeYMax": 8.0
          }
        },
        "cd": 5.0,
        "cdUpperRange": 3.0,
        "initialCD": 0.5,
        "initialCDUpperRange": 1.5,
        "publicCDGroup": "Fungus_RangedAttack",
        "HHAGODJIAPE": "",
        "stateIDs": [
          "DiveBombingOverdose_Attack",
          "DiveBombingOverdose_Loop",
          "DiveBombingOverdose_BS",
          "DiveBombingOverdose_AS"
        ],
        "flagTargetReachable": "11",
        "flagSelfOnTemplateCollider": "01",
        "flagSelfInZone": "11",
        "flagTargetInZone": "11"
      },
      "524": {
        "name": "DiveBombingDecay",
        "priority": 1,
        "enableSkillPrepare": true,
        "skillPrepareSpeedLevel": 1,
        "castCondition": {
          "pose": [521, 522],
          "needReInitCD": true,
          "pickRangeMax": 16.0,
          "pickRangeYMax": 8.0,
          "pickRangeYMin": 1.0,
          "pickRangeByRaycast": [
            {
              "max": 9.0
            }
          ],
          "castRangeType": "RangeXZ_Y",
          "castRangeXZY": {
            "castRangeXZMax": 6.0,
            "castRangeYMin": 1.5,
            "castRangeYMax": 8.0
          }
        },
        "publicCDGroup": "",
        "HHAGODJIAPE": "",
        "stateIDs": [
          "DiveBombingDecay_Attack",
          "DiveBombingDecay_Loop",
          "DiveBombingDecay_BS",
          "DiveBombingDecay_AS"
        ],
        "flagTargetReachable": "11",
        "flagSelfOnTemplateCollider": "01",
        "flagSelfInZone": "11",
        "flagTargetInZone": "11"
      },
      "509": {
        "name": "Taunt01",
        "castCondition": {
          "pose": [501, 511, 502, 512],
          "needReInitCD": true,
          "pickRangeMin": 3.0,
          "pickRangeMax": 15.0,
          "pickRangeYMax": 2.0,
          "pickRangeByRaycast": [
            {
              "max": 5.0
            }
          ]
        },
        "cd": 8.0,
        "cdUpperRange": 24.0,
        "initialCD": 5.5,
        "initialCDUpperRange": 12.0,
        "publicCDGroup": "",
        "triggerGCD": false,
        "HHAGODJIAPE": "",
        "stateIDs": ["Taunt"],
        "flagTargetReachable": "11",
        "flagSelfOnTemplateCollider": "01",
        "flagSelfInZone": "11",
        "flagTargetInZone": "11"
      }
    },
    "skillGCD": 2.0,
    "birdCirclingTactic": [
      {
        "$type": "NNJKLGNPMNN",
        "enable": true,
        "JMCOBEPDIGM": {
          "ACOBCFCMBOC": "Spacial",
          "MNPDDAKDHGK": "",
          "GJDMDHIBCME": ""
        }
      },
      {
        "$type": "EPPOBBAEPED",
        "enable": true,
        "condition": {
          "pose": [501, 502, 511, 512, 521, 522]
        },
        "JMCOBEPDIGM": {
          "ANLAAGAMIKF": 2,
          "FAKGFIDPCFL": 11.0,
          "GHCEDMEHKLN": 8.0,
          "ONFAMCFCNFM": 0.0,
          "KLODEFMNFIC": 1.0,
          "MNPDDAKDHGK": "",
          "GJDMDHIBCME": ""
        }
      },
      {
        "$type": "MNBBAPLOENP",
        "enable": true,
        "condition": {
          "pose": [501, 502, 511, 512, 521, 522]
        },
        "JMCOBEPDIGM": {
          "GOMIFCDDDLF": 1.0,
          "JCPAFNBJDEN": 10.0,
          "ALIBHHJHHMN": 3.0,
          "OPCEPFAIGAP": 0.5,
          "OMHBOLPFEPM": 1.5,
          "BJIEHJIOICI": 3.0,
          "FPNBEHAAJOL": {
            "LLICGJHIGME": 0.0,
            "IDEFILBHNAP": 0.5,
            "FKIEIIJAPEH": 0.0,
            "DFHLPPNLGIE": 0.0,
            "CLDDLKFCODO": 0.0,
            "GNJEAKAKLHD": 0.0,
            "EHAGCHIFFHA": 0.0,
            "DDIPMLEHIJP": 0.6000000238418579,
            "PIJHGEOHOOO": 0.0,
            "OCMLCHDANPJ": 1.0
          },
          "LKHCLICAJML": 0.5,
          "EADBCMAAPLD": true,
          "MNPDDAKDHGK": "",
          "GJDMDHIBCME": ""
        },
        "PIOCBHLFLJP": {
          "502": {
            "GOMIFCDDDLF": 3.0,
            "JCPAFNBJDEN": 8.0,
            "JOJBOHEDBHC": 4.0,
            "AFILKAGDAHN": 6.0,
            "ALIBHHJHHMN": 4.0,
            "OPCEPFAIGAP": 0.5,
            "OMHBOLPFEPM": 1.5,
            "BJIEHJIOICI": 3.0,
            "FPNBEHAAJOL": {
              "LLICGJHIGME": 0.0,
              "IDEFILBHNAP": 0.5,
              "FKIEIIJAPEH": 1.0,
              "OJLPFPNFMDJ": 1.5,
              "JFBDDDBIHDE": 4.0,
              "EHLPOCLAEFO": 1.5,
              "APHHENPJNLO": 4.0,
              "AKMJKEIJEHM": 2.5,
              "PELOBMPBAJF": 8.0,
              "BLOIJOGPILM": 2.5,
              "GNFCHLHAPNI": 8.0,
              "GNJEAKAKLHD": 0.5,
              "EHAGCHIFFHA": 1.0,
              "DDIPMLEHIJP": 4.5,
              "PIJHGEOHOOO": 4.0,
              "OCMLCHDANPJ": 8.0
            },
            "LKHCLICAJML": 0.5,
            "EADBCMAAPLD": true,
            "MNPDDAKDHGK": "",
            "GJDMDHIBCME": ""
          },
          "512": {
            "GOMIFCDDDLF": 3.0,
            "JCPAFNBJDEN": 8.0,
            "JOJBOHEDBHC": 4.0,
            "AFILKAGDAHN": 6.0,
            "ALIBHHJHHMN": 4.0,
            "OPCEPFAIGAP": 0.5,
            "OMHBOLPFEPM": 1.5,
            "BJIEHJIOICI": 3.0,
            "FPNBEHAAJOL": {
              "LLICGJHIGME": 0.0,
              "IDEFILBHNAP": 0.5,
              "OJLPFPNFMDJ": 1.5,
              "JFBDDDBIHDE": 4.0,
              "EHLPOCLAEFO": 1.5,
              "APHHENPJNLO": 4.0,
              "AKMJKEIJEHM": 2.5,
              "PELOBMPBAJF": 8.0,
              "BLOIJOGPILM": 2.5,
              "GNFCHLHAPNI": 8.0,
              "GNJEAKAKLHD": 0.5,
              "EHAGCHIFFHA": 1.0,
              "DDIPMLEHIJP": 4.5,
              "PIJHGEOHOOO": 4.0,
              "OCMLCHDANPJ": 8.0
            },
            "LKHCLICAJML": 0.5,
            "EADBCMAAPLD": true,
            "MNPDDAKDHGK": "",
            "GJDMDHIBCME": ""
          },
          "521": {
            "GOMIFCDDDLF": 1.0,
            "JCPAFNBJDEN": 10.0,
            "ALIBHHJHHMN": 3.0,
            "OPCEPFAIGAP": 0.5,
            "OMHBOLPFEPM": 1.5,
            "BJIEHJIOICI": 3.0,
            "FPNBEHAAJOL": {
              "LLICGJHIGME": 0.0,
              "IDEFILBHNAP": 0.5,
              "DDIPMLEHIJP": 0.699999988079071,
              "PIJHGEOHOOO": 0.0,
              "OCMLCHDANPJ": 1.7999999523162842
            },
            "LKHCLICAJML": 0.5,
            "EADBCMAAPLD": true,
            "MNPDDAKDHGK": "",
            "GJDMDHIBCME": ""
          },
          "522": {
            "GOMIFCDDDLF": 1.0,
            "JCPAFNBJDEN": 8.0,
            "JOJBOHEDBHC": 4.0,
            "AFILKAGDAHN": 6.0,
            "ALIBHHJHHMN": 4.0,
            "OPCEPFAIGAP": 0.5,
            "OMHBOLPFEPM": 1.5,
            "BJIEHJIOICI": 3.0,
            "FPNBEHAAJOL": {
              "LLICGJHIGME": 0.0,
              "IDEFILBHNAP": 0.5,
              "OJLPFPNFMDJ": 1.5,
              "JFBDDDBIHDE": 4.0,
              "EHLPOCLAEFO": 1.5,
              "APHHENPJNLO": 4.0,
              "AKMJKEIJEHM": 2.5,
              "PELOBMPBAJF": 8.0,
              "BLOIJOGPILM": 2.5,
              "GNFCHLHAPNI": 8.0,
              "GNJEAKAKLHD": 0.5,
              "EHAGCHIFFHA": 1.0,
              "DDIPMLEHIJP": 1.5,
              "PIJHGEOHOOO": 0.5,
              "OCMLCHDANPJ": 8.0
            },
            "LKHCLICAJML": 0.5,
            "EADBCMAAPLD": true,
            "MNPDDAKDHGK": "",
            "GJDMDHIBCME": ""
          }
        }
      }
    ]
  },
  "inputKeys": [
    {
      "keyID": 301,
      "inputKeyCode": 257,
      "abilityName": ""
    },
    {
      "keyID": 501,
      "inputKeyCode": 258,
      "abilityName": ""
    },
    {
      "keyID": 504,
      "inputKeyCode": 259,
      "abilityName": ""
    },
    {
      "keyID": 321,
      "inputKeyCode": 260,
      "abilityName": ""
    },
    {
      "keyID": 521,
      "inputKeyCode": 261,
      "abilityName": ""
    },
    {
      "keyID": 524,
      "inputKeyCode": 262,
      "abilityName": ""
    },
    {
      "keyID": 302,
      "inputKeyCode": 263,
      "abilityName": ""
    },
    {
      "keyID": 102,
      "inputKeyCode": 264,
      "abilityName": ""
    },
    {
      "keyID": 103,
      "inputKeyCode": 265,
      "abilityName": ""
    },
    {
      "keyID": 9997,
      "inputKeyCode": 266,
      "abilityName": ""
    },
    {
      "keyID": 9998,
      "inputKeyCode": 267,
      "abilityName": ""
    },
    {
      "keyID": 9999,
      "inputKeyCode": 268,
      "abilityName": ""
    },
    {
      "keyID": 904,
      "inputKeyCode": 269,
      "abilityName": ""
    },
    {
      "keyID": 905,
      "inputKeyCode": 270,
      "abilityName": ""
    },
    {
      "keyID": 906,
      "inputKeyCode": 271,
      "abilityName": ""
    },
    {
      "keyID": 907,
      "inputKeyCode": 272,
      "abilityName": ""
    },
    {
      "keyID": 104,
      "inputKeyCode": 273,
      "abilityName": ""
    },
    {
      "keyID": 509,
      "inputKeyCode": 274,
      "abilityName": ""
    }
  ],
  "move": {
    "$type": "IPNMJMHDMPF",
    "raycasts": [
      {
        "raycastLength": 9.0,
        "raycastType": "DownToGroundAndWaterOnlyInAir",
        "startPoint": "RaycastBottom"
      }
    ],
    "facingMove": "ForwardBackward",
    "airFacingMove": "AirBlend3D",
    "monsterSizeType": "SlimeType",
    "launchStates": ["Launch_Loop"],
    "landStates": ["Drop_Loop"],
    "positionModifyExtra": true,
    "PKHOMJHFAEE": "RootNode"
  },
  "audio": {
    "overrideEmitterName": "",
    "animAudio": {
      "onTransitionIn": [
        {
          "currentStateName": "ClimbUp_Loop",
          "audioEvent": {
            "text": "Play_sfx_monster_Fungus_Amanita_Unu_Anudatta_Grass_climbUp_Loop"
          },
          "otherStateNames": ["ClimbUp_Loop"],
          "usage": "Except"
        }
      ],
      "onTransitionOut": [
        {
          "currentStateName": "Absorb",
          "audioEvent": {
            "text": "Stop_sfx_monster_Fungus_Amanita_Unu_absorb"
          }
        },
        {
          "currentStateName": "Tease",
          "audioEvent": {
            "text": "Stop_sfx_monster_Fungus_Amanita_Unu_tease"
          }
        },
        {
          "currentStateName": "ClimbUp_Loop",
          "audioEvent": {
            "text": "Stop_sfx_monster_Fungus_Amanita_Unu_Anudatta_Grass_climbUp_Loop"
          },
          "otherStateNames": ["ClimbUp_Loop"],
          "usage": "Except"
        }
      ]
    }
  }
}
