{
  "common": {
    "effectAttachShape": {
      "$type": "FJNPJANPGGC",
      "mesh": "EffectMesh"
    },
    "mass": 210.0,
    "height": 2.0999999046325684,
    "modelHeight": 1.899999976158142,
    "viewSize": 1.2000000476837158,
    "affectedByWorld": true,
    "checkInSurface": true,
    "scale": 1.2000000476837158,
    "useGrassDisplacement": true,
    "reconnectSupport": true,
    "recoverByInitPose": true
  },
  "headControl": {
    "$type": "KPIPDEBDPIH",
    "useHeadControl": true,
    "maxYawDegree": 75.0,
    "maxPitchDegree": 30.0,
    "animStates": [
      "NormalIdle/Standby",
      "NormalMove/WalkForward",
      "NormalMove/WalkBack",
      "NormalMove/WalkRight",
      "NormalMove/WalkLeft",
      "NormalMove/Run",
      "Turn/TurnLeft",
      "Turn/TurnRight"
    ]
  },
  "model": {
    "bornEffect": "Eff_Monster_Common_Born",
    "attachEffect": "",
    "BKPFGNPLDNJ": ""
  },
  "dither": {
    "showDitherDuration": 1.0
  },
  "combat": {
    "property": {
      "endureType": "Monster_Demiboss_Humanoid",
      "weight": 125.0
    },
    "beHit": {
      "hitBloodEffect": ""
    },
    "combatLock": {
      "lockShape": "CircleLockEnemy",
      "lockType": "Avatar&Monster_Lv4"
    },
    "die": {
      "hasAnimatorDie": true,
      "dieEndTime": 4.0,
      "dieForceDisappearTime": 15.0,
      "dieDisappearEffect": "",
      "useRagDoll": true,
      "ragDollDieEndTimeDelay": 15.0,
      "muteHitBox": true,
      "dieDenyLockOn": true,
      "dieIsGhostToEnemy": true,
      "dieIgnoreTriggerBullet": true,
      "muteBillboard": true,
      "mutePushCollider": true
    },
    "animEvents": {
      "AE_NormalAtk_Light": {
        "attackPattern": {
          "$type": "ConfigAttackBox",
          "triggerType": "TriggerNoRepeat",
          "born": {
            "$type": "ConfigBornBySelf",
            "offset": {
              "x": 0.0,
              "y": 1.2000000476837158,
              "z": 0.4000000059604645
            }
          },
          "size": {
            "x": 1.100000023841858,
            "y": 1.100000023841858,
            "z": 2.299999952316284
          }
        },
        "attackInfo": {
          "attackTag": "",
          "attenuationTag": "",
          "attenuationGroup": "default",
          "attackProperty": {
            "actorGrassSubHurtDelta": 0.5,
            "actorWindSubHurtDelta": 0.0,
            "elementDurability": 100.0,
            "strikeType": "Blunt",
            "enBreak": 51.0,
            "attackType": "Melee",
            "GLKMCMDJBIK": 0.0
          },
          "hitPattern": {
            "onHitEffectName": "default",
            "hitImpulseY": "",
            "hitImpulseType": "",
            "overrideHitImpulse": {
              "hitLevel": "Light",
              "IMIJMPGJOGG": 250.0
            },
            "retreatType": "ByAttackerForward",
            "hitHaltTime": 0.03999999910593033,
            "hitHaltTimeScale": 0.10000000149011612
          },
          "cameraShake": {
            "shakeType": "HitVector",
            "shakeRange": 0.30000001192092896,
            "shakeTime": 0.11999999731779099,
            "shakeDistance": 15.0
          }
        }
      },
      "AE_NormalAtk_Heavy": {
        "attackPattern": {
          "$type": "ConfigAttackBox",
          "triggerType": "TriggerNoRepeat",
          "born": {
            "$type": "ConfigBornBySelf",
            "offset": {
              "x": 0.0,
              "y": 1.2000000476837158,
              "z": 0.4000000059604645
            }
          },
          "size": {
            "x": 1.399999976158142,
            "y": 1.399999976158142,
            "z": 2.5
          }
        },
        "attackInfo": {
          "attackTag": "",
          "attenuationTag": "",
          "attenuationGroup": "default",
          "attackProperty": {
            "actorGrassSubHurtDelta": 0.6600000262260437,
            "actorWindSubHurtDelta": 0.0,
            "elementDurability": 100.0,
            "strikeType": "Blunt",
            "enBreak": 101.0,
            "attackType": "Melee",
            "GLKMCMDJBIK": 0.0
          },
          "hitPattern": {
            "onHitEffectName": "default",
            "hitImpulseY": "",
            "hitImpulseType": "",
            "overrideHitImpulse": {
              "hitLevel": "Heavy",
              "IMIJMPGJOGG": 500.0
            },
            "retreatType": "ByAttackerForward",
            "hitHaltTime": 0.05999999865889549,
            "hitHaltTimeScale": 0.05999999865889549
          },
          "cameraShake": {
            "shakeType": "HitVector",
            "shakeRange": 0.5199999809265137,
            "shakeTime": 0.11999999731779099,
            "shakeDistance": 15.0
          }
        }
      },
      "AE_PowerStrike": {
        "attackPattern": {
          "$type": "ConfigAttackCircle",
          "triggerType": "TriggerNoRepeat",
          "born": {
            "$type": "ConfigBornBySelf",
            "offset": {
              "x": 0.0,
              "y": 0.0,
              "z": 0.699999988079071
            }
          },
          "height": 2.25,
          "fanAngle": 50.0,
          "radius": 2.5999999046325684
        },
        "attackInfo": {
          "attackTag": "",
          "attenuationTag": "",
          "attenuationGroup": "default",
          "attackProperty": {
            "actorGrassSubHurtDelta": 0.8500000238418579,
            "actorWindSubHurtDelta": 0.0,
            "elementDurability": 100.0,
            "strikeType": "Blunt",
            "enBreak": 201.0,
            "attackType": "Melee",
            "GLKMCMDJBIK": 0.0
          },
          "hitPattern": {
            "onHitEffectName": "default",
            "hitImpulseY": "",
            "hitImpulseType": "LV5",
            "retreatType": "ByAttackerForward",
            "hitHaltTime": 0.05999999865889549,
            "hitHaltTimeScale": 0.05999999865889549
          },
          "cameraShake": {
            "shakeType": "HitVector",
            "shakeRange": 0.9800000190734863,
            "shakeTime": 0.20000000298023224,
            "shakeDistance": 22.0,
            "extension": {
              "baseCycle": 0.20000000298023224
            }
          }
        }
      }
    }
  },
  "equipController": {
    "sheathPoint": "",
    "attachPoints": {
      "equip01": "WeaponR",
      "equip02": "WeaponL"
    }
  },
  "abilities": [
    {
      "abilityID": "",
      "abilityName": "Thoarder_MuscleMan_NoWeapon_Zeppeli_PoseManager",
      "abilityOverride": ""
    },
    {
      "abilityID": "",
      "abilityName": "Thoarder_MuscleMan_NoWeapon_Zeppeli_LandStrike_JusticeCrash_Manager",
      "abilityOverride": ""
    },
    {
      "abilityID": "",
      "abilityName": "Thoarder_MuscleMan_NoWeapon_Zeppeli_LandStrike_BreakStone_CreateBullet_TypeI",
      "abilityOverride": ""
    },
    {
      "abilityID": "",
      "abilityName": "Thoarder_MuscleMan_NoWeapon_Zeppeli_LandStrike_BreakStone_CreateBullet_TypeV",
      "abilityOverride": ""
    },
    {
      "abilityID": "",
      "abilityName": "Thoarder_MuscleMan_NoWeapon_Zeppeli_LandStrike_BreakStone_CreateBullet_TypeX",
      "abilityOverride": ""
    },
    {
      "abilityID": "",
      "abilityName": "Thoarder_MuscleMan_NoWeapon_Zeppeli_LandStrike_Disappear_Manager",
      "abilityOverride": ""
    },
    {
      "abilityID": "",
      "abilityName": "Thoarder_MuscleMan_NoWeapon_Zeppeli_RushMove",
      "abilityOverride": ""
    },
    {
      "abilityID": "",
      "abilityName": "Thoarder_MuscleMan_NoWeapon_Zeppeli_HitH_BreakFall",
      "abilityOverride": ""
    }
  ],
  "stateLayers": {
    "defaultLayer": {
      "$type": "GBGJJIIEMBD",
      "layerIndexName": "",
      "CPAANEIJCGD": "",
      "stateIDs": {
        "Born": {
          "$type": "NEDIFAKEGCO",
          "animatorStates": {
            "Born": []
          },
          "resetAnimatorTriggerOnExit": ["DoSkill"]
        },
        "NormalIdle": {
          "$type": "NEDIFAKEGCO",
          "animatorStates": {
            "Standby": [],
            "HoldArm": []
          },
          "canDoSkill": true,
          "canSyncMove": true,
          "resetAnimatorTriggerOnExit": ["DoSkill"]
        },
        "NormalMove": {
          "$type": "NEDIFAKEGCO",
          "animatorStates": {
            "WalkForward": [
              "Audio_Monster_Thoarder_Normal_Male_Muscle_NoWeapon_Walk"
            ],
            "WalkBack": [
              "Audio_Monster_Thoarder_Normal_Male_Muscle_NoWeapon_Walk"
            ],
            "WalkRight": [
              "Audio_Monster_Thoarder_Normal_Male_Muscle_NoWeapon_Walk"
            ],
            "WalkLeft": [
              "Audio_Monster_Thoarder_Normal_Male_Muscle_NoWeapon_Walk"
            ],
            "Run": ["Audio_Monster_Thoarder_Normal_Male_Muscle_NoWeapon_Run"]
          },
          "canDoSkill": true,
          "canSyncMove": true,
          "resetAnimatorTriggerOnExit": ["DoSkill"],
          "canSteer": true
        },
        "Turn": {
          "$type": "NEDIFAKEGCO",
          "animatorStates": {
            "TurnLeft": [
              "Audio_Monster_Thoarder_Normal_Male_Muscle_NoWeapon_Walk"
            ],
            "TurnRight": [
              "Audio_Monster_Thoarder_Normal_Male_Muscle_NoWeapon_Walk"
            ]
          },
          "canDoSkill": true,
          "canSyncMove": true,
          "resetAnimatorTriggerOnExit": ["DoSkill"],
          "canSteer": true
        },
        "BeHit": {
          "$type": "NEDIFAKEGCO",
          "animatorStates": {
            "Hit_L": [],
            "Hit_H": [
              "Monster_Thoarder_MuscleMan_Zeppeli_HitH",
              "Audio_Monster_Thoarder_Normal_Male_Muscle_NoWeapon_Hit_H_NoVo"
            ]
          },
          "resetAnimatorTriggerOnEnter": ["BeHit"],
          "resetAnimatorTriggerOnExit": ["DoSkill"]
        },
        "BeHitThrow": {
          "$type": "NEDIFAKEGCO",
          "animatorStates": {
            "HitThrow": [],
            "HitThrowDrop": [],
            "HitThrowToGround": [
              "Audio_Monster_Thoarder_Normal_Male_Muscle_NoWeapon_HitThrowToGround_NoVo"
            ]
          },
          "resetAnimatorTriggerOnEnter": ["BeHit", "HitAir2HitDrop"],
          "resetAnimatorTriggerOnExit": ["DoSkill"]
        },
        "Struggle": {
          "$type": "NEDIFAKEGCO",
          "animatorStates": {
            "Struggle": []
          },
          "resetAnimatorTriggerOnEnter": ["BeHit", "HitAir2HitDrop"],
          "resetAnimatorTriggerOnExit": ["DoSkill"]
        },
        "Die": {
          "$type": "NEDIFAKEGCO",
          "animatorStates": {
            "Die1": [
              "Monster_Thoarder_MuscleMan_Die",
              "Audio_Monster_Thoarder_Normal_Male_Muscle_NoWeapon_Die_Special"
            ],
            "Die2": [
              "Monster_Thoarder_MuscleMan_Die",
              "Audio_Monster_Thoarder_Normal_Male_Muscle_NoWeapon_Die_Special"
            ],
            "SwimDie": [],
            "SwimDie_AS": ["Monster_Thoarder_Common_SwimDie"]
          },
          "resetAnimatorTriggerOnEnter": ["DoSkill"]
        },
        "Die_RagDoll": {
          "$type": "NEDIFAKEGCO",
          "animatorStates": {
            "AirDie": [
              "Monster_Thoarder_Common_AirDie",
              "Audio_Monster_Thoarder_Normal_Male_Muscle_NoWeapon_Die_Special"
            ]
          },
          "resetAnimatorTriggerOnEnter": ["DoSkill"],
          "enableRagDoll": true
        },
        "Alert": {
          "$type": "NEDIFAKEGCO",
          "animatorStates": {
            "Alert": [
              "Monster_Undead01_Warning",
              "Audio_Monster_Thoarder_Normal_Male_Muscle_NoWeapon_Alert_Special"
            ]
          }
        },
        "NormalAtk_P1": {
          "$type": "NEDIFAKEGCO",
          "animatorStates": {
            "NormalAtk_Fast01_P1": [
              "Monster_Thoarder_MuscleMan_Zeppeli_NormalAttack_BS",
              "Audio_Monster_Thoarder_MuscleMan_NoWeapon_Zeppeli_NormalAtk_Fast01_P1"
            ],
            "NormalAtk_Fast02_P1": [],
            "NormalAtk_Normal01_P1": [
              "Monster_Thoarder_MuscleMan_Zeppeli_NormalAttack_BS",
              "Audio_Monster_Thoarder_MuscleMan_NoWeapon_Zeppeli_NormalAtk_Fast01_P1"
            ]
          }
        },
        "NormalAtk_P2": {
          "$type": "NEDIFAKEGCO",
          "animatorStates": {
            "NormalAtk_Fast01_P2": [
              "Monster_Thoarder_MuscleMan_Zeppeli_NormalAttack_Rush",
              "Monster_Thoarder_MuscleMan_Zeppeli_NormalAttack_Light_AE",
              "Monster_Thoarder_MuscleMan_Zeppeli_NormalAttack_Attack_VFX",
              "Audio_Monster_Thoarder_MuscleMan_NoWeapon_Zeppeli_NormalAtk_Fast01_P2"
            ],
            "NormalAtk_Fast02_P2": [
              "Monster_Thoarder_MuscleMan_Zeppeli_NormalAttack_Rush",
              "Monster_Thoarder_MuscleMan_Zeppeli_NormalAttack_Light_AE",
              "Monster_Thoarder_MuscleMan_Zeppeli_NormalAttack_Attack_VFX",
              "Audio_Monster_Thoarder_MuscleMan_NoWeapon_Zeppeli_NormalAtk_Fast01_P2"
            ],
            "NormalAtk_Normal01_P2": [
              "Monster_Thoarder_MuscleMan_Zeppeli_NormalAttack_Rush",
              "Monster_Thoarder_MuscleMan_Zeppeli_NormalAttack_Heavy_AE",
              "Monster_Thoarder_MuscleMan_Zeppeli_NormalAttack_Attack_VFX",
              "Audio_Monster_Thoarder_MuscleMan_NoWeapon_Zeppeli_NormalAtk_Fast01_P2"
            ]
          }
        },
        "PowerStrike_BS": {
          "$type": "NEDIFAKEGCO",
          "animatorStates": {
            "PowerStrike_BS": [
              "Audio_Monster_Thoarder_MuscleMan_NoWeapon_Zeppeli_PowerStrike_BS"
            ]
          },
          "resetAnimatorTriggerOnEnter": ["BreakFall_H_PowerStrike"],
          "resetAnimatorTriggerOnExit": ["BreakFall_H_PowerStrike"],
          "handleAnimatorStateImmediately": true
        },
        "PowerStrike_Charge": {
          "$type": "NEDIFAKEGCO",
          "animatorStates": {
            "PowerStrike_Charge": [
              "Monster_Thoarder_MuscleMan_Zeppeli_PowerStrike_Charge",
              "Audio_Monster_Thoarder_MuscleMan_NoWeapon_Zeppeli_PowerStrike_Charge"
            ]
          }
        },
        "PowerStrike_AS": {
          "$type": "NEDIFAKEGCO",
          "animatorStates": {
            "PowerStrike_AS": [
              "Monster_Thoarder_MuscleMan_Zeppeli_PowerStrike_Attack",
              "Audio_Monster_Thoarder_MuscleMan_NoWeapon_Zeppeli_PowerStrike_AS"
            ],
            "PowerStrike_Combo": []
          }
        },
        "LandStrike_BreakStone": {
          "$type": "NEDIFAKEGCO",
          "animatorStates": {
            "LandStrike_BreakStone_1": [
              "Monster_Thoarder_MuscleMan_Zeppeli_LandStrike_BreakStone_BS",
              "Monster_Thoarder_MuscleMan_Zeppeli_LandStrike_BreakStone_Jump_VFX",
              "Monster_Thoarder_MuscleMan_Zeppeli_BreakStone_CreateBullet_TypeI",
              "Audio_Monster_Thoarder_MuscleMan_NoWeapon_Zeppeli_LandStrike_BreakStone_1"
            ],
            "LandStrike_BreakStone_2": [
              "Monster_Thoarder_MuscleMan_Zeppeli_LandStrike_BreakStone_Jump_VFX",
              "Monster_Thoarder_MuscleMan_Zeppeli_BreakStone_CreateBullet_TypeV",
              "Audio_Monster_Thoarder_MuscleMan_NoWeapon_Zeppeli_LandStrike_BreakStone_2"
            ],
            "LandStrike_BreakStone_3_Slow": [
              "Monster_Thoarder_MuscleMan_Zeppeli_BreakStone_RushMove",
              "Monster_Thoarder_MuscleMan_Zeppeli_LandStrike_BreakStone_Jump_VFX",
              "Audio_Monster_Thoarder_MuscleMan_NoWeapon_Zeppeli_LandStrike_BreakStone_3"
            ],
            "LandStrike_BreakStone_3": [
              "Monster_Thoarder_MuscleMan_Zeppeli_BreakStone_CreateBullet_TypeX"
            ]
          },
          "addEndure": 0.009999999776482582,
          "resetAnimatorTriggerOnEnter": ["BreakFall_H_LandStrike"],
          "resetAnimatorTriggerOnExit": ["BreakFall_H_LandStrike"],
          "handleAnimatorStateImmediately": true
        },
        "LandStrike_BreakStone_Loop": {
          "$type": "NEDIFAKEGCO",
          "animatorStates": {
            "LandStrike_BreakStone_Loop": []
          }
        },
        "LandStrike_BreakStone_AS": {
          "$type": "NEDIFAKEGCO",
          "animatorStates": {
            "LandStrike_BreakStone_AS": [
              "Audio_Monster_Thoarder_MuscleMan_NoWeapon_Zeppeli_LandStrike_BreakStone_AS"
            ]
          }
        },
        "LandStrike_JusticeCrash_BS": {
          "$type": "NEDIFAKEGCO",
          "animatorStates": {
            "LandStrike_JusticeCrash_BS": [
              "Monster_Thoarder_MuscleMan_Zeppeli_LandStrike_JusticeCrash_BS",
              "Audio_Monster_Thoarder_MuscleMan_NoWeapon_Zeppeli_LandStrike_JusticeCrash_BS"
            ]
          },
          "addEndure": 0.009999999776482582
        },
        "LandStrike_JusticeCrash_Disappear": {
          "$type": "NEDIFAKEGCO",
          "animatorStates": {
            "LandStrike_JusticeCrash_Disappear": [
              "Audio_Monster_Thoarder_MuscleMan_NoWeapon_Zeppeli_LandStrike_JusticeCrash_Fall"
            ]
          },
          "addEndure": 0.0
        },
        "LandStrike_JusticeCrash": {
          "$type": "NEDIFAKEGCO",
          "animatorStates": {
            "LandStrike_JusticeCrash_NoPush": [
              "Monster_Thoarder_MuscleMan_Zeppeli_JusticeCrash_Attack",
              "Audio_Monster_Thoarder_MuscleMan_NoWeapon_Zeppeli_LandStrike_JusticeCrash"
            ],
            "LandStrike_JusticeCrash": []
          },
          "addEndure": 0.0
        },
        "LandStrike_JusticeCrash_AS": {
          "$type": "NEDIFAKEGCO",
          "animatorStates": {
            "LandStrike_JusticeCrash_AS": []
          }
        },
        "Disappear_Trans": {
          "$type": "NEDIFAKEGCO",
          "animatorStates": {
            "Disappear_Trans": [],
            "Disappear_Trans_ToPowerStrike": []
          },
          "addEndure": 0.0
        }
      }
    }
  },
  "billboard": {
    "$type": "DNGNMAJBCNP",
    "attachPoint": "BillboardAttach",
    "offset": {
      "x": -0.05000000074505806
    },
    "offsetType": "Character",
    "radiusOffset": 0.25,
    "showHPBar": true,
    "size": "Big"
  },
  "initialPoses": {
    "Default": {
      "initialPoseParams": {
        "intParams": {
          "FreePoseMark": "0"
        }
      }
    },
    "HoldArm": {
      "initialPoseID": 9001,
      "initialPoseParams": {
        "intParams": {
          "FreePoseMark": "9001"
        }
      }
    }
  },
  "aibeta": {
    "enable": true,
    "moveSetting": {
      "navMeshAgentName": "Undead01",
      "almostReachedDistanceRun": 1.5
    },
    "sensing": {
      "settings": {
        "DefaultSetting": {
          "feelRange": 7.5
        }
      },
      "templates": {
        "DefaultTemplate": {
          "DefaultPoses": "DefaultSetting"
        }
      }
    },
    "neurons": {
      "DefaultSetting": ["HIT"]
    },
    "threat": {
      "GHIJMOKOLMB": "",
      "clearThreatTargetDistance": 45.0,
      "clearThreatByLostPath": true,
      "clearThreatTimerByDistance": 3.0,
      "viewThreatGrow": 40.0,
      "viewAttenuation": [
        {
          "x": 5.0,
          "y": 1.0
        },
        {
          "x": 10.0,
          "y": 0.800000011920929
        },
        {
          "x": 15.0,
          "y": 0.4000000059604645
        },
        {
          "x": 20.0,
          "y": 0.10000000149011612
        }
      ],
      "resistTauntLevel": "Monster_TauntLevel_4"
    },
    "defendArea": {},
    "skills": {
      "101": {
        "name": "Alert",
        "skillType": "OnAlert",
        "faceTarget": true,
        "publicCDGroup": "",
        "ignoreGCD": true,
        "HHAGODJIAPE": "",
        "stateIDs": ["Alert"],
        "skillQueryingTime": 3.0,
        "flagTargetReachable": "10",
        "flagSelfOnTemplateCollider": "01",
        "flagSelfInZone": "10",
        "flagTargetInZone": "11"
      },
      "201": {
        "name": "NormalAttack",
        "priority": 2,
        "castCondition": {
          "pose": [1, 2],
          "maxTargetAngleXZ": 60.0,
          "pickRangeMax": 5.0
        },
        "publicCDGroup": "",
        "HHAGODJIAPE": "",
        "stateIDs": [
          "NormalAtk_P1",
          "NormalAtk_P2",
          "PowerStrike_BS",
          "PowerStrike_Charge",
          "PowerStrike_AS",
          "LandStrike_BreakStone",
          "LandStrike_BreakStone_Loop",
          "LandStrike_BreakStone_AS"
        ],
        "flagTargetReachable": "10",
        "flagSelfOnTemplateCollider": "01",
        "flagSelfInZone": "11",
        "flagTargetInZone": "11"
      },
      "301": {
        "name": "PowerStrike",
        "priority": 2,
        "castCondition": {
          "pose": [1, 2],
          "maxTargetAngleXZ": 60.0,
          "pickRangeMax": 5.0
        },
        "cd": 6.5,
        "publicCDGroup": "",
        "HHAGODJIAPE": "",
        "stateIDs": [
          "NormalAtk_P1",
          "NormalAtk_P2",
          "PowerStrike_BS",
          "PowerStrike_Charge",
          "PowerStrike_AS",
          "LandStrike_BreakStone",
          "LandStrike_BreakStone_Loop",
          "LandStrike_BreakStone_AS"
        ],
        "flagTargetReachable": "10",
        "flagSelfOnTemplateCollider": "01",
        "flagSelfInZone": "11",
        "flagTargetInZone": "11"
      },
      "401": {
        "name": "LandStrike_BreakStone",
        "priority": 1,
        "castCondition": {
          "pose": [2]
        },
        "cd": 17.0,
        "publicCDGroup": "",
        "HHAGODJIAPE": "",
        "stateIDs": [
          "LandStrike_BreakStone",
          "LandStrike_BreakStone_Loop",
          "LandStrike_BreakStone_AS",
          "PowerStrike_BS",
          "PowerStrike_Charge",
          "PowerStrike_AS"
        ],
        "flagTargetReachable": "10",
        "flagSelfOnTemplateCollider": "01",
        "flagSelfInZone": "11",
        "flagTargetInZone": "11"
      },
      "501": {
        "name": "LandStrike_JusticeCrash",
        "priority": 1,
        "castCondition": {
          "pose": [2]
        },
        "cd": 12.0,
        "publicCDGroup": "",
        "HHAGODJIAPE": "",
        "stateIDs": [
          "LandStrike_JusticeCrash_BS",
          "LandStrike_JusticeCrash_Disappear",
          "LandStrike_JusticeCrash",
          "LandStrike_JusticeCrash_AS"
        ],
        "flagTargetReachable": "11",
        "flagSelfOnTemplateCollider": "01",
        "flagSelfInZone": "11",
        "flagTargetInZone": "11"
      }
    },
    "skillGCD": 1.5,
    "birdCirclingTactic": [
      {
        "$type": "NNJKLGNPMNN",
        "enable": true,
        "JMCOBEPDIGM": {
          "MNPDDAKDHGK": "",
          "GJDMDHIBCME": ""
        }
      },
      {
        "$type": "KACCHOLJDNK",
        "enable": true,
        "condition": {
          "pose": [1, 2]
        },
        "JMCOBEPDIGM": {
          "KHDFDAAAPEI": 20.0,
          "HKJODDGJPHA": 50.0,
          "GGEBMFHFBPO": 4.0,
          "KFFGCIMPNMJ": 15.0,
          "MNPDDAKDHGK": ""
        }
      },
      {
        "$type": "EPHBMLFODKF",
        "enable": true,
        "condition": {
          "pose": [1, 2]
        },
        "JMCOBEPDIGM": {
          "rangeMax": 7.0,
          "OMHBOLPFEPM": 1.5,
          "BFJBDDIIFOI": {
            "LLICGJHIGME": 3.0,
            "IDEFILBHNAP": 0.0,
            "IBLIPJPNOGC": 0.0,
            "AEBLMKFNCDG": 6.0,
            "IGLIBIOEGBB": 6.0
          },
          "NAOBMNGDKHL": "1111",
          "JCNIJOAIGII": "1111",
          "MNPDDAKDHGK": ""
        }
      }
    ]
  },
  "inputKeys": [
    {
      "keyID": 201,
      "inputKeyCode": 257,
      "abilityName": ""
    },
    {
      "keyID": 301,
      "inputKeyCode": 258,
      "abilityName": ""
    },
    {
      "keyID": 401,
      "inputKeyCode": 259,
      "abilityName": ""
    },
    {
      "keyID": 501,
      "inputKeyCode": 260,
      "abilityName": ""
    }
  ],
  "move": {
    "$type": "IPNMJMHDMPF",
    "facingMove": "FourDirection",
    "monsterSizeType": "StoopType",
    "PKHOMJHFAEE": "RootNode"
  },
  "audio": {
    "overrideEmitterName": "",
    "animAudio": {},
    "disableEvent": {
      "text": ""
    },
    "destroyEvent": {
      "text": ""
    },
    "behaviours": [
      {
        "$type": "BILJOKAHFPL",
        "coolDown": 5.0,
        "BGIEINMDECM": {
          "$type": "IFGMCBBGLDI",
          "LIHPNFLLKDA": {
            "$type": "LFOALDLDGDN"
          },
          "ACMFKGCEPBN": {
            "$type": "IFGMCBBGLDI",
            "LIHPNFLLKDA": {
              "$type": "EAIMKFLEHCC"
            },
            "ACMFKGCEPBN": {
              "$type": "JOPFGOEOKPH",
              "target": {
                "$type": "OJKONELIJJC"
              }
            }
          }
        },
        "onKill": [
          {
            "$type": "DELPJNMAIHM",
            "OPEMPFCFHMO": "__DefaultSync__",
            "action": {
              "$type": "CPBMHBHJPKE",
              "eventName": {
                "text": "Play_vo_monster_zeppli_quest_killAvatar_01"
              }
            }
          }
        ]
      }
    ],
    "randomVariantSwitchGroup": {
      "text": ""
    },
    "randomVariantSwitchValues": [
      {
        "text": ""
      }
    ]
  }
}
