{
  "common": {
    "effectAttachShape": {
      "$type": "FJNPJANPGGC",
      "mesh": "EffectMesh"
    },
    "mass": 9999999.0,
    "height": 1.0,
    "checkInSurface": true,
    "scale": 0.800000011920929,
    "canTriggerElementReactionText": false,
    "useGrassDisplacement": true,
    "reconnectSupport": true,
    "recoverByInitPose": true
  },
  "model": {
    "bornEffect": "",
    "attachEffect": "",
    "canBakeMesh": false,
    "BKPFGNPLDNJ": ""
  },
  "dither": {
    "showDitherDuration": 1.0
  },
  "combat": {
    "property": {
      "endureType": "Monster_Minion",
      "weight": 101.0,
      "isInvincible": true
    },
    "beHit": {
      "hitBloodEffect": "",
      "muteAllHit": true,
      "muteAllHitText": true
    },
    "combatLock": {
      "lockShape": "CircleLockEnemy",
      "lockType": "Animal_Lv2"
    },
    "die": {
      "dieEndTime": 2.5999999046325684,
      "dieForceDisappearTime": 2.0,
      "dieDisappearEffect": ""
    },
    "animEvents": {
      "MeleeAtk01": {
        "attackPattern": {
          "$type": "ConfigAttackCircle",
          "triggerType": "TriggerNoRepeat",
          "born": {
            "$type": "ConfigBornBySelf",
            "offset": {
              "x": 0.0,
              "y": -0.5,
              "z": 0.0
            }
          },
          "height": 3.0,
          "fanAngle": 180.0,
          "radius": 3.0
        },
        "attackInfo": {
          "attackTag": "Electrohercules_MeleeAttack01",
          "attenuationTag": "",
          "attenuationGroup": "default",
          "attackProperty": {
            "actorGrassSubHurtDelta": 0.0,
            "actorWindSubHurtDelta": 0.0,
            "elementDurability": 100.0,
            "strikeType": "Blunt",
            "enBreak": 0.0,
            "attackType": "Melee",
            "GLKMCMDJBIK": 0.0
          }
        }
      }
    }
  },
  "abilities": [
    {
      "abilityID": "",
      "abilityName": "Animal_Electrohercules_Properties_03",
      "abilityOverride": ""
    },
    {
      "abilityID": "",
      "abilityName": "Animal_Electrohercules_BattleStateHandler",
      "abilityOverride": ""
    },
    {
      "abilityID": "",
      "abilityName": "Animal_Electrohercules_PositionLogicHandler",
      "abilityOverride": ""
    },
    {
      "abilityID": "",
      "abilityName": "Animal_Electrohercules_PlayAlert",
      "abilityOverride": ""
    },
    {
      "abilityID": "",
      "abilityName": "Animal_Electrohercules_AttackLandedHandler",
      "abilityOverride": ""
    },
    {
      "abilityID": "",
      "abilityName": "Animal_Electrohercules_Enemy_RangedAttack01_Chasing",
      "abilityOverride": ""
    },
    {
      "abilityID": "",
      "abilityName": "Animal_Electrohercules_TryBreakRangedAttack",
      "abilityOverride": ""
    },
    {
      "abilityID": "",
      "abilityName": "Animal_Electrohercules_RangeAttack02",
      "abilityOverride": ""
    },
    {
      "abilityID": "",
      "abilityName": "Animal_Electrohercules_SkillElite_Level01",
      "abilityOverride": ""
    }
  ],
  "stateLayers": {
    "defaultLayer": {
      "$type": "GBGJJIIEMBD",
      "layerIndexName": "",
      "CPAANEIJCGD": "",
      "stateIDs": {
        "Born": {
          "$type": "NEDIFAKEGCO",
          "animatorStates": {
            "Born": []
          },
          "resetAnimatorTriggerOnExit": ["DoSkill"]
        },
        "NormalIdle": {
          "$type": "NEDIFAKEGCO",
          "animatorStates": {
            "Standby": []
          },
          "canDoSkill": true,
          "canSyncMove": true,
          "resetAnimatorTriggerOnEnter": ["IsCharging"],
          "resetAnimatorTriggerOnExit": ["DoSkill"]
        },
        "NormalMove": {
          "$type": "NEDIFAKEGCO",
          "animatorStates": {
            "WalkForward": [],
            "WalkBack": []
          },
          "canDoSkill": true,
          "resetAnimatorTriggerOnExit": ["DoSkill"]
        },
        "BeHit": {
          "$type": "NEDIFAKEGCO",
          "animatorStates": {
            "Hit_L": ["Audio_Animal_Electrohercules_01_Hit_L"],
            "Hit_H": ["Audio_Animal_Electrohercules_01_Hit_H"]
          },
          "resetAnimatorTriggerOnEnter": ["BeHit"],
          "resetAnimatorTriggerOnExit": ["DoSkill"]
        },
        "BeHitThrow": {
          "$type": "NEDIFAKEGCO",
          "animatorStates": {
            "HitThrow": [],
            "HitThrowDrop": [],
            "HitThrowToGround": []
          },
          "resetAnimatorTriggerOnEnter": ["BeHit", "HitAir2HitDrop"],
          "resetAnimatorTriggerOnExit": ["DoSkill"]
        },
        "Struggle": {
          "$type": "NEDIFAKEGCO",
          "animatorStates": {
            "Struggle": []
          },
          "resetAnimatorTriggerOnEnter": ["BeHit", "HitAir2HitDrop"],
          "resetAnimatorTriggerOnExit": ["DoSkill"]
        },
        "Die": {
          "$type": "NEDIFAKEGCO",
          "animatorStates": {
            "Die": ["Audio_Animal_Electrohercules_01_Die"]
          }
        },
        "Warning": {
          "$type": "NEDIFAKEGCO",
          "animatorStates": {
            "Alert": ["Audio_Animal_Electrohercules_01_Alert"]
          },
          "canSyncMove": true,
          "resetAnimatorTriggerOnExit": ["BeHit", "DoSkill"],
          "canSteer": true
        },
        "MeleeAttack01_BS": {
          "$type": "NEDIFAKEGCO",
          "animatorStates": {
            "MeleeAttack01_BS": [
              "Animal_Electrohercules_01_JumpForward_Charging",
              "Animal_Electrohercules_01_MeleeAttack01_BS"
            ],
            "MeleeAttack01_BSLoop": [],
            "MeleeAttack01_BSLoop03": []
          },
          "resetAnimatorTriggerOnExit": ["BeHit", "DoSkill"]
        },
        "MeleeAttack01": {
          "$type": "NEDIFAKEGCO",
          "animatorStates": {
            "MeleeAttack01": [
              "Animal_Electrohercules_01_JumpForward",
              "Audio_Animal_Electrohercules_01_JumpForward"
            ],
            "MeleeAttack01_AS": []
          },
          "resetAnimatorTriggerOnExit": ["BeHit", "DoSkill"]
        },
        "RangedAttack01": {
          "$type": "NEDIFAKEGCO",
          "animatorStates": {
            "RangedAttack01_BS": ["Animal_Electrohercules_01_RangedAttack01"],
            "RangedAttack01_Loop": [],
            "RangedAttack01_AS": []
          },
          "resetAnimatorTriggerOnExit": ["BeHit", "DoSkill"]
        },
        "RangeAttack02": {
          "$type": "NEDIFAKEGCO",
          "animatorStates": {
            "RangeAttack02_BS": ["Animal_Electrohercules_RangeAttack02_BS"],
            "RangeAttack02_Loop": ["Animal_Electrohercules_RangeAttack02_Loop"],
            "RangeAttack02_AS": []
          },
          "resetAnimatorTriggerOnExit": ["BeHit", "DoSkill"]
        },
        "RangeAttack03": {
          "$type": "NEDIFAKEGCO",
          "animatorStates": {
            "RangeAttack03_BS": ["Animal_Electrohercules_RangeAttack02_BS"],
            "RangeAttack03_Loop": ["Animal_Electrohercules_RangeAttack02_Loop"],
            "RangeAttack03_AS": []
          },
          "resetAnimatorTriggerOnExit": ["BeHit", "DoSkill"]
        },
        "JumpBack": {
          "$type": "NEDIFAKEGCO",
          "animatorStates": {
            "JumpBack": ["Audio_Animal_Electrohercules_01_Jump"]
          },
          "resetAnimatorTriggerOnExit": ["BeHit", "DoSkill", "CriticalTrigger"]
        },
        "Recoil": {
          "$type": "NEDIFAKEGCO",
          "animatorStates": {
            "Recoil": []
          },
          "resetAnimatorTriggerOnExit": ["BeHit", "DoSkill", "CriticalTrigger"]
        },
        "Taunt01": {
          "$type": "NEDIFAKEGCO",
          "animatorStates": {
            "Taunt01": ["Audio_Animal_Electrohercules_01_Alert"]
          },
          "resetAnimatorTriggerOnExit": ["BeHit", "DoSkill"]
        },
        "Taunt02": {
          "$type": "NEDIFAKEGCO",
          "animatorStates": {
            "Taunt02": ["Audio_Animal_Electrohercules_01_Taunt"]
          },
          "resetAnimatorTriggerOnExit": ["BeHit", "DoSkill"]
        }
      }
    }
  },
  "initialPoses": {
    "Default": {
      "initialPoseID": 1,
      "initialPoseParams": {
        "intParams": {
          "ActionState": "0"
        }
      }
    }
  },
  "aibeta": {
    "enable": true,
    "sensing": {
      "settings": {
        "DefaultSetting": {
          "viewRange": 25.0,
          "viewPanoramic": true,
          "feelRange": 25.0
        }
      }
    },
    "neurons": {
      "DefaultSetting": []
    },
    "threat": {
      "GHIJMOKOLMB": "",
      "clearThreatTimerByDistance": 1.0,
      "threatDecreaseSpeed": 500.0
    },
    "defendArea": {
      "defendRange": 50.0
    },
    "ui": {
      "hasDirectionIndicator": false,
      "HMNNBFDEHLG": ""
    },
    "skillGroupCDConfigs": [
      {
        "skillGroupCDID": 1,
        "skillGroupCDTime": 13.5
      }
    ],
    "skillSetting": {
      "skillEliteSet": {
        "1": [1051],
        "2": [1056, 1071]
      }
    },
    "skills": {
      "1011": {
        "name": "MeleeAttack01",
        "priority": 4,
        "castCondition": {
          "pose": [101],
          "pickRangeMax": 1.5,
          "skillAnchorRangeMax": 10.0
        },
        "cd": 3.0,
        "initialCD": 5.5,
        "initialCDUpperRange": 0.5,
        "publicCDGroup": "",
        "HHAGODJIAPE": "",
        "stateIDs": ["MeleeAttack01_BS", "MeleeAttack01"],
        "flagTargetReachable": "11",
        "flagSelfOnTemplateCollider": "01",
        "flagSelfInZone": "10",
        "flagTargetInZone": "11"
      },
      "1012": {
        "name": "MeleeAttack01R",
        "priority": 4,
        "castCondition": {
          "pose": [121],
          "pickRangeMax": 1.75
        },
        "publicCDGroup": "",
        "HHAGODJIAPE": "",
        "stateIDs": ["MeleeAttack01_BS", "MeleeAttack01"],
        "flagTargetReachable": "11",
        "flagSelfOnTemplateCollider": "01",
        "flagSelfInZone": "10",
        "flagTargetInZone": "11"
      },
      "1021": {
        "name": "RangedAttack01",
        "priority": 4,
        "castCondition": {
          "pose": [101, 111, 121],
          "pickRangeMin": 1.0,
          "pickRangeMax": 99.0
        },
        "cd": 5.25,
        "cdUpperRange": 1.75,
        "initialCD": 5.5,
        "initialCDUpperRange": 0.5,
        "publicCDGroup": "",
        "HHAGODJIAPE": "",
        "stateIDs": ["RangedAttack01"],
        "flagTargetReachable": "11",
        "flagSelfOnTemplateCollider": "01",
        "flagSelfInZone": "10",
        "flagTargetInZone": "11"
      },
      "1051": {
        "name": "RangeAttack02",
        "priority": 4,
        "castCondition": {
          "pose": [101, 111, 121],
          "pickRangeMin": 1.25,
          "pickRangeMax": 99.0
        },
        "cd": 2.75,
        "cdUpperRange": 0.75,
        "initialCD": 5.5,
        "initialCDUpperRange": 0.5,
        "publicCDGroup": "",
        "HHAGODJIAPE": "",
        "stateIDs": ["RangeAttack02"],
        "flagTargetReachable": "11",
        "flagSelfOnTemplateCollider": "01",
        "flagSelfInZone": "10",
        "flagTargetInZone": "11"
      },
      "1056": {
        "name": "RangeAttack03",
        "priority": 3,
        "castCondition": {
          "pose": [101, 111, 121],
          "pickRangeMin": 1.25,
          "pickRangeMax": 99.0
        },
        "cd": 2.75,
        "cdUpperRange": 0.75,
        "initialCD": 2.5,
        "initialCDUpperRange": 0.5,
        "publicCDGroup": "",
        "HHAGODJIAPE": "",
        "stateIDs": ["RangeAttack03"],
        "flagTargetReachable": "11",
        "flagSelfOnTemplateCollider": "01",
        "flagSelfInZone": "10",
        "flagTargetInZone": "11"
      },
      "1071": {
        "name": "JumpBack",
        "priority": 3,
        "castCondition": {
          "pose": [101, 111],
          "pickRangeMax": 1.0
        },
        "cd": 5.25,
        "cdUpperRange": 0.75,
        "initialCD": 5.5,
        "initialCDUpperRange": 0.5,
        "publicCDGroup": "",
        "ignoreGCD": true,
        "triggerGCD": false,
        "HHAGODJIAPE": "",
        "stateIDs": ["JumpBack"],
        "flagTargetReachable": "11",
        "flagSelfOnTemplateCollider": "01",
        "flagSelfInZone": "10",
        "flagTargetInZone": "11"
      },
      "1031": {
        "name": "Taunt01",
        "castCondition": {
          "pose": [101, 111],
          "pickRangeMin": 1.5,
          "pickRangeMax": 99.0
        },
        "cd": 12.5,
        "cdUpperRange": 2.5,
        "initialCD": 10.0,
        "initialCDUpperRange": 2.5,
        "publicCDGroup": "",
        "ignoreGCD": true,
        "skillGroupCDID": 1,
        "HHAGODJIAPE": "",
        "stateIDs": ["Taunt01"],
        "flagTargetReachable": "11",
        "flagSelfOnTemplateCollider": "01",
        "flagSelfInZone": "10",
        "flagTargetInZone": "11"
      },
      "1036": {
        "name": "Taunt02",
        "castCondition": {
          "pose": [101, 111],
          "pickRangeMin": 1.5,
          "pickRangeMax": 99.0
        },
        "cd": 12.5,
        "cdUpperRange": 2.5,
        "initialCD": 10.0,
        "initialCDUpperRange": 2.5,
        "publicCDGroup": "",
        "ignoreGCD": true,
        "skillGroupCDID": 1,
        "HHAGODJIAPE": "",
        "stateIDs": ["Taunt02"],
        "flagTargetReachable": "11",
        "flagSelfOnTemplateCollider": "01",
        "flagSelfInZone": "10",
        "flagTargetInZone": "11"
      }
    },
    "skillGCD": 1.75,
    "birdCirclingTactic": [
      {
        "$type": "EPHBMLFODKF",
        "enable": true,
        "condition": {
          "pose": [101, 111, 121]
        },
        "JMCOBEPDIGM": {
          "rangeMin": 2.450000047683716,
          "rangeMax": 3.950000047683716,
          "JOJBOHEDBHC": 2.0,
          "AFILKAGDAHN": 1.0,
          "ALIBHHJHHMN": 0.5,
          "BFJBDDIIFOI": {
            "LLICGJHIGME": 0.0,
            "AEBLMKFNCDG": 0.0,
            "IGLIBIOEGBB": 0.0
          },
          "FNFGJGDBPLN": false,
          "NAOBMNGDKHL": "1111",
          "JCNIJOAIGII": "1111",
          "MNPDDAKDHGK": ""
        },
        "PIOCBHLFLJP": {
          "111": {
            "rangeMin": 2.950000047683716,
            "rangeMax": 3.950000047683716,
            "JOJBOHEDBHC": 2.0,
            "AFILKAGDAHN": 1.0,
            "ALIBHHJHHMN": 0.5,
            "BFJBDDIIFOI": {
              "LLICGJHIGME": 0.0,
              "AEBLMKFNCDG": 0.0,
              "IGLIBIOEGBB": 0.0
            },
            "FNFGJGDBPLN": false,
            "NAOBMNGDKHL": "1111",
            "JCNIJOAIGII": "1111",
            "MNPDDAKDHGK": ""
          },
          "121": {
            "rangeMin": 0.0,
            "rangeMax": 3.950000047683716,
            "JOJBOHEDBHC": 2.0,
            "AFILKAGDAHN": 1.0,
            "ALIBHHJHHMN": 0.5,
            "BFJBDDIIFOI": {
              "LLICGJHIGME": 0.0,
              "AEBLMKFNCDG": 0.0,
              "IGLIBIOEGBB": 0.0
            },
            "FNFGJGDBPLN": false,
            "NAOBMNGDKHL": "1111",
            "JCNIJOAIGII": "1111",
            "MNPDDAKDHGK": ""
          }
        }
      },
      {
        "$type": "KACCHOLJDNK",
        "enable": true,
        "condition": {
          "pose": [101, 121]
        },
        "JMCOBEPDIGM": {
          "ANLAAGAMIKF": 1,
          "NBENNEKDIIA": 1.0,
          "KHDFDAAAPEI": 3.450000047683716,
          "HKJODDGJPHA": 50.0,
          "GGEBMFHFBPO": 3.450000047683716,
          "KFFGCIMPNMJ": 0.0,
          "MNPDDAKDHGK": ""
        }
      }
    ]
  },
  "inputKeys": [
    {
      "keyID": 1,
      "inputKeyCode": 257,
      "abilityName": ""
    },
    {
      "keyID": 1011,
      "inputKeyCode": 258,
      "abilityName": ""
    },
    {
      "keyID": 1012,
      "inputKeyCode": 259,
      "abilityName": ""
    },
    {
      "keyID": 1013,
      "inputKeyCode": 260,
      "abilityName": ""
    },
    {
      "keyID": 1014,
      "inputKeyCode": 261,
      "abilityName": ""
    },
    {
      "keyID": 1015,
      "inputKeyCode": 262,
      "abilityName": ""
    },
    {
      "keyID": 1016,
      "inputKeyCode": 263,
      "abilityName": ""
    },
    {
      "keyID": 1017,
      "inputKeyCode": 264,
      "abilityName": ""
    },
    {
      "keyID": 1018,
      "inputKeyCode": 265,
      "abilityName": ""
    }
  ],
  "move": {
    "$type": "IPNMJMHDMPF",
    "facingMove": "ForwardBackward",
    "PKHOMJHFAEE": "RootNode"
  },
  "audio": {
    "overrideEmitterName": "",
    "animAudio": {
      "onTransitionIn": [
        {
          "currentStateName": "WalkBack",
          "audioEvent": {
            "text": "Play_sfx_animal_electrohercules_walk_Loop"
          }
        },
        {
          "currentStateName": "WalkForward",
          "audioEvent": {
            "text": "Play_sfx_animal_electrohercules_walk_Loop"
          }
        }
      ],
      "onTransitionOut": [
        {
          "currentStateName": "WalkBack",
          "audioEvent": {
            "text": "Stop_sfx_animal_electrohercules_walk_Loop"
          }
        },
        {
          "currentStateName": "WalkForward",
          "audioEvent": {
            "text": "Stop_sfx_animal_electrohercules_walk_Loop"
          }
        }
      ]
    }
  },
  "animal": {
    "tickAbilityElement": false
  }
}
