{
  "common": {
    "effectAttachShape": {
      "$type": "FJNPJANPGGC",
      "mesh": "EffectMesh"
    },
    "mass": 80.0,
    "height": 0.6000000238418579,
    "viewSize": 1.75,
    "affectedByWorld": true,
    "checkInSurface": true,
    "disableTickDistance": 200.0,
    "clearAnimatorOnSetLightDeactive": true,
    "clearAIOnSetLightDeactive": true,
    "reconnectSupport": true,
    "recoverByInitPose": true
  },
  "headControl": {
    "$type": "KPIPDEBDPIH",
    "useHeadControl": true,
    "maxPitchDegree": 45.0
  },
  "model": {
    "bornEffect": "",
    "attachEffect": "",
    "canBakeMesh": false,
    "BKPFGNPLDNJ": ""
  },
  "dither": {
    "showDitherDuration": 2.0
  },
  "combat": {
    "property": {
      "endureType": "Monster_Grunt_Humanoid",
      "weight": 80.0
    },
    "beHit": {
      "hitBloodEffect": ""
    },
    "combatLock": {
      "lockShape": "CircleLockEnemy",
      "lockType": "Avatar&Monster_Lv4"
    },
    "die": {
      "hasAnimatorDie": true,
      "fallWhenAirDie": false,
      "dieEndTime": 0.75,
      "dieForceDisappearTime": 4.0,
      "dieDisappearEffect": "",
      "muteHitBox": true,
      "dieDenyLockOn": true,
      "dieIsGhostToEnemy": true,
      "dieIgnoreTriggerBullet": true,
      "muteBillboard": true,
      "mutePushCollider": true
    }
  },
  "abilities": [
    {
      "abilityID": "",
      "abilityName": "Monster_Sylph_Ice_Steer",
      "abilityOverride": ""
    },
    {
      "abilityID": "",
      "abilityName": "Monster_Common_IceMuteHurt",
      "abilityOverride": ""
    },
    {
      "abilityID": "",
      "abilityName": "AbilityResistFrozen",
      "abilityOverride": ""
    },
    {
      "abilityID": "",
      "abilityName": "Monster_Sylph_Ice_Bullet_MvM",
      "abilityOverride": ""
    },
    {
      "abilityID": "",
      "abilityName": "Activity_V4_7_MvM_FlyMonsterThreat",
      "abilityOverride": ""
    },
    {
      "abilityID": "",
      "abilityName": "Activity_V4_7_MvM_CommonThreat",
      "abilityOverride": ""
    },
    {
      "abilityID": "",
      "abilityName": "Monster_MvM_Sylph_CommonDie",
      "abilityOverride": ""
    },
    {
      "abilityID": "",
      "abilityName": "MvM_Monster_Ice_Element_Monster",
      "abilityOverride": ""
    }
  ],
  "stateLayers": {
    "defaultLayer": {
      "$type": "GBGJJIIEMBD",
      "layerIndexName": "",
      "CPAANEIJCGD": "",
      "stateIDs": {
        "Born": {
          "$type": "NEDIFAKEGCO",
          "animatorStates": {
            "Born": ["Monster_Sylph_Born"]
          },
          "canSyncMove": true,
          "resetAnimatorTriggerOnExit": ["DoSkill"]
        },
        "NormalIdle": {
          "$type": "NEDIFAKEGCO",
          "animatorStates": {
            "StandbyFree": [],
            "Standby": []
          },
          "canDoSkill": true,
          "canSyncMove": true,
          "resetAnimatorTriggerOnExit": ["DoSkill"],
          "canSteer": true
        },
        "Activated_Standby": {
          "$type": "NEDIFAKEGCO",
          "animatorStates": {
            "Activated_Standby": []
          },
          "canDoSkill": true,
          "canSyncMove": true,
          "resetAnimatorTriggerOnExit": ["DoSkill"],
          "canSteer": true
        },
        "NormalMove": {
          "$type": "NEDIFAKEGCO",
          "animatorStates": {
            "Activated_Fly": [],
            "Walk": [],
            "Activated_Walk": []
          },
          "canDoSkill": true,
          "canSyncMove": true,
          "resetAnimatorTriggerOnExit": ["DoSkill"],
          "setAnimatorFloat": [
            {
              "name": "FlyMotionHor",
              "normalizeEnd": 0.0
            },
            {
              "name": "FlyMotionVer",
              "normalizeEnd": 0.0
            }
          ],
          "canSteer": true
        },
        "NormalFly": {
          "$type": "NEDIFAKEGCO",
          "animatorStates": {
            "Fly": []
          },
          "canDoSkill": true,
          "canSyncMove": true,
          "resetAnimatorTriggerOnExit": ["DoSkill"],
          "setAnimatorFloat": [
            {
              "name": "FlyMotionHor",
              "normalizeEnd": 0.0
            },
            {
              "name": "FlyMotionVer",
              "normalizeEnd": 0.0
            }
          ],
          "canSteer": true,
          "blendMove": "BlendMove"
        },
        "Die": {
          "$type": "NEDIFAKEGCO",
          "animatorStates": {
            "Die": ["Monster_MvM_Sylph_Ice_Die"],
            "Activated_Die": []
          },
          "resetAnimatorTriggerOnEnter": ["DoSkill"]
        },
        "Warning": {
          "$type": "NEDIFAKEGCO",
          "animatorStates": {
            "Warning": ["Monster_Sylph_Ice_Warning"]
          },
          "canSyncMove": true,
          "resetAnimatorTriggerOnExit": ["BeHit", "DoSkill"],
          "canSteer": true
        },
        "IceBullet": {
          "$type": "NEDIFAKEGCO",
          "animatorStates": {
            "IceBullet": [
              "Monster_Sylph_Ice_IceBullet_MvM",
              "Audio_Sylph_Ice_IceBullet",
              "Activity_V4_7_MvM_CommonThreat"
            ]
          },
          "canSyncMove": true,
          "addEndure": 0.0,
          "resetAnimatorTriggerOnExit": ["BeHit", "DoSkill"],
          "canSteer": true
        },
        "FlyHigh": {
          "$type": "NEDIFAKEGCO",
          "animatorStates": {
            "FlyHigh": [
              "Monster_Sylph_Ice_FlyHigh",
              "Audio_Monster_Sylph_Common_FlyHigh"
            ]
          },
          "canSyncMove": true,
          "addEndure": 0.0,
          "resetAnimatorTriggerOnExit": ["BeHit", "DoSkill"]
        },
        "Deathrattle": {
          "$type": "NEDIFAKEGCO",
          "animatorStates": {
            "Deathrattle": [
              "Monster_Sylph_Die",
              "Monster_Sylph_Ice_Deathrattle_PlayOnce"
            ]
          },
          "canSyncMove": true,
          "resetAnimatorTriggerOnExit": ["BeHit", "DoSkill"]
        },
        "Activated_Deathrattle": {
          "$type": "NEDIFAKEGCO",
          "animatorStates": {
            "Activated_Deathrattle": ["Monster_Sylph_Ice_Deathrattle_PlayOnce"]
          },
          "canSyncMove": true,
          "resetAnimatorTriggerOnExit": ["BeHit", "DoSkill"]
        },
        "Unactivated": {
          "$type": "NEDIFAKEGCO",
          "animatorStates": {
            "Unactivated": ["Audio_Sylph_Rock_Unactivated"]
          },
          "canSyncMove": true,
          "resetAnimatorTriggerOnExit": ["BeHit", "DoSkill"]
        }
      }
    }
  },
  "face": {
    "characterName": "Sylph_04",
    "baseFaceAnimation": "Default",
    "intervalFaceAnimation": "Blink",
    "minInterval": 1.5,
    "maxInterval": 5.5
  },
  "billboard": {
    "$type": "DNGNMAJBCNP",
    "attachPoint": "BillboardAttach",
    "offset": {
      "y": 0.5
    },
    "radiusOffset": 1.0,
    "enableSelfAdapt": true,
    "showHPBar": true
  },
  "initialPoses": {
    "Default": {
      "initialPoseID": 101
    },
    "Defend": {
      "initialPoseID": 999,
      "initialPoseParams": {
        "intParams": {
          "LevelType": "1"
        }
      }
    }
  },
  "aibeta": {
    "enable": true,
    "decisionArchetype": "MvM",
    "moveSetting": {
      "useNavMesh": false,
      "navMeshAgentName": "Undead01"
    },
    "sensing": {
      "settings": {
        "DefaultSetting": {
          "viewRange": 15.0,
          "viewPanoramic": true,
          "feelRange": 15.0
        }
      },
      "templates": {
        "DefaultTemplate": {
          "DefaultPoses": "DefaultSetting"
        }
      }
    },
    "neurons": {
      "DefaultSetting": ["HIT", "FEAR"],
      "NeverCombat": []
    },
    "threat": {
      "GHIJMOKOLMB": "",
      "clearThreatTargetDistance": 100.0,
      "clearThreatEdgeDistance": 3.5,
      "clearThreatTimerByDistance": 1.75,
      "LHDJAIFLCOE": true,
      "viewThreatGrow": 35.0,
      "feelThreatGrow": 1000.0,
      "threatDecreaseSpeed": 5.0,
      "threatBroadcastRange": 0.0,
      "viewAttenuation": [
        {
          "x": 15.0,
          "y": 10.0
        },
        {
          "x": 200.0
        }
      ],
      "IIOLFCGEIHN": true,
      "KKKGOEEOHLL": ["_MVM_ICE_ELEMENT_MONSTER"],
      "auxScoreChangeTargetCD": 0.5,
      "targetDistanceScoreSystem": {
        "weight": 100,
        "value": 100.0,
        "max": 100.0,
        "enable": true
      }
    },
    "defendArea": {
      "defendRange": 100.0
    },
    "fly": {
      "enable": true,
      "floatingPoses": [101, 201, 301, 211, 311, 901, 902]
    },
    "command": {
      "enable": true,
      "HDFMIBIKJCO": true
    },
    "skills": {
      "201": {
        "name": "IceBullet",
        "priority": 2,
        "castCondition": {
          "pose": [201],
          "pickRangeMax": 7.5
        },
        "cd": 3.0,
        "publicCDGroup": "",
        "triggerCDOnStart": true,
        "HHAGODJIAPE": "",
        "stateIDs": ["IceBullet"],
        "flagTargetReachable": "11",
        "flagSelfOnTemplateCollider": "11",
        "flagSelfInZone": "11",
        "flagTargetInZone": "11"
      }
    },
    "skillGCD": 0.0,
    "target": {
      "defaultTargetPrioritys": ["COMMAND", "THREAT"]
    },
    "birdCirclingTactic": [
      {
        "$type": "HIDNCFNBCBG",
        "enable": true,
        "condition": {
          "pose": [101, 201, 301]
        },
        "JMCOBEPDIGM": {
          "HJODGEKLAAK": 3.0,
          "raycastType": "DownToGroundAndWaterOnlyInAir"
        }
      },
      {
        "$type": "EPPOBBAEPED",
        "enable": true,
        "condition": {
          "pose": [201, 301]
        },
        "JMCOBEPDIGM": {
          "FAKGFIDPCFL": 5.5,
          "GHCEDMEHKLN": 5.0,
          "ONFAMCFCNFM": 0.0,
          "MNPDDAKDHGK": "",
          "GJDMDHIBCME": ""
        }
      },
      {
        "$type": "MCDGOJLCMBM",
        "JMCOBEPDIGM": {
          "MNPDDAKDHGK": "",
          "GJDMDHIBCME": ""
        }
      },
      {
        "$type": "COLLJLNKMLC",
        "JMCOBEPDIGM": {
          "MNPDDAKDHGK": "",
          "GJDMDHIBCME": "",
          "BBPDJAFOGPF": true,
          "PLLHMGHOAPB": "",
          "KPIJNGFNAEF": "",
          "GDPHPLKJGAJ": "",
          "KKKOAABEHEP": ""
        }
      },
      {
        "$type": "NNJKLGNPMNN",
        "enable": true,
        "condition": {
          "pose": [901, 902]
        },
        "JMCOBEPDIGM": {
          "ACOBCFCMBOC": "Spacial",
          "MNPDDAKDHGK": "",
          "GJDMDHIBCME": "",
          "IAJDAHDAEFP": true,
          "OILAIKJEIGB": false
        }
      }
    ]
  },
  "inputKeys": [
    {
      "keyID": 100,
      "inputKeyCode": 257,
      "abilityName": ""
    },
    {
      "keyID": 201,
      "inputKeyCode": 258,
      "abilityName": ""
    },
    {
      "keyID": 301,
      "inputKeyCode": 259,
      "abilityName": ""
    },
    {
      "keyID": 501,
      "inputKeyCode": 261,
      "abilityName": ""
    },
    {
      "keyID": 601,
      "inputKeyCode": 262,
      "abilityName": ""
    },
    {
      "keyID": 701,
      "inputKeyCode": 263,
      "abilityName": ""
    },
    {
      "keyID": 801,
      "inputKeyCode": 264,
      "abilityName": ""
    }
  ],
  "move": {
    "$type": "IPNMJMHDMPF",
    "velocityForce": {
      "excludeForces": ["RetreatAirType"]
    },
    "handleCombatTaskImmediately": true,
    "moveOnWater": true,
    "raycasts": [
      {
        "raycastLength": 5.0,
        "raycastType": "DownToGroundAndWaterOnlyInAir",
        "startPoint": ""
      }
    ],
    "facingMove": "AirBlend",
    "airFacingMove": "AirBlend",
    "monsterSizeType": "SlimeType",
    "yawSpeedRatio": 2.0,
    "PKHOMJHFAEE": "RootNode"
  },
  "audio": {
    "overrideEmitterName": "",
    "animAudio": {
      "onTransitionIn": [
        {
          "currentStateName": "",
          "audioEvent": {
            "text": ""
          }
        }
      ],
      "onTransitionOut": [
        {
          "currentStateName": "",
          "audioEvent": {
            "text": ""
          }
        }
      ]
    }
  }
}
