{
  "common": {
    "effectAttachShape": {
      "$type": "FJNPJANPGGC",
      "mesh": "EffectMesh"
    },
    "mass": 10000.0,
    "height": 2.0,
    "modelHeight": 2.200000047683716,
    "viewSize": 1.5,
    "affectedByWorld": true,
    "checkInSurface": true,
    "useGrassDisplacement": true,
    "reconnectSupport": true,
    "recoverByInitPose": true
  },
  "headControl": {
    "$type": "KPIPDEBDPIH",
    "useHeadControl": true,
    "maxYawDegree": 20.0,
    "maxPitchDegree": 5.0,
    "animStates": [
      "NormalIdle/Standby",
      "NormalMove/WalkForward",
      "NormalMove/WalkBack",
      "NormalMove/WalkRight",
      "NormalMove/WalkLeft",
      "TurnLeft/TurnLeft",
      "TurnRight/TurnRight"
    ]
  },
  "model": {
    "bornEffect": "Eff_Monster_Common_Born",
    "attachEffect": "",
    "BKPFGNPLDNJ": ""
  },
  "dither": {
    "showDitherDuration": 2.0
  },
  "combat": {
    "property": {
      "endureType": "Monster_Grunt_Other",
      "weight": 80.0
    },
    "beHit": {
      "hitBloodEffect": ""
    },
    "combatLock": {
      "lockShape": "CircleLockEnemy",
      "lockType": "Avatar&Monster_Lv4"
    },
    "die": {
      "hasAnimatorDie": true,
      "dieEndTime": 2.0,
      "dieForceDisappearTime": 2.0,
      "dieDisappearEffect": "Eff_Death_Avatar_Common",
      "dieShaderData": "AvatarDie",
      "useRagDoll": true,
      "ragDollDieEndTimeDelay": 1.0,
      "muteHitBox": true,
      "dieDenyLockOn": true,
      "dieIsGhostToEnemy": true,
      "dieIgnoreTriggerBullet": true,
      "muteBillboard": true,
      "mutePushCollider": true
    }
  },
  "equipController": {
    "sheathPoint": "",
    "attachPoints": {
      "equip01": "WeaponR",
      "equip02": ""
    }
  },
  "abilities": [
    {
      "abilityID": "Rifle_Steer",
      "abilityName": "Monster_Skirmisher_Standard_Rifle_Fire_Steer",
      "abilityOverride": ""
    },
    {
      "abilityID": "Rifle_TriggerBullet",
      "abilityName": "Monster_Skirmisher_Male_Standard_Rifle_Fire_TriggerBullet",
      "abilityOverride": ""
    },
    {
      "abilityID": "Rifle_TriggerImproveBullet",
      "abilityName": "Monster_Skirmisher_Male_Standard_Rifle_Fire_TriggerPowerBullet",
      "abilityOverride": ""
    },
    {
      "abilityID": "Rifle_Improve",
      "abilityName": "Monster_Skirmisher_Standard_Rifle_Fire_Improve",
      "abilityOverride": ""
    },
    {
      "abilityID": "Rifle_Weak",
      "abilityName": "Monster_Skirmisher_Standard_Rifle_Fire_ExitWeak",
      "abilityOverride": ""
    },
    {
      "abilityID": "Monster_Skirmisher_Rifle_Fire_ForceImprove_Pose",
      "abilityName": "Monster_Skirmisher_Rifle_Fire_ForceImprove_Pose",
      "abilityOverride": ""
    },
    {
      "abilityID": "TriggerBurstBullet",
      "abilityName": "Monster_Skirmisher_Male_Standard_Rifle_Fire_TriggerBurstBullet",
      "abilityOverride": ""
    },
    {
      "abilityID": "EyeEffect",
      "abilityName": "Monster_Skirmisher_Standard_Rifle_Fire_EyeEffect",
      "abilityOverride": ""
    },
    {
      "abilityID": "RangeAtkCharge",
      "abilityName": "Monster_Skirmisher_Standard_Rifle_Fire_NoramalShoot_ChargeEffect",
      "abilityOverride": ""
    },
    {
      "abilityID": "PowerRangeAtkCharge",
      "abilityName": "Monster_Skirmisher_Standard_Rifle_Fire_ImproveShoot_ChargeEffect",
      "abilityOverride": ""
    },
    {
      "abilityID": "BurstRangeAtkCharge",
      "abilityName": "Monster_Skirmisher_Standard_Rifle_Fire_BurstShoot_ChargeEffect",
      "abilityOverride": ""
    },
    {
      "abilityID": "StruggleHideWeapon",
      "abilityName": "Monster_Skirmisher_Standard_Rifle_Fire_StruggleHideWeapon",
      "abilityOverride": ""
    },
    {
      "abilityID": "WeaponSpecialEffect",
      "abilityName": "Monster_Skirmisher_Standard_Rifle_Fire_WeaponSpecialState",
      "abilityOverride": ""
    },
    {
      "abilityID": "ReturnToBorn",
      "abilityName": "Monster_Skirmisher_Standard_Rifle_Fire_ReturnToBorn",
      "abilityOverride": ""
    },
    {
      "abilityID": "PreCombatReset",
      "abilityName": "Monster_Skirmisher_Rifle_Fire_PreCombatRecover",
      "abilityOverride": ""
    },
    {
      "abilityID": "Die",
      "abilityName": "Monster_Skirmisher_Standard_Rifle_Fire_Die",
      "abilityOverride": ""
    },
    {
      "abilityID": "Dodge",
      "abilityName": "Monster_Skirmisher_Rifle_Fire_JumpBack",
      "abilityOverride": ""
    },
    {
      "abilityID": "Monster_Skirmisher_Male_Standard_Rifle_Fire_Deathrattle",
      "abilityName": "Monster_Skirmisher_Male_Standard_Rifle_Fire_Deathrattle",
      "abilityOverride": ""
    },
    {
      "abilityID": "Monster_Skirmisher_Male_Standard_Rifle_Fire_Reimprove",
      "abilityName": "Monster_Skirmisher_Male_Standard_Rifle_Fire_Reimprove",
      "abilityOverride": ""
    },
    {
      "abilityID": "",
      "abilityName": "Monster_Skirmisher_Male_Standard_Rifle_Fire_Achievement",
      "abilityOverride": ""
    }
  ],
  "stateLayers": {
    "defaultLayer": {
      "$type": "GBGJJIIEMBD",
      "layerIndexName": "",
      "CPAANEIJCGD": "",
      "stateIDs": {
        "NormalIdle": {
          "$type": "NEDIFAKEGCO",
          "animatorStates": {
            "Standby": [],
            "Born": []
          },
          "canDoSkill": true,
          "canSyncMove": true,
          "resetAnimatorTriggerOnExit": ["DoSkill"]
        },
        "NormalMove": {
          "$type": "NEDIFAKEGCO",
          "animatorStates": {
            "WalkForward": ["Audio_Monster_Standard_Rifle_Fire_Walk_Footstep"],
            "WalkBack": ["Audio_Monster_Standard_Rifle_Fire_Walk_Footstep"],
            "WalkRight": ["Audio_Monster_Standard_Rifle_Fire_Walk_Footstep"],
            "WalkLeft": ["Audio_Monster_Standard_Rifle_Fire_Walk_Footstep"]
          },
          "canDoSkill": true,
          "canSyncMove": true,
          "resetAnimatorTriggerOnExit": ["DoSkill"],
          "canSteer": true
        },
        "Turn": {
          "$type": "NEDIFAKEGCO",
          "animatorStates": {
            "TurnLeft": ["Audio_Monster_Standard_Rifle_Fire_Walk_Footstep"],
            "TurnRight": ["Audio_Monster_Standard_Rifle_Fire_Walk_Footstep"]
          },
          "canDoSkill": true,
          "canSyncMove": true,
          "resetAnimatorTriggerOnExit": ["DoSkill"],
          "canSteer": true
        },
        "BeHit": {
          "$type": "NEDIFAKEGCO",
          "animatorStates": {
            "Hit_L": ["Audio_Monster_Standard_Rifle_Fire_Hit_L"],
            "Hit_H": ["Audio_Monster_Standard_Rifle_Fire_Hit_H"]
          },
          "resetAnimatorTriggerOnEnter": ["BeHit"],
          "resetAnimatorTriggerOnExit": ["DoSkill"]
        },
        "BeHitThrow": {
          "$type": "NEDIFAKEGCO",
          "animatorStates": {
            "HitThrow": [],
            "HitThrowDrop": [],
            "HitThrowToGround": [
              "Audio_Monster_Standard_Rifle_Fire_HitThrowToGround"
            ]
          },
          "resetAnimatorTriggerOnEnter": ["BeHit", "HitAir2HitDrop"],
          "resetAnimatorTriggerOnExit": ["DoSkill"]
        },
        "Struggle": {
          "$type": "NEDIFAKEGCO",
          "animatorStates": {
            "Struggle": []
          },
          "resetAnimatorTriggerOnEnter": ["BeHit", "HitAir2HitDrop"],
          "resetAnimatorTriggerOnExit": ["DoSkill"]
        },
        "Die": {
          "$type": "NEDIFAKEGCO",
          "animatorStates": {
            "Die1": ["Monster_Skirmisher_Male_Standard_Rifle_Fire_Die"],
            "Die2": [
              "Monster_Skirmisher_Male_Standard_Rifle_Fire_Die",
              "Audio_Monster_Natlan_Standard_Rifle_Fire_Die"
            ],
            "SwimDie": [],
            "SwimDie_AS": []
          },
          "resetAnimatorTriggerOnEnter": ["DoSkill"]
        },
        "Die_RagDoll": {
          "$type": "NEDIFAKEGCO",
          "animatorStates": {
            "AirDie": []
          },
          "resetAnimatorTriggerOnEnter": ["DoSkill"],
          "enableRagDoll": true
        },
        "Alert": {
          "$type": "NEDIFAKEGCO",
          "animatorStates": {
            "Alert": [
              "Monster_Skirmisher_Male_Standard_Rifle_Fire_Alert",
              "Audio_Monster_Natlan_Standard_Rifle_Fire_Alert"
            ]
          },
          "resetAnimatorTriggerOnExit": ["BeHit", "DoSkill"],
          "canSteer": true
        },
        "ShowWeapon": {
          "$type": "NEDIFAKEGCO",
          "animatorStates": {
            "ShowWeapon": [
              "Monster_Skirmisher_Male_Standard_Rifle_Fire_Alert",
              "Monster_Skirmisher_Male_Standard_Rifle_PreCombat"
            ]
          },
          "resetAnimatorTriggerOnExit": ["BeHit", "DoSkill"],
          "canSteer": true
        },
        "Improve": {
          "$type": "NEDIFAKEGCO",
          "animatorStates": {
            "Improve": [
              "Monster_Skirmisher_Male_Standard_Rifle_Fire_Improve",
              "Audio_Monster_Standard_Rifle_Fire_Improve"
            ]
          },
          "addEndure": 0.0,
          "massRatio": 20.0,
          "resetAnimatorTriggerOnExit": ["BeHit", "DoSkill"]
        },
        "RangeAtk": {
          "$type": "NEDIFAKEGCO",
          "animatorStates": {
            "RangeAtk": [
              "Monster_Skirmisher_Male_Standard_Rifle_Fire_RangAtk",
              "Audio_Monster_Standard_Rifle_Fire_RangeAtk"
            ],
            "Dodge_RangeAtk": [
              "Monster_Skirmisher_Male_Standard_Rifle_Fire_RangAtk",
              "Audio_Monster_Standard_Rifle_Fire_Dodge_RangeAtk"
            ],
            "BurstRangeAtk": [
              "Monster_Skirmisher_Male_Standard_Rifle_Fire_BurstRangeAtk",
              "Audio_Monster_Standard_Rifle_Fire_BurstRangeAtk"
            ]
          },
          "addEndure": 0.0,
          "massRatio": 20.0,
          "resetAnimatorTriggerOnExit": ["BeHit", "DoSkill"],
          "canSteer": true
        },
        "ImprovedRangeAtk": {
          "$type": "NEDIFAKEGCO",
          "animatorStates": {
            "PowerRangeAtk": [
              "Monster_Skirmisher_Male_Standard_Rifle_Fire_ImproveRangeAtk",
              "Audio_Monster_Standard_Rifle_Fire_PowerRangeAtk"
            ]
          },
          "addEndure": 0.0,
          "massRatio": 20.0,
          "resetAnimatorTriggerOnExit": ["BeHit", "DoSkill"],
          "canSteer": true
        },
        "DodgeState": {
          "$type": "NEDIFAKEGCO",
          "animatorStates": {
            "DodgeOnce": [
              "Monster_Skirmisher_Male_Standard_Rifle_Fire_DodgeEffect",
              "Audio_Monster_Standard_Rifle_Fire_Dodge"
            ],
            "DodgeTwice_1": [
              "Monster_Skirmisher_Male_Standard_Rifle_Fire_DodgeEffect",
              "Audio_Monster_Standard_Rifle_Fire_StrengthenDodge"
            ]
          },
          "addEndure": 0.0,
          "massRatio": 20.0,
          "resetAnimatorTriggerOnExit": ["BeHit", "DoSkill", "BlinkOver"],
          "canSteer": true
        },
        "Weak": {
          "$type": "NEDIFAKEGCO",
          "animatorStates": {
            "Weak_BS": ["Audio_Monster_Standard_Rifle_Fire_Weak_BS"],
            "Weak_Loop": [],
            "Weak_AS": ["Audio_Monster_Standard_Rifle_Fire_Weak_AS"]
          },
          "addEndure": 0.0,
          "massRatio": 20.0,
          "resetAnimatorTriggerOnEnter": ["WeakStart"],
          "resetAnimatorTriggerOnExit": ["BeHit", "DoSkill"]
        },
        "Search": {
          "$type": "NEDIFAKEGCO",
          "animatorStates": {
            "Search": []
          },
          "canDoSkill": true,
          "resetAnimatorTriggerOnExit": ["BeHit", "DoSkill"]
        },
        "Attention": {
          "$type": "NEDIFAKEGCO",
          "animatorStates": {
            "AttentionBS": [],
            "AttentionLoop": [],
            "AttentionAS": []
          },
          "canDoSkill": true,
          "resetAnimatorTriggerOnExit": ["BeHit", "DoSkill"]
        },
        "Afraid": {
          "$type": "NEDIFAKEGCO",
          "animatorStates": {
            "AfraidBS": [],
            "AfraidLoop": [],
            "AfraidAS": []
          },
          "canDoSkill": true,
          "resetAnimatorTriggerOnExit": ["BeHit", "DoSkill"]
        },
        "Talk": {
          "$type": "NEDIFAKEGCO",
          "animatorStates": {
            "TalkBS": [],
            "TalkLoop": [],
            "TalkAS": []
          },
          "canDoSkill": true,
          "resetAnimatorTriggerOnExit": ["BeHit", "DoSkill"]
        },
        "Think": {
          "$type": "NEDIFAKEGCO",
          "animatorStates": {
            "Think": []
          },
          "canDoSkill": true,
          "resetAnimatorTriggerOnExit": ["BeHit", "DoSkill"]
        },
        "Agree": {
          "$type": "NEDIFAKEGCO",
          "animatorStates": {
            "Agree": []
          },
          "canDoSkill": true,
          "resetAnimatorTriggerOnExit": ["BeHit", "DoSkill"]
        },
        "Threat": {
          "$type": "NEDIFAKEGCO",
          "animatorStates": {
            "Threat": []
          },
          "canDoSkill": true,
          "resetAnimatorTriggerOnExit": ["BeHit", "DoSkill"]
        }
      }
    }
  },
  "billboard": {
    "$type": "DNGNMAJBCNP",
    "attachPoint": "BillboardAttach",
    "offsetType": "Character",
    "showHPBar": true,
    "forceShowDistance": 50.0
  },
  "initialPoses": {
    "Default": {},
    "Search": {
      "initialPoseID": 9001,
      "initialPoseParams": {
        "boolParams": {
          "Search": "true"
        }
      }
    },
    "Attention": {
      "initialPoseID": 9002,
      "initialPoseParams": {
        "boolParams": {
          "Attention": "true"
        }
      }
    },
    "Afraid": {
      "initialPoseID": 9003,
      "initialPoseParams": {
        "boolParams": {
          "Afraid": "true"
        }
      }
    },
    "Talk": {
      "initialPoseID": 9011,
      "initialPoseParams": {
        "boolParams": {
          "Talk": "true"
        }
      }
    },
    "Think": {
      "initialPoseID": 9012,
      "initialPoseParams": {
        "boolParams": {
          "Think": "true"
        }
      }
    },
    "Agree": {
      "initialPoseID": 9013,
      "initialPoseParams": {
        "boolParams": {
          "Agree": "true"
        }
      }
    },
    "Threat": {
      "initialPoseID": 9014,
      "initialPoseParams": {
        "boolParams": {
          "Threat": "true"
        }
      }
    }
  },
  "aibeta": {
    "enable": true,
    "aiCombat": {
      "combatRole": "MAGE"
    },
    "buddySetting": {
      "enable": true,
      "buddyFeatureTagIDs": [4009]
    },
    "sensing": {
      "settings": {
        "DefaultSetting": {
          "viewRange": 25.0,
          "feelRange": 10.0
        },
        "NeverCombat": {
          "enableVision": false,
          "hearAttractionRange": 0.0,
          "feelRange": 0.0
        },
        "CannonV42": {
          "viewRange": 10.0,
          "hearAttractionRange": 0.0,
          "feelRange": 0.0
        },
        "BiggerSenseArea": {
          "feelRange": 30.0
        }
      },
      "templates": {
        "DefaultTemplate": {
          "DefaultPoses": "DefaultSetting",
          "101": "BiggerSenseArea",
          "102": "BiggerSenseArea",
          "103": "BiggerSenseArea",
          "104": "BiggerSenseArea",
          "105": "BiggerSenseArea",
          "201": "BiggerSenseArea",
          "202": "BiggerSenseArea",
          "301": "BiggerSenseArea"
        },
        "NeverCombatTemplate": {
          "DefaultPoses": "NeverCombat"
        },
        "CannonV42": {
          "DefaultPoses": "CannonV42"
        }
      }
    },
    "neurons": {
      "DefaultSetting": ["HIT"],
      "NeverCombat": []
    },
    "threat": {
      "GHIJMOKOLMB": "",
      "clearThreatByLostPath": true,
      "clearThreatTimerByLostPath": 11.0,
      "viewAttenuation": [
        {
          "x": 10.0,
          "y": 2.0
        },
        {
          "x": 15.0,
          "y": 0.800000011920929
        },
        {
          "x": 20.0,
          "y": 0.5
        },
        {
          "x": 25.0,
          "y": 0.30000001192092896
        },
        {
          "x": 30.0,
          "y": 0.20000000298023224
        }
      ],
      "resistTauntLevel": "Monster_TauntLevel_4"
    },
    "defendArea": {
      "defendRange": 50.0
    },
    "command": {
      "enable": true
    },
    "skillGroupCDConfigs": [
      {
        "skillGroupCDID": 0,
        "skillGroupCDTime": 5.0
      },
      {
        "skillGroupCDID": 1,
        "skillGroupCDTime": 10.0
      },
      {
        "skillGroupCDID": 2,
        "skillGroupCDTime": 15.0
      },
      {
        "skillGroupCDID": 3,
        "skillGroupCDTime": 60.0
      }
    ],
    "skills": {
      "1": {
        "name": "OnAlert",
        "skillType": "OnAlert",
        "faceTarget": true,
        "castCondition": {
          "pose": [9001, 9002, 9003, 9011, 9012, 9013, 9014]
        },
        "publicCDGroup": "",
        "ignoreGCD": true,
        "triggerGCD": false,
        "HHAGODJIAPE": "",
        "stateIDs": ["Alert", "ShowWeapon"],
        "skillQueryingTime": 3.0,
        "flagTargetReachable": "10",
        "flagSelfOnTemplateCollider": "01",
        "flagSelfInZone": "10",
        "flagTargetInZone": "11"
      },
      "2": {
        "name": "OnAlert",
        "skillType": "OnNerve",
        "faceTarget": true,
        "castCondition": {
          "pose": [1, 9001, 9002, 9003, 9011, 9012, 9013, 9014]
        },
        "publicCDGroup": "",
        "triggerGCD": false,
        "HHAGODJIAPE": "",
        "stateIDs": ["Alert"],
        "skillQueryingTime": 3.0,
        "flagTargetReachable": "10",
        "flagSelfOnTemplateCollider": "01",
        "flagSelfInZone": "10",
        "flagTargetInZone": "11",
        "nerveTrigger": ["HIT"]
      },
      "3": {
        "name": "OnAlert",
        "skillType": "OnAlert",
        "faceTarget": true,
        "castCondition": {
          "pose": [1]
        },
        "publicCDGroup": "",
        "ignoreGCD": true,
        "triggerGCD": false,
        "HHAGODJIAPE": "",
        "stateIDs": ["Alert"],
        "skillQueryingTime": 3.0,
        "flagTargetReachable": "10",
        "flagSelfOnTemplateCollider": "01",
        "flagSelfInZone": "10",
        "flagTargetInZone": "11"
      },
      "101": {
        "name": "RangeAtk",
        "priority": 4,
        "castCondition": {
          "pose": [101, 103],
          "pickRangeMax": 25.0
        },
        "cd": 5.0,
        "cdUpperRange": 2.5,
        "initialCD": 1.0,
        "publicCDGroup": "",
        "HHAGODJIAPE": "",
        "stateIDs": ["RangeAtk"],
        "skillQueryingTime": 2.0,
        "flagTargetReachable": "11",
        "flagSelfOnTemplateCollider": "01",
        "flagSelfInZone": "11",
        "flagTargetInZone": "11"
      },
      "102": {
        "name": "ImproveRangeAtk",
        "castCondition": {
          "pose": [201],
          "pickRangeMax": 25.0
        },
        "cd": 5.0,
        "cdUpperRange": 2.5,
        "initialCD": 1.0,
        "publicCDGroup": "",
        "HHAGODJIAPE": "",
        "stateIDs": ["ImprovedRangeAtk"],
        "skillQueryingTime": 2.0,
        "flagTargetReachable": "11",
        "flagSelfOnTemplateCollider": "01",
        "flagSelfInZone": "11",
        "flagTargetInZone": "11"
      },
      "103": {
        "name": "RangeAtk",
        "priority": 2,
        "castCondition": {
          "pose": [201],
          "pickRangeMax": 25.0,
          "globalValues": [
            "_SKIRMISHER_ELEMENT_ELECTRIC_",
            "_SKIRMISHER_ELEMENT_WATER_",
            "_SKIRMISHER_ELEMENT_ICE_"
          ],
          "globalValuesLogicAnd": false
        },
        "cd": 8.0,
        "publicCDGroup": "",
        "ignoreGCD": true,
        "HHAGODJIAPE": "",
        "stateIDs": ["RangeAtk"],
        "skillQueryingTime": 2.0,
        "flagTargetReachable": "11",
        "flagSelfOnTemplateCollider": "01",
        "flagSelfInZone": "11",
        "flagTargetInZone": "11"
      },
      "104": {
        "name": "RangeAtk",
        "priority": 4,
        "castCondition": {
          "pose": [104, 105],
          "pickRangeMax": 35.0
        },
        "publicCDGroup": "",
        "HHAGODJIAPE": "",
        "stateIDs": ["RangeAtk"],
        "skillQueryingTime": 2.0,
        "flagTargetReachable": "11",
        "flagSelfOnTemplateCollider": "01",
        "flagSelfInZone": "11",
        "flagTargetInZone": "11"
      },
      "105": {
        "name": "ImproveRangeAtk",
        "priority": 4,
        "castCondition": {
          "pose": [202],
          "pickRangeMax": 35.0
        },
        "publicCDGroup": "",
        "HHAGODJIAPE": "",
        "stateIDs": ["ImprovedRangeAtk"],
        "skillQueryingTime": 2.0,
        "flagTargetReachable": "11",
        "flagSelfOnTemplateCollider": "01",
        "flagSelfInZone": "11",
        "flagTargetInZone": "11"
      },
      "201": {
        "name": "Dodge",
        "priority": 2,
        "castCondition": {
          "pose": [101, 103],
          "pickRangeMax": 5.0
        },
        "cd": 15.0,
        "cdUpperRange": 2.5,
        "initialCD": 3.0,
        "publicCDGroup": "",
        "ignoreGCD": true,
        "HHAGODJIAPE": "",
        "stateIDs": ["DodgeState"],
        "skillQueryingTime": 3.0,
        "flagTargetReachable": "11",
        "flagSelfOnTemplateCollider": "01",
        "flagSelfInZone": "11",
        "flagTargetInZone": "11"
      },
      "202": {
        "name": "Dodge",
        "priority": 3,
        "castCondition": {
          "pose": [201],
          "pickRangeMax": 5.0
        },
        "cd": 10.0,
        "cdUpperRange": 2.5,
        "initialCD": 3.0,
        "publicCDGroup": "",
        "ignoreGCD": true,
        "HHAGODJIAPE": "",
        "stateIDs": ["DodgeState"],
        "skillQueryingTime": 3.0,
        "flagTargetReachable": "11",
        "flagSelfOnTemplateCollider": "01",
        "flagSelfInZone": "11",
        "flagTargetInZone": "11"
      },
      "401": {
        "name": "Improve",
        "priority": 2,
        "castCondition": {
          "pose": [101, 104, 105]
        },
        "cd": 90.0,
        "cdUpperRange": 10.0,
        "initialCD": 1.0,
        "publicCDGroup": "",
        "triggerGCD": false,
        "HHAGODJIAPE": "",
        "stateIDs": ["Improve"],
        "skillQueryingTime": 3.0,
        "flagTargetReachable": "10",
        "flagSelfOnTemplateCollider": "01",
        "flagSelfInZone": "10",
        "flagTargetInZone": "11"
      },
      "402": {
        "name": "Improve",
        "priority": 2,
        "castCondition": {
          "pose": [102]
        },
        "cd": 20.0,
        "publicCDGroup": "",
        "HHAGODJIAPE": "",
        "stateIDs": ["Improve"],
        "skillQueryingTime": 3.0,
        "flagTargetReachable": "10",
        "flagSelfOnTemplateCollider": "01",
        "flagSelfInZone": "10",
        "flagTargetInZone": "11"
      },
      "403": {
        "name": "Improve",
        "priority": 2,
        "castCondition": {
          "pose": [103, 104, 105]
        },
        "cd": 90.0,
        "cdUpperRange": 10.0,
        "initialCD": 20.0,
        "initialCDUpperRange": 20.0,
        "publicCDGroup": "",
        "triggerGCD": false,
        "HHAGODJIAPE": "",
        "stateIDs": ["Improve"],
        "skillQueryingTime": 3.0,
        "flagTargetReachable": "10",
        "flagSelfOnTemplateCollider": "01",
        "flagSelfInZone": "10",
        "flagTargetInZone": "11"
      },
      "404": {
        "name": "Improve",
        "priority": 1,
        "castCondition": {
          "pose": [101, 102, 103, 104, 105, 201, 202, 301]
        },
        "cd": 100000000.0,
        "initialCD": 100000000.0,
        "publicCDGroup": "",
        "ignoreGCD": true,
        "triggerGCD": false,
        "HHAGODJIAPE": "",
        "stateIDs": ["Improve"],
        "skillQueryingTime": 3.0,
        "flagTargetReachable": "10",
        "flagSelfOnTemplateCollider": "01",
        "flagSelfInZone": "10",
        "flagTargetInZone": "11"
      },
      "9001": {
        "name": "Search",
        "skillType": "Free",
        "castCondition": {
          "pose": [9001]
        },
        "cd": 5.0,
        "cdUpperRange": 1.0,
        "publicCDGroup": "",
        "HHAGODJIAPE": "",
        "stateIDs": ["Search"],
        "flagTargetReachable": "10",
        "flagSelfOnTemplateCollider": "01",
        "flagSelfInZone": "10",
        "flagTargetInZone": "11"
      },
      "9002": {
        "name": "Attention",
        "skillType": "Free",
        "castCondition": {
          "pose": [9002]
        },
        "cd": 5.0,
        "cdUpperRange": 1.0,
        "publicCDGroup": "",
        "HHAGODJIAPE": "",
        "stateIDs": ["Attention"],
        "flagTargetReachable": "10",
        "flagSelfOnTemplateCollider": "01",
        "flagSelfInZone": "10",
        "flagTargetInZone": "11"
      },
      "9003": {
        "name": "Afraid",
        "skillType": "Free",
        "castCondition": {
          "pose": [9003]
        },
        "cd": 5.0,
        "cdUpperRange": 1.0,
        "publicCDGroup": "",
        "HHAGODJIAPE": "",
        "stateIDs": ["Afraid"],
        "flagTargetReachable": "10",
        "flagSelfOnTemplateCollider": "01",
        "flagSelfInZone": "10",
        "flagTargetInZone": "11"
      },
      "9011": {
        "name": "Talk",
        "skillType": "Free",
        "castCondition": {
          "pose": [9011]
        },
        "cd": 5.0,
        "cdUpperRange": 1.0,
        "publicCDGroup": "",
        "HHAGODJIAPE": "",
        "stateIDs": ["Talk"],
        "flagTargetReachable": "10",
        "flagSelfOnTemplateCollider": "01",
        "flagSelfInZone": "10",
        "flagTargetInZone": "11"
      },
      "9012": {
        "name": "Think",
        "skillType": "Free",
        "castCondition": {
          "pose": [9012]
        },
        "cd": 5.0,
        "cdUpperRange": 1.0,
        "publicCDGroup": "",
        "HHAGODJIAPE": "",
        "stateIDs": ["Think"],
        "flagTargetReachable": "10",
        "flagSelfOnTemplateCollider": "01",
        "flagSelfInZone": "10",
        "flagTargetInZone": "11"
      },
      "9013": {
        "name": "Agree",
        "skillType": "Free",
        "castCondition": {
          "pose": [9013]
        },
        "cd": 5.0,
        "cdUpperRange": 1.0,
        "publicCDGroup": "",
        "HHAGODJIAPE": "",
        "stateIDs": ["Agree"],
        "flagTargetReachable": "10",
        "flagSelfOnTemplateCollider": "01",
        "flagSelfInZone": "10",
        "flagTargetInZone": "11"
      },
      "9014": {
        "name": "Threat",
        "skillType": "Free",
        "castCondition": {
          "pose": [9014]
        },
        "cd": 5.0,
        "cdUpperRange": 1.0,
        "publicCDGroup": "",
        "HHAGODJIAPE": "",
        "stateIDs": ["Threat"],
        "flagTargetReachable": "10",
        "flagSelfOnTemplateCollider": "01",
        "flagSelfInZone": "10",
        "flagTargetInZone": "11"
      }
    },
    "skillGCD": 2.0,
    "target": {
      "defaultTargetPrioritys": ["COMMAND", "POINT", "THREAT"]
    },
    "birdCirclingTactic": [
      {
        "$type": "EPHBMLFODKF",
        "enable": true,
        "condition": {
          "pose": [101, 201, 103]
        },
        "JMCOBEPDIGM": {
          "rangeMin": 5.0,
          "rangeMax": 20.0,
          "JOJBOHEDBHC": 2.0,
          "AFILKAGDAHN": 3.0,
          "ALIBHHJHHMN": 2.5,
          "OMHBOLPFEPM": 1.0,
          "BFJBDDIIFOI": {
            "LLICGJHIGME": 0.0,
            "IDEFILBHNAP": 0.0,
            "IBLIPJPNOGC": 0.0,
            "AEBLMKFNCDG": 2.0,
            "IGLIBIOEGBB": 2.0
          },
          "NAOBMNGDKHL": "1111",
          "JCNIJOAIGII": "1111",
          "MNPDDAKDHGK": ""
        }
      },
      {
        "$type": "KACCHOLJDNK",
        "enable": true,
        "condition": {
          "pose": [101, 201, 103]
        },
        "JMCOBEPDIGM": {
          "ANLAAGAMIKF": 1,
          "KHDFDAAAPEI": 20.0,
          "HKJODDGJPHA": 99.0,
          "GGEBMFHFBPO": 20.0,
          "KFFGCIMPNMJ": 0.0,
          "MNPDDAKDHGK": ""
        }
      },
      {
        "$type": "NNJKLGNPMNN",
        "enable": true,
        "JMCOBEPDIGM": {
          "ANLAAGAMIKF": 1,
          "MNPDDAKDHGK": "",
          "GJDMDHIBCME": "",
          "JJJLPMLDNAJ": 15.0
        }
      },
      {
        "$type": "FPELBIJFGCE",
        "enable": true,
        "condition": {
          "pose": [1, 2, 3]
        },
        "JMCOBEPDIGM": {
          "NBENNEKDIIA": 1.0,
          "KPNDPKIOPJM": 5.0,
          "PINAFKEDDLL": 2.5,
          "ANMPOPEBDIA": 15.0,
          "GMJFIMFFOEL": 5.0,
          "CHCPFDMADEI": 7.5,
          "MNPDDAKDHGK": ""
        }
      },
      {
        "$type": "OLKHLDJJEOM",
        "enable": true,
        "condition": {
          "pose": [101, 102, 201, 103]
        },
        "JMCOBEPDIGM": {
          "ANLAAGAMIKF": 1,
          "LEGOOCKKGNE": 20.0,
          "GGEBMFHFBPO": 8.0,
          "waitTime": 0.0
        }
      }
    ]
  },
  "inputKeys": [
    {
      "keyID": 101,
      "inputKeyCode": 257,
      "abilityName": ""
    },
    {
      "keyID": 102,
      "inputKeyCode": 258,
      "abilityName": ""
    },
    {
      "keyID": 103,
      "inputKeyCode": 259,
      "abilityName": ""
    },
    {
      "keyID": 401,
      "inputKeyCode": 260,
      "abilityName": ""
    },
    {
      "keyID": 201,
      "inputKeyCode": 261,
      "abilityName": ""
    },
    {
      "keyID": 202,
      "inputKeyCode": 262,
      "abilityName": ""
    },
    {
      "keyID": 9001,
      "inputKeyCode": 263,
      "abilityName": ""
    },
    {
      "keyID": 9011,
      "inputKeyCode": 264,
      "abilityName": ""
    }
  ],
  "move": {
    "$type": "IPNMJMHDMPF",
    "facingMove": "FourDirection",
    "monsterSizeType": "NormalHumanoidType",
    "positionModifyState": "Walk",
    "PKHOMJHFAEE": "RootNode"
  },
  "audio": {
    "overrideEmitterName": "",
    "animAudio": {
      "onTransitionIn": [
        {
          "currentStateName": "Weak_Loop",
          "audioEvent": {
            "text": "Play_sfx_monster_rifle_fire_weak_Loop"
          }
        }
      ],
      "onTransitionOut": [
        {
          "currentStateName": "Weak_Loop",
          "audioEvent": {
            "text": "Stop_sfx_monster_rifle_fire_weak_Loop"
          }
        }
      ]
    },
    "disableEvent": {
      "text": ""
    },
    "destroyEvent": {
      "text": ""
    },
    "behaviours": [
      {
        "$type": "BILJOKAHFPL",
        "coolDown": 5.0,
        "BGIEINMDECM": {
          "$type": "IFGMCBBGLDI",
          "LIHPNFLLKDA": {
            "$type": "LFOALDLDGDN"
          },
          "ACMFKGCEPBN": {
            "$type": "IFGMCBBGLDI",
            "LIHPNFLLKDA": {
              "$type": "EAIMKFLEHCC"
            },
            "ACMFKGCEPBN": {
              "$type": "JOPFGOEOKPH",
              "target": {
                "$type": "OJKONELIJJC"
              }
            }
          }
        },
        "onKill": [
          {
            "$type": "DELPJNMAIHM",
            "OPEMPFCFHMO": "__DefaultSync__",
            "action": {
              "$type": "CPBMHBHJPKE",
              "eventName": {
                "text": "Play_vo_monster_skirmisher_natalan_m_remote_fire_SpecialKillAvatar_01"
              }
            }
          }
        ]
      }
    ]
  }
}
