{
  "common": {
    "effectAttachShape": {
      "$type": "FJNPJANPGGC",
      "mesh": "EffectMesh"
    },
    "mass": 10000.0,
    "height": 2.700000047683716,
    "modelHeight": 2.700000047683716,
    "viewSize": 2.0,
    "affectedByWorld": true,
    "checkInSurface": true,
    "useGrassDisplacement": true,
    "clearAnimatorOnSetLightDeactive": true,
    "clearAIOnSetLightDeactive": true
  },
  "headControl": {
    "$type": "KPIPDEBDPIH",
    "useHeadControl": true,
    "maxYawDegree": 10.0,
    "maxPitchDegree": 5.0,
    "animStates": ["NormalIdle/Standby", "NormalMove/Walk"]
  },
  "model": {
    "bornEffect": "Eff_Monster_Invoker_Born",
    "attachEffect": "",
    "BKPFGNPLDNJ": ""
  },
  "dither": {
    "showDitherDuration": 2.0
  },
  "combat": {
    "property": {
      "endureType": "Monster_Demiboss_Humanoid",
      "weight": 150.0
    },
    "beHit": {
      "hitBloodEffect": ""
    },
    "combatLock": {
      "lockShape": "CircleLockEnemy",
      "lockType": "Avatar&Monster_Lv4"
    },
    "die": {
      "hasAnimatorDie": true,
      "dieEndTime": 2.5,
      "dieForceDisappearTime": 5.0,
      "dieDisappearEffect": "Eff_Death_Avatar_Common",
      "dieShaderData": "AvatarDie",
      "muteHitBox": true,
      "dieDenyLockOn": true,
      "dieIsGhostToEnemy": true,
      "dieIgnoreTriggerBullet": true,
      "muteBillboard": true,
      "mutePushCollider": true
    },
    "animEvents": {
      "MeleeAtk": {
        "attackPattern": {
          "$type": "ConfigAttackSphere",
          "triggerType": "TriggerNoRepeat",
          "born": {
            "$type": "ConfigBornBySelf",
            "offset": {
              "x": 0.0,
              "y": 2.5,
              "z": 0.0
            }
          },
          "radius": 8.0
        },
        "attackInfo": {
          "attackTag": "",
          "attenuationTag": "",
          "attenuationGroup": "default",
          "attackProperty": {
            "actorGrassSubHurtDelta": 1.0,
            "actorWindSubHurtDelta": 0.0,
            "elementType": "Electric",
            "elementDurability": 50.0,
            "strikeType": "Default",
            "enBreak": 200.0,
            "GLKMCMDJBIK": 0.0
          },
          "hitPattern": {
            "onHitEffectName": "default",
            "hitImpulseY": "",
            "hitImpulseType": "LV5"
          }
        }
      },
      "TransformAtk": {
        "attackPattern": {
          "$type": "ConfigAttackCircle",
          "triggerType": "TriggerNoRepeat",
          "born": {
            "$type": "ConfigBornBySelf",
            "offset": {
              "x": 0.0,
              "y": -1.0,
              "z": 0.0
            }
          },
          "height": 4.0,
          "radius": 10.0
        },
        "attackInfo": {
          "attackTag": "",
          "attenuationTag": "",
          "attenuationGroup": "default",
          "attackProperty": {
            "actorGrassSubHurtDelta": 1.3329999446868896,
            "actorWindSubHurtDelta": 0.0,
            "elementType": "Electric",
            "elementDurability": 100.0,
            "strikeType": "Default",
            "enBreak": 200.0,
            "GLKMCMDJBIK": 0.0
          },
          "hitPattern": {
            "onHitEffectName": "default",
            "hitImpulseY": "",
            "hitImpulseType": "LV5"
          }
        }
      }
    }
  },
  "abilities": [
    {
      "abilityID": "AnimatorSteer",
      "abilityName": "Invoker_Deacon_Electric_AnimatorSteer",
      "abilityOverride": ""
    },
    {
      "abilityID": "Disappear",
      "abilityName": "Invoker_Deacon_Electric_Disappear",
      "abilityOverride": ""
    },
    {
      "abilityID": "NormalAtk",
      "abilityName": "Invoker_Deacon_Electric_NormalAtk",
      "abilityOverride": ""
    },
    {
      "abilityID": "RangeAtk",
      "abilityName": "Invoker_Deacon_Electric_RangeAtk",
      "abilityOverride": ""
    },
    {
      "abilityID": "ChargeAtk",
      "abilityName": "Invoker_Deacon_Electric_ChargeAtk_Detect",
      "abilityOverride": ""
    },
    {
      "abilityID": "ChargeAtk01",
      "abilityName": "Invoker_Deacon_Electric_ChargeAtk01",
      "abilityOverride": ""
    },
    {
      "abilityID": "ChargeAtk02",
      "abilityName": "Invoker_Deacon_Electric_ChargeAtk02",
      "abilityOverride": ""
    },
    {
      "abilityID": "StateControl",
      "abilityName": "Invoker_Deacon_Electric_StateControl",
      "abilityOverride": ""
    },
    {
      "abilityID": "Transform",
      "abilityName": "Invoker_Deacon_Electric_Transform",
      "abilityOverride": ""
    }
  ],
  "stateLayers": {
    "defaultLayer": {
      "$type": "GBGJJIIEMBD",
      "layerIndexName": "",
      "CPAANEIJCGD": "",
      "stateIDs": {
        "Born": {
          "$type": "NEDIFAKEGCO",
          "animatorStates": {
            "Born": []
          },
          "canDoSkill": true,
          "canSyncMove": true,
          "resetAnimatorTriggerOnExit": ["DoSkill"]
        },
        "NormalIdle": {
          "$type": "NEDIFAKEGCO",
          "animatorStates": {
            "Standby": []
          },
          "canDoSkill": true,
          "canSyncMove": true,
          "resetAnimatorTriggerOnExit": ["DoSkill"],
          "canSteer": true,
          "autoSteer": true
        },
        "NormalMove": {
          "$type": "NEDIFAKEGCO",
          "animatorStates": {
            "Walk": []
          },
          "canDoSkill": true,
          "canSyncMove": true,
          "resetAnimatorTriggerOnExit": ["DoSkill"],
          "canSteer": true
        },
        "BeHit": {
          "$type": "NEDIFAKEGCO",
          "animatorStates": {
            "Hit_L": ["Audio_Monster_Invoker_Deacon_Electric_HitL"],
            "Hit_H": ["Audio_Monster_Invoker_Deacon_Electric_HitH"]
          },
          "resetAnimatorTriggerOnEnter": ["BeHit"],
          "resetAnimatorTriggerOnExit": ["DoSkill"]
        },
        "Die": {
          "$type": "NEDIFAKEGCO",
          "animatorStates": {
            "Die": [
              "Monster_Invoker_Deacon_Electric_Die",
              "Audio_Monster_Invoker_Deacon_Electric_Die"
            ]
          }
        },
        "Disappear": {
          "$type": "NEDIFAKEGCO",
          "animatorStates": {
            "Disappear": ["Monster_Invoker_Deacon_Electric_Disappear"]
          }
        },
        "Alert": {
          "$type": "NEDIFAKEGCO",
          "animatorStates": {
            "Alert": [
              "Monster_Invoker_Deacon_Electric_Alert",
              "Audio_Monster_Invoker_Deacon_Electric_Alert"
            ]
          },
          "addEndure": 0.0,
          "resetAnimatorTriggerOnExit": ["BeHit", "DoSkill"]
        },
        "NormalAtk": {
          "$type": "NEDIFAKEGCO",
          "animatorStates": {
            "NormalAtk": [
              "Monster_Invoker_Deacon_Electric_NormalAtk",
              "Audio_Monster_Invoker_Deacon_Electric_NormalAtk",
              "Audio_Monster_Invoker_Deacon_Electric_NormalAtk_VO"
            ],
            "NormalAtk_Plus": [
              "Monster_Invoker_Deacon_Electric_NormalAtk",
              "Audio_Monster_Invoker_Deacon_Electric_NormalAtk",
              "Audio_Monster_Invoker_Deacon_Electric_NormalAtk_VO_Plus"
            ]
          },
          "resetAnimatorTriggerOnExit": ["BeHit", "DoSkill"]
        },
        "RangeAtk": {
          "$type": "NEDIFAKEGCO",
          "animatorStates": {
            "RangeAtk": [
              "Monster_Invoker_Deacon_Electric_RangeAtk",
              "Audio_Monster_Invoker_Deacon_Electric_RangeAtk",
              "Audio_Monster_Invoker_Deacon_Electric_RangeAtk_VO"
            ],
            "RangeAtk_Plus": [
              "Monster_Invoker_Deacon_Electric_RangeAtk",
              "Audio_Monster_Invoker_Deacon_Electric_RangeAtk",
              "Audio_Monster_Invoker_Deacon_Electric_RangeAtk_VO_Plus"
            ]
          },
          "resetAnimatorTriggerOnExit": ["BeHit", "DoSkill"]
        },
        "MeleeAtk": {
          "$type": "NEDIFAKEGCO",
          "animatorStates": {
            "MeleeAtk": [
              "Monster_Invoker_Deacon_Electric_MeleeAtk",
              "Audio_Monster_Invoker_Deacon_Electric_MeleeAtk",
              "Audio_Monster_Invoker_Deacon_Electric_MeleeAtk_VO"
            ],
            "MeleeAtk_Plus": [
              "Monster_Invoker_Deacon_Electric_MeleeAtk",
              "Audio_Monster_Invoker_Deacon_Electric_MeleeAtk",
              "Audio_Monster_Invoker_Deacon_Electric_MeleeAtk_VO_Plus"
            ]
          },
          "addEndure": 0.800000011920929,
          "resetAnimatorTriggerOnExit": ["BeHit", "DoSkill"]
        },
        "ChargeAtk": {
          "$type": "NEDIFAKEGCO",
          "animatorStates": {
            "ChargeAtk01": [
              "Monster_Invoker_Deacon_Electric_ChargeAtk01",
              "Audio_Monster_Invoker_Deacon_Electric_ChargeAtk01",
              "Audio_Monster_Invoker_Deacon_Electric_CargeAtk01_VO"
            ],
            "ChargeAtk01_Plus": [
              "Monster_Invoker_Deacon_Electric_ChargeAtk01",
              "Audio_Monster_Invoker_Deacon_Electric_ChargeAtk01",
              "Audio_Monster_Invoker_Deacon_Electric_CargeAtk01_VO_Plus"
            ],
            "ChargeAtk02": [
              "Monster_Invoker_Deacon_Electric_ChargeAtk02",
              "Audio_Monster_Invoker_Deacon_Electric_ChargeAtk02"
            ]
          },
          "addEndure": 0.0,
          "resetAnimatorTriggerOnExit": ["BeHit", "DoSkill"]
        },
        "Transform": {
          "$type": "NEDIFAKEGCO",
          "animatorStates": {
            "Transform": [
              "Monster_Invoker_Deacon_Electric_Transform",
              "Audio_Monster_Invoker_Deacon_Electric_Transform"
            ]
          },
          "addEndure": 0.0,
          "resetAnimatorTriggerOnEnter": ["BeHit"],
          "resetAnimatorTriggerOnExit": ["BeHit", "DoSkill"]
        }
      }
    }
  },
  "billboard": {
    "$type": "DNGNMAJBCNP",
    "attachPoint": "BillboardAttach",
    "offset": {
      "x": -0.699999988079071
    },
    "offsetType": "Character",
    "showDistance": 36.0,
    "showHPBar": true,
    "size": "Big"
  },
  "initialPoses": {
    "Default": {
      "initialPoseID": 101,
      "initialPoseParams": {
        "boolParams": {
          "WanderState": "false"
        }
      }
    }
  },
  "aibeta": {
    "enable": true,
    "sensing": {
      "settings": {
        "DefaultSetting": {
          "feelRange": 15.0
        },
        "NeverCombat": {
          "enableVision": false,
          "hearAttractionRange": 0.0,
          "feelRange": 0.0
        }
      },
      "templates": {
        "DefaultTemplate": {
          "DefaultPoses": "DefaultSetting"
        },
        "NeverCombatTemplate": {
          "DefaultPoses": "NeverCombat"
        }
      }
    },
    "neurons": {
      "DefaultSetting": ["HIT"],
      "NeverCombat": []
    },
    "threat": {
      "GHIJMOKOLMB": "",
      "clearThreatByLostPath": true,
      "resistTauntLevel": "Monster_TauntLevel_3"
    },
    "defendArea": {
      "defendRange": 50.0
    },
    "skillGroupCDConfigs": [
      {
        "skillGroupCDID": 200,
        "skillGroupCDTime": 1.0
      }
    ],
    "skills": {
      "101": {
        "name": "OnAlert",
        "skillType": "OnAlert",
        "castCondition": {
          "pose": [101]
        },
        "publicCDGroup": "",
        "ignoreGCD": true,
        "triggerGCD": false,
        "HHAGODJIAPE": "",
        "stateIDs": ["Alert"],
        "skillQueryingTime": 3.0,
        "flagTargetReachable": "10",
        "flagSelfOnTemplateCollider": "01",
        "flagSelfInZone": "10",
        "flagTargetInZone": "11"
      },
      "201": {
        "name": "NormalAtk",
        "castCondition": {
          "pose": [301, 302, 401, 402],
          "pickRangeMax": 20.0
        },
        "cd": 2.0,
        "cdUpperRange": 1.0,
        "publicCDGroup": "",
        "triggerGCD": false,
        "skillGroupCDID": 200,
        "HHAGODJIAPE": "",
        "stateIDs": ["NormalAtk"],
        "flagTargetReachable": "11",
        "flagSelfOnTemplateCollider": "01",
        "flagSelfInZone": "10",
        "flagTargetInZone": "11"
      },
      "211": {
        "name": "RangeAtk",
        "priority": 4,
        "castCondition": {
          "pose": [301, 302, 401, 402],
          "pickRangeMax": 20.0
        },
        "cd": 8.0,
        "cdUpperRange": 4.0,
        "initialCD": 5.0,
        "publicCDGroup": "Invoker_RangeAtk",
        "triggerGCD": false,
        "skillGroupCDID": 200,
        "HHAGODJIAPE": "",
        "stateIDs": ["RangeAtk"],
        "flagTargetReachable": "11",
        "flagSelfOnTemplateCollider": "01",
        "flagSelfInZone": "10",
        "flagTargetInZone": "11"
      },
      "221": {
        "name": "MeleeAtk",
        "priority": 3,
        "castCondition": {
          "pose": [301, 302, 401, 402],
          "pickRangeMax": 7.5
        },
        "cd": 10.0,
        "cdUpperRange": 5.0,
        "initialCD": 5.0,
        "publicCDGroup": "",
        "triggerGCD": false,
        "skillGroupCDID": 200,
        "HHAGODJIAPE": "",
        "stateIDs": ["MeleeAtk"],
        "flagTargetReachable": "11",
        "flagSelfOnTemplateCollider": "01",
        "flagSelfInZone": "10",
        "flagTargetInZone": "11"
      },
      "301": {
        "name": "ChargeAtk01",
        "priority": 2,
        "castCondition": {
          "pose": [301, 302, 401, 402],
          "pickRangeMax": 15.0
        },
        "cd": 10.0,
        "cdUpperRange": 10.0,
        "initialCD": 20.0,
        "publicCDGroup": "Invoker_ChargeAtk",
        "HHAGODJIAPE": "",
        "stateIDs": ["ChargeAtk01"],
        "flagTargetReachable": "11",
        "flagSelfOnTemplateCollider": "01",
        "flagSelfInZone": "10",
        "flagTargetInZone": "11"
      },
      "311": {
        "name": "ChargeAtk02",
        "priority": 1,
        "castCondition": {
          "pose": [401, 402],
          "pickRangeMax": 15.0
        },
        "cd": 20.0,
        "cdUpperRange": 10.0,
        "publicCDGroup": "Invoker_ChargeAtk",
        "HHAGODJIAPE": "",
        "stateIDs": ["ChargeAtk02"],
        "flagTargetReachable": "11",
        "flagSelfOnTemplateCollider": "01",
        "flagSelfInZone": "10",
        "flagTargetInZone": "11"
      }
    },
    "skillGCD": 3.0,
    "birdCirclingTactic": [
      {
        "$type": "KACCHOLJDNK",
        "enable": true,
        "condition": {
          "pose": [301, 302, 401, 402]
        },
        "JMCOBEPDIGM": {
          "ANLAAGAMIKF": 1,
          "HKJODDGJPHA": 99.0,
          "GGEBMFHFBPO": 7.0,
          "FLPMDIAJDKL": false,
          "MNPDDAKDHGK": ""
        }
      },
      {
        "$type": "NNJKLGNPMNN",
        "enable": true,
        "JMCOBEPDIGM": {
          "ANLAAGAMIKF": 1,
          "JFMIFLNBKMJ": 2.0,
          "DHGJDIPNDHH": 3.0,
          "MNPDDAKDHGK": "",
          "GJDMDHIBCME": ""
        }
      },
      {
        "$type": "FPELBIJFGCE",
        "enable": true,
        "condition": {
          "pose": [201]
        },
        "JMCOBEPDIGM": {
          "ANMPOPEBDIA": 15.0,
          "GMJFIMFFOEL": 7.5,
          "MNPDDAKDHGK": ""
        }
      }
    ]
  },
  "inputKeys": [
    {
      "keyID": 101,
      "inputKeyCode": 257,
      "abilityName": ""
    },
    {
      "keyID": 201,
      "inputKeyCode": 258,
      "abilityName": ""
    },
    {
      "keyID": 211,
      "inputKeyCode": 259,
      "abilityName": ""
    },
    {
      "keyID": 221,
      "inputKeyCode": 260,
      "abilityName": ""
    },
    {
      "keyID": 301,
      "inputKeyCode": 261,
      "abilityName": ""
    },
    {
      "keyID": 311,
      "inputKeyCode": 262,
      "abilityName": ""
    }
  ],
  "move": {
    "$type": "IPNMJMHDMPF",
    "velocityForce": {
      "excludeForces": ["RetreatAirType"]
    },
    "moveOnWater": true,
    "monsterSizeType": "StoopType",
    "positionModifyState": "Walk",
    "PKHOMJHFAEE": "RootNode"
  }
}
