{
  "common": {
    "effectAttachShape": {
      "$type": "FJNPJANPGGC",
      "mesh": "EffectMesh"
    },
    "mass": 999999.0,
    "viewSize": 2.0,
    "scale": 2.5,
    "useGrassDisplacement": true,
    "clearAnimatorOnSetLightDeactive": true,
    "clearAIOnSetLightDeactive": true
  },
  "model": {
    "bornEffect": "Eff_Monster_Oceanid_AnimalBorn",
    "attachEffect": "",
    "canBakeMesh": false,
    "BKPFGNPLDNJ": ""
  },
  "dither": {
    "showDitherDuration": 3.0
  },
  "globalValue": {
    "serverGlobalValues": [
      "SGV_MONSTERAFFIX_OCEANID_02_ANIMALHEAL_UP",
      "SGV_MONSTERAFFIX_OCEANID_02_ANIMAL_DEATHEXPLODE"
    ]
  },
  "combat": {
    "property": {
      "endureType": "Monster_Boss_Other",
      "weight": 150.0
    },
    "beHit": {
      "hitBloodEffect": ""
    },
    "combatLock": {
      "lockShape": "CircleLockEnemy",
      "lockType": "Avatar&Monster_Lv4"
    },
    "die": {
      "hasAnimatorDie": true,
      "dieEndTime": 2.0,
      "dieForceDisappearTime": 5.0,
      "dieDisappearEffect": "",
      "muteHitBox": true,
      "dieDenyLockOn": true,
      "dieIsGhostToEnemy": true,
      "dieIgnoreTriggerBullet": true,
      "muteBillboard": true,
      "mutePushCollider": true
    },
    "animEvents": {
      "RushAtk": {
        "attackPattern": {
          "$type": "ConfigAttackSphere",
          "triggerType": "TriggerNoRepeat",
          "born": {
            "$type": "ConfigBornBySelf",
            "offset": {
              "x": 0.0,
              "y": 0.75,
              "z": 1.75
            }
          },
          "radius": 1.5
        },
        "attackInfo": {
          "attackTag": "",
          "attenuationTag": "",
          "attenuationGroup": "default",
          "attackProperty": {
            "actorGrassSubHurtDelta": 1.0,
            "actorWindSubHurtDelta": 0.0,
            "elementType": "Water",
            "elementDurability": 50.0,
            "strikeType": "Blunt",
            "enBreak": 200.0,
            "attackType": "Melee",
            "GLKMCMDJBIK": 0.0
          },
          "hitPattern": {
            "onHitEffectName": "default",
            "hitImpulseY": "",
            "hitImpulseType": "LV4",
            "retreatType": "ByTangent",
            "canBeDefenceHalt": true
          }
        }
      },
      "MeleeAtk": {
        "attackPattern": {
          "$type": "ConfigAttackBox",
          "triggerType": "TriggerNoRepeat",
          "ignoreMassive": true,
          "born": {
            "$type": "ConfigBornBySelf",
            "offset": {
              "x": 0.0,
              "y": 1.0,
              "z": 0.5
            }
          },
          "size": {
            "x": 2.0,
            "y": 2.0,
            "z": 6.25
          }
        },
        "attackInfo": {
          "attackTag": "",
          "attenuationTag": "",
          "attenuationGroup": "default",
          "attackProperty": {
            "actorGrassSubHurtDelta": 1.0,
            "actorWindSubHurtDelta": 0.0,
            "elementType": "Water",
            "elementDurability": 50.0,
            "strikeType": "Blunt",
            "enBreak": 200.0,
            "attackType": "Melee",
            "GLKMCMDJBIK": 0.0
          },
          "hitPattern": {
            "onHitEffectName": "default",
            "hitImpulseY": "",
            "hitImpulseType": "LV4",
            "canBeDefenceHalt": true
          }
        }
      }
    }
  },
  "abilities": [
    {
      "abilityID": "",
      "abilityName": "Monster_Oceanid_Boar_Steer",
      "abilityOverride": ""
    },
    {
      "abilityID": "",
      "abilityName": "Animal_Boar_03_JumpAttack",
      "abilityOverride": ""
    },
    {
      "abilityID": "",
      "abilityName": "Monster_Oceanid_Boar_ElementState",
      "abilityOverride": ""
    },
    {
      "abilityID": "",
      "abilityName": "Monster_Common_WaterMuteHurt",
      "abilityOverride": ""
    },
    {
      "abilityID": "",
      "abilityName": "Monster_Oceanid_Animal_BeingHit",
      "abilityOverride": ""
    },
    {
      "abilityID": "",
      "abilityName": "Monster_Oceanid_Animal_Die",
      "abilityOverride": ""
    },
    {
      "abilityID": "",
      "abilityName": "Monster_Boar_Immortal_RushAtk",
      "abilityOverride": ""
    },
    {
      "abilityID": "",
      "abilityName": "Animal_Oceanid_Boar_02_ThrowBall",
      "abilityOverride": ""
    },
    {
      "abilityID": "",
      "abilityName": "Monster_Oceanid_Boar_CreateWaterDrop",
      "abilityOverride": ""
    },
    {
      "abilityID": "",
      "abilityName": "Monster_Oceanid_Boar_JumpAttack",
      "abilityOverride": ""
    }
  ],
  "stateLayers": {
    "defaultLayer": {
      "$type": "GBGJJIIEMBD",
      "layerIndexName": "",
      "CPAANEIJCGD": "",
      "stateIDs": {
        "Born": {
          "$type": "NEDIFAKEGCO",
          "animatorStates": {
            "Born": ["Audio_Monster_Fairfolk_Oceanid_Underling_Boar_01_Born"]
          },
          "canDoSkill": true,
          "resetAnimatorTriggerOnExit": ["DoSkill"]
        },
        "NormalIdle": {
          "$type": "NEDIFAKEGCO",
          "animatorStates": {
            "Standby": []
          },
          "canDoSkill": true,
          "canSyncMove": true,
          "resetAnimatorTriggerOnExit": ["DoSkill"]
        },
        "NormalMove": {
          "$type": "NEDIFAKEGCO",
          "animatorStates": {
            "Walk": [],
            "Run": []
          },
          "canDoSkill": true,
          "canSyncMove": true,
          "resetAnimatorTriggerOnExit": ["DoSkill"],
          "canSteer": true
        },
        "Turn": {
          "$type": "NEDIFAKEGCO",
          "animatorStates": {
            "TurnLeft": [],
            "TurnRight": []
          },
          "canSyncMove": true,
          "resetAnimatorTriggerOnExit": ["DoSkill"],
          "canSteer": true
        },
        "Die": {
          "$type": "NEDIFAKEGCO",
          "animatorStates": {
            "Die": [
              "Monster_Oceanid_Crane_Die",
              "Audio_Monster_Fairfolk_Oceanid_Underling_Boar_01_Die"
            ]
          },
          "resetAnimatorTriggerOnEnter": ["DoSkill"]
        },
        "Alert": {
          "$type": "NEDIFAKEGCO",
          "animatorStates": {
            "Alert": []
          },
          "canDoSkill": true,
          "resetAnimatorTriggerOnExit": ["BeHit", "DoSkill"]
        },
        "RandomAction": {
          "$type": "NEDIFAKEGCO",
          "animatorStates": {
            "RandomAction1": [
              "Audio_Monster_Fairfolk_Oceanid_Underling_Boar_01_RandomAction1"
            ]
          },
          "resetAnimatorTriggerOnExit": ["BeHit", "DoSkill", "CrashTrigger"],
          "canSteer": true
        },
        "RushAtk_BS": {
          "$type": "NEDIFAKEGCO",
          "animatorStates": {
            "RushAtk_BS": [
              "Animal_Oceanid_Boar_02_RushAtk",
              "Audio_Monster_Fairfolk_Oceanid_Underling_Boar_01_RushAtk_BS"
            ]
          },
          "resetAnimatorTriggerOnExit": ["BeHit", "DoSkill", "CrashTrigger"],
          "canSteer": true
        },
        "PowerRushAtk": {
          "$type": "NEDIFAKEGCO",
          "animatorStates": {
            "RushAtk": []
          },
          "resetAnimatorTriggerOnExit": [
            "BeHit",
            "DoSkill",
            "CrashTrigger",
            "RushAtkStop"
          ],
          "canSteer": true
        },
        "RushAtk_AS": {
          "$type": "NEDIFAKEGCO",
          "animatorStates": {
            "RushAtk_AS": [
              "Audio_Monster_Fairfolk_Oceanid_Underling_Boar_01_RushAtk_AS"
            ]
          },
          "resetAnimatorTriggerOnExit": [
            "BeHit",
            "DoSkill",
            "CrashTrigger",
            "RushAtkStop"
          ],
          "canSteer": true
        },
        "ThrowBall": {
          "$type": "NEDIFAKEGCO",
          "animatorStates": {
            "ThrowBall": [
              "Animal_Boar_Immortal_ThrowBall",
              "Audio_Monster_Fairfolk_Oceanid_Underling_Boar_01_ThrowBall"
            ]
          },
          "resetAnimatorTriggerOnExit": ["BeHit", "DoSkill"],
          "canSteer": true
        },
        "WaterDrop": {
          "$type": "NEDIFAKEGCO",
          "animatorStates": {
            "WaterDrop": [
              "Animal_Boar_Immortal_CreateWaterDrop",
              "Audio_Monster_Fairfolk_Oceanid_Underling_Boar_01_WaterDrop"
            ]
          },
          "resetAnimatorTriggerOnExit": ["BeHit", "DoSkill"],
          "canSteer": true
        }
      }
    }
  },
  "billboard": {
    "$type": "DNGNMAJBCNP",
    "attachPoint": "BillboardAttach",
    "offsetType": "Character",
    "radiusOffset": 0.25,
    "showHPBar": true,
    "forceShowDistance": 50.0,
    "size": "Big"
  },
  "initialPoses": {
    "Default": {}
  },
  "aibeta": {
    "enable": true,
    "moveSetting": {
      "moveCategory": "Amphibious",
      "useNavMesh": false,
      "navMeshAgentName": "Undead01"
    },
    "sensing": {
      "settings": {
        "DefaultSetting": {
          "feelRange": 10.0
        },
        "OnlyHitAlert": {
          "viewRange": 0.0,
          "hearAttractionRange": 0.0,
          "feelRange": 0.0,
          "sourcelessHitAttractionRange": 30.0
        }
      },
      "templates": {
        "DefaultTemplate": {
          "DefaultPoses": "DefaultSetting"
        },
        "OnlyHitTemplate": {
          "DefaultPoses": "OnlyHitAlert"
        }
      }
    },
    "threat": {
      "GHIJMOKOLMB": "",
      "feelThreatGrow": 100.0,
      "threatDecreaseSpeed": 100.0,
      "viewAttenuation": [
        {
          "x": 10.0,
          "y": 2.0
        },
        {
          "x": 15.0,
          "y": 1.25
        },
        {
          "x": 20.0,
          "y": 0.5
        }
      ]
    },
    "defendArea": {
      "defendRange": 50.0
    },
    "skills": {
      "1": {
        "name": "OnAlert",
        "skillType": "OnAlert",
        "castCondition": {
          "pose": [1]
        },
        "publicCDGroup": "",
        "ignoreGCD": true,
        "triggerGCD": false,
        "HHAGODJIAPE": "",
        "stateIDs": ["Alert"],
        "flagTargetReachable": "10",
        "flagSelfOnTemplateCollider": "01",
        "flagSelfInZone": "10",
        "flagTargetInZone": "11"
      },
      "211": {
        "name": "ThrowBall",
        "castCondition": {
          "pose": [101, 102],
          "pickRangeMin": 2.0,
          "pickRangeMax": 20.0
        },
        "cd": 2.5,
        "cdUpperRange": 2.5,
        "publicCDGroup": "",
        "HHAGODJIAPE": "",
        "stateIDs": ["ThrowBall"],
        "flagTargetReachable": "11",
        "flagSelfOnTemplateCollider": "01",
        "flagSelfInZone": "11",
        "flagTargetInZone": "11"
      },
      "301": {
        "name": "RandomAction",
        "castCondition": {
          "pose": [101, 102]
        },
        "cd": 10.0,
        "cdUpperRange": 15.0,
        "initialCD": 10.0,
        "initialCDUpperRange": 5.0,
        "publicCDGroup": "",
        "HHAGODJIAPE": "",
        "stateIDs": ["RandomAction"],
        "flagTargetReachable": "10",
        "flagSelfOnTemplateCollider": "01",
        "flagSelfInZone": "10",
        "flagTargetInZone": "11"
      },
      "401": {
        "name": "WaterDrop",
        "priority": 1,
        "castCondition": {
          "pose": [102],
          "pickRangeMax": 50.0
        },
        "cd": 15.0,
        "cdUpperRange": 5.0,
        "publicCDGroup": "",
        "ignoreGCD": true,
        "triggerGCD": false,
        "HHAGODJIAPE": "",
        "stateIDs": ["WaterDrop"],
        "flagTargetReachable": "11",
        "flagSelfOnTemplateCollider": "01",
        "flagSelfInZone": "10",
        "flagTargetInZone": "11"
      }
    },
    "skillGCD": 3.0,
    "birdCirclingTactic": [
      {
        "$type": "ABEPKCNGAFC",
        "enable": true,
        "JMCOBEPDIGM": {
          "triggerDistance": 4.0,
          "MMGOBGGLBJO": 75.0,
          "KAIGBDPLNMO": 3.0,
          "BMIEPFCPFGN": 5.0,
          "MFLJNGFAPDH": 0.5,
          "MNPDDAKDHGK": ""
        }
      },
      {
        "$type": "KACCHOLJDNK",
        "enable": true,
        "condition": {
          "pose": [101]
        },
        "JMCOBEPDIGM": {
          "ANLAAGAMIKF": 1,
          "NBENNEKDIIA": 1.0,
          "KHDFDAAAPEI": 20.0,
          "HKJODDGJPHA": 99.0,
          "GGEBMFHFBPO": 7.0,
          "KFFGCIMPNMJ": 15.0,
          "MNPDDAKDHGK": ""
        }
      },
      {
        "$type": "NNJKLGNPMNN",
        "enable": true,
        "JMCOBEPDIGM": {
          "MNPDDAKDHGK": "",
          "GJDMDHIBCME": ""
        }
      }
    ]
  },
  "inputKeys": [
    {
      "keyID": 201,
      "inputKeyCode": 257,
      "abilityName": ""
    },
    {
      "keyID": 211,
      "inputKeyCode": 258,
      "abilityName": ""
    },
    {
      "keyID": 301,
      "inputKeyCode": 259,
      "abilityName": ""
    },
    {
      "keyID": 401,
      "inputKeyCode": 260,
      "abilityName": ""
    }
  ],
  "move": {
    "$type": "IPNMJMHDMPF",
    "velocityForce": {
      "includeForces": ["RushMoveType"]
    },
    "initWithGroundHitCheck": false,
    "moveOnWater": true,
    "PKHOMJHFAEE": "RootNode"
  },
  "audio": {
    "overrideEmitterName": "",
    "animAudio": {
      "onTransitionIn": [
        {
          "currentStateName": "RushAtk",
          "audioEvent": {
            "text": "Play_Sfx_Monster_Fairfolk_Oceanid_Underling_Boar_01_RushAtk_LP"
          },
          "otherStateNames": ["RushAtk"],
          "usage": "Except"
        },
        {
          "currentStateName": "Walk",
          "audioEvent": {
            "text": "Play_Sfx_Monster_Fairfolk_Oceanid_Underling_Boar_01_Walk_LP"
          },
          "otherStateNames": ["Walk"],
          "usage": "Except"
        }
      ],
      "onTransitionOut": [
        {
          "currentStateName": "RushAtk",
          "audioEvent": {
            "text": "Stop_Sfx_Monster_Fairfolk_Oceanid_Underling_Boar_01_RushAtk_LP"
          },
          "otherStateNames": ["RushAtk"],
          "usage": "Except"
        },
        {
          "currentStateName": "Walk",
          "audioEvent": {
            "text": "Stop_Sfx_Monster_Fairfolk_Oceanid_Underling_Boar_01_Walk_LP"
          },
          "otherStateNames": ["Walk"],
          "usage": "Except"
        }
      ]
    }
  }
}
