{
  "common": {
    "effectAttachShape": {
      "$type": "FJNPJANPGGC",
      "mesh": "EffectMesh"
    },
    "mass": 10000.0,
    "height": 1.600000023841858,
    "modelHeight": 1.2999999523162842,
    "affectedByWorld": true,
    "checkInSurface": true,
    "scale": 1.2000000476837158,
    "disableTickDistance": 10000000.0,
    "useGrassDisplacement": true,
    "hasAfterImage": true,
    "reconnectSupport": true,
    "recoverByInitPose": true
  },
  "headControl": {
    "$type": "KPIPDEBDPIH",
    "useHeadControl": true,
    "maxYawDegree": 45.0,
    "maxPitchDegree": 30.0,
    "animStates": [
      "NormalIdle/Standby",
      "NormalMove/WalkForward",
      "NormalMove/WalkBack",
      "NormalMove/WalkRight",
      "NormalMove/WalkLeft",
      "NormalMove/Run"
    ]
  },
  "model": {
    "bornEffect": "Eff_Monster_Common_Born",
    "attachEffect": "",
    "JKLKJPMFNGD": true,
    "BKPFGNPLDNJ": ""
  },
  "dither": {
    "showDitherDuration": 1.0
  },
  "combat": {
    "property": {
      "endureType": "Monster_Demiboss_Humanoid",
      "weight": 80.0
    },
    "beHit": {
      "hitBloodEffect": ""
    },
    "combatLock": {
      "lockShape": "CircleLockEnemy",
      "lockType": "Avatar&Monster_Lv4"
    },
    "die": {
      "hasAnimatorDie": true,
      "dieEndTime": 2.0,
      "dieForceDisappearTime": 2.0,
      "dieDisappearEffect": "Eff_Death_Avatar_Common",
      "dieShaderData": "AvatarDie",
      "useRagDoll": true,
      "ragDollDieEndTimeDelay": 0.5,
      "muteHitBox": true,
      "dieDenyLockOn": true,
      "dieIsGhostToEnemy": true,
      "dieIgnoreTriggerBullet": true,
      "muteBillboard": true,
      "mutePushCollider": true
    },
    "animEvents": {
      "NormalAtk": {
        "attackPattern": {
          "$type": "ConfigAttackCircle",
          "triggerType": "TriggerNoRepeat",
          "born": {
            "$type": "ConfigBornBySelf",
            "offset": {
              "x": 0.0,
              "y": 0.0,
              "z": 2.0
            }
          },
          "radius": 3.5
        },
        "attackInfo": {
          "attackTag": "",
          "attenuationTag": "",
          "attenuationGroup": "default",
          "attackProperty": {
            "actorGrassSubHurtDelta": 0.6000000238418579,
            "actorWindSubHurtDelta": 0.0,
            "elementDurability": 100.0,
            "strikeType": "Slash",
            "enBreak": 100.0,
            "attackType": "Melee",
            "GLKMCMDJBIK": 0.0
          },
          "hitPattern": {
            "onHitEffectName": "default",
            "hitImpulseY": "",
            "hitImpulseType": "LV4"
          },
          "forceCameraShake": true,
          "cameraShake": {
            "shakeType": "CustomVector",
            "shakeRange": 0.03999999910593033,
            "shakeTime": 0.09000000357627869,
            "shakeDir": {
              "x": 1.0,
              "z": 1.0
            }
          }
        }
      },
      "DashingStrike": {
        "attackPattern": {
          "$type": "ConfigAttackBox",
          "triggerType": "TriggerNoRepeat",
          "ignoreMassive": true,
          "born": {
            "$type": "ConfigBornBySelf",
            "offset": {
              "x": 0.0,
              "y": 0.800000011920929,
              "z": -0.5
            }
          },
          "size": {
            "x": 2.5,
            "y": 1.600000023841858,
            "z": 3.5999999046325684
          }
        },
        "attackInfo": {
          "attackTag": "",
          "attenuationTag": "",
          "attenuationGroup": "default",
          "attackProperty": {
            "actorGrassSubHurtDelta": 1.0,
            "actorWindSubHurtDelta": 0.0,
            "elementDurability": 100.0,
            "strikeType": "Slash",
            "enBreak": 100.0,
            "attackType": "Melee",
            "GLKMCMDJBIK": 0.0
          },
          "hitPattern": {
            "onHitEffectName": "default",
            "hitImpulseY": "",
            "hitImpulseType": "LV5",
            "hitHaltTime": 0.11999999731779099,
            "hitHaltTimeScale": 0.05000000074505806
          },
          "forceCameraShake": true,
          "cameraShake": {
            "shakeType": "CustomVector",
            "shakeRange": 0.05000000074505806,
            "shakeTime": 0.09000000357627869,
            "shakeDir": {
              "x": 1.0
            }
          }
        }
      },
      "DashingStrikeLast": {
        "attackPattern": {
          "$type": "ConfigAttackCircle",
          "triggerType": "TriggerNoRepeat",
          "born": {
            "$type": "ConfigBornBySelf",
            "offset": {
              "x": 0.0,
              "y": 0.0,
              "z": 0.0
            }
          },
          "radius": 2.200000047683716
        },
        "attackInfo": {
          "attackTag": "",
          "attenuationTag": "",
          "attenuationGroup": "default",
          "attackProperty": {
            "actorGrassSubHurtDelta": 0.75,
            "actorWindSubHurtDelta": 0.0,
            "elementDurability": 100.0,
            "strikeType": "Slash",
            "enBreak": 100.0,
            "attackType": "Melee",
            "GLKMCMDJBIK": 0.0
          },
          "hitPattern": {
            "onHitEffectName": "default",
            "hitImpulseY": "",
            "hitImpulseType": "LV6",
            "hitHaltTime": 0.11999999731779099,
            "hitHaltTimeScale": 0.05000000074505806
          },
          "forceCameraShake": true,
          "cameraShake": {
            "shakeType": "CustomVector",
            "shakeRange": 0.03999999910593033,
            "shakeTime": 0.09000000357627869,
            "shakeDir": {
              "x": 1.0
            }
          }
        }
      },
      "BackStab": {
        "attackPattern": {
          "$type": "ConfigAttackBox",
          "triggerType": "TriggerNoRepeat",
          "ignoreMassive": true,
          "born": {
            "$type": "ConfigBornBySelf",
            "offset": {
              "x": 0.0,
              "y": 1.25,
              "z": 0.0
            }
          },
          "size": {
            "x": 3.0,
            "y": 2.5,
            "z": 12.0
          }
        },
        "attackInfo": {
          "attackTag": "",
          "attenuationTag": "",
          "attenuationGroup": "default",
          "attackProperty": {
            "actorGrassSubHurtDelta": 1.0,
            "actorWindSubHurtDelta": 0.0,
            "elementDurability": 100.0,
            "strikeType": "Slash",
            "enBreak": 100.0,
            "attackType": "Melee",
            "GLKMCMDJBIK": 0.0
          },
          "hitPattern": {
            "onHitEffectName": "default",
            "hitImpulseY": "",
            "hitImpulseType": "LV5",
            "hitHaltTime": 0.11999999731779099,
            "hitHaltTimeScale": 0.05000000074505806
          },
          "forceCameraShake": true,
          "cameraShake": {
            "shakeType": "CustomVector",
            "shakeRange": 0.05000000074505806,
            "shakeTime": 0.09000000357627869,
            "shakeDir": {
              "x": 1.0
            }
          }
        }
      },
      "FlashStrike_Hit": {
        "attackPattern": {
          "$type": "ConfigAttackBox",
          "triggerType": "TriggerNoRepeat",
          "ignoreMassive": true,
          "born": {
            "$type": "ConfigBornBySelf",
            "offset": {
              "x": 0.0,
              "y": 0.800000011920929,
              "z": -0.5
            }
          },
          "size": {
            "x": 2.5,
            "y": 1.600000023841858,
            "z": 3.5999999046325684
          }
        },
        "attackInfo": {
          "attackTag": "",
          "attenuationTag": "",
          "attenuationGroup": "default",
          "attackProperty": {
            "actorGrassSubHurtDelta": 0.875,
            "actorWindSubHurtDelta": 0.0,
            "elementDurability": 100.0,
            "strikeType": "Slash",
            "enBreak": 100.0,
            "attackType": "Melee",
            "GLKMCMDJBIK": 0.0
          },
          "hitPattern": {
            "onHitEffectName": "default",
            "hitImpulseY": "",
            "hitImpulseType": "LV4"
          },
          "forceCameraShake": true,
          "cameraShake": {
            "shakeType": "CustomVector",
            "shakeRange": 0.05000000074505806,
            "shakeTime": 0.09000000357627869,
            "shakeDir": {
              "x": 1.0
            }
          }
        }
      },
      "FlashStrike_LastHit": {
        "attackPattern": {
          "$type": "ConfigAttackCircle",
          "triggerType": "TriggerNoRepeat",
          "born": {
            "$type": "ConfigBornBySelf",
            "offset": {
              "x": 0.0,
              "y": 0.0,
              "z": 0.5
            }
          },
          "radius": 4.800000190734863
        },
        "attackInfo": {
          "attackTag": "",
          "attenuationTag": "",
          "attenuationGroup": "default",
          "attackProperty": {
            "actorGrassSubHurtDelta": 0.8500000238418579,
            "actorWindSubHurtDelta": 0.0,
            "elementType": "Fire",
            "elementDurability": 50.0,
            "strikeType": "Slash",
            "enBreak": 100.0,
            "attackType": "Melee",
            "GLKMCMDJBIK": 0.0
          },
          "hitPattern": {
            "onHitEffectName": "default",
            "hitImpulseY": "",
            "hitImpulseType": "LV5"
          },
          "forceCameraShake": true,
          "cameraShake": {
            "shakeType": "CustomVector",
            "shakeRange": 0.11999999731779099,
            "shakeTime": 0.15000000596046448,
            "shakeDistance": 25.0,
            "shakeDir": {
              "y": -1.0
            }
          }
        }
      }
    }
  },
  "equipController": {
    "sheathPoint": "",
    "attachPoints": {
      "equip01": "WeaponR",
      "equip02": "WeaponL"
    }
  },
  "abilities": [
    {
      "abilityID": "Monster_Fatuus_Fire_01_DashingStrike",
      "abilityName": "Monster_Fatuus_Fire_01_DashingStrike",
      "abilityOverride": ""
    },
    {
      "abilityID": "Monster_Fatuus_Fire_01_FlashStrike_FindNext",
      "abilityName": "Monster_Fatuus_Fire_01_FlashStrike_FindNext",
      "abilityOverride": ""
    },
    {
      "abilityID": "Monster_Fatuus_Fire_01_FlashStrike_Manager",
      "abilityName": "Monster_Fatuus_Fire_01_FlashStrike_Manager",
      "abilityOverride": ""
    },
    {
      "abilityID": "Monster_Fatuus_Fire_01_FlashStrike_LastAS",
      "abilityName": "Monster_Fatuus_Fire_01_FlashStrike_LastAS",
      "abilityOverride": ""
    },
    {
      "abilityID": "Monster_Fatuus_Fire_01_IntoShadowBS",
      "abilityName": "Monster_Fatuus_Fire_01_IntoShadowBS",
      "abilityOverride": ""
    },
    {
      "abilityID": "Monster_Fatuus_Fire_01_SurroundingHitEvent",
      "abilityName": "Monster_Fatuus_Fire_01_SurroundingHitEvent",
      "abilityOverride": ""
    },
    {
      "abilityID": "Monster_Fatuus_Fire_01_IntoShadow",
      "abilityName": "Monster_Fatuus_Fire_01_IntoShadow",
      "abilityOverride": ""
    },
    {
      "abilityID": "Monster_Fatuus_Fire_01_BreakStealth",
      "abilityName": "Monster_Fatuus_Fire_01_BreakStealth",
      "abilityOverride": ""
    },
    {
      "abilityID": "Monster_Fatuus_Fire_01_CastSkill_StateCheck",
      "abilityName": "Monster_Fatuus_Fire_01_CastSkill_StateCheck",
      "abilityOverride": ""
    },
    {
      "abilityID": "Monster_Fatuus_Fire_01_FootPrintRight",
      "abilityName": "Monster_Fatuus_Fire_01_FootPrintRight",
      "abilityOverride": ""
    },
    {
      "abilityID": "Monster_Fatuus_Fire_01_FootPrintLeft",
      "abilityName": "Monster_Fatuus_Fire_01_FootPrintLeft",
      "abilityOverride": ""
    },
    {
      "abilityID": "",
      "abilityName": "Monster_Fatuus_Agent_Fire_02_AnimationSteer",
      "abilityOverride": ""
    },
    {
      "abilityID": "",
      "abilityName": "Monster_Fatuus_Agent_Fire_02_InvisibleControl",
      "abilityOverride": ""
    },
    {
      "abilityID": "",
      "abilityName": "Monster_Fatuus_Agent_Fire_02_FlashStrike_FadeOut",
      "abilityOverride": ""
    },
    {
      "abilityID": "",
      "abilityName": "Monster_Fatuus_Agent_Fire_02_FlashStrike_FadeIn",
      "abilityOverride": ""
    },
    {
      "abilityID": "",
      "abilityName": "Monster_Fatuus_Agent_Fire_02_FlashStrike_LastAS",
      "abilityOverride": ""
    },
    {
      "abilityID": "",
      "abilityName": "Monster_Fatuus_Agent_Fire_02_FlashStrike_AttachFire",
      "abilityOverride": ""
    },
    {
      "abilityID": "",
      "abilityName": "Monster_Fatuus_Agent_Fire_02_FlashStrike_LastBlink",
      "abilityOverride": ""
    },
    {
      "abilityID": "",
      "abilityName": "Monster_Fatuus_Agent_Fire_02_TempVisible",
      "abilityOverride": ""
    },
    {
      "abilityID": "",
      "abilityName": "Monster_Fatuus_Agent_Fire_02_ReturnToInvisible",
      "abilityOverride": ""
    },
    {
      "abilityID": "",
      "abilityName": "Monster_Fatuus_Agent_Fire_02_Stab",
      "abilityOverride": ""
    },
    {
      "abilityID": "",
      "abilityName": "Monster_Fatuus_Agent_Fire_02_Mirror_Underfoot",
      "abilityOverride": ""
    },
    {
      "abilityID": "",
      "abilityName": "Monster_Fatuus_Agent_Fire_02_TestStart",
      "abilityOverride": ""
    },
    {
      "abilityID": "",
      "abilityName": "Monster_Fatuus_Agent_Fire_02_Order_Stage1Mirror_RangeAttack",
      "abilityOverride": ""
    },
    {
      "abilityID": "",
      "abilityName": "Monster_Fatuus_Agent_Fire_02_Order_Stage2Mirror_RangeAttack",
      "abilityOverride": ""
    },
    {
      "abilityID": "",
      "abilityName": "Monster_Fatuus_Agent_Fire_02_PoseControl",
      "abilityOverride": ""
    },
    {
      "abilityID": "",
      "abilityName": "Monster_Fatuus_Agent_Fire_02_TempHitboxOff",
      "abilityOverride": ""
    },
    {
      "abilityID": "",
      "abilityName": "Monster_Fatuus_Agent_Fire_02_BlinkToBornPos",
      "abilityOverride": ""
    },
    {
      "abilityID": "",
      "abilityName": "Monster_Fatuus_Agent_Fire_02_RangeAttackBullet",
      "abilityOverride": ""
    },
    {
      "abilityID": "",
      "abilityName": "Monster_Fatuus_Agent_Fire_02_Steer",
      "abilityOverride": ""
    },
    {
      "abilityID": "",
      "abilityName": "Monster_Fatuus_Agent_Fire_02_AlertControl",
      "abilityOverride": ""
    },
    {
      "abilityID": "",
      "abilityName": "Monster_Fatuus_Agent_Fire_02_ResistFrozen",
      "abilityOverride": ""
    },
    {
      "abilityID": "",
      "abilityName": "Monster_Fatuus_Agent_Fire_02_CreateFollowBullet",
      "abilityOverride": ""
    },
    {
      "abilityID": "",
      "abilityName": "Monster_Fatuus_Agent_Fire_02_RemoveFollowBullet",
      "abilityOverride": ""
    },
    {
      "abilityID": "",
      "abilityName": "Monster_Fatuus_Agent_Fire_02_Achievement",
      "abilityOverride": ""
    }
  ],
  "stateLayers": {
    "defaultLayer": {
      "$type": "GBGJJIIEMBD",
      "layerIndexName": "",
      "CPAANEIJCGD": "",
      "stateIDs": {
        "Born": {
          "$type": "NEDIFAKEGCO",
          "animatorStates": {
            "Born": ["Audio_Fatuus_Fire_SetState_OutOfShadow"]
          },
          "canSyncMove": true,
          "resetAnimatorTriggerOnExit": ["DoSkill"]
        },
        "NormalIdle": {
          "$type": "NEDIFAKEGCO",
          "animatorStates": {
            "Standby": []
          },
          "canDoSkill": true,
          "canSyncMove": true,
          "resetAnimatorTriggerOnExit": ["DoSkill"]
        },
        "NormalMove": {
          "$type": "NEDIFAKEGCO",
          "animatorStates": {
            "WalkForward": [
              "Monster_Fatuus_Fire_01_WalkForward",
              "Audio_Fatuus_Fire_Walk"
            ],
            "WalkBack": [
              "Monster_Fatuus_Fire_01_WalkBack",
              "Audio_Fatuus_Fire_Walk"
            ],
            "WalkRight": [
              "Monster_Fatuus_Fire_01_WalkRight",
              "Audio_Fatuus_Fire_Turn"
            ],
            "WalkLeft": [
              "Monster_Fatuus_Fire_01_WalkLeft",
              "Audio_Fatuus_Fire_Turn"
            ],
            "Run": ["Monster_Fatuus_Fire_01_Run", "Audio_Fatuus_Fire_Run"]
          },
          "canDoSkill": true,
          "canSyncMove": true,
          "resetAnimatorTriggerOnExit": ["DoSkill"],
          "canSteer": true
        },
        "Turn": {
          "$type": "NEDIFAKEGCO",
          "animatorStates": {
            "TurnLeft": [
              "Monster_Fatuus_Fire_01_WalkLeft",
              "Audio_Fatuus_Fire_Turn"
            ],
            "TurnRight": [
              "Monster_Fatuus_Fire_01_WalkRight",
              "Audio_Fatuus_Fire_Turn"
            ]
          },
          "canDoSkill": true,
          "canSyncMove": true,
          "resetAnimatorTriggerOnExit": ["DoSkill"],
          "canSteer": true,
          "autoSteer": true
        },
        "BeHit": {
          "$type": "NEDIFAKEGCO",
          "animatorStates": {
            "Hit_L": ["Audio_Fatuus_Fire_Behit_L"],
            "Hit_H": [
              "Monster_Fatuus_Fire_01_BreakStealth",
              "Audio_Fatuus_Fire_Behit_H"
            ]
          },
          "resetAnimatorTriggerOnEnter": ["BeHit"],
          "resetAnimatorTriggerOnExit": ["DoSkill"]
        },
        "BeHitThrow": {
          "$type": "NEDIFAKEGCO",
          "animatorStates": {
            "HitThrow": ["Monster_Fatuus_Fire_01_BreakStealth"],
            "HitThrowDrop": [],
            "HitThrowToGround": ["Audio_Fatuus_Fire_HitThrowToGround"]
          },
          "resetAnimatorTriggerOnEnter": ["BeHit", "HitAir2HitDrop"],
          "resetAnimatorTriggerOnExit": ["DoSkill"]
        },
        "Struggle": {
          "$type": "NEDIFAKEGCO",
          "animatorStates": {
            "Struggle": []
          },
          "resetAnimatorTriggerOnEnter": ["BeHit", "HitAir2HitDrop"],
          "resetAnimatorTriggerOnExit": ["DoSkill"]
        },
        "Die": {
          "$type": "NEDIFAKEGCO",
          "animatorStates": {
            "SwimDie": [
              "Monster_Fatuus_Fire_01_Die",
              "Audio_Fatuus_Natlan_Fire_Die"
            ],
            "SwimDie_AS": [],
            "Die_01": [
              "Monster_Fatuus_Fire_01_Die",
              "Audio_Fatuus_Natlan_Fire_Die"
            ],
            "Die_02": [
              "Monster_Fatuus_Fire_01_Die",
              "Audio_Fatuus_Natlan_Fire_Die"
            ]
          },
          "resetAnimatorTriggerOnEnter": ["DoSkill"]
        },
        "Die_RagDoll": {
          "$type": "NEDIFAKEGCO",
          "animatorStates": {
            "AirDie": ["Monster_Fatuus_Fire_01_Die"]
          },
          "enableRagDoll": true
        },
        "Alert": {
          "$type": "NEDIFAKEGCO",
          "animatorStates": {
            "Alert": ["Audio_Fatuus_Natlan_Fire_Alert"]
          },
          "resetAnimatorTriggerOnExit": ["BeHit", "DoSkill"]
        },
        "StabAttack": {
          "$type": "NEDIFAKEGCO",
          "animatorStates": {
            "StabAttack": [
              "Monster_Fatuus_Agent_Fire_02_Stab",
              "Audio_Fatuus_Fire_StabAttack"
            ]
          },
          "cullingModelAlwaysAnimate": true,
          "addEndure": 0.6000000238418579,
          "massRatio": 20.0,
          "resetAnimatorTriggerOnExit": ["BeHit", "DoSkill"],
          "enableCCD": true
        },
        "DashingStrike": {
          "$type": "NEDIFAKEGCO",
          "animatorStates": {
            "DashingStrike": [
              "Monster_Fatuus_Agent_Fire_02_DashingStrike",
              "Audio_Fatuus_Fire_DashingStrike"
            ]
          },
          "cullingModelAlwaysAnimate": true,
          "addEndure": 0.6000000238418579,
          "massRatio": 20.0,
          "resetAnimatorTriggerOnExit": ["BeHit", "DoSkill"],
          "enableCCD": true,
          "handleAnimatorStateImmediately": true
        },
        "IntoShadow": {
          "$type": "NEDIFAKEGCO",
          "animatorStates": {
            "IntoShadowNearBS": [],
            "IntoShadowForward": ["Audio_Fatuus_Fire_IntoShadowForward"]
          },
          "addEndure": 0.0,
          "massRatio": 20.0,
          "resetAnimatorTriggerOnEnter": ["BeHit"],
          "resetAnimatorTriggerOnExit": ["BeHit", "DoSkill"],
          "canSteer": true,
          "followAnimRotation": true
        },
        "IntoShadowSteer1": {
          "$type": "NEDIFAKEGCO",
          "animatorStates": {
            "IntoShadow1": [
              "Monster_Fatuus_Fire_01_IntoShadow1",
              "Audio_Fatuus_Fire_IntoShadow1"
            ]
          },
          "addEndure": 0.0,
          "massRatio": 20.0,
          "resetAnimatorTriggerOnEnter": ["BeHit"],
          "resetAnimatorTriggerOnExit": ["BeHit", "DoSkill"]
        },
        "IntoShadowSteer2": {
          "$type": "NEDIFAKEGCO",
          "animatorStates": {
            "IntoShadow2": [
              "Monster_Fatuus_Fire_01_IntoShadow2",
              "Audio_Fatuus_Fire_IntoShadow2"
            ]
          },
          "addEndure": 0.0,
          "massRatio": 20.0,
          "resetAnimatorTriggerOnEnter": ["BeHit"],
          "resetAnimatorTriggerOnExit": ["BeHit", "DoSkill"]
        },
        "BackStab": {
          "$type": "NEDIFAKEGCO",
          "animatorStates": {
            "BackStab": [
              "Monster_Fatuus_Fire_01_BackStab",
              "Audio_Fatuus_Fire_BackStab"
            ]
          },
          "cullingModelAlwaysAnimate": true,
          "addEndure": 0.800000011920929,
          "massRatio": 20.0,
          "resetAnimatorTriggerOnExit": ["BeHit", "DoSkill"],
          "enableCCD": true
        },
        "FlashStrike": {
          "$type": "NEDIFAKEGCO",
          "animatorStates": {
            "FlashStrike_BS": [
              "Monster_Fatuus_Agent_Fire_02_FlashStrike_BS",
              "Audio_Fatuus_Fire_FlashStrike_BS"
            ],
            "FlashStrike": [
              "Monster_Fatuus_Agent_Fire_02_FlashStrike",
              "Audio_Fatuus_Fire_FlashStrike"
            ]
          },
          "cullingModelAlwaysAnimate": true,
          "addEndure": 0.0,
          "massRatio": 20.0,
          "resetAnimatorTriggerOnExit": ["BeHit", "DoSkill"],
          "enableCCD": true,
          "handleAnimatorStateImmediately": true
        },
        "FlashStrike_Last": {
          "$type": "NEDIFAKEGCO",
          "animatorStates": {
            "FlashStrike_Last": [
              "Monster_Fatuus_Agent_Fire_02_FlashStrike_Last",
              "Audio_Fatuus_Fire_FlashStrike_Last"
            ],
            "Test_FlashStrike": ["Monster_Fatuus_Fire_01_FlashStrike_Test"]
          },
          "cullingModelAlwaysAnimate": true,
          "addEndure": 0.0,
          "massRatio": 20.0,
          "resetAnimatorTriggerOnExit": ["BeHit", "DoSkill"]
        },
        "IntoShadowQuick": {
          "$type": "NEDIFAKEGCO",
          "animatorStates": {
            "IntoShadowQuick": [
              "Monster_Fatuus_Agent_Fire_02_IntoShadowQuick",
              "Audio_Fatuus_Fire_02_IntoShadowQuick"
            ]
          },
          "addEndure": 0.0,
          "massRatio": 20.0,
          "resetAnimatorTriggerOnEnter": ["BeHit"],
          "resetAnimatorTriggerOnExit": ["BeHit", "DoSkill"]
        },
        "Weak": {
          "$type": "NEDIFAKEGCO",
          "animatorStates": {
            "Weak_BS": ["Audio_Fatuus_Fire_02_Weak_BS"],
            "Weak_Loop": ["Monster_Fatuus_Agent_Fire_02_Weak_Loop"],
            "Weak_AS": ["Audio_Fatuus_Fire_02_Weak_AS"]
          },
          "addEndure": 0.0,
          "massRatio": 20.0,
          "resetAnimatorTriggerOnExit": ["BeHit", "DoSkill"]
        },
        "RangeAttack": {
          "$type": "NEDIFAKEGCO",
          "animatorStates": {
            "RangeAttack": [
              "Monster_Fatuus_Agent_Fire_02_RangeAttack",
              "Audio_Fatuus_Fire_02_RangedAttack"
            ]
          },
          "cullingModelAlwaysAnimate": true,
          "addEndure": 0.6000000238418579,
          "massRatio": 20.0,
          "resetAnimatorTriggerOnExit": ["BeHit", "DoSkill"],
          "canSteer": true
        }
      }
    }
  },
  "billboard": {
    "$type": "DNGNMAJBCNP",
    "attachPoint": "BillboardAttach",
    "offset": {
      "x": -0.07999999821186066,
      "y": 0.30000001192092896
    },
    "radiusOffset": 0.20000000298023224,
    "showHPBar": true,
    "size": "Big"
  },
  "initialPoses": {
    "Default": {}
  },
  "aibeta": {
    "enable": true,
    "moveSetting": {
      "navMeshAgentName": "Undead01",
      "almostReachedDistanceRun": 1.5
    },
    "sensing": {
      "settings": {
        "DefaultSetting": {
          "viewRange": 40.0,
          "feelRange": 20.0
        },
        "NeverCombat": {
          "enableVision": false,
          "hearAttractionRange": 0.0,
          "feelRange": 0.0
        }
      },
      "templates": {
        "DefaultTemplate": {
          "DefaultPoses": "DefaultSetting"
        },
        "NeverCombatTemplate": {
          "DefaultPoses": "NeverCombat"
        }
      }
    },
    "neurons": {
      "DefaultSetting": ["HIT"],
      "NeverCombat": []
    },
    "threat": {
      "GHIJMOKOLMB": "",
      "clearThreatByLostPath": true,
      "viewAttenuation": [
        {
          "x": 10.0,
          "y": 2.0
        },
        {
          "x": 15.0,
          "y": 0.800000011920929
        },
        {
          "x": 20.0,
          "y": 0.5
        },
        {
          "x": 25.0,
          "y": 0.30000001192092896
        },
        {
          "x": 30.0,
          "y": 0.20000000298023224
        }
      ],
      "resistTauntLevel": "Monster_TauntLevel_4"
    },
    "defendArea": {
      "defendRange": 60.0
    },
    "profiling": {},
    "skills": {
      "100": {
        "name": "OnAlert",
        "skillType": "OnAlert",
        "faceTarget": true,
        "publicCDGroup": "",
        "triggerGCD": false,
        "HHAGODJIAPE": "",
        "stateIDs": ["Alert"],
        "skillQueryingTime": 3.0,
        "flagTargetReachable": "10",
        "flagSelfOnTemplateCollider": "01",
        "flagSelfInZone": "10",
        "flagTargetInZone": "11"
      },
      "220": {
        "name": "StabAttack",
        "priority": 4,
        "castCondition": {
          "pose": [222],
          "pickRangeMax": 5.0
        },
        "cd": 3.0,
        "initialCD": 1.0,
        "publicCDGroup": "",
        "HHAGODJIAPE": "",
        "stateIDs": ["StabAttack"],
        "flagTargetReachable": "11",
        "flagSelfOnTemplateCollider": "11",
        "flagSelfInZone": "11",
        "flagTargetInZone": "11"
      },
      "231": {
        "name": "DashingStrike",
        "priority": 4,
        "castCondition": {
          "pose": [222],
          "pickRangeMax": 5.0
        },
        "cd": 3.0,
        "initialCD": 1.0,
        "publicCDGroup": "",
        "HHAGODJIAPE": "",
        "stateIDs": ["DashingStrike"],
        "flagTargetReachable": "11",
        "flagSelfOnTemplateCollider": "11",
        "flagSelfInZone": "11",
        "flagTargetInZone": "11"
      },
      "232": {
        "name": "DashingStrike",
        "priority": 4,
        "castCondition": {
          "pose": [212],
          "pickRangeMax": 5.0
        },
        "cd": 3.0,
        "initialCD": 3.0,
        "publicCDGroup": "",
        "ignoreGCD": true,
        "HHAGODJIAPE": "",
        "stateIDs": ["DashingStrike"],
        "flagTargetReachable": "01",
        "flagSelfOnTemplateCollider": "01",
        "flagSelfInZone": "10",
        "flagTargetInZone": "11"
      },
      "240": {
        "name": "FlashStrike",
        "priority": 1,
        "castCondition": {
          "pose": [214, 221],
          "pickRangeMax": 25.0
        },
        "cd": 15.0,
        "initialCD": 1.0,
        "publicCDGroup": "",
        "HHAGODJIAPE": "",
        "stateIDs": ["FlashStrike", "FlashStrike_Last"],
        "flagTargetReachable": "11",
        "flagSelfOnTemplateCollider": "11",
        "flagSelfInZone": "11",
        "flagTargetInZone": "11"
      },
      "242": {
        "name": "FlashStrike",
        "priority": 1,
        "castCondition": {
          "pose": [214],
          "pickRangeMax": 25.0
        },
        "cd": 999999.0,
        "initialCD": 99999.0,
        "publicCDGroup": "",
        "HHAGODJIAPE": "",
        "stateIDs": ["FlashStrike", "FlashStrike_Last"],
        "flagTargetReachable": "10",
        "flagSelfOnTemplateCollider": "01",
        "flagSelfInZone": "10",
        "flagTargetInZone": "11"
      },
      "243": {
        "name": "FlashStrike",
        "priority": 1,
        "castCondition": {
          "pose": [214],
          "pickRangeMax": 15.0
        },
        "cd": 999999.0,
        "initialCD": 99999.0,
        "publicCDGroup": "",
        "HHAGODJIAPE": "",
        "stateIDs": ["FlashStrike", "FlashStrike_Last"],
        "flagTargetReachable": "10",
        "flagSelfOnTemplateCollider": "01",
        "flagSelfInZone": "10",
        "flagTargetInZone": "11"
      },
      "250": {
        "name": "IntoShadow",
        "priority": 2,
        "castCondition": {
          "pose": [202],
          "pickRangeMax": 50.0
        },
        "cd": 30.0,
        "initialCD": 30.0,
        "publicCDGroup": "",
        "HHAGODJIAPE": "",
        "stateIDs": ["IntoShadow", "IntoShadowSteer1", "IntoShadowSteer2"],
        "flagTargetReachable": "10",
        "flagSelfOnTemplateCollider": "01",
        "flagSelfInZone": "10",
        "flagTargetInZone": "11"
      },
      "252": {
        "name": "IntoShadow",
        "priority": 2,
        "castCondition": {
          "pose": [201],
          "pickRangeMax": 50.0
        },
        "cd": 9999.0,
        "publicCDGroup": "",
        "triggerCDOnFail": false,
        "HHAGODJIAPE": "",
        "stateIDs": ["IntoShadow", "IntoShadowSteer1", "IntoShadowSteer2"],
        "flagTargetReachable": "10",
        "flagSelfOnTemplateCollider": "01",
        "flagSelfInZone": "10",
        "flagTargetInZone": "11"
      },
      "261": {
        "name": "BackStab",
        "priority": 3,
        "castCondition": {
          "pose": [202],
          "pickRangeMax": 8.0
        },
        "cd": 10.0,
        "initialCD": 10.0,
        "publicCDGroup": "",
        "HHAGODJIAPE": "",
        "stateIDs": ["BackStab"],
        "flagTargetReachable": "10",
        "flagSelfOnTemplateCollider": "01",
        "flagSelfInZone": "10",
        "flagTargetInZone": "11"
      },
      "262": {
        "name": "BackStab",
        "priority": 3,
        "castCondition": {
          "pose": [201, 202],
          "pickRangeMax": 8.0
        },
        "cd": 3.0,
        "initialCD": 3.0,
        "publicCDGroup": "",
        "ignoreGCD": true,
        "HHAGODJIAPE": "",
        "stateIDs": ["BackStab"],
        "flagTargetReachable": "01",
        "flagSelfOnTemplateCollider": "01",
        "flagSelfInZone": "10",
        "flagTargetInZone": "11"
      },
      "271": {
        "name": "RangeAttack",
        "priority": 2,
        "castCondition": {
          "pose": [224]
        },
        "cd": 9999.0,
        "initialCD": 5.0,
        "publicCDGroup": "",
        "triggerCDOnFail": false,
        "HHAGODJIAPE": "",
        "stateIDs": ["RangeAttack"],
        "flagTargetReachable": "11",
        "flagSelfOnTemplateCollider": "11",
        "flagSelfInZone": "11",
        "flagTargetInZone": "11"
      },
      "280": {
        "name": "Weak",
        "priority": 2,
        "castCondition": {
          "pose": [225]
        },
        "cd": 9999.0,
        "publicCDGroup": "",
        "triggerCDOnFail": false,
        "HHAGODJIAPE": "",
        "stateIDs": ["Weak"],
        "flagTargetReachable": "11",
        "flagSelfOnTemplateCollider": "11",
        "flagSelfInZone": "11",
        "flagTargetInZone": "11"
      }
    },
    "skillGCD": 0.0,
    "birdCirclingTactic": [
      {
        "$type": "EPHBMLFODKF",
        "enable": true,
        "condition": {
          "pose": [201, 202]
        },
        "JMCOBEPDIGM": {
          "rangeMin": 2.5,
          "rangeMax": 4.5,
          "BFJBDDIIFOI": {
            "LLICGJHIGME": 0.0,
            "IDEFILBHNAP": 0.0,
            "IBLIPJPNOGC": 0.0,
            "AEBLMKFNCDG": 2.0,
            "IGLIBIOEGBB": 2.0
          },
          "NAOBMNGDKHL": "1111",
          "JCNIJOAIGII": "1111",
          "MNPDDAKDHGK": ""
        }
      },
      {
        "$type": "JAFNBBGAPPO",
        "enable": true,
        "condition": {
          "pose": [222]
        },
        "JMCOBEPDIGM": {
          "NBENNEKDIIA": 5.0,
          "CJNOBGEGKFL": 3.5,
          "KEIFBBGKGPN": 3.5,
          "EPMAMGJCELL": 3.0
        }
      },
      {
        "$type": "KACCHOLJDNK",
        "enable": true,
        "condition": {
          "pose": [201, 202, 213, 214, 221]
        },
        "JMCOBEPDIGM": {
          "KHDFDAAAPEI": 12.0,
          "HKJODDGJPHA": 99.0,
          "GGEBMFHFBPO": 4.0,
          "KFFGCIMPNMJ": 0.0,
          "MNPDDAKDHGK": ""
        }
      },
      {
        "$type": "NNJKLGNPMNN",
        "enable": true,
        "JMCOBEPDIGM": {
          "MNPDDAKDHGK": "",
          "GJDMDHIBCME": ""
        }
      },
      {
        "$type": "FPELBIJFGCE",
        "enable": true,
        "condition": {
          "pose": [101]
        },
        "JMCOBEPDIGM": {
          "NBENNEKDIIA": 2.0,
          "KPNDPKIOPJM": 3.0,
          "PINAFKEDDLL": 1.5,
          "ANMPOPEBDIA": 15.0,
          "GMJFIMFFOEL": 3.75,
          "CHCPFDMADEI": 7.5,
          "MNPDDAKDHGK": ""
        }
      }
    ]
  },
  "inputKeys": [
    {
      "keyID": 271,
      "inputKeyCode": 257,
      "abilityName": ""
    },
    {
      "keyID": 220,
      "inputKeyCode": 258,
      "abilityName": ""
    },
    {
      "keyID": 231,
      "inputKeyCode": 259,
      "abilityName": ""
    },
    {
      "keyID": 240,
      "inputKeyCode": 260,
      "abilityName": ""
    },
    {
      "keyID": 243,
      "inputKeyCode": 261,
      "abilityName": ""
    },
    {
      "keyID": 250,
      "inputKeyCode": 262,
      "abilityName": ""
    },
    {
      "keyID": 261,
      "inputKeyCode": 263,
      "abilityName": ""
    }
  ],
  "move": {
    "$type": "IPNMJMHDMPF",
    "facingMove": "ForwardBackward",
    "monsterSizeType": "StrongHumanoidType",
    "PKHOMJHFAEE": "RootNode"
  },
  "audio": {
    "overrideEmitterName": "",
    "animAudio": {
      "onTransitionIn": [
        {
          "currentStateName": "Run",
          "audioEvent": {
            "text": "Play_sfx_monster_fatuus_fire_run_intoShadow"
          }
        },
        {
          "currentStateName": "Die",
          "audioEvent": {
            "text": "Stop_sfx_monster_fatuus_fire_run_intoShadow"
          }
        }
      ],
      "onTransitionOut": [
        {
          "currentStateName": "Alert",
          "audioEvent": {
            "text": "Stop_sfx_monster_fatuus_fire_alert"
          }
        },
        {
          "currentStateName": "IntoShadow1",
          "audioEvent": {
            "text": "Stop_sfx_monster_fatuus_fire_intoShadow"
          },
          "otherStateNames": ["IntoShadow2"],
          "usage": "Except"
        },
        {
          "currentStateName": "IntoShadowForward",
          "audioEvent": {
            "text": "Stop_sfx_monster_fatuus_fire_intoShadow_BS_body"
          },
          "otherStateNames": ["IntoShadow2"],
          "usage": "Except"
        },
        {
          "currentStateName": "IntoShadow2",
          "audioEvent": {
            "text": "Stop_sfx_monster_fatuus_fire_intoShadow"
          },
          "otherStateNames": ["IntoShadow2"],
          "usage": "Except"
        },
        {
          "currentStateName": "DashingStrike",
          "audioEvent": {
            "text": "Stop_sfx_monster_fatuus_fire_dashingStrike_outOfShadow"
          }
        },
        {
          "currentStateName": "DashingStrike",
          "audioEvent": {
            "text": ""
          }
        },
        {
          "currentStateName": "StabAttack",
          "audioEvent": {
            "text": "Stop_sfx_monster_fatuus_fire_stab_outOfShadow"
          }
        },
        {
          "currentStateName": "StabAttack",
          "audioEvent": {
            "text": "Play_sfx_monster_fatuus_fire_dashingStrike_intoShadow"
          }
        },
        {
          "currentStateName": "NormalAtk",
          "audioEvent": {
            "text": "Stop_sfx_monster_fatuus_fire_normalAtk"
          }
        },
        {
          "currentStateName": "BackStab",
          "audioEvent": {
            "text": "Stop_sfx_monster_fatuus_fire_backStab"
          }
        },
        {
          "currentStateName": "FlashStrike_BS",
          "audioEvent": {
            "text": "Stop_sfx_monster_fatuus_fire_flashStrike_BS"
          }
        },
        {
          "currentStateName": "FlashStrike",
          "audioEvent": {
            "text": "Stop_sfx_monster_fatuus_fire_flashStrike"
          }
        },
        {
          "currentStateName": "FlashStrike_Last",
          "audioEvent": {
            "text": "Stop_sfx_monster_fatuus_fire_flashStrike_last"
          }
        },
        {
          "currentStateName": "Run",
          "audioEvent": {
            "text": "Pause_sfx_monster_fatuus_fire_run_intoShadow"
          }
        }
      ]
    },
    "behaviours": [
      {
        "$type": "BILJOKAHFPL",
        "coolDown": 5.0,
        "BGIEINMDECM": {
          "$type": "IFGMCBBGLDI",
          "LIHPNFLLKDA": {
            "$type": "LFOALDLDGDN"
          },
          "ACMFKGCEPBN": {
            "$type": "IFGMCBBGLDI",
            "LIHPNFLLKDA": {
              "$type": "EAIMKFLEHCC"
            },
            "ACMFKGCEPBN": {
              "$type": "JOPFGOEOKPH",
              "target": {
                "$type": "OJKONELIJJC"
              }
            }
          }
        },
        "onKill": [
          {
            "$type": "DELPJNMAIHM",
            "OPEMPFCFHMO": "__DefaultSync__",
            "action": {
              "$type": "CPBMHBHJPKE",
              "eventName": {
                "text": "Play_vo_monster_fatuus_natlan_fire_SpecialKillAvatar_01"
              }
            }
          }
        ]
      }
    ]
  }
}
