{
  "common": {
    "effectAttachShape": {
      "$type": "FJNPJANPGGC",
      "mesh": "EffectMesh"
    },
    "mass": 1000000.0,
    "height": 5.0,
    "viewSize": 2.5,
    "affectedByWorld": true,
    "checkInSurface": true,
    "useGrassDisplacement": true,
    "clearAnimatorOnSetLightDeactive": true,
    "clearAIOnSetLightDeactive": true,
    "recoverByInitPose": true,
    "useFinalIK": true
  },
  "model": {
    "bornEffect": "",
    "attachEffect": "",
    "canBakeMesh": false,
    "BKPFGNPLDNJ": ""
  },
  "dither": {
    "showDitherDuration": 2.0,
    "normalBetweenCamera": {
      "detectDitherRange": 5.0
    }
  },
  "combat": {
    "property": {
      "endureType": "Monster_Boss_Other",
      "weight": 300.0
    },
    "beHit": {
      "hitBloodEffect": "",
      "hitAutoRedirect": false
    },
    "combatLock": {
      "lockShape": "CircleLockEnemy",
      "lockType": "Avatar&Monster_Lv4"
    },
    "die": {
      "hasAnimatorDie": true,
      "dieEndTime": 2.0,
      "dieForceDisappearTime": 2.0,
      "dieDisappearEffect": "Eff_Death_Common",
      "dieShaderData": "MonsterDie",
      "useRagDoll": true,
      "muteHitBox": true,
      "dieDenyLockOn": true,
      "dieIsGhostToEnemy": true,
      "dieIgnoreTriggerBullet": true,
      "muteBillboard": true,
      "mutePushCollider": true
    },
    "animEvents": {
      "NormalAtk01": {
        "attackPattern": {
          "$type": "ConfigAttackCircle",
          "triggerType": "TriggerNoRepeat",
          "born": {
            "$type": "ConfigBornBySelf",
            "offset": {
              "x": 0.0,
              "y": -0.800000011920929,
              "z": 0.30000001192092896
            }
          },
          "height": 3.0,
          "radius": 6.0
        },
        "attackInfo": {
          "attackTag": "",
          "attenuationTag": "",
          "attenuationGroup": "default",
          "attackProperty": {
            "actorGrassSubHurtDelta": 0.6000000238418579,
            "actorWindSubHurtDelta": 0.0,
            "elementDurability": 25.0,
            "strikeType": "Slash",
            "enBreak": 150.0,
            "attackType": "Melee",
            "GLKMCMDJBIK": 0.0
          },
          "hitPattern": {
            "onHitEffectName": "default",
            "hitImpulseY": "",
            "hitImpulseType": "LV4",
            "overrideHitImpulse": {
              "hitLevel": "Heavy",
              "IMIJMPGJOGG": 900.0,
              "BPCDKKBKOBM": 200.0
            },
            "hitHaltTimeScale": 0.05000000074505806
          }
        }
      },
      "NormalAtk02_First": {
        "attackPattern": {
          "$type": "ConfigAttackBox",
          "triggerType": "TriggerNoRepeat",
          "born": {
            "$type": "ConfigBornBySelf",
            "offset": {
              "x": 0.6499999761581421,
              "y": -0.20000000298023224,
              "z": 1.0499999523162842
            },
            "direction": {
              "$type": "ConfigDirectionByDefault",
              "angleOffsetCorrect": {
                "x": 0.0,
                "y": -24.0,
                "z": 0.0
              }
            }
          },
          "size": {
            "x": 3.799999952316284,
            "y": 5.0,
            "z": 3.200000047683716
          }
        },
        "attackInfo": {
          "attackTag": "",
          "attenuationTag": "",
          "attenuationGroup": "default",
          "attackProperty": {
            "actorGrassSubHurtDelta": 0.6000000238418579,
            "actorWindSubHurtDelta": 0.0,
            "elementDurability": 0.0,
            "strikeType": "Slash",
            "enBreak": 50.0,
            "attackType": "Melee",
            "GLKMCMDJBIK": 0.0
          },
          "hitPattern": {
            "onHitEffectName": "default",
            "hitImpulseY": "",
            "hitImpulseType": "LV3",
            "hitHaltTimeScale": 0.05000000074505806
          }
        }
      },
      "NormalAtk02_Second": {
        "attackPattern": {
          "$type": "ConfigAttackBox",
          "triggerType": "TriggerNoRepeat",
          "born": {
            "$type": "ConfigBornBySelf",
            "offset": {
              "x": 0.550000011920929,
              "y": -0.20000000298023224,
              "z": 1.5499999523162842
            },
            "direction": {
              "$type": "ConfigDirectionByDefault",
              "angleOffsetCorrect": {
                "x": 0.0,
                "y": -36.0,
                "z": 0.0
              }
            }
          },
          "size": {
            "x": 3.200000047683716,
            "y": 5.0,
            "z": 3.200000047683716
          }
        },
        "attackInfo": {
          "attackTag": "",
          "attenuationTag": "",
          "attenuationGroup": "default",
          "attackProperty": {
            "actorGrassSubHurtDelta": 0.6000000238418579,
            "actorWindSubHurtDelta": 0.0,
            "elementDurability": 0.0,
            "strikeType": "Slash",
            "enBreak": 50.0,
            "attackType": "Melee",
            "GLKMCMDJBIK": 0.0
          },
          "hitPattern": {
            "onHitEffectName": "default",
            "hitImpulseY": "",
            "hitImpulseType": "LV3",
            "hitHaltTimeScale": 0.05000000074505806
          }
        }
      }
    }
  },
  "abilities": [
    {
      "abilityID": "",
      "abilityName": "Monster_Gargoyle_Ground_Pose",
      "abilityOverride": ""
    },
    {
      "abilityID": "",
      "abilityName": "Monster_Gargoyle_Ground_PoseElement_Begin",
      "abilityOverride": ""
    },
    {
      "abilityID": "",
      "abilityName": "Monster_Gargoyle_Ground_PoseElement_End",
      "abilityOverride": ""
    },
    {
      "abilityID": "",
      "abilityName": "Monster_Gargoyle_Ground_Alert",
      "abilityOverride": ""
    },
    {
      "abilityID": "",
      "abilityName": "Monster_Gargoyle_Ground_ExitBattle",
      "abilityOverride": ""
    },
    {
      "abilityID": "",
      "abilityName": "Monster_Gargoyle_Ground_Steer",
      "abilityOverride": ""
    },
    {
      "abilityID": "",
      "abilityName": "Monster_Gargoyle_Ground_HeadControl",
      "abilityOverride": ""
    },
    {
      "abilityID": "",
      "abilityName": "Monster_Gargoyle_Ground_PowerOff",
      "abilityOverride": ""
    },
    {
      "abilityID": "",
      "abilityName": "Monster_Gargoyle_Ground_Weakness_Effect",
      "abilityOverride": ""
    },
    {
      "abilityID": "",
      "abilityName": "Monster_Gargoyle_Ground_Weakness_Head",
      "abilityOverride": ""
    },
    {
      "abilityID": "",
      "abilityName": "Monster_Gargoyle_Ground_Weakness_Chest",
      "abilityOverride": ""
    },
    {
      "abilityID": "",
      "abilityName": "Monster_Gargoyle_Ground_Weak",
      "abilityOverride": ""
    },
    {
      "abilityID": "",
      "abilityName": "Monster_Gargoyle_Ground_ChargeAtk_Bullet",
      "abilityOverride": ""
    },
    {
      "abilityID": "",
      "abilityName": "Monster_Gargoyle_Ground_ChargeAtk_EffectAdd",
      "abilityOverride": ""
    },
    {
      "abilityID": "",
      "abilityName": "Monster_Gargoyle_Ground_NormalAtk01_TailOn",
      "abilityOverride": ""
    },
    {
      "abilityID": "",
      "abilityName": "Monster_Gargoyle_Ground_NormalAtk01_TailOff",
      "abilityOverride": ""
    },
    {
      "abilityID": "",
      "abilityName": "Monster_Gargoyle_Ground_ElementAtk_Settle",
      "abilityOverride": ""
    },
    {
      "abilityID": "",
      "abilityName": "Monster_Gargoyle_Ground_ElementAtk_Activated",
      "abilityOverride": ""
    },
    {
      "abilityID": "",
      "abilityName": "Monster_Gargoyle_Ground_ElementAtk_Recover",
      "abilityOverride": ""
    },
    {
      "abilityID": "",
      "abilityName": "Monster_Gargoyle_Ground_ElementAtk_Bullet",
      "abilityOverride": ""
    },
    {
      "abilityID": "",
      "abilityName": "Monster_Gargoyle_Ground_ElementAtk_Effect_BS",
      "abilityOverride": ""
    },
    {
      "abilityID": "",
      "abilityName": "Monster_Gargoyle_Ground_ElementAtk_Effect_Wings",
      "abilityOverride": ""
    },
    {
      "abilityID": "",
      "abilityName": "Monster_Gargoyle_Ground_ElementAtk_Effect_Chest",
      "abilityOverride": ""
    }
  ],
  "stateLayers": {
    "defaultLayer": {
      "$type": "GBGJJIIEMBD",
      "layerIndexName": "",
      "CPAANEIJCGD": "",
      "stateIDs": {
        "Born": {
          "$type": "NEDIFAKEGCO",
          "animatorStates": {
            "Born": []
          },
          "canDoSkill": true,
          "canSyncMove": true,
          "resetAnimatorTriggerOnExit": ["DoSkill"]
        },
        "NormalIdle": {
          "$type": "NEDIFAKEGCO",
          "animatorStates": {
            "StandbyFree": [],
            "Standby": []
          },
          "canDoSkill": true,
          "canSyncMove": true,
          "resetAnimatorTriggerOnExit": ["DoSkill"]
        },
        "NormalIdle_PowerOff": {
          "$type": "NEDIFAKEGCO",
          "animatorStates": {
            "StandbyFree_PowerOff": []
          },
          "canDoSkill": true,
          "canSyncMove": true,
          "resetAnimatorTriggerOnExit": ["DoSkill"]
        },
        "NormalMove": {
          "$type": "NEDIFAKEGCO",
          "animatorStates": {
            "WalkForward": [
              "Monster_Gargoyle_Ground_WalkForward",
              "Audio_Monster_Gargoyle_Ground_Walk"
            ],
            "WalkBack": [
              "Monster_Gargoyle_Ground_WalkBack",
              "Audio_Monster_Gargoyle_Ground_Walk"
            ]
          },
          "canDoSkill": true,
          "canSyncMove": true,
          "resetAnimatorTriggerOnExit": ["DoSkill"],
          "canSteer": true
        },
        "Run": {
          "$type": "NEDIFAKEGCO",
          "animatorStates": {
            "Run": [
              "Monster_Gargoyle_Ground_WalkForward",
              "Audio_Monster_Gargoyle_Ground_Run"
            ]
          },
          "canDoSkill": true,
          "canSyncMove": true,
          "resetAnimatorTriggerOnExit": ["DoSkill"],
          "canSteer": true
        },
        "Turn": {
          "$type": "NEDIFAKEGCO",
          "animatorStates": {
            "TurnLeft": [
              "Monster_Gargoyle_Ground_WalkLeft",
              "Audio_Monster_Gargoyle_Ground_Walk"
            ],
            "TurnRight": [
              "Monster_Gargoyle_Ground_WalkRight",
              "Audio_Monster_Gargoyle_Ground_Walk"
            ]
          },
          "canDoSkill": true,
          "canSyncMove": true,
          "resetAnimatorTriggerOnExit": ["DoSkill"]
        },
        "BeHit": {
          "$type": "NEDIFAKEGCO",
          "animatorStates": {
            "Hit_HeadGround": ["Audio_Monster_Gargoyle_Ground_Hit"],
            "Hit_ChestGround": ["Audio_Monster_Gargoyle_Ground_Hit"]
          },
          "canSyncMove": true,
          "resetAnimatorTriggerOnEnter": ["BeHit"],
          "resetAnimatorTriggerOnExit": ["DoSkill"]
        },
        "Die": {
          "$type": "NEDIFAKEGCO",
          "animatorStates": {
            "Die": [
              "Monster_Gargoyle_Ground_Die",
              "Audio_Monster_Gargoyle_Ground_Die"
            ],
            "Die_Weak": ["Audio_Monster_Gargoyle_Ground_Die_Weak"]
          }
        },
        "Die_RagDoll": {
          "$type": "NEDIFAKEGCO",
          "animatorStates": {
            "Die_Ragdoll": [],
            "Die_Weak_Ragdoll": []
          },
          "enableRagDoll": true
        },
        "Alert": {
          "$type": "NEDIFAKEGCO",
          "animatorStates": {
            "Alert": []
          },
          "canSyncMove": true,
          "resetAnimatorTriggerOnExit": ["BeHit", "DoSkill"],
          "canSteer": true
        },
        "Alert_PowerOff": {
          "$type": "NEDIFAKEGCO",
          "animatorStates": {
            "Alert_PowerOff": [
              "Monster_Gargoyle_Ground_Alert",
              "Audio_Monster_Gargoyle_Ground_Alert_PowerOff"
            ]
          },
          "canSyncMove": true,
          "resetAnimatorTriggerOnExit": ["BeHit", "DoSkill"],
          "canSteer": true
        },
        "Weak": {
          "$type": "NEDIFAKEGCO",
          "animatorStates": {
            "Weak_BS": [
              "Monster_Gargoyle_Ground_Weak_BS",
              "Audio_Monster_Gargoyle_Ground_Weak_BS"
            ],
            "Weak_Loop": [],
            "Weak_AS": ["Audio_Monster_Gargoyle_Ground_Weak_AS"]
          },
          "canSyncMove": true,
          "resetAnimatorTriggerOnExit": ["BeHit", "DoSkill"]
        },
        "ChargeAtk_BS": {
          "$type": "NEDIFAKEGCO",
          "animatorStates": {
            "ChargeAtk_BS": [
              "Monster_Gargoyle_Ground_ChargeAtk_BS",
              "Audio_Monster_Gargoyle_Ground_ChargeAtk_BS"
            ]
          },
          "canSyncMove": true,
          "resetAnimatorTriggerOnExit": ["BeHit", "DoSkill"],
          "handleAnimatorStateImmediately": true,
          "canSteer": true
        },
        "ChargeAtk_Loop": {
          "$type": "NEDIFAKEGCO",
          "animatorStates": {
            "ChargeAtk_Loop": [
              "Monster_Gargoyle_Ground_ChargeAtk_Loop",
              "Audio_Monster_Gargoyle_Ground_ChargeAtk_Run"
            ]
          },
          "canSyncMove": true,
          "resetAnimatorTriggerOnExit": ["BeHit", "DoSkill"],
          "handleAnimatorStateImmediately": true,
          "canSteer": true
        },
        "ChargeAtk_AS1": {
          "$type": "NEDIFAKEGCO",
          "animatorStates": {
            "ChargeAtk_AS1": [
              "Monster_Gargoyle_Ground_ChargeAtk_AS",
              "Audio_Monster_Gargoyle_Ground_ChargeAtk_AS1"
            ]
          },
          "resetAnimatorTriggerOnExit": ["BeHit", "DoSkill"],
          "handleAnimatorStateImmediately": true,
          "canSteer": true
        },
        "ChargeAtk_AS2": {
          "$type": "NEDIFAKEGCO",
          "animatorStates": {
            "ChargeAtk_AS2": [
              "Monster_Gargoyle_Ground_NormalAtk01",
              "Audio_Monster_Gargoyle_Ground_ChargeAtk_AS2"
            ]
          },
          "resetAnimatorTriggerOnExit": ["BeHit", "DoSkill"],
          "handleAnimatorStateImmediately": true,
          "canSteer": true
        },
        "NormalAtk01": {
          "$type": "NEDIFAKEGCO",
          "animatorStates": {
            "NormalAtk01": [
              "Monster_Gargoyle_Ground_NormalAtk01",
              "Audio_Monster_Gargoyle_Ground_NormalAtk_01"
            ]
          },
          "canSyncMove": true,
          "resetAnimatorTriggerOnExit": ["BeHit", "DoSkill"],
          "canSteer": true
        },
        "NormalAtk02": {
          "$type": "NEDIFAKEGCO",
          "animatorStates": {
            "NormalAtk02": [
              "Monster_Gargoyle_Ground_NormalAtk02",
              "Audio_Monster_Gargoyle_Ground_NormalAtk_02"
            ]
          },
          "canSyncMove": true,
          "resetAnimatorTriggerOnExit": ["BeHit", "DoSkill"],
          "canSteer": true
        },
        "ElementAtk": {
          "$type": "NEDIFAKEGCO",
          "animatorStates": {
            "ElementAtk": [
              "Monster_Gargoyle_Ground_ElementAtk",
              "Audio_Monster_Gargoyle_Ground_ElementAtk"
            ]
          },
          "canSyncMove": true,
          "resetAnimatorTriggerOnExit": ["BeHit", "DoSkill"],
          "canSteer": true
        },
        "NormalIdle_Machinery": {
          "$type": "NEDIFAKEGCO",
          "animatorStates": {
            "StandbyFree_Machinery": []
          },
          "canDoSkill": true,
          "canSyncMove": true,
          "resetAnimatorTriggerOnExit": ["DoSkill"]
        },
        "Machinery": {
          "$type": "NEDIFAKEGCO",
          "animatorStates": {
            "Alert_Machinery": [
              "Monster_Gargoyle_Ground_Alert_Machinery",
              "Audio_Monster_Gargoyle_Ground_Alert_Machinery"
            ]
          },
          "cullingModelAlwaysAnimate": true,
          "resetAnimatorTriggerOnEnter": ["BeHit"],
          "resetAnimatorTriggerOnExit": ["DoSkill"]
        }
      }
    }
  },
  "partControl": {
    "parts": [
      {
        "$type": "JMCNLBANPIP",
        "angularSpeed": 360.0,
        "partRootName": "Neck",
        "forwardBy": "Parent",
        "forwardAxialFix": {
          "y": -90.0
        },
        "doOnUnEabled": "RotateToForward",
        "forwardByTransName": "",
        "limitHorizontal": 60.0,
        "limitVertical": 30.0,
        "defaultEnable": false,
        "rootName": "Neck",
        "finalAxialFix": {
          "x": 3.0
        },
        "verticalDamping": 15.0
      }
    ]
  },
  "billboard": {
    "$type": "DNGNMAJBCNP",
    "attachPoint": "BillboardAttach",
    "offset": {
      "y": 0.5
    },
    "radiusOffset": 1.0,
    "enableSelfAdapt": true,
    "showDistance": 48.0,
    "showHPBar": true,
    "size": "Grand"
  },
  "initialPoses": {
    "Default": {
      "initialPoseID": 101
    },
    "PowerOff": {
      "initialPoseID": 102,
      "initialPoseParams": {
        "boolParams": {
          "PowerOff": "true"
        }
      }
    },
    "Machinery": {
      "initialPoseID": 111,
      "initialPoseParams": {
        "boolParams": {
          "Machinery": "true"
        }
      }
    }
  },
  "aibeta": {
    "enable": true,
    "moveSetting": {
      "useNavMesh": false,
      "navMeshAgentName": "Undead01"
    },
    "sensing": {
      "settings": {
        "DefaultSetting": {
          "viewRange": 22.0,
          "viewPanoramic": true,
          "feelRange": 8.75
        },
        "PowerOff_Active": {
          "enableVision": false,
          "feelRange": 8.0
        },
        "Machinery": {
          "enableVision": false,
          "hearAttractionRange": 0.0,
          "feelRange": 0.0
        }
      },
      "templates": {
        "DefaultTemplate": {
          "DefaultPoses": "DefaultSetting"
        },
        "PowerOff_Active": {
          "DefaultPoses": "DefaultSetting",
          "102": "PowerOff_Active"
        },
        "Machinery": {
          "DefaultPoses": "DefaultSetting",
          "111": "Machinery"
        }
      }
    },
    "neurons": {
      "DefaultSetting": ["HIT"],
      "Machinery": []
    },
    "threat": {
      "GHIJMOKOLMB": "",
      "clearThreatTargetDistance": 65.0,
      "clearThreatEdgeDistance": 5.0,
      "clearThreatByTargetOutOfZone": true,
      "clearThreatTimerByTargetOutOfZone": 7.5,
      "viewThreatGrow": 35.0,
      "threatDecreaseSpeed": 200.0,
      "resistTauntLevel": "Monster_TauntLevel_3"
    },
    "defendArea": {
      "defendRange": 50.0
    },
    "skills": {
      "102": {
        "name": "OnAlert",
        "skillType": "OnAlert",
        "castCondition": {
          "pose": [102]
        },
        "publicCDGroup": "",
        "triggerGCD": false,
        "HHAGODJIAPE": "",
        "stateIDs": ["Alert_PowerOff"],
        "skillQueryingTime": 3.0,
        "flagTargetReachable": "10",
        "flagSelfOnTemplateCollider": "01",
        "flagSelfInZone": "10",
        "flagTargetInZone": "11"
      },
      "121": {
        "name": "OnAlert",
        "skillType": "OnAlert",
        "castCondition": {
          "pose": [111]
        },
        "publicCDGroup": "",
        "triggerGCD": false,
        "HHAGODJIAPE": "",
        "stateIDs": ["Machinery"],
        "skillQueryingTime": 3.0,
        "flagTargetReachable": "10",
        "flagSelfOnTemplateCollider": "01",
        "flagSelfInZone": "10",
        "flagTargetInZone": "11"
      },
      "201": {
        "name": "ChargeAtk",
        "combatSkillType": "MeleeAttack",
        "priority": 3,
        "castCondition": {
          "pose": [201],
          "pickRangeMax": 7.5,
          "castRangeMax": 7.5
        },
        "cd": 7.5,
        "cdUpperRange": 3.0,
        "initialCD": 5.0,
        "initialCDUpperRange": 4.0,
        "publicCDGroup": "",
        "HHAGODJIAPE": "",
        "stateIDs": [
          "ChargeAtk_BS",
          "ChargeAtk_Loop",
          "ChargeAtk_AS1",
          "ChargeAtk_AS2"
        ],
        "skillQueryingTime": 3.0,
        "flagTargetReachable": "10",
        "flagSelfOnTemplateCollider": "01",
        "flagSelfInZone": "10",
        "flagTargetInZone": "11"
      },
      "202": {
        "name": "ChargeAtk",
        "combatSkillType": "MeleeAttack",
        "priority": 2,
        "castCondition": {
          "pose": [201],
          "pickRangeMin": 7.5,
          "pickRangeMax": 15.0,
          "castRangeMin": 7.5,
          "castRangeMax": 15.0
        },
        "cd": 5.0,
        "cdUpperRange": 5.0,
        "initialCD": 5.0,
        "initialCDUpperRange": 4.0,
        "publicCDGroup": "",
        "HHAGODJIAPE": "",
        "stateIDs": [
          "ChargeAtk_BS",
          "ChargeAtk_Loop",
          "ChargeAtk_AS1",
          "ChargeAtk_AS2"
        ],
        "skillQueryingTime": 3.0,
        "flagTargetReachable": "10",
        "flagSelfOnTemplateCollider": "01",
        "flagSelfInZone": "10",
        "flagTargetInZone": "11"
      },
      "203": {
        "name": "ChargeAtk",
        "combatSkillType": "MeleeAttack",
        "priority": 2,
        "castCondition": {
          "pose": [201],
          "pickRangeMin": 15.0,
          "pickRangeMax": 25.0,
          "castRangeMin": 15.0,
          "castRangeMax": 25.0
        },
        "cd": 5.0,
        "cdUpperRange": 5.0,
        "initialCD": 5.0,
        "initialCDUpperRange": 4.0,
        "publicCDGroup": "",
        "HHAGODJIAPE": "",
        "stateIDs": [
          "ChargeAtk_BS",
          "ChargeAtk_Loop",
          "ChargeAtk_AS1",
          "ChargeAtk_AS2"
        ],
        "skillQueryingTime": 3.0,
        "flagTargetReachable": "10",
        "flagSelfOnTemplateCollider": "01",
        "flagSelfInZone": "10",
        "flagTargetInZone": "11"
      },
      "204": {
        "name": "ChargeAtk",
        "combatSkillType": "MeleeAttack",
        "priority": 2,
        "castCondition": {
          "pose": [201],
          "pickRangeMax": 20.0,
          "castRangeMax": 20.0
        },
        "cd": 10.0,
        "cdUpperRange": 5.0,
        "initialCD": 5.0,
        "initialCDUpperRange": 4.0,
        "publicCDGroup": "",
        "HHAGODJIAPE": "",
        "stateIDs": [
          "ChargeAtk_BS",
          "ChargeAtk_Loop",
          "ChargeAtk_AS1",
          "ChargeAtk_AS2"
        ],
        "skillQueryingTime": 3.0,
        "flagTargetReachable": "01",
        "flagSelfOnTemplateCollider": "01",
        "flagSelfInZone": "10",
        "flagTargetInZone": "11"
      },
      "301": {
        "name": "NormalAtk01",
        "combatSkillType": "MeleeAttack",
        "priority": 2,
        "castCondition": {
          "pose": [201],
          "pickRangeMax": 7.5,
          "pickRangeYMax": 2.0,
          "castRangeMax": 7.5
        },
        "cd": 3.0,
        "cdUpperRange": 5.0,
        "initialCD": 1.0,
        "initialCDUpperRange": 4.0,
        "publicCDGroup": "",
        "HHAGODJIAPE": "",
        "stateIDs": ["NormalAtk01"],
        "skillQueryingTime": 3.0,
        "flagTargetReachable": "11",
        "flagSelfOnTemplateCollider": "01",
        "flagSelfInZone": "10",
        "flagTargetInZone": "11"
      },
      "401": {
        "name": "NormalAtk02",
        "combatSkillType": "MeleeAttack",
        "priority": 2,
        "castCondition": {
          "pose": [201],
          "maxTargetAngleXZ": 75.0,
          "pickRangeMax": 6.5,
          "pickRangeYMax": 2.5,
          "castRangeMax": 6.5
        },
        "cd": 1.5,
        "cdUpperRange": 5.0,
        "initialCD": 1.0,
        "initialCDUpperRange": 4.0,
        "publicCDGroup": "",
        "HHAGODJIAPE": "",
        "stateIDs": ["NormalAtk02"],
        "skillQueryingTime": 3.0,
        "flagTargetReachable": "11",
        "flagSelfOnTemplateCollider": "01",
        "flagSelfInZone": "10",
        "flagTargetInZone": "11"
      },
      "501": {
        "name": "ElementAtk",
        "combatSkillType": "MeleeAttack",
        "priority": 1,
        "castCondition": {
          "pose": [301]
        },
        "cd": 99999.0,
        "initialCD": 1.0,
        "publicCDGroup": "",
        "triggerCDOnFail": false,
        "HHAGODJIAPE": "",
        "stateIDs": ["ElementAtk"],
        "flagTargetReachable": "11",
        "flagSelfOnTemplateCollider": "01",
        "flagSelfInZone": "11",
        "flagTargetInZone": "11"
      }
    },
    "skillGCD": 2.0,
    "birdCirclingTactic": [
      {
        "$type": "EPHBMLFODKF",
        "enable": true,
        "condition": {
          "pose": [201]
        },
        "JMCOBEPDIGM": {
          "rangeMax": 10.0,
          "ALIBHHJHHMN": 6.5,
          "BFJBDDIIFOI": {
            "LLICGJHIGME": 0.0,
            "AEBLMKFNCDG": 0.0,
            "IGLIBIOEGBB": 0.0
          },
          "NAOBMNGDKHL": "1111",
          "JCNIJOAIGII": "1111",
          "MNPDDAKDHGK": ""
        }
      },
      {
        "$type": "KACCHOLJDNK",
        "enable": true,
        "condition": {
          "pose": [201]
        },
        "JMCOBEPDIGM": {
          "ANLAAGAMIKF": 1,
          "KHDFDAAAPEI": 10.0,
          "HKJODDGJPHA": 30.0,
          "GGEBMFHFBPO": 4.0,
          "KFFGCIMPNMJ": 1.0,
          "MNPDDAKDHGK": ""
        }
      },
      {
        "$type": "NNJKLGNPMNN",
        "enable": true,
        "JMCOBEPDIGM": {
          "ACOBCFCMBOC": "Spacial",
          "MNPDDAKDHGK": "",
          "GJDMDHIBCME": ""
        }
      },
      {
        "$type": "FPELBIJFGCE",
        "enable": true,
        "condition": {
          "pose": [101]
        },
        "JMCOBEPDIGM": {
          "KPNDPKIOPJM": 5.0,
          "PINAFKEDDLL": 3.0,
          "ANMPOPEBDIA": 25.0,
          "GMJFIMFFOEL": 10.0,
          "CHCPFDMADEI": 17.5,
          "MNPDDAKDHGK": ""
        }
      }
    ]
  },
  "inputKeys": [
    {
      "keyID": 101,
      "inputKeyCode": 257,
      "abilityName": ""
    },
    {
      "keyID": 201,
      "inputKeyCode": 258,
      "abilityName": ""
    },
    {
      "keyID": 301,
      "inputKeyCode": 259,
      "abilityName": ""
    },
    {
      "keyID": 401,
      "inputKeyCode": 260,
      "abilityName": ""
    },
    {
      "keyID": 501,
      "inputKeyCode": 261,
      "abilityName": ""
    }
  ],
  "move": {
    "$type": "IPNMJMHDMPF",
    "facingMove": "ForwardBackward",
    "positionModifyState": "Walk",
    "yawSpeedRatio": 1.0,
    "positionModifyExtra": true,
    "PKHOMJHFAEE": "RootNode"
  },
  "audio": {
    "overrideEmitterName": "",
    "animAudio": {
      "onTransitionIn": [
        {
          "currentStateName": "Weak_Loop",
          "audioEvent": {
            "text": "Play_sfx_monster_Gargoyle_Ground_weak_Loop"
          },
          "otherStateNames": ["Weak_Loop"]
        }
      ],
      "onTransitionOut": [
        {
          "currentStateName": "Weak_Loop",
          "audioEvent": {
            "text": "Stop_sfx_monster_Gargoyle_Ground_weak_Loop"
          },
          "otherStateNames": ["Weak_Loop"]
        }
      ]
    }
  }
}
