{
  "common": {
    "effectAttachShape": {
      "$type": "FJNPJANPGGC",
      "mesh": "EffectMesh"
    },
    "mass": 150.0,
    "height": 2.200000047683716,
    "modelHeight": 2.0,
    "affectedByWorld": true,
    "checkInSurface": true,
    "shouldPauseAnimatorBeforeReady": true,
    "useGrassDisplacement": true,
    "reconnectSupport": true,
    "recoverByInitPose": true
  },
  "model": {
    "bornEffect": "Eff_Monster_Common_Born",
    "attachEffect": "",
    "canBakeMesh": false,
    "BKPFGNPLDNJ": ""
  },
  "dither": {
    "showDitherDuration": 2.0,
    "hideEffectWhenDither": true
  },
  "combat": {
    "property": {
      "endureType": "Monster_Demiboss_Humanoid",
      "weight": 150.0
    },
    "beHit": {
      "hitBloodEffect": ""
    },
    "combatLock": {
      "lockShape": "CircleLockEnemy",
      "lockType": "Avatar&Monster_Lv4"
    },
    "die": {
      "hasAnimatorDie": true,
      "dieEndTime": 1.5,
      "dieForceDisappearTime": 2.0,
      "dieDisappearEffect": "Eff_Death_Common",
      "dieShaderData": "MonsterDie",
      "useRagDoll": true,
      "muteHitBox": true,
      "dieDenyLockOn": true,
      "dieIsGhostToEnemy": true,
      "dieIgnoreTriggerBullet": true,
      "muteBillboard": true,
      "mutePushCollider": true
    },
    "animEvents": {
      "NormalAtk": {
        "attackPattern": {
          "$type": "ConfigAttackCircle",
          "triggerType": "TriggerNoRepeat",
          "born": {
            "$type": "ConfigBornBySelf",
            "offset": {
              "x": 0.0,
              "y": -0.5,
              "z": 1.2200000286102295
            },
            "useRotation": true
          },
          "height": 2.200000047683716,
          "radius": 2.450000047683716
        },
        "attackInfo": {
          "attackTag": "",
          "attenuationTag": "",
          "attenuationGroup": "default",
          "attackProperty": {
            "actorGrassSubHurtDelta": 1.0,
            "actorWindSubHurtDelta": 0.0,
            "elementDurability": 100.0,
            "strikeType": "Slash",
            "enBreak": 50.0,
            "attackType": "Melee",
            "GLKMCMDJBIK": 0.0
          },
          "hitPattern": {
            "onHitEffectName": "default",
            "hitImpulseY": "",
            "hitImpulseType": "LV3"
          }
        }
      }
    }
  },
  "abilities": [
    {
      "abilityID": "",
      "abilityName": "Monster_MachinaIustitia_Pylon_Pose",
      "abilityOverride": ""
    },
    {
      "abilityID": "",
      "abilityName": "Monster_MachinaIustitia_Pylon_Buddy",
      "abilityOverride": ""
    },
    {
      "abilityID": "",
      "abilityName": "Monster_MachinaIustitia_Pylon_Repair",
      "abilityOverride": ""
    },
    {
      "abilityID": "",
      "abilityName": "Monster_MachinaIustitia_Pylon_Recover",
      "abilityOverride": ""
    },
    {
      "abilityID": "",
      "abilityName": "Monster_MachinaIustitia_Pylon_EnhanceAdd_Ousia",
      "abilityOverride": ""
    },
    {
      "abilityID": "",
      "abilityName": "Monster_MachinaIustitia_Pylon_EnhanceRemove_Ousia",
      "abilityOverride": ""
    },
    {
      "abilityID": "",
      "abilityName": "Monster_MachinaIustitia_Pylon_EnhanceAdd_Effect",
      "abilityOverride": ""
    },
    {
      "abilityID": "",
      "abilityName": "Monster_MachinaIustitia_Pylon_EnhanceRemove_Effect",
      "abilityOverride": ""
    },
    {
      "abilityID": "",
      "abilityName": "Monster_MachinaIustitia_Pylon_Charge_Effect_Ousia",
      "abilityOverride": ""
    },
    {
      "abilityID": "",
      "abilityName": "Monster_MachinaIustitia_Pylon_Charge_EffectLoop_Ousia",
      "abilityOverride": ""
    },
    {
      "abilityID": "",
      "abilityName": "Monster_MachinaIustitia_Pylon_ChargeBeforeBattle",
      "abilityOverride": ""
    },
    {
      "abilityID": "",
      "abilityName": "Monster_MachinaIustitia_CoilHanler",
      "abilityOverride": ""
    },
    {
      "abilityID": "",
      "abilityName": "Monster_MachinaIustitia_Pylon_CoilEffect",
      "abilityOverride": ""
    },
    {
      "abilityID": "",
      "abilityName": "Monster_MachinaIustitia_Pylon_Steer",
      "abilityOverride": ""
    },
    {
      "abilityID": "",
      "abilityName": "Monster_MachinaIustitia_Pylon_Alert",
      "abilityOverride": ""
    },
    {
      "abilityID": "",
      "abilityName": "Monster_MachinaIustitia_Pylon_MoveType",
      "abilityOverride": ""
    }
  ],
  "stateLayers": {
    "defaultLayer": {
      "$type": "GBGJJIIEMBD",
      "layerIndexName": "",
      "CPAANEIJCGD": "",
      "stateIDs": {
        "NormalIdle": {
          "$type": "NEDIFAKEGCO",
          "animatorStates": {
            "Standby_01": [],
            "Standby_02": [],
            "Standby_03": [],
            "Born": []
          },
          "canDoSkill": true,
          "canSyncMove": true,
          "resetAnimatorTriggerOnExit": ["DoSkill"]
        },
        "NormalMove_BS": {
          "$type": "NEDIFAKEGCO",
          "animatorStates": {
            "WalkForward_BS1": ["Audio_Monster_MachinaIustitia_Pylon_Run_BS"],
            "WalkForward_BS2": ["Audio_Monster_MachinaIustitia_Pylon_Run_BS"],
            "WalkForward_BS3": ["Audio_Monster_MachinaIustitia_Pylon_Run_BS"],
            "WalkBack_BS": ["Audio_Monster_MachinaIustitia_Pylon_Run_BS"],
            "WalkRight_BS": ["Audio_Monster_MachinaIustitia_Pylon_Run_BS"],
            "WalkLeft_BS": ["Audio_Monster_MachinaIustitia_Pylon_Run_BS"],
            "Run_BS1": ["Audio_Monster_MachinaIustitia_Pylon_Run_BS"],
            "Run_BS2": ["Audio_Monster_MachinaIustitia_Pylon_Run_BS"],
            "Run_BS3": ["Audio_Monster_MachinaIustitia_Pylon_Run_BS"]
          },
          "canDoSkill": true,
          "canSyncMove": true,
          "resetAnimatorTriggerOnExit": ["DoSkill"],
          "canSteer": true
        },
        "NormalMove": {
          "$type": "NEDIFAKEGCO",
          "animatorStates": {
            "WalkForward1": ["Audio_Monster_MachinaIustitia_Pylon_Run"],
            "WalkForward2": ["Audio_Monster_MachinaIustitia_Pylon_Run"],
            "WalkForward3": ["Audio_Monster_MachinaIustitia_Pylon_Run"],
            "WalkBack": ["Audio_Monster_MachinaIustitia_Pylon_Run"],
            "WalkRight": ["Audio_Monster_MachinaIustitia_Pylon_Run"],
            "WalkLeft": ["Audio_Monster_MachinaIustitia_Pylon_Run"],
            "Run1": ["Audio_Monster_MachinaIustitia_Pylon_Run"],
            "Run2": ["Audio_Monster_MachinaIustitia_Pylon_Run"],
            "Run3": ["Audio_Monster_MachinaIustitia_Pylon_Run"]
          },
          "canDoSkill": true,
          "canSyncMove": true,
          "resetAnimatorTriggerOnExit": ["DoSkill"],
          "canSteer": true
        },
        "NormalMove_Other": {
          "$type": "NEDIFAKEGCO",
          "animatorStates": {
            "WalkOther_02": [],
            "WalkOther_03": []
          },
          "canDoSkill": true,
          "canSyncMove": true,
          "resetAnimatorTriggerOnExit": ["DoSkill"]
        },
        "Turn_BS": {
          "$type": "NEDIFAKEGCO",
          "animatorStates": {
            "TurnLeft_BS": ["Audio_Monster_MachinaIustitia_Pylon_Run_BS"],
            "TurnRight_BS": ["Audio_Monster_MachinaIustitia_Pylon_Run_BS"]
          },
          "canDoSkill": true,
          "canSyncMove": true,
          "resetAnimatorTriggerOnExit": ["DoSkill"],
          "canSteer": true
        },
        "Turn": {
          "$type": "NEDIFAKEGCO",
          "animatorStates": {
            "TurnLeft": ["Audio_Monster_MachinaIustitia_Pylon_Run"],
            "TurnRight": ["Audio_Monster_MachinaIustitia_Pylon_Run"]
          },
          "canDoSkill": true,
          "canSyncMove": true,
          "resetAnimatorTriggerOnExit": ["DoSkill"],
          "canSteer": true
        },
        "BeHit": {
          "$type": "NEDIFAKEGCO",
          "animatorStates": {
            "Hit_H": ["Audio_Monster_MachinaIustitia_Pylon_Hit_H"]
          },
          "resetAnimatorTriggerOnEnter": ["BeHit"],
          "resetAnimatorTriggerOnExit": ["DoSkill"]
        },
        "HitSpecial": {
          "$type": "NEDIFAKEGCO",
          "animatorStates": {
            "HitSpecial_BS": [
              "Monster_MachinaIustitia_Pylon_Recover_BS",
              "Monster_MachinaIustitia_Pylon_EnhanceRemove_Pneuma3",
              "Audio_Monster_MachinaIustitia_Pylon_HitSpecial_BS"
            ],
            "HitSpecial_Loop": [
              "Audio_Monster_MachinaIustitia_Pylon_HitSpecial_Loop"
            ],
            "HitSpecial_AS": [
              "Audio_Monster_MachinaIustitia_Pylon_HitSpecial_AS"
            ],
            "HitSpecial_AS2": [
              "Monster_MachinaIustitia_Pylon_EnhanceAdd_Pneuma3",
              "Audio_Monster_MachinaIustitia_Pylon_HitSpecial_AS"
            ]
          },
          "addEndure": 0.0,
          "resetAnimatorTriggerOnExit": ["BeHit", "DoSkill"]
        },
        "HitSpecial_NoBuddy": {
          "$type": "NEDIFAKEGCO",
          "animatorStates": {
            "HitSpecial_NoBuddy_BS": [
              "Monster_MachinaIustitia_Pylon_Recover_BS",
              "Audio_Monster_MachinaIustitia_Pylon_HitSpecial_NoBuddy_BS"
            ],
            "HitSpecial_NoBuddy_Loop": [
              "Audio_Monster_MachinaIustitia_Pylon_HitSpecial_Loop"
            ],
            "HitSpecial_NoBuddy_AS": [
              "Audio_Monster_MachinaIustitia_Pylon_HitSpecial_NoBuddy_AS"
            ],
            "HitSpecial_NoBuddy_AS2": [
              "Monster_MachinaIustitia_Pylon_EnhanceAdd_Pneuma2",
              "Audio_Monster_MachinaIustitia_Pylon_HitSpecial_NoBuddy_AS"
            ]
          },
          "addEndure": 0.0,
          "resetAnimatorTriggerOnExit": ["BeHit", "DoSkill"]
        },
        "Die": {
          "$type": "NEDIFAKEGCO",
          "animatorStates": {
            "Die1": ["Audio_Monster_MachinaIustitia_Pylon_Die"],
            "Die2": ["Audio_Monster_MachinaIustitia_Pylon_Die"]
          },
          "resetAnimatorTriggerOnEnter": ["DoSkill"]
        },
        "Die_RagDoll": {
          "$type": "NEDIFAKEGCO",
          "animatorStates": {
            "Die_RagDoll1": [],
            "Die_RagDoll2": []
          },
          "resetAnimatorTriggerOnEnter": ["DoSkill"],
          "enableRagDoll": true
        },
        "Standby_Change": {
          "$type": "NEDIFAKEGCO",
          "animatorStates": {
            "Standby_01To03": [
              "Monster_MachinaIustitia_Pylon_EnhanceAdd_Pneuma1",
              "Audio_Monster_MachinaIustitia_Pylon_HitSpecial_NoBuddy_AS"
            ],
            "Standby_02To01": [
              "Monster_MachinaIustitia_Pylon_EnhanceRemove_Pneuma1",
              "Audio_Monster_MachinaIustitia_Pylon_HitSpecial_AS2"
            ],
            "Standby_02To03": [
              "Monster_MachinaIustitia_Pylon_EnhanceAdd_Pneuma2",
              "Audio_Monster_MachinaIustitia_Pylon_HitSpecial_AS"
            ],
            "Standby_03To01": [
              "Monster_MachinaIustitia_Pylon_EnhanceRemove_Pneuma2",
              "Audio_Monster_MachinaIustitia_Pylon_HitSpecial_AS"
            ]
          },
          "resetAnimatorTriggerOnExit": ["BeHit", "DoSkill"]
        },
        "NormalAtk": {
          "$type": "NEDIFAKEGCO",
          "animatorStates": {
            "NormalAtk": [
              "Monster_MachinaIustitia_Pylon_NormalAtk",
              "Audio_Monster_MachinaIustitia_Pylon_NormalAtk"
            ]
          },
          "resetAnimatorTriggerOnExit": ["BeHit", "DoSkill"],
          "canSteer": true
        },
        "Charge": {
          "$type": "NEDIFAKEGCO",
          "animatorStates": {
            "Charge": [
              "Monster_MachinaIustitia_Pylon_Charge_Pneuma",
              "Audio_Monster_MachinaIustitia_Pylon_Charge"
            ]
          },
          "resetAnimatorTriggerOnExit": ["BeHit", "DoSkill"]
        }
      }
    }
  },
  "billboard": {
    "$type": "DNGNMAJBCNP",
    "attachPoint": "BillboardAttach",
    "offsetType": "Character",
    "radiusOffset": 1.5,
    "showHPBar": true
  },
  "initialPoses": {
    "Default": {
      "initialPoseID": 1,
      "initialPoseParams": {
        "boolParams": {
          "Charge": "false"
        }
      }
    },
    "Charge": {
      "initialPoseID": 9001,
      "initialPoseParams": {
        "boolParams": {
          "Charge": "true"
        }
      }
    }
  },
  "aibeta": {
    "enable": true,
    "buddySetting": {
      "enable": true,
      "buddyFeatureTagIDs": [4037]
    },
    "sensing": {
      "settings": {
        "DefaultSetting": {
          "viewRange": 6.0,
          "feelRange": 3.0
        },
        "Charge": {
          "enableVision": false,
          "viewRange": 0.0,
          "feelRange": 0.0
        }
      },
      "templates": {
        "DefaultTemplate": {
          "DefaultPoses": "DefaultSetting"
        },
        "ChargeTemplate": {
          "DefaultPoses": "DefaultSetting",
          "9001": "Charge"
        }
      }
    },
    "neurons": {
      "DefaultSetting": ["HIT"]
    },
    "threat": {
      "GHIJMOKOLMB": "",
      "clearThreatByLostPath": true,
      "clearThreatTimerByLostPath": 3.0,
      "viewAttenuation": [
        {
          "x": 10.0,
          "y": 2.0
        },
        {
          "x": 15.0,
          "y": 0.800000011920929
        },
        {
          "x": 20.0,
          "y": 0.5
        },
        {
          "x": 25.0,
          "y": 0.30000001192092896
        },
        {
          "x": 30.0,
          "y": 0.20000000298023224
        }
      ],
      "resistTauntLevel": "Monster_TauntLevel_2"
    },
    "defendArea": {
      "defendRange": 50.0
    },
    "profiling": {},
    "skillGroupCDConfigs": [
      {
        "skillGroupCDID": 0,
        "skillGroupCDTime": 3.0
      }
    ],
    "skillSetting": {},
    "skills": {
      "201": {
        "name": "NormalAtk",
        "combatSkillType": "MeleeAttack",
        "priority": 3,
        "enableSkillPrepare": true,
        "skillPrepareTimeout": 2.0,
        "skillPrepareGiveUp": true,
        "skillPrepareSpeedLevel": 1,
        "castCondition": {
          "pose": [211, 311],
          "pickRangeMax": 5.5,
          "pickRangeYMax": 2.0,
          "castRangeMax": 3.5
        },
        "cd": 3.0,
        "cdUpperRange": 2.0,
        "initialCD": 1.0,
        "initialCDUpperRange": 4.0,
        "publicCDGroup": "",
        "HHAGODJIAPE": "",
        "stateIDs": ["NormalAtk"],
        "skillQueryingTime": 3.0,
        "flagTargetReachable": "10",
        "flagSelfOnTemplateCollider": "01",
        "flagSelfInZone": "11",
        "flagTargetInZone": "11"
      },
      "301": {
        "name": "Charge",
        "skillType": "CombatBuddy",
        "priority": 1,
        "canUseCombatSkillCondition": true,
        "castCondition": {
          "pose": [221, 321],
          "globalValues": [
            "_MACHINAIUSTITIA_NEEDREPAIR_",
            "_MACHINAIUSTITIA_ARKHETYPE_OUSIA_"
          ],
          "globalValuesTargetType": "BUDDY"
        },
        "cd": 1.0,
        "cdUpperRange": 1.0,
        "initialCD": 1.0,
        "publicCDGroup": "",
        "HHAGODJIAPE": "MachinaIustitia_Pylon_Charge",
        "stateIDs": ["Charge"],
        "flagTargetReachable": "10",
        "flagSelfOnTemplateCollider": "01",
        "flagSelfInZone": "10",
        "flagTargetInZone": "11",
        "buddySkillCondition": {
          "HJHAOLAEONH": true,
          "buddyScoring": {
            "roleScores": [1.0, 1.0, 1.0, 1.0],
            "BPDBPALFFEO": [
              {
                "$type": "FDPAAFHFEGB",
                "weight": 1,
                "max": 1.0,
                "compareOperation": "Greater",
                "globalValue": "_MACHINAIUSTITIA_NEEDREPAIR_"
              }
            ]
          }
        }
      }
    },
    "skillGCD": 3.0,
    "birdCirclingTactic": [
      {
        "$type": "EPHBMLFODKF",
        "enable": true,
        "condition": {
          "pose": [211, 311]
        },
        "JMCOBEPDIGM": {
          "rangeMax": 6.0,
          "JOJBOHEDBHC": 5.0,
          "AFILKAGDAHN": 8.0,
          "ALIBHHJHHMN": 3.0,
          "BFJBDDIIFOI": {
            "IDEFILBHNAP": 0.0,
            "IBLIPJPNOGC": 0.0,
            "AEBLMKFNCDG": 2.0,
            "IGLIBIOEGBB": 2.0
          },
          "NAOBMNGDKHL": "1111",
          "JCNIJOAIGII": "1111",
          "MNPDDAKDHGK": ""
        }
      },
      {
        "$type": "KACCHOLJDNK",
        "enable": true,
        "condition": {
          "pose": [201, 301, 211, 311]
        },
        "JMCOBEPDIGM": {
          "KHDFDAAAPEI": 10.0,
          "HKJODDGJPHA": 20.0,
          "GGEBMFHFBPO": 3.0,
          "KFFGCIMPNMJ": 6.0,
          "MNPDDAKDHGK": ""
        },
        "PIOCBHLFLJP": {
          "201": {
            "ANLAAGAMIKF": 1,
            "HKJODDGJPHA": 20.0,
            "GGEBMFHFBPO": 10.0,
            "KFFGCIMPNMJ": 10.0,
            "MNPDDAKDHGK": ""
          },
          "301": {
            "ANLAAGAMIKF": 1,
            "HKJODDGJPHA": 20.0,
            "GGEBMFHFBPO": 10.0,
            "KFFGCIMPNMJ": 10.0,
            "MNPDDAKDHGK": ""
          }
        }
      },
      {
        "$type": "NNJKLGNPMNN",
        "enable": true,
        "JMCOBEPDIGM": {
          "MNPDDAKDHGK": "",
          "GJDMDHIBCME": ""
        }
      },
      {
        "$type": "FPELBIJFGCE",
        "enable": true,
        "condition": {
          "pose": [1, 11, 21, 9001]
        },
        "JMCOBEPDIGM": {
          "NBENNEKDIIA": 2.0,
          "KPNDPKIOPJM": 5.0,
          "PINAFKEDDLL": 3.0,
          "ANMPOPEBDIA": 10.0,
          "CHCPFDMADEI": 5.0,
          "MNPDDAKDHGK": ""
        },
        "PIOCBHLFLJP": {
          "9001": {
            "NBENNEKDIIA": 2.0,
            "KPNDPKIOPJM": 10.0,
            "PINAFKEDDLL": 2.0,
            "ANMPOPEBDIA": 8.0,
            "CHCPFDMADEI": 5.0,
            "MNPDDAKDHGK": ""
          }
        }
      }
    ]
  },
  "inputKeys": [
    {
      "keyID": 101,
      "inputKeyCode": 257,
      "abilityName": ""
    },
    {
      "keyID": 102,
      "inputKeyCode": 258,
      "abilityName": ""
    },
    {
      "keyID": 103,
      "inputKeyCode": 259,
      "abilityName": ""
    },
    {
      "keyID": 104,
      "inputKeyCode": 260,
      "abilityName": ""
    },
    {
      "keyID": 201,
      "inputKeyCode": 261,
      "abilityName": ""
    },
    {
      "keyID": 301,
      "inputKeyCode": 262,
      "abilityName": ""
    },
    {
      "keyID": 401,
      "inputKeyCode": 263,
      "abilityName": ""
    }
  ],
  "move": {
    "$type": "IPNMJMHDMPF",
    "velocityForce": {
      "excludeForces": ["RetreatAirType"]
    },
    "handleCombatTaskImmediately": true,
    "facingMove": "FourDirection",
    "yawSpeedRatio": 2.0,
    "positionModifyExtra": true,
    "PKHOMJHFAEE": "RootNode"
  },
  "audio": {
    "overrideEmitterName": "",
    "animAudio": {},
    "disableEvent": {
      "text": ""
    },
    "destroyEvent": {
      "text": ""
    },
    "randomVariantSwitchGroup": {
      "text": ""
    },
    "randomVariantSwitchValues": [
      {
        "text": ""
      }
    ]
  },
  "field": {
    "concernType": "CombatExcludeGWGO",
    "shape": "CircleR20H3",
    "ignoreScale": true,
    "fromShape": "",
    "triggerInfinite": true,
    "lifeInfinite": true,
    "checkInterval": 0.5,
    "overwriteCampType": true,
    "campType": "Alliance",
    "colliderName": "",
    "fromColliderName": ""
  }
}
