{
  "common": {
    "effectAttachShape": {
      "$type": "FJNPJANPGGC",
      "mesh": "EffectMesh"
    },
    "mass": 999999.0,
    "viewSize": 2.0,
    "scale": 8.0
  },
  "model": {
    "bornEffect": "Eff_Monster_Oceanid_AnimalBorn",
    "attachEffect": "",
    "canBakeMesh": false,
    "BKPFGNPLDNJ": ""
  },
  "dither": {
    "showDitherDuration": 3.0
  },
  "combat": {
    "property": {
      "endureType": "Monster_Boss_Other",
      "weight": 150.0
    },
    "beHit": {
      "hitBloodEffect": ""
    },
    "combatLock": {
      "lockShape": "CircleLockEnemy",
      "lockType": "Avatar&Monster_Lv4"
    },
    "die": {
      "dieEndTime": 2.0,
      "dieForceDisappearTime": 5.0,
      "dieDisappearEffect": "",
      "muteHitBox": true,
      "dieDenyLockOn": true,
      "dieIsGhostToEnemy": true,
      "dieIgnoreTriggerBullet": true,
      "muteBillboard": true,
      "mutePushCollider": true
    }
  },
  "abilities": [
    {
      "abilityID": "Monster_Oceanid_Frog_JumpAtkBS",
      "abilityName": "Monster_Oceanid_Frog_JumpAtkBS",
      "abilityOverride": ""
    },
    {
      "abilityID": "Monster_Oceanid_Frog_JumpAtk_Alert",
      "abilityName": "Monster_Oceanid_Frog_JumpAtk_Alert",
      "abilityOverride": ""
    },
    {
      "abilityID": "Monster_Oceanid_Frog_JumpAtk_Damage",
      "abilityName": "Monster_Oceanid_Frog_JumpAtk_Damage",
      "abilityOverride": ""
    },
    {
      "abilityID": "Monster_Oceanid_Frog_WaterWave",
      "abilityName": "Monster_Oceanid_Frog_WaterWave",
      "abilityOverride": ""
    },
    {
      "abilityID": "Monster_Oceanid_Frog_ElementState",
      "abilityName": "Monster_Oceanid_Frog_ElementState",
      "abilityOverride": ""
    },
    {
      "abilityID": "Monster_Common_WaterMuteHurt",
      "abilityName": "Monster_Common_WaterMuteHurt",
      "abilityOverride": ""
    },
    {
      "abilityID": "Monster_Oceanid_Tit_BeingHit",
      "abilityName": "Monster_Oceanid_Tit_BeingHit",
      "abilityOverride": ""
    },
    {
      "abilityID": "Monster_Oceanid_Frog_DyingBS",
      "abilityName": "Monster_Oceanid_Frog_DyingBS",
      "abilityOverride": ""
    }
  ],
  "stateLayers": {
    "defaultLayer": {
      "$type": "GBGJJIIEMBD",
      "layerIndexName": "",
      "CPAANEIJCGD": "",
      "stateIDs": {
        "Born": {
          "$type": "NEDIFAKEGCO",
          "animatorStates": {
            "Born": []
          },
          "canDoSkill": true,
          "resetAnimatorTriggerOnExit": ["DoSkill"]
        },
        "NormalIdle": {
          "$type": "NEDIFAKEGCO",
          "animatorStates": {
            "Standby": []
          },
          "canDoSkill": true,
          "canSyncMove": true,
          "resetAnimatorTriggerOnExit": ["DoSkill"]
        },
        "NormalMove": {
          "$type": "NEDIFAKEGCO",
          "animatorStates": {
            "Walk": ["Audio_Monster_Oceanid_Frog_Walk"]
          },
          "canSyncMove": true,
          "resetAnimatorTriggerOnExit": ["DoSkill"],
          "canSteer": true
        },
        "Turn": {
          "$type": "NEDIFAKEGCO",
          "animatorStates": {
            "TurnLeft": [],
            "TurnRight": []
          },
          "canSyncMove": true,
          "resetAnimatorTriggerOnExit": ["DoSkill"],
          "canSteer": true
        },
        "Die": {
          "$type": "NEDIFAKEGCO",
          "animatorStates": {
            "Die": ["Monster_Oceanid_Frog_Die", "Audio_Boar_die"]
          }
        },
        "Alert": {
          "$type": "NEDIFAKEGCO",
          "animatorStates": {
            "Alert": []
          },
          "canDoSkill": true,
          "resetAnimatorTriggerOnExit": ["BeHit", "DoSkill"]
        },
        "Dying": {
          "$type": "NEDIFAKEGCO",
          "animatorStates": {
            "Dying": []
          },
          "resetAnimatorTriggerOnExit": ["BeHit", "DoSkill"]
        },
        "WaterWave": {
          "$type": "NEDIFAKEGCO",
          "animatorStates": {
            "WaterWave": [
              "Monster_Oceanid_Frog_WaterWave",
              "Audio_Monster_Oceanid_Frog_WaterWave"
            ]
          },
          "resetAnimatorTriggerOnExit": ["BeHit", "DoSkill"],
          "canSteer": true
        },
        "JumpAtk": {
          "$type": "NEDIFAKEGCO",
          "animatorStates": {
            "JumpAtk": [
              "Monster_Oceanid_Frog_JumpAtk",
              "Audio_Monster_Oceanid_Frog_JumpAtk"
            ]
          },
          "canSyncMove": true,
          "cullingModelAlwaysAnimate": true,
          "resetAnimatorTriggerOnExit": ["BeHit", "DoSkill"],
          "canSteer": true
        }
      }
    }
  },
  "billboard": {
    "$type": "DNGNMAJBCNP",
    "attachPoint": "BillboardAttach",
    "offsetType": "Character",
    "radiusOffset": 0.25,
    "showHPBar": true,
    "forceShowDistance": 50.0
  },
  "initialPoses": {
    "Default": {},
    "Free": {
      "initialPoseID": 2,
      "initialPoseParams": {
        "boolParams": {
          "Free": "true"
        }
      }
    },
    "Stand": {
      "initialPoseID": 3,
      "initialPoseParams": {
        "boolParams": {
          "Stand": "true"
        }
      }
    }
  },
  "aibeta": {
    "enable": true,
    "moveSetting": {
      "moveCategory": "Amphibious",
      "useNavMesh": false,
      "navMeshAgentName": "Undead01"
    },
    "sensing": {
      "settings": {
        "DefaultSetting": {
          "feelRange": 50.0
        },
        "LowAlert": {
          "enableVision": false,
          "feelRange": 7.5
        },
        "StandAlert": {
          "viewRange": 0.0,
          "feelRange": 7.0
        },
        "SpecialLowAlert": {
          "feelRange": 8.0
        },
        "OnlyHitAlert": {
          "viewRange": 0.0,
          "hearAttractionRange": 0.0,
          "feelRange": 0.0,
          "sourcelessHitAttractionRange": 30.0
        }
      },
      "templates": {
        "DefaultTemplate": {
          "DefaultPoses": "DefaultSetting",
          "2": "LowAlert",
          "3": "StandAlert"
        },
        "LowAlertTemplate": {
          "DefaultPoses": "SpecialLowAlert",
          "2": "LowAlert",
          "3": "StandAlert"
        },
        "OnlyHitTemplate": {
          "DefaultPoses": "OnlyHitAlert"
        }
      }
    },
    "threat": {
      "GHIJMOKOLMB": "",
      "feelThreatGrow": 100.0,
      "threatDecreaseSpeed": 100.0,
      "viewAttenuation": [
        {
          "x": 10.0,
          "y": 2.0
        },
        {
          "x": 15.0,
          "y": 1.25
        },
        {
          "x": 20.0,
          "y": 0.5
        }
      ]
    },
    "defendArea": {
      "defendRange": 50.0
    },
    "skills": {
      "3": {
        "name": "OnAlert",
        "skillType": "OnAlert",
        "publicCDGroup": "",
        "ignoreGCD": true,
        "triggerGCD": false,
        "HHAGODJIAPE": "",
        "stateIDs": ["Alert"],
        "flagTargetReachable": "10",
        "flagSelfOnTemplateCollider": "01",
        "flagSelfInZone": "10",
        "flagTargetInZone": "11"
      },
      "101": {
        "name": "WaterWave",
        "castCondition": {
          "pose": [101],
          "pickRangeMax": 20.0
        },
        "cd": 5.0,
        "cdUpperRange": 5.0,
        "publicCDGroup": "Oceanid_rangedAttack",
        "HHAGODJIAPE": "",
        "stateIDs": ["WaterWave"],
        "flagTargetReachable": "11",
        "flagSelfOnTemplateCollider": "01",
        "flagSelfInZone": "11",
        "flagTargetInZone": "11"
      },
      "201": {
        "name": "JumpAtk",
        "castCondition": {
          "pose": [101],
          "pickRangeMax": 30.0
        },
        "cd": 5.0,
        "cdUpperRange": 7.5,
        "initialCD": 3.0,
        "publicCDGroup": "Oceanid_meleeAttack_long",
        "HHAGODJIAPE": "",
        "stateIDs": ["JumpAtk"],
        "flagTargetReachable": "11",
        "flagSelfOnTemplateCollider": "01",
        "flagSelfInZone": "11",
        "flagTargetInZone": "11"
      }
    },
    "skillGCD": 3.0,
    "birdCirclingTactic": [
      {
        "$type": "ABEPKCNGAFC",
        "enable": true,
        "JMCOBEPDIGM": {
          "ANLAAGAMIKF": 1,
          "triggerDistance": 4.0,
          "MMGOBGGLBJO": 75.0,
          "KAIGBDPLNMO": 3.0,
          "BMIEPFCPFGN": 5.0,
          "MFLJNGFAPDH": 0.5,
          "MNPDDAKDHGK": ""
        }
      },
      {
        "$type": "KACCHOLJDNK",
        "enable": true,
        "condition": {
          "pose": [101]
        },
        "JMCOBEPDIGM": {
          "ANLAAGAMIKF": 1,
          "KHDFDAAAPEI": 12.5,
          "HKJODDGJPHA": 99.0,
          "GGEBMFHFBPO": 7.5,
          "KFFGCIMPNMJ": 7.5,
          "PKNJDNAGLNM": 0,
          "MNPDDAKDHGK": ""
        }
      },
      {
        "$type": "NNJKLGNPMNN",
        "enable": true,
        "JMCOBEPDIGM": {
          "ANLAAGAMIKF": 1,
          "MNPDDAKDHGK": "",
          "GJDMDHIBCME": ""
        }
      },
      {
        "$type": "FPELBIJFGCE",
        "enable": true,
        "condition": {
          "pose": [2]
        },
        "JMCOBEPDIGM": {
          "KPNDPKIOPJM": 20.0,
          "PINAFKEDDLL": 10.0,
          "ANMPOPEBDIA": 10.0,
          "GMJFIMFFOEL": 1.5,
          "CHCPFDMADEI": 3.0,
          "MNPDDAKDHGK": ""
        }
      }
    ]
  },
  "inputKeys": [
    {
      "keyID": 101,
      "inputKeyCode": 257,
      "abilityName": ""
    },
    {
      "keyID": 201,
      "inputKeyCode": 258,
      "abilityName": ""
    }
  ],
  "move": {
    "$type": "IPNMJMHDMPF",
    "velocityForce": {
      "includeForces": ["RushMoveType"]
    },
    "initWithGroundHitCheck": false,
    "moveOnWater": true,
    "PKHOMJHFAEE": "RootNode"
  }
}
