[
  {
    "Default": {
      "$type": "ConfigAbility",
      "abilityName": "SceneObj_Dynamic_WindFlora_Wudi",
      "abilityMixins": [
        {
          "$type": "AttachModifierToPredicateMixin",
          "predicates": [
            {
              "$type": "ByTargetGlobalValue",
              "target": "Self",
              "key": "_GET_COMMONFLORA",
              "value": 1.0
            }
          ],
          "modifierName": "CommonFlora_ServerLuaCall"
        }
      ],
      "modifiers": {
        "Wudi": {
          "modifierName": "",
          "elementDurability": 100.0,
          "properties": {
            "Actor_FallingDamageRatio": -1.0
          },
          "state": "LockHP"
        },
        "empty": {
          "modifierName": "",
          "elementDurability": 100.0
        },
        "CommonFlora_ServerLuaCall": {
          "stacking": "Multiple",
          "modifierName": "",
          "duration": 0.5,
          "elementDurability": 100.0,
          "onAdded": [
            {
              "$type": "AHPEKICBIIL",
              "luaCallType": "SpecificGroup",
              "callParamList": [235800001],
              "funcName": "AddWindFloraScore",
              "param1": 0.0,
              "MGAMDEHMCOL": 0.0,
              "MMHOHAOGPLP": 0.0
            },
            {
              "$type": "SetGlobalValue",
              "value": 0.0,
              "key": "_GET_COMMONFLORA",
              "maxValue": 0.0,
              "minValue": 0.0
            }
          ]
        }
      },
      "onAdded": [
        {
          "$type": "AttachModifier",
          "modifierName": "Wudi"
        }
      ],
      "isDynamicAbility": true
    }
  },
  {
    "Default": {
      "$type": "ConfigAbility",
      "abilityName": "SceneObj_Dynamic_WindFlora_ShootBalloon",
      "modifiers": {
        "BallonTypeController": {
          "modifierName": "",
          "elementDurability": 100.0,
          "onAttackLanded": [
            {
              "$type": "ApplyModifier",
              "target": "Target",
              "predicates": [
                {
                  "$type": "ByTargetGlobalValue",
                  "key": "IS_HIGHBALLOON",
                  "value": 1.0
                },
                {
                  "$type": "ByAttackTags",
                  "attackTags": [
                    "NormalAttack_01",
                    "NormalAttack_02",
                    "NormalAttack_03",
                    "NormalAttack_04",
                    "NormalAttack_05",
                    "NormalAttack_06",
                    "ExtraAttack"
                  ]
                }
              ],
              "modifierName": "HighCall"
            },
            {
              "$type": "ApplyModifier",
              "target": "Target",
              "predicates": [
                {
                  "$type": "ByTargetGlobalValue",
                  "key": "IS_LOWBALLOON",
                  "value": 1.0
                },
                {
                  "$type": "ByAttackTags",
                  "attackTags": [
                    "NormalAttack_01",
                    "NormalAttack_02",
                    "NormalAttack_03",
                    "NormalAttack_04",
                    "NormalAttack_05",
                    "NormalAttack_06",
                    "ExtraAttack"
                  ]
                }
              ],
              "modifierName": "LowCall"
            },
            {
              "$type": "ApplyModifier",
              "target": "Target",
              "predicates": [
                {
                  "$type": "ByTargetGlobalValue",
                  "key": "IS_SUBBALLOON",
                  "value": 1.0
                },
                {
                  "$type": "ByAttackTags",
                  "attackTags": [
                    "NormalAttack_01",
                    "NormalAttack_02",
                    "NormalAttack_03",
                    "NormalAttack_04",
                    "NormalAttack_05",
                    "NormalAttack_06",
                    "ExtraAttack"
                  ]
                }
              ],
              "modifierName": "SubCall"
            },
            {
              "$type": "ApplyModifier",
              "target": "Target",
              "predicates": [
                {
                  "$type": "ByTargetGlobalValue",
                  "key": "IS_BOMBBALLOON",
                  "value": 1.0
                },
                {
                  "$type": "ByAttackTags",
                  "attackTags": [
                    "NormalAttack_01",
                    "NormalAttack_02",
                    "NormalAttack_03",
                    "NormalAttack_04",
                    "NormalAttack_05",
                    "NormalAttack_06",
                    "ExtraAttack"
                  ]
                }
              ],
              "modifierName": "BombBalloonSeeker"
            }
          ]
        },
        "BombBalloonSeeker": {
          "modifierName": "",
          "elementDurability": 100.0,
          "onAdded": [
            {
              "$type": "ApplyModifier",
              "otherTargets": {
                "$type": "SelectTargetsByShape",
                "shapeName": "CircleR5H10",
                "campTargetType": "Alliance",
                "doOffStage": 1.0
              },
              "predicates": [
                {
                  "$type": "ByTargetGlobalValue",
                  "key": "Balloon03_TargetFlag",
                  "value": 1.0
                }
              ],
              "modifierName": "FindBalloon"
            },
            {
              "$type": "FireEffect",
              "rotationDampTime": "Eff_SceneObj_Ballon_03_Shoot",
              "PPPDJGDDOGD": 1.0,
              "AJDILHJFNKE": -1.0
            },
            {
              "$type": "KillSelf",
              "configIdArray": [70000000]
            }
          ]
        },
        "FindBalloon": {
          "modifierName": "",
          "elementDurability": 100.0,
          "onAdded": [
            {
              "$type": "FireEffect",
              "rotationDampTime": "Eff_SceneObj_Ballon_03_Shoot",
              "PPPDJGDDOGD": 1.0,
              "AJDILHJFNKE": -1.0
            },
            {
              "$type": "ApplyModifier",
              "predicates": [
                {
                  "$type": "ByTargetGlobalValue",
                  "key": "IS_HIGHBALLOON",
                  "value": 1.0
                }
              ],
              "modifierName": "HighCall"
            },
            {
              "$type": "ApplyModifier",
              "predicates": [
                {
                  "$type": "ByTargetGlobalValue",
                  "key": "IS_LOWBALLOON",
                  "value": 1.0
                }
              ],
              "modifierName": "LowCall"
            },
            {
              "$type": "ApplyModifier",
              "predicates": [
                {
                  "$type": "ByTargetGlobalValue",
                  "key": "IS_SUBBALLOON",
                  "value": 1.0
                }
              ],
              "modifierName": "SubCall"
            },
            {
              "$type": "ApplyModifier",
              "predicates": [
                {
                  "$type": "ByTargetGlobalValue",
                  "key": "IS_BOMBBALLOON",
                  "value": 1.0
                }
              ],
              "modifierName": "BombBalloonSeeker"
            },
            {
              "$type": "KillSelf",
              "configIdArray": [70000000]
            }
          ]
        },
        "HighCall": {
          "modifierName": "",
          "duration": 0.5,
          "elementDurability": 100.0,
          "onAdded": [
            {
              "$type": "AHPEKICBIIL",
              "target": "Caster",
              "luaCallType": "CurGalleryControlGroup",
              "isTarget": true,
              "funcName": "ShootBalloonHighScore",
              "param1": 0.0,
              "MGAMDEHMCOL": 0.0,
              "MMHOHAOGPLP": 0.0
            },
            {
              "$type": "KillSelf",
              "configIdArray": [70000000]
            }
          ]
        },
        "LowCall": {
          "modifierName": "",
          "duration": 0.5,
          "elementDurability": 100.0,
          "onAdded": [
            {
              "$type": "AHPEKICBIIL",
              "target": "Caster",
              "luaCallType": "CurGalleryControlGroup",
              "isTarget": true,
              "funcName": "ShootBalloonLowScore",
              "param1": 0.0,
              "MGAMDEHMCOL": 0.0,
              "MMHOHAOGPLP": 0.0
            },
            {
              "$type": "KillSelf",
              "configIdArray": [70000000]
            }
          ]
        },
        "SubCall": {
          "modifierName": "",
          "duration": 0.5,
          "elementDurability": 100.0,
          "onAdded": [
            {
              "$type": "AHPEKICBIIL",
              "target": "Caster",
              "luaCallType": "CurGalleryControlGroup",
              "isTarget": true,
              "funcName": "ShootBalloonSubScore",
              "param1": 0.0,
              "MGAMDEHMCOL": 0.0,
              "MMHOHAOGPLP": 0.0
            },
            {
              "$type": "KillSelf",
              "configIdArray": [70000000]
            }
          ]
        }
      },
      "onAdded": [
        {
          "$type": "ApplyModifier",
          "modifierName": "BallonTypeController"
        }
      ],
      "isDynamicAbility": true
    }
  },
  {
    "Default": {
      "$type": "ConfigAbility",
      "abilityName": "SceneObj_Dynamic_WindFlora_RecordFloorMemory",
      "abilityMixins": [
        {
          "$type": "AttachModifierToPredicateMixin",
          "predicates": [
            {
              "$type": "ByTargetGlobalValue",
              "target": "Self",
              "key": "_GET_COMMONFLORA",
              "value": 1.0
            }
          ],
          "modifierName": "CommonFlora_ServerLuaCall"
        }
      ],
      "modifiers": {
        "Wudi": {
          "modifierName": "",
          "elementDurability": 100.0,
          "properties": {
            "Actor_FallingDamageRatio": -1.0
          },
          "state": "LockHP"
        },
        "CALLSERVERLUA": {
          "modifierName": "",
          "duration": 0.5,
          "elementDurability": 100.0,
          "onAdded": [
            {
              "$type": "AHPEKICBIIL",
              "target": "Team",
              "luaCallType": "SpecificGroup",
              "isTarget": true,
              "callParamList": [235800003],
              "funcName": "OnEnterWrongFloor",
              "param1": 0.0,
              "MGAMDEHMCOL": 0.0,
              "MMHOHAOGPLP": 0.0
            }
          ]
        },
        "CommonFlora_ServerLuaCall": {
          "stacking": "Multiple",
          "modifierName": "",
          "duration": 0.5,
          "elementDurability": 100.0,
          "onAdded": [
            {
              "$type": "AHPEKICBIIL",
              "luaCallType": "SpecificGroup",
              "callParamList": [235800001],
              "funcName": "AddWindFloraScore",
              "param1": 0.0,
              "MGAMDEHMCOL": 0.0,
              "MMHOHAOGPLP": 0.0
            },
            {
              "$type": "SetGlobalValue",
              "value": 0.0,
              "key": "_GET_COMMONFLORA",
              "maxValue": 0.0,
              "minValue": 0.0
            }
          ]
        }
      },
      "onAdded": [
        {
          "$type": "AttachModifier",
          "modifierName": "Wudi"
        }
      ],
      "isDynamicAbility": true
    }
  }
]
