[
  {
    "Default": {
      "$type": "MoleMole.Config.GNKCLKNDOAK",
      "abilityName": "SceneObj_Level_Common_Property_Ani_Prop_BulletHellCoin_01",
      "DHNPEDCLIJK": ["SGV_CoinType"],
      "OAOGLLGGJPD": [
        {
          "$type": "MoleMole.Config.FireSubEmitterEffect",
          "effectPattern": "Eff_SceneObj_GlideChampCoin_Appear_Super_Sub"
        }
      ],
      "GGGLNDFDIMI": [
        {
          "$type": "MoleMole.Config.Predicated",
          "MLDBFKEGPEF": "Target",
          "CKBKOCJPJMM": [
            {
              "$type": "DLLOJMFICPG",
              "JBEIOINCLFB": ["Avatar"]
            }
          ],
          "successActions": [
            {
              "$type": "MoleMole.Config.Predicated",
              "CKBKOCJPJMM": [
                {
                  "$type": "IPGGGPIJONN",
                  "key": "SGV_CoinType",
                  "value": 2.0
                }
              ],
              "successActions": [
                {
                  "$type": "MoleMole.Config.FireEffect",
                  "effectPattern": "Eff_SceneObj_GlideChampCoin_Hit_Super",
                  "effectTempleteID": -1.0
                }
              ],
              "failActions": [
                {
                  "$type": "MoleMole.Config.FireEffect",
                  "effectPattern": "Eff_SceneObj_GlideChampCoin_Hit",
                  "effectTempleteID": -1.0
                }
              ]
            },
            {
              "$type": "MoleMole.Config.AddGlobalValue",
              "MLDBFKEGPEF": "TargetTeam",
              "value": 1.0,
              "key": "gv_SubTimerAddNotify",
              "maxValue": 0.0,
              "GCEOGBJIFCP": 0.0
            },
            {
              "$type": "MoleMole.Config.ServerLuaCall",
              "MECCMJIFJKG": "FromGroup",
              "ACMHGHCMOIF": "SLC_Coin_Collected",
              "EPFBIHBJPAH": 1,
              "param1": 0,
              "maxValue": 0.0,
              "GBOGNIOMAGM": 0.0
            },
            {
              "$type": "MoleMole.Config.KillSelf",
              "KDGBDGHPFAE": [70291299, 70291300]
            }
          ]
        }
      ]
    }
  },
  {
    "Default": {
      "$type": "MoleMole.Config.GNKCLKNDOAK",
      "abilityName": "ActivityAbility_BulletHell_BarragePreLoad",
      "BFBDNNJCDLH": {
        "preLoadModifier": {
          "modifierName": "",
          "duration": 100.0,
          "OAOGLLGGJPD": [
            {
              "$type": "MoleMole.Config.CreateGadget",
              "gadgetID": 70291294,
              "campID": 5001
            },
            {
              "$type": "MoleMole.Config.CreateGadget",
              "gadgetID": 70291295,
              "campID": 5001
            }
          ]
        }
      },
      "LLNGCHGGPLC": true
    }
  },
  {
    "Default": {
      "$type": "MoleMole.Config.GNKCLKNDOAK",
      "abilityName": "SceneObj_Activity_Common_Property_Ani_Prop_BulletHell_Barrage_Bullet_01",
      "PIDAPNFJNDF": [
        {
          "$type": "MoleMole.Config.AttachToGadgetStateMixin",
          "modifierName": "BulletEffect"
        }
      ],
      "LLLCANIGIOE": {
        "ElementLevelCo": 1.0,
        "DamageRatio": 2.5
      },
      "BFBDNNJCDLH": {
        "BulletEffect": {
          "modifierName": "",
          "duration": 16.0,
          "duration": 100.0,
          "JPIFFPJJEMK": [
            {
              "$type": "MoleMole.Config.AttachSubEmitterEffectMixin",
              "effectPattern": "Eff_SceneObj_ActivityAutoTimeStop_Buttle_05",
              "LICLAGGDIIN": "RootNode",
              "ILDPACIDLBN": true
            }
          ],
          "MINFJCDAIBB": [
            {
              "$type": "MoleMole.Config.TriggerAbility",
              "abilityName": "SceneObj_Activity_Common_Property_Ani_Prop_AutoTimeStop_Barrage_Bullet_02_Ability"
            }
          ],
          "PMDLJDGOIKO": [
            {
              "$type": "MoleMole.Config.KillSelf",
              "KDGBDGHPFAE": [70291295]
            }
          ]
        }
      },
      "OAOGLLGGJPD": [
        {
          "$type": "MoleMole.Config.FireSubEmitterEffect",
          "effectPattern": "Eff_SceneObj_ActivityAutoTimeStop_Fire"
        },
        {
          "$type": "MoleMole.Config.SetSystemValueToOverrideMap",
          "doOffStage": true,
          "key": "ElementLevelCo",
          "KPGKDHAFHFE": "ElementLevelCo"
        }
      ],
      "EIIHGJGFDHC": [
        {
          "$type": "MoleMole.Config.Predicated",
          "CKBKOCJPJMM": [
            {
              "$type": "CBCGGIMMENP"
            }
          ],
          "successActions": [
            {
              "$type": "MoleMole.Config.SetGlobalValue",
              "value": 1.0,
              "key": "gv_bulletHitting",
              "maxValue": 0.0,
              "GCEOGBJIFCP": 0.0
            },
            {
              "$type": "MoleMole.Config.FireSubEmitterEffect",
              "effectPattern": "Eff_SceneObj_ActivityAutoTimeStop_Hit_02"
            },
            {
              "$type": "MoleMole.Config.TriggerAttackEvent",
              "attackEvent": {
                "attackPattern": {
                  "$type": "IJCIPLFIDAK",
                  "triggerType": "TriggerNoRepeat",
                  "born": {
                    "$type": "AGPIGGAPILF"
                  },
                  "MFGGJCPPBGA": 0.5
                },
                "attackInfo": {
                  "attackTag": "BulletHell_BulletHit_1",
                  "attenuationTag": "",
                  "attenuationGroup": "default",
                  "attackProperty": {
                    "damagePercentageRatio": 0.0,
                    "duration": 100.0,
                    "ignoreAttackerProperty": true,
                    "strikeType": "Pierce",
                    "enBreak": 200.0,
                    "attackType": "Melee",
                    "trueDamage": true,
                    "damagePercentage": 0.0
                  },
                  "hitPattern": {
                    "onHitEffectName": "default",
                    "hitImpulseY": "",
                    "hitImpulseType": "LV3"
                  }
                }
              },
              "targetType": "Enemy"
            },
            {
              "$type": "MoleMole.Config.KillSelf",
              "KDGBDGHPFAE": [70291295]
            }
          ],
          "failActions": [
            {
              "$type": "MoleMole.Config.TriggerAbility",
              "abilityName": "SceneObj_Activity_Common_Property_Ani_Prop_BulletHell_Barrage_Bullet_toCoin"
            }
          ]
        }
      ],
      "DOFDCKKDGHL": [
        {
          "$type": "MoleMole.Config.RemoveModifier",
          "modifierName": "BulletEffect"
        }
      ]
    }
  },
  {
    "Default": {
      "$type": "MoleMole.Config.GNKCLKNDOAK",
      "abilityName": "SceneObj_Activity_Common_Property_Ani_Prop_BulletHell_Barrage_Bullet_02",
      "PIDAPNFJNDF": [
        {
          "$type": "MoleMole.Config.AttachToGadgetStateMixin",
          "modifierName": "BulletEffect"
        }
      ],
      "LLLCANIGIOE": {
        "RandomTimeRatio": 0.0,
        "VelocityRatio": 18.0,
        "ElementLevelCo": 1.0,
        "DamageRatio": 2.5
      },
      "BFBDNNJCDLH": {
        "BulletEffect": {
          "modifierName": "",
          "duration": 16.0,
          "duration": 100.0,
          "OAOGLLGGJPD": [
            {
              "$type": "MoleMole.Config.AttachEffect",
              "effectPattern": "Eff_SceneObj_ActivityAutoTimeStop_Buttle_04",
              "effectTempleteID": -1.0
            },
            {
              "$type": "MoleMole.Config.SetRandomOverrideMapValue",
              "predicates": [
                {
                  "$type": "BKCFCDOEENL",
                  "logic": "LesserOrEqual",
                  "value": 5.0,
                  "EGBKHFGDFLF": ""
                }
              ],
              "HCGNJJHJJOG": 0.4000000059604645,
              "HLMHBMFPGCJ": 0.20000000298023224,
              "FDKJEIGEABF": "RandomTimeRatio"
            },
            {
              "$type": "MoleMole.Config.SetRandomOverrideMapValue",
              "predicates": [
                {
                  "$type": "BKCFCDOEENL",
                  "value": 5.0,
                  "EGBKHFGDFLF": ""
                }
              ],
              "HCGNJJHJJOG": 0.6000000238418579,
              "HLMHBMFPGCJ": 0.30000001192092896,
              "FDKJEIGEABF": "RandomTimeRatio"
            },
            {
              "$type": "MoleMole.Config.SetBulletTrackTarget",
              "MLDBFKEGPEF": "AllTeams"
            }
          ],
          "MINFJCDAIBB": [
            {
              "$type": "MoleMole.Config.TriggerAbility",
              "abilityName": "SceneObj_Activity_Common_Property_Ani_Prop_AutoTimeStop_Barrage_Bullet_02_Ability"
            }
          ],
          "PMDLJDGOIKO": [
            {
              "$type": "MoleMole.Config.KillSelf",
              "KDGBDGHPFAE": [70291294]
            }
          ]
        },
        "Timer": {
          "modifierName": "",
          "duration": "RandomTimeRatio",
          "duration": 100.0,
          "MINFJCDAIBB": [
            {
              "$type": "MoleMole.Config.ApplyModifier",
              "modifierName": "AngularVelocityUp"
            }
          ]
        },
        "AngularVelocityUp": {
          "modifierName": "",
          "duration": 0.30000001192092896,
          "duration": 100.0,
          "EPKCPIKGJOJ": {
            "Actor_BulletMoveAngularVelocityRatio": "VelocityRatio"
          },
          "MINFJCDAIBB": [
            {
              "$type": "MoleMole.Config.ApplyModifier",
              "modifierName": "AngularVelocityNoTrack"
            }
          ]
        },
        "AngularVelocityNoTrack": {
          "modifierName": "",
          "duration": 100.0,
          "EPKCPIKGJOJ": {
            "Actor_BulletMoveAngularVelocityRatio": 0.009999999776482582
          }
        }
      },
      "OAOGLLGGJPD": [
        {
          "$type": "MoleMole.Config.FireSubEmitterEffect",
          "effectPattern": "Eff_SceneObj_ActivityAutoTimeStop_Fire"
        },
        {
          "$type": "MoleMole.Config.SetSystemValueToOverrideMap",
          "doOffStage": true,
          "key": "ElementLevelCo",
          "KPGKDHAFHFE": "ElementLevelCo"
        },
        {
          "$type": "MoleMole.Config.ApplyModifier",
          "modifierName": "Timer"
        }
      ],
      "EIIHGJGFDHC": [
        {
          "$type": "MoleMole.Config.Predicated",
          "CKBKOCJPJMM": [
            {
              "$type": "CBCGGIMMENP"
            }
          ],
          "successActions": [
            {
              "$type": "MoleMole.Config.SetGlobalValue",
              "value": 1.0,
              "key": "gv_bulletHitting",
              "maxValue": 0.0,
              "GCEOGBJIFCP": 0.0
            },
            {
              "$type": "MoleMole.Config.FireSubEmitterEffect",
              "effectPattern": "Eff_SceneObj_ActivityAutoTimeStop_Hit_03"
            },
            {
              "$type": "MoleMole.Config.TriggerAttackEvent",
              "attackEvent": {
                "attackPattern": {
                  "$type": "IJCIPLFIDAK",
                  "triggerType": "TriggerNoRepeat",
                  "born": {
                    "$type": "AGPIGGAPILF"
                  },
                  "MFGGJCPPBGA": 0.5
                },
                "attackInfo": {
                  "attackTag": "BulletHell_BulletHit_2",
                  "attenuationTag": "",
                  "attenuationGroup": "default",
                  "attackProperty": {
                    "damagePercentageRatio": 0.0,
                    "duration": 100.0,
                    "ignoreAttackerProperty": true,
                    "strikeType": "Pierce",
                    "enBreak": 200.0,
                    "attackType": "Melee",
                    "trueDamage": true,
                    "damagePercentage": 0.0
                  },
                  "hitPattern": {
                    "onHitEffectName": "default",
                    "hitImpulseY": "",
                    "hitImpulseType": "LV3"
                  }
                }
              },
              "targetType": "Enemy"
            },
            {
              "$type": "MoleMole.Config.KillSelf",
              "KDGBDGHPFAE": [70291294]
            }
          ],
          "failActions": [
            {
              "$type": "MoleMole.Config.TriggerAbility",
              "abilityName": "SceneObj_Activity_Common_Property_Ani_Prop_BulletHell_Barrage_Bullet_toCoin"
            }
          ]
        }
      ],
      "DOFDCKKDGHL": [
        {
          "$type": "MoleMole.Config.RemoveModifier",
          "modifierName": "BulletEffect"
        }
      ]
    }
  },
  {
    "Default": {
      "$type": "MoleMole.Config.GNKCLKNDOAK",
      "abilityName": "SceneObj_Level_Common_Property_Ani_Prop_BulletHell_StaticBullet_01",
      "PIDAPNFJNDF": [
        {
          "$type": "MoleMole.Config.AttachToGadgetStateMixin",
          "modifierName": "BulletEffect"
        }
      ],
      "LLLCANIGIOE": {
        "ElementLevelCo": 1.0,
        "DamageRatio": 2.5
      },
      "BFBDNNJCDLH": {
        "BulletEffect": {
          "modifierName": "",
          "duration": 100.0,
          "OAOGLLGGJPD": [
            {
              "$type": "MoleMole.Config.AttachEffect",
              "effectPattern": "Eff_SceneObj_ActivityAutoTimeStop_Buttle_04",
              "effectTempleteID": -1.0
            }
          ],
          "PMDLJDGOIKO": [
            {
              "$type": "MoleMole.Config.KillSelf",
              "KDGBDGHPFAE": [70291291]
            }
          ]
        }
      },
      "OAOGLLGGJPD": [
        {
          "$type": "MoleMole.Config.FireSubEmitterEffect",
          "effectPattern": "Eff_SceneObj_ActivityAutoTimeStop_Fire"
        },
        {
          "$type": "MoleMole.Config.SetSystemValueToOverrideMap",
          "doOffStage": true,
          "key": "ElementLevelCo",
          "KPGKDHAFHFE": "ElementLevelCo"
        }
      ],
      "EIIHGJGFDHC": [
        {
          "$type": "MoleMole.Config.Predicated",
          "CKBKOCJPJMM": [
            {
              "$type": "CBCGGIMMENP"
            }
          ],
          "successActions": [
            {
              "$type": "MoleMole.Config.SetGlobalValue",
              "value": 1.0,
              "key": "gv_bulletHitting",
              "maxValue": 0.0,
              "GCEOGBJIFCP": 0.0
            },
            {
              "$type": "MoleMole.Config.FireSubEmitterEffect",
              "effectPattern": "Eff_SceneObj_ActivityAutoTimeStop_Hit_02"
            },
            {
              "$type": "MoleMole.Config.TriggerAttackEvent",
              "attackEvent": {
                "attackPattern": {
                  "$type": "IJCIPLFIDAK",
                  "triggerType": "TriggerNoRepeat",
                  "born": {
                    "$type": "AGPIGGAPILF"
                  },
                  "MFGGJCPPBGA": 0.5
                },
                "attackInfo": {
                  "attackTag": "BulletHell_BulletHit_1",
                  "attenuationTag": "",
                  "attenuationGroup": "default",
                  "attackProperty": {
                    "damagePercentageRatio": 0.0,
                    "duration": 100.0,
                    "ignoreAttackerProperty": true,
                    "strikeType": "Pierce",
                    "enBreak": 200.0,
                    "attackType": "Melee",
                    "trueDamage": true,
                    "damagePercentage": 0.0
                  },
                  "hitPattern": {
                    "onHitEffectName": "default",
                    "hitImpulseY": "",
                    "hitImpulseType": "LV3"
                  }
                }
              },
              "targetType": "Enemy"
            },
            {
              "$type": "MoleMole.Config.KillSelf",
              "KDGBDGHPFAE": [70291291]
            }
          ],
          "failActions": [
            {
              "$type": "MoleMole.Config.TriggerAbility",
              "abilityName": "SceneObj_Activity_Common_Property_Ani_Prop_BulletHell_Barrage_Bullet_toCoin"
            }
          ]
        }
      ],
      "DOFDCKKDGHL": [
        {
          "$type": "MoleMole.Config.RemoveModifier",
          "modifierName": "BulletEffect"
        }
      ]
    }
  },
  {
    "Default": {
      "$type": "MoleMole.Config.GNKCLKNDOAK",
      "abilityName": "SceneObj_Activity_Common_Property_Ani_Prop_BulletHell_Barrage_Bullet_toCoin",
      "PIDAPNFJNDF": [
        {
          "$type": "MoleMole.Config.AttachToGadgetStateMixin",
          "MHKDFIPGJJO": 201,
          "modifierName": "CoinEffect"
        }
      ],
      "DHNPEDCLIJK": ["SGV_CoinType"],
      "BFBDNNJCDLH": {
        "CoinEffect": {
          "modifierName": "",
          "duration": 100.0,
          "EPKCPIKGJOJ": {
            "Actor_BulletMoveSpeedRatio": -1.0,
            "Actor_BulletMoveAngularVelocityRatio": -1.0
          },
          "OAOGLLGGJPD": [
            {
              "$type": "MoleMole.Config.Predicated",
              "CKBKOCJPJMM": [
                {
                  "$type": "IPGGGPIJONN",
                  "key": "gv_bulletHitting",
                  "value": 0.0,
                  "compareType": "NoneOrEqual"
                }
              ],
              "successActions": [
                {
                  "$type": "MoleMole.Config.FireSubEmitterEffect",
                  "effectPattern": "Eff_SceneObj_GlideChampCoin_Appear_Super_Sub"
                },
                {
                  "$type": "MoleMole.Config.AttachEffect",
                  "effectPattern": "Eff_SceneObj_AdventurerCoin_NoShadows_01",
                  "effectTempleteID": -1.0
                },
                {
                  "$type": "MoleMole.Config.TriggerAbility",
                  "abilityName": "SceneObj_Activity_Common_Property_Ani_Prop_BulletHell_Barrage_Bullet_toCoin"
                }
              ]
            }
          ]
        }
      },
      "EIIHGJGFDHC": [
        {
          "$type": "MoleMole.Config.Predicated",
          "CKBKOCJPJMM": [
            {
              "$type": "IPGGGPIJONN",
              "key": "gv_playerEntered",
              "value": 1.0
            }
          ],
          "successActions": [
            {
              "$type": "MoleMole.Config.Predicated",
              "MLDBFKEGPEF": "TempTarget",
              "DDGMCOKCOIP": {
                "MAPNBHHCKNE": "_ABILITY_BulletToCoin_TargetTeam"
              },
              "CKBKOCJPJMM": [
                {
                  "$type": "BKCFCDOEENL",
                  "logic": "LesserOrEqual",
                  "compareType": "XYZ",
                  "value": 2.5,
                  "EGBKHFGDFLF": ""
                }
              ],
              "successActions": [
                {
                  "$type": "MoleMole.Config.SetGlobalValue",
                  "value": 0.0,
                  "key": "gv_playerEntered",
                  "maxValue": 0.0,
                  "GCEOGBJIFCP": 0.0
                },
                {
                  "$type": "MoleMole.Config.Predicated",
                  "CKBKOCJPJMM": [
                    {
                      "$type": "IPGGGPIJONN",
                      "key": "SGV_CoinType",
                      "value": 2.0
                    }
                  ],
                  "successActions": [
                    {
                      "$type": "MoleMole.Config.FireEffect",
                      "effectPattern": "Eff_SceneObj_GlideChampCoin_Hit_Super",
                      "effectTempleteID": -1.0
                    }
                  ],
                  "failActions": [
                    {
                      "$type": "MoleMole.Config.FireEffect",
                      "effectPattern": "Eff_SceneObj_GlideChampCoin_Hit",
                      "effectTempleteID": -1.0
                    }
                  ]
                },
                {
                  "$type": "MoleMole.Config.AddGlobalValue",
                  "MLDBFKEGPEF": "TempTarget",
                  "DDGMCOKCOIP": {
                    "MAPNBHHCKNE": "_ABILITY_BulletToCoin_TargetTeam"
                  },
                  "value": 1.0,
                  "key": "gv_SubTimerAddNotify",
                  "maxValue": 0.0,
                  "GCEOGBJIFCP": 0.0
                },
                {
                  "$type": "MoleMole.Config.ServerLuaCall",
                  "MECCMJIFJKG": "FromGroup",
                  "ACMHGHCMOIF": "SLC_Coin_Collected",
                  "EPFBIHBJPAH": 1,
                  "param1": 0,
                  "maxValue": 0.0,
                  "GBOGNIOMAGM": 0.0
                },
                {
                  "$type": "MoleMole.Config.KillSelf",
                  "KDGBDGHPFAE": [70291294, 70291295]
                }
              ]
            }
          ]
        }
      ],
      "DOFDCKKDGHL": [
        {
          "$type": "MoleMole.Config.RemoveModifier",
          "modifierName": "CoinEffect"
        }
      ],
      "GGGLNDFDIMI": [
        {
          "$type": "MoleMole.Config.Predicated",
          "MLDBFKEGPEF": "Target",
          "CKBKOCJPJMM": [
            {
              "$type": "DLLOJMFICPG",
              "JBEIOINCLFB": ["Avatar"]
            },
            {
              "$type": "CBCGGIMMENP",
              "MLDBFKEGPEF": "Self",
              "MHKDFIPGJJO": 201
            },
            {
              "$type": "IPGGGPIJONN",
              "key": "gv_bulletHitting",
              "value": 0.0,
              "compareType": "NoneOrEqual"
            }
          ],
          "successActions": [
            {
              "$type": "MoleMole.Config.Predicated",
              "CKBKOCJPJMM": [
                {
                  "$type": "IPGGGPIJONN",
                  "key": "SGV_CoinType",
                  "value": 2.0
                }
              ],
              "successActions": [
                {
                  "$type": "MoleMole.Config.FireEffect",
                  "effectPattern": "Eff_SceneObj_GlideChampCoin_Hit_Super",
                  "effectTempleteID": -1.0
                }
              ],
              "failActions": [
                {
                  "$type": "MoleMole.Config.FireEffect",
                  "effectPattern": "Eff_SceneObj_GlideChampCoin_Hit",
                  "effectTempleteID": -1.0
                }
              ]
            },
            {
              "$type": "MoleMole.Config.AddGlobalValue",
              "MLDBFKEGPEF": "TargetTeam",
              "value": 1.0,
              "key": "gv_SubTimerAddNotify",
              "maxValue": 0.0,
              "GCEOGBJIFCP": 0.0
            },
            {
              "$type": "MoleMole.Config.ServerLuaCall",
              "MECCMJIFJKG": "FromGroup",
              "ACMHGHCMOIF": "SLC_Coin_Collected",
              "EPFBIHBJPAH": 1,
              "param1": 0,
              "maxValue": 0.0,
              "GBOGNIOMAGM": 0.0
            },
            {
              "$type": "MoleMole.Config.KillSelf",
              "KDGBDGHPFAE": [70291294, 70291295]
            }
          ],
          "failActions": [
            {
              "$type": "MoleMole.Config.Predicated",
              "MLDBFKEGPEF": "Target",
              "CKBKOCJPJMM": [
                {
                  "$type": "DLLOJMFICPG",
                  "JBEIOINCLFB": ["Avatar"]
                }
              ],
              "successActions": [
                {
                  "$type": "MoleMole.Config.SetTargetToTargetKey",
                  "MLDBFKEGPEF": "TargetTeam",
                  "BHBHIEHIPFI": "_ABILITY_BulletToCoin_TargetTeam"
                },
                {
                  "$type": "MoleMole.Config.SetGlobalValue",
                  "value": 1.0,
                  "key": "gv_playerEntered",
                  "maxValue": 0.0,
                  "GCEOGBJIFCP": 0.0
                }
              ]
            }
          ]
        }
      ]
    }
  },
  {
    "Default": {
      "$type": "MoleMole.Config.GNKCLKNDOAK",
      "abilityName": "SceneObj_Activity_Common_Property_Ani_Prop_BulletHell_Barrage_Bullet_killSelf",
      "PIDAPNFJNDF": [
        {
          "$type": "MoleMole.Config.DoActionOnGlobalValueChangeMixin",
          "globalValueKey": "gv_BulletHell_Bullet_killSelf",
          "actions": [
            {
              "$type": "MoleMole.Config.KillSelf",
              "KDGBDGHPFAE": [70291294, 70291295]
            }
          ]
        }
      ]
    }
  },
  {
    "Default": {
      "$type": "MoleMole.Config.GNKCLKNDOAK",
      "abilityName": "SceneObj_Level_Common_Property_Ani_Prop_CoinDummy_beHit",
      "DHNPEDCLIJK": [
        "gv_curCoinIndex",
        "SGV_maxCoinIndex",
        "SGV_createCoinPerHit",
        "SGV_costHealthPerHit"
      ],
      "BFBDNNJCDLH": {
        "BarFunction": {
          "modifierName": "",
          "duration": 100.0,
          "JPIFFPJJEMK": [
            {
              "$type": "MoleMole.Config.ShieldBarMixin",
              "JCPHOEFMCMO": ""
            }
          ],
          "MINFJCDAIBB": [
            {
              "$type": "MoleMole.Config.KillSelf",
              "KDGBDGHPFAE": [70291292, 70291293]
            }
          ],
          "onBeingHit": [
            {
              "$type": "MoleMole.Config.SetAnimatorTrigger",
              "triggerID": "Hit"
            },
            {
              "$type": "MoleMole.Config.AddGlobalValue",
              "value": "SGV_createCoinPerHit",
              "key": "gv_curCoinIndex",
              "maxValue": 0.0,
              "GCEOGBJIFCP": 0.0
            },
            {
              "$type": "MoleMole.Config.ServerLuaCall",
              "MECCMJIFJKG": "FromGroup",
              "ACMHGHCMOIF": "SLC_BulletHell_GenCoin",
              "EPFBIHBJPAH": 3,
              "param1": 0,
              "maxValue": "SGV_maxCoinIndex",
              "GBOGNIOMAGM": "SGV_createCoinPerHit"
            },
            {
              "$type": "MoleMole.Config.AddElementDurability",
              "doOffStage": true,
              "value": [0.0, "SGV_costHealthPerHit", "SUB"],
              "modifierName": "BarFunction",
              "HPICGAMGEGA": true,
              "maxValue": 100.0,
              "GCEOGBJIFCP": 0.0
            }
          ]
        }
      },
      "OAOGLLGGJPD": [
        {
          "$type": "MoleMole.Config.SetGlobalValue",
          "value": 0.0,
          "key": "gv_curCoinIndex",
          "maxValue": 0.0,
          "GCEOGBJIFCP": 0.0
        },
        {
          "$type": "MoleMole.Config.ApplyModifier",
          "modifierName": "BarFunction"
        }
      ]
    }
  },
  {
    "Default": {
      "$type": "MoleMole.Config.GNKCLKNDOAK",
      "abilityName": "SceneObj_Level_Common_Property_Ani_Prop_CoinDummySmall_Eff",
      "BFBDNNJCDLH": {
        "onHitEffect": {
          "modifierName": "",
          "duration": 100.0
        }
      },
      "OAOGLLGGJPD": [
        {
          "$type": "MoleMole.Config.FireEffect",
          "effectPattern": "Eff_SceneObj_SmallMegaModel_01_Appear",
          "effectTempleteID": -1.0
        },
        {
          "$type": "MoleMole.Config.ApplyModifier",
          "modifierName": "onHitEffect"
        }
      ],
      "DOFDCKKDGHL": [
        {
          "$type": "MoleMole.Config.FireEffect",
          "effectPattern": "Eff_SceneObj_SmallMegaModel_Coin_01_Die",
          "effectTempleteID": -1.0
        }
      ]
    }
  },
  {
    "Default": {
      "$type": "MoleMole.Config.GNKCLKNDOAK",
      "abilityName": "SceneObj_Level_Common_Property_Ani_Prop_CoinDummyBig_Eff",
      "BFBDNNJCDLH": {
        "onHitEffect": {
          "modifierName": "",
          "duration": 100.0,
          "onBeingHit": [
            {
              "$type": "MoleMole.Config.FireEffect",
              "effectPattern": "Eff_SceneObj_BigMegaModel_01_Coin_Hit",
              "effectTempleteID": -1.0
            }
          ]
        }
      },
      "OAOGLLGGJPD": [
        {
          "$type": "MoleMole.Config.FireEffect",
          "effectPattern": "Eff_SceneObj_BigMegaModel_01_Appear",
          "effectTempleteID": -1.0
        },
        {
          "$type": "MoleMole.Config.ApplyModifier",
          "modifierName": "onHitEffect"
        }
      ],
      "DOFDCKKDGHL": [
        {
          "$type": "MoleMole.Config.FireEffect",
          "effectPattern": "Eff_SceneObj_BigMegaModel_01_Die",
          "effectTempleteID": -1.0
        }
      ]
    }
  },
  {
    "Default": {
      "$type": "MoleMole.Config.GNKCLKNDOAK",
      "abilityName": "SceneObj_Level_Common_Property_Ani_Prop_LeaserWall_01",
      "PIDAPNFJNDF": [
        {
          "$type": "MoleMole.Config.AttachModifierToSelfGlobalValueMixin",
          "globalValueKey": "gv_playerReach",
          "KADKJMOFOLI": 0.0,
          "FJEPHJNDEAI": [0.5, 1.5],
          "IJEPHCMOAPE": ["LeaserWall_GadgetTimer"]
        }
      ],
      "BFBDNNJCDLH": {
        "delay_enableField": {
          "modifierName": "",
          "duration": 2.0,
          "duration": 100.0,
          "OAOGLLGGJPD": [
            {
              "$type": "MoleMole.Config.EnableSceneTransformByName",
              "MKNNBEGONKE": ["FieldRoot"]
            }
          ],
          "MINFJCDAIBB": [
            {
              "$type": "MoleMole.Config.ApplyModifier",
              "modifierName": "enableField"
            }
          ]
        },
        "enableField": {
          "modifierName": "",
          "duration": 100.0,
          "OAOGLLGGJPD": [
            {
              "$type": "MoleMole.Config.EnableSceneTransformByName",
              "MKNNBEGONKE": ["FieldRoot"],
              "NJKBCLADIBK": true
            }
          ]
        },
        "Leaser_Effect_delay": {
          "modifierName": "",
          "duration": 2.0,
          "duration": 100.0,
          "MINFJCDAIBB": [
            {
              "$type": "MoleMole.Config.ApplyModifier",
              "modifierName": "Leaser_Effect"
            }
          ]
        },
        "Leaser_Effect": {
          "modifierName": "",
          "duration": 100.0,
          "OAOGLLGGJPD": [
            {
              "$type": "MoleMole.Config.AttachEffect",
              "effectPattern": "Eff_SceneObj_MegaRayWall_01",
              "born": {
                "$type": "JEDNAGFKIDP",
                "useRotation": true,
                "OBNIJLKICKN": "leaserPoint1",
                "KLLPFNDMLHO": "Self"
              },
              "effectTempleteID": -1.0
            },
            {
              "$type": "MoleMole.Config.AttachEffect",
              "effectPattern": "Eff_SceneObj_MegaRayWall_01",
              "born": {
                "$type": "JEDNAGFKIDP",
                "useRotation": true,
                "OBNIJLKICKN": "leaserPoint2",
                "KLLPFNDMLHO": "Self"
              },
              "effectTempleteID": -1.0
            }
          ]
        },
        "LeaserWall_GadgetTimer": {
          "modifierName": "",
          "duration": 100.0,
          "BNJENAIMDPL": 0.25,
          "OAOGLLGGJPD": [
            {
              "$type": "MoleMole.Config.Predicated",
              "MLDBFKEGPEF": "TempTarget",
              "DDGMCOKCOIP": {
                "MAPNBHHCKNE": "_ABILITY_LeaserWall_TargetTeam"
              },
              "CKBKOCJPJMM": [
                {
                  "$type": "OFGMGHOHBJD",
                  "MLDBFKEGPEF": "TempTarget",
                  "modifierName": "LeaserWall_TeamTimer"
                }
              ],
              "failActions": [
                {
                  "$type": "MoleMole.Config.ApplyModifier",
                  "MLDBFKEGPEF": "TempTarget",
                  "DDGMCOKCOIP": {
                    "MAPNBHHCKNE": "_ABILITY_LeaserWall_TargetTeam"
                  },
                  "modifierName": "LeaserWall_TeamTimer"
                },
                {
                  "$type": "MoleMole.Config.TriggerAbility",
                  "abilityName": "SceneObj_Level_Common_Property_Ani_Prop_LeaserWall_01"
                }
              ]
            }
          ],
          "PJKELBNICOI": [
            {
              "$type": "MoleMole.Config.Predicated",
              "MLDBFKEGPEF": "TempTarget",
              "DDGMCOKCOIP": {
                "MAPNBHHCKNE": "_ABILITY_LeaserWall_TargetTeam"
              },
              "CKBKOCJPJMM": [
                {
                  "$type": "OFGMGHOHBJD",
                  "MLDBFKEGPEF": "TempTarget",
                  "modifierName": "LeaserWall_TeamTimer"
                }
              ],
              "failActions": [
                {
                  "$type": "MoleMole.Config.ApplyModifier",
                  "MLDBFKEGPEF": "TempTarget",
                  "DDGMCOKCOIP": {
                    "MAPNBHHCKNE": "_ABILITY_LeaserWall_TargetTeam"
                  },
                  "modifierName": "LeaserWall_TeamTimer"
                },
                {
                  "$type": "MoleMole.Config.TriggerAbility",
                  "abilityName": "SceneObj_Level_Common_Property_Ani_Prop_LeaserWall_01"
                }
              ]
            }
          ]
        },
        "LeaserWall_TeamTimer": {
          "modifierName": "",
          "duration": 1.0,
          "duration": 100.0
        }
      },
      "OAOGLLGGJPD": [
        {
          "$type": "MoleMole.Config.ApplyModifier",
          "modifierName": "Leaser_Effect_delay"
        },
        {
          "$type": "MoleMole.Config.ApplyModifier",
          "modifierName": "delay_enableField"
        }
      ],
      "EIIHGJGFDHC": [
        {
          "$type": "MoleMole.Config.TriggerAttackEvent",
          "attackEvent": {
            "attackPattern": {
              "$type": "CKCNJHBMNGJ",
              "triggerType": "TriggerNoRepeat",
              "entityAttackFilter": "IgnoreSceneProp",
              "born": {
                "$type": "KPFCCIOJAMK",
                "offset": {
                  "GOAPOLCAJBP": 0.0,
                  "FMOPCJGGFMH": 0.0,
                  "EJJEPFCDDAM": 0.0
                },
                "useRotation": true
              },
              "size": {
                "GOAPOLCAJBP": 10.0,
                "FMOPCJGGFMH": 2.0,
                "EJJEPFCDDAM": 0.6000000238418579
              }
            },
            "attackInfo": {
              "attackTag": "BulletHell_BulletHit_3",
              "attenuationTag": "",
              "attenuationGroup": "default",
              "attackProperty": {
                "damagePercentageRatio": 0.0,
                "duration": 100.0,
                "ignoreAttackerProperty": true,
                "strikeType": "Pierce",
                "enBreak": 200.0,
                "attackType": "Melee",
                "trueDamage": true,
                "damagePercentage": 0.0
              },
              "hitPattern": {
                "onHitEffectName": "default",
                "hitImpulseY": "",
                "hitImpulseType": "LV3"
              }
            }
          },
          "targetType": "Enemy"
        }
      ],
      "DOFDCKKDGHL": [
        {
          "$type": "MoleMole.Config.RemoveModifier",
          "modifierName": "Leaser_Effect"
        }
      ],
      "GGGLNDFDIMI": [
        {
          "$type": "MoleMole.Config.Predicated",
          "MLDBFKEGPEF": "Target",
          "CKBKOCJPJMM": [
            {
              "$type": "DLLOJMFICPG",
              "JBEIOINCLFB": ["Avatar"]
            }
          ],
          "successActions": [
            {
              "$type": "MoleMole.Config.SetTargetToTargetKey",
              "MLDBFKEGPEF": "TargetTeam",
              "BHBHIEHIPFI": "_ABILITY_LeaserWall_TargetTeam"
            },
            {
              "$type": "MoleMole.Config.SetGlobalValue",
              "value": 1.0,
              "key": "gv_playerReach",
              "maxValue": 0.0,
              "GCEOGBJIFCP": 0.0
            }
          ]
        }
      ],
      "GCBLHJHFDFA": [
        {
          "$type": "MoleMole.Config.Predicated",
          "MLDBFKEGPEF": "Target",
          "CKBKOCJPJMM": [
            {
              "$type": "DLLOJMFICPG",
              "JBEIOINCLFB": ["Avatar"]
            }
          ],
          "successActions": [
            {
              "$type": "MoleMole.Config.SetGlobalValue",
              "value": 0.0,
              "key": "gv_playerReach",
              "maxValue": 0.0,
              "GCEOGBJIFCP": 0.0
            }
          ]
        }
      ]
    }
  }
]
