[
  {
    "Default": {
      "$type": "ConfigAbility",
      "abilityName": "SceneObj_Area_Common_Property_Ani_Prop_SandStacks_Interact",
      "modifiers": {
        "NormalModifier": {
          "modifierName": "",
          "elementDurability": 100.0,
          "onBeingHit": [
            {
              "$type": "AttachModifier",
              "predicates": [
                {
                  "$type": "ByHitElement",
                  "element": "Wind"
                }
              ],
              "modifierName": "ElementWindModifier"
            }
          ]
        },
        "ElementWindModifier": {
          "modifierName": "",
          "duration": 2.0,
          "elementDurability": 100.0,
          "onAdded": [
            {
              "$type": "FireEffect",
              "rotationDampTime": "Eff_SceneObj_SandStacks_01_BlowOff",
              "born": {
                "$type": "ConfigBornByAttachPoint",
                "attachPointName": "AttachPoint"
              },
              "PPPDJGDDOGD": 1.0,
              "AJDILHJFNKE": -1.0
            },
            {
              "$type": "SetAnimatorTrigger",
              "triggerID": "DieTrigger"
            }
          ],
          "onRemoved": [
            {
              "$type": "KillSelf"
            }
          ]
        }
      },
      "onAdded": [
        {
          "$type": "AttachAbilityStateResistance",
          "resistanceListID": 14005
        },
        {
          "$type": "AttachAbilityStateResistance",
          "resistanceListID": 14002
        },
        {
          "$type": "AttachModifier",
          "modifierName": "NormalModifier"
        },
        {
          "$type": "AddGlobalValue",
          "value": 1.0,
          "key": "_ABILITY_BURNING_IGNITE_ONLY",
          "useLimitRange": true,
          "maxValue": 1.0,
          "minValue": 1.0
        }
      ]
    }
  },
  {
    "Default": {
      "$type": "ConfigAbility",
      "abilityName": "SceneObj_Area_Common_Property_Ani_Prop_SandStacksInteraction_01",
      "abilityMixins": [
        {
          "$type": "AttachToGadgetStateMixin",
          "gadgetState": 201,
          "modifierName": "ElementWindModifier"
        }
      ],
      "modifiers": {
        "NormalModifier": {
          "modifierName": "",
          "elementDurability": 100.0
        },
        "ElementWindModifier": {
          "modifierName": "",
          "duration": 2.0,
          "elementDurability": 100.0,
          "onAdded": [
            {
              "$type": "FireEffect",
              "rotationDampTime": "Eff_SceneObj_SandStacks_01_BlowOff",
              "born": {
                "$type": "ConfigBornByAttachPoint",
                "attachPointName": "AttachPoint"
              },
              "PPPDJGDDOGD": 1.0,
              "AJDILHJFNKE": -1.0
            },
            {
              "$type": "SetAnimatorTrigger",
              "triggerID": "DieTrigger"
            }
          ],
          "onRemoved": [
            {
              "$type": "KillSelf"
            }
          ]
        }
      }
    }
  }
]
