[
  {
    "Default": {
      "$type": "ConfigAbility",
      "abilityName": "SceneObj_Area_Fd_Property_Ani_Prop_SealHorn_Activity",
      "abilityMixins": [
        {
          "$type": "AttachToGadgetStateMixin",
          "modifierName": "State_0"
        },
        {
          "$type": "AttachToGadgetStateMixin",
          "gadgetState": 201,
          "modifierName": "State_201"
        },
        {
          "$type": "LNEJGOMCBMO",
          "succActions": [
            {
              "$type": "AHPEKICBIIL",
              "luaCallType": "FromGroup",
              "funcName": "SLC_Horn_Active",
              "param1": 0.0,
              "MGAMDEHMCOL": 0.0,
              "MMHOHAOGPLP": 0.0
            },
            {
              "$type": "FireEffect",
              "rotationDampTime": "Eff_ScenObj_Prop_SealHorn_01_Correct",
              "PPPDJGDDOGD": 1.0,
              "AJDILHJFNKE": -1.0
            }
          ]
        }
      ],
      "modifiers": {
        "_SealHorn_Activity": {
          "modifierName": "",
          "elementDurability": 100.0,
          "onAdded": [
            {
              "$type": "AttachEffect",
              "rotationDampTime": "Eff_ScenObj_Prop_SealHorn_01_Default",
              "PPPDJGDDOGD": 1.0,
              "AJDILHJFNKE": -1.0
            }
          ]
        },
        "Fail": {
          "modifierName": "",
          "elementDurability": 100.0,
          "onAdded": [
            {
              "$type": "FireEffect",
              "rotationDampTime": "Eff_ScenObj_Prop_SealHorn_01_Mistake",
              "PPPDJGDDOGD": 1.0,
              "AJDILHJFNKE": -1.0
            }
          ]
        },
        "Correct": {
          "modifierName": "",
          "elementDurability": 100.0,
          "onAdded": [
            {
              "$type": "FireEffect",
              "rotationDampTime": "Eff_ScenObj_Prop_SealHorn_01_Correct",
              "PPPDJGDDOGD": 1.0,
              "AJDILHJFNKE": -1.0
            }
          ]
        },
        "State_0": {
          "modifierName": "",
          "elementDurability": 100.0,
          "onRemoved": [
            {
              "$type": "SetAnimatorTrigger",
              "shieldHP": true,
              "triggerID": "Trigger"
            }
          ]
        },
        "State_201": {
          "modifierName": "",
          "elementDurability": 100.0,
          "onAdded": [
            {
              "$type": "AttachEffect",
              "rotationDampTime": "Eff_ScenObj_Prop_SealHorn_01_HappySing",
              "PPPDJGDDOGD": 1.0,
              "AJDILHJFNKE": -1.0
            },
            {
              "$type": "AHPEKICBIIL",
              "funcName": "SLC_SealHornMark",
              "param1": 0.0,
              "MGAMDEHMCOL": 0.0,
              "MMHOHAOGPLP": 0.0
            },
            {
              "$type": "ApplyModifier",
              "modifierName": "ShowEff"
            }
          ]
        },
        "ShowEff": {
          "modifierName": "",
          "duration": 0.5,
          "elementDurability": 100.0,
          "onAdded": [
            {
              "$type": "FireEffect",
              "rotationDampTime": "Eff_ScenObj_Prop_SealHorn_01_BigEcho",
              "PPPDJGDDOGD": 1.0,
              "AJDILHJFNKE": -1.0
            }
          ]
        }
      },
      "onAdded": [
        {
          "$type": "AttachModifier",
          "modifierName": "_SealHorn_Activity"
        }
      ]
    }
  },
  {
    "Default": {
      "$type": "ConfigAbility",
      "abilityName": "MonsterAffix_SeaHorn_Activity_ShowEff",
      "abilityMixins": [
        {
          "$type": "AttachModifierToGlobalValueMixin",
          "globalValueKey": "SGV_Show_Eff_SeaHorn",
          "valueSteps": [-0.5, 0.5, 1.5],
          "modifierNameSteps": [
            "SGV_Show_Eff_SeaHorn_0",
            "SGV_Show_Eff_SeaHorn_1"
          ],
          "NMCLMHFBALJ": true
        }
      ],
      "modifiers": {
        "SGV_Show_Eff_SeaHorn_0": {
          "modifierName": "",
          "elementDurability": 100.0
        },
        "SGV_Show_Eff_SeaHorn_1": {
          "modifierName": "",
          "elementDurability": 100.0,
          "onAdded": [
            {
              "$type": "AttachEffect",
              "rotationDampTime": "Eff_SceneObj_ActivitySealMark_01_Active",
              "PPPDJGDDOGD": 1.0,
              "AJDILHJFNKE": -1.0
            }
          ],
          "onRemoved": [
            {
              "$type": "FireEffect",
              "rotationDampTime": "Eff_SceneObj_ActivitySealMark_01_Disappear",
              "PPPDJGDDOGD": 1.0,
              "AJDILHJFNKE": -1.0
            }
          ]
        }
      }
    }
  },
  {
    "Default": {
      "$type": "ConfigAbility",
      "abilityName": "TeamAbility_Activity_RainbowPrince_Dungeon_Skill",
      "abilityMixins": [
        {
          "$type": "JPPFBGJICKI",
          "key": "RainbowPrince_Dungeon_Skill",
          "maxValue": 0.0,
          "minValue": 0.0
        }
      ],
      "modifiers": {
        "Energy_Control": {
          "modifierName": "",
          "elementDurability": 100.0,
          "thinkInterval": 1.0,
          "modifierMixins": [
            {
              "$type": "EJNMIOFDIGF",
              "onStageReady": [
                {
                  "$type": "MMEOBGGBNLK",
                  "target": "CurTeamAvatars",
                  "skillID": 20071
                }
              ]
            }
          ],
          "onAdded": [
            {
              "$type": "MMEOBGGBNLK",
              "target": "CurTeamAvatars",
              "canBeHandledOnRecover": true,
              "skillID": 20071
            }
          ],
          "onThinkInterval": [
            {
              "$type": "AddGlobalValue",
              "value": 2.4000000953674316,
              "key": "RainbowPrince_Dungeon_Skill",
              "useLimitRange": true,
              "maxValue": 100.0,
              "minValue": 0.0
            }
          ]
        },
        "_Avatar_Try_Trigger": {
          "stacking": "Multiple",
          "modifierName": "",
          "duration": 0.10000000149011612,
          "elementDurability": 100.0,
          "onAdded": [
            {
              "$type": "Predicated",
              "otherTargets": {
                "$type": "SelectTargetsByShape",
                "shapeName": "CircleR1000",
                "campTargetType": "All",
                "doOffStage": 1.0
              },
              "targetPredicates": [
                {
                  "$type": "ByTargetGlobalValue",
                  "key": "_RainbowPrince_Robot",
                  "value": 1.0
                }
              ],
              "successActions": [
                {
                  "$type": "TriggerAbility",
                  "target": "Other",
                  "abilityName": "SceneObj_Level_Fd_Property_Ani_Prop_RainbowPrince_01"
                }
              ]
            }
          ]
        }
      },
      "onAdded": [
        {
          "$type": "SetGlobalValue",
          "target": "Team",
          "value": 100.0,
          "key": "RainbowPrince_Dungeon_Skill",
          "maxValue": 0.0,
          "minValue": 0.0
        },
        {
          "$type": "AttachModifier",
          "modifierName": "Energy_Control"
        }
      ],
      "onRemoved": [
        {
          "$type": "MMEOBGGBNLK",
          "target": "CurTeamAvatars"
        }
      ],
      "onAbilityStart": [
        {
          "$type": "DebugLog",
          "content": "onAbilityStart!!! > TeamAbility_Activity_RainbowPrince_Dungeon_Skill"
        },
        {
          "$type": "LIAKJHCLFLK"
        },
        {
          "$type": "SetGlobalValue",
          "target": "Team",
          "value": 0.0,
          "key": "RainbowPrince_Dungeon_Skill",
          "maxValue": 0.0,
          "minValue": 0.0
        },
        {
          "$type": "ApplyModifier",
          "target": "CurLocalAvatar",
          "modifierName": "_Avatar_Try_Trigger"
        },
        {
          "$type": "AHPEKICBIIL",
          "luaCallType": "AbilityGroupSourceGroup",
          "funcName": "SLC_Trigger_Skill",
          "param1": 0.0,
          "MGAMDEHMCOL": 0.0,
          "MMHOHAOGPLP": 0.0
        }
      ],
      "isDynamicAbility": true
    }
  },
  {
    "Default": {
      "$type": "ConfigAbility",
      "abilityName": "MonsterAffix_RainbowPrince_Dungeon_Skill",
      "modifiers": {
        "_Monster_RaionbowPrince_Energy": {
          "modifierName": "",
          "elementDurability": 100.0,
          "onKill": [
            {
              "$type": "ApplyModifier",
              "target": "Team",
              "modifierName": "_Add_GV_RainbowPrince"
            }
          ]
        },
        "_Add_GV_RainbowPrince": {
          "stacking": "Multiple",
          "modifierName": "",
          "duration": 0.10000000149011612,
          "elementDurability": 100.0,
          "onAdded": [
            {
              "$type": "AddGlobalValue",
              "value": 5.0,
              "key": "RainbowPrince_Dungeon_Skill",
              "useLimitRange": true,
              "maxValue": 100.0,
              "minValue": 0.0
            }
          ]
        }
      },
      "onAdded": [
        {
          "$type": "AttachModifier",
          "modifierName": "_Monster_RaionbowPrince_Energy"
        }
      ]
    }
  },
  {
    "Default": {
      "$type": "ConfigAbility",
      "abilityName": "MonsterAffix_RainbowPrince_Dungeon_Skill2",
      "modifiers": {
        "_Monster_RaionbowPrince_Energy": {
          "modifierName": "",
          "elementDurability": 100.0,
          "onKill": [
            {
              "$type": "ApplyModifier",
              "target": "Team",
              "modifierName": "_Add_GV_RainbowPrince"
            }
          ]
        },
        "_Add_GV_RainbowPrince": {
          "stacking": "Multiple",
          "modifierName": "",
          "duration": 0.10000000149011612,
          "elementDurability": 100.0,
          "onAdded": [
            {
              "$type": "AddGlobalValue",
              "value": 10.0,
              "key": "RainbowPrince_Dungeon_Skill",
              "useLimitRange": true,
              "maxValue": 100.0,
              "minValue": 0.0
            }
          ]
        }
      },
      "onAdded": [
        {
          "$type": "AttachModifier",
          "modifierName": "_Monster_RaionbowPrince_Energy"
        }
      ]
    }
  },
  {
    "Default": {
      "$type": "ConfigAbility",
      "abilityName": "MonsterAffix_RainbowPrince_Dungeon_Skill3",
      "modifiers": {
        "_Monster_RaionbowPrince_Energy": {
          "modifierName": "",
          "elementDurability": 100.0,
          "onKill": [
            {
              "$type": "ApplyModifier",
              "target": "Team",
              "modifierName": "_Add_GV_RainbowPrince"
            }
          ]
        },
        "_Add_GV_RainbowPrince": {
          "stacking": "Multiple",
          "modifierName": "",
          "duration": 0.10000000149011612,
          "elementDurability": 100.0,
          "onAdded": [
            {
              "$type": "AddGlobalValue",
              "value": 20.0,
              "key": "RainbowPrince_Dungeon_Skill",
              "useLimitRange": true,
              "maxValue": 100.0,
              "minValue": 0.0
            }
          ]
        }
      },
      "onAdded": [
        {
          "$type": "AttachModifier",
          "modifierName": "_Monster_RaionbowPrince_Energy"
        }
      ]
    }
  },
  {
    "Default": {
      "$type": "ConfigAbility",
      "abilityName": "SceneObj_Level_Fd_Property_Ani_Prop_RainbowPrince_01",
      "abilityMixins": [
        {
          "$type": "AttachModifierToGlobalValueMixin",
          "globalValueKey": "SGV_RAINBOWPRINCE_ICON",
          "valueSteps": [-0.5, 0.5, 1.5],
          "modifierNameSteps": [
            "SGV_RAINBOWPRINCE_ICON_0",
            "SGV_RAINBOWPRINCE_ICON_1"
          ],
          "NMCLMHFBALJ": true
        }
      ],
      "modifiers": {
        "SGV_RAINBOWPRINCE_ICON_0": {
          "modifierName": "",
          "elementDurability": 100.0,
          "onAdded": [
            {
              "$type": "HBNEMPLJCMB"
            }
          ]
        },
        "SGV_RAINBOWPRINCE_ICON_1": {
          "modifierName": "",
          "elementDurability": 100.0,
          "onAdded": [
            {
              "$type": "HBNEMPLJCMB",
              "hide": true
            }
          ]
        },
        "dir_control": {
          "modifierName": "",
          "elementDurability": 100.0,
          "modifierMixins": [
            {
              "$type": "AttachToGadgetStateMixin",
              "gadgetState": 201,
              "modifierName": "State_201"
            }
          ],
          "onAdded": [
            {
              "$type": "GPDAIGICDKI",
              "target": "Team",
              "partRootNames": ["RootNode"]
            },
            {
              "$type": "KGKOLOLDKHH",
              "partRootNames": ["RootNode"],
              "enable": true
            }
          ]
        },
        "State_201": {
          "modifierName": "",
          "elementDurability": 100.0,
          "onAdded": [
            {
              "$type": "CLKGEHMNIEF",
              "transformNames": ["Crown"],
              "setEnable": true
            }
          ]
        }
      },
      "onAdded": [
        {
          "$type": "SetGlobalValue",
          "value": 1.0,
          "key": "_RainbowPrince_Robot",
          "maxValue": 0.0,
          "minValue": 0.0
        },
        {
          "$type": "AttachModifier",
          "modifierName": "dir_control"
        }
      ],
      "onAbilityStart": [
        {
          "$type": "DebugLog",
          "content": "onAbilityStart!!! > SceneObj_Level_Fd_Property_Ani_Prop_RainbowPrince_01"
        },
        {
          "$type": "SetAnimatorTrigger",
          "triggerID": "Skill"
        },
        {
          "$type": "TriggerAbility",
          "abilityName": "ActivityAbility_V4.2_RainBowPrince_ShockWave_Basic"
        },
        {
          "$type": "TriggerAbility",
          "abilityName": "ActivityAbility_V4.2_RainBowPrince_ShockWave_Advanced"
        },
        {
          "$type": "TriggerAbility",
          "abilityName": "ActivityAbility_V4.2_RainBowPrince_ThunderRing"
        },
        {
          "$type": "TriggerAbility",
          "abilityName": "ActivityAbility_V4.2_RainBowPrince_WaterRing"
        },
        {
          "$type": "TriggerAbility",
          "abilityName": "ActivityAbility_V4.2_RainBowPrince_WindRing"
        },
        {
          "$type": "TriggerAbility",
          "abilityName": "ActivityAbility_V4.2_RainBowPrince_HPRing"
        },
        {
          "$type": "TriggerAbility",
          "abilityName": "ActivityAbility_V4.2_RainBowPrince_DrainHP"
        },
        {
          "$type": "Predicated",
          "targetPredicates": [
            {
              "$type": "ByTargetGlobalValue",
              "key": "SGV_RAINBOWPRINCE_QUEST_STATE",
              "value": 3.0
            }
          ],
          "successActions": [
            {
              "$type": "EACEDAKOMMM",
              "rotationDampTime": "InLevelRainbowPrince_TSkillAnimaSpecial",
              "effectSlot": "MainPagePlugin",
              "effectPattern": ""
            }
          ],
          "failActions": [
            {
              "$type": "EACEDAKOMMM",
              "rotationDampTime": "InLevelRainbowPrince_TSkillAnima",
              "effectSlot": "MainPagePlugin",
              "effectPattern": ""
            }
          ]
        }
      ]
    }
  },
  {
    "Default": {
      "$type": "ConfigAbility",
      "abilityName": "SceneObj_Area_Fd_Property_Ani_Prop_SealHorn_UnderSeaExplore_Activity",
      "abilityMixins": [
        {
          "$type": "LNEJGOMCBMO",
          "succActions": [
            {
              "$type": "HPIDNBEGJLL",
              "state": 202
            }
          ]
        },
        {
          "$type": "AttachModifierToGlobalValueMixin",
          "globalValueKey": "SGV_Active",
          "valueSteps": [-0.5, 0.5, 1.5],
          "modifierNameSteps": ["SGV_Active_0", "SGV_Active_1"],
          "NMCLMHFBALJ": true
        }
      ],
      "modifiers": {
        "SGV_Active_0": {
          "modifierName": "",
          "elementDurability": 100.0,
          "onAdded": [
            {
              "$type": "JPAAAOLNENF"
            }
          ]
        },
        "SGV_Active_1": {
          "modifierName": "",
          "elementDurability": 100.0,
          "modifierMixins": [
            {
              "$type": "AttachToGadgetStateMixin",
              "gadgetState": 201,
              "modifierName": "SGV_Active_1_State_201"
            },
            {
              "$type": "AttachToGadgetStateMixin",
              "modifierName": "SGV_Active_1_State_0"
            }
          ],
          "onAdded": [
            {
              "$type": "AttachEffect",
              "rotationDampTime": "Eff_SceneObj_ActivitySealMark_01_Active",
              "PPPDJGDDOGD": 1.0,
              "AJDILHJFNKE": -1.0
            }
          ],
          "onRemoved": [
            {
              "$type": "FireEffect",
              "rotationDampTime": "Eff_SceneObj_ActivitySealMark_01_Disappear",
              "PPPDJGDDOGD": 1.0,
              "AJDILHJFNKE": -1.0
            }
          ]
        },
        "SGV_Active_1_State_201": {
          "modifierName": "",
          "elementDurability": 100.0,
          "onAdded": [
            {
              "$type": "AttachEffect",
              "rotationDampTime": "Eff_QuestGuide_Position_Follow",
              "PPPDJGDDOGD": 1.0,
              "AJDILHJFNKE": -1.0
            },
            {
              "$type": "JPAAAOLNENF",
              "canBeHandledOnRecover": true,
              "enable": true
            }
          ]
        },
        "SGV_Active_1_State_0": {
          "modifierName": "",
          "elementDurability": 100.0,
          "onAdded": [
            {
              "$type": "JPAAAOLNENF",
              "canBeHandledOnRecover": true
            }
          ]
        }
      }
    }
  },
  {
    "Default": {
      "$type": "ConfigAbility",
      "abilityName": "SceneObj_Area_Fd_Property_Ani_Prop_SealHorn_UnderSeaExplore_Activity_2",
      "abilityMixins": [
        {
          "$type": "AttachModifierToGlobalValueMixin",
          "globalValueKey": "SGV_Active",
          "valueSteps": [-0.5, 0.5, 1.5],
          "modifierNameSteps": ["SGV_Active_0", "SGV_Active_1"],
          "NMCLMHFBALJ": true
        }
      ],
      "modifiers": {
        "SGV_Active_0": {
          "modifierName": "",
          "elementDurability": 100.0,
          "onAdded": [
            {
              "$type": "JPAAAOLNENF"
            }
          ]
        },
        "SGV_Active_1": {
          "modifierName": "",
          "elementDurability": 100.0,
          "modifierMixins": [
            {
              "$type": "AttachToGadgetStateMixin",
              "modifierName": "SGV_Active_1_State_0"
            },
            {
              "$type": "AttachToGadgetStateMixin",
              "gadgetState": 101,
              "modifierName": "SGV_Active_1_State_101"
            }
          ],
          "onAdded": [
            {
              "$type": "AttachEffect",
              "rotationDampTime": "Eff_SceneObj_ActivitySealMark_01_Active",
              "PPPDJGDDOGD": 1.0,
              "AJDILHJFNKE": -1.0
            }
          ],
          "onRemoved": [
            {
              "$type": "FireEffect",
              "rotationDampTime": "Eff_SceneObj_ActivitySealMark_01_Disappear",
              "PPPDJGDDOGD": 1.0,
              "AJDILHJFNKE": -1.0
            }
          ]
        },
        "SGV_Active_1_State_0": {
          "modifierName": "",
          "elementDurability": 100.0,
          "onAdded": [
            {
              "$type": "AttachEffect",
              "rotationDampTime": "Eff_QuestGuide_Position_Follow",
              "PPPDJGDDOGD": 1.0,
              "AJDILHJFNKE": -1.0
            },
            {
              "$type": "JPAAAOLNENF",
              "enable": true
            }
          ]
        },
        "SGV_Active_1_State_101": {
          "modifierName": "",
          "elementDurability": 100.0,
          "onAdded": [
            {
              "$type": "JPAAAOLNENF"
            }
          ]
        }
      }
    }
  },
  {
    "Default": {
      "$type": "ConfigAbility",
      "abilityName": "ActivityAbility_MistTrialV4_Team_47901",
      "modifiers": {
        "MistTrialV4_TryStartChallenge_Team": {
          "modifierName": "",
          "elementDurability": 100.0,
          "thinkInterval": 4.0,
          "onThinkInterval": [
            {
              "$type": "AHPEKICBIIL",
              "predicates": [
                {
                  "$type": "CKHKMHGMACL"
                }
              ],
              "luaCallType": "SpecificGroup",
              "callParamList": [247901001],
              "funcName": "SLC_MistTrial_TryStartChallenge",
              "param1": 0.0,
              "MGAMDEHMCOL": 0.0,
              "MMHOHAOGPLP": 0.0
            },
            {
              "$type": "RemoveModifier",
              "predicates": [
                {
                  "$type": "CKHKMHGMACL"
                }
              ],
              "modifierName": "MistTrialV4_TryStartChallenge_Team"
            }
          ]
        }
      },
      "onAdded": [
        {
          "$type": "AttachModifier",
          "modifierName": "MistTrialV4_TryStartChallenge_Team"
        }
      ],
      "isDynamicAbility": true
    }
  },
  {
    "Default": {
      "$type": "ConfigAbility",
      "abilityName": "ActivityAbility_MistTrialV4_Team_47902",
      "modifiers": {
        "MistTrialV4_TryStartChallenge_Team": {
          "modifierName": "",
          "elementDurability": 100.0,
          "thinkInterval": 4.0,
          "onThinkInterval": [
            {
              "$type": "AHPEKICBIIL",
              "predicates": [
                {
                  "$type": "CKHKMHGMACL"
                }
              ],
              "luaCallType": "SpecificGroup",
              "callParamList": [247902001],
              "funcName": "SLC_MistTrial_TryStartChallenge",
              "param1": 0.0,
              "MGAMDEHMCOL": 0.0,
              "MMHOHAOGPLP": 0.0
            },
            {
              "$type": "RemoveModifier",
              "predicates": [
                {
                  "$type": "CKHKMHGMACL"
                }
              ],
              "modifierName": "MistTrialV4_TryStartChallenge_Team"
            }
          ]
        }
      },
      "onAdded": [
        {
          "$type": "AttachModifier",
          "modifierName": "MistTrialV4_TryStartChallenge_Team"
        }
      ],
      "isDynamicAbility": true
    }
  },
  {
    "Default": {
      "$type": "ConfigAbility",
      "abilityName": "ActivityAbility_MistTrialV4_Team_47903",
      "modifiers": {
        "MistTrialV4_TryStartChallenge_Team": {
          "modifierName": "",
          "elementDurability": 100.0,
          "thinkInterval": 4.0,
          "onThinkInterval": [
            {
              "$type": "AHPEKICBIIL",
              "predicates": [
                {
                  "$type": "CKHKMHGMACL"
                }
              ],
              "luaCallType": "SpecificGroup",
              "callParamList": [247903001],
              "funcName": "SLC_MistTrial_TryStartChallenge",
              "param1": 0.0,
              "MGAMDEHMCOL": 0.0,
              "MMHOHAOGPLP": 0.0
            },
            {
              "$type": "RemoveModifier",
              "predicates": [
                {
                  "$type": "CKHKMHGMACL"
                }
              ],
              "modifierName": "MistTrialV4_TryStartChallenge_Team"
            }
          ]
        }
      },
      "onAdded": [
        {
          "$type": "AttachModifier",
          "modifierName": "MistTrialV4_TryStartChallenge_Team"
        }
      ],
      "isDynamicAbility": true
    }
  },
  {
    "Default": {
      "$type": "ConfigAbility",
      "abilityName": "ActivityAbility_MistTrialV4_Team_47904",
      "modifiers": {
        "MistTrialV4_TryStartChallenge_Team": {
          "modifierName": "",
          "elementDurability": 100.0,
          "thinkInterval": 4.0,
          "onThinkInterval": [
            {
              "$type": "AHPEKICBIIL",
              "predicates": [
                {
                  "$type": "CKHKMHGMACL"
                }
              ],
              "luaCallType": "SpecificGroup",
              "callParamList": [247904001],
              "funcName": "SLC_MistTrial_TryStartChallenge",
              "param1": 0.0,
              "MGAMDEHMCOL": 0.0,
              "MMHOHAOGPLP": 0.0
            },
            {
              "$type": "RemoveModifier",
              "predicates": [
                {
                  "$type": "CKHKMHGMACL"
                }
              ],
              "modifierName": "MistTrialV4_TryStartChallenge_Team"
            }
          ]
        }
      },
      "onAdded": [
        {
          "$type": "AttachModifier",
          "modifierName": "MistTrialV4_TryStartChallenge_Team"
        }
      ],
      "isDynamicAbility": true
    }
  },
  {
    "Default": {
      "$type": "ConfigAbility",
      "abilityName": "ActivityAbility_MistTrialV4_Team_47905",
      "modifiers": {
        "MistTrialV4_TryStartChallenge_Team": {
          "modifierName": "",
          "elementDurability": 100.0,
          "thinkInterval": 4.0,
          "onThinkInterval": [
            {
              "$type": "AHPEKICBIIL",
              "predicates": [
                {
                  "$type": "CKHKMHGMACL"
                }
              ],
              "luaCallType": "SpecificGroup",
              "callParamList": [247905001],
              "funcName": "SLC_MistTrial_TryStartChallenge",
              "param1": 0.0,
              "MGAMDEHMCOL": 0.0,
              "MMHOHAOGPLP": 0.0
            },
            {
              "$type": "RemoveModifier",
              "predicates": [
                {
                  "$type": "CKHKMHGMACL"
                }
              ],
              "modifierName": "MistTrialV4_TryStartChallenge_Team"
            }
          ]
        }
      },
      "onAdded": [
        {
          "$type": "AttachModifier",
          "modifierName": "MistTrialV4_TryStartChallenge_Team"
        }
      ],
      "isDynamicAbility": true
    }
  },
  {
    "Default": {
      "$type": "ConfigAbility",
      "abilityName": "ActivityAbility_MistTrialV4_Team_47906",
      "modifiers": {
        "MistTrialV4_TryStartChallenge_Team": {
          "modifierName": "",
          "elementDurability": 100.0,
          "thinkInterval": 4.0,
          "onThinkInterval": [
            {
              "$type": "AHPEKICBIIL",
              "predicates": [
                {
                  "$type": "CKHKMHGMACL"
                }
              ],
              "luaCallType": "SpecificGroup",
              "callParamList": [247906001],
              "funcName": "SLC_MistTrial_TryStartChallenge",
              "param1": 0.0,
              "MGAMDEHMCOL": 0.0,
              "MMHOHAOGPLP": 0.0
            },
            {
              "$type": "RemoveModifier",
              "predicates": [
                {
                  "$type": "CKHKMHGMACL"
                }
              ],
              "modifierName": "MistTrialV4_TryStartChallenge_Team"
            }
          ]
        }
      },
      "onAdded": [
        {
          "$type": "AttachModifier",
          "modifierName": "MistTrialV4_TryStartChallenge_Team"
        }
      ],
      "isDynamicAbility": true
    }
  },
  {
    "Default": {
      "$type": "ConfigAbility",
      "abilityName": "ActivityAbility_MistTrialV4_Team_47907",
      "modifiers": {
        "MistTrialV4_TryStartChallenge_Team": {
          "modifierName": "",
          "elementDurability": 100.0,
          "thinkInterval": 4.0,
          "onThinkInterval": [
            {
              "$type": "AHPEKICBIIL",
              "predicates": [
                {
                  "$type": "CKHKMHGMACL"
                }
              ],
              "luaCallType": "SpecificGroup",
              "callParamList": [247907001],
              "funcName": "SLC_MistTrial_TryStartChallenge",
              "param1": 0.0,
              "MGAMDEHMCOL": 0.0,
              "MMHOHAOGPLP": 0.0
            },
            {
              "$type": "RemoveModifier",
              "predicates": [
                {
                  "$type": "CKHKMHGMACL"
                }
              ],
              "modifierName": "MistTrialV4_TryStartChallenge_Team"
            }
          ]
        }
      },
      "onAdded": [
        {
          "$type": "AttachModifier",
          "modifierName": "MistTrialV4_TryStartChallenge_Team"
        }
      ],
      "isDynamicAbility": true
    }
  },
  {
    "Default": {
      "$type": "ConfigAbility",
      "abilityName": "SceneObj_Gear_ElementDungeon_Operator_NoBase_V4_2_Activity",
      "abilityMixins": [
        {
          "$type": "LNEJGOMCBMO",
          "succActions": [
            {
              "$type": "HPIDNBEGJLL",
              "state": 202
            }
          ]
        }
      ],
      "modifiers": {
        "_Eff_Rune": {
          "modifierName": "",
          "elementDurability": 100.0,
          "onAdded": [
            {
              "$type": "AttachEffect",
              "rotationDampTime": "Eff_SceneObj_MistTrialOperator_01_Default_01",
              "PPPDJGDDOGD": 1.0,
              "AJDILHJFNKE": -1.0
            },
            {
              "$type": "AttachEffect",
              "rotationDampTime": "Eff_SceneObj_MistTrialOperator_01_Default_02",
              "PPPDJGDDOGD": 1.0,
              "AJDILHJFNKE": -1.0
            },
            {
              "$type": "AttachEffect",
              "rotationDampTime": "Eff_SceneObj_MistTrialOperator_01_Default_03",
              "PPPDJGDDOGD": 1.0,
              "AJDILHJFNKE": -1.0
            }
          ]
        },
        "_Eff_Rune_Anim": {
          "modifierName": "",
          "elementDurability": 100.0,
          "modifierMixins": [
            {
              "$type": "AttachModifierToGlobalValueMixin",
              "globalValueKey": "SGV_Rune_1",
              "valueSteps": [-0.5, 0.5, 1.5],
              "modifierNameSteps": ["SGV_Rune_1_0", "SGV_Rune_1_1"],
              "NMCLMHFBALJ": true
            },
            {
              "$type": "AttachModifierToGlobalValueMixin",
              "globalValueKey": "SGV_Rune_2",
              "valueSteps": [-0.5, 0.5, 1.5],
              "modifierNameSteps": ["SGV_Rune_2_0", "SGV_Rune_2_1"],
              "NMCLMHFBALJ": true
            },
            {
              "$type": "AttachModifierToGlobalValueMixin",
              "globalValueKey": "SGV_Rune_3",
              "valueSteps": [-0.5, 0.5, 1.5],
              "modifierNameSteps": ["SGV_Rune_3_0", "SGV_Rune_3_1"],
              "NMCLMHFBALJ": true
            }
          ]
        },
        "SGV_Rune_1_0": {
          "modifierName": "",
          "elementDurability": 100.0
        },
        "SGV_Rune_1_1": {
          "modifierName": "",
          "elementDurability": 100.0,
          "onAdded": [
            {
              "$type": "SendEffectTrigger",
              "canBeHandledOnRecover": true,
              "parameter": "ColorTransform",
              "attachPoint": "",
              "value": 1,
              "rotationDampTime": "Eff_SceneObj_MistTrialOperator_01_Default_01"
            }
          ]
        },
        "SGV_Rune_2_0": {
          "modifierName": "",
          "elementDurability": 100.0
        },
        "SGV_Rune_2_1": {
          "modifierName": "",
          "elementDurability": 100.0,
          "onAdded": [
            {
              "$type": "SendEffectTrigger",
              "canBeHandledOnRecover": true,
              "parameter": "ColorTransform",
              "attachPoint": "",
              "value": 1,
              "rotationDampTime": "Eff_SceneObj_MistTrialOperator_01_Default_02"
            }
          ]
        },
        "SGV_Rune_3_0": {
          "modifierName": "",
          "elementDurability": 100.0
        },
        "SGV_Rune_3_1": {
          "modifierName": "",
          "elementDurability": 100.0,
          "onAdded": [
            {
              "$type": "SendEffectTrigger",
              "canBeHandledOnRecover": true,
              "parameter": "ColorTransform",
              "attachPoint": "",
              "value": 1,
              "rotationDampTime": "Eff_SceneObj_MistTrialOperator_01_Default_03"
            }
          ]
        },
        "_Eff": {
          "modifierName": "",
          "elementDurability": 100.0,
          "onAdded": [
            {
              "$type": "AttachEffect",
              "rotationDampTime": "Eff_Gear_ElementDungeon_Operator",
              "PPPDJGDDOGD": 1.0,
              "AJDILHJFNKE": -1.0
            }
          ]
        },
        "_Eff_Anim": {
          "modifierName": "",
          "elementDurability": 100.0,
          "modifierMixins": [
            {
              "$type": "APPKPNCENAH",
              "gadgetStates": [0, 201, 202],
              "modifierNames": [
                ["_Eff_Anim_0"],
                ["_Eff_Anim_201"],
                ["_Eff_Anim_202"]
              ]
            }
          ]
        },
        "_Eff_Anim_0": {
          "modifierName": "",
          "elementDurability": 100.0,
          "onAdded": [
            {
              "$type": "PBFOIBMHLIM",
              "enable": true,
              "extraId": 1
            },
            {
              "$type": "PBFOIBMHLIM"
            },
            {
              "$type": "SendEffectTrigger",
              "parameter": "gadgetState",
              "attachPoint": "",
              "damageRatio": "Int",
              "rotationDampTime": "Eff_Gear_ElementDungeon_Operator"
            }
          ]
        },
        "_Eff_Anim_201": {
          "modifierName": "",
          "elementDurability": 100.0,
          "onAdded": [
            {
              "$type": "PBFOIBMHLIM",
              "enable": true
            },
            {
              "$type": "PBFOIBMHLIM",
              "extraId": 1
            },
            {
              "$type": "SendEffectTrigger",
              "parameter": "gadgetState",
              "attachPoint": "",
              "damageRatio": "Int",
              "value": 201,
              "rotationDampTime": "Eff_Gear_ElementDungeon_Operator"
            }
          ]
        },
        "_Eff_Anim_202": {
          "modifierName": "",
          "elementDurability": 100.0,
          "onAdded": [
            {
              "$type": "SendEffectTrigger",
              "parameter": "gadgetState",
              "attachPoint": "",
              "damageRatio": "Int",
              "value": 202,
              "rotationDampTime": "Eff_Gear_ElementDungeon_Operator"
            },
            {
              "$type": "SendEffectTrigger",
              "canBeHandledOnRecover": true,
              "parameter": "Disappear",
              "attachPoint": "",
              "value": 1,
              "rotationDampTime": "Eff_SceneObj_MistTrialOperator_01_Default_01"
            },
            {
              "$type": "SendEffectTrigger",
              "canBeHandledOnRecover": true,
              "parameter": "Disappear",
              "attachPoint": "",
              "value": 1,
              "rotationDampTime": "Eff_SceneObj_MistTrialOperator_01_Default_02"
            },
            {
              "$type": "SendEffectTrigger",
              "canBeHandledOnRecover": true,
              "parameter": "Disappear",
              "attachPoint": "",
              "value": 1,
              "rotationDampTime": "Eff_SceneObj_MistTrialOperator_01_Default_03"
            }
          ],
          "onRemoved": [
            {
              "$type": "RemoveModifier",
              "modifierName": "_Eff_Rune"
            },
            {
              "$type": "RemoveModifier",
              "modifierName": "_Eff_Rune_Anim"
            },
            {
              "$type": "ApplyModifier",
              "modifierName": "_Eff_Rune"
            },
            {
              "$type": "ApplyModifier",
              "modifierName": "_Eff_Rune_Anim"
            }
          ]
        }
      },
      "onAdded": [
        {
          "$type": "AttachModifier",
          "modifierName": "_Eff"
        },
        {
          "$type": "AttachModifier",
          "modifierName": "_Eff_Anim"
        },
        {
          "$type": "AttachModifier",
          "modifierName": "_Eff_Rune"
        },
        {
          "$type": "AttachModifier",
          "modifierName": "_Eff_Rune_Anim"
        }
      ],
      "onAbilityStart": [
        {
          "$type": "DebugLog",
          "content": "SceneObj_Gear_ElementDungeon_Operator_NoBase_V4_2_Activity > onAbilityStart"
        },
        {
          "$type": "HPIDNBEGJLL",
          "state": 202
        }
      ]
    }
  },
  {
    "Default": {
      "$type": "ConfigAbility",
      "abilityName": "SceneObj_Area_Common_Property_Ani_Prop_MistTrialV4Portal_01",
      "abilityMixins": [
        {
          "$type": "APPKPNCENAH",
          "gadgetStates": [0, 201],
          "modifierNames": [["State_0"], ["State_201"]]
        }
      ],
      "modifiers": {
        "State_201": {
          "modifierName": "",
          "elementDurability": 100.0,
          "onAdded": [
            {
              "$type": "AttachEffect",
              "rotationDampTime": "Eff_SceneObj_MistTrialPortal_01_Idle",
              "PPPDJGDDOGD": 1.0,
              "AJDILHJFNKE": -1.0
            },
            {
              "$type": "FireEffect",
              "rotationDampTime": "Eff_SceneObj_MistTrialPortal_01_Rise",
              "PPPDJGDDOGD": 1.0,
              "AJDILHJFNKE": -1.0
            },
            {
              "$type": "FireEffect",
              "rotationDampTime": "Eff_SceneObj_MistTrialPortal_01_Rotation",
              "PPPDJGDDOGD": 1.25,
              "AJDILHJFNKE": -1.0
            },
            {
              "$type": "SetAnimatorInt",
              "intID": "GadgetState",
              "value": 201.0
            }
          ]
        },
        "State_0": {
          "modifierName": "",
          "elementDurability": 100.0,
          "onAdded": [
            {
              "$type": "AttachEffect",
              "rotationDampTime": "Eff_SceneObj_MistTrialPortal_01_Plane_Loop",
              "PPPDJGDDOGD": 1.0,
              "AJDILHJFNKE": -1.0
            },
            {
              "$type": "SetAnimatorInt",
              "intID": "GadgetState",
              "value": 0.0
            }
          ],
          "onRemoved": [
            {
              "$type": "FireEffect",
              "rotationDampTime": "Eff_SceneObj_MistTrialPortal_01_Plane_Disappear",
              "PPPDJGDDOGD": 1.0,
              "AJDILHJFNKE": -1.0
            }
          ]
        }
      }
    }
  },
  {
    "Default": {
      "$type": "ConfigAbility",
      "abilityName": "SceneObj_Area_Common_Property_Ani_Prop_MistTrialV4Floor_01",
      "abilityMixins": [
        {
          "$type": "APPKPNCENAH",
          "gadgetStates": [0, 201, 202],
          "modifierNames": [
            ["_Eff_Anim_0"],
            ["_Eff_Anim_201"],
            ["_Eff_Anim_202"]
          ]
        }
      ],
      "modifiers": {
        "_Eff_Anim_0": {
          "modifierName": "",
          "elementDurability": 100.0,
          "onAdded": [
            {
              "$type": "SetAnimatorInt",
              "intID": "GadgetState",
              "value": 0.0
            }
          ]
        },
        "_Eff_Anim_201": {
          "modifierName": "",
          "elementDurability": 100.0,
          "onAdded": [
            {
              "$type": "FireEffect",
              "rotationDampTime": "Eff_SceneObj_MistTrialFloor_02_Close",
              "born": {
                "$type": "ConfigBornByAttachPoint",
                "useRotation": true,
                "attachPointName": "EffectNode"
              },
              "PPPDJGDDOGD": 1.0,
              "AJDILHJFNKE": -1.0
            },
            {
              "$type": "SetAnimatorInt",
              "intID": "GadgetState",
              "value": 201.0
            }
          ],
          "onRemoved": [
            {
              "$type": "SetAnimatorInt",
              "intID": "GadgetState",
              "value": 203.0
            },
            {
              "$type": "ApplyModifier",
              "modifierName": "_201_Remove"
            }
          ]
        },
        "_Eff_Anim_202": {
          "modifierName": "",
          "elementDurability": 100.0,
          "onAdded": [
            {
              "$type": "FireEffect",
              "rotationDampTime": "Eff_SceneObj_MistTrialFloor_01_Close",
              "born": {
                "$type": "ConfigBornByAttachPoint",
                "useRotation": true,
                "attachPointName": "EffectNode"
              },
              "PPPDJGDDOGD": 1.0,
              "AJDILHJFNKE": -1.0
            },
            {
              "$type": "SetAnimatorInt",
              "intID": "GadgetState",
              "value": 202.0
            }
          ],
          "onRemoved": [
            {
              "$type": "SetAnimatorInt",
              "intID": "GadgetState",
              "value": 0.0
            },
            {
              "$type": "ApplyModifier",
              "modifierName": "_202_Remove"
            }
          ]
        },
        "_202_Remove": {
          "modifierName": "",
          "duration": 2.0,
          "elementDurability": 100.0,
          "onAdded": [
            {
              "$type": "FireEffect",
              "rotationDampTime": "Eff_SceneObj_MistTrialFloor_01_Open",
              "born": {
                "$type": "ConfigBornByAttachPoint",
                "useRotation": true,
                "attachPointName": "EffectNode"
              },
              "PPPDJGDDOGD": 1.0,
              "AJDILHJFNKE": -1.0
            }
          ]
        },
        "_201_Remove": {
          "modifierName": "",
          "duration": 2.0,
          "elementDurability": 100.0,
          "onAdded": [
            {
              "$type": "FireEffect",
              "rotationDampTime": "Eff_SceneObj_MistTrialFloor_02_Open",
              "born": {
                "$type": "ConfigBornByAttachPoint",
                "useRotation": true,
                "attachPointName": "EffectNode"
              },
              "PPPDJGDDOGD": 1.0,
              "AJDILHJFNKE": -1.0
            }
          ]
        }
      }
    }
  },
  {
    "Default": {
      "$type": "ConfigAbility",
      "abilityName": "SceneObj_Level_Fd_Property_Ani_Prop_FdRuins_Rock_01",
      "abilityMixins": [
        {
          "$type": "AttachToGadgetStateMixin",
          "gadgetState": 201,
          "modifierName": "State_201"
        }
      ],
      "abilitySpecials": {
        "DamageSystemValue": 0.0,
        "Damage_Rate": 1.5
      },
      "modifiers": {
        "State_201": {
          "modifierName": "",
          "elementDurability": 100.0,
          "onAdded": [
            {
              "$type": "FireEffect",
              "rotationDampTime": "Eff_SceneObj_FdFallingBlocks_Active",
              "PPPDJGDDOGD": 1.0,
              "AJDILHJFNKE": -1.0
            },
            {
              "$type": "ApplyModifier",
              "modifierName": "Hit_CountDown"
            }
          ]
        },
        "Hit_CountDown": {
          "modifierName": "",
          "duration": 3.1500000953674316,
          "elementDurability": 100.0,
          "onRemoved": [
            {
              "$type": "GDHGMAPPGHD",
              "key": "DamageSystemValue",
              "damageRatio": "ElementLevelCo"
            },
            {
              "$type": "TriggerAttackEvent",
              "attackEvent": {
                "attackPattern": {
                  "$type": "ConfigAttackSphere",
                  "triggerType": "TriggerNoRepeat",
                  "born": {
                    "$type": "ConfigBornBySelf",
                    "useRotation": true
                  },
                  "radius": 3.0
                },
                "attackInfo": {
                  "attackTag": "",
                  "attenuationTag": "",
                  "attenuationGroup": "default",
                  "attackProperty": {
                    "actorWindSubHurtDelta": 0.0,
                    "elementDurability": 100.0,
                    "ignoreAttackerProperty": true,
                    "HMBONGBFIAP": ["Damage_Rate", "DamageSystemValue", "MUL"],
                    "trueDamage": true,
                    "ignoreModifyDamage": true,
                    "GLKMCMDJBIK": 0.0
                  },
                  "hitPattern": {
                    "onHitEffectName": "default",
                    "hitImpulseY": "",
                    "hitImpulseType": "LV4",
                    "hitHaltTimeScale": 0.009999999776482582
                  },
                  "forceCameraShake": true,
                  "cameraShake": {
                    "shakeRange": 0.36000001430511475,
                    "shakeTime": 0.36000001430511475
                  },
                  "canBeModifiedBy": "OriginOwner"
                }
              },
              "targetType": "Enemy"
            }
          ]
        }
      }
    }
  },
  {
    "Default": {
      "$type": "ConfigAbility",
      "abilityName": "SceneObj_Level_Fd_Property_Ani_Prop_FdRuins_CameraController_01",
      "onAdded": [
        {
          "$type": "PEAJMIPBILK",
          "canBeHandledOnRecover": true,
          "enable": true
        }
      ]
    }
  },
  {
    "Default": {
      "$type": "ConfigAbility",
      "abilityName": "SceneObj_Level_Fd_Property_Ani_Prop_FdRuins_Elevator_01",
      "abilityMixins": [
        {
          "$type": "AttachToGadgetStateMixin",
          "modifierName": "State_0"
        },
        {
          "$type": "AttachToGadgetStateMixin",
          "gadgetState": 201,
          "modifierName": "State_201"
        }
      ],
      "modifiers": {
        "State_0": {
          "modifierName": "",
          "elementDurability": 100.0,
          "onAdded": [
            {
              "$type": "CLKGEHMNIEF",
              "canBeHandledOnRecover": true,
              "transformNames": ["Col"]
            }
          ]
        },
        "State_201": {
          "modifierName": "",
          "elementDurability": 100.0,
          "onAdded": [
            {
              "$type": "CLKGEHMNIEF",
              "canBeHandledOnRecover": true,
              "transformNames": ["Col"],
              "setEnable": true
            }
          ]
        }
      }
    }
  },
  {
    "Default": {
      "$type": "ConfigAbility",
      "abilityName": "SceneObj_Area_Fd_Property_Ani_Light_StudioLED_01",
      "abilityMixins": [
        {
          "$type": "AttachToGadgetStateMixin",
          "modifierName": "State_0"
        },
        {
          "$type": "AttachToGadgetStateMixin",
          "gadgetState": 201,
          "modifierName": "State_201"
        },
        {
          "$type": "AttachToGadgetStateMixin",
          "gadgetState": 202,
          "modifierName": "State_202"
        },
        {
          "$type": "LNEJGOMCBMO",
          "succActions": [
            {
              "$type": "HPIDNBEGJLL"
            }
          ]
        }
      ],
      "modifiers": {
        "State_0": {
          "modifierName": "",
          "elementDurability": 100.0,
          "onAdded": [
            {
              "$type": "ApplyModifier",
              "modifierName": "_Eff_CountDown"
            }
          ]
        },
        "State_201": {
          "modifierName": "",
          "elementDurability": 100.0,
          "onAdded": [
            {
              "$type": "ApplyModifier",
              "modifierName": "_Eff"
            }
          ]
        },
        "State_202": {
          "modifierName": "",
          "elementDurability": 100.0,
          "onAdded": [
            {
              "$type": "ApplyModifier",
              "modifierName": "_Eff"
            }
          ]
        },
        "_Eff": {
          "modifierName": "",
          "elementDurability": 100.0,
          "onAdded": [
            {
              "$type": "AttachEffect",
              "rotationDampTime": "Eff_SceneObj_StudioLEDSpotlight",
              "PPPDJGDDOGD": 1.0,
              "AJDILHJFNKE": -1.0
            }
          ]
        },
        "_Eff_CountDown": {
          "modifierName": "",
          "duration": 1.2999999523162842,
          "elementDurability": 100.0,
          "onAdded": [
            {
              "$type": "SendEffectTrigger",
              "predicates": [
                {
                  "$type": "HNLCJOPBDLC",
                  "target": "Self"
                }
              ],
              "parameter": "Die",
              "attachPoint": "",
              "rotationDampTime": "Eff_SceneObj_StudioLEDSpotlight"
            }
          ],
          "onRemoved": [
            {
              "$type": "RemoveModifier",
              "predicates": [
                {
                  "$type": "HNLCJOPBDLC",
                  "target": "Self"
                }
              ],
              "modifierName": "_Eff"
            }
          ]
        }
      }
    }
  },
  {
    "Default": {
      "$type": "ConfigAbility",
      "abilityName": "SceneObj_Level_Fd_Property_Ani_Prop_FdRuins_Qiao_01",
      "abilityMixins": [
        {
          "$type": "APPKPNCENAH",
          "gadgetStates": [0, 201, 202],
          "modifierNames": [["State_0"], ["State_201"], ["State_202"]]
        },
        {
          "$type": "CBLLIIMLLGI",
          "globalValueKey": "GV_Avatar_Num",
          "DOCPJEBCGCM": 1.0
        },
        {
          "$type": "AttachModifierToGlobalValueMixin",
          "globalValueKey": "GV_Avatar_Num",
          "valueSteps": [0.5, 5.0],
          "modifierNameSteps": ["Changeable_Floor_PlayerStepIn"]
        }
      ],
      "modifiers": {
        "Changeable_Floor_PlayerStepIn": {
          "modifierName": "",
          "duration": 0.6000000238418579,
          "elementDurability": 100.0,
          "thinkInterval": 0.5,
          "onThinkInterval": [
            {
              "$type": "HPIDNBEGJLL",
              "predicates": [
                {
                  "$type": "HNLCJOPBDLC"
                }
              ],
              "state": 201
            }
          ]
        },
        "State_0": {
          "modifierName": "",
          "elementDurability": 100.0
        },
        "State_201": {
          "modifierName": "",
          "elementDurability": 100.0,
          "onAdded": [
            {
              "$type": "SetAnimatorInt",
              "intID": "GadgetState",
              "value": 201.0
            },
            {
              "$type": "FireEffect",
              "rotationDampTime": "Eff_SceneObj_FdRuins_Qiao_01_Smoke_01",
              "PPPDJGDDOGD": 1.0,
              "AJDILHJFNKE": -1.0
            }
          ]
        },
        "State_202": {
          "modifierName": "",
          "elementDurability": 100.0,
          "onAdded": [
            {
              "$type": "SetAnimatorInt",
              "intID": "GadgetState",
              "value": 202.0
            },
            {
              "$type": "FireEffect",
              "rotationDampTime": "Eff_SceneObj_FdRuins_Qiao_01_Smoke_02",
              "PPPDJGDDOGD": 1.0,
              "AJDILHJFNKE": -1.0
            }
          ]
        }
      }
    }
  },
  {
    "Default": {
      "$type": "ConfigAbility",
      "abilityName": "SceneObj_Level_Fd_Property_Ani_Prop_FdRuins_RuinFloor_01",
      "abilityMixins": [
        {
          "$type": "APPKPNCENAH",
          "gadgetStates": [0, 201],
          "modifierNames": [["State_0"], ["State_201"]]
        },
        {
          "$type": "CBLLIIMLLGI",
          "globalValueKey": "GV_Avatar_Num",
          "DOCPJEBCGCM": 1.0
        },
        {
          "$type": "AttachModifierToGlobalValueMixin",
          "globalValueKey": "GV_Avatar_Num",
          "valueSteps": [0.5, 5.0],
          "modifierNameSteps": ["Changeable_Floor_PlayerStepIn"]
        }
      ],
      "modifiers": {
        "Changeable_Floor_PlayerStepIn": {
          "modifierName": "",
          "elementDurability": 100.0,
          "onAdded": [
            {
              "$type": "HPIDNBEGJLL",
              "state": 201
            }
          ]
        },
        "State_0": {
          "modifierName": "",
          "elementDurability": 100.0,
          "onRemoved": [
            {
              "$type": "FireEffect",
              "rotationDampTime": "Eff_SceneObj_FdShakyFloor_01_Down",
              "PPPDJGDDOGD": 1.0,
              "AJDILHJFNKE": -1.0
            }
          ]
        },
        "State_201": {
          "modifierName": "",
          "elementDurability": 100.0,
          "onAdded": [
            {
              "$type": "CLKGEHMNIEF",
              "canBeHandledOnRecover": true,
              "transformNames": ["Col"]
            }
          ]
        }
      }
    }
  },
  {
    "Default": {
      "$type": "ConfigAbility",
      "abilityName": "SceneObj_Area_Fd_Property_Ani_Prop_QueenMirror_01",
      "abilityMixins": [
        {
          "$type": "AttachToGadgetStateMixin",
          "gadgetState": 201,
          "modifierName": "State_201"
        }
      ],
      "modifiers": {
        "State_201": {
          "modifierName": "",
          "elementDurability": 100.0,
          "onAdded": [
            {
              "$type": "ApplyModifier",
              "modifierName": "_FireEffect_Delay"
            }
          ]
        },
        "_FireEffect_Delay": {
          "modifierName": "",
          "duration": 2.0,
          "elementDurability": 100.0,
          "onRemoved": [
            {
              "$type": "FireEffect",
              "rotationDampTime": "Eff_SceneObj_QueenMirror",
              "PPPDJGDDOGD": 1.0,
              "AJDILHJFNKE": -1.0
            }
          ]
        }
      }
    }
  },
  {
    "Default": {
      "$type": "ConfigAbility",
      "abilityName": "SceneObj_Level_Fd_Property_Ani_Prop_FdRuins_FdShakyStair_Auto",
      "abilityMixins": [
        {
          "$type": "APPKPNCENAH",
          "gadgetStates": [0, 201, 202],
          "modifierNames": [["State_0"], ["State_201"], ["State_202"]]
        },
        {
          "$type": "CBLLIIMLLGI",
          "globalValueKey": "GV_Avatar_Num",
          "DOCPJEBCGCM": 1.0
        },
        {
          "$type": "AttachModifierToGlobalValueMixin",
          "globalValueKey": "GV_Avatar_Num",
          "valueSteps": [0.5, 5.0],
          "modifierNameSteps": ["Changeable_Floor_PlayerStepIn"]
        }
      ],
      "modifiers": {
        "State_0": {
          "modifierName": "",
          "elementDurability": 100.0,
          "onAdded": [
            {
              "$type": "SetAnimatorInt",
              "intID": "GadgetState",
              "value": 0.0
            }
          ]
        },
        "State_201": {
          "modifierName": "",
          "elementDurability": 100.0,
          "onAdded": [
            {
              "$type": "SetAnimatorInt",
              "intID": "GadgetState",
              "value": 201.0
            }
          ]
        },
        "State_202": {
          "modifierName": "",
          "elementDurability": 100.0,
          "onAdded": [
            {
              "$type": "SetAnimatorInt",
              "intID": "GadgetState",
              "value": 202.0
            }
          ]
        },
        "Changeable_Floor_PlayerStepIn": {
          "modifierName": "",
          "duration": 0.30000001192092896,
          "elementDurability": 100.0,
          "thinkInterval": 0.20000000298023224,
          "onThinkInterval": [
            {
              "$type": "HPIDNBEGJLL",
              "predicates": [
                {
                  "$type": "HNLCJOPBDLC"
                }
              ],
              "state": 201
            }
          ]
        }
      }
    }
  },
  {
    "Default": {
      "$type": "ConfigAbility",
      "abilityName": "SceneObj_Level_Fd_Property_Ani_Prop_FdRuins_FdShakyStair",
      "abilityMixins": [
        {
          "$type": "APPKPNCENAH",
          "gadgetStates": [0, 201, 202],
          "modifierNames": [["State_0"], ["State_201"], ["State_202"]]
        }
      ],
      "modifiers": {
        "State_0": {
          "modifierName": "",
          "elementDurability": 100.0,
          "onAdded": [
            {
              "$type": "SetAnimatorInt",
              "intID": "GadgetState",
              "value": 0.0
            }
          ]
        },
        "State_201": {
          "modifierName": "",
          "elementDurability": 100.0,
          "onAdded": [
            {
              "$type": "SetAnimatorInt",
              "intID": "GadgetState",
              "value": 201.0
            }
          ]
        },
        "State_202": {
          "modifierName": "",
          "elementDurability": 100.0,
          "onAdded": [
            {
              "$type": "SetAnimatorInt",
              "intID": "GadgetState",
              "value": 202.0
            }
          ]
        }
      }
    }
  },
  {
    "Default": {
      "$type": "ConfigAbility",
      "abilityName": "SceneObj_Level_Fd_Property_Ani_Prop_FdRuins_FdShakyStair_Eff_1",
      "abilityMixins": [
        {
          "$type": "APPKPNCENAH",
          "gadgetStates": [0, 201, 202],
          "modifierNames": [
            ["State_0_Eff"],
            ["State_201_Eff"],
            ["State_202_Eff"]
          ]
        }
      ],
      "modifiers": {
        "State_0_Eff": {
          "modifierName": "",
          "elementDurability": 100.0
        },
        "State_201_Eff": {
          "modifierName": "",
          "elementDurability": 100.0,
          "onAdded": [
            {
              "$type": "FireEffect",
              "rotationDampTime": "Eff_SceneObj_FdShakyStair_01_Broken",
              "PPPDJGDDOGD": 1.0,
              "AJDILHJFNKE": -1.0
            }
          ]
        },
        "State_202_Eff": {
          "modifierName": "",
          "elementDurability": 100.0,
          "onAdded": [
            {
              "$type": "FireEffect",
              "rotationDampTime": "Eff_SceneObj_FdShakyStair_01_Down",
              "PPPDJGDDOGD": 1.0,
              "AJDILHJFNKE": -1.0
            }
          ]
        }
      }
    }
  },
  {
    "Default": {
      "$type": "ConfigAbility",
      "abilityName": "SceneObj_Level_Fd_Property_Ani_Prop_FdRuins_FdShakyStair_Eff_2",
      "abilityMixins": [
        {
          "$type": "APPKPNCENAH",
          "gadgetStates": [0, 201, 202],
          "modifierNames": [
            ["State_0_Eff"],
            ["State_201_Eff"],
            ["State_202_Eff"]
          ]
        }
      ],
      "modifiers": {
        "State_0_Eff": {
          "modifierName": "",
          "elementDurability": 100.0
        },
        "State_201_Eff": {
          "modifierName": "",
          "elementDurability": 100.0,
          "onAdded": [
            {
              "$type": "FireEffect",
              "rotationDampTime": "Eff_SceneObj_FdShakyStair_02_Broken",
              "PPPDJGDDOGD": 1.0,
              "AJDILHJFNKE": -1.0
            }
          ]
        },
        "State_202_Eff": {
          "modifierName": "",
          "elementDurability": 100.0,
          "onAdded": [
            {
              "$type": "FireEffect",
              "rotationDampTime": "Eff_SceneObj_FdShakyStair_02_Down",
              "PPPDJGDDOGD": 1.0,
              "AJDILHJFNKE": -1.0
            }
          ]
        }
      }
    }
  },
  {
    "Default": {
      "$type": "ConfigAbility",
      "abilityName": "SceneObj_Level_Fd_Property_Ani_Prop_FdRuins_Woodenframe_01",
      "abilityMixins": [
        {
          "$type": "AttachToGadgetStateMixin",
          "gadgetState": 201,
          "modifierName": "State_201"
        },
        {
          "$type": "AttachToGadgetStateMixin",
          "modifierName": "State_0"
        }
      ],
      "modifiers": {
        "State_201": {
          "modifierName": "",
          "elementDurability": 100.0,
          "onAdded": [
            {
              "$type": "FireEffect",
              "rotationDampTime": "Eff_SceneObj_FdShakyVine_01_Broken",
              "PPPDJGDDOGD": 1.0,
              "AJDILHJFNKE": -1.0
            },
            {
              "$type": "FireEffect",
              "rotationDampTime": "Eff_SceneObj_FdShakyVine_01_Smoke",
              "PPPDJGDDOGD": 1.0,
              "AJDILHJFNKE": -1.0
            },
            {
              "$type": "CLKGEHMNIEF",
              "transformNames": ["Col"]
            }
          ]
        },
        "State_0": {
          "modifierName": "",
          "elementDurability": 100.0,
          "onAdded": [
            {
              "$type": "CLKGEHMNIEF",
              "transformNames": ["Col"],
              "setEnable": true
            }
          ]
        }
      },
      "onFieldEnter": [
        {
          "$type": "Predicated",
          "target": "Target",
          "targetPredicates": [
            {
              "$type": "ByEntityTypes",
              "entityTypes": ["Avatar"]
            }
          ],
          "successActions": [
            {
              "$type": "FireEffect",
              "rotationDampTime": "Eff_SceneObj_FdShakyVine_01_Smoke",
              "PPPDJGDDOGD": 1.0,
              "AJDILHJFNKE": -1.0
            }
          ]
        }
      ]
    }
  },
  {
    "Default": {
      "$type": "ConfigAbility",
      "abilityName": "SceneObj_Level_Fd_Property_Ani_Prop_FdRuins_Woodenframe_02",
      "abilityMixins": [
        {
          "$type": "AttachToGadgetStateMixin",
          "gadgetState": 201,
          "modifierName": "State_201"
        },
        {
          "$type": "AttachToGadgetStateMixin",
          "modifierName": "State_0"
        }
      ],
      "modifiers": {
        "State_201": {
          "modifierName": "",
          "elementDurability": 100.0,
          "onAdded": [
            {
              "$type": "FireEffect",
              "rotationDampTime": "Eff_SceneObj_FdShakyVine_02_Broken",
              "PPPDJGDDOGD": 1.0,
              "AJDILHJFNKE": -1.0
            },
            {
              "$type": "FireEffect",
              "rotationDampTime": "Eff_SceneObj_FdShakyVine_02_Smoke",
              "PPPDJGDDOGD": 1.0,
              "AJDILHJFNKE": -1.0
            },
            {
              "$type": "CLKGEHMNIEF",
              "transformNames": ["Col"]
            }
          ]
        },
        "State_0": {
          "modifierName": "",
          "elementDurability": 100.0,
          "onAdded": [
            {
              "$type": "CLKGEHMNIEF",
              "transformNames": ["Col"],
              "setEnable": true
            }
          ]
        }
      },
      "onFieldEnter": [
        {
          "$type": "Predicated",
          "target": "Target",
          "targetPredicates": [
            {
              "$type": "ByEntityTypes",
              "entityTypes": ["Avatar"]
            }
          ],
          "successActions": [
            {
              "$type": "FireEffect",
              "rotationDampTime": "Eff_SceneObj_FdShakyVine_02_Smoke",
              "PPPDJGDDOGD": 1.0,
              "AJDILHJFNKE": -1.0
            }
          ]
        }
      ]
    }
  },
  {
    "Default": {
      "$type": "ConfigAbility",
      "abilityName": "SceneObj_Area_Fd_Property_Ani_Build_RainbowPrinceCamp_02",
      "abilityMixins": [
        {
          "$type": "AttachToGadgetStateMixin",
          "modifierName": "State_0"
        },
        {
          "$type": "AttachToGadgetStateMixin",
          "gadgetState": 201,
          "modifierName": "State_201"
        }
      ],
      "modifiers": {
        "State_0": {
          "modifierName": "",
          "elementDurability": 100.0,
          "onAdded": [
            {
              "$type": "HBNEMPLJCMB",
              "canBeHandledOnRecover": true,
              "hide": true
            }
          ]
        },
        "State_201": {
          "modifierName": "",
          "elementDurability": 100.0,
          "onAdded": [
            {
              "$type": "HBNEMPLJCMB",
              "canBeHandledOnRecover": true
            }
          ]
        }
      }
    }
  },
  {
    "Default": {
      "$type": "ConfigAbility",
      "abilityName": "SceneObj_Area_Fd_Property_Ani_Broken_Mirror_CameraEff_01",
      "abilityMixins": [
        {
          "$type": "APPKPNCENAH",
          "gadgetStates": [0, 201],
          "modifierNames": [["State_0"], ["State_201"]]
        }
      ],
      "modifiers": {
        "State_0": {
          "modifierName": "",
          "elementDurability": 100.0
        },
        "State_201": {
          "modifierName": "",
          "elementDurability": 100.0
        },
        "_Eff": {
          "modifierName": "",
          "elementDurability": 100.0,
          "onAdded": [
            {
              "$type": "NBFEIIOBAPA",
              "enable": true,
              "effectName": "Eff_SceneObj_GlassFragmentation_01"
            }
          ]
        }
      },
      "onAdded": [
        {
          "$type": "AttachModifier",
          "modifierName": "_Eff"
        }
      ]
    }
  },
  {
    "Default": {
      "$type": "ConfigAbility",
      "abilityName": "SceneObj_Stages_Property_Ani_Prop_Damocles_01",
      "modifiers": {
        "_Eff": {
          "modifierName": "",
          "elementDurability": 100.0,
          "onAdded": [
            {
              "$type": "AttachEffect",
              "rotationDampTime": "Eff_Quest_DamoclesSword_01",
              "PPPDJGDDOGD": 1.0,
              "AJDILHJFNKE": -1.0
            }
          ]
        }
      },
      "onAdded": [
        {
          "$type": "AttachModifier",
          "modifierName": "_Eff"
        }
      ]
    }
  },
  {
    "Default": {
      "$type": "ConfigAbility",
      "abilityName": "SceneObj_Homeworld_Ani_Exterior_Fd_Thing_Prop_Penguin_01",
      "modifiers": {
        "SceneObj_Homeworld_Ani_Exterior_Fd_Thing_Prop_Penguin_01": {
          "modifierName": "",
          "elementDurability": 100.0,
          "thinkInterval": 10.0,
          "onThinkInterval": [
            {
              "$type": "SetAnimatorTrigger",
              "triggerID": "Happy"
            }
          ]
        }
      },
      "onAdded": [
        {
          "$type": "AttachModifier",
          "modifierName": "SceneObj_Homeworld_Ani_Exterior_Fd_Thing_Prop_Penguin_01"
        }
      ]
    }
  },
  {
    "Default": {
      "$type": "ConfigAbility",
      "abilityName": "SceneObj_Homeworld_Ani_Exterior_Fd_Decoration_Prop_FontaineStove_01",
      "modifiers": {
        "_FontaineStove_01": {
          "modifierName": "",
          "elementType": "Fire",
          "elementDurability": 25.0,
          "modifierMixins": [
            {
              "$type": "EKAACKKMOKH",
              "editorModifierNames": ["_E"],
              "worldModifierNames": ["_W"]
            }
          ],
          "onAdded": [
            {
              "$type": "SetGlobalValue",
              "value": 1.0,
              "key": "_Homeworld_Cooking",
              "maxValue": 0.0,
              "minValue": 0.0
            }
          ]
        },
        "_E": {
          "modifierName": "",
          "elementDurability": 100.0
        },
        "_W": {
          "modifierName": "",
          "elementDurability": 100.0,
          "onAdded": [
            {
              "$type": "AttachEffect",
              "rotationDampTime": "Eff_SceneObj_Homeworld_FontaineStove_01_Smoke",
              "PPPDJGDDOGD": 1.0,
              "AJDILHJFNKE": -1.0
            }
          ]
        }
      },
      "onAdded": [
        {
          "$type": "AttachModifier",
          "modifierName": "_FontaineStove_01"
        }
      ]
    }
  },
  {
    "Default": {
      "$type": "ConfigAbility",
      "abilityName": "SceneObj_Level_Fd_Property_Ani_Prop_FdRuins_Qiao_02",
      "abilityMixins": [
        {
          "$type": "APPKPNCENAH",
          "gadgetStates": [0, 202],
          "modifierNames": [["State_0"], ["State_202"]]
        }
      ],
      "modifiers": {
        "State_0": {
          "modifierName": "",
          "elementDurability": 100.0,
          "onAdded": [
            {
              "$type": "CLKGEHMNIEF",
              "transformNames": ["Bridge"],
              "setEnable": true
            }
          ]
        },
        "State_202": {
          "modifierName": "",
          "elementDurability": 100.0,
          "onAdded": [
            {
              "$type": "CLKGEHMNIEF",
              "transformNames": ["Bridge"]
            }
          ]
        }
      }
    }
  }
]
