[
  {
    "Default": {
      "$type": "ConfigAbility",
      "abilityName": "SceneObj_Area_Common_Property_Ani_Effect_ElementTrackIce_01_Ability",
      "modifiers": {
        "Footprint_Ice_Modifier": {
          "modifierName": "",
          "elementType": "Ice",
          "elementDurability": 50.0
        }
      },
      "onAdded": [
        {
          "$type": "AttachEffect",
          "rotationDampTime": "Eff_ElementFootprint_Ice01",
          "PPPDJGDDOGD": 1.0,
          "AJDILHJFNKE": -1.0
        },
        {
          "$type": "ApplyModifier",
          "modifierName": "Footprint_Ice_Modifier"
        }
      ]
    }
  },
  {
    "Default": {
      "$type": "ConfigAbility",
      "abilityName": "SceneObj_Quest_Cengyan2_Xiao_Element_Ability",
      "modifiers": {
        "Footprint_Ice_Modifier": {
          "modifierName": "",
          "elementType": "Wind",
          "elementDurability": 50.0
        }
      },
      "onAdded": [
        {
          "$type": "AttachEffect",
          "rotationDampTime": "Eff_Quest_YaksaTrace_01",
          "PPPDJGDDOGD": 1.0,
          "AJDILHJFNKE": -1.0
        },
        {
          "$type": "ApplyModifier",
          "modifierName": "Footprint_Ice_Modifier"
        }
      ]
    }
  },
  {
    "Default": {
      "$type": "ConfigAbility",
      "abilityName": "SceneObj_Area_Ljxs_Property_Prop_AlbedoFootprint_01_Ability",
      "modifiers": {
        "Footprint_Rock_Modifier": {
          "modifierName": "",
          "elementType": "Rock",
          "elementDurability": 50.0
        }
      },
      "onAdded": [
        {
          "$type": "AttachEffect",
          "rotationDampTime": "Eff_Quest_ElementFootprint_Albedo_Rock_01",
          "born": {
            "$type": "ConfigBornByAttachPoint",
            "attachPointName": "RootNode"
          },
          "PPPDJGDDOGD": 1.0,
          "AJDILHJFNKE": -1.0
        },
        {
          "$type": "ApplyModifier",
          "modifierName": "Footprint_Rock_Modifier"
        }
      ]
    }
  },
  {
    "Default": {
      "$type": "ConfigAbility",
      "abilityName": "SceneObj_Area_Dq_Property_Prop_IttoFootprint_01_Ability",
      "modifiers": {
        "Footprint_Rock_Modifier": {
          "modifierName": "",
          "elementType": "Rock",
          "elementDurability": 50.0
        }
      },
      "onAdded": [
        {
          "$type": "AttachEffect",
          "rotationDampTime": "Eff_ElementFootprint_Rock01",
          "born": {
            "$type": "ConfigBornByAttachPoint",
            "attachPointName": "RootNode"
          },
          "PPPDJGDDOGD": 1.0,
          "AJDILHJFNKE": -1.0
        },
        {
          "$type": "ApplyModifier",
          "modifierName": "Footprint_Rock_Modifier"
        }
      ]
    }
  }
]
