[
  {
    "Default": {
      "$type": "ConfigAbility",
      "abilityName": "SceneObj_Area_Common_Property_Prop_Exploration_01",
      "abilityMixins": [
        {
          "$type": "AttachToGadgetStateMixin",
          "modifierName": "Interactable"
        },
        {
          "$type": "AttachToGadgetStateMixin",
          "gadgetState": 202,
          "modifierName": "Mute"
        },
        {
          "$type": "AttachToGadgetStateMixin",
          "gadgetState": 201,
          "modifierName": "Active"
        }
      ],
      "modifiers": {
        "Interactable": {
          "modifierName": "",
          "elementDurability": 100.0,
          "onAdded": [
            {
              "$type": "AttachEffect",
              "rotationDampTime": "Eff_SceneObj_Seeker_ExplorationPoint_01",
              "PPPDJGDDOGD": 1.0,
              "AJDILHJFNKE": -1.0
            },
            {
              "$type": "AttachModifier",
              "modifierName": "ShowMark"
            }
          ]
        },
        "Mute": {
          "modifierName": "",
          "elementDurability": 100.0,
          "onAdded": [
            {
              "$type": "OOMEFBEPDJE"
            }
          ]
        },
        "Active": {
          "modifierName": "",
          "elementDurability": 100.0,
          "onAdded": [
            {
              "$type": "ApplyModifier",
              "modifierName": "BeActive"
            },
            {
              "$type": "AttachModifier",
              "modifierName": "ShowMark"
            }
          ]
        },
        "BeActive": {
          "modifierName": "",
          "duration": 1.0,
          "elementDurability": 100.0,
          "onRemoved": [
            {
              "$type": "ApplyModifier",
              "modifierName": "Shoot"
            },
            {
              "$type": "HPIDNBEGJLL",
              "state": 202
            }
          ]
        },
        "Shoot": {
          "modifierName": "",
          "duration": 0.10000000149011612,
          "elementDurability": 100.0,
          "onAdded": [
            {
              "$type": "Predicated",
              "otherTargets": {
                "$type": "PBLNLAENOGB",
                "topLimit": 15,
                "sortType": "Nearest",
                "tag": "IS_RESEARCH_POINT"
              },
              "successActions": [
                {
                  "$type": "SetSelfAttackTarget",
                  "target": "Target"
                },
                {
                  "$type": "TriggerBullet",
                  "predicates": [
                    {
                      "$type": "ByHasAttackTarget"
                    }
                  ],
                  "bulletID": 70290407,
                  "born": {
                    "$type": "ConfigBornBySelf",
                    "offset": {
                      "x": 0.0,
                      "y": 2.0,
                      "z": 0.0
                    },
                    "direction": {
                      "$type": "ConfigDirectionByAttackTarget",
                      "angleOffset": {
                        "x": -45.0,
                        "y": 0.0,
                        "z": 0.0
                      },
                      "startPoint": ""
                    }
                  }
                }
              ]
            }
          ]
        },
        "ShowMark": {
          "modifierName": "",
          "elementDurability": 100.0,
          "thinkInterval": 1.0,
          "onThinkInterval": [
            {
              "$type": "OOMEFBEPDJE",
              "show": true
            }
          ]
        }
      }
    }
  },
  {
    "Default": {
      "$type": "ConfigAbility",
      "abilityName": "SceneObj_Area_Common_Property_Prop_ExplorationBullet_01",
      "onAbilityStart": [
        {
          "$type": "DamageByAttackValue",
          "target": "Target",
          "attackInfo": {
            "attackTag": "ResearchPointBullet",
            "attenuationTag": "",
            "attenuationGroup": "default",
            "attackProperty": {
              "actorGrassSubHurtDelta": 0.0,
              "actorWindSubHurtDelta": 0.0,
              "elementDurability": 100.0,
              "ignoreAttackerProperty": true,
              "strikeType": "Default",
              "ignoreModifyDamage": true,
              "GLKMCMDJBIK": 0.0
            },
            "hitPattern": {
              "onHitEffectName": "default",
              "hitImpulseY": "",
              "hitImpulseType": "LV7",
              "hitHaltTimeScale": 0.05000000074505806,
              "muteHitText": true
            }
          }
        }
      ]
    }
  },
  {
    "Default": {
      "$type": "ConfigAbility",
      "abilityName": "SceneObj_Area_Xm_Property_Ani_Prop_ElementParticle_01",
      "abilityMixins": [
        {
          "$type": "AttachToGadgetStateMixin",
          "modifierName": "Mute"
        },
        {
          "$type": "AttachToGadgetStateMixin",
          "gadgetState": 201,
          "modifierName": "Active"
        }
      ],
      "modifiers": {
        "Mute": {
          "modifierName": "",
          "duration": 3.0,
          "elementDurability": 100.0,
          "onRemoved": [
            {
              "$type": "HPIDNBEGJLL",
              "state": 201
            }
          ],
          "onBeingHit": [
            {
              "$type": "HPIDNBEGJLL",
              "predicates": [
                {
                  "$type": "ByAttackTags",
                  "attackTags": ["ResearchPointBullet"]
                }
              ],
              "state": 201
            }
          ]
        },
        "Active": {
          "modifierName": "",
          "elementDurability": 100.0,
          "onAdded": [
            {
              "$type": "AttachEffect",
              "rotationDampTime": "Eff_SceneObj_ElementParticle_01",
              "PPPDJGDDOGD": 1.0,
              "AJDILHJFNKE": -1.0
            }
          ]
        },
        "EffectBall": {
          "modifierName": "",
          "elementDurability": 100.0,
          "onAdded": [
            {
              "$type": "AttachEffect",
              "rotationDampTime": "Eff_SceneObj_ElementParticle_01",
              "PPPDJGDDOGD": 1.0,
              "AJDILHJFNKE": -1.0
            }
          ]
        },
        "Pickup": {
          "modifierName": "",
          "elementDurability": 100.0,
          "onAdded": [
            {
              "$type": "AHPEKICBIIL",
              "luaCallType": "FromGroup",
              "funcName": "SLC_Activity_TreasureSeelie_PickElementParticle",
              "param1": 0.0,
              "MGAMDEHMCOL": 0.0,
              "MMHOHAOGPLP": 0.0
            },
            {
              "$type": "FireEffect",
              "rotationDampTime": "Eff_SceneObj_ElementParticle_01_Disappear",
              "PPPDJGDDOGD": 1.0,
              "AJDILHJFNKE": -1.0
            },
            {
              "$type": "KillSelf"
            }
          ]
        }
      },
      "onAdded": [
        {
          "$type": "AOOCGNCCAJB",
          "isAdd": true,
          "tag": "IS_RESEARCH_POINT"
        }
      ],
      "onFieldEnter": [
        {
          "$type": "Predicated",
          "target": "Target",
          "targetPredicates": [
            {
              "$type": "AHEDBPEIDHJ"
            }
          ],
          "successActions": [
            {
              "$type": "ApplyModifier",
              "predicates": [
                {
                  "$type": "HNLCJOPBDLC",
                  "target": "Self",
                  "gadgetState": 201
                }
              ],
              "modifierName": "Pickup"
            }
          ]
        }
      ]
    }
  },
  {
    "Default": {
      "$type": "ConfigAbility",
      "abilityName": "SceneObj_Area_Xm_Property_Ani_Prop_ElementParticle_OnGround_01",
      "modifiers": {
        "Pickup": {
          "modifierName": "",
          "elementDurability": 100.0,
          "onAdded": [
            {
              "$type": "AHPEKICBIIL",
              "luaCallType": "CurChallengeGroup",
              "funcName": "SLC_Activity_TreasureSeelie_PickElementParticle",
              "param1": 0.0,
              "MGAMDEHMCOL": 0.0,
              "MMHOHAOGPLP": 0.0
            },
            {
              "$type": "FireEffect",
              "rotationDampTime": "Eff_SceneObj_ElementParticle_01_Disappear",
              "PPPDJGDDOGD": 1.0,
              "AJDILHJFNKE": -1.0
            },
            {
              "$type": "KillSelf"
            }
          ]
        }
      },
      "onAdded": [
        {
          "$type": "AttachEffect",
          "rotationDampTime": "Eff_SceneObj_ElementParticle_01",
          "PPPDJGDDOGD": 1.0,
          "AJDILHJFNKE": -1.0
        }
      ],
      "onFieldEnter": [
        {
          "$type": "Predicated",
          "target": "Target",
          "targetPredicates": [
            {
              "$type": "AHEDBPEIDHJ"
            }
          ],
          "successActions": [
            {
              "$type": "ApplyModifier",
              "modifierName": "Pickup"
            }
          ]
        }
      ]
    }
  },
  {
    "Default": {
      "$type": "ConfigAbility",
      "abilityName": "SceneObj_Area_Xm_Property_Ani_Prop_ElementParticle_Generator_01",
      "onAdded": [
        {
          "$type": "CreateGadget",
          "born": {
            "$type": "ConfigBornBySelf",
            "offset": {
              "x": 0.0,
              "y": 0.0,
              "z": 0.0
            },
            "onGround": true
          },
          "lifeByOwnerV2": true,
          "gadgetID": 70290552
        }
      ]
    }
  },
  {
    "Default": {
      "$type": "ConfigAbility",
      "abilityName": "SceneObj_Area_Xm_Property_Ani_Prop_EnergyBall_01",
      "abilityMixins": [
        {
          "$type": "AttachToGadgetStateMixin",
          "modifierName": "Active"
        },
        {
          "$type": "AttachToGadgetStateMixin",
          "gadgetState": 201,
          "modifierName": "Inactive"
        }
      ],
      "modifiers": {
        "Active": {
          "modifierName": "",
          "elementDurability": 100.0,
          "onAdded": [
            {
              "$type": "AttachEffect",
              "rotationDampTime": "Eff_SceneObj_Seeker_EnergyBall_01",
              "PPPDJGDDOGD": 1.0,
              "AJDILHJFNKE": -1.0
            }
          ]
        },
        "Inactive": {
          "modifierName": "",
          "elementDurability": 100.0
        },
        "Pickup": {
          "modifierName": "",
          "elementDurability": 100.0,
          "onAdded": [
            {
              "$type": "AHPEKICBIIL",
              "luaCallType": "FromGroup",
              "funcName": "SLC_Activity_TreasureSeelie_PickEnergyBall",
              "param1": 0.0,
              "MGAMDEHMCOL": 0.0,
              "MMHOHAOGPLP": 0.0
            },
            {
              "$type": "FireEffect",
              "rotationDampTime": "Eff_SceneObj_Seeker_EnergyBall_01_Disappear",
              "PPPDJGDDOGD": 1.0,
              "AJDILHJFNKE": -1.0
            },
            {
              "$type": "KillSelf"
            }
          ]
        }
      },
      "onFieldEnter": [
        {
          "$type": "Predicated",
          "target": "Target",
          "targetPredicates": [
            {
              "$type": "AHEDBPEIDHJ"
            }
          ],
          "successActions": [
            {
              "$type": "ApplyModifier",
              "predicates": [
                {
                  "$type": "HNLCJOPBDLC",
                  "target": "Self"
                }
              ],
              "modifierName": "Pickup"
            }
          ]
        }
      ]
    }
  },
  {
    "Default": {
      "$type": "ConfigAbility",
      "abilityName": "SceneObj_Area_Common_Property_Prop_Excavate_01",
      "abilityMixins": [
        {
          "$type": "AttachToGadgetStateMixin",
          "modifierName": "Interactable"
        },
        {
          "$type": "AttachToGadgetStateMixin",
          "gadgetState": 201,
          "modifierName": "Mute"
        },
        {
          "$type": "AttachToGadgetStateMixin",
          "gadgetState": 202,
          "modifierName": "Interacted"
        },
        {
          "$type": "AttachToGadgetStateMixin",
          "gadgetState": 203,
          "modifierName": "Die"
        }
      ],
      "modifiers": {
        "Interactable": {
          "modifierName": "",
          "elementDurability": 100.0,
          "onAdded": [
            {
              "$type": "AttachEffect",
              "rotationDampTime": "Eff_SceneObj_Excavate_01",
              "PPPDJGDDOGD": 1.0,
              "AJDILHJFNKE": -1.0
            },
            {
              "$type": "AttachEffect",
              "rotationDampTime": "Eff_SceneObj_SeekerSeelie_03_NoFollow",
              "born": {
                "$type": "KAPBLOCMCOO",
                "offset": {
                  "x": 0.0,
                  "y": 1.2000000476837158,
                  "z": 0.0
                }
              },
              "PPPDJGDDOGD": 1.0,
              "AJDILHJFNKE": -1.0
            },
            {
              "$type": "AttachModifier",
              "modifierName": "ShowMark"
            }
          ]
        },
        "Interacted": {
          "modifierName": "",
          "elementDurability": 100.0,
          "onAdded": [
            {
              "$type": "AttachModifier",
              "modifierName": "ShowMark"
            }
          ]
        },
        "Mute": {
          "modifierName": "",
          "elementDurability": 100.0,
          "onAdded": [
            {
              "$type": "OOMEFBEPDJE",
              "markType": "excavation"
            }
          ]
        },
        "Die": {
          "modifierName": "",
          "elementDurability": 100.0,
          "onAdded": [
            {
              "$type": "OOMEFBEPDJE",
              "markType": "excavation"
            },
            {
              "$type": "KillSelf"
            }
          ]
        },
        "ShowMark": {
          "modifierName": "",
          "elementDurability": 100.0,
          "thinkInterval": 1.0,
          "onThinkInterval": [
            {
              "$type": "OOMEFBEPDJE",
              "markType": "excavation",
              "show": true
            }
          ]
        }
      }
    }
  },
  {
    "Default": {
      "$type": "ConfigAbility",
      "abilityName": "SceneObj_Area_Xm_Property_Prop_SeelieFarAway_01",
      "onAdded": [
        {
          "$type": "AttachEffect",
          "rotationDampTime": "Eff_SceneObj_SeekerSeelie_03_Follow",
          "PPPDJGDDOGD": 1.0,
          "AJDILHJFNKE": -1.0
        }
      ]
    }
  },
  {
    "Default": {
      "$type": "ConfigAbility",
      "abilityName": "SceneObj_Level_Common_Property_Prop_RemovableCoin_01",
      "abilityMixins": [
        {
          "$type": "AttachModifierToGlobalValueMixin",
          "globalValueKey": "GV_Picked",
          "valueSteps": [0.5, 1.5],
          "modifierNameSteps": ["BePicked"]
        }
      ],
      "modifiers": {
        "CoinMaterial": {
          "modifierName": "",
          "elementDurability": 100.0,
          "onAdded": [
            {
              "$type": "AttachEffect",
              "rotationDampTime": "Eff_SceneObj_UGCCoin_01",
              "PPPDJGDDOGD": 1.0,
              "AJDILHJFNKE": -1.0
            },
            {
              "$type": "AttachEffect",
              "rotationDampTime": "Eff_SceneObj_RemovableCoin_01",
              "PPPDJGDDOGD": 1.0,
              "AJDILHJFNKE": -1.0
            }
          ],
          "onRemoved": [
            {
              "$type": "FireEffect",
              "rotationDampTime": "Eff_SceneObj_GlideChampCoin_Hit",
              "PPPDJGDDOGD": 1.0,
              "AJDILHJFNKE": -1.0
            },
            {
              "$type": "KillSelf"
            }
          ]
        },
        "BePicked": {
          "modifierName": "",
          "elementDurability": 100.0,
          "onAdded": [
            {
              "$type": "AHPEKICBIIL",
              "luaCallType": "CurChallengeGroup",
              "funcName": "SLC_Activity_Parkour_PickCoin",
              "param1": 0.0,
              "MGAMDEHMCOL": 0.0,
              "MMHOHAOGPLP": 0.0
            },
            {
              "$type": "RemoveModifier",
              "modifierName": "CoinMaterial"
            }
          ]
        }
      },
      "onAdded": [
        {
          "$type": "ApplyModifier",
          "modifierName": "CoinMaterial"
        },
        {
          "$type": "SetGlobalValue",
          "value": 0.0,
          "key": "GV_Picked",
          "maxValue": 0.0,
          "minValue": 0.0
        },
        {
          "$type": "AOOCGNCCAJB",
          "isAdd": true,
          "tag": "IS_COIN"
        }
      ]
    }
  },
  {
    "Default": {
      "$type": "ConfigAbility",
      "abilityName": "SceneObj_Level_Common_Property_Prop_ExpandAccessCoin_01",
      "abilityMixins": [
        {
          "$type": "AttachToGadgetStateMixin",
          "modifierName": "Interactable"
        },
        {
          "$type": "AttachToGadgetStateMixin",
          "gadgetState": 201,
          "modifierName": "Mute"
        }
      ],
      "modifiers": {
        "UNIQUE_PickRangeBuff": {
          "stacking": "RefreshUniqueDurability",
          "modifierName": "",
          "forceTriggerWhenChangeAuthority": true,
          "duration": 20.0,
          "elementDurability": 100.0,
          "onAdded": [
            {
              "$type": "AddGlobalValue",
              "target": "Team",
              "value": 1.0,
              "key": "GV_CoinRangeLevel",
              "useLimitRange": true,
              "maxValue": 1000.0,
              "minValue": 0.0
            }
          ],
          "onRemoved": [
            {
              "$type": "AddGlobalValue",
              "target": "Team",
              "value": -1.0,
              "key": "GV_CoinRangeLevel",
              "useLimitRange": true,
              "maxValue": 1000.0,
              "minValue": 0.0
            }
          ]
        },
        "Interactable": {
          "modifierName": "",
          "elementDurability": 100.0,
          "onAdded": [
            {
              "$type": "AttachEffect",
              "rotationDampTime": "Eff_SceneObj_ExpandAccessCoin_01",
              "PPPDJGDDOGD": 1.0,
              "AJDILHJFNKE": -1.0
            }
          ],
          "onRemoved": [
            {
              "$type": "FireEffect",
              "rotationDampTime": "Eff_SceneObj_ExpandAccessCoin_01_Dis",
              "PPPDJGDDOGD": 1.0,
              "AJDILHJFNKE": -1.0
            }
          ]
        },
        "Mute": {
          "modifierName": "",
          "duration": 20.0,
          "elementDurability": 100.0,
          "onRemoved": [
            {
              "$type": "HPIDNBEGJLL"
            }
          ]
        }
      },
      "onFieldEnter": [
        {
          "$type": "Predicated",
          "target": "Target",
          "targetPredicates": [
            {
              "$type": "AHEDBPEIDHJ"
            },
            {
              "$type": "HNLCJOPBDLC",
              "target": "Self"
            }
          ],
          "successActions": [
            {
              "$type": "ApplyModifier",
              "target": "Team",
              "modifierName": "UNIQUE_PickRangeBuff"
            },
            {
              "$type": "HPIDNBEGJLL",
              "state": 201
            }
          ]
        }
      ]
    }
  },
  {
    "Default": {
      "$type": "ConfigAbility",
      "abilityName": "SceneObj_Area_Common_Property_Prop_ParkourOperatorXM_01",
      "abilityMixins": [
        {
          "$type": "AttachToGadgetStateMixin",
          "gadgetState": 202,
          "modifierName": "ReMove"
        }
      ],
      "modifiers": {
        "AddEffect": {
          "modifierName": "",
          "elementDurability": 100.0,
          "onAdded": [
            {
              "$type": "AttachEffect",
              "rotationDampTime": "Eff_SceneObj_Challengestarter_02",
              "born": {
                "$type": "ConfigBornByAttachPoint",
                "attachPointName": "EffectPoint"
              },
              "PPPDJGDDOGD": 1.0,
              "AJDILHJFNKE": -1.0
            }
          ]
        },
        "ReMove": {
          "modifierName": "",
          "duration": 2.0,
          "elementDurability": 100.0,
          "onRemoved": [
            {
              "$type": "RemoveModifier",
              "modifierName": "AddEffect"
            }
          ]
        }
      },
      "onAdded": [
        {
          "$type": "AttachModifier",
          "modifierName": "AddEffect"
        }
      ]
    }
  }
]
