[
  {
    "Default": {
      "$type": "ConfigAbility",
      "abilityName": "SceneObj_Area_Common_Property_Ani_Prop_PitchPotNormalpot_01",
      "abilityMixins": [
        {
          "$type": "AttachToGadgetStateMixin",
          "modifierName": "Normalpot_State_0"
        },
        {
          "$type": "AttachToGadgetStateMixin",
          "gadgetState": 201,
          "modifierName": "Normalpot_State_201"
        },
        {
          "$type": "AttachToGadgetStateMixin",
          "gadgetState": 202,
          "modifierName": "Normalpot_State_202"
        }
      ],
      "modifiers": {
        "Normalpot_State_0": {
          "modifierName": "",
          "elementDurability": 100.0,
          "onAdded": [
            {
              "$type": "AOOCGNCCAJB",
              "isAdd": true,
              "tag": "Is_NormalPot"
            },
            {
              "$type": "FireEffect",
              "rotationDampTime": "Eff_SceneObj_PitchPotNormalpot_01_Born",
              "PPPDJGDDOGD": 1.0,
              "AJDILHJFNKE": -1.0
            }
          ],
          "onRemoved": [
            {
              "$type": "AOOCGNCCAJB",
              "tag": "Is_NormalPot"
            }
          ]
        },
        "Normalpot_State_201": {
          "modifierName": "",
          "elementDurability": 100.0,
          "onAdded": [
            {
              "$type": "FireEffect",
              "rotationDampTime": "Eff_SceneObj_PitchPotNormalpot_01_Disaper",
              "PPPDJGDDOGD": 1.0,
              "AJDILHJFNKE": -1.0
            },
            {
              "$type": "KillSelf"
            }
          ]
        },
        "Normalpot_State_202": {
          "modifierName": "",
          "elementDurability": 100.0,
          "onAdded": [
            {
              "$type": "FireEffect",
              "rotationDampTime": "Eff_SceneObj_PitchPotNormalpot_01_DitherDisaper",
              "PPPDJGDDOGD": 1.0,
              "AJDILHJFNKE": -1.0
            },
            {
              "$type": "KillSelf"
            }
          ]
        }
      }
    }
  },
  {
    "Default": {
      "$type": "ConfigAbility",
      "abilityName": "SceneObj_Area_Common_Property_Ani_Prop_PitchPotNormalpot_03",
      "abilityMixins": [
        {
          "$type": "AttachToGadgetStateMixin",
          "modifierName": "Normalpot_State_0"
        },
        {
          "$type": "AttachToGadgetStateMixin",
          "gadgetState": 201,
          "modifierName": "Normalpot_State_201"
        },
        {
          "$type": "AttachToGadgetStateMixin",
          "gadgetState": 202,
          "modifierName": "Normalpot_State_202"
        }
      ],
      "modifiers": {
        "Normalpot_State_0": {
          "modifierName": "",
          "elementDurability": 100.0,
          "onAdded": [
            {
              "$type": "AOOCGNCCAJB",
              "isAdd": true,
              "tag": "Is_NormalPot"
            },
            {
              "$type": "FireEffect",
              "rotationDampTime": "Eff_SceneObj_PitchPotNormalpot_01_Born",
              "PPPDJGDDOGD": 1.0,
              "AJDILHJFNKE": -1.0
            },
            {
              "$type": "AttachEffect",
              "rotationDampTime": "Eff_SceneObj_PitchPotNormalpot_01_Buff",
              "PPPDJGDDOGD": 1.0,
              "AJDILHJFNKE": -1.0
            }
          ],
          "onRemoved": [
            {
              "$type": "AOOCGNCCAJB",
              "tag": "Is_NormalPot"
            },
            {
              "$type": "FireEffect",
              "rotationDampTime": "Eff_SceneObj_PitchPotNormalpot_01_BuffDisaper",
              "PPPDJGDDOGD": 1.0,
              "AJDILHJFNKE": -1.0
            }
          ]
        },
        "Normalpot_State_201": {
          "modifierName": "",
          "elementDurability": 100.0,
          "onAdded": [
            {
              "$type": "FireEffect",
              "rotationDampTime": "Eff_SceneObj_PitchPotNormalpot_01_Disaper",
              "PPPDJGDDOGD": 1.0,
              "AJDILHJFNKE": -1.0
            },
            {
              "$type": "KillSelf"
            }
          ]
        },
        "Normalpot_State_202": {
          "modifierName": "",
          "elementDurability": 100.0,
          "onAdded": [
            {
              "$type": "FireEffect",
              "rotationDampTime": "Eff_SceneObj_PitchPotNormalpot_01_DitherDisaper",
              "PPPDJGDDOGD": 1.0,
              "AJDILHJFNKE": -1.0
            },
            {
              "$type": "KillSelf"
            }
          ]
        }
      }
    }
  },
  {
    "Default": {
      "$type": "ConfigAbility",
      "abilityName": "SceneObj_Area_Common_Property_Ani_Prop_PitchPotBoompot_01",
      "abilityMixins": [
        {
          "$type": "AttachToGadgetStateMixin",
          "modifierName": "BoomPot_State_0"
        },
        {
          "$type": "AttachToGadgetStateMixin",
          "gadgetState": 201,
          "modifierName": "BoomPot_State_201"
        },
        {
          "$type": "AttachToGadgetStateMixin",
          "gadgetState": 202,
          "modifierName": "BoomPot_State_202"
        }
      ],
      "modifiers": {
        "BoomPot_State_0": {
          "modifierName": "",
          "elementDurability": 100.0,
          "onAdded": [
            {
              "$type": "AOOCGNCCAJB",
              "isAdd": true,
              "tag": "Is_ExplodePot"
            },
            {
              "$type": "FireEffect",
              "rotationDampTime": "Eff_SceneObj_PitchPotNormalpot_01_Born",
              "PPPDJGDDOGD": 1.0,
              "AJDILHJFNKE": -1.0
            }
          ],
          "onRemoved": [
            {
              "$type": "AOOCGNCCAJB",
              "tag": "Is_ExplodePot"
            }
          ]
        },
        "BoomPot_State_201": {
          "modifierName": "",
          "elementDurability": 100.0,
          "onAdded": [
            {
              "$type": "FireEffect",
              "rotationDampTime": "Eff_SceneObj_PitchPotBoompot_01_Boom",
              "PPPDJGDDOGD": 1.0,
              "AJDILHJFNKE": -1.0
            },
            {
              "$type": "KillSelf"
            }
          ]
        },
        "BoomPot_State_202": {
          "modifierName": "",
          "elementDurability": 100.0,
          "onAdded": [
            {
              "$type": "FireEffect",
              "rotationDampTime": "Eff_SceneObj_PitchPotNormalpot_01_DitherDisaper",
              "PPPDJGDDOGD": 1.0,
              "AJDILHJFNKE": -1.0
            },
            {
              "$type": "KillSelf"
            }
          ]
        }
      }
    }
  },
  {
    "Default": {
      "$type": "ConfigAbility",
      "abilityName": "SceneObj_Area_Common_Property_Ani_Prop_PitchPotHugepot_01",
      "abilityMixins": [
        {
          "$type": "AttachModifierToGlobalValueMixin",
          "globalValueKey": "SGV_HitTime",
          "valueSteps": [-0.5, 2.5, 5.5, 8.5, 100.0],
          "modifierNameSteps": [
            "HugePot_State_Big",
            "HugePot_State_Mid",
            "HugePot_State_Small",
            "HugePot_State_Die"
          ],
          "NMCLMHFBALJ": true
        },
        {
          "$type": "AttachToGadgetStateMixin",
          "gadgetState": 201,
          "modifierName": "HugePot_State_Die"
        },
        {
          "$type": "AttachToGadgetStateMixin",
          "gadgetState": 202,
          "modifierName": "HugePot_State_202"
        }
      ],
      "modifiers": {
        "HugePot_State_Big": {
          "modifierName": "",
          "elementDurability": 100.0,
          "thinkInterval": 0.5,
          "modifierMixins": [
            {
              "$type": "DoActionOnGlobalValueChangeMixin",
              "globalValueKey": "SGV_HitTime",
              "actions": [
                {
                  "$type": "ApplyModifier",
                  "predicates": [
                    {
                      "$type": "ByTargetGlobalValue",
                      "key": "SGV_HitTime",
                      "value": 0.0,
                      "compareType": "MoreThan"
                    }
                  ],
                  "modifierName": "UNIQUE_HugePotBig_BeHit"
                }
              ]
            }
          ],
          "onAdded": [
            {
              "$type": "FireEffect",
              "rotationDampTime": "Eff_SceneObj_PitchPotNormalpot_01_Born",
              "PPPDJGDDOGD": 1.2999999523162842,
              "AJDILHJFNKE": -1.0
            },
            {
              "$type": "CLKGEHMNIEF",
              "transformNames": ["BigPot", "MidPot"],
              "setEnable": true
            },
            {
              "$type": "CLKGEHMNIEF",
              "transformNames": ["SmallPot"]
            },
            {
              "$type": "EnableHitBoxByName",
              "hitBoxNames": ["HitBoxBig"],
              "setEnable": true
            },
            {
              "$type": "EnableHitBoxByName",
              "hitBoxNames": ["HitBoxMid", "HitBoxSmall"]
            },
            {
              "$type": "ApplyModifier",
              "modifierName": "UNIQUE_HugePotBig_Normal"
            }
          ],
          "onThinkInterval": [
            {
              "$type": "ApplyModifier",
              "otherTargets": {
                "$type": "SelectTargetsByShape",
                "shapeName": "CircleR2H1",
                "campTargetType": "AllExceptSelf",
                "doOffStage": 1.0
              },
              "predicates": [
                {
                  "$type": "ByAny",
                  "predicates": [
                    {
                      "$type": "JHAJOBAACDP",
                      "tag": "Is_NormalPot"
                    },
                    {
                      "$type": "JHAJOBAACDP",
                      "tag": "Is_ExplodePot"
                    },
                    {
                      "$type": "JHAJOBAACDP",
                      "tag": "Is_Predictable"
                    }
                  ]
                }
              ],
              "modifierName": "SLC_PotCruhsed"
            }
          ]
        },
        "HugePot_State_Mid": {
          "modifierName": "",
          "elementDurability": 100.0,
          "thinkInterval": 0.5,
          "modifierMixins": [
            {
              "$type": "DoActionOnGlobalValueChangeMixin",
              "globalValueKey": "SGV_HitTime",
              "actions": [
                {
                  "$type": "ApplyModifier",
                  "predicates": [
                    {
                      "$type": "ByTargetGlobalValue",
                      "key": "SGV_HitTime",
                      "value": 0.0,
                      "compareType": "MoreThan"
                    }
                  ],
                  "modifierName": "UNIQUE_HugePotMid_BeHit"
                }
              ]
            }
          ],
          "onAdded": [
            {
              "$type": "FireEffect",
              "rotationDampTime": "Eff_SceneObj_PitchPotHugepot_01_Change",
              "PPPDJGDDOGD": 1.0,
              "AJDILHJFNKE": -1.0
            },
            {
              "$type": "CLKGEHMNIEF",
              "transformNames": ["MidPot", "SmallPot"],
              "setEnable": true
            },
            {
              "$type": "CLKGEHMNIEF",
              "transformNames": ["BigPot"]
            },
            {
              "$type": "EnableHitBoxByName",
              "hitBoxNames": ["HitBoxMid"],
              "setEnable": true
            },
            {
              "$type": "EnableHitBoxByName",
              "hitBoxNames": ["HitBoxBig", "HitBoxSmall"]
            },
            {
              "$type": "ApplyModifier",
              "modifierName": "UNIQUE_HugePotMid_Normal"
            }
          ],
          "onThinkInterval": [
            {
              "$type": "ApplyModifier",
              "otherTargets": {
                "$type": "SelectTargetsByShape",
                "shapeName": "CircleR2H1",
                "campTargetType": "AllExceptSelf",
                "doOffStage": 1.0
              },
              "predicates": [
                {
                  "$type": "ByAny",
                  "predicates": [
                    {
                      "$type": "JHAJOBAACDP",
                      "tag": "Is_NormalPot"
                    },
                    {
                      "$type": "JHAJOBAACDP",
                      "tag": "Is_ExplodePot"
                    },
                    {
                      "$type": "JHAJOBAACDP",
                      "tag": "Is_Predictable"
                    }
                  ]
                }
              ],
              "modifierName": "SLC_PotCruhsed"
            }
          ]
        },
        "HugePot_State_Small": {
          "modifierName": "",
          "elementDurability": 100.0,
          "thinkInterval": 0.5,
          "modifierMixins": [
            {
              "$type": "DoActionOnGlobalValueChangeMixin",
              "globalValueKey": "SGV_HitTime",
              "actions": [
                {
                  "$type": "ApplyModifier",
                  "predicates": [
                    {
                      "$type": "ByTargetGlobalValue",
                      "key": "SGV_HitTime",
                      "value": 0.0,
                      "compareType": "MoreThan"
                    }
                  ],
                  "modifierName": "UNIQUE_HugePotSmall_BeHit"
                }
              ]
            }
          ],
          "onAdded": [
            {
              "$type": "FireEffect",
              "rotationDampTime": "Eff_SceneObj_PitchPotHugepot_01_Change",
              "PPPDJGDDOGD": 1.0,
              "AJDILHJFNKE": -1.0
            },
            {
              "$type": "CLKGEHMNIEF",
              "transformNames": ["SmallPot"],
              "setEnable": true
            },
            {
              "$type": "CLKGEHMNIEF",
              "transformNames": ["MidPot", "BigPot"]
            },
            {
              "$type": "EnableHitBoxByName",
              "hitBoxNames": ["HitBoxSmall"],
              "setEnable": true
            },
            {
              "$type": "EnableHitBoxByName",
              "hitBoxNames": ["HitBoxBig", "HitBoxMid"]
            },
            {
              "$type": "ApplyModifier",
              "modifierName": "UNIQUE_HugePotSmall_Normal"
            }
          ],
          "onThinkInterval": [
            {
              "$type": "ApplyModifier",
              "otherTargets": {
                "$type": "SelectTargetsByShape",
                "shapeName": "CircleR2H1",
                "campTargetType": "AllExceptSelf",
                "doOffStage": 1.0
              },
              "predicates": [
                {
                  "$type": "ByAny",
                  "predicates": [
                    {
                      "$type": "JHAJOBAACDP",
                      "tag": "Is_NormalPot"
                    },
                    {
                      "$type": "JHAJOBAACDP",
                      "tag": "Is_ExplodePot"
                    },
                    {
                      "$type": "JHAJOBAACDP",
                      "tag": "Is_Predictable"
                    }
                  ]
                }
              ],
              "modifierName": "SLC_PotCruhsed"
            }
          ]
        },
        "HugePot_State_Die": {
          "modifierName": "",
          "elementDurability": 100.0,
          "onAdded": [
            {
              "$type": "AOOCGNCCAJB",
              "tag": "Is_HugePot"
            },
            {
              "$type": "FireEffect",
              "rotationDampTime": "Eff_SceneObj_PitchPotHugepot_01_DisaperLast",
              "PPPDJGDDOGD": 0.8999999761581421,
              "AJDILHJFNKE": -1.0
            },
            {
              "$type": "KillSelf"
            }
          ]
        },
        "HugePot_State_202": {
          "modifierName": "",
          "elementDurability": 100.0,
          "onAdded": [
            {
              "$type": "AOOCGNCCAJB",
              "tag": "Is_HugePot"
            },
            {
              "$type": "FireEffect",
              "predicates": [
                {
                  "$type": "ByTargetGlobalValue",
                  "key": "SGV_HitTime",
                  "value": 2.0,
                  "compareType": "LessAndEqual"
                }
              ],
              "rotationDampTime": "Eff_SceneObj_PitchPotNormalpot_01_DitherDisaper",
              "PPPDJGDDOGD": 1.600000023841858,
              "AJDILHJFNKE": -1.0
            },
            {
              "$type": "FireEffect",
              "predicates": [
                {
                  "$type": "ByTargetGlobalValue",
                  "key": "SGV_HitTime",
                  "value": 3.0,
                  "compareType": "MoreThanAndEqual"
                },
                {
                  "$type": "ByTargetGlobalValue",
                  "key": "SGV_HitTime",
                  "value": 5.0,
                  "compareType": "LessAndEqual"
                }
              ],
              "rotationDampTime": "Eff_SceneObj_PitchPotNormalpot_01_DitherDisaper",
              "PPPDJGDDOGD": 1.100000023841858,
              "AJDILHJFNKE": -1.0
            },
            {
              "$type": "FireEffect",
              "predicates": [
                {
                  "$type": "ByTargetGlobalValue",
                  "key": "SGV_HitTime",
                  "value": 6.0,
                  "compareType": "MoreThanAndEqual"
                }
              ],
              "rotationDampTime": "Eff_SceneObj_PitchPotNormalpot_01_DitherDisaper",
              "PPPDJGDDOGD": 1.0,
              "AJDILHJFNKE": -1.0
            },
            {
              "$type": "KillSelf"
            }
          ]
        },
        "UNIQUE_HugePotBig_BeHit": {
          "modifierName": "",
          "forceTriggerWhenChangeAuthority": true,
          "duration": 0.4000000059604645,
          "elementDurability": 100.0,
          "modifierMixins": [
            {
              "$type": "GPCGHACDPIF",
              "DPAOMNELPHI": 1,
              "GPDICGAGGAA": 5.0,
              "NLIOHMNJBAM": ""
            }
          ],
          "onRemoved": [
            {
              "$type": "ApplyModifier",
              "predicates": [
                {
                  "$type": "ByTargetGlobalValue",
                  "key": "SGV_HitTime",
                  "value": 3.0,
                  "compareType": "LessAndEqual"
                }
              ],
              "modifierName": "UNIQUE_HugePotBig_Normal"
            }
          ]
        },
        "UNIQUE_HugePotBig_Normal": {
          "modifierName": "",
          "forceTriggerWhenChangeAuthority": true,
          "duration": 0.4000000059604645,
          "elementDurability": 100.0,
          "modifierMixins": [
            {
              "$type": "GPCGHACDPIF",
              "GPDICGAGGAA": 3.0,
              "NLIOHMNJBAM": ""
            }
          ]
        },
        "UNIQUE_HugePotMid_BeHit": {
          "modifierName": "",
          "forceTriggerWhenChangeAuthority": true,
          "duration": 0.4000000059604645,
          "elementDurability": 100.0,
          "modifierMixins": [
            {
              "$type": "GPCGHACDPIF",
              "DPAOMNELPHI": 3,
              "GPDICGAGGAA": 5.0,
              "NLIOHMNJBAM": ""
            }
          ],
          "onRemoved": [
            {
              "$type": "ApplyModifier",
              "predicates": [
                {
                  "$type": "ByTargetGlobalValue",
                  "key": "SGV_HitTime",
                  "value": 6.0,
                  "compareType": "LessAndEqual"
                }
              ],
              "modifierName": "UNIQUE_HugePotMid_Normal"
            }
          ]
        },
        "UNIQUE_HugePotMid_Normal": {
          "modifierName": "",
          "forceTriggerWhenChangeAuthority": true,
          "duration": 0.4000000059604645,
          "elementDurability": 100.0,
          "modifierMixins": [
            {
              "$type": "GPCGHACDPIF",
              "DPAOMNELPHI": 2,
              "GPDICGAGGAA": 3.0,
              "NLIOHMNJBAM": ""
            }
          ]
        },
        "UNIQUE_HugePotSmall_BeHit": {
          "modifierName": "",
          "forceTriggerWhenChangeAuthority": true,
          "duration": 0.4000000059604645,
          "elementDurability": 100.0,
          "modifierMixins": [
            {
              "$type": "GPCGHACDPIF",
              "DPAOMNELPHI": 5,
              "GPDICGAGGAA": 5.0,
              "NLIOHMNJBAM": ""
            }
          ],
          "onRemoved": [
            {
              "$type": "ApplyModifier",
              "predicates": [
                {
                  "$type": "ByTargetGlobalValue",
                  "key": "SGV_HitTime",
                  "value": 9.0,
                  "compareType": "LessAndEqual"
                }
              ],
              "modifierName": "UNIQUE_HugePotSmall_Normal"
            }
          ]
        },
        "UNIQUE_HugePotSmall_Normal": {
          "modifierName": "",
          "forceTriggerWhenChangeAuthority": true,
          "duration": 0.4000000059604645,
          "elementDurability": 100.0,
          "modifierMixins": [
            {
              "$type": "GPCGHACDPIF",
              "DPAOMNELPHI": 4,
              "GPDICGAGGAA": 3.0,
              "NLIOHMNJBAM": ""
            }
          ]
        },
        "SLC_PotCruhsed": {
          "stacking": "MultipleRefresh",
          "modifierName": "",
          "duration": 0.5,
          "elementDurability": 100.0,
          "onAdded": [
            {
              "$type": "AHPEKICBIIL",
              "luaCallType": "CurGalleryControlGroup",
              "funcName": "SLC_PotCruhsed",
              "param1": 0.0,
              "MGAMDEHMCOL": 0.0,
              "MMHOHAOGPLP": 0.0
            }
          ]
        }
      },
      "onAdded": [
        {
          "$type": "AOOCGNCCAJB",
          "isAdd": true,
          "tag": "Is_HugePot"
        }
      ]
    }
  },
  {
    "Default": {
      "$type": "ConfigAbility",
      "abilityName": "SceneObj_Area_Common_Property_Ani_Prop_PitchPotHugepotMark_01",
      "abilityMixins": [
        {
          "$type": "AttachToGadgetStateMixin",
          "modifierName": "Mark_State_0"
        }
      ],
      "modifiers": {
        "Mark_State_0": {
          "modifierName": "",
          "elementDurability": 100.0,
          "onAdded": [
            {
              "$type": "AttachEffect",
              "rotationDampTime": "Eff_SceneObj_PitchPotHugepot_01_EndPoint",
              "PPPDJGDDOGD": 1.0,
              "AJDILHJFNKE": -1.0
            }
          ]
        }
      }
    }
  },
  {
    "Default": {
      "$type": "ConfigAbility",
      "abilityName": "SceneObj_Area_Common_Property_Ani_Prop_PitchPotScoreRing_01",
      "abilityMixins": [
        {
          "$type": "AttachToGadgetStateMixin",
          "gadgetState": 201,
          "modifierName": "ScoreRing_Disable"
        },
        {
          "$type": "AttachToGadgetStateMixin",
          "gadgetState": 202,
          "modifierName": "ScoreRing_Warning"
        }
      ],
      "modifiers": {
        "ScoreRing_Effect": {
          "modifierName": "",
          "elementDurability": 100.0,
          "onAdded": [
            {
              "$type": "AOOCGNCCAJB",
              "isAdd": true,
              "tag": "Is_ScoreRing"
            },
            {
              "$type": "AttachEffect",
              "rotationDampTime": "Eff_SceneObj_PitchPotScoreRing",
              "PPPDJGDDOGD": 1.0,
              "AJDILHJFNKE": -1.0
            }
          ],
          "onRemoved": [
            {
              "$type": "AOOCGNCCAJB",
              "tag": "Is_ScoreRing"
            }
          ]
        },
        "ScoreRing_Disable": {
          "modifierName": "",
          "elementDurability": 100.0,
          "onAdded": [
            {
              "$type": "FireEffect",
              "rotationDampTime": "Eff_SceneObj_PitchPotScoreRing_Die",
              "PPPDJGDDOGD": 1.0,
              "AJDILHJFNKE": -1.0
            },
            {
              "$type": "RemoveModifier",
              "modifierName": "ScoreRing_Effect"
            },
            {
              "$type": "KillSelf"
            }
          ]
        },
        "ScoreRing_Warning": {
          "modifierName": "",
          "elementDurability": 100.0,
          "onAdded": [
            {
              "$type": "SendEffectTrigger",
              "parameter": "State",
              "attachPoint": "",
              "damageRatio": "Int",
              "value": 202,
              "rotationDampTime": "Eff_SceneObj_PitchPotScoreRing"
            }
          ]
        }
      },
      "onAdded": [
        {
          "$type": "AttachModifier",
          "modifierName": "ScoreRing_Effect"
        }
      ]
    }
  },
  {
    "Default": {
      "$type": "ConfigAbility",
      "abilityName": "SceneObj_Area_Common_Property_Ani_Prop_PitchPotPredictablepot_01",
      "abilityMixins": [
        {
          "$type": "AttachToGadgetStateMixin",
          "modifierName": "Predictablepot_State_0"
        },
        {
          "$type": "AttachToGadgetStateMixin",
          "gadgetState": 201,
          "modifierName": "Predictablepot_State_201"
        },
        {
          "$type": "AttachToGadgetStateMixin",
          "gadgetState": 202,
          "modifierName": "Predictablepot_State_202"
        },
        {
          "$type": "AttachModifierToGlobalValueMixin",
          "globalValueKey": "SGV_Movedir",
          "valueSteps": [0.5, 1.5, 2.5],
          "modifierNameSteps": ["MoveForward", "MoveBackward"],
          "NMCLMHFBALJ": true
        }
      ],
      "modifiers": {
        "MoveForward": {
          "modifierName": "",
          "elementDurability": 100.0,
          "onAdded": [
            {
              "$type": "FireEffect",
              "rotationDampTime": "Eff_SceneObj_PitchPotPredictablepot_01_ChangePosition",
              "PPPDJGDDOGD": 1.0,
              "AJDILHJFNKE": -1.0
            }
          ]
        },
        "MoveBackward": {
          "modifierName": "",
          "elementDurability": 100.0,
          "onAdded": [
            {
              "$type": "FireEffect",
              "rotationDampTime": "Eff_SceneObj_PitchPotPredictablepot_02_ChangePosition",
              "PPPDJGDDOGD": 1.0,
              "AJDILHJFNKE": -1.0
            }
          ]
        },
        "Predictablepot_State_0": {
          "modifierName": "",
          "elementDurability": 100.0,
          "onAdded": [
            {
              "$type": "AOOCGNCCAJB",
              "isAdd": true,
              "tag": "Is_Predictable"
            },
            {
              "$type": "FireEffect",
              "rotationDampTime": "Eff_SceneObj_PitchPotNormalpot_01_Born",
              "PPPDJGDDOGD": 1.0,
              "AJDILHJFNKE": -1.0
            }
          ],
          "onRemoved": [
            {
              "$type": "AOOCGNCCAJB",
              "tag": "Is_Predictable"
            }
          ]
        },
        "Predictablepot_State_201": {
          "modifierName": "",
          "elementDurability": 100.0,
          "onAdded": [
            {
              "$type": "FireEffect",
              "rotationDampTime": "Eff_SceneObj_PitchPotChainpot_01_DisaperLast",
              "PPPDJGDDOGD": 1.0,
              "AJDILHJFNKE": -1.0
            },
            {
              "$type": "KillSelf"
            }
          ]
        },
        "Predictablepot_State_202": {
          "modifierName": "",
          "elementDurability": 100.0,
          "onAdded": [
            {
              "$type": "FireEffect",
              "rotationDampTime": "Eff_SceneObj_PitchPotNormalpot_01_DitherDisaper",
              "PPPDJGDDOGD": 1.0,
              "AJDILHJFNKE": -1.0
            },
            {
              "$type": "KillSelf"
            }
          ]
        }
      }
    }
  },
  {
    "Default": {
      "$type": "ConfigAbility",
      "abilityName": "SceneObj_Area_Common_Property_Ani_Prop_PitchPotChainpot_01",
      "abilityMixins": [
        {
          "$type": "AttachToGadgetStateMixin",
          "modifierName": "Chainpot_State_0"
        },
        {
          "$type": "AttachToGadgetStateMixin",
          "gadgetState": 201,
          "modifierName": "Chainpot_State_201"
        },
        {
          "$type": "AttachToGadgetStateMixin",
          "gadgetState": 202,
          "modifierName": "Chainpot_State_202"
        },
        {
          "$type": "AttachToGadgetStateMixin",
          "gadgetState": 203,
          "modifierName": "Chainpot_State_203"
        },
        {
          "$type": "AttachModifierToGlobalValueMixin",
          "globalValueKey": "SGV_Index",
          "valueSteps": [0.5, 1.5, 2.5, 3.5],
          "modifierNameSteps": ["ChainPot01", "ChainPot02", "ChainPot03"],
          "NMCLMHFBALJ": true
        }
      ],
      "modifiers": {
        "Chainpot_State_0": {
          "modifierName": "",
          "elementDurability": 100.0,
          "modifierMixins": [
            {
              "$type": "GPCGHACDPIF",
              "NLIOHMNJBAM": ""
            }
          ],
          "onAdded": [
            {
              "$type": "AOOCGNCCAJB",
              "isAdd": true,
              "tag": "Is_NormalPot"
            },
            {
              "$type": "FireEffect",
              "rotationDampTime": "Eff_SceneObj_PitchPotNormalpot_01_Born",
              "PPPDJGDDOGD": 1.0,
              "AJDILHJFNKE": -1.0
            }
          ],
          "onRemoved": [
            {
              "$type": "AOOCGNCCAJB",
              "tag": "Is_NormalPot"
            }
          ]
        },
        "Chainpot_State_201": {
          "modifierName": "",
          "elementDurability": 100.0,
          "modifierMixins": [
            {
              "$type": "GPCGHACDPIF",
              "DPAOMNELPHI": 2,
              "NLIOHMNJBAM": ""
            }
          ],
          "onAdded": [
            {
              "$type": "FireEffect",
              "rotationDampTime": "Eff_SceneObj_PitchPotNormalpot_01_Disaper",
              "PPPDJGDDOGD": 1.0,
              "AJDILHJFNKE": -1.0
            },
            {
              "$type": "KillSelf"
            }
          ]
        },
        "Chainpot_State_202": {
          "modifierName": "",
          "elementDurability": 100.0,
          "modifierMixins": [
            {
              "$type": "GPCGHACDPIF",
              "DPAOMNELPHI": 2,
              "NLIOHMNJBAM": ""
            }
          ],
          "onAdded": [
            {
              "$type": "FireEffect",
              "rotationDampTime": "Eff_SceneObj_PitchPotNormalpot_01_DitherDisaper",
              "PPPDJGDDOGD": 1.0,
              "AJDILHJFNKE": -1.0
            },
            {
              "$type": "KillSelf"
            }
          ]
        },
        "Chainpot_State_203": {
          "modifierName": "",
          "elementDurability": 100.0,
          "onAdded": [
            {
              "$type": "FireEffect",
              "rotationDampTime": "Eff_SceneObj_PitchPotChainpot_01_DisaperLast",
              "PPPDJGDDOGD": 1.0,
              "AJDILHJFNKE": -1.0
            },
            {
              "$type": "KillSelf"
            }
          ]
        },
        "ChainPot01": {
          "modifierName": "",
          "elementDurability": 100.0,
          "modifierMixins": [
            {
              "$type": "AttachModifierToGlobalValueMixin",
              "globalValueKey": "SGV_Disappear",
              "valueSteps": [-0.5, 0.5, 100.0],
              "modifierNameSteps": [
                "ChainPot_01_Normal",
                "ChainPot_01_Disappear"
              ],
              "NMCLMHFBALJ": true
            }
          ]
        },
        "ChainPot_01_Normal": {
          "modifierName": "",
          "elementDurability": 100.0,
          "modifierMixins": [
            {
              "$type": "GPCGHACDPIF",
              "NLIOHMNJBAM": ""
            }
          ]
        },
        "ChainPot_01_Disappear": {
          "modifierName": "",
          "elementDurability": 100.0,
          "modifierMixins": [
            {
              "$type": "GPCGHACDPIF",
              "DPAOMNELPHI": 1,
              "NLIOHMNJBAM": ""
            }
          ]
        },
        "ChainPot02": {
          "modifierName": "",
          "elementDurability": 100.0,
          "modifierMixins": [
            {
              "$type": "AttachModifierToGlobalValueMixin",
              "globalValueKey": "SGV_Disappear",
              "valueSteps": [-0.5, 0.5, 100.0],
              "modifierNameSteps": [
                "ChainPot_02_Normal",
                "ChainPot_02_Disappear"
              ],
              "NMCLMHFBALJ": true
            }
          ]
        },
        "ChainPot_02_Normal": {
          "modifierName": "",
          "elementDurability": 100.0,
          "modifierMixins": [
            {
              "$type": "GPCGHACDPIF",
              "DPAOMNELPHI": 3,
              "NLIOHMNJBAM": ""
            }
          ]
        },
        "ChainPot_02_Disappear": {
          "modifierName": "",
          "elementDurability": 100.0,
          "modifierMixins": [
            {
              "$type": "GPCGHACDPIF",
              "DPAOMNELPHI": 4,
              "NLIOHMNJBAM": ""
            }
          ]
        },
        "ChainPot03": {
          "modifierName": "",
          "elementDurability": 100.0,
          "modifierMixins": [
            {
              "$type": "AttachModifierToGlobalValueMixin",
              "globalValueKey": "SGV_Disappear",
              "valueSteps": [-0.5, 0.5, 100.0],
              "modifierNameSteps": [
                "ChainPot_03_Normal",
                "ChainPot_03_Disappear"
              ],
              "NMCLMHFBALJ": true
            }
          ]
        },
        "ChainPot_03_Normal": {
          "modifierName": "",
          "elementDurability": 100.0,
          "modifierMixins": [
            {
              "$type": "GPCGHACDPIF",
              "DPAOMNELPHI": 6,
              "NLIOHMNJBAM": ""
            }
          ]
        },
        "ChainPot_03_Disappear": {
          "modifierName": "",
          "elementDurability": 100.0,
          "modifierMixins": [
            {
              "$type": "GPCGHACDPIF",
              "DPAOMNELPHI": 7,
              "NLIOHMNJBAM": ""
            }
          ]
        }
      }
    }
  },
  {
    "Default": {
      "$type": "ConfigAbility",
      "abilityName": "SceneObj_Area_Common_Property_Ani_Prop_PitchPotBoard_01",
      "abilityMixins": [
        {
          "$type": "AttachToGadgetStateMixin",
          "modifierName": "Board_State_0"
        },
        {
          "$type": "AttachToGadgetStateMixin",
          "gadgetState": 201,
          "modifierName": "Board_State_201"
        },
        {
          "$type": "AttachToGadgetStateMixin",
          "gadgetState": 202,
          "modifierName": "Board_State_202"
        },
        {
          "$type": "AttachToGadgetStateMixin",
          "gadgetState": 203,
          "modifierName": "Board_State_203"
        }
      ],
      "modifiers": {
        "Board_State_0": {
          "modifierName": "",
          "elementDurability": 100.0,
          "onAdded": [
            {
              "$type": "FireEffect",
              "rotationDampTime": "Eff_SceneObj_PitchPotNormalpot_01_Born",
              "PPPDJGDDOGD": 1.0,
              "AJDILHJFNKE": -1.0
            },
            {
              "$type": "CLKGEHMNIEF",
              "transformNames": ["PitchBoard01", "PitchBoard02"],
              "setEnable": true
            },
            {
              "$type": "CLKGEHMNIEF",
              "transformNames": ["PitchBoard03"]
            }
          ]
        },
        "Board_State_201": {
          "modifierName": "",
          "elementDurability": 100.0,
          "onAdded": [
            {
              "$type": "TriggerAudio",
              "operation": {
                "$type": "ConfigAudioEventOp",
                "operation": {
                  "text": "Play_amb_sceneObj_gear_pitchPotHugepot_01_hit_wood"
                }
              }
            },
            {
              "$type": "CLKGEHMNIEF",
              "transformNames": ["PitchBoard02", "PitchBoard03"],
              "setEnable": true
            },
            {
              "$type": "CLKGEHMNIEF",
              "transformNames": ["PitchBoard01"]
            }
          ]
        },
        "Board_State_202": {
          "modifierName": "",
          "elementDurability": 100.0,
          "onAdded": [
            {
              "$type": "TriggerAudio",
              "operation": {
                "$type": "ConfigAudioEventOp",
                "operation": {
                  "text": "Play_amb_sceneObj_gear_pitchPotHugepot_01_hit_wood"
                }
              }
            },
            {
              "$type": "CLKGEHMNIEF",
              "transformNames": ["PitchBoard03"],
              "setEnable": true
            },
            {
              "$type": "CLKGEHMNIEF",
              "transformNames": ["PitchBoard01", "PitchBoard02"]
            }
          ]
        },
        "Board_State_203": {
          "modifierName": "",
          "elementDurability": 100.0,
          "onAdded": [
            {
              "$type": "TriggerAudio",
              "operation": {
                "$type": "ConfigAudioEventOp",
                "operation": {
                  "text": "Play_amb_sceneObj_gear_pitchPotHugepot_01_hit_wood"
                }
              }
            },
            {
              "$type": "KillSelf"
            }
          ]
        }
      },
      "onAdded": [
        {
          "$type": "AOOCGNCCAJB",
          "isAdd": true,
          "tag": "Is_Board"
        }
      ]
    }
  },
  {
    "Default": {
      "$type": "ConfigAbility",
      "abilityName": "SceneObj_Area_Fd_Property_Ani_Prop_LuminousJellyfish_02",
      "modifiers": {
        "Effect_Attacher": {
          "modifierName": "",
          "elementDurability": 100.0,
          "onAdded": [
            {
              "$type": "FireEffect",
              "rotationDampTime": "Eff_SceneObj_LuminousJellyfish_01",
              "PPPDJGDDOGD": 1.0,
              "AJDILHJFNKE": -1.0
            },
            {
              "$type": "AttachEffect",
              "rotationDampTime": "Eff_Stages_SceneObj_ArtBoids_LuminousJellyfish_02",
              "PPPDJGDDOGD": 1.0,
              "AJDILHJFNKE": -1.0
            }
          ]
        },
        "KillApplier_Handler": {
          "modifierName": "",
          "duration": 0.5,
          "elementDurability": 100.0,
          "onAdded": [
            {
              "$type": "ApplyModifier",
              "target": "Applier",
              "predicates": [
                {
                  "$type": "AHEDBPEIDHJ",
                  "target": "Self"
                }
              ],
              "modifierName": "KillSelf_Handler"
            }
          ]
        },
        "KillSelf_Handler": {
          "modifierName": "",
          "elementDurability": 100.0,
          "onAdded": [
            {
              "$type": "KillSelf"
            }
          ]
        }
      },
      "onAdded": [
        {
          "$type": "AttachModifier",
          "modifierName": "Effect_Attacher"
        }
      ],
      "onFieldEnter": [
        {
          "$type": "Predicated",
          "target": "Target",
          "targetPredicates": [
            {
              "$type": "AHEDBPEIDHJ"
            }
          ],
          "successActions": [
            {
              "$type": "RemoveModifier",
              "modifierName": "Effect_Attacher"
            },
            {
              "$type": "FireEffect",
              "rotationDampTime": "Eff_SceneObj_LuminousJellyfish_02",
              "PPPDJGDDOGD": 1.0,
              "AJDILHJFNKE": -1.0
            },
            {
              "$type": "ApplyModifier",
              "target": "Target",
              "modifierName": "KillApplier_Handler"
            }
          ]
        }
      ]
    }
  },
  {
    "Default": {
      "$type": "ConfigAbility",
      "abilityName": "SceneObj_Area_Fd_Property_Ani_Prop_LuminousJellyfish_01",
      "modifiers": {
        "Effect_Attacher": {
          "modifierName": "",
          "elementDurability": 100.0,
          "onAdded": [
            {
              "$type": "FireEffect",
              "rotationDampTime": "Eff_SceneObj_LuminousJellyfish_03",
              "PPPDJGDDOGD": 1.0,
              "AJDILHJFNKE": -1.0
            },
            {
              "$type": "AttachEffect",
              "rotationDampTime": "Eff_Stages_SceneObj_ArtBoids_LuminousJellyfish_01",
              "PPPDJGDDOGD": 1.0,
              "AJDILHJFNKE": -1.0
            }
          ]
        },
        "KillApplier_Handler": {
          "modifierName": "",
          "duration": 0.5,
          "elementDurability": 100.0,
          "onAdded": [
            {
              "$type": "ApplyModifier",
              "target": "Applier",
              "predicates": [
                {
                  "$type": "AHEDBPEIDHJ",
                  "target": "Self"
                }
              ],
              "modifierName": "KillSelf_Handler"
            }
          ]
        },
        "KillSelf_Handler": {
          "modifierName": "",
          "elementDurability": 100.0,
          "onAdded": [
            {
              "$type": "KillSelf"
            }
          ]
        }
      },
      "onAdded": [
        {
          "$type": "AttachModifier",
          "modifierName": "Effect_Attacher"
        }
      ],
      "onFieldEnter": [
        {
          "$type": "Predicated",
          "target": "Target",
          "targetPredicates": [
            {
              "$type": "AHEDBPEIDHJ"
            }
          ],
          "successActions": [
            {
              "$type": "RemoveModifier",
              "modifierName": "Effect_Attacher"
            },
            {
              "$type": "FireEffect",
              "rotationDampTime": "Eff_SceneObj_LuminousJellyfish_04",
              "PPPDJGDDOGD": 1.0,
              "AJDILHJFNKE": -1.0
            },
            {
              "$type": "ApplyModifier",
              "target": "Target",
              "modifierName": "KillApplier_Handler"
            }
          ]
        }
      ]
    }
  },
  {
    "Default": {
      "$type": "ConfigAbility",
      "abilityName": "Activity_UnderWater_TeamAbility",
      "abilityMixins": [
        {
          "$type": "DoActionOnGlobalValueChangeMixin",
          "globalValueKey": "SGV_ALGA_NUM",
          "actions": [
            {
              "$type": "AttachModifier",
              "target": "CurLocalAvatar",
              "predicates": [
                {
                  "$type": "ByTargetGlobalValue",
                  "target": "Team",
                  "key": "SGV_ALGA_NUM",
                  "value": 0.0,
                  "compareType": "MoreThan"
                }
              ],
              "modifierName": "UNIQUE_Avatar_Has_Alga"
            },
            {
              "$type": "ApplyModifier",
              "target": "CurLocalAvatar",
              "predicates": [
                {
                  "$type": "ByTargetGlobalValue",
                  "target": "Team",
                  "key": "SGV_ALGA_NUM",
                  "value": 0.0,
                  "compareType": "MoreThan"
                }
              ],
              "modifierName": "UNIQUE_Avatar_Alga_Appear"
            }
          ]
        }
      ],
      "modifiers": {
        "UNIQUE_Avatar_Alga_Appear": {
          "modifierName": "",
          "forceTriggerWhenChangeAuthority": true,
          "duration": 10.0,
          "elementDurability": 100.0,
          "onAdded": [
            {
              "$type": "SendEffectTrigger",
              "target": "CurLocalAvatar",
              "parameter": "GadgetState",
              "attachPoint": "",
              "damageRatio": "Int",
              "rotationDampTime": "Eff_SceneObj_LuminousJellyfish_05"
            },
            {
              "$type": "FNPMFLOOCDD",
              "target": "Team",
              "value": 1.0,
              "key": "Mark_Has_Alga",
              "maxValue": 0.0,
              "minValue": 0.0
            }
          ],
          "onRemoved": [
            {
              "$type": "SendEffectTrigger",
              "target": "CurLocalAvatar",
              "parameter": "GadgetState",
              "attachPoint": "",
              "damageRatio": "Int",
              "value": 201,
              "rotationDampTime": "Eff_SceneObj_LuminousJellyfish_05"
            },
            {
              "$type": "FNPMFLOOCDD",
              "target": "Team",
              "value": 0.0,
              "key": "Mark_Has_Alga",
              "maxValue": 0.0,
              "minValue": 0.0
            }
          ]
        },
        "UNIQUE_Avatar_Has_Alga": {
          "modifierName": "",
          "forceTriggerWhenChangeAuthority": true,
          "elementDurability": 100.0,
          "thinkInterval": 5.0,
          "modifierMixins": [
            {
              "$type": "CurLocalAvatarMixinV2",
              "modifierName": "UNIQUE_Avatar_Has_AlgaEffect"
            }
          ],
          "onThinkInterval": [
            {
              "$type": "AttachModifier",
              "target": "CurLocalAvatar",
              "shieldHP": true,
              "modifierName": "UNIQUE_Avatar_Has_AlgaEffect"
            }
          ]
        },
        "UNIQUE_Avatar_Has_AlgaEffect": {
          "stacking": "Unique",
          "modifierName": "",
          "forceTriggerWhenChangeAuthority": true,
          "elementDurability": 100.0,
          "onAdded": [
            {
              "$type": "AttachEffect",
              "shieldHP": true,
              "rotationDampTime": "Eff_SceneObj_LuminousJellyfish_05",
              "PPPDJGDDOGD": 1.0,
              "AJDILHJFNKE": -1.0
            },
            {
              "$type": "SendEffectTrigger",
              "target": "CurLocalAvatar",
              "predicates": [
                {
                  "$type": "ByTargetGlobalValue",
                  "target": "Team",
                  "key": "Mark_Has_Alga",
                  "value": 0.0
                }
              ],
              "parameter": "GadgetState",
              "attachPoint": "",
              "damageRatio": "Int",
              "value": 201,
              "rotationDampTime": "Eff_SceneObj_LuminousJellyfish_05"
            },
            {
              "$type": "SendEffectTrigger",
              "target": "CurLocalAvatar",
              "predicates": [
                {
                  "$type": "ByTargetGlobalValue",
                  "target": "Team",
                  "key": "Mark_Has_Alga",
                  "value": 0.0,
                  "compareType": "MoreThan"
                }
              ],
              "parameter": "GadgetState",
              "attachPoint": "",
              "damageRatio": "Int",
              "rotationDampTime": "Eff_SceneObj_LuminousJellyfish_05"
            }
          ],
          "onAvatarOut": [
            {
              "$type": "RemoveModifier",
              "shieldHP": true,
              "modifierName": "UNIQUE_Avatar_Has_AlgaEffect"
            }
          ]
        }
      },
      "onAdded": [
        {
          "$type": "FNPMFLOOCDD",
          "target": "Team",
          "value": 0.0,
          "key": "Mark_Has_Alga",
          "maxValue": 0.0,
          "minValue": 0.0
        }
      ],
      "isDynamicAbility": true
    }
  },
  {
    "Default": {
      "$type": "ConfigAbility",
      "abilityName": "SceneObj_Area_Common_Property_Ani_Prop_PaintingRepair_01",
      "abilityMixins": [
        {
          "$type": "AttachToGadgetStateMixin",
          "modifierName": "Opeartor_Show"
        },
        {
          "$type": "AttachToGadgetStateMixin",
          "gadgetState": 201,
          "modifierName": "Opeartor_Hide"
        },
        {
          "$type": "AEGLMCMJMLE",
          "uiMessageId": "OpenPage",
          "actionList": [
            {
              "$type": "ApplyModifier",
              "modifierName": "UIPage_Open"
            }
          ]
        },
        {
          "$type": "AEGLMCMJMLE",
          "uiMessageId": "ClosePage",
          "actionList": [
            {
              "$type": "ApplyModifier",
              "modifierName": "UIPage_Close"
            }
          ]
        }
      ],
      "modifiers": {
        "Opeartor_Recover": {
          "modifierName": "",
          "elementDurability": 100.0,
          "onReconnect": [
            {
              "$type": "HPIDNBEGJLL"
            }
          ]
        },
        "Opeartor_Show": {
          "modifierName": "",
          "elementDurability": 100.0,
          "onAdded": [
            {
              "$type": "AttachEffect",
              "rotationDampTime": "Eff_SceneObj_CameraActiveOperator_01",
              "PPPDJGDDOGD": 1.0,
              "AJDILHJFNKE": -1.0
            },
            {
              "$type": "HBNEMPLJCMB"
            }
          ],
          "onRemoved": [
            {
              "$type": "FireEffect",
              "rotationDampTime": "Eff_SceneObj_CameraActiveOperator_01_Disappear",
              "PPPDJGDDOGD": 1.0,
              "AJDILHJFNKE": -1.0
            },
            {
              "$type": "HBNEMPLJCMB",
              "hide": true
            }
          ]
        },
        "Opeartor_Hide": {
          "modifierName": "",
          "elementDurability": 100.0
        },
        "UIPage_Open": {
          "modifierName": "",
          "duration": 1.0,
          "elementDurability": 100.0,
          "onAdded": [
            {
              "$type": "HPIDNBEGJLL",
              "state": 201
            }
          ]
        },
        "UIPage_Close": {
          "modifierName": "",
          "duration": 1.0,
          "elementDurability": 100.0,
          "onAdded": [
            {
              "$type": "HPIDNBEGJLL"
            }
          ]
        }
      },
      "onAdded": [
        {
          "$type": "AttachModifier",
          "modifierName": "Opeartor_Recover"
        }
      ]
    }
  },
  {
    "Default": {
      "$type": "ConfigAbility",
      "abilityName": "SceneObj_Area_Fd_Property_Ani_Prop_LuminousBoostRing_01",
      "modifiers": {
        "OceanCurrentBoost_Avatar_Eff": {
          "stacking": "MultipleRefresh",
          "stackingOption": {
            "abilitySpecialName": "",
            "maxModifierNumForMultipleType": 1.0
          },
          "modifierName": "",
          "duration": 4.0,
          "elementDurability": 100.0,
          "properties": {
            "Animator_MoveSpeedRatio": 0.5
          },
          "onAdded": [
            {
              "$type": "FireEffect",
              "rotationDampTime": "Eff_SceneObj_SpeedUp_Ring_Dash",
              "PPPDJGDDOGD": 1.0,
              "AJDILHJFNKE": -1.0
            },
            {
              "$type": "AttachEffect",
              "rotationDampTime": "Eff_SceneObj_SpeedWaterBall_Buff_01_State",
              "PPPDJGDDOGD": 1.0,
              "AJDILHJFNKE": -1.0
            },
            {
              "$type": "ApplyModifier",
              "modifierName": "OceanCurrentBoost_Avatar_Eff_Disappear"
            },
            {
              "$type": "SendEffectTrigger",
              "parameter": "State",
              "attachPoint": "",
              "damageRatio": "Int",
              "value": 203,
              "rotationDampTime": "Eff_SceneObj_SpeedWaterBall_Buff_01_State"
            }
          ]
        },
        "OceanCurrentBoost_Avatar_Eff_Disappear": {
          "stacking": "MultipleRefresh",
          "stackingOption": {
            "abilitySpecialName": "",
            "maxModifierNumForMultipleType": 1.0
          },
          "modifierName": "",
          "duration": 2.799999952316284,
          "elementDurability": 100.0,
          "onRemoved": [
            {
              "$type": "SendEffectTrigger",
              "parameter": "State",
              "attachPoint": "",
              "damageRatio": "Int",
              "rotationDampTime": "Eff_SceneObj_SpeedWaterBall_Buff_01_State"
            }
          ]
        },
        "OceanCurrentBoost_DelayKill": {
          "modifierName": "",
          "duration": 1.0,
          "elementDurability": 100.0,
          "onRemoved": [
            {
              "$type": "KillSelf",
              "shieldHP": true
            }
          ]
        },
        "OceanCurrentBoost_Eff": {
          "modifierName": "",
          "elementDurability": 100.0,
          "onAdded": [
            {
              "$type": "AttachEffect",
              "rotationDampTime": "Eff_SceneObj_SpeedWaterBall_Idle_01_CY",
              "PPPDJGDDOGD": 1.0,
              "AJDILHJFNKE": -1.0
            }
          ],
          "onRemoved": [
            {
              "$type": "FireEffect",
              "rotationDampTime": "Eff_SceneObj_SpeedWaterBall_Idle_01_DS",
              "PPPDJGDDOGD": 1.0,
              "AJDILHJFNKE": -1.0
            }
          ]
        }
      },
      "onAdded": [
        {
          "$type": "AttachModifier",
          "modifierName": "OceanCurrentBoost_Eff"
        }
      ],
      "onFieldEnter": [
        {
          "$type": "RemoveModifier",
          "modifierName": "OceanCurrentBoost_Eff"
        },
        {
          "$type": "ApplyModifier",
          "modifierName": "OceanCurrentBoost_DelayKill"
        },
        {
          "$type": "ApplyModifier",
          "target": "Target",
          "modifierName": "OceanCurrentBoost_Avatar_Eff"
        }
      ]
    }
  },
  {
    "Default": {
      "$type": "ConfigAbility",
      "abilityName": "ActivityAbility_QuickTimeCombat_V1",
      "modifiers": {
        "QTE_Reset_Camera_Handler": {
          "modifierName": "",
          "duration": 1.0,
          "elementDurability": 100.0,
          "onRemoved": [
            {
              "$type": "ApplyModifier",
              "target": "CurLocalAvatar",
              "modifierName": "QTE_Reset_Camera"
            }
          ]
        },
        "QTE_Reset_Camera": {
          "modifierName": "",
          "duration": 1.0,
          "elementDurability": 100.0,
          "onAdded": [
            {
              "$type": "IAIFMNLBCCI",
              "frameDelay": 1
            }
          ]
        }
      },
      "onAdded": [
        {
          "$type": "MMEOBGGBNLK",
          "skillID": 20066
        },
        {
          "$type": "NPGCEEJFDEM",
          "enable": true
        }
      ],
      "onRemoved": [
        {
          "$type": "MMEOBGGBNLK"
        },
        {
          "$type": "ApplyModifier",
          "target": "Team",
          "modifierName": "QTE_Reset_Camera_Handler"
        }
      ],
      "onAbilityStart": [
        {
          "$type": "LIAKJHCLFLK"
        },
        {
          "$type": "OMDOKHGGHKJ",
          "target": "CurLocalAvatar",
          "predicates": [
            {
              "$type": "ByEntityIsAlive",
              "target": "CurLocalAvatar"
            }
          ],
          "cfgPath": "UI/open_QuickTimeCombat_V1_page"
        },
        {
          "$type": "SetGlobalValue",
          "target": "Team",
          "value": 0.0,
          "key": "GV_Activity_QuickTimeCombat_QTETriggerCJB",
          "maxValue": 0.0,
          "minValue": 0.0
        },
        {
          "$type": "DebugLog",
          "content": "## TD: T键触发 - QuickTimeCombat_V1"
        }
      ],
      "isDynamicAbility": true
    }
  },
  {
    "Default": {
      "$type": "ConfigAbility",
      "abilityName": "ActivityAbility_QuickTimeCombat_ClientCall",
      "onAbilityStart": [
        {
          "$type": "AHPEKICBIIL",
          "luaCallType": "CurGalleryControlGroup",
          "funcName": "SLC_QTE_Client_Judge_Finish",
          "param1": 0.0,
          "MGAMDEHMCOL": 0.0,
          "MMHOHAOGPLP": 0.0
        }
      ],
      "isDynamicAbility": true
    }
  },
  {
    "Default": {
      "$type": "ConfigAbility",
      "abilityName": "SceneObj_Area_Common_Property_Ani_Prop_Leaves_01",
      "abilityMixins": [
        {
          "$type": "AttachToGadgetStateMixin",
          "modifierName": "Leaves_Effect_0"
        },
        {
          "$type": "AttachToGadgetStateMixin",
          "gadgetState": 201,
          "modifierName": "Leaves_Effect_201"
        }
      ],
      "modifiers": {
        "Leaves_Effect_0": {
          "modifierName": "",
          "elementDurability": 100.0,
          "onAdded": [
            {
              "$type": "AttachEffect",
              "rotationDampTime": "Eff_SceneObj_Property_Ani_Prop_Leaves_01_Water_Stop",
              "PPPDJGDDOGD": 1.0,
              "AJDILHJFNKE": -1.0
            }
          ]
        },
        "Leaves_Effect_201": {
          "modifierName": "",
          "elementDurability": 100.0,
          "onAdded": [
            {
              "$type": "AttachEffect",
              "rotationDampTime": "Eff_SceneObj_Property_Ani_Prop_Leaves_01_Water",
              "PPPDJGDDOGD": 1.0,
              "AJDILHJFNKE": -1.0
            }
          ]
        }
      }
    }
  },
  {
    "Default": {
      "$type": "ConfigAbility",
      "abilityName": "SceneObj_Area_Fd_Property_Ani_Prop_LuminousMark_01",
      "modifiers": {
        "RefreshBillboard": {
          "modifierName": "",
          "duration": 0.10000000149011612,
          "elementDurability": 100.0,
          "onAdded": [
            {
              "$type": "HBNEMPLJCMB",
              "hide": true
            }
          ],
          "onRemoved": [
            {
              "$type": "HBNEMPLJCMB"
            }
          ]
        }
      },
      "onAdded": [
        {
          "$type": "ApplyModifier",
          "modifierName": "RefreshBillboard"
        }
      ]
    }
  },
  {
    "Default": {
      "$type": "ConfigAbility",
      "abilityName": "SceneObj_Area_Common_Property_Prop_QTEAirWall_01",
      "modifiers": {
        "QTEAirWall_Effect": {
          "modifierName": "",
          "elementDurability": 100.0,
          "onAdded": [
            {
              "$type": "AttachEffect",
              "rotationDampTime": "Eff_SceneObj_Airwall_QTEDungeon_01",
              "PPPDJGDDOGD": 1.0,
              "AJDILHJFNKE": -1.0
            }
          ]
        }
      },
      "onAdded": [
        {
          "$type": "ApplyModifier",
          "modifierName": "QTEAirWall_Effect"
        }
      ]
    }
  }
]
