[
  {
    "Default": {
      "$type": "ConfigAbility",
      "abilityName": "Ability_Golden_Hall",
      "abilityMixins": [
        {
          "$type": "CurLocalAvatarMixinV2",
          "modifierName": "Avatar_GoldenHall_Fly"
        }
      ],
      "abilitySpecials": {
        "tempGV_key_0": 0.0
      },
      "modifiers": {
        "Avatar_GoldenHall_Fly": {
          "modifierName": "",
          "elementDurability": 100.0,
          "modifierMixins": [
            {
              "$type": "AttachToStateIDMixin",
              "stateIDs": ["ActivitySkill_CommonMove"],
              "modifierName": "InFly",
              "DGFCLAIDIFI": ""
            },
            {
              "$type": "AttachModifierToGlobalValueMixin",
              "globalValueKey": "GV_IsInFly",
              "valueSteps": [-0.5, 0.5, 1.5],
              "modifierNameSteps": ["GV_IsInFly_0", "GV_IsInFly_1"]
            },
            {
              "$type": "ReplaceEventPatternMixin",
              "oldPatterns": [
                "PlayMusic_Lyre_Boy",
                "PlayMusic_Lyre_Girl",
                "PlayMusic_Lyre_Boy_AS",
                "PlayMusic_Lyre_Girl_AS"
              ],
              "newPatterns": [
                "PlayMusic_GoldenHall_Qin_Boy",
                "PlayMusic_GoldenHall_Qin_Girl",
                "PlayMusic_GoldenHall_Qin_Boy_AS",
                "PlayMusic_GoldenHall_Qin_Girl_AS"
              ]
            }
          ],
          "onAdded": [
            {
              "$type": "FNPMFLOOCDD",
              "value": 0.0,
              "key": "GV_IsInFly",
              "maxValue": 0.0,
              "minValue": 0.0
            }
          ]
        },
        "InFly": {
          "modifierName": "",
          "elementDurability": 100.0,
          "onAdded": [
            {
              "$type": "DebugLog",
              "content": "Golden_Hall InFly onAdd"
            },
            {
              "$type": "FNPMFLOOCDD",
              "shieldHP": true,
              "value": 1.0,
              "key": "GV_IsInFly",
              "maxValue": 0.0,
              "minValue": 0.0
            }
          ],
          "onRemoved": [
            {
              "$type": "DebugLog",
              "content": "Golden_Hall InFly onRemoved"
            },
            {
              "$type": "FNPMFLOOCDD",
              "shieldHP": true,
              "value": 0.0,
              "key": "GV_IsInFly",
              "maxValue": 0.0,
              "minValue": 0.0
            }
          ]
        },
        "GV_IsInFly_0": {
          "modifierName": "",
          "elementDurability": 100.0,
          "thinkInterval": 1.0,
          "onAdded": [
            {
              "$type": "KillGadget",
              "shieldHP": true,
              "gadgetInfo": {
                "sortType": "Reversed",
                "configID": 70330847
              }
            }
          ],
          "onThinkInterval": [
            {
              "$type": "KillGadget",
              "shieldHP": true,
              "gadgetInfo": {
                "sortType": "Reversed",
                "configID": 70330847
              }
            }
          ]
        },
        "GV_IsInFly_1": {
          "modifierName": "",
          "elementDurability": 100.0,
          "modifierMixins": [
            {
              "$type": "OPHOIJLIFCL",
              "tag": "RollerCoaster",
              "FIOMFMFOABF": ["TEST_GV_0", "TEST_GV_1"],
              "OADPFPBHBPM": [
                "StartCustomCameraList",
                "SetCameraOffset",
                "SetGroupVariable",
                "GoToStage3_GoldenHall"
              ],
              "FBHDNPJFANK": [
                [
                  {
                    "$type": "DebugLog",
                    "content": "LevelCurveMixin > StartCustomCameraList"
                  },
                  {
                    "$type": "MNJCJLCFFLF",
                    "JCANGOGMHCP": "TEST_GV_"
                  },
                  {
                    "$type": "Predicated",
                    "otherTargets": {
                      "$type": "PBLNLAENOGB",
                      "topLimit": 1,
                      "sortType": "Nearest",
                      "tag": "GoldenHall_Interact_Desk"
                    },
                    "successActions": [
                      {
                        "$type": "SetGlobalValueToOverrideMap",
                        "globalValueKey": "TEST_GV_0",
                        "overrideMapKey": "tempGV_key_0"
                      },
                      {
                        "$type": "SetGlobalValue",
                        "target": "Other",
                        "shieldHP": true,
                        "value": "tempGV_key_0",
                        "key": "Cam_ID",
                        "maxValue": 0.0,
                        "minValue": 0.0
                      },
                      {
                        "$type": "AddGlobalValue",
                        "target": "Other",
                        "value": 1.0,
                        "key": "Cam_Trigger",
                        "maxValue": 0.0,
                        "minValue": 0.0
                      }
                    ]
                  }
                ],
                [
                  {
                    "$type": "DebugLog",
                    "content": "LevelCurveMixin > SetCameraOffset"
                  },
                  {
                    "$type": "MNJCJLCFFLF",
                    "JCANGOGMHCP": "TEST_GV_"
                  },
                  {
                    "$type": "OIGCBOKOFAB",
                    "predicates": [
                      {
                        "$type": "ByTargetGlobalValue",
                        "key": "TEST_GV_0",
                        "value": 0.0
                      }
                    ],
                    "lerpInTime": 1.0,
                    "CIJLABMEGDC": 0,
                    "AMHMIBBMEPM": 60.0,
                    "AFIGGDOGGLE": 60.0,
                    "fov": 65.0,
                    "CJAKKMPCONN": true
                  },
                  {
                    "$type": "OIGCBOKOFAB",
                    "predicates": [
                      {
                        "$type": "ByTargetGlobalValue",
                        "key": "TEST_GV_0",
                        "value": 1.0
                      }
                    ],
                    "KJLKOGKCGLG": {
                      "y": -2.0
                    },
                    "GGHMICHNDIL": {
                      "y": 10.0
                    },
                    "lerpInTime": 2.0,
                    "CIJLABMEGDC": 0,
                    "AMHMIBBMEPM": 60.0,
                    "AFIGGDOGGLE": 60.0,
                    "fov": 75.0,
                    "CJAKKMPCONN": true
                  },
                  {
                    "$type": "OIGCBOKOFAB",
                    "predicates": [
                      {
                        "$type": "ByTargetGlobalValue",
                        "key": "TEST_GV_0",
                        "value": 2.0
                      }
                    ],
                    "GGHMICHNDIL": {
                      "x": 89.0,
                      "y": -25.0
                    },
                    "lerpInTime": 1.0,
                    "CIJLABMEGDC": 3,
                    "AMHMIBBMEPM": 10.0,
                    "AFIGGDOGGLE": 10.0,
                    "fov": 75.0,
                    "CJAKKMPCONN": true
                  },
                  {
                    "$type": "OIGCBOKOFAB",
                    "predicates": [
                      {
                        "$type": "ByTargetGlobalValue",
                        "key": "TEST_GV_0",
                        "value": 3.0
                      }
                    ],
                    "KJLKOGKCGLG": {
                      "z": -1.0
                    },
                    "GGHMICHNDIL": {
                      "x": 30.0,
                      "y": -15.0
                    },
                    "lerpInTime": 1.0,
                    "CIJLABMEGDC": 0,
                    "AMHMIBBMEPM": 60.0,
                    "AFIGGDOGGLE": 60.0,
                    "fov": 75.0,
                    "CJAKKMPCONN": true
                  },
                  {
                    "$type": "OIGCBOKOFAB",
                    "predicates": [
                      {
                        "$type": "ByTargetGlobalValue",
                        "key": "TEST_GV_0",
                        "value": 4.0
                      }
                    ],
                    "KJLKOGKCGLG": {
                      "z": -1.0
                    },
                    "GGHMICHNDIL": {
                      "x": 60.0,
                      "y": 10.0
                    },
                    "lerpInTime": 1.0,
                    "CIJLABMEGDC": 0,
                    "AMHMIBBMEPM": 60.0,
                    "AFIGGDOGGLE": 60.0,
                    "fov": 75.0,
                    "CJAKKMPCONN": true
                  },
                  {
                    "$type": "OIGCBOKOFAB",
                    "predicates": [
                      {
                        "$type": "ByTargetGlobalValue",
                        "key": "TEST_GV_0",
                        "value": 5.0
                      }
                    ],
                    "GGHMICHNDIL": {
                      "y": 20.0
                    },
                    "lerpInTime": 1.0,
                    "CIJLABMEGDC": 0,
                    "AMHMIBBMEPM": 60.0,
                    "AFIGGDOGGLE": 60.0,
                    "fov": 75.0,
                    "BIOKGCDEHFI": 6.0,
                    "CJAKKMPCONN": true
                  },
                  {
                    "$type": "OIGCBOKOFAB",
                    "predicates": [
                      {
                        "$type": "ByTargetGlobalValue",
                        "key": "TEST_GV_0",
                        "value": 6.0
                      }
                    ],
                    "KJLKOGKCGLG": {
                      "y": -2.0
                    },
                    "GGHMICHNDIL": {
                      "y": 5.0
                    },
                    "lerpInTime": 1.0,
                    "CIJLABMEGDC": 0,
                    "AMHMIBBMEPM": 60.0,
                    "AFIGGDOGGLE": 60.0,
                    "fov": 75.0,
                    "BIOKGCDEHFI": 10.0,
                    "CJAKKMPCONN": true
                  },
                  {
                    "$type": "OIGCBOKOFAB",
                    "predicates": [
                      {
                        "$type": "ByTargetGlobalValue",
                        "key": "TEST_GV_0",
                        "value": 7.0
                      }
                    ],
                    "KJLKOGKCGLG": {
                      "y": -1.0
                    },
                    "GGHMICHNDIL": {
                      "y": -10.0
                    },
                    "lerpInTime": 1.0,
                    "CIJLABMEGDC": 0,
                    "AMHMIBBMEPM": 60.0,
                    "AFIGGDOGGLE": 60.0,
                    "fov": 75.0,
                    "BIOKGCDEHFI": 8.0,
                    "CJAKKMPCONN": true
                  },
                  {
                    "$type": "OIGCBOKOFAB",
                    "predicates": [
                      {
                        "$type": "ByTargetGlobalValue",
                        "key": "TEST_GV_0",
                        "value": 8.0
                      }
                    ],
                    "lerpInTime": 0.0,
                    "CIJLABMEGDC": 0,
                    "AMHMIBBMEPM": 30.0,
                    "AFIGGDOGGLE": 30.0,
                    "BIOKGCDEHFI": 8.0,
                    "CJAKKMPCONN": true
                  }
                ],
                [
                  {
                    "$type": "DebugLog",
                    "content": "LevelCurveMixin > SetGroupVariable"
                  },
                  {
                    "$type": "MNJCJLCFFLF",
                    "JCANGOGMHCP": "TEST_GV_"
                  },
                  {
                    "$type": "SetGlobalValueToOverrideMap",
                    "globalValueKey": "TEST_GV_0",
                    "overrideMapKey": "TEST_GV_0"
                  },
                  {
                    "$type": "SetGlobalValueToOverrideMap",
                    "globalValueKey": "TEST_GV_1",
                    "overrideMapKey": "TEST_GV_1"
                  },
                  {
                    "$type": "AHPEKICBIIL",
                    "luaCallType": "SpecificGroup",
                    "callParamList": [511020002],
                    "funcName": "SLC_GoldenHall_SetVar",
                    "paramNum": 2,
                    "param1": 0,
                    "MGAMDEHMCOL": "TEST_GV_1",
                    "MMHOHAOGPLP": 0.0
                  }
                ],
                [
                  {
                    "$type": "NBJOOJMEDPD",
                    "uiContextName": "GoldenHall",
                    "message": "GoToStage3",
                    "stringParam": "1449.86,-404.5424,3566.42|1,0,0"
                  }
                ]
              ]
            }
          ],
          "state": "IsGhostToEnemy",
          "onAdded": [
            {
              "$type": "CreateGadget",
              "shieldHP": true,
              "born": {
                "$type": "ConfigBornBySelf",
                "useRotation": true
              },
              "gadgetID": 70330847
            }
          ],
          "onRemoved": [
            {
              "$type": "KillGadget",
              "shieldHP": true,
              "gadgetInfo": {
                "sortType": "Reversed",
                "configID": 70330847
              }
            }
          ]
        }
      },
      "isDynamicAbility": true
    }
  },
  {
    "Default": {
      "$type": "ConfigAbility",
      "abilityName": "GoldenHall_Avatar_Control",
      "abilityMixins": [
        {
          "$type": "DoActionOnGlobalValueChangeMixin",
          "globalValueKey": "ExitCameTrigger",
          "actions": [
            {
              "$type": "AvatarExitCameraShot",
              "shieldHP": true,
              "shotType": "LEVEL"
            }
          ]
        },
        {
          "$type": "EJNMIOFDIGF",
          "onStageReady": [
            {
              "$type": "DebugLog",
              "content": "GoldenHall > StageReady"
            },
            {
              "$type": "IIGGCBAOAAK",
              "shieldHP": true,
              "value": 1.0,
              "key": "ExitCameTrigger",
              "maxValue": 0.0,
              "minValue": 0.0
            }
          ]
        }
      ],
      "modifiers": {
        "Controller": {
          "modifierName": "",
          "elementDurability": 100.0
        },
        "Blank": {
          "modifierName": "",
          "elementDurability": 100.0
        }
      },
      "isDynamicAbility": true
    }
  },
  {
    "Default": {
      "$type": "ConfigAbility",
      "abilityName": "SceneObj_GoldenHall_Stop_Point",
      "abilityMixins": [
        {
          "$type": "AttachToGadgetStateMixin",
          "modifierName": "Controller"
        }
      ],
      "modifiers": {
        "Controller": {
          "modifierName": "",
          "elementDurability": 100.0,
          "modifierMixins": [
            {
              "$type": "FGOMAAPPLIB",
              "IMMEMIMOOOG": [
                {
                  "$type": "DebugLog",
                  "content": "RollerCoasterStationMixin > OnArrived"
                },
                {
                  "$type": "Predicated",
                  "targetPredicates": [
                    {
                      "$type": "ByAny",
                      "predicates": [
                        {
                          "$type": "HNLCJOPBDLC",
                          "target": "Self"
                        },
                        {
                          "$type": "ByTargetGlobalValue",
                          "target": "Self",
                          "key": "SGV_Stopover",
                          "value": 1.0
                        }
                      ]
                    }
                  ],
                  "successActions": [
                    {
                      "$type": "PJNICGLNNFJ",
                      "target": "CurLocalAvatar"
                    }
                  ]
                }
              ]
            }
          ]
        }
      }
    }
  },
  {
    "Default": {
      "$type": "ConfigAbility",
      "abilityName": "SceneObj_GoldenHall_Bee_Group_02",
      "modifiers": {
        "Controller": {
          "modifierName": "",
          "elementDurability": 100.0,
          "onAdded": [
            {
              "$type": "AttachEffect",
              "rotationDampTime": "Eff_Stages_SceneObj_VABoids_BeeGhostGroupJSDT_01",
              "PPPDJGDDOGD": 1.0,
              "AJDILHJFNKE": -1.0
            }
          ]
        }
      },
      "onAdded": [
        {
          "$type": "AttachModifier",
          "modifierName": "Controller"
        }
      ]
    }
  },
  {
    "Default": {
      "$type": "ConfigAbility",
      "abilityName": "SceneObj_GoldenHall_Bee_Group_03",
      "modifiers": {
        "Controller": {
          "modifierName": "",
          "elementDurability": 100.0,
          "onAdded": [
            {
              "$type": "AttachEffect",
              "rotationDampTime": "Eff_Stages_SceneObj_VABoids_BeeGhostGroupJSDTFinal_01",
              "PPPDJGDDOGD": 1.0,
              "AJDILHJFNKE": -1.0
            }
          ]
        }
      },
      "onAdded": [
        {
          "$type": "AttachModifier",
          "modifierName": "Controller"
        }
      ]
    }
  },
  {
    "Default": {
      "$type": "ConfigAbility",
      "abilityName": "SceneObj_GoldenHall_SmallStage_Bee_Group_01",
      "abilityMixins": [
        {
          "$type": "AttachToGadgetStateMixin",
          "modifierName": "Controller"
        }
      ],
      "modifiers": {
        "Controller": {
          "modifierName": "",
          "elementDurability": 100.0,
          "onAdded": [
            {
              "$type": "AttachEffect",
              "rotationDampTime": "Eff_Stages_SceneObj_VABoids_BeeGhostGroupJSDTLittle_01",
              "PPPDJGDDOGD": 1.0,
              "AJDILHJFNKE": -1.0
            }
          ]
        }
      },
      "onKill": [
        {
          "$type": "SendEffectTrigger",
          "parameter": "FadeOut",
          "attachPoint": "",
          "value": 1,
          "rotationDampTime": "Eff_Stages_SceneObj_VABoids_BeeGhostGroupJSDTLittle_01"
        }
      ]
    }
  },
  {
    "Default": {
      "$type": "ConfigAbility",
      "abilityName": "SceneObj_Area_SuperBigWhale_GoldenHall",
      "abilityMixins": [
        {
          "$type": "AttachToGadgetStateMixin",
          "modifierName": "Controller"
        }
      ],
      "modifiers": {
        "Controller": {
          "modifierName": "",
          "elementDurability": 100.0,
          "modifierMixins": [
            {
              "$type": "OPHOIJLIFCL",
              "tag": "OceanShip",
              "FIOMFMFOABF": ["TEST_GV_0", "TEST_GV_1"],
              "OADPFPBHBPM": ["SetGroupVariable"],
              "FBHDNPJFANK": [
                [
                  {
                    "$type": "DebugLog",
                    "content": "LevelCurveMixin > SetGroupVariable"
                  },
                  {
                    "$type": "MNJCJLCFFLF",
                    "JCANGOGMHCP": "TEST_GV_"
                  },
                  {
                    "$type": "SetGlobalValueToOverrideMap",
                    "globalValueKey": "TEST_GV_0",
                    "overrideMapKey": "TEST_GV_0"
                  },
                  {
                    "$type": "SetGlobalValueToOverrideMap",
                    "globalValueKey": "TEST_GV_1",
                    "overrideMapKey": "TEST_GV_1"
                  },
                  {
                    "$type": "AHPEKICBIIL",
                    "luaCallType": "SpecificGroup",
                    "callParamList": [511020002],
                    "funcName": "SLC_GoldenHall_SetVar",
                    "paramNum": 2,
                    "param1": 0,
                    "MGAMDEHMCOL": "TEST_GV_1",
                    "MMHOHAOGPLP": 0.0
                  }
                ]
              ]
            }
          ]
        }
      },
      "onAdded": [
        {
          "$type": "SetAnimatorBool",
          "boolID": "NoFogMat",
          "value": true
        }
      ]
    }
  },
  {
    "Default": {
      "$type": "ConfigAbility",
      "abilityName": "SceneObj_GoldenWay_Starter",
      "abilityMixins": [
        {
          "$type": "AttachToGadgetStateMixin",
          "modifierName": "Normal"
        },
        {
          "$type": "AttachToGadgetStateMixin",
          "gadgetState": 201,
          "modifierName": "Active"
        },
        {
          "$type": "AttachToGadgetStateMixin",
          "gadgetState": 202,
          "modifierName": "DeActive"
        }
      ],
      "modifiers": {
        "Normal": {
          "modifierName": "",
          "elementDurability": 100.0,
          "modifierMixins": [
            {
              "$type": "GPCGHACDPIF",
              "NLIOHMNJBAM": ""
            }
          ],
          "onAdded": [
            {
              "$type": "AttachEffect",
              "rotationDampTime": "Eff_SceneObj_GoldenChannelLauncher_Hint",
              "PPPDJGDDOGD": 1.0,
              "AJDILHJFNKE": -1.0
            }
          ],
          "onRemoved": [
            {
              "$type": "FireEffect",
              "rotationDampTime": "Eff_SceneObj_GoldenChannelLauncher_Active",
              "PPPDJGDDOGD": 1.0,
              "AJDILHJFNKE": -1.0
            },
            {
              "$type": "SetAnimatorTrigger",
              "triggerID": "Active"
            }
          ]
        },
        "Active": {
          "modifierName": "",
          "elementDurability": 100.0,
          "modifierMixins": [
            {
              "$type": "GPCGHACDPIF",
              "DPAOMNELPHI": 1,
              "NLIOHMNJBAM": ""
            }
          ]
        },
        "DeActive": {
          "modifierName": "",
          "elementDurability": 100.0,
          "modifierMixins": [
            {
              "$type": "GPCGHACDPIF",
              "NLIOHMNJBAM": ""
            }
          ]
        }
      },
      "onAdded": [
        {
          "$type": "AOOCGNCCAJB",
          "isAdd": true,
          "tag": "IS_LMS_WHALE_SCAN_TARGET"
        }
      ]
    }
  },
  {
    "Default": {
      "$type": "ConfigAbility",
      "abilityName": "SceneObj_FlashBack_Cam_Follow",
      "abilityMixins": [
        {
          "$type": "AttachToGadgetStateMixin",
          "modifierName": "Controller"
        },
        {
          "$type": "AttachToGadgetStateMixin",
          "gadgetState": 201,
          "modifierName": "LookState"
        },
        {
          "$type": "AttachToGadgetStateMixin",
          "gadgetState": 202,
          "modifierName": "LookState_2"
        }
      ],
      "modifiers": {
        "Controller": {
          "modifierName": "",
          "elementDurability": 100.0
        },
        "LookState": {
          "modifierName": "",
          "elementDurability": 100.0,
          "onAdded": [
            {
              "$type": "NDBEJPAICDN",
              "CIGMAPMEPBH": "RootNode",
              "LGEAGJKKDLM": "PivotToTarget",
              "JHCGCHLKIKB": 999.0
            }
          ],
          "onRemoved": [
            {
              "$type": "NDBEJPAICDN",
              "CIGMAPMEPBH": "RootNode",
              "JHCGCHLKIKB": 999.0
            }
          ]
        },
        "LookState_2": {
          "modifierName": "",
          "elementDurability": 100.0,
          "onAdded": [
            {
              "$type": "NDBEJPAICDN",
              "CIGMAPMEPBH": "RootNode",
              "LGEAGJKKDLM": "PivotToTarget",
              "JHCGCHLKIKB": 5.0
            }
          ],
          "onRemoved": [
            {
              "$type": "NDBEJPAICDN",
              "CIGMAPMEPBH": "RootNode"
            }
          ]
        }
      }
    }
  },
  {
    "Default": {
      "$type": "ConfigAbility",
      "abilityName": "SceneObj_GoldenHall_Pigeon_Avatar_Follow",
      "modifiers": {
        "Controller": {
          "modifierName": "",
          "elementDurability": 100.0,
          "thinkInterval": 0.20000000298023224,
          "onAdded": [
            {
              "$type": "AttachEffect",
              "rotationDampTime": "Eff_SceneObj_PigeonGhostSingle_Idle",
              "PPPDJGDDOGD": 1.0,
              "AJDILHJFNKE": -1.0
            },
            {
              "$type": "AttachEffect",
              "rotationDampTime": "Eff_SceneObj_PigeonGhostSingle_Trail_01",
              "PPPDJGDDOGD": 1.0,
              "AJDILHJFNKE": -1.0
            },
            {
              "$type": "FireEffect",
              "rotationDampTime": "Eff_SceneObj_PigeonGhost_01_Appear",
              "PPPDJGDDOGD": 1.0,
              "AJDILHJFNKE": -1.0
            },
            {
              "$type": "SetAnimatorInt",
              "intID": "GadgetState",
              "value": 201.0
            },
            {
              "$type": "SetAnimatorInt",
              "intID": "IsFlying",
              "value": 1.0
            }
          ],
          "onThinkInterval": [
            {
              "$type": "SetAnimatorInt",
              "intID": "GadgetState",
              "value": 201.0
            },
            {
              "$type": "SetAnimatorInt",
              "intID": "IsFlying",
              "value": 1.0
            }
          ]
        }
      },
      "onAdded": [
        {
          "$type": "AttachModifier",
          "modifierName": "Controller"
        }
      ]
    }
  },
  {
    "Default": {
      "$type": "ConfigAbility",
      "abilityName": "SceneObj_GoldenHall_Interact_Desk",
      "abilityMixins": [
        {
          "$type": "AttachToGadgetStateMixin",
          "modifierName": "Normal"
        },
        {
          "$type": "AttachToGadgetStateMixin",
          "gadgetState": 201,
          "modifierName": "DelayEnterQTE"
        },
        {
          "$type": "AttachModifierToSelfGlobalValueNoInitMixin",
          "globalValueKey": "SGV_Main_Stage",
          "valueSteps": [0.5, 1.5, 2.5],
          "modifierNameSteps": ["MainStage_1", "MainStage_2"],
          "NMCLMHFBALJ": true
        },
        {
          "$type": "DoActionOnGlobalValueChangeMixin",
          "globalValueKey": "Cam_Trigger",
          "actions": [
            {
              "$type": "EnableHeadControl",
              "predicates": [
                {
                  "$type": "ByTargetGlobalValue",
                  "key": "Cam_ID",
                  "value": 1.0
                }
              ],
              "cameraMoveCfgPath": "Camera_Gadget_GoldenHall_4",
              "shotType": "LEVEL"
            }
          ]
        }
      ],
      "abilitySpecials": {
        "local_Success_Target": 0.0,
        "local_Stage_ID": 0.0,
        "local_GoldenHall_Var": 0.0,
        "temp_player_stage": 0.0
      },
      "modifiers": {
        "MainStage_1": {
          "modifierName": "",
          "elementDurability": 100.0
        },
        "MainStage_2": {
          "modifierName": "",
          "elementDurability": 100.0,
          "onAdded": [
            {
              "$type": "NBJOOJMEDPD",
              "uiContextName": "GoldenHall",
              "message": "GoToStage2",
              "stringParam": ""
            }
          ]
        },
        "Normal": {
          "modifierName": "",
          "elementDurability": 100.0
        },
        "DelayEnterQTE": {
          "modifierName": "",
          "duration": 0.10000000149011612,
          "elementDurability": 100.0,
          "onAdded": [
            {
              "$type": "RemoveModifier",
              "modifierName": "State_QTE"
            },
            {
              "$type": "SetGlobalValue",
              "value": 1.0,
              "key": "GV_Player_Stage",
              "maxValue": 0.0,
              "minValue": 0.0
            }
          ],
          "onRemoved": [
            {
              "$type": "ApplyModifier",
              "modifierName": "State_QTE"
            }
          ]
        },
        "State_QTE": {
          "modifierName": "",
          "elementDurability": 100.0,
          "modifierMixins": [
            {
              "$type": "AFKJBKENIAG",
              "EBCKPIMEJJH": {
                "$type": "GGIHANKFOIB",
                "JCBNFAAONMJ": "GoldenHall",
                "ECLDAEIMAKF": {
                  "x": 1509.990966796875,
                  "y": -414.64471435546875,
                  "z": 3566.3720703125
                },
                "JOFDBKEGLFE": {
                  "x": -1.0
                },
                "KOJKAGOFPLL": "SceneObj_GoldenHall_QTE_Goal",
                "IKHINPHGFKH": "SceneObj_GoldenHall_QTE_Goal_Fail"
              }
            },
            {
              "$type": "LBNFFHKFNPH",
              "BKHIKMKKBFH": "SuccessCheck",
              "actionQueue": [
                {
                  "$type": "DebugLog",
                  "content": "金色大厅qte SuccessCheck"
                },
                {
                  "$type": "Predicated",
                  "targetPredicates": [
                    {
                      "$type": "ByTargetGlobalValue",
                      "key": "GV_Success_Counter",
                      "value": "local_Success_Target",
                      "compareType": "MoreThanAndEqual"
                    }
                  ],
                  "successActions": [
                    {
                      "$type": "OPMNNFHMHFH",
                      "eventKey": "NextStage",
                      "globalValueKey": "GV_Player_Stage"
                    },
                    {
                      "$type": "SetGlobalValueToOverrideMap",
                      "globalValueKey": "GV_Player_Stage",
                      "overrideMapKey": "local_Stage_ID"
                    },
                    {
                      "$type": "AHPEKICBIIL",
                      "luaCallType": "FromGroup",
                      "funcName": "SLC_GoToNextStage",
                      "paramNum": 1,
                      "param1": 0,
                      "MGAMDEHMCOL": 0.0,
                      "MMHOHAOGPLP": 0.0
                    }
                  ]
                }
              ]
            },
            {
              "$type": "LBNFFHKFNPH",
              "BKHIKMKKBFH": "GroupSLC",
              "actionQueue": [
                {
                  "$type": "DebugLog",
                  "content": "金色大厅qte GroupSLC"
                },
                {
                  "$type": "OPMNNFHMHFH",
                  "eventKey": "GoldenHall_Var",
                  "globalValueKey": "GV_GoldenHall_Var"
                },
                {
                  "$type": "SetGlobalValueToOverrideMap",
                  "globalValueKey": "GV_GoldenHall_Var",
                  "overrideMapKey": "local_GoldenHall_Var"
                },
                {
                  "$type": "AHPEKICBIIL",
                  "luaCallType": "SpecificGroup",
                  "callParamList": [511020002],
                  "funcName": "SLC_GoldenHall_SetVar",
                  "paramNum": 2,
                  "param1": 0.0,
                  "MGAMDEHMCOL": "local_GoldenHall_Var",
                  "MMHOHAOGPLP": 0.0
                }
              ]
            },
            {
              "$type": "LBNFFHKFNPH",
              "BKHIKMKKBFH": "CheckSuccAndSLC",
              "actionQueue": [
                {
                  "$type": "DebugLog",
                  "content": "金色大厅qte CheckSuccAndSLC"
                },
                {
                  "$type": "Predicated",
                  "targetPredicates": [
                    {
                      "$type": "ByTargetGlobalValue",
                      "key": "GV_Success_Counter",
                      "value": "local_Success_Target",
                      "compareType": "MoreThanAndEqual"
                    }
                  ],
                  "successActions": [
                    {
                      "$type": "AHPEKICBIIL",
                      "luaCallType": "FromGroup",
                      "funcName": "SLC_On_Stage_Succ",
                      "paramNum": 1,
                      "param1": 0,
                      "MGAMDEHMCOL": 0.0,
                      "MMHOHAOGPLP": 0.0
                    }
                  ],
                  "failActions": [
                    {
                      "$type": "AHPEKICBIIL",
                      "luaCallType": "FromGroup",
                      "funcName": "SLC_On_Stage_Fail",
                      "paramNum": 1,
                      "param1": 0,
                      "MGAMDEHMCOL": 0.0,
                      "MMHOHAOGPLP": 0.0
                    }
                  ]
                }
              ]
            },
            {
              "$type": "LBNFFHKFNPH",
              "BKHIKMKKBFH": "InitSuccessTarget",
              "actionQueue": [
                {
                  "$type": "SetGlobalValue",
                  "value": 0.0,
                  "key": "GV_Success_Counter",
                  "maxValue": 0.0,
                  "minValue": 0.0
                },
                {
                  "$type": "DebugLog",
                  "content": "金色大厅qte InitSuccessTarget"
                },
                {
                  "$type": "OPMNNFHMHFH",
                  "eventKey": "TargetSuccessCount",
                  "globalValueKey": "GV_Success_Target"
                },
                {
                  "$type": "SetGlobalValueToOverrideMap",
                  "globalValueKey": "GV_Success_Target",
                  "overrideMapKey": "local_Success_Target"
                }
              ]
            },
            {
              "$type": "AttachModifierToGlobalValueMixin",
              "globalValueKey": "GV_Player_Stage",
              "valueSteps": [
                -0.5, 0.5, 1.5, 2.5, 3.5, 4.5, 5.5, 6.5, 7.5, 8.5, 9.5, 10.5,
                11.5
              ],
              "modifierNameSteps": [
                "Blank",
                "PlayerStage_1",
                "PlayerStage_2",
                "PlayerStage_3",
                "PlayerStage_4",
                "PlayerStage_5",
                "PlayerStage_6",
                "PlayerStage_7",
                "PlayerStage_8",
                "PlayerStage_9",
                "PlayerStage_10",
                "PlayerStage_11"
              ],
              "NMCLMHFBALJ": true
            },
            {
              "$type": "DoActionOnGlobalValueChangeMixin",
              "globalValueKey": "GV_Player_Stage",
              "actions": [
                {
                  "$type": "SetGlobalValueToOverrideMap",
                  "globalValueKey": "GV_Player_Stage",
                  "overrideMapKey": "temp_player_stage"
                },
                {
                  "$type": "AHPEKICBIIL",
                  "luaCallType": "FromGroup",
                  "funcName": "SLC_On_PlayerStage_Change",
                  "paramNum": 1,
                  "param1": 0,
                  "MGAMDEHMCOL": 0.0,
                  "MMHOHAOGPLP": 0.0
                }
              ]
            }
          ],
          "onAdded": [
            {
              "$type": "SetGlobalValue",
              "value": 1.0,
              "key": "GV_Player_Stage",
              "maxValue": 0.0,
              "minValue": 0.0
            }
          ],
          "onRemoved": [
            {
              "$type": "SetGlobalValue",
              "value": 0.0,
              "key": "GV_Player_Stage",
              "maxValue": 0.0,
              "minValue": 0.0
            },
            {
              "$type": "ApplyModifier",
              "otherTargets": {
                "$type": "SelectTargetsByShape",
                "shapeName": "CircleR200",
                "campTargetType": "AllExceptSelf",
                "doOffStage": 1.0
              },
              "predicates": [
                {
                  "$type": "ByEntityTypes",
                  "entityTypes": ["Avatar"]
                }
              ],
              "modifierName": "ExitCamera"
            },
            {
              "$type": "AHPEKICBIIL",
              "luaCallType": "FromGroup",
              "funcName": "SLC_End_Play",
              "param1": 0.0,
              "MGAMDEHMCOL": 0.0,
              "MMHOHAOGPLP": 0.0
            }
          ]
        },
        "DisableFlyObj": {
          "modifierName": "",
          "elementDurability": 100.0,
          "onAdded": [
            {
              "$type": "FNPMFLOOCDD",
              "shieldHP": true,
              "value": 0.0,
              "key": "Eff_On",
              "maxValue": 0.0,
              "minValue": 0.0
            }
          ]
        },
        "PlayerStage_1": {
          "modifierName": "",
          "elementDurability": 100.0,
          "modifierMixins": [
            {
              "$type": "BPIPJFLGPJP",
              "KDLKEEHLOGD": "",
              "KAFAMAGABFJ": 6
            }
          ]
        },
        "PlayerStage_2": {
          "modifierName": "",
          "elementDurability": 100.0,
          "modifierMixins": [
            {
              "$type": "BPIPJFLGPJP",
              "KDLKEEHLOGD": "",
              "KAFAMAGABFJ": 7
            }
          ]
        },
        "PlayerStage_3": {
          "modifierName": "",
          "elementDurability": 100.0,
          "modifierMixins": [
            {
              "$type": "BPIPJFLGPJP",
              "KDLKEEHLOGD": "",
              "KAFAMAGABFJ": 8
            }
          ]
        },
        "PlayerStage_4": {
          "modifierName": "",
          "elementDurability": 100.0,
          "modifierMixins": [
            {
              "$type": "BPIPJFLGPJP",
              "KDLKEEHLOGD": "",
              "KAFAMAGABFJ": 12
            }
          ]
        },
        "PlayerStage_5": {
          "modifierName": "",
          "elementDurability": 100.0,
          "modifierMixins": [
            {
              "$type": "BPIPJFLGPJP",
              "KDLKEEHLOGD": "",
              "KAFAMAGABFJ": 13
            }
          ]
        },
        "PlayerStage_6": {
          "modifierName": "",
          "elementDurability": 100.0,
          "modifierMixins": [
            {
              "$type": "BPIPJFLGPJP",
              "KDLKEEHLOGD": "",
              "KAFAMAGABFJ": 14
            }
          ]
        },
        "PlayerStage_7": {
          "modifierName": "",
          "elementDurability": 100.0,
          "modifierMixins": [
            {
              "$type": "BPIPJFLGPJP",
              "KDLKEEHLOGD": "",
              "KAFAMAGABFJ": 15
            }
          ]
        },
        "PlayerStage_8": {
          "modifierName": "",
          "elementDurability": 100.0,
          "modifierMixins": [
            {
              "$type": "BPIPJFLGPJP",
              "KDLKEEHLOGD": "",
              "KAFAMAGABFJ": 16
            }
          ]
        },
        "PlayerStage_9": {
          "modifierName": "",
          "elementDurability": 100.0,
          "modifierMixins": [
            {
              "$type": "BPIPJFLGPJP",
              "KDLKEEHLOGD": "",
              "KAFAMAGABFJ": 8
            }
          ]
        },
        "PlayerStage_10": {
          "modifierName": "",
          "elementDurability": 100.0,
          "modifierMixins": [
            {
              "$type": "BPIPJFLGPJP",
              "KDLKEEHLOGD": "",
              "KAFAMAGABFJ": 8
            }
          ]
        },
        "PlayerStage_11": {
          "modifierName": "",
          "elementDurability": 100.0,
          "modifierMixins": [
            {
              "$type": "BPIPJFLGPJP",
              "KDLKEEHLOGD": "",
              "KAFAMAGABFJ": 17
            }
          ]
        },
        "ExitCamera": {
          "modifierName": "",
          "duration": 0.10000000149011612,
          "elementDurability": 100.0,
          "onAdded": [
            {
              "$type": "AddGlobalValue",
              "shieldHP": true,
              "value": 1.0,
              "key": "ExitCameTrigger",
              "maxValue": 0.0,
              "minValue": 0.0
            },
            {
              "$type": "DebugLog",
              "content": "goldenHall > ExitCameTrigger"
            }
          ]
        }
      },
      "onAdded": [
        {
          "$type": "SetGlobalValue",
          "value": 0.0,
          "key": "Cam_ID",
          "maxValue": 0.0,
          "minValue": 0.0
        },
        {
          "$type": "SetGlobalValue",
          "value": 100.0,
          "key": "TestQTE_Count",
          "maxValue": 0.0,
          "minValue": 0.0
        },
        {
          "$type": "SetGlobalValue",
          "value": 0.0,
          "key": "GV_Player_Stage",
          "maxValue": 0.0,
          "minValue": 0.0
        },
        {
          "$type": "SetGlobalValue",
          "value": 0.0,
          "key": "GV_Success_Counter",
          "maxValue": 0.0,
          "minValue": 0.0
        },
        {
          "$type": "SetGlobalValue",
          "value": 0.0,
          "key": "GV_Success_Target",
          "maxValue": 0.0,
          "minValue": 0.0
        },
        {
          "$type": "SetGlobalValue",
          "value": 0.0,
          "key": "Cam_Trigger",
          "maxValue": 0.0,
          "minValue": 0.0
        },
        {
          "$type": "AOOCGNCCAJB",
          "isAdd": true,
          "tag": "GoldenHall_Interact_Desk"
        }
      ]
    }
  },
  {
    "Default": {
      "$type": "ConfigAbility",
      "abilityName": "SceneObj_GoldenHall_QTE_Fly_Point_V2",
      "abilityMixins": [
        {
          "$type": "AttachModifierToGlobalValueMixin",
          "globalValueKey": "Is_Goal_Success",
          "valueSteps": [-0.5, 0.5, 1.5],
          "modifierNameSteps": ["Blank", "Success"]
        },
        {
          "$type": "AttachModifierToGlobalValueMixin",
          "globalValueKey": "Eff_On",
          "valueSteps": [-0.5, 0.5, 1.5],
          "modifierNameSteps": ["NoFire", "FireMat"]
        },
        {
          "$type": "DoActionOnGlobalValueChangeMixin",
          "globalValueKey": "GV_Refresh_Trigger",
          "actions": [
            {
              "$type": "RemoveModifier",
              "modifierName": "Controller"
            },
            {
              "$type": "AttachModifier",
              "modifierName": "Controller"
            }
          ]
        },
        {
          "$type": "DoActionOnGlobalValueChangeMixin",
          "globalValueKey": "SGV_CurveStartTrigger",
          "actions": [
            {
              "$type": "ApplyModifier",
              "modifierName": "DelayAddFireMat"
            }
          ]
        }
      ],
      "abilitySpecials": {
        "local_qteID": 1.0,
        "local_qte_Group": 1.0,
        "local_qte_Time": 1.0
      },
      "modifiers": {
        "Blank": {
          "modifierName": "",
          "elementDurability": 100.0
        },
        "Controller": {
          "modifierName": "",
          "elementDurability": 100.0,
          "modifierMixins": [
            {
              "$type": "LBNFFHKFNPH",
              "BKHIKMKKBFH": "EventReceiver",
              "actionQueue": [
                {
                  "$type": "DebugLog",
                  "content": "金色大厅qte Fly_Point qte receive"
                },
                {
                  "$type": "OPMNNFHMHFH",
                  "eventKey": "qteID",
                  "globalValueKey": "GV_qteID"
                },
                {
                  "$type": "SetGlobalValueToOverrideMap",
                  "globalValueKey": "GV_qteID",
                  "overrideMapKey": "local_qteID"
                },
                {
                  "$type": "AHPEKICBIIL",
                  "luaCallType": "FromGroup",
                  "funcName": "SLC_Start_QTE",
                  "paramNum": 1,
                  "param1": 0,
                  "MGAMDEHMCOL": 0.0,
                  "MMHOHAOGPLP": 0.0
                },
                {
                  "$type": "ApplyModifier",
                  "modifierName": "DelayAddFireMat"
                },
                {
                  "$type": "AOKLILFNBJI",
                  "predicates": [
                    {
                      "$type": "ByTargetGlobalValue",
                      "key": "GV_qteID",
                      "value": 4.0
                    }
                  ],
                  "DNLHFPJECBC": 901102007,
                  "EGFIDIJEKAJ": 0.0,
                  "speed": 12.0
                },
                {
                  "$type": "AOKLILFNBJI",
                  "predicates": [
                    {
                      "$type": "ByTargetGlobalValue",
                      "key": "GV_qteID",
                      "value": 5.0
                    }
                  ],
                  "DNLHFPJECBC": 901102008,
                  "EGFIDIJEKAJ": 0.0,
                  "speed": 12.0
                },
                {
                  "$type": "AOKLILFNBJI",
                  "predicates": [
                    {
                      "$type": "ByTargetGlobalValue",
                      "key": "GV_qteID",
                      "value": 6.0
                    }
                  ],
                  "DNLHFPJECBC": 901102009,
                  "EGFIDIJEKAJ": 0.0,
                  "speed": 12.0
                },
                {
                  "$type": "AOKLILFNBJI",
                  "predicates": [
                    {
                      "$type": "ByTargetGlobalValue",
                      "key": "GV_qteID",
                      "value": 7.0
                    }
                  ],
                  "DNLHFPJECBC": 901102021,
                  "EGFIDIJEKAJ": 0.0,
                  "speed": 12.0
                },
                {
                  "$type": "AOKLILFNBJI",
                  "predicates": [
                    {
                      "$type": "ByTargetGlobalValue",
                      "key": "GV_qteID",
                      "value": 8.0
                    }
                  ],
                  "DNLHFPJECBC": 901102022,
                  "EGFIDIJEKAJ": 0.0,
                  "speed": 12.0
                },
                {
                  "$type": "AOKLILFNBJI",
                  "predicates": [
                    {
                      "$type": "ByTargetGlobalValue",
                      "key": "GV_qteID",
                      "value": 9.0
                    }
                  ],
                  "DNLHFPJECBC": 901102012,
                  "EGFIDIJEKAJ": 0.0,
                  "speed": 12.0
                },
                {
                  "$type": "AOKLILFNBJI",
                  "predicates": [
                    {
                      "$type": "ByTargetGlobalValue",
                      "key": "GV_qteID",
                      "value": 10.0
                    }
                  ],
                  "DNLHFPJECBC": 901102025,
                  "EGFIDIJEKAJ": 0.0,
                  "speed": 12.0
                },
                {
                  "$type": "AOKLILFNBJI",
                  "predicates": [
                    {
                      "$type": "ByTargetGlobalValue",
                      "key": "GV_qteID",
                      "value": 11.0
                    }
                  ],
                  "DNLHFPJECBC": 901102026,
                  "EGFIDIJEKAJ": 0.0,
                  "speed": 12.0
                },
                {
                  "$type": "AOKLILFNBJI",
                  "predicates": [
                    {
                      "$type": "ByTargetGlobalValue",
                      "key": "GV_qteID",
                      "value": 12.0
                    }
                  ],
                  "DNLHFPJECBC": 901102029,
                  "EGFIDIJEKAJ": 0.0,
                  "speed": 12.0
                },
                {
                  "$type": "AOKLILFNBJI",
                  "predicates": [
                    {
                      "$type": "ByTargetGlobalValue",
                      "key": "GV_qteID",
                      "value": 13.0
                    }
                  ],
                  "DNLHFPJECBC": 901102030,
                  "EGFIDIJEKAJ": 0.0,
                  "speed": 12.0
                },
                {
                  "$type": "AOKLILFNBJI",
                  "predicates": [
                    {
                      "$type": "ByTargetGlobalValue",
                      "key": "GV_qteID",
                      "value": 14.0
                    }
                  ],
                  "DNLHFPJECBC": 901102004,
                  "EGFIDIJEKAJ": 0.0,
                  "speed": 12.0
                },
                {
                  "$type": "AOKLILFNBJI",
                  "predicates": [
                    {
                      "$type": "ByTargetGlobalValue",
                      "key": "GV_qteID",
                      "value": 15.0
                    }
                  ],
                  "DNLHFPJECBC": 901102015,
                  "EGFIDIJEKAJ": 0.0,
                  "speed": 12.0
                },
                {
                  "$type": "AOKLILFNBJI",
                  "predicates": [
                    {
                      "$type": "ByTargetGlobalValue",
                      "key": "GV_qteID",
                      "value": 16.0
                    }
                  ],
                  "DNLHFPJECBC": 901102016,
                  "EGFIDIJEKAJ": 0.0,
                  "speed": 12.0
                },
                {
                  "$type": "AOKLILFNBJI",
                  "predicates": [
                    {
                      "$type": "ByTargetGlobalValue",
                      "key": "GV_qteID",
                      "value": 17.0
                    }
                  ],
                  "DNLHFPJECBC": 901102014,
                  "EGFIDIJEKAJ": 0.0,
                  "speed": 17.0
                },
                {
                  "$type": "AOKLILFNBJI",
                  "predicates": [
                    {
                      "$type": "ByTargetGlobalValue",
                      "key": "GV_qteID",
                      "value": 18.0
                    }
                  ],
                  "DNLHFPJECBC": 901102013,
                  "EGFIDIJEKAJ": 0.0,
                  "speed": 17.0
                },
                {
                  "$type": "AOKLILFNBJI",
                  "predicates": [
                    {
                      "$type": "ByTargetGlobalValue",
                      "key": "GV_qteID",
                      "value": 19.0
                    }
                  ],
                  "DNLHFPJECBC": 901102011,
                  "EGFIDIJEKAJ": 0.0,
                  "speed": 17.0
                },
                {
                  "$type": "AOKLILFNBJI",
                  "predicates": [
                    {
                      "$type": "ByTargetGlobalValue",
                      "key": "GV_qteID",
                      "value": 20.0
                    }
                  ],
                  "DNLHFPJECBC": 901102010,
                  "EGFIDIJEKAJ": 0.0,
                  "speed": 17.0
                },
                {
                  "$type": "AOKLILFNBJI",
                  "predicates": [
                    {
                      "$type": "ByTargetGlobalValue",
                      "key": "GV_qteID",
                      "value": 21.0
                    }
                  ],
                  "DNLHFPJECBC": 901102005,
                  "EGFIDIJEKAJ": 0.0,
                  "speed": 17.0
                },
                {
                  "$type": "AOKLILFNBJI",
                  "predicates": [
                    {
                      "$type": "ByTargetGlobalValue",
                      "key": "GV_qteID",
                      "value": 22.0
                    }
                  ],
                  "DNLHFPJECBC": 901102037,
                  "EGFIDIJEKAJ": 0.0,
                  "speed": 17.0
                },
                {
                  "$type": "AOKLILFNBJI",
                  "predicates": [
                    {
                      "$type": "ByTargetGlobalValue",
                      "key": "GV_qteID",
                      "value": 23.0
                    }
                  ],
                  "DNLHFPJECBC": 901102072,
                  "EGFIDIJEKAJ": 0.0,
                  "speed": 17.0
                }
              ]
            },
            {
              "$type": "LBNFFHKFNPH",
              "BKHIKMKKBFH": "Event_ShowGoal",
              "actionQueue": [
                {
                  "$type": "DebugLog",
                  "content": "金色大厅qte Event_ShowGoal"
                },
                {
                  "$type": "SetGlobalValueToOverrideMap",
                  "globalValueKey": "SGV_QTE_Group_ID",
                  "overrideMapKey": "local_qte_Group"
                },
                {
                  "$type": "Predicated",
                  "otherTargets": {
                    "$type": "PBLNLAENOGB",
                    "tag": "GoldenHall_QTE_Goal"
                  },
                  "targetPredicates": [
                    {
                      "$type": "ByTargetGlobalValue",
                      "key": "SGV_QTE_Group_ID",
                      "value": "local_qte_Group"
                    }
                  ],
                  "successActions": [
                    {
                      "$type": "ApplyModifier",
                      "target": "Other",
                      "modifierName": "ShowGoal"
                    }
                  ]
                }
              ]
            },
            {
              "$type": "LBNFFHKFNPH",
              "BKHIKMKKBFH": "Event_StartQTE",
              "actionQueue": [
                {
                  "$type": "DebugLog",
                  "content": "触发金色大厅qte"
                },
                {
                  "$type": "OPMNNFHMHFH",
                  "eventKey": "QTETime",
                  "globalValueKey": "GV_QTE_Time"
                },
                {
                  "$type": "Predicated",
                  "targetPredicates": [
                    {
                      "$type": "ByTargetGlobalValue",
                      "target": "Self",
                      "key": "GV_QTE_Time",
                      "value": 0.0
                    }
                  ],
                  "successActions": [
                    {
                      "$type": "SetOverrideMapValue",
                      "value": 1.5,
                      "overrideMapKey": "local_qte_Time",
                      "maxValue": 0.0,
                      "minValue": 0.0
                    }
                  ],
                  "failActions": [
                    {
                      "$type": "SetGlobalValueToOverrideMap",
                      "globalValueKey": "GV_QTE_Time",
                      "overrideMapKey": "local_qte_Time"
                    }
                  ]
                },
                {
                  "$type": "SetGlobalValueToOverrideMap",
                  "globalValueKey": "SGV_QTE_Group_ID",
                  "overrideMapKey": "local_qte_Group"
                },
                {
                  "$type": "Predicated",
                  "otherTargets": {
                    "$type": "PBLNLAENOGB",
                    "tag": "GoldenHall_QTE_Goal"
                  },
                  "targetPredicates": [
                    {
                      "$type": "ByTargetGlobalValue",
                      "key": "SGV_QTE_Group_ID",
                      "value": "local_qte_Group"
                    }
                  ],
                  "successActions": [
                    {
                      "$type": "ApplyModifier",
                      "target": "Other",
                      "modifierName": "ShowQte"
                    }
                  ]
                }
              ]
            },
            {
              "$type": "OPHOIJLIFCL",
              "tag": "OceanShip",
              "FIOMFMFOABF": ["GV_UnderSeaShip_Index"],
              "OADPFPBHBPM": [
                "ShipEnd",
                "ShowQTE_GoldenHall",
                "SetGroupVariable"
              ],
              "FBHDNPJFANK": [
                [
                  {
                    "$type": "FNPMFLOOCDD",
                    "shieldHP": true,
                    "value": 0.0,
                    "key": "Eff_On",
                    "maxValue": 0.0,
                    "minValue": 0.0
                  }
                ],
                [],
                [
                  {
                    "$type": "DebugLog",
                    "content": "LevelCurveMixin > SetGroupVariable"
                  },
                  {
                    "$type": "MNJCJLCFFLF",
                    "JCANGOGMHCP": "TEST_GV_"
                  },
                  {
                    "$type": "SetGlobalValueToOverrideMap",
                    "globalValueKey": "TEST_GV_0",
                    "overrideMapKey": "TEST_GV_0"
                  },
                  {
                    "$type": "SetGlobalValueToOverrideMap",
                    "globalValueKey": "TEST_GV_1",
                    "overrideMapKey": "TEST_GV_1"
                  },
                  {
                    "$type": "AHPEKICBIIL",
                    "luaCallType": "SpecificGroup",
                    "callParamList": [511020002],
                    "funcName": "SLC_GoldenHall_SetVar",
                    "paramNum": 2,
                    "param1": 0,
                    "MGAMDEHMCOL": "TEST_GV_1",
                    "MMHOHAOGPLP": 0.0
                  }
                ]
              ]
            }
          ]
        },
        "ShowQte": {
          "modifierName": "",
          "elementDurability": 100.0,
          "onAdded": [
            {
              "$type": "FNPMFLOOCDD",
              "shieldHP": true,
              "value": "local_qte_Time",
              "key": "GV_QTE_Perfect_Time",
              "maxValue": 0.0,
              "minValue": 0.0
            },
            {
              "$type": "FNPMFLOOCDD",
              "value": 1.0,
              "key": "GV_ShowQte",
              "maxValue": 0.0,
              "minValue": 0.0
            }
          ]
        },
        "ShowGoal": {
          "modifierName": "",
          "elementDurability": 100.0,
          "onAdded": [
            {
              "$type": "FNPMFLOOCDD",
              "value": 1.0,
              "key": "GV_ShowEff",
              "maxValue": 0.0,
              "minValue": 0.0
            }
          ]
        },
        "DelayAddFireMat": {
          "modifierName": "",
          "duration": 0.10000000149011612,
          "elementDurability": 100.0,
          "onRemoved": [
            {
              "$type": "FNPMFLOOCDD",
              "shieldHP": true,
              "value": 1.0,
              "key": "Eff_On",
              "maxValue": 0.0,
              "minValue": 0.0
            }
          ]
        },
        "NoFire": {
          "modifierName": "",
          "elementDurability": 100.0,
          "onAdded": [
            {
              "$type": "SetAnimatorInt",
              "intID": "MatState",
              "value": 203.0
            }
          ]
        },
        "FireMat": {
          "modifierName": "",
          "elementDurability": 100.0,
          "onAdded": [
            {
              "$type": "FireEffect",
              "rotationDampTime": "Eff_SceneObj_PigeonGhost_01_Appear",
              "born": {
                "$type": "ConfigBornByAttachPoint",
                "useRotation": true,
                "attachPointName": "EffRoot"
              },
              "PPPDJGDDOGD": 0.4000000059604645,
              "AJDILHJFNKE": -1.0
            },
            {
              "$type": "AttachEffect",
              "rotationDampTime": "Eff_SceneObj_BeeGhost_Idle_Wide",
              "PPPDJGDDOGD": 1.0,
              "AJDILHJFNKE": -1.0
            },
            {
              "$type": "HMIDGKNOHJM",
              "renderNames": ["Property_Ani_Prop_BeeGhost_01"],
              "setEnable": true
            },
            {
              "$type": "SetAnimatorInt",
              "intID": "MatState",
              "value": 0.0
            }
          ],
          "onRemoved": [
            {
              "$type": "FireEffect",
              "rotationDampTime": "Eff_SceneObj_BeeGhost_01_Disappear",
              "born": {
                "$type": "ConfigBornByAttachPoint",
                "useRotation": true,
                "attachPointName": "EffRoot"
              },
              "PPPDJGDDOGD": 1.0,
              "AJDILHJFNKE": -1.0
            }
          ]
        },
        "Success": {
          "modifierName": "",
          "duration": 0.30000001192092896,
          "elementDurability": 100.0,
          "onAdded": [
            {
              "$type": "FireEffect",
              "rotationDampTime": "Eff_SceneObj_PigeonGhostSingle_Active",
              "born": {
                "$type": "ConfigBornByAttachPoint",
                "useRotation": true,
                "attachPointName": "EffRoot"
              },
              "PPPDJGDDOGD": 0.4000000059604645,
              "AJDILHJFNKE": -1.0
            }
          ],
          "onRemoved": [
            {
              "$type": "SetGlobalValue",
              "shieldHP": true,
              "value": 0.0,
              "key": "Is_Goal_Success",
              "maxValue": 0.0,
              "minValue": 0.0
            }
          ]
        }
      },
      "onAdded": [
        {
          "$type": "AOOCGNCCAJB",
          "isAdd": true,
          "tag": "Is_GoldenHall_QTE_Fly_Point"
        },
        {
          "$type": "FNPMFLOOCDD",
          "shieldHP": true,
          "value": 0.0,
          "key": "Eff_On",
          "maxValue": 0.0,
          "minValue": 0.0
        },
        {
          "$type": "SetGlobalValue",
          "shieldHP": true,
          "value": 0.0,
          "key": "Is_Goal_Success",
          "maxValue": 0.0,
          "minValue": 0.0
        },
        {
          "$type": "SetGlobalValue",
          "shieldHP": true,
          "value": 0.0,
          "key": "GV_Refresh_Trigger",
          "maxValue": 0.0,
          "minValue": 0.0
        },
        {
          "$type": "AttachModifier",
          "modifierName": "Controller"
        }
      ]
    }
  },
  {
    "Default": {
      "$type": "ConfigAbility",
      "abilityName": "SceneObj_GoldenHall_QTE_Goal",
      "abilityMixins": [
        {
          "$type": "AttachToGadgetStateMixin",
          "modifierName": "Controller"
        },
        {
          "$type": "AttachModifierToGlobalValueMixin",
          "globalValueKey": "Is_Goal_Success",
          "valueSteps": [-0.5, 0.5, 1.5],
          "modifierNameSteps": ["Blank", "Success"]
        },
        {
          "$type": "AttachModifierToGlobalValueMixin",
          "globalValueKey": "GV_ShowQte",
          "valueSteps": [-0.5, 0.5, 1.5],
          "modifierNameSteps": ["Blank", "QteOn"]
        },
        {
          "$type": "AttachModifierToGlobalValueMixin",
          "globalValueKey": "GV_ShowEff",
          "valueSteps": [-0.5, 0.5, 1.5],
          "modifierNameSteps": ["Blank", "ShowEff"]
        }
      ],
      "abilitySpecials": {
        "local_qte_Group": 1.0,
        "local_qte_ID": 0.0
      },
      "modifiers": {
        "Blank": {
          "modifierName": "",
          "elementDurability": 100.0
        },
        "Controller": {
          "modifierName": "",
          "elementDurability": 100.0
        },
        "ShowEff": {
          "modifierName": "",
          "elementDurability": 100.0,
          "onAdded": [
            {
              "$type": "AttachEffect",
              "rotationDampTime": "Eff_SceneObj_MMBubble_01",
              "PPPDJGDDOGD": 1.0,
              "AJDILHJFNKE": -1.0
            }
          ]
        },
        "QteOn": {
          "modifierName": "",
          "elementDurability": 100.0,
          "onAdded": [
            {
              "$type": "NBJOOJMEDPD",
              "uiContextName": "GoldenHall",
              "message": "show",
              "stringParam": ""
            },
            {
              "$type": "DebugLog",
              "content": "金色大厅qte 目标点QteOn"
            }
          ]
        },
        "Success": {
          "modifierName": "",
          "duration": 1.0,
          "elementDurability": 100.0,
          "onAdded": [
            {
              "$type": "SendEffectTrigger",
              "canBeHandledOnRecover": true,
              "parameter": "GadgetState",
              "attachPoint": "",
              "damageRatio": "Int",
              "value": 201,
              "rotationDampTime": "Eff_SceneObj_MMBubble_01"
            }
          ],
          "onRemoved": [
            {
              "$type": "KillSelf"
            }
          ]
        }
      },
      "onAdded": [
        {
          "$type": "FNPMFLOOCDD",
          "shieldHP": true,
          "value": 1.5,
          "key": "GV_QTE_Perfect_Time",
          "maxValue": 0.0,
          "minValue": 0.0
        },
        {
          "$type": "SetGlobalValueToOverrideMap",
          "globalValueKey": "SGV_QTE_Group_ID",
          "overrideMapKey": "local_qte_Group"
        },
        {
          "$type": "SetGlobalValue",
          "shieldHP": true,
          "value": 1.0,
          "key": "QTE_Goal",
          "maxValue": 0.0,
          "minValue": 0.0
        },
        {
          "$type": "SetGlobalValue",
          "shieldHP": true,
          "value": 0.0,
          "key": "GV_ShowQte",
          "maxValue": 0.0,
          "minValue": 0.0
        },
        {
          "$type": "SetGlobalValue",
          "shieldHP": true,
          "value": 0.0,
          "key": "GV_ShowEff",
          "maxValue": 0.0,
          "minValue": 0.0
        },
        {
          "$type": "SetGlobalValue",
          "shieldHP": true,
          "value": 0.0,
          "key": "Is_Goal_Success",
          "maxValue": 0.0,
          "minValue": 0.0
        },
        {
          "$type": "AOOCGNCCAJB",
          "isAdd": true,
          "tag": "GoldenHall_QTE_Goal"
        }
      ],
      "onAbilityStart": [
        {
          "$type": "DebugLog",
          "content": "SceneObj_GoldenHall_QTE_Goal > onAbilityStart"
        },
        {
          "$type": "Predicated",
          "otherTargets": {
            "$type": "PBLNLAENOGB",
            "topLimit": 5,
            "sortType": "Nearest",
            "tag": "Is_GoldenHall_QTE_Fly_Point"
          },
          "targetPredicates": [
            {
              "$type": "ByTargetGlobalValue",
              "key": "SGV_QTE_Group_ID",
              "value": "local_qte_Group"
            }
          ],
          "successActions": [
            {
              "$type": "SetGlobalValue",
              "target": "Target",
              "shieldHP": true,
              "value": 1.0,
              "key": "Is_Goal_Success",
              "maxValue": 0.0,
              "minValue": 0.0
            },
            {
              "$type": "SetGlobalValue",
              "shieldHP": true,
              "value": 1.0,
              "key": "Is_Goal_Success",
              "maxValue": 0.0,
              "minValue": 0.0
            }
          ]
        },
        {
          "$type": "Predicated",
          "otherTargets": {
            "$type": "PBLNLAENOGB",
            "topLimit": 5,
            "sortType": "Nearest",
            "tag": "GoldenHall_Interact_Desk"
          },
          "successActions": [
            {
              "$type": "AddGlobalValue",
              "target": "Target",
              "value": 1.0,
              "key": "GV_Success_Counter",
              "maxValue": 0.0,
              "minValue": 0.0
            }
          ]
        },
        {
          "$type": "SetGlobalValueToOverrideMap",
          "globalValueKey": "SGV_QTE_ID",
          "overrideMapKey": "local_qte_ID"
        },
        {
          "$type": "AHPEKICBIIL",
          "luaCallType": "SpecificGroup",
          "callParamList": [511020002],
          "funcName": "SLC_On_QTE_Succ",
          "paramNum": 1,
          "param1": 0,
          "MGAMDEHMCOL": 0.0,
          "MMHOHAOGPLP": 0.0
        }
      ]
    }
  },
  {
    "Default": {
      "$type": "ConfigAbility",
      "abilityName": "SceneObj_Bee_Ghost_Platform_01",
      "modifiers": {
        "Controller": {
          "modifierName": "",
          "elementDurability": 100.0,
          "onAdded": [
            {
              "$type": "FireEffect",
              "rotationDampTime": "Eff_SceneObj_PigeonGhost_01_Appear",
              "born": {
                "$type": "ConfigBornByAttachPoint",
                "useRotation": true,
                "attachPointName": "EffRoot"
              },
              "PPPDJGDDOGD": 0.4000000059604645,
              "AJDILHJFNKE": -1.0
            },
            {
              "$type": "AttachEffect",
              "rotationDampTime": "Eff_SceneObj_BeeGhost_Idle",
              "PPPDJGDDOGD": 1.0,
              "AJDILHJFNKE": -1.0
            },
            {
              "$type": "HMIDGKNOHJM",
              "renderNames": ["Property_Ani_Prop_BeeGhost_01"],
              "setEnable": true
            },
            {
              "$type": "SetAnimatorInt",
              "intID": "MatState",
              "value": 0.0
            }
          ]
        }
      },
      "onAdded": [
        {
          "$type": "AttachModifier",
          "modifierName": "Controller"
        }
      ],
      "onKill": [
        {
          "$type": "FireEffect",
          "rotationDampTime": "Eff_SceneObj_BeeGhost_01_Disappear",
          "born": {
            "$type": "ConfigBornByAttachPoint",
            "useRotation": true,
            "attachPointName": "EffRoot"
          },
          "PPPDJGDDOGD": 1.0,
          "AJDILHJFNKE": -1.0
        },
        {
          "$type": "SetAnimatorInt",
          "intID": "MatState",
          "value": 203.0
        }
      ]
    }
  },
  {
    "Default": {
      "$type": "ConfigAbility",
      "abilityName": "SceneObj_GoldenHall_Stage2_Activate",
      "abilityMixins": [
        {
          "$type": "AttachToGadgetStateMixin",
          "modifierName": "Controller"
        },
        {
          "$type": "AttachToGadgetStateMixin",
          "gadgetState": 201,
          "modifierName": "Activate"
        }
      ],
      "modifiers": {
        "Controller": {
          "modifierName": "",
          "elementDurability": 100.0
        },
        "Activate": {
          "modifierName": "",
          "elementDurability": 100.0,
          "onAdded": [
            {
              "$type": "AttachEffect",
              "rotationDampTime": "Eff_SceneObj_POI_Fd_JSDT_Change_01",
              "PPPDJGDDOGD": 1.0,
              "AJDILHJFNKE": -1.0
            }
          ]
        }
      }
    }
  },
  {
    "Default": {
      "$type": "ConfigAbility",
      "abilityName": "SceneObj_GoldenHall_Gate",
      "abilityMixins": [
        {
          "$type": "AttachToGadgetStateMixin",
          "modifierName": "Controller"
        },
        {
          "$type": "AttachToGadgetStateMixin",
          "gadgetState": 201,
          "modifierName": "ForceActive"
        }
      ],
      "modifiers": {
        "Eff_Modifier": {
          "modifierName": "",
          "elementDurability": 100.0,
          "thinkInterval": 0.30000001192092896,
          "onAdded": [
            {
              "$type": "AttachEffect",
              "rotationDampTime": "Eff_Stages_SceneObj_DeepSea_GoldenHallPortal_01",
              "PPPDJGDDOGD": 1.0,
              "AJDILHJFNKE": -1.0,
              "isPlatformDependent": true
            }
          ],
          "onThinkInterval": [
            {
              "$type": "FNPMFLOOCDD",
              "value": 0.0,
              "key": "GV_AvatarCount",
              "maxValue": 0.0,
              "minValue": 0.0
            },
            {
              "$type": "Predicated",
              "otherTargets": {
                "$type": "SelectTargetsByShape",
                "shapeName": "CircleR50H50C",
                "campTargetType": "AllExceptSelf",
                "doOffStage": 1.0
              },
              "targetPredicates": [
                {
                  "$type": "ByEntityTypes",
                  "entityTypes": ["Avatar"]
                }
              ],
              "successActions": [
                {
                  "$type": "AddGlobalValue",
                  "value": 1.0,
                  "key": "GV_AvatarCount",
                  "maxValue": 0.0,
                  "minValue": 0.0
                }
              ]
            },
            {
              "$type": "Predicated",
              "targetPredicates": [
                {
                  "$type": "ByTargetGlobalValue",
                  "target": "Self",
                  "key": "GV_AvatarCount",
                  "value": 1.0,
                  "compareType": "MoreThanAndEqual"
                }
              ],
              "successActions": [
                {
                  "$type": "SendEffectTrigger",
                  "canBeHandledOnRecover": true,
                  "parameter": "State",
                  "attachPoint": "",
                  "damageRatio": "Int",
                  "value": 201,
                  "rotationDampTime": "Eff_Stages_SceneObj_DeepSea_GoldenHallPortal_01",
                  "isPlatformDependent": true
                }
              ],
              "failActions": [
                {
                  "$type": "SendEffectTrigger",
                  "canBeHandledOnRecover": true,
                  "parameter": "State",
                  "attachPoint": "",
                  "damageRatio": "Int",
                  "rotationDampTime": "Eff_Stages_SceneObj_DeepSea_GoldenHallPortal_01",
                  "isPlatformDependent": true
                }
              ]
            }
          ]
        },
        "Controller": {
          "modifierName": "",
          "elementDurability": 100.0,
          "onAdded": [
            {
              "$type": "AttachModifier",
              "modifierName": "Eff_Modifier"
            }
          ]
        },
        "ForceActive": {
          "modifierName": "",
          "elementDurability": 100.0,
          "onAdded": [
            {
              "$type": "AttachEffect",
              "rotationDampTime": "Eff_Stages_SceneObj_DeepSea_GoldenHallPortal_01",
              "PPPDJGDDOGD": 1.0,
              "AJDILHJFNKE": -1.0,
              "isPlatformDependent": true
            },
            {
              "$type": "SendEffectTrigger",
              "canBeHandledOnRecover": true,
              "parameter": "State",
              "attachPoint": "",
              "damageRatio": "Int",
              "value": 201,
              "rotationDampTime": "Eff_Stages_SceneObj_DeepSea_GoldenHallPortal_01",
              "isPlatformDependent": true
            }
          ]
        }
      }
    }
  },
  {
    "Default": {
      "$type": "ConfigAbility",
      "abilityName": "SceneObj_GoldenHall_QTE_Goal_Fail",
      "abilityMixins": [
        {
          "$type": "AttachToGadgetStateMixin",
          "modifierName": "Controller"
        }
      ],
      "abilitySpecials": {
        "local_qte_Group": 1.0
      },
      "modifiers": {
        "Controller": {
          "modifierName": "",
          "elementDurability": 100.0
        },
        "KillSelfDelay": {
          "modifierName": "",
          "duration": 1.0,
          "elementDurability": 100.0,
          "onRemoved": [
            {
              "$type": "KillSelf"
            }
          ]
        }
      },
      "onAdded": [
        {
          "$type": "SetGlobalValueToOverrideMap",
          "globalValueKey": "SGV_QTE_Group_ID",
          "overrideMapKey": "local_qte_Group"
        }
      ],
      "onAbilityStart": [
        {
          "$type": "DebugLog",
          "content": "SceneObj_GoldenHall_QTE_Goal_Fail > onAbilityStart"
        },
        {
          "$type": "SendEffectTrigger",
          "canBeHandledOnRecover": true,
          "parameter": "GadgetState",
          "attachPoint": "",
          "damageRatio": "Int",
          "value": 202,
          "rotationDampTime": "Eff_SceneObj_MMBubble_01"
        },
        {
          "$type": "ApplyModifier",
          "modifierName": "KillSelfDelay"
        }
      ]
    }
  },
  {
    "Default": {
      "$type": "ConfigAbility",
      "abilityName": "SceneObj_GoldenHall_Harp_White",
      "abilityMixins": [
        {
          "$type": "AttachToGadgetStateMixin",
          "modifierName": "Controller"
        }
      ],
      "modifiers": {
        "Controller": {
          "modifierName": "",
          "elementDurability": 100.0,
          "onAdded": [
            {
              "$type": "HMIDGKNOHJM",
              "shieldHP": true,
              "renderNames": ["String_01"],
              "setEnable": true
            },
            {
              "$type": "HMIDGKNOHJM",
              "shieldHP": true,
              "renderNames": ["String_02"]
            },
            {
              "$type": "AttachEffect",
              "rotationDampTime": "Eff_SceneObj_GoldenHallHarp_Idle_SparkWhite",
              "born": {
                "$type": "ConfigBornByAttachPoint",
                "useRotation": true,
                "attachPointName": "RootNode"
              },
              "PPPDJGDDOGD": 2.5,
              "AJDILHJFNKE": -1.0
            },
            {
              "$type": "AttachEffect",
              "rotationDampTime": "Eff_SceneObj_GoldenHallHarp_Idle_LightWhite",
              "born": {
                "$type": "ConfigBornByAttachPoint",
                "useRotation": true,
                "attachPointName": "RootNode"
              },
              "PPPDJGDDOGD": 2.5,
              "AJDILHJFNKE": -1.0
            }
          ]
        }
      }
    }
  },
  {
    "Default": {
      "$type": "ConfigAbility",
      "abilityName": "SceneObj_GoldenHall_Harp_Red",
      "abilityMixins": [
        {
          "$type": "AttachToGadgetStateMixin",
          "modifierName": "Controller"
        }
      ],
      "modifiers": {
        "Controller": {
          "modifierName": "",
          "elementDurability": 100.0,
          "onAdded": [
            {
              "$type": "HMIDGKNOHJM",
              "shieldHP": true,
              "renderNames": ["String_01"]
            },
            {
              "$type": "HMIDGKNOHJM",
              "shieldHP": true,
              "renderNames": ["String_02"],
              "setEnable": true
            },
            {
              "$type": "AttachEffect",
              "rotationDampTime": "Eff_SceneObj_GoldenHallHarp_Idle_SparkRed",
              "born": {
                "$type": "ConfigBornByAttachPoint",
                "useRotation": true,
                "attachPointName": "RootNode"
              },
              "PPPDJGDDOGD": 2.5,
              "AJDILHJFNKE": -1.0
            },
            {
              "$type": "AttachEffect",
              "rotationDampTime": "Eff_SceneObj_GoldenHallHarp_Idle_LightRed",
              "born": {
                "$type": "ConfigBornByAttachPoint",
                "useRotation": true,
                "attachPointName": "RootNode"
              },
              "PPPDJGDDOGD": 2.5,
              "AJDILHJFNKE": -1.0
            }
          ]
        }
      }
    }
  },
  {
    "Default": {
      "$type": "ConfigAbility",
      "abilityName": "SceneObj_GoldenHall_Jump_Water",
      "abilityMixins": [
        {
          "$type": "AttachToGadgetStateMixin",
          "modifierName": "Controller"
        },
        {
          "$type": "AttachToGadgetStateMixin",
          "gadgetState": 201,
          "modifierName": "Active_Small"
        },
        {
          "$type": "AttachToGadgetStateMixin",
          "gadgetState": 202,
          "modifierName": "Active_Mid"
        },
        {
          "$type": "AttachToGadgetStateMixin",
          "gadgetState": 203,
          "modifierName": "Active_Big"
        },
        {
          "$type": "DoActionOnGlobalValueChangeMixin",
          "globalValueKey": "SGV_JumpWater_Trigger",
          "actions": [
            {
              "$type": "DebugLog",
              "content": "jumpWater TriggerBubble by SGV"
            },
            {
              "$type": "ApplyModifier",
              "modifierName": "TriggerEffect"
            }
          ]
        }
      ],
      "modifiers": {
        "Controller": {
          "modifierName": "",
          "elementDurability": 100.0
        },
        "TimeTrackFireEffControl": {
          "modifierName": "",
          "elementDurability": 100.0,
          "modifierMixins": [
            {
              "$type": "LBNFFHKFNPH",
              "BKHIKMKKBFH": "TriggerBubble",
              "actionQueue": [
                {
                  "$type": "DebugLog",
                  "content": "jumpWater TriggerBubble"
                },
                {
                  "$type": "ApplyModifier",
                  "modifierName": "TriggerEffect"
                }
              ]
            }
          ]
        },
        "ShootCD": {
          "modifierName": "",
          "duration": 0.5,
          "elementDurability": 100.0,
          "onAdded": [
            {
              "$type": "FNPMFLOOCDD",
              "shieldHP": true,
              "value": 1.0,
              "key": "GV_InShootCD",
              "maxValue": 0.0,
              "minValue": 0.0
            }
          ],
          "onRemoved": [
            {
              "$type": "FNPMFLOOCDD",
              "shieldHP": true,
              "value": 0.0,
              "key": "GV_InShootCD",
              "maxValue": 0.0,
              "minValue": 0.0
            }
          ]
        },
        "Active_Small": {
          "modifierName": "",
          "elementDurability": 100.0,
          "onAdded": [
            {
              "$type": "AttachEffect",
              "rotationDampTime": "Eff_Stages_SceneObj_RemusSyllable_Fd_MMMusic_01_Loop",
              "PPPDJGDDOGD": 1.0,
              "AJDILHJFNKE": -1.0
            },
            {
              "$type": "ApplyModifier",
              "modifierName": "TriggerEffect"
            },
            {
              "$type": "ApplyModifier",
              "modifierName": "ShootCD"
            }
          ]
        },
        "Active_Mid": {
          "modifierName": "",
          "elementDurability": 100.0,
          "onAdded": [
            {
              "$type": "AttachEffect",
              "rotationDampTime": "Eff_Stages_SceneObj_RemusSyllable_Fd_MMMusic_01_Loop",
              "PPPDJGDDOGD": 1.0,
              "AJDILHJFNKE": -1.0
            },
            {
              "$type": "ApplyModifier",
              "modifierName": "TriggerEffect"
            },
            {
              "$type": "ApplyModifier",
              "modifierName": "ShootCD"
            }
          ]
        },
        "Active_Big": {
          "modifierName": "",
          "elementDurability": 100.0,
          "onAdded": [
            {
              "$type": "AttachEffect",
              "rotationDampTime": "Eff_Stages_SceneObj_RemusSyllable_Fd_MMMusic_Big_02_Loop",
              "PPPDJGDDOGD": 1.0,
              "AJDILHJFNKE": -1.0
            },
            {
              "$type": "ApplyModifier",
              "modifierName": "TriggerEffect"
            },
            {
              "$type": "ApplyModifier",
              "modifierName": "ShootCD"
            }
          ]
        },
        "TriggerEffect": {
          "modifierName": "",
          "duration": 0.10000000149011612,
          "elementDurability": 100.0,
          "onAdded": [
            {
              "$type": "SetGlobalValue",
              "value": 0.0,
              "key": "_randomEff",
              "useLimitRange": true,
              "randomInRange": true,
              "maxValue": 2.0,
              "minValue": 0.0
            },
            {
              "$type": "FireEffect",
              "predicates": [
                {
                  "$type": "ByTargetGlobalValue",
                  "key": "GV_InShootCD",
                  "value": 0.0
                },
                {
                  "$type": "HNLCJOPBDLC",
                  "target": "Self",
                  "gadgetState": 201
                },
                {
                  "$type": "ByTargetGlobalValue",
                  "key": "_randomEff",
                  "value": 0.0,
                  "compareType": "MoreThan"
                },
                {
                  "$type": "ByTargetGlobalValue",
                  "key": "_randomEff",
                  "value": 1.0,
                  "compareType": "LessAndEqual"
                }
              ],
              "rotationDampTime": "Eff_Stages_SceneObj_RemusSyllable_Fd_MMMusic_Small_01",
              "PPPDJGDDOGD": 1.0,
              "AJDILHJFNKE": -1.0
            },
            {
              "$type": "FireEffect",
              "predicates": [
                {
                  "$type": "ByTargetGlobalValue",
                  "key": "GV_InShootCD",
                  "value": 0.0
                },
                {
                  "$type": "HNLCJOPBDLC",
                  "target": "Self",
                  "gadgetState": 201
                },
                {
                  "$type": "ByTargetGlobalValue",
                  "key": "_randomEff",
                  "value": 1.0,
                  "compareType": "MoreThan"
                },
                {
                  "$type": "ByTargetGlobalValue",
                  "key": "_randomEff",
                  "value": 2.0,
                  "compareType": "LessAndEqual"
                }
              ],
              "rotationDampTime": "Eff_Stages_SceneObj_RemusSyllable_Fd_MMMusic_Small_02",
              "PPPDJGDDOGD": 1.0,
              "AJDILHJFNKE": -1.0
            },
            {
              "$type": "FireEffect",
              "predicates": [
                {
                  "$type": "ByTargetGlobalValue",
                  "key": "GV_InShootCD",
                  "value": 0.0
                },
                {
                  "$type": "HNLCJOPBDLC",
                  "target": "Self",
                  "gadgetState": 202
                },
                {
                  "$type": "ByTargetGlobalValue",
                  "key": "_randomEff",
                  "value": 0.0,
                  "compareType": "MoreThan"
                },
                {
                  "$type": "ByTargetGlobalValue",
                  "key": "_randomEff",
                  "value": 1.0,
                  "compareType": "LessAndEqual"
                }
              ],
              "rotationDampTime": "Eff_Stages_SceneObj_RemusSyllable_Fd_MMMusic_Medium_01",
              "PPPDJGDDOGD": 1.0,
              "AJDILHJFNKE": -1.0
            },
            {
              "$type": "FireEffect",
              "predicates": [
                {
                  "$type": "ByTargetGlobalValue",
                  "key": "GV_InShootCD",
                  "value": 0.0
                },
                {
                  "$type": "HNLCJOPBDLC",
                  "target": "Self",
                  "gadgetState": 202
                },
                {
                  "$type": "ByTargetGlobalValue",
                  "key": "_randomEff",
                  "value": 1.0,
                  "compareType": "MoreThan"
                },
                {
                  "$type": "ByTargetGlobalValue",
                  "key": "_randomEff",
                  "value": 2.0,
                  "compareType": "LessAndEqual"
                }
              ],
              "rotationDampTime": "Eff_Stages_SceneObj_RemusSyllable_Fd_MMMusic_Medium_02",
              "PPPDJGDDOGD": 1.0,
              "AJDILHJFNKE": -1.0
            },
            {
              "$type": "FireEffect",
              "predicates": [
                {
                  "$type": "ByTargetGlobalValue",
                  "key": "GV_InShootCD",
                  "value": 0.0
                },
                {
                  "$type": "ByTargetGlobalValue",
                  "key": "_randomEff",
                  "value": 0.0,
                  "compareType": "MoreThan"
                },
                {
                  "$type": "ByTargetGlobalValue",
                  "key": "_randomEff",
                  "value": 1.0,
                  "compareType": "LessAndEqual"
                },
                {
                  "$type": "HNLCJOPBDLC",
                  "target": "Self",
                  "gadgetState": 203
                }
              ],
              "rotationDampTime": "Eff_Stages_SceneObj_RemusSyllable_Fd_MMMusic_Big_01",
              "PPPDJGDDOGD": 1.0,
              "AJDILHJFNKE": -1.0
            },
            {
              "$type": "FireEffect",
              "predicates": [
                {
                  "$type": "ByTargetGlobalValue",
                  "key": "GV_InShootCD",
                  "value": 0.0
                },
                {
                  "$type": "ByTargetGlobalValue",
                  "key": "_randomEff",
                  "value": 1.0,
                  "compareType": "MoreThan"
                },
                {
                  "$type": "ByTargetGlobalValue",
                  "key": "_randomEff",
                  "value": 2.0,
                  "compareType": "LessAndEqual"
                },
                {
                  "$type": "HNLCJOPBDLC",
                  "target": "Self",
                  "gadgetState": 203
                }
              ],
              "rotationDampTime": "Eff_Stages_SceneObj_RemusSyllable_Fd_MMMusic_Big_02",
              "PPPDJGDDOGD": 1.0,
              "AJDILHJFNKE": -1.0
            }
          ]
        }
      },
      "onAdded": [
        {
          "$type": "FNPMFLOOCDD",
          "shieldHP": true,
          "value": 0.0,
          "key": "GV_InShootCD",
          "maxValue": 0.0,
          "minValue": 0.0
        },
        {
          "$type": "AttachModifier",
          "modifierName": "TimeTrackFireEffControl"
        }
      ]
    }
  }
]
