[
  {
    "Default": {
      "$type": "ConfigAbility",
      "abilityName": "WhiteBox_Toybrick_JumpPlatform",
      "abilityMixins": [
        {
          "$type": "AttachToGadgetStateMixin",
          "modifierName": "Line_Type_1_Attacher"
        },
        {
          "$type": "AttachToGadgetStateMixin",
          "gadgetState": 202,
          "modifierName": "Platform_PullBack"
        }
      ],
      "modifiers": {
        "EnableJump": {
          "modifierName": "",
          "elementDurability": 100.0,
          "modifierMixins": [
            {
              "$type": "HNBPIFIDPIP",
              "abilityName": "Avatar_Trampoline_Jump_Controller_ToyBrick",
              "isExcitedState": false,
              "selfAbilityName": ""
            }
          ]
        },
        "Line_Type_1_Attacher": {
          "modifierName": "",
          "elementDurability": 100.0,
          "onAdded": [
            {
              "$type": "ApplyModifier",
              "modifierName": "Create_Line_Gadget"
            }
          ]
        },
        "Create_Line_Gadget": {
          "modifierName": "",
          "duration": 0.20000000298023224,
          "elementDurability": 100.0,
          "onRemoved": [
            {
              "$type": "CreateGadget",
              "ownerIs": "Applier",
              "born": {
                "$type": "ConfigBornByAttachPoint",
                "offset": {
                  "x": 0.0,
                  "y": 0.5,
                  "z": 0.0
                },
                "useRotation": true,
                "attachPointName": "AnchorPoint",
                "attachPointTargetType": "Self"
              },
              "gadgetID": 70293049,
              "campID": 5001,
              "campTargetType": "All"
            }
          ]
        },
        "Platform_PullBack": {
          "modifierName": "",
          "elementDurability": 100.0,
          "onAdded": [
            {
              "$type": "ApplyModifier",
              "modifierName": "PullBackBehaviour_Handler"
            }
          ]
        },
        "PullBackBehaviour_Handler": {
          "modifierName": "",
          "duration": 1.0,
          "elementDurability": 100.0,
          "onRemoved": [
            {
              "$type": "HPIDNBEGJLL",
              "state": 203
            },
            {
              "$type": "ApplyModifier",
              "modifierName": "PullBackState_Handler"
            }
          ]
        },
        "PullBackState_Handler": {
          "modifierName": "",
          "duration": 11.0,
          "elementDurability": 100.0,
          "onRemoved": [
            {
              "$type": "HPIDNBEGJLL"
            }
          ]
        }
      },
      "onAdded": [
        {
          "$type": "AttachModifier",
          "modifierName": "EnableJump"
        }
      ]
    }
  },
  {
    "Default": {
      "$type": "ConfigAbility",
      "abilityName": "WhiteBox_Toybrick_JumpPlatform02",
      "abilityMixins": [
        {
          "$type": "AttachToGadgetStateMixin",
          "modifierName": "Line_Type_1_Attacher"
        },
        {
          "$type": "AttachToGadgetStateMixin",
          "gadgetState": 202,
          "modifierName": "EnableJump"
        }
      ],
      "modifiers": {
        "EnableJump": {
          "modifierName": "",
          "elementDurability": 100.0,
          "modifierMixins": [
            {
              "$type": "HNBPIFIDPIP",
              "abilityName": "Avatar_Trampoline_Jump_Controller_ToyBrick",
              "isExcitedState": false,
              "selfAbilityName": ""
            }
          ]
        },
        "Line_Type_1_Attacher": {
          "modifierName": "",
          "elementDurability": 100.0,
          "onAdded": [
            {
              "$type": "ApplyModifier",
              "modifierName": "Create_Line_Gadget"
            }
          ]
        },
        "Create_Line_Gadget": {
          "modifierName": "",
          "duration": 0.20000000298023224,
          "elementDurability": 100.0,
          "onRemoved": [
            {
              "$type": "CreateGadget",
              "ownerIs": "Applier",
              "born": {
                "$type": "ConfigBornByAttachPoint",
                "offset": {
                  "x": 0.0,
                  "y": 0.5,
                  "z": 0.0
                },
                "useRotation": true,
                "attachPointName": "AnchorPoint",
                "attachPointTargetType": "Self"
              },
              "gadgetID": 70293049,
              "campID": 5001,
              "campTargetType": "All"
            }
          ]
        }
      }
    }
  },
  {
    "Default": {
      "$type": "ConfigAbility",
      "abilityName": "WhiteBox_Toybrick_InstablePlatform",
      "abilityMixins": [
        {
          "$type": "FieldEntityCountChangeMixin",
          "campTargetType": "AllExceptSelf",
          "targetPredicates": [
            {
              "$type": "ByEntityTypes",
              "entityTypes": ["Avatar"]
            }
          ],
          "onFieldEnter": [
            {
              "$type": "AddGlobalValue",
              "value": 1.0,
              "key": "_Avatar_Count",
              "maxValue": 0.0,
              "minValue": 0.0
            }
          ],
          "onFieldExit": [
            {
              "$type": "AddGlobalValue",
              "value": -1.0,
              "key": "_Avatar_Count",
              "maxValue": 0.0,
              "minValue": 0.0
            }
          ],
          "simpleCountGlobaValueKey": "",
          "simpleCountMaxValue": 0.0,
          "simpleCountMinValue": 0.0
        }
      ],
      "abilitySpecials": {
        "_dur_201": 5.0,
        "_dur_202": 5.0
      },
      "modifiers": {
        "Instable_Watcher": {
          "modifierName": "",
          "elementDurability": 100.0,
          "thinkInterval": 0.5,
          "onThinkInterval": [
            {
              "$type": "ApplyModifier",
              "predicates": [
                {
                  "$type": "HNLCJOPBDLC",
                  "target": "Self"
                },
                {
                  "$type": "ByTargetGlobalValue",
                  "target": "Self",
                  "key": "_Avatar_Count",
                  "value": 0.0,
                  "compareType": "MoreThan"
                }
              ],
              "modifierName": "UNIQUE_Platform_Start_Break"
            }
          ]
        },
        "UNIQUE_Platform_Start_Break": {
          "stacking": "Unique",
          "modifierName": "",
          "forceTriggerWhenChangeAuthority": true,
          "duration": "_dur_201",
          "elementDurability": 100.0,
          "onAdded": [
            {
              "$type": "HPIDNBEGJLL",
              "state": 201
            }
          ],
          "onRemoved": [
            {
              "$type": "ApplyModifier",
              "modifierName": "UNIQUE_Platform_Break"
            }
          ]
        },
        "UNIQUE_Platform_Break": {
          "stacking": "Unique",
          "modifierName": "",
          "forceTriggerWhenChangeAuthority": true,
          "duration": "_dur_202",
          "elementDurability": 100.0,
          "onAdded": [
            {
              "$type": "HPIDNBEGJLL",
              "state": 202
            }
          ],
          "onRemoved": [
            {
              "$type": "HPIDNBEGJLL"
            }
          ]
        }
      },
      "onAdded": [
        {
          "$type": "AttachModifier",
          "modifierName": "Instable_Watcher"
        },
        {
          "$type": "SetGlobalValue",
          "value": 0.0,
          "key": "_Avatar_Count",
          "useLimitRange": true,
          "maxValue": 100.0,
          "minValue": 0.0
        }
      ]
    }
  },
  {
    "Default": {
      "$type": "ConfigAbility",
      "abilityName": "Avatar_Trampoline_Jump_Controller_ToyBrick",
      "modifiers": {
        "UNIQUE_Trampoline_Jump_Controller_ToyBrick": {
          "modifierName": "",
          "forceTriggerWhenChangeAuthority": true,
          "duration": 3.0,
          "elementDurability": 100.0,
          "modifierMixins": [
            {
              "$type": "AttachToStateIDMixin",
              "stateIDs": ["Jump"],
              "modifierName": "UNIQUE_Trampoline_Jump_Unable_ToyBrick",
              "DGFCLAIDIFI": ""
            },
            {
              "$type": "AttachToStateIDMixin",
              "stateIDs": ["Jump", "Fall"],
              "modifierName": "UNIQUE_Trampoline_Jump_CameraDamping_Close_ToyBrick",
              "DGFCLAIDIFI": ""
            }
          ],
          "onRemoved": [
            {
              "$type": "NHMGMIMGOKI",
              "shieldHP": true,
              "dampRatio": 1.0
            },
            {
              "$type": "EnableRocketJump",
              "shieldHP": true,
              "canBeHandledOnRecover": true,
              "damageRatio": "Trampoline"
            }
          ]
        },
        "UNIQUE_Trampoline_Jump_Unable_ToyBrick": {
          "modifierName": "",
          "forceTriggerWhenChangeAuthority": true,
          "elementDurability": 100.0,
          "modifierMixins": [
            {
              "$type": "CPBNAOBCILG",
              "maxValue": 0.4000000059604645
            }
          ],
          "onRemoved": [
            {
              "$type": "EnableRocketJump",
              "shieldHP": true,
              "canBeHandledOnRecover": true,
              "damageRatio": "Trampoline"
            }
          ],
          "onKill": [
            {
              "$type": "EnableRocketJump",
              "shieldHP": true,
              "canBeHandledOnRecover": true,
              "damageRatio": "Trampoline"
            }
          ]
        },
        "UNIQUE_Trampoline_Jump_CameraDamping_Close_ToyBrick": {
          "modifierName": "",
          "forceTriggerWhenChangeAuthority": true,
          "elementDurability": 100.0,
          "onRemoved": [
            {
              "$type": "NHMGMIMGOKI",
              "dampRatio": 1.0
            }
          ],
          "onKill": [
            {
              "$type": "NHMGMIMGOKI",
              "dampRatio": 1.0
            }
          ]
        },
        "Avatar_Trampoline_FallingDamage_Controller": {
          "modifierName": "",
          "duration": 3.5,
          "elementDurability": 100.0,
          "modifierMixins": [
            {
              "$type": "AttachToAnimatorStateIDMixin",
              "stateIDs": ["DropDown"],
              "modifierName": "Avatar_Trampoline_FallingDamage_Immune_Handler",
              "DGFCLAIDIFI": ""
            }
          ],
          "onRemoved": [
            {
              "$type": "SetGlobalValue",
              "value": 0.0,
              "key": "SuccessTriggerTrampolineJump",
              "maxValue": 0.0,
              "minValue": 0.0
            }
          ]
        },
        "Avatar_Trampoline_FallingDamage_Immune_Handler": {
          "modifierName": "",
          "elementDurability": 100.0,
          "onAdded": [
            {
              "$type": "ApplyModifier",
              "modifierName": "Avatar_Trampoline_FallingDamage_Immune"
            }
          ],
          "onRemoved": [
            {
              "$type": "RemoveModifier",
              "modifierName": "Avatar_Trampoline_FallingDamage_Immune"
            }
          ]
        },
        "Avatar_Trampoline_FallingDamage_Immune": {
          "modifierName": "",
          "elementDurability": 100.0,
          "properties": {
            "Actor_FallingDamageRatio": -1.0
          }
        }
      },
      "onAbilityStart": [
        {
          "$type": "NHMGMIMGOKI",
          "dampRatio": 1.5
        },
        {
          "$type": "EnableRocketJump",
          "canBeHandledOnRecover": true,
          "damageRatio": "Trampoline",
          "enable": true,
          "extention": {
            "xzMultiplier": 4.0,
            "yMultiplier": 10.0
          }
        },
        {
          "$type": "ApplyModifier",
          "modifierName": "Avatar_Trampoline_FallingDamage_Controller"
        },
        {
          "$type": "IAHIIADONFO",
          "failActions": [
            {
              "$type": "EnableRocketJump",
              "shieldHP": true,
              "canBeHandledOnRecover": true,
              "damageRatio": "Trampoline"
            },
            {
              "$type": "RemoveModifier",
              "modifierName": "Avatar_Trampoline_FallingDamage_Controller"
            },
            {
              "$type": "NHMGMIMGOKI",
              "dampRatio": 1.0
            }
          ],
          "successActions": [
            {
              "$type": "AddGlobalValue",
              "value": 1.0,
              "key": "SuccessTriggerTrampolineJump",
              "maxValue": 0.0,
              "minValue": 0.0
            }
          ]
        },
        {
          "$type": "ApplyModifier",
          "modifierName": "UNIQUE_Trampoline_Jump_Controller_ToyBrick"
        },
        {
          "$type": "FireEffect",
          "rotationDampTime": "Eff_SceneObj_JumpMushroom_02",
          "PPPDJGDDOGD": 1.0,
          "AJDILHJFNKE": -1.0
        }
      ],
      "isDynamicAbility": true
    }
  },
  {
    "Default": {
      "$type": "ConfigAbility",
      "abilityName": "Whitebox_Clockwork_TalkSolider01",
      "abilityMixins": [
        {
          "$type": "AttachModifierToSelfGlobalValueNoInitMixin",
          "globalValueKey": "SGV_Bubble_Talk_ID",
          "valueSteps": [
            -0.5, 0.5, 1.5, 2.5, 3.5, 4.5, 5.5, 6.5, 7.5, 8.5, 9.5, 10.5, 11.5,
            12.5, 13.5, 14.5, 15.5, 16.5, 17.5, 18.5, 19.5, 20.5, 21.5, 22.5,
            23.5, 24.5
          ],
          "modifierNameSteps": [
            "Bubble_00",
            "Bubble_01",
            "Bubble_02",
            "Bubble_03",
            "Bubble_04",
            "Bubble_05",
            "Bubble_06",
            "Bubble_07",
            "Bubble_08",
            "Bubble_09",
            "Bubble_10",
            "Bubble_11",
            "Bubble_12",
            "Bubble_13",
            "Bubble_14",
            "Bubble_15",
            "Bubble_16",
            "Bubble_17",
            "Bubble_18",
            "Bubble_19",
            "Bubble_20",
            "Bubble_21",
            "Bubble_22",
            "Bubble_23",
            "Bubble_24"
          ],
          "NMCLMHFBALJ": true
        }
      ],
      "modifiers": {
        "Bubble_00": {
          "modifierName": "",
          "elementDurability": 100.0,
          "onAdded": [
            {
              "$type": "EGJGPANEEBF",
              "content": "UI_NIGHTCROW_BUBBLE_TALK",
              "distance": 20.0
            }
          ]
        },
        "Bubble_00_Handler": {
          "modifierName": "",
          "duration": 1.600000023841858,
          "elementDurability": 100.0,
          "onRemoved": [
            {
              "$type": "EGJGPANEEBF",
              "content": "UI_NIGHTCROW_BUBBLE_TALK",
              "distance": 20.0
            }
          ]
        },
        "Bubble_01": {
          "modifierName": "",
          "elementDurability": 100.0,
          "onAdded": [
            {
              "$type": "EGJGPANEEBF",
              "content": "UI_ClockWork_BUBBLE_TALK_01"
            }
          ]
        },
        "Bubble_01_Handler": {
          "modifierName": "",
          "duration": 1.600000023841858,
          "elementDurability": 100.0,
          "onRemoved": [
            {
              "$type": "EGJGPANEEBF",
              "content": "UI_ClockWork_BUBBLE_TALK_01"
            }
          ]
        },
        "Bubble_02": {
          "modifierName": "",
          "elementDurability": 100.0,
          "onAdded": [
            {
              "$type": "EGJGPANEEBF",
              "content": "UI_ClockWork_BUBBLE_TALK_02"
            }
          ]
        },
        "Bubble_02_Handler": {
          "modifierName": "",
          "duration": 1.600000023841858,
          "elementDurability": 100.0,
          "onRemoved": [
            {
              "$type": "EGJGPANEEBF",
              "content": "UI_ClockWork_BUBBLE_TALK_02"
            }
          ]
        },
        "Bubble_03": {
          "modifierName": "",
          "elementDurability": 100.0,
          "onAdded": [
            {
              "$type": "EGJGPANEEBF",
              "content": "UI_ClockWork_BUBBLE_TALK_03"
            }
          ]
        },
        "Bubble_03_Handler": {
          "modifierName": "",
          "duration": 1.600000023841858,
          "elementDurability": 100.0,
          "onRemoved": [
            {
              "$type": "EGJGPANEEBF",
              "content": "UI_ClockWork_BUBBLE_TALK_03"
            }
          ]
        },
        "Bubble_04": {
          "modifierName": "",
          "elementDurability": 100.0,
          "onAdded": [
            {
              "$type": "EGJGPANEEBF",
              "content": "UI_ClockWork_BUBBLE_TALK_04"
            }
          ]
        },
        "Bubble_04_Handler": {
          "modifierName": "",
          "duration": 1.600000023841858,
          "elementDurability": 100.0,
          "onRemoved": [
            {
              "$type": "EGJGPANEEBF",
              "content": "UI_ClockWork_BUBBLE_TALK_04"
            }
          ]
        },
        "Bubble_05": {
          "modifierName": "",
          "elementDurability": 100.0,
          "onAdded": [
            {
              "$type": "EGJGPANEEBF",
              "content": "UI_ClockWork_BUBBLE_TALK_05"
            }
          ]
        },
        "Bubble_05_Handler": {
          "modifierName": "",
          "duration": 1.600000023841858,
          "elementDurability": 100.0,
          "onRemoved": [
            {
              "$type": "EGJGPANEEBF",
              "content": "UI_ClockWork_BUBBLE_TALK_05"
            }
          ]
        },
        "Bubble_06": {
          "modifierName": "",
          "elementDurability": 100.0,
          "onAdded": [
            {
              "$type": "EGJGPANEEBF",
              "content": "UI_ClockWork_BUBBLE_TALK_06"
            }
          ]
        },
        "Bubble_06_Handler": {
          "modifierName": "",
          "duration": 1.600000023841858,
          "elementDurability": 100.0,
          "onRemoved": [
            {
              "$type": "EGJGPANEEBF",
              "content": "UI_ClockWork_BUBBLE_TALK_06"
            }
          ]
        },
        "Bubble_07": {
          "modifierName": "",
          "elementDurability": 100.0,
          "onAdded": [
            {
              "$type": "EGJGPANEEBF",
              "content": "UI_ClockWork_BUBBLE_TALK_07"
            }
          ]
        },
        "Bubble_07_Handler": {
          "modifierName": "",
          "duration": 1.600000023841858,
          "elementDurability": 100.0,
          "onRemoved": [
            {
              "$type": "EGJGPANEEBF",
              "content": "UI_ClockWork_BUBBLE_TALK_07"
            }
          ]
        },
        "Bubble_08": {
          "modifierName": "",
          "elementDurability": 100.0,
          "onAdded": [
            {
              "$type": "EGJGPANEEBF",
              "content": "UI_ClockWork_BUBBLE_TALK_08"
            }
          ]
        },
        "Bubble_08_Handler": {
          "modifierName": "",
          "duration": 1.600000023841858,
          "elementDurability": 100.0,
          "onRemoved": [
            {
              "$type": "EGJGPANEEBF",
              "content": "UI_ClockWork_BUBBLE_TALK_08"
            }
          ]
        },
        "Bubble_09": {
          "modifierName": "",
          "elementDurability": 100.0,
          "onAdded": [
            {
              "$type": "EGJGPANEEBF",
              "content": "UI_ClockWork_BUBBLE_TALK_09"
            }
          ]
        },
        "Bubble_09_Handler": {
          "modifierName": "",
          "duration": 1.600000023841858,
          "elementDurability": 100.0,
          "onRemoved": [
            {
              "$type": "EGJGPANEEBF",
              "content": "UI_ClockWork_BUBBLE_TALK_09"
            }
          ]
        },
        "Bubble_10": {
          "modifierName": "",
          "elementDurability": 100.0,
          "onAdded": [
            {
              "$type": "EGJGPANEEBF",
              "content": "UI_ClockWork_BUBBLE_TALK_10"
            }
          ]
        },
        "Bubble_10_Handler": {
          "modifierName": "",
          "duration": 1.600000023841858,
          "elementDurability": 100.0,
          "onRemoved": [
            {
              "$type": "EGJGPANEEBF",
              "content": "UI_ClockWork_BUBBLE_TALK_10"
            }
          ]
        },
        "Bubble_11": {
          "modifierName": "",
          "elementDurability": 100.0,
          "onAdded": [
            {
              "$type": "BDBKKDKEHKH"
            },
            {
              "$type": "ApplyModifier",
              "modifierName": "Bubble_11_Handler"
            }
          ]
        },
        "Bubble_11_Handler": {
          "modifierName": "",
          "duration": 1.600000023841858,
          "elementDurability": 100.0,
          "onRemoved": [
            {
              "$type": "EGJGPANEEBF",
              "content": "UI_ClockWork_BUBBLE_TALK_11"
            }
          ]
        },
        "Bubble_12": {
          "modifierName": "",
          "elementDurability": 100.0,
          "onAdded": [
            {
              "$type": "BDBKKDKEHKH"
            },
            {
              "$type": "ApplyModifier",
              "modifierName": "Bubble_12_Handler"
            }
          ]
        },
        "Bubble_12_Handler": {
          "modifierName": "",
          "duration": 1.600000023841858,
          "elementDurability": 100.0,
          "onRemoved": [
            {
              "$type": "EGJGPANEEBF",
              "content": "UI_ClockWork_BUBBLE_TALK_12"
            }
          ]
        },
        "Bubble_13": {
          "modifierName": "",
          "elementDurability": 100.0,
          "onAdded": [
            {
              "$type": "BDBKKDKEHKH"
            },
            {
              "$type": "ApplyModifier",
              "modifierName": "Bubble_13_Handler"
            }
          ]
        },
        "Bubble_13_Handler": {
          "modifierName": "",
          "duration": 1.600000023841858,
          "elementDurability": 100.0,
          "onRemoved": [
            {
              "$type": "EGJGPANEEBF",
              "content": "UI_ClockWork_BUBBLE_TALK_13"
            }
          ]
        },
        "Bubble_14": {
          "modifierName": "",
          "elementDurability": 100.0,
          "onAdded": [
            {
              "$type": "BDBKKDKEHKH"
            },
            {
              "$type": "ApplyModifier",
              "modifierName": "Bubble_14_Handler"
            }
          ]
        },
        "Bubble_14_Handler": {
          "modifierName": "",
          "duration": 1.600000023841858,
          "elementDurability": 100.0,
          "onRemoved": [
            {
              "$type": "EGJGPANEEBF",
              "content": "UI_ClockWork_BUBBLE_TALK_14"
            }
          ]
        },
        "Bubble_15": {
          "modifierName": "",
          "elementDurability": 100.0,
          "onAdded": [
            {
              "$type": "BDBKKDKEHKH"
            },
            {
              "$type": "ApplyModifier",
              "modifierName": "Bubble_15_Handler"
            }
          ]
        },
        "Bubble_15_Handler": {
          "modifierName": "",
          "duration": 1.600000023841858,
          "elementDurability": 100.0,
          "onRemoved": [
            {
              "$type": "EGJGPANEEBF",
              "content": "UI_ClockWork_BUBBLE_TALK_15"
            }
          ]
        },
        "Bubble_16": {
          "modifierName": "",
          "elementDurability": 100.0,
          "onAdded": [
            {
              "$type": "BDBKKDKEHKH"
            },
            {
              "$type": "ApplyModifier",
              "modifierName": "Bubble_16_Handler"
            }
          ]
        },
        "Bubble_16_Handler": {
          "modifierName": "",
          "duration": 1.600000023841858,
          "elementDurability": 100.0,
          "onRemoved": [
            {
              "$type": "EGJGPANEEBF",
              "content": "UI_ClockWork_BUBBLE_TALK_16"
            }
          ]
        },
        "Bubble_17": {
          "modifierName": "",
          "elementDurability": 100.0,
          "onAdded": [
            {
              "$type": "BDBKKDKEHKH"
            },
            {
              "$type": "ApplyModifier",
              "modifierName": "Bubble_17_Handler"
            }
          ]
        },
        "Bubble_17_Handler": {
          "modifierName": "",
          "duration": 1.600000023841858,
          "elementDurability": 100.0,
          "onRemoved": [
            {
              "$type": "EGJGPANEEBF",
              "content": "UI_ClockWork_BUBBLE_TALK_17"
            }
          ]
        },
        "Bubble_18": {
          "modifierName": "",
          "elementDurability": 100.0,
          "onAdded": [
            {
              "$type": "BDBKKDKEHKH"
            },
            {
              "$type": "ApplyModifier",
              "modifierName": "Bubble_18_Handler"
            }
          ]
        },
        "Bubble_18_Handler": {
          "modifierName": "",
          "duration": 1.600000023841858,
          "elementDurability": 100.0,
          "onRemoved": [
            {
              "$type": "EGJGPANEEBF",
              "content": "UI_ClockWork_BUBBLE_TALK_18"
            }
          ]
        },
        "Bubble_19": {
          "modifierName": "",
          "elementDurability": 100.0,
          "onAdded": [
            {
              "$type": "BDBKKDKEHKH"
            },
            {
              "$type": "ApplyModifier",
              "modifierName": "Bubble_19_Handler"
            }
          ]
        },
        "Bubble_19_Handler": {
          "modifierName": "",
          "duration": 1.600000023841858,
          "elementDurability": 100.0,
          "onRemoved": [
            {
              "$type": "EGJGPANEEBF",
              "content": "UI_ClockWork_BUBBLE_TALK_19"
            }
          ]
        },
        "Bubble_20": {
          "modifierName": "",
          "elementDurability": 100.0,
          "onAdded": [
            {
              "$type": "BDBKKDKEHKH"
            },
            {
              "$type": "ApplyModifier",
              "modifierName": "Bubble_20_Handler"
            }
          ]
        },
        "Bubble_20_Handler": {
          "modifierName": "",
          "duration": 1.600000023841858,
          "elementDurability": 100.0,
          "onRemoved": [
            {
              "$type": "EGJGPANEEBF",
              "content": "UI_ClockWork_BUBBLE_TALK_20"
            }
          ]
        },
        "Bubble_21": {
          "modifierName": "",
          "elementDurability": 100.0,
          "onAdded": [
            {
              "$type": "BDBKKDKEHKH"
            },
            {
              "$type": "ApplyModifier",
              "modifierName": "Bubble_21_Handler"
            }
          ]
        },
        "Bubble_21_Handler": {
          "modifierName": "",
          "duration": 1.600000023841858,
          "elementDurability": 100.0,
          "onRemoved": [
            {
              "$type": "EGJGPANEEBF",
              "content": "UI_ClockWork_BUBBLE_TALK_21"
            }
          ]
        },
        "Bubble_22": {
          "modifierName": "",
          "elementDurability": 100.0,
          "onAdded": [
            {
              "$type": "BDBKKDKEHKH"
            },
            {
              "$type": "ApplyModifier",
              "modifierName": "Bubble_22_Handler"
            }
          ]
        },
        "Bubble_22_Handler": {
          "modifierName": "",
          "duration": 1.600000023841858,
          "elementDurability": 100.0,
          "onRemoved": [
            {
              "$type": "EGJGPANEEBF",
              "content": "UI_ClockWork_BUBBLE_TALK_22"
            }
          ]
        },
        "Bubble_23": {
          "modifierName": "",
          "elementDurability": 100.0,
          "onAdded": [
            {
              "$type": "BDBKKDKEHKH"
            },
            {
              "$type": "ApplyModifier",
              "modifierName": "Bubble_23_Handler"
            }
          ]
        },
        "Bubble_23_Handler": {
          "modifierName": "",
          "duration": 1.600000023841858,
          "elementDurability": 100.0,
          "onRemoved": [
            {
              "$type": "EGJGPANEEBF",
              "content": "UI_ClockWork_BUBBLE_TALK_23"
            }
          ]
        },
        "Bubble_24": {
          "modifierName": "",
          "elementDurability": 100.0,
          "onAdded": [
            {
              "$type": "BDBKKDKEHKH"
            },
            {
              "$type": "ApplyModifier",
              "modifierName": "Bubble_24_Handler"
            }
          ]
        },
        "Bubble_24_Handler": {
          "modifierName": "",
          "duration": 1.600000023841858,
          "elementDurability": 100.0,
          "onRemoved": [
            {
              "$type": "EGJGPANEEBF",
              "content": "UI_ClockWork_BUBBLE_TALK_24"
            }
          ]
        }
      }
    }
  },
  {
    "Default": {
      "$type": "ConfigAbility",
      "abilityName": "Whitebox_Clockwork_TalkSolider02",
      "abilityMixins": [
        {
          "$type": "AttachModifierToSelfGlobalValueNoInitMixin",
          "globalValueKey": "SGV_Bubble_Talk_ID",
          "valueSteps": [
            24.5, 25.5, 26.5, 27.5, 28.5, 29.5, 30.5, 31.5, 32.5, 33.5, 34.5,
            35.5, 36.5, 37.5, 38.5, 39.5, 40.5, 41.5, 42.5, 43.5, 44.5, 45.5,
            46.5, 47.5, 48.5
          ],
          "modifierNameSteps": [
            "Bubble_25",
            "Bubble_26",
            "Bubble_27",
            "Bubble_28",
            "Bubble_29",
            "Bubble_30",
            "Bubble_31",
            "Bubble_32",
            "Bubble_33",
            "Bubble_34",
            "Bubble_35",
            "Bubble_36",
            "Bubble_37",
            "Bubble_38",
            "Bubble_39",
            "Bubble_40",
            "Bubble_41",
            "Bubble_42",
            "Bubble_43",
            "Bubble_44",
            "Bubble_45",
            "Bubble_46",
            "Bubble_47",
            "Bubble_48"
          ],
          "NMCLMHFBALJ": true
        }
      ],
      "modifiers": {
        "Bubble_25": {
          "modifierName": "",
          "elementDurability": 100.0,
          "onAdded": [
            {
              "$type": "BDBKKDKEHKH"
            },
            {
              "$type": "ApplyModifier",
              "modifierName": "Bubble_25_Handler"
            }
          ]
        },
        "Bubble_25_Handler": {
          "modifierName": "",
          "duration": 1.600000023841858,
          "elementDurability": 100.0,
          "onRemoved": [
            {
              "$type": "EGJGPANEEBF",
              "content": "UI_ClockWork_BUBBLE_TALK_25"
            }
          ]
        },
        "Bubble_26": {
          "modifierName": "",
          "elementDurability": 100.0,
          "onAdded": [
            {
              "$type": "BDBKKDKEHKH"
            },
            {
              "$type": "ApplyModifier",
              "modifierName": "Bubble_26_Handler"
            }
          ]
        },
        "Bubble_26_Handler": {
          "modifierName": "",
          "duration": 1.600000023841858,
          "elementDurability": 100.0,
          "onRemoved": [
            {
              "$type": "EGJGPANEEBF",
              "content": "UI_ClockWork_BUBBLE_TALK_26"
            }
          ]
        },
        "Bubble_27": {
          "modifierName": "",
          "elementDurability": 100.0,
          "onAdded": [
            {
              "$type": "BDBKKDKEHKH"
            },
            {
              "$type": "ApplyModifier",
              "modifierName": "Bubble_27_Handler"
            }
          ]
        },
        "Bubble_27_Handler": {
          "modifierName": "",
          "duration": 1.600000023841858,
          "elementDurability": 100.0,
          "onRemoved": [
            {
              "$type": "EGJGPANEEBF",
              "content": "UI_ClockWork_BUBBLE_TALK_27"
            }
          ]
        },
        "Bubble_28": {
          "modifierName": "",
          "elementDurability": 100.0,
          "onAdded": [
            {
              "$type": "BDBKKDKEHKH"
            },
            {
              "$type": "ApplyModifier",
              "modifierName": "Bubble_28_Handler"
            }
          ]
        },
        "Bubble_28_Handler": {
          "modifierName": "",
          "duration": 1.600000023841858,
          "elementDurability": 100.0,
          "onRemoved": [
            {
              "$type": "EGJGPANEEBF",
              "content": "UI_ClockWork_BUBBLE_TALK_28"
            }
          ]
        },
        "Bubble_29": {
          "modifierName": "",
          "elementDurability": 100.0,
          "onAdded": [
            {
              "$type": "BDBKKDKEHKH"
            },
            {
              "$type": "ApplyModifier",
              "modifierName": "Bubble_29_Handler"
            }
          ]
        },
        "Bubble_29_Handler": {
          "modifierName": "",
          "duration": 1.600000023841858,
          "elementDurability": 100.0,
          "onRemoved": [
            {
              "$type": "EGJGPANEEBF",
              "content": "UI_ClockWork_BUBBLE_TALK_29"
            }
          ]
        },
        "Bubble_30": {
          "modifierName": "",
          "elementDurability": 100.0,
          "onAdded": [
            {
              "$type": "BDBKKDKEHKH"
            },
            {
              "$type": "ApplyModifier",
              "modifierName": "Bubble_30_Handler"
            }
          ]
        },
        "Bubble_30_Handler": {
          "modifierName": "",
          "duration": 1.600000023841858,
          "elementDurability": 100.0,
          "onRemoved": [
            {
              "$type": "EGJGPANEEBF",
              "content": "UI_ClockWork_BUBBLE_TALK_30"
            }
          ]
        },
        "Bubble_31": {
          "modifierName": "",
          "elementDurability": 100.0,
          "onAdded": [
            {
              "$type": "BDBKKDKEHKH"
            },
            {
              "$type": "ApplyModifier",
              "modifierName": "Bubble_31_Handler"
            }
          ]
        },
        "Bubble_31_Handler": {
          "modifierName": "",
          "duration": 1.600000023841858,
          "elementDurability": 100.0,
          "onRemoved": [
            {
              "$type": "EGJGPANEEBF",
              "content": "UI_ClockWork_BUBBLE_TALK_31"
            }
          ]
        },
        "Bubble_32": {
          "modifierName": "",
          "elementDurability": 100.0,
          "onAdded": [
            {
              "$type": "BDBKKDKEHKH"
            },
            {
              "$type": "ApplyModifier",
              "modifierName": "Bubble_32_Handler"
            }
          ]
        },
        "Bubble_32_Handler": {
          "modifierName": "",
          "duration": 1.600000023841858,
          "elementDurability": 100.0,
          "onRemoved": [
            {
              "$type": "EGJGPANEEBF",
              "content": "UI_ClockWork_BUBBLE_TALK_32"
            }
          ]
        },
        "Bubble_33": {
          "modifierName": "",
          "elementDurability": 100.0,
          "onAdded": [
            {
              "$type": "BDBKKDKEHKH"
            },
            {
              "$type": "ApplyModifier",
              "modifierName": "Bubble_33_Handler"
            }
          ]
        },
        "Bubble_33_Handler": {
          "modifierName": "",
          "duration": 1.600000023841858,
          "elementDurability": 100.0,
          "onRemoved": [
            {
              "$type": "EGJGPANEEBF",
              "content": "UI_ClockWork_BUBBLE_TALK_33"
            }
          ]
        },
        "Bubble_34": {
          "modifierName": "",
          "elementDurability": 100.0,
          "onAdded": [
            {
              "$type": "BDBKKDKEHKH"
            },
            {
              "$type": "ApplyModifier",
              "modifierName": "Bubble_34_Handler"
            }
          ]
        },
        "Bubble_34_Handler": {
          "modifierName": "",
          "duration": 1.600000023841858,
          "elementDurability": 100.0,
          "onRemoved": [
            {
              "$type": "EGJGPANEEBF",
              "content": "UI_ClockWork_BUBBLE_TALK_34"
            }
          ]
        },
        "Bubble_35": {
          "modifierName": "",
          "elementDurability": 100.0,
          "onAdded": [
            {
              "$type": "BDBKKDKEHKH"
            },
            {
              "$type": "ApplyModifier",
              "modifierName": "Bubble_35_Handler"
            }
          ]
        },
        "Bubble_35_Handler": {
          "modifierName": "",
          "duration": 1.600000023841858,
          "elementDurability": 100.0,
          "onRemoved": [
            {
              "$type": "EGJGPANEEBF",
              "content": "UI_ClockWork_BUBBLE_TALK_35"
            }
          ]
        },
        "Bubble_36": {
          "modifierName": "",
          "elementDurability": 100.0,
          "onAdded": [
            {
              "$type": "BDBKKDKEHKH"
            },
            {
              "$type": "ApplyModifier",
              "modifierName": "Bubble_36_Handler"
            }
          ]
        },
        "Bubble_36_Handler": {
          "modifierName": "",
          "duration": 1.600000023841858,
          "elementDurability": 100.0,
          "onRemoved": [
            {
              "$type": "EGJGPANEEBF",
              "content": "UI_ClockWork_BUBBLE_TALK_36"
            }
          ]
        },
        "Bubble_37": {
          "modifierName": "",
          "elementDurability": 100.0,
          "onAdded": [
            {
              "$type": "BDBKKDKEHKH"
            },
            {
              "$type": "ApplyModifier",
              "modifierName": "Bubble_37_Handler"
            }
          ]
        },
        "Bubble_37_Handler": {
          "modifierName": "",
          "duration": 1.600000023841858,
          "elementDurability": 100.0,
          "onRemoved": [
            {
              "$type": "EGJGPANEEBF",
              "content": "UI_ClockWork_BUBBLE_TALK_37"
            }
          ]
        },
        "Bubble_38": {
          "modifierName": "",
          "elementDurability": 100.0,
          "onAdded": [
            {
              "$type": "BDBKKDKEHKH"
            },
            {
              "$type": "ApplyModifier",
              "modifierName": "Bubble_38_Handler"
            }
          ]
        },
        "Bubble_38_Handler": {
          "modifierName": "",
          "duration": 1.600000023841858,
          "elementDurability": 100.0,
          "onRemoved": [
            {
              "$type": "EGJGPANEEBF",
              "content": "UI_ClockWork_BUBBLE_TALK_38"
            }
          ]
        },
        "Bubble_39": {
          "modifierName": "",
          "elementDurability": 100.0,
          "onAdded": [
            {
              "$type": "BDBKKDKEHKH"
            },
            {
              "$type": "ApplyModifier",
              "modifierName": "Bubble_39_Handler"
            }
          ]
        },
        "Bubble_39_Handler": {
          "modifierName": "",
          "duration": 1.600000023841858,
          "elementDurability": 100.0,
          "onRemoved": [
            {
              "$type": "EGJGPANEEBF",
              "content": "UI_ClockWork_BUBBLE_TALK_39"
            }
          ]
        },
        "Bubble_40": {
          "modifierName": "",
          "elementDurability": 100.0,
          "onAdded": [
            {
              "$type": "BDBKKDKEHKH"
            },
            {
              "$type": "ApplyModifier",
              "modifierName": "Bubble_40_Handler"
            }
          ]
        },
        "Bubble_40_Handler": {
          "modifierName": "",
          "duration": 1.600000023841858,
          "elementDurability": 100.0,
          "onRemoved": [
            {
              "$type": "EGJGPANEEBF",
              "content": "UI_ClockWork_BUBBLE_TALK_40"
            }
          ]
        },
        "Bubble_41": {
          "modifierName": "",
          "elementDurability": 100.0,
          "onAdded": [
            {
              "$type": "BDBKKDKEHKH"
            },
            {
              "$type": "ApplyModifier",
              "modifierName": "Bubble_41_Handler"
            }
          ]
        },
        "Bubble_41_Handler": {
          "modifierName": "",
          "duration": 1.600000023841858,
          "elementDurability": 100.0,
          "onRemoved": [
            {
              "$type": "EGJGPANEEBF",
              "content": "UI_ClockWork_BUBBLE_TALK_41"
            }
          ]
        },
        "Bubble_42": {
          "modifierName": "",
          "elementDurability": 100.0,
          "onAdded": [
            {
              "$type": "BDBKKDKEHKH"
            },
            {
              "$type": "ApplyModifier",
              "modifierName": "Bubble_42_Handler"
            }
          ]
        },
        "Bubble_42_Handler": {
          "modifierName": "",
          "duration": 1.600000023841858,
          "elementDurability": 100.0,
          "onRemoved": [
            {
              "$type": "EGJGPANEEBF",
              "content": "UI_ClockWork_BUBBLE_TALK_42"
            }
          ]
        },
        "Bubble_43": {
          "modifierName": "",
          "elementDurability": 100.0,
          "onAdded": [
            {
              "$type": "BDBKKDKEHKH"
            },
            {
              "$type": "ApplyModifier",
              "modifierName": "Bubble_43_Handler"
            }
          ]
        },
        "Bubble_43_Handler": {
          "modifierName": "",
          "duration": 1.600000023841858,
          "elementDurability": 100.0,
          "onRemoved": [
            {
              "$type": "EGJGPANEEBF",
              "content": "UI_ClockWork_BUBBLE_TALK_43"
            }
          ]
        },
        "Bubble_44": {
          "modifierName": "",
          "elementDurability": 100.0,
          "onAdded": [
            {
              "$type": "BDBKKDKEHKH"
            },
            {
              "$type": "ApplyModifier",
              "modifierName": "Bubble_44_Handler"
            }
          ]
        },
        "Bubble_44_Handler": {
          "modifierName": "",
          "duration": 1.600000023841858,
          "elementDurability": 100.0,
          "onRemoved": [
            {
              "$type": "EGJGPANEEBF",
              "content": "UI_ClockWork_BUBBLE_TALK_44"
            }
          ]
        },
        "Bubble_45": {
          "modifierName": "",
          "elementDurability": 100.0,
          "onAdded": [
            {
              "$type": "BDBKKDKEHKH"
            },
            {
              "$type": "ApplyModifier",
              "modifierName": "Bubble_45_Handler"
            }
          ]
        },
        "Bubble_45_Handler": {
          "modifierName": "",
          "duration": 1.600000023841858,
          "elementDurability": 100.0,
          "onRemoved": [
            {
              "$type": "EGJGPANEEBF",
              "content": "UI_ClockWork_BUBBLE_TALK_45"
            }
          ]
        },
        "Bubble_46": {
          "modifierName": "",
          "elementDurability": 100.0,
          "onAdded": [
            {
              "$type": "BDBKKDKEHKH"
            },
            {
              "$type": "ApplyModifier",
              "modifierName": "Bubble_46_Handler"
            }
          ]
        },
        "Bubble_46_Handler": {
          "modifierName": "",
          "duration": 1.600000023841858,
          "elementDurability": 100.0,
          "onRemoved": [
            {
              "$type": "EGJGPANEEBF",
              "content": "UI_ClockWork_BUBBLE_TALK_46"
            }
          ]
        },
        "Bubble_47": {
          "modifierName": "",
          "elementDurability": 100.0,
          "onAdded": [
            {
              "$type": "BDBKKDKEHKH"
            },
            {
              "$type": "ApplyModifier",
              "modifierName": "Bubble_47_Handler"
            }
          ]
        },
        "Bubble_47_Handler": {
          "modifierName": "",
          "duration": 1.600000023841858,
          "elementDurability": 100.0,
          "onRemoved": [
            {
              "$type": "EGJGPANEEBF",
              "content": "UI_ClockWork_BUBBLE_TALK_47"
            }
          ]
        },
        "Bubble_48": {
          "modifierName": "",
          "elementDurability": 100.0,
          "onAdded": [
            {
              "$type": "BDBKKDKEHKH"
            },
            {
              "$type": "ApplyModifier",
              "modifierName": "Bubble_48_Handler"
            }
          ]
        },
        "Bubble_48_Handler": {
          "modifierName": "",
          "duration": 1.600000023841858,
          "elementDurability": 100.0,
          "onRemoved": [
            {
              "$type": "EGJGPANEEBF",
              "content": "UI_ClockWork_BUBBLE_TALK_48"
            }
          ]
        }
      }
    }
  },
  {
    "Default": {
      "$type": "ConfigAbility",
      "abilityName": "Whitebox_Clockwork_TalkSolider03",
      "abilityMixins": [
        {
          "$type": "AttachModifierToSelfGlobalValueNoInitMixin",
          "globalValueKey": "SGV_Bubble_Talk_ID",
          "valueSteps": [
            48.5, 49.5, 50.5, 51.5, 52.5, 53.5, 54.5, 55.5, 56.5, 57.5
          ],
          "modifierNameSteps": [
            "Bubble_49",
            "Bubble_50",
            "Bubble_51",
            "Bubble_52",
            "Bubble_53",
            "Bubble_54",
            "Bubble_55",
            "Bubble_56",
            "Bubble_57"
          ],
          "NMCLMHFBALJ": true
        }
      ],
      "modifiers": {
        "Bubble_49": {
          "modifierName": "",
          "elementDurability": 100.0,
          "onAdded": [
            {
              "$type": "BDBKKDKEHKH"
            },
            {
              "$type": "ApplyModifier",
              "modifierName": "Bubble_49_Handler"
            }
          ]
        },
        "Bubble_49_Handler": {
          "modifierName": "",
          "duration": 1.600000023841858,
          "elementDurability": 100.0,
          "onRemoved": [
            {
              "$type": "EGJGPANEEBF",
              "content": "UI_ClockWork_BUBBLE_TALK_49"
            }
          ]
        },
        "Bubble_50": {
          "modifierName": "",
          "elementDurability": 100.0,
          "onAdded": [
            {
              "$type": "BDBKKDKEHKH"
            },
            {
              "$type": "ApplyModifier",
              "modifierName": "Bubble_50_Handler"
            }
          ]
        },
        "Bubble_50_Handler": {
          "modifierName": "",
          "duration": 1.600000023841858,
          "elementDurability": 100.0,
          "onRemoved": [
            {
              "$type": "EGJGPANEEBF",
              "content": "UI_ClockWork_BUBBLE_TALK_50"
            }
          ]
        },
        "Bubble_51": {
          "modifierName": "",
          "elementDurability": 100.0,
          "onAdded": [
            {
              "$type": "BDBKKDKEHKH"
            },
            {
              "$type": "ApplyModifier",
              "modifierName": "Bubble_51_Handler"
            }
          ]
        },
        "Bubble_51_Handler": {
          "modifierName": "",
          "duration": 1.600000023841858,
          "elementDurability": 100.0,
          "onRemoved": [
            {
              "$type": "EGJGPANEEBF",
              "content": "UI_ClockWork_BUBBLE_TALK_51"
            }
          ]
        },
        "Bubble_52": {
          "modifierName": "",
          "elementDurability": 100.0,
          "onAdded": [
            {
              "$type": "BDBKKDKEHKH"
            },
            {
              "$type": "ApplyModifier",
              "modifierName": "Bubble_52_Handler"
            }
          ]
        },
        "Bubble_52_Handler": {
          "modifierName": "",
          "duration": 1.600000023841858,
          "elementDurability": 100.0,
          "onRemoved": [
            {
              "$type": "EGJGPANEEBF",
              "content": "UI_ClockWork_BUBBLE_TALK_52"
            }
          ]
        },
        "Bubble_53": {
          "modifierName": "",
          "elementDurability": 100.0,
          "onAdded": [
            {
              "$type": "BDBKKDKEHKH"
            },
            {
              "$type": "ApplyModifier",
              "modifierName": "Bubble_53_Handler"
            }
          ]
        },
        "Bubble_53_Handler": {
          "modifierName": "",
          "duration": 1.600000023841858,
          "elementDurability": 100.0,
          "onRemoved": [
            {
              "$type": "EGJGPANEEBF",
              "content": "UI_ClockWork_BUBBLE_TALK_53"
            }
          ]
        },
        "Bubble_54": {
          "modifierName": "",
          "elementDurability": 100.0,
          "onAdded": [
            {
              "$type": "BDBKKDKEHKH"
            },
            {
              "$type": "ApplyModifier",
              "modifierName": "Bubble_54_Handler"
            }
          ]
        },
        "Bubble_54_Handler": {
          "modifierName": "",
          "duration": 1.600000023841858,
          "elementDurability": 100.0,
          "onRemoved": [
            {
              "$type": "EGJGPANEEBF",
              "content": "UI_ClockWork_BUBBLE_TALK_54"
            }
          ]
        },
        "Bubble_55": {
          "modifierName": "",
          "elementDurability": 100.0,
          "onAdded": [
            {
              "$type": "BDBKKDKEHKH"
            },
            {
              "$type": "ApplyModifier",
              "modifierName": "Bubble_55_Handler"
            }
          ]
        },
        "Bubble_55_Handler": {
          "modifierName": "",
          "duration": 1.600000023841858,
          "elementDurability": 100.0,
          "onRemoved": [
            {
              "$type": "EGJGPANEEBF",
              "content": "UI_ClockWork_BUBBLE_TALK_55"
            }
          ]
        },
        "Bubble_56": {
          "modifierName": "",
          "elementDurability": 100.0,
          "onAdded": [
            {
              "$type": "BDBKKDKEHKH"
            },
            {
              "$type": "ApplyModifier",
              "modifierName": "Bubble_56_Handler"
            }
          ]
        },
        "Bubble_56_Handler": {
          "modifierName": "",
          "duration": 1.600000023841858,
          "elementDurability": 100.0,
          "onRemoved": [
            {
              "$type": "EGJGPANEEBF",
              "content": "UI_ClockWork_BUBBLE_TALK_56"
            }
          ]
        },
        "Bubble_57": {
          "modifierName": "",
          "elementDurability": 100.0,
          "onAdded": [
            {
              "$type": "BDBKKDKEHKH"
            },
            {
              "$type": "ApplyModifier",
              "modifierName": "Bubble_57_Handler"
            }
          ]
        },
        "Bubble_57_Handler": {
          "modifierName": "",
          "duration": 1.600000023841858,
          "elementDurability": 100.0,
          "onRemoved": [
            {
              "$type": "EGJGPANEEBF",
              "content": "UI_ClockWork_BUBBLE_TALK_57"
            }
          ]
        }
      }
    }
  },
  {
    "Default": {
      "$type": "ConfigAbility",
      "abilityName": "WhiteBox_DragonDungeon_DragonHead",
      "abilityMixins": [
        {
          "$type": "AttachModifierToSelfGlobalValueNoInitMixin",
          "globalValueKey": "SGV_HeadPos",
          "valueSteps": [-0.5, 0.5, 1.5, 2.5, 3.5],
          "modifierNameSteps": ["Pos_01", "Pos_02", "Pos_03"],
          "NMCLMHFBALJ": true
        },
        {
          "$type": "AttachToGadgetStateMixin",
          "modifierName": "Mouth_Close"
        },
        {
          "$type": "AttachToGadgetStateMixin",
          "gadgetState": 201,
          "modifierName": "Mouth_Open"
        }
      ],
      "modifiers": {
        "Head_Fog_Effect": {
          "modifierName": "",
          "elementDurability": 100.0,
          "onAdded": [
            {
              "$type": "AttachEffect",
              "rotationDampTime": "Eff_SceneObj_SwampFogMass_01",
              "PPPDJGDDOGD": 1.0,
              "AJDILHJFNKE": -1.0
            }
          ]
        },
        "Mouth_Close": {
          "modifierName": "",
          "elementDurability": 100.0
        },
        "Mouth_Open": {
          "modifierName": "",
          "elementDurability": 100.0,
          "onAdded": [
            {
              "$type": "ApplyModifier",
              "modifierName": "Bullet_Create_Handler"
            }
          ]
        },
        "Bullet_Create_Handler": {
          "modifierName": "",
          "duration": 1.2000000476837158,
          "elementDurability": 100.0,
          "onRemoved": [
            {
              "$type": "ApplyModifier",
              "modifierName": "Bullet_Create"
            }
          ]
        },
        "Bullet_Create": {
          "modifierName": "",
          "duration": 1.0,
          "elementDurability": 100.0,
          "onAdded": [
            {
              "$type": "SetSelfAttackTarget",
              "otherTargets": {
                "$type": "SelectTargetsByShape",
                "topLimit": 1,
                "sortType": "Nearest",
                "shapeName": "CircleR50",
                "campTargetType": "AllExceptSelf",
                "doOffStage": 1.0
              },
              "predicates": [
                {
                  "$type": "ByEntityTypes",
                  "entityTypes": ["Avatar"]
                }
              ]
            },
            {
              "$type": "TriggerBullet",
              "bulletID": 70293105,
              "born": {
                "$type": "ConfigBornByAttachPoint",
                "offset": {
                  "x": 0.0,
                  "y": 0.0,
                  "z": 0.0
                },
                "useRotation": true,
                "attachPointName": "ShootPoint",
                "attachPointTargetType": "Self"
              }
            }
          ]
        },
        "Pos_01": {
          "modifierName": "",
          "elementDurability": 100.0
        },
        "Pos_02": {
          "modifierName": "",
          "elementDurability": 100.0
        },
        "Pos_03": {
          "modifierName": "",
          "elementDurability": 100.0
        }
      }
    }
  },
  {
    "Default": {
      "$type": "ConfigAbility",
      "abilityName": "WhiteBox_DragonDungeon_HugeBullet",
      "modifiers": {
        "Effect": {
          "modifierName": "",
          "elementDurability": 100.0,
          "onAdded": [
            {
              "$type": "AttachEffect",
              "rotationDampTime": "Eff_Monster_Effigy_Ice_Revive_IceBarrage_Trail",
              "PPPDJGDDOGD": 1.0,
              "AJDILHJFNKE": -1.0
            }
          ]
        }
      },
      "onAdded": [
        {
          "$type": "ApplyModifier",
          "modifierName": "Effect"
        }
      ],
      "onAbilityStart": [
        {
          "$type": "FireEffect",
          "rotationDampTime": "Eff_Monster_Effigy_Ice_Revive_IceBarrage_Hit",
          "PPPDJGDDOGD": 1.0,
          "AJDILHJFNKE": -1.0
        },
        {
          "$type": "TriggerAttackEvent",
          "attackEvent": {
            "attackPattern": {
              "$type": "ConfigAttackSphere",
              "triggerType": "TriggerNoRepeat",
              "born": {
                "$type": "ConfigBornByCollisionPoint"
              },
              "radius": 1.0
            },
            "attackInfo": {
              "attackTag": "",
              "attenuationTag": "",
              "attenuationGroup": "default",
              "attackProperty": {
                "actorGrassSubHurtDelta": 0.5,
                "actorWindSubHurtDelta": 0.0,
                "elementType": "Fire",
                "elementDurability": 50.0,
                "strikeType": "Blunt",
                "enBreak": 50.0,
                "GLKMCMDJBIK": 0.0
              },
              "hitPattern": {
                "onHitEffectName": "none",
                "hitImpulseY": "",
                "hitImpulseType": "LV4",
                "hitHaltTimeScale": 0.009999999776482582
              },
              "cameraShake": {
                "shakeRange": 0.05999999865889549,
                "shakeTime": 0.09000000357627869
              },
              "canBeModifiedBy": "OriginOwner"
            }
          },
          "targetType": "Enemy"
        }
      ]
    }
  },
  {
    "Default": {
      "$type": "ConfigAbility",
      "abilityName": "WhiteBox_DragonDungeon_DragonClaw",
      "abilityMixins": [
        {
          "$type": "AttachToGadgetStateMixin",
          "gadgetState": 201,
          "modifierName": "Claw_Clap"
        }
      ],
      "modifiers": {
        "Claw_Clap": {
          "modifierName": "",
          "elementDurability": 100.0,
          "thinkInterval": 0.5,
          "onThinkInterval": [
            {
              "$type": "TriggerAttackEvent",
              "attackEvent": {
                "attackPattern": {
                  "$type": "ConfigAttackBox",
                  "triggerType": "TriggerNoRepeat",
                  "ignoreMassive": true,
                  "born": {
                    "$type": "ConfigBornByAttachPoint",
                    "offset": {
                      "x": 0.0,
                      "y": 4.5,
                      "z": 0.0
                    },
                    "useRotation": true,
                    "attachPointName": "RootNode"
                  },
                  "size": {
                    "x": 9.0,
                    "y": 9.0,
                    "z": 20.0
                  }
                },
                "attackInfo": {
                  "attackTag": "",
                  "attenuationTag": "",
                  "attenuationGroup": "default",
                  "attackProperty": {
                    "actorGrassSubHurtDelta": 0.0,
                    "actorWindSubHurtDelta": 0.0,
                    "elementDurability": 100.0,
                    "GLKMCMDJBIK": 0.0
                  },
                  "hitPattern": {
                    "onHitEffectName": "none",
                    "hitImpulseY": "",
                    "hitImpulseType": "LV0",
                    "hitHaltTimeScale": 0.05000000074505806
                  },
                  "forceCameraShake": true,
                  "cameraShake": {
                    "shakeType": "CustomVector",
                    "shakeRange": 1.0,
                    "shakeTime": 0.20000000298023224,
                    "shakeDistance": 10.0,
                    "shakeDir": {
                      "z": 2.0
                    },
                    "extension": {
                      "baseOnCamera": true
                    }
                  }
                }
              }
            }
          ]
        }
      }
    }
  },
  {
    "Default": {
      "$type": "ConfigAbility",
      "abilityName": "WhiteBox_DragonDungeon_BulletShooter",
      "abilityMixins": [
        {
          "$type": "AttachToGadgetStateMixin",
          "modifierName": "Shooter_Close"
        },
        {
          "$type": "AttachToGadgetStateMixin",
          "gadgetState": 201,
          "modifierName": "Shooter_Open"
        }
      ],
      "modifiers": {
        "Shooter_Close": {
          "modifierName": "",
          "elementDurability": 100.0
        },
        "Shooter_Open": {
          "modifierName": "",
          "elementDurability": 100.0,
          "onAdded": [
            {
              "$type": "TriggerBullet",
              "bulletID": 70293104,
              "born": {
                "$type": "ConfigBornByAttachPoint",
                "offset": {
                  "x": 0.0,
                  "y": 0.0,
                  "z": 0.0
                },
                "useRotation": true,
                "attachPointName": "ShootPoint",
                "attachPointTargetType": "Self"
              }
            },
            {
              "$type": "HPIDNBEGJLL"
            }
          ]
        }
      }
    }
  },
  {
    "Default": {
      "$type": "ConfigAbility",
      "abilityName": "WhiteBox_DragonDungeon_NormalBullet",
      "modifiers": {
        "Effect": {
          "modifierName": "",
          "elementDurability": 100.0,
          "onAdded": [
            {
              "$type": "AttachEffect",
              "rotationDampTime": "Eff_Monster_Effigy_Ice_Revive_IceBarrage_Trail",
              "PPPDJGDDOGD": 1.0,
              "AJDILHJFNKE": -1.0
            }
          ]
        }
      },
      "onAdded": [
        {
          "$type": "ApplyModifier",
          "modifierName": "Effect"
        }
      ],
      "onAbilityStart": [
        {
          "$type": "FireEffect",
          "rotationDampTime": "Eff_Monster_Effigy_Ice_Revive_IceBarrage_Hit",
          "PPPDJGDDOGD": 1.0,
          "AJDILHJFNKE": -1.0
        },
        {
          "$type": "TriggerAttackEvent",
          "attackEvent": {
            "attackPattern": {
              "$type": "ConfigAttackSphere",
              "triggerType": "TriggerNoRepeat",
              "born": {
                "$type": "ConfigBornByCollisionPoint"
              },
              "radius": 1.0
            },
            "attackInfo": {
              "attackTag": "",
              "attenuationTag": "",
              "attenuationGroup": "default",
              "attackProperty": {
                "actorGrassSubHurtDelta": 0.5,
                "actorWindSubHurtDelta": 0.0,
                "elementType": "Ice",
                "elementDurability": 50.0,
                "strikeType": "Blunt",
                "enBreak": 50.0,
                "GLKMCMDJBIK": 0.0
              },
              "hitPattern": {
                "onHitEffectName": "none",
                "hitImpulseY": "",
                "hitImpulseType": "LV4",
                "hitHaltTimeScale": 0.009999999776482582
              },
              "cameraShake": {
                "shakeRange": 0.05999999865889549,
                "shakeTime": 0.09000000357627869
              },
              "canBeModifiedBy": "OriginOwner"
            }
          },
          "targetType": "Enemy"
        }
      ]
    }
  }
]
