[
  {
    "Default": {
      "$type": "ConfigAbility",
      "abilityName": "SceneObj_Stages_Property_Ani_Prop_ToyBattleNormalTarget_01",
      "abilityMixins": [
        {
          "$type": "AttachToGadgetStateMixin",
          "modifierName": "IdleTest"
        },
        {
          "$type": "AttachToGadgetStateMixin",
          "gadgetState": 201,
          "modifierName": "BehitTest"
        },
        {
          "$type": "AttachToGadgetStateMixin",
          "gadgetState": 202,
          "modifierName": "DestoryTest"
        },
        {
          "$type": "AttachToGadgetStateMixin",
          "gadgetState": 203,
          "modifierName": "DisappearTest"
        },
        {
          "$type": "AttachModifierToGlobalValueMixin",
          "globalValueKey": "_ABILITY_Activity_Target_State_Trigger",
          "valueSteps": [-0.5, 0.5, 1.5, 2.5, 3.5],
          "modifierNameSteps": ["Idle", "Behit", "Destory", "Destory_By_System"]
        }
      ],
      "modifiers": {
        "Idle": {
          "modifierName": "",
          "elementDurability": 100.0
        },
        "Behit": {
          "modifierName": "",
          "duration": 0.5,
          "elementDurability": 100.0,
          "onAdded": [
            {
              "$type": "SetAnimatorTrigger",
              "triggerID": "BeHit"
            },
            {
              "$type": "AttachEffect",
              "rotationDampTime": "Eff_SceneObj_QTE_Event_DS_N_01",
              "PPPDJGDDOGD": 1.0,
              "AJDILHJFNKE": -1.0
            },
            {
              "$type": "MAHNJJFLACM",
              "followPath": "RootNode",
              "rotationDampTime": "Eff_SceneObj_QTE_Event_DS_N_01",
              "attachPoint": ""
            }
          ],
          "onRemoved": [
            {
              "$type": "SetGlobalValue",
              "value": 0.0,
              "key": "_ABILITY_Activity_Target_State_Trigger",
              "maxValue": 0.0,
              "minValue": 0.0
            },
            {
              "$type": "HPIDNBEGJLL"
            }
          ]
        },
        "Destory": {
          "modifierName": "",
          "elementDurability": 100.0,
          "onAdded": [
            {
              "$type": "SetAnimatorTrigger",
              "triggerID": "Disappear"
            },
            {
              "$type": "FireEffect",
              "rotationDampTime": "Eff_SceneObj_QTE_Event_DS_N_02",
              "PPPDJGDDOGD": 1.0,
              "AJDILHJFNKE": -1.0
            }
          ]
        },
        "Destory_By_System": {
          "modifierName": "",
          "elementDurability": 100.0,
          "onAdded": [
            {
              "$type": "SetAnimatorTrigger",
              "triggerID": "Disappear"
            },
            {
              "$type": "FireEffect",
              "rotationDampTime": "Eff_SceneObj_QTE_Event_DS_N_03",
              "PPPDJGDDOGD": 1.0,
              "AJDILHJFNKE": -1.0
            }
          ]
        },
        "IdleTest": {
          "modifierName": "",
          "elementDurability": 100.0,
          "onAdded": [
            {
              "$type": "SetGlobalValue",
              "value": 0.0,
              "key": "_ABILITY_Activity_Target_State_Trigger",
              "maxValue": 0.0,
              "minValue": 0.0
            }
          ]
        },
        "BehitTest": {
          "modifierName": "",
          "elementDurability": 100.0,
          "onAdded": [
            {
              "$type": "SetGlobalValue",
              "value": 1.0,
              "key": "_ABILITY_Activity_Target_State_Trigger",
              "maxValue": 0.0,
              "minValue": 0.0
            }
          ]
        },
        "DestoryTest": {
          "modifierName": "",
          "elementDurability": 100.0,
          "onAdded": [
            {
              "$type": "SetGlobalValue",
              "value": 2.0,
              "key": "_ABILITY_Activity_Target_State_Trigger",
              "maxValue": 0.0,
              "minValue": 0.0
            }
          ]
        },
        "DisappearTest": {
          "modifierName": "",
          "elementDurability": 100.0,
          "onAdded": [
            {
              "$type": "SetGlobalValue",
              "value": 3.0,
              "key": "_ABILITY_Activity_Target_State_Trigger",
              "maxValue": 0.0,
              "minValue": 0.0
            }
          ]
        }
      },
      "onAdded": [
        {
          "$type": "FNPMFLOOCDD",
          "value": 0.0,
          "key": "_ABILITY_Activity_Target_State_Trigger",
          "maxValue": 0.0,
          "minValue": 0.0
        }
      ]
    }
  },
  {
    "Default": {
      "$type": "ConfigAbility",
      "abilityName": "SceneObj_Area_Common_Property_Ani_Prop_ToyBattleChargeWarning_01",
      "abilityMixins": [
        {
          "$type": "AttachToGadgetStateMixin",
          "gadgetState": 202,
          "modifierName": "Hit_In_Time_Test"
        },
        {
          "$type": "AttachModifierToGlobalValueMixin",
          "globalValueKey": "_ABILITY_Activity_Target_State_Trigger",
          "valueSteps": [-0.5, 1.5, 2.5, 3.5],
          "modifierNameSteps": ["Empty", "Hit_In_Time", "Empty"]
        }
      ],
      "modifiers": {
        "Empty": {
          "modifierName": "",
          "elementDurability": 100.0
        },
        "Hit_In_Time": {
          "modifierName": "",
          "elementDurability": 100.0,
          "onAdded": [
            {
              "$type": "ANNOBMCGOEC",
              "canBeHandledOnRecover": true,
              "matName": "matName_01",
              "EKHLCLJELIP": "_InteriorRoomColorIntensity",
              "value": 3.0,
              "useCurve": true,
              "lerpCurveIndex": 1,
              "lerpTime": 0.10000000149011612
            },
            {
              "$type": "ANNOBMCGOEC",
              "canBeHandledOnRecover": true,
              "matName": "matName_02",
              "EKHLCLJELIP": "_EmissionStrength",
              "value": 6.0,
              "useCurve": true,
              "lerpCurveIndex": 1,
              "lerpTime": 0.10000000149011612
            }
          ]
        },
        "Hit_In_Time_Test": {
          "modifierName": "",
          "elementDurability": 100.0,
          "onAdded": [
            {
              "$type": "SetGlobalValue",
              "value": 2.0,
              "key": "_ABILITY_Activity_Target_State_Trigger",
              "maxValue": 0.0,
              "minValue": 0.0
            }
          ]
        }
      },
      "onAdded": [
        {
          "$type": "FNPMFLOOCDD",
          "value": 0.0,
          "key": "_ABILITY_Activity_Target_State_Trigger",
          "maxValue": 0.0,
          "minValue": 0.0
        }
      ]
    }
  },
  {
    "Default": {
      "$type": "ConfigAbility",
      "abilityName": "SceneObj_Stages_Property_Ani_Prop_ToyBattle_Emoji",
      "abilityMixins": [
        {
          "$type": "AttachToGadgetStateMixin",
          "modifierName": "None"
        },
        {
          "$type": "AttachToGadgetStateMixin",
          "gadgetState": 201,
          "modifierName": "SuccTest"
        },
        {
          "$type": "AttachToGadgetStateMixin",
          "gadgetState": 202,
          "modifierName": "FailTest"
        },
        {
          "$type": "AttachModifierToGlobalValueMixin",
          "globalValueKey": "_ABILITY_Succ_Emoji",
          "valueSteps": [-0.5, 0.5, 1.5, 2.5],
          "modifierNameSteps": ["None", "SuccEmoji_01", "SuccEmoji_02"]
        },
        {
          "$type": "AttachModifierToGlobalValueMixin",
          "globalValueKey": "_ABILITY_Fail_Emoji",
          "valueSteps": [-0.5, 0.5, 1.5, 2.5],
          "modifierNameSteps": ["None", "FailEmoji_01", "FailEmoji_02"]
        }
      ],
      "modifiers": {
        "SuccTest": {
          "modifierName": "",
          "duration": 0.10000000149011612,
          "elementDurability": 100.0,
          "onAdded": [
            {
              "$type": "SetGlobalValue",
              "value": 1.0,
              "key": "_ABILITY_Succ_Emoji",
              "maxValue": 0.0,
              "minValue": 0.0
            }
          ],
          "onRemoved": [
            {
              "$type": "HPIDNBEGJLL"
            }
          ]
        },
        "FailTest": {
          "modifierName": "",
          "duration": 0.10000000149011612,
          "elementDurability": 100.0,
          "onAdded": [
            {
              "$type": "SetGlobalValue",
              "value": 1.0,
              "key": "_ABILITY_Fail_Emoji",
              "maxValue": 0.0,
              "minValue": 0.0
            }
          ],
          "onRemoved": [
            {
              "$type": "HPIDNBEGJLL"
            }
          ]
        },
        "None": {
          "modifierName": "",
          "elementDurability": 100.0
        },
        "SuccEmoji_01": {
          "modifierName": "",
          "duration": 0.10000000149011612,
          "elementDurability": 100.0,
          "onAdded": [
            {
              "$type": "FireEffect",
              "rotationDampTime": "Eff_UI_ToyBattleQTE_Emoji_Happy01",
              "born": {
                "$type": "ConfigBornByAttachPoint",
                "useRotation": true,
                "attachPointName": "EmojiPoint"
              },
              "PPPDJGDDOGD": 1.0,
              "AJDILHJFNKE": -1.0
            }
          ],
          "onRemoved": [
            {
              "$type": "SetGlobalValue",
              "value": 0.0,
              "key": "_ABILITY_Succ_Emoji",
              "maxValue": 0.0,
              "minValue": 0.0
            }
          ]
        },
        "SuccEmoji_02": {
          "modifierName": "",
          "duration": 0.10000000149011612,
          "elementDurability": 100.0,
          "onAdded": [
            {
              "$type": "FireEffect",
              "rotationDampTime": "Eff_UI_ToyBattleQTE_Emoji_Happy02",
              "born": {
                "$type": "ConfigBornByAttachPoint",
                "useRotation": true,
                "attachPointName": "EmojiPoint"
              },
              "PPPDJGDDOGD": 1.0,
              "AJDILHJFNKE": -1.0
            }
          ],
          "onRemoved": [
            {
              "$type": "SetGlobalValue",
              "value": 0.0,
              "key": "_ABILITY_Succ_Emoji",
              "maxValue": 0.0,
              "minValue": 0.0
            }
          ]
        },
        "FailEmoji_01": {
          "modifierName": "",
          "duration": 0.10000000149011612,
          "elementDurability": 100.0,
          "onAdded": [
            {
              "$type": "FireEffect",
              "rotationDampTime": "Eff_UI_ToyBattleQTE_Emoji_Sad01",
              "born": {
                "$type": "ConfigBornByAttachPoint",
                "useRotation": true,
                "attachPointName": "EmojiPoint"
              },
              "PPPDJGDDOGD": 1.0,
              "AJDILHJFNKE": -1.0
            }
          ],
          "onRemoved": [
            {
              "$type": "SetGlobalValue",
              "value": 0.0,
              "key": "_ABILITY_Fail_Emoji",
              "maxValue": 0.0,
              "minValue": 0.0
            }
          ]
        },
        "FailEmoji_02": {
          "modifierName": "",
          "duration": 0.10000000149011612,
          "elementDurability": 100.0,
          "onAdded": [
            {
              "$type": "FireEffect",
              "rotationDampTime": "Eff_UI_ToyBattleQTE_Emoji_Sad02",
              "born": {
                "$type": "ConfigBornByAttachPoint",
                "useRotation": true,
                "attachPointName": "EmojiPoint"
              },
              "PPPDJGDDOGD": 1.0,
              "AJDILHJFNKE": -1.0
            }
          ],
          "onRemoved": [
            {
              "$type": "SetGlobalValue",
              "value": 0.0,
              "key": "_ABILITY_Fail_Emoji",
              "maxValue": 0.0,
              "minValue": 0.0
            }
          ]
        }
      },
      "onAdded": [
        {
          "$type": "FNPMFLOOCDD",
          "value": 0.0,
          "key": "_ABILITY_Succ_Emoji",
          "maxValue": 0.0,
          "minValue": 0.0
        },
        {
          "$type": "FNPMFLOOCDD",
          "value": 0.0,
          "key": "_ABILITY_Fail_Emoji",
          "maxValue": 0.0,
          "minValue": 0.0
        }
      ]
    }
  },
  {
    "Default": {
      "$type": "ConfigAbility",
      "abilityName": "SceneObj_Stages_Property_Ani_Prop_ToyBattle_Puppet",
      "modifiers": {
        "ToyBattle_Puppet_Driver": {
          "modifierName": "",
          "elementDurability": 100.0,
          "modifierMixins": [
            {
              "$type": "AttachModifierToGlobalValueMixin",
              "globalValueTarget": "Caster",
              "globalValueKey": "_ABILITY_Activity_ToyBattleQTE_Input_Param",
              "valueSteps": [-0.5, 0.5, 1.5, 2.5, 3.5, 4.5, 5.5],
              "modifierNameSteps": [
                "Blank",
                "ToyBattleQTE_Goto_LeftNoramalAttack",
                "ToyBattleQTE_Goto_RightNoramalAttack",
                "ToyBattleQTE_Goto_SpecialAttack",
                "ToyBattleQTE_Goto_ChargeLoop",
                "ToyBattleQTE_Goto_ChargeAttack"
              ]
            },
            {
              "$type": "AttachToStateIDMixin",
              "stateIDs": [
                "LeftAttack",
                "LeftChargeLoop",
                "LeftChargeAttack",
                "SpecialAttack",
                "RightAttack",
                "RightChargeLoop",
                "RightChargeAttack"
              ],
              "modifierName": "Reset_State_To_Idle",
              "DGFCLAIDIFI": ""
            },
            {
              "$type": "AttachToNormalizedTimeMixin",
              "stateID": "LeftAttack",
              "modifierName": "Set_State_LeftAttack_BS",
              "normalizeEnd": 0.25,
              "DGFCLAIDIFI": ""
            },
            {
              "$type": "AttachToNormalizedTimeMixin",
              "stateID": "LeftAttack",
              "modifierName": "Left_Eff",
              "normalizeStart": 0.23999999463558197,
              "normalizeEnd": 0.800000011920929,
              "DGFCLAIDIFI": ""
            },
            {
              "$type": "AttachToNormalizedTimeMixin",
              "stateID": "RightAttack",
              "modifierName": "Set_State_RightAttack_BS",
              "normalizeEnd": 0.25,
              "DGFCLAIDIFI": ""
            },
            {
              "$type": "AttachToNormalizedTimeMixin",
              "stateID": "RightAttack",
              "modifierName": "Right_Eff",
              "normalizeStart": 0.23999999463558197,
              "normalizeEnd": 0.800000011920929,
              "DGFCLAIDIFI": ""
            },
            {
              "$type": "AttachToNormalizedTimeMixin",
              "stateID": "LeftAttack",
              "modifierName": "Set_State_LeftAttack_AS",
              "normalizeStart": 0.6800000071525574,
              "normalizeEnd": 0.8999999761581421,
              "DGFCLAIDIFI": ""
            },
            {
              "$type": "AttachToNormalizedTimeMixin",
              "stateID": "LeftAttack",
              "modifierName": "Reset_State_To_AS",
              "normalizeStart": 0.27000001072883606,
              "DGFCLAIDIFI": ""
            },
            {
              "$type": "AttachToNormalizedTimeMixin",
              "stateID": "RightAttack",
              "modifierName": "Set_State_RightAttack_AS",
              "normalizeStart": 0.6800000071525574,
              "normalizeEnd": 0.8999999761581421,
              "DGFCLAIDIFI": ""
            },
            {
              "$type": "AttachToNormalizedTimeMixin",
              "stateID": "RightAttack",
              "modifierName": "Reset_State_To_AS",
              "normalizeStart": 0.27000001072883606,
              "DGFCLAIDIFI": ""
            },
            {
              "$type": "AttachToNormalizedTimeMixin",
              "stateID": "SpecialAttack",
              "modifierName": "Set_State_SpecialAttak",
              "normalizeEnd": 0.4000000059604645,
              "DGFCLAIDIFI": ""
            },
            {
              "$type": "AttachToNormalizedTimeMixin",
              "stateID": "SpecialAttack",
              "modifierName": "Reset_State_To_AS",
              "normalizeStart": 0.4000000059604645,
              "DGFCLAIDIFI": ""
            },
            {
              "$type": "AttachToNormalizedTimeMixin",
              "stateID": "LeftChargeLoop",
              "modifierName": "Set_State_LeftChargeLoop",
              "DGFCLAIDIFI": ""
            },
            {
              "$type": "AttachToNormalizedTimeMixin",
              "stateID": "RightChargeLoop",
              "modifierName": "Set_State_RightChargeLoop",
              "DGFCLAIDIFI": ""
            },
            {
              "$type": "AttachToNormalizedTimeMixin",
              "stateID": "LeftChargeAttack",
              "modifierName": "Set_State_LeftChargeAttack",
              "normalizeEnd": 0.20000000298023224,
              "DGFCLAIDIFI": ""
            },
            {
              "$type": "AttachToNormalizedTimeMixin",
              "stateID": "RightChargeAttack",
              "modifierName": "Set_State_RightChargeAttack",
              "normalizeEnd": 0.20000000298023224,
              "DGFCLAIDIFI": ""
            },
            {
              "$type": "AttachToNormalizedTimeMixin",
              "stateID": "LeftChargeAttack",
              "modifierName": "Reset_State_To_AS",
              "normalizeStart": 0.18000000715255737,
              "DGFCLAIDIFI": ""
            },
            {
              "$type": "AttachToNormalizedTimeMixin",
              "stateID": "RightChargeAttack",
              "modifierName": "Reset_State_To_AS",
              "normalizeStart": 0.18000000715255737,
              "DGFCLAIDIFI": ""
            },
            {
              "$type": "AttachToNormalizedTimeMixin",
              "stateID": "LeftAttack",
              "modifierName": "Set_Attack_LeftAttack",
              "normalizeStart": 0.28999999165534973,
              "normalizeEnd": 0.6000000238418579,
              "DGFCLAIDIFI": ""
            },
            {
              "$type": "AttachToNormalizedTimeMixin",
              "stateID": "RightAttack",
              "modifierName": "Set_Attack_RightAttack",
              "normalizeStart": 0.28999999165534973,
              "normalizeEnd": 0.6000000238418579,
              "DGFCLAIDIFI": ""
            },
            {
              "$type": "AttachToNormalizedTimeMixin",
              "stateID": "SpecialAttack",
              "modifierName": "Set_Attack_SpecialAttack",
              "normalizeStart": 0.36000001430511475,
              "normalizeEnd": 0.7300000190734863,
              "DGFCLAIDIFI": ""
            },
            {
              "$type": "AttachToNormalizedTimeMixin",
              "stateID": "LeftChargeAttack",
              "modifierName": "Set_Attack_LeftChargeAttack",
              "normalizeStart": 0.15000000596046448,
              "normalizeEnd": 0.44999998807907104,
              "DGFCLAIDIFI": ""
            },
            {
              "$type": "AttachToNormalizedTimeMixin",
              "stateID": "RightChargeAttack",
              "modifierName": "Set_Attack_RightChargeAttack",
              "normalizeStart": 0.15000000596046448,
              "normalizeEnd": 0.44999998807907104,
              "DGFCLAIDIFI": ""
            }
          ],
          "onAdded": [
            {
              "$type": "SetGlobalValue",
              "value": 0.0,
              "key": "_ABILITY_Activity_ToyBattleQTE_Input_Param",
              "maxValue": 0.0,
              "minValue": 0.0
            },
            {
              "$type": "SetGlobalValue",
              "value": -1.0,
              "key": "_ABILITY_Activity_ToyBattleQTE_State_Mark",
              "maxValue": 0.0,
              "minValue": 0.0
            },
            {
              "$type": "SetGlobalValue",
              "value": 0.0,
              "key": "_ABILITY_Activity_ToyBattleQTE_Attack_Mark",
              "maxValue": 0.0,
              "minValue": 0.0
            }
          ]
        },
        "Left_Eff": {
          "modifierName": "",
          "elementDurability": 100.0,
          "onAdded": [
            {
              "$type": "FireEffect",
              "rotationDampTime": "Eff_Sc_ToyBattleDoll_01_01_L",
              "PPPDJGDDOGD": 1.0,
              "AJDILHJFNKE": -1.0
            }
          ]
        },
        "Right_Eff": {
          "modifierName": "",
          "elementDurability": 100.0,
          "onAdded": [
            {
              "$type": "FireEffect",
              "rotationDampTime": "Eff_Sc_ToyBattleDoll_01_01_R",
              "PPPDJGDDOGD": 1.0,
              "AJDILHJFNKE": -1.0
            }
          ]
        },
        "Blank": {
          "modifierName": "",
          "elementDurability": 100.0
        },
        "ToyBattleQTE_Goto_LeftNoramalAttack": {
          "modifierName": "",
          "duration": 0.15000000596046448,
          "elementDurability": 100.0,
          "onAdded": [
            {
              "$type": "SetAnimatorInt",
              "intID": "State_Controller",
              "value": 1.0
            }
          ]
        },
        "ToyBattleQTE_Goto_RightNoramalAttack": {
          "modifierName": "",
          "duration": 0.15000000596046448,
          "elementDurability": 100.0,
          "onAdded": [
            {
              "$type": "SetAnimatorInt",
              "intID": "State_Controller",
              "value": 2.0
            }
          ]
        },
        "ToyBattleQTE_Goto_SpecialAttack": {
          "modifierName": "",
          "duration": 0.15000000596046448,
          "elementDurability": 100.0,
          "onAdded": [
            {
              "$type": "SetAnimatorInt",
              "intID": "State_Controller",
              "value": 3.0
            }
          ]
        },
        "ToyBattleQTE_Goto_ChargeLoop": {
          "modifierName": "",
          "duration": 0.15000000596046448,
          "elementDurability": 100.0,
          "onAdded": [
            {
              "$type": "SetAnimatorInt",
              "intID": "State_Controller",
              "value": 4.0
            }
          ]
        },
        "ToyBattleQTE_Goto_ChargeAttack": {
          "modifierName": "",
          "duration": 0.15000000596046448,
          "elementDurability": 100.0,
          "onAdded": [
            {
              "$type": "SetAnimatorInt",
              "intID": "State_Controller",
              "value": 5.0
            }
          ]
        },
        "Reset_State_To_Idle": {
          "modifierName": "",
          "elementDurability": 100.0,
          "onRemoved": [
            {
              "$type": "SetAnimatorInt",
              "intID": "State_Controller",
              "value": 0.0
            },
            {
              "$type": "SetGlobalValue",
              "value": -1.0,
              "key": "_ABILITY_Activity_ToyBattleQTE_State_Mark",
              "maxValue": 0.0,
              "minValue": 0.0
            },
            {
              "$type": "SetGlobalValue",
              "value": 0.0,
              "key": "_ABILITY_Activity_ToyBattleQTE_Attack_Mark",
              "maxValue": 0.0,
              "minValue": 0.0
            },
            {
              "$type": "SetGlobalValue",
              "value": 0.0,
              "key": "_ABILITY_Activity_ToyBattleQTE_Input_Param",
              "maxValue": 0.0,
              "minValue": 0.0
            }
          ]
        },
        "Reset_State_To_AS": {
          "modifierName": "",
          "elementDurability": 100.0,
          "onAdded": [
            {
              "$type": "SetAnimatorInt",
              "intID": "State_Controller",
              "value": 0.0
            },
            {
              "$type": "SetGlobalValue",
              "value": -1.0,
              "key": "_ABILITY_Activity_ToyBattleQTE_State_Mark",
              "maxValue": 0.0,
              "minValue": 0.0
            },
            {
              "$type": "SetGlobalValue",
              "value": 0.0,
              "key": "_ABILITY_Activity_ToyBattleQTE_Input_Param",
              "maxValue": 0.0,
              "minValue": 0.0
            }
          ]
        },
        "Set_State_LeftAttack_BS": {
          "modifierName": "",
          "elementDurability": 100.0,
          "onAdded": [
            {
              "$type": "SetGlobalValue",
              "value": 1.0,
              "key": "_ABILITY_Activity_ToyBattleQTE_State_Mark",
              "maxValue": 0.0,
              "minValue": 0.0
            },
            {
              "$type": "SetAnimatorInt",
              "intID": "State_Controller",
              "value": 0.0
            }
          ],
          "onRemoved": [
            {
              "$type": "SetGlobalValue",
              "value": 0.0,
              "key": "_ABILITY_Activity_ToyBattleQTE_State_Mark",
              "maxValue": 0.0,
              "minValue": 0.0
            },
            {
              "$type": "SetAnimatorInt",
              "intID": "State_Controller",
              "value": 0.0
            }
          ]
        },
        "Set_State_RightAttack_BS": {
          "modifierName": "",
          "elementDurability": 100.0,
          "onAdded": [
            {
              "$type": "SetGlobalValue",
              "value": 2.0,
              "key": "_ABILITY_Activity_ToyBattleQTE_State_Mark",
              "maxValue": 0.0,
              "minValue": 0.0
            },
            {
              "$type": "SetAnimatorInt",
              "intID": "State_Controller",
              "value": 0.0
            }
          ],
          "onRemoved": [
            {
              "$type": "SetGlobalValue",
              "value": 0.0,
              "key": "_ABILITY_Activity_ToyBattleQTE_State_Mark",
              "maxValue": 0.0,
              "minValue": 0.0
            },
            {
              "$type": "SetAnimatorInt",
              "intID": "State_Controller",
              "value": 0.0
            }
          ]
        },
        "Set_State_LeftAttack_AS": {
          "modifierName": "",
          "elementDurability": 100.0,
          "onAdded": [
            {
              "$type": "SetGlobalValue",
              "value": 3.0,
              "key": "_ABILITY_Activity_ToyBattleQTE_State_Mark_For_Charge",
              "maxValue": 0.0,
              "minValue": 0.0
            }
          ],
          "onRemoved": [
            {
              "$type": "SetGlobalValue",
              "value": 0.0,
              "key": "_ABILITY_Activity_ToyBattleQTE_State_Mark_For_Charge",
              "maxValue": 0.0,
              "minValue": 0.0
            }
          ]
        },
        "Set_State_RightAttack_AS": {
          "modifierName": "",
          "elementDurability": 100.0,
          "onAdded": [
            {
              "$type": "SetGlobalValue",
              "value": 4.0,
              "key": "_ABILITY_Activity_ToyBattleQTE_State_Mark_For_Charge",
              "maxValue": 0.0,
              "minValue": 0.0
            }
          ],
          "onRemoved": [
            {
              "$type": "SetGlobalValue",
              "value": 0.0,
              "key": "_ABILITY_Activity_ToyBattleQTE_State_Mark_For_Charge",
              "maxValue": 0.0,
              "minValue": 0.0
            }
          ]
        },
        "Set_State_SpecialAttak": {
          "modifierName": "",
          "elementDurability": 100.0,
          "onAdded": [
            {
              "$type": "SetAnimatorInt",
              "intID": "State_Controller",
              "value": 0.0
            },
            {
              "$type": "SetGlobalValue",
              "value": 0.0,
              "key": "_ABILITY_Activity_ToyBattleQTE_State_Mark",
              "maxValue": 0.0,
              "minValue": 0.0
            },
            {
              "$type": "FireEffect",
              "rotationDampTime": "Eff_Sc_ToyBattleDoll_01_02",
              "PPPDJGDDOGD": 1.0,
              "AJDILHJFNKE": -1.0
            }
          ]
        },
        "Set_State_LeftChargeLoop": {
          "modifierName": "",
          "elementDurability": 100.0,
          "onAdded": [
            {
              "$type": "SetGlobalValue",
              "value": 5.0,
              "key": "_ABILITY_Activity_ToyBattleQTE_State_Mark",
              "maxValue": 0.0,
              "minValue": 0.0
            },
            {
              "$type": "AttachEffect",
              "rotationDampTime": "Eff_Sc_ToyBattleDoll_01_03_Loop_L",
              "PPPDJGDDOGD": 1.0,
              "AJDILHJFNKE": -1.0
            }
          ]
        },
        "Set_State_RightChargeLoop": {
          "modifierName": "",
          "elementDurability": 100.0,
          "onAdded": [
            {
              "$type": "SetGlobalValue",
              "value": 6.0,
              "key": "_ABILITY_Activity_ToyBattleQTE_State_Mark",
              "maxValue": 0.0,
              "minValue": 0.0
            },
            {
              "$type": "AttachEffect",
              "rotationDampTime": "Eff_Sc_ToyBattleDoll_01_03_Loop_R",
              "PPPDJGDDOGD": 1.0,
              "AJDILHJFNKE": -1.0
            }
          ]
        },
        "Set_State_LeftChargeAttack": {
          "modifierName": "",
          "elementDurability": 100.0,
          "onAdded": [
            {
              "$type": "SetGlobalValue",
              "value": 0.0,
              "key": "_ABILITY_Activity_ToyBattleQTE_State_Mark",
              "maxValue": 0.0,
              "minValue": 0.0
            },
            {
              "$type": "FireEffect",
              "rotationDampTime": "Eff_Sc_ToyBattleDoll_01_03_L",
              "PPPDJGDDOGD": 1.0,
              "AJDILHJFNKE": -1.0
            }
          ]
        },
        "Set_State_RightChargeAttack": {
          "modifierName": "",
          "elementDurability": 100.0,
          "onAdded": [
            {
              "$type": "SetGlobalValue",
              "value": 0.0,
              "key": "_ABILITY_Activity_ToyBattleQTE_State_Mark",
              "maxValue": 0.0,
              "minValue": 0.0
            },
            {
              "$type": "FireEffect",
              "rotationDampTime": "Eff_Sc_ToyBattleDoll_01_03_R",
              "PPPDJGDDOGD": 1.0,
              "AJDILHJFNKE": -1.0
            }
          ]
        },
        "Set_Attack_LeftAttack": {
          "modifierName": "",
          "elementDurability": 100.0,
          "onAdded": [
            {
              "$type": "SetGlobalValue",
              "value": 1.0,
              "key": "_ABILITY_Activity_ToyBattleQTE_Attack_Mark",
              "maxValue": 0.0,
              "minValue": 0.0
            }
          ],
          "onRemoved": [
            {
              "$type": "SetGlobalValue",
              "value": 0.0,
              "key": "_ABILITY_Activity_ToyBattleQTE_Attack_Mark",
              "maxValue": 0.0,
              "minValue": 0.0
            }
          ]
        },
        "Set_Attack_RightAttack": {
          "modifierName": "",
          "elementDurability": 100.0,
          "onAdded": [
            {
              "$type": "SetGlobalValue",
              "value": 2.0,
              "key": "_ABILITY_Activity_ToyBattleQTE_Attack_Mark",
              "maxValue": 0.0,
              "minValue": 0.0
            }
          ],
          "onRemoved": [
            {
              "$type": "SetGlobalValue",
              "value": 0.0,
              "key": "_ABILITY_Activity_ToyBattleQTE_Attack_Mark",
              "maxValue": 0.0,
              "minValue": 0.0
            }
          ]
        },
        "Set_Attack_SpecialAttack": {
          "modifierName": "",
          "elementDurability": 100.0,
          "onAdded": [
            {
              "$type": "SetGlobalValue",
              "value": 3.0,
              "key": "_ABILITY_Activity_ToyBattleQTE_Attack_Mark",
              "maxValue": 0.0,
              "minValue": 0.0
            }
          ],
          "onRemoved": [
            {
              "$type": "SetGlobalValue",
              "value": 0.0,
              "key": "_ABILITY_Activity_ToyBattleQTE_Attack_Mark",
              "maxValue": 0.0,
              "minValue": 0.0
            }
          ]
        },
        "Set_Attack_LeftChargeAttack": {
          "modifierName": "",
          "elementDurability": 100.0,
          "onAdded": [
            {
              "$type": "SetGlobalValue",
              "value": 4.0,
              "key": "_ABILITY_Activity_ToyBattleQTE_Attack_Mark",
              "maxValue": 0.0,
              "minValue": 0.0
            }
          ],
          "onRemoved": [
            {
              "$type": "SetGlobalValue",
              "value": 0.0,
              "key": "_ABILITY_Activity_ToyBattleQTE_Attack_Mark",
              "maxValue": 0.0,
              "minValue": 0.0
            }
          ]
        },
        "Set_Attack_RightChargeAttack": {
          "modifierName": "",
          "elementDurability": 100.0,
          "onAdded": [
            {
              "$type": "SetGlobalValue",
              "value": 5.0,
              "key": "_ABILITY_Activity_ToyBattleQTE_Attack_Mark",
              "maxValue": 0.0,
              "minValue": 0.0
            }
          ],
          "onRemoved": [
            {
              "$type": "SetGlobalValue",
              "value": 0.0,
              "key": "_ABILITY_Activity_ToyBattleQTE_Attack_Mark",
              "maxValue": 0.0,
              "minValue": 0.0
            }
          ]
        }
      },
      "onAdded": [
        {
          "$type": "AttachModifier",
          "modifierName": "ToyBattle_Puppet_Driver"
        },
        {
          "$type": "SetGlobalValue",
          "value": 0.0,
          "key": "_ABILITY_Activity_ToyBattleQTE_State_Mark_For_Charge",
          "maxValue": 0.0,
          "minValue": 0.0
        }
      ]
    }
  }
]
