[
  {
    "Default": {
      "$type": "ConfigAbility",
      "abilityName": "SceneObj_Level_Common_Property_Prop_RunesParent_01_Ability",
      "abilityMixins": [
        {
          "$type": "AttachToGadgetStateMixin",
          "modifierName": "CheckSelf"
        },
        {
          "$type": "AttachToGadgetStateMixin",
          "gadgetState": 201,
          "modifierName": "AttachLine"
        },
        {
          "$type": "AttachModifierToSelfGlobalValueMixin",
          "globalValueKey": "_Children01_Active",
          "gvInTalk": 0.0,
          "valueSteps": [0.5, 1.5],
          "modifierNameSteps": ["Active01"]
        },
        {
          "$type": "AttachModifierToSelfGlobalValueMixin",
          "globalValueKey": "_Children02_Active",
          "gvInTalk": 0.0,
          "valueSteps": [0.5, 1.5],
          "modifierNameSteps": ["Active02"]
        },
        {
          "$type": "AttachModifierToSelfGlobalValueMixin",
          "globalValueKey": "_Children03_Active",
          "gvInTalk": 0.0,
          "valueSteps": [0.5, 1.5],
          "modifierNameSteps": ["Active03"]
        }
      ],
      "modifiers": {
        "Active01": {
          "modifierName": "",
          "elementDurability": 100.0,
          "onAdded": [
            {
              "$type": "SetAnimatorBool",
              "boolID": "State1",
              "value": true
            }
          ]
        },
        "Active02": {
          "modifierName": "",
          "elementDurability": 100.0,
          "onAdded": [
            {
              "$type": "SetAnimatorBool",
              "boolID": "State2",
              "value": true
            }
          ]
        },
        "Active03": {
          "modifierName": "",
          "elementDurability": 100.0,
          "onAdded": [
            {
              "$type": "SetAnimatorBool",
              "boolID": "State3",
              "value": true
            }
          ]
        },
        "CheckSelf": {
          "modifierName": "",
          "elementDurability": 100.0,
          "thinkInterval": 1.0,
          "onThinkInterval": [
            {
              "$type": "Predicated",
              "targetPredicates": [
                {
                  "$type": "ByTargetGlobalValue",
                  "key": "_Children01_Active",
                  "value": 1.0
                },
                {
                  "$type": "ByTargetGlobalValue",
                  "key": "_Children02_Active",
                  "value": 1.0
                },
                {
                  "$type": "ByTargetGlobalValue",
                  "key": "_Children03_Active",
                  "value": 1.0
                }
              ],
              "successActions": [
                {
                  "$type": "ExecuteGadgetLua",
                  "param1": 201
                }
              ]
            }
          ]
        },
        "AttachLine": {
          "modifierName": "",
          "elementDurability": 100.0,
          "onAdded": [
            {
              "$type": "AttachEffect",
              "rotationDampTime": "Eff_SceneObj_RuneParent_01",
              "born": {
                "$type": "ConfigBornByAttachPoint",
                "attachPointName": "ReceivePoint"
              },
              "PPPDJGDDOGD": 1.0,
              "AJDILHJFNKE": -1.0
            }
          ]
        }
      }
    }
  },
  {
    "Default": {
      "$type": "ConfigAbility",
      "abilityName": "SceneObj_Level_Common_Property_Prop_RunesParent_02_Ability",
      "abilityMixins": [
        {
          "$type": "AttachModifierToSelfGlobalValueMixin",
          "globalValueKey": "_Children01_Active",
          "gvInTalk": 0.0,
          "valueSteps": [0.5, 1.5],
          "modifierNameSteps": ["Active01"]
        },
        {
          "$type": "AttachModifierToSelfGlobalValueMixin",
          "globalValueKey": "_Children02_Active",
          "gvInTalk": 0.0,
          "valueSteps": [0.5, 1.5],
          "modifierNameSteps": ["Active02"]
        },
        {
          "$type": "AttachModifierToSelfGlobalValueMixin",
          "globalValueKey": "_Children03_Active",
          "gvInTalk": 0.0,
          "valueSteps": [0.5, 1.5],
          "modifierNameSteps": ["Active03"]
        }
      ],
      "modifiers": {
        "Active01": {
          "modifierName": "",
          "elementDurability": 100.0,
          "onAdded": [
            {
              "$type": "SetAnimatorBool",
              "boolID": "State1",
              "value": true
            }
          ]
        },
        "Active02": {
          "modifierName": "",
          "elementDurability": 100.0,
          "onAdded": [
            {
              "$type": "SetAnimatorBool",
              "boolID": "State2",
              "value": true
            }
          ]
        },
        "Active03": {
          "modifierName": "",
          "elementDurability": 100.0,
          "onAdded": [
            {
              "$type": "SetAnimatorBool",
              "boolID": "State3",
              "value": true
            }
          ]
        }
      }
    }
  },
  {
    "Default": {
      "$type": "ConfigAbility",
      "abilityName": "SceneObj_Level_Common_Property_Prop_RunesChild_01_Ability",
      "abilityMixins": [
        {
          "$type": "AttachToGadgetStateMixin",
          "modifierName": "DisActive"
        },
        {
          "$type": "AttachToGadgetStateMixin",
          "gadgetState": 201,
          "modifierName": "Active"
        },
        {
          "$type": "AttachToGadgetStateMixin",
          "gadgetState": 202,
          "modifierName": "Success"
        }
      ],
      "modifiers": {
        "DisActive": {
          "modifierName": "",
          "elementDurability": 100.0,
          "onAdded": [
            {
              "$type": "SendEffectTrigger",
              "parameter": "State",
              "attachPoint": "",
              "damageRatio": "Int",
              "rotationDampTime": "Eff_SceneObj_RunesChild_01"
            }
          ]
        },
        "Active": {
          "modifierName": "",
          "elementDurability": 100.0,
          "onAdded": [
            {
              "$type": "SendEffectTrigger",
              "parameter": "State",
              "attachPoint": "",
              "damageRatio": "Int",
              "value": 201,
              "rotationDampTime": "Eff_SceneObj_RunesChild_01"
            }
          ]
        },
        "Success": {
          "modifierName": "",
          "duration": 1.0,
          "elementDurability": 100.0,
          "onAdded": [
            {
              "$type": "SendEffectTrigger",
              "parameter": "State",
              "attachPoint": "",
              "damageRatio": "Int",
              "value": 201,
              "rotationDampTime": "Eff_SceneObj_RunesChild_01"
            }
          ],
          "onRemoved": [
            {
              "$type": "FireEffect",
              "rotationDampTime": "Eff_SceneObj_Common_Success_01",
              "born": {
                "$type": "ConfigBornByAttachPoint",
                "attachPointName": "ReceivePoint"
              },
              "PPPDJGDDOGD": 1.0,
              "AJDILHJFNKE": -1.0
            },
            {
              "$type": "ApplyModifier",
              "otherTargets": {
                "$type": "FHBCCNMKPHK",
                "value": 2
              },
              "modifierName": "SendLine"
            },
            {
              "$type": "ApplyModifier",
              "modifierName": "ChangeFatherGlobalValue"
            }
          ]
        },
        "SendLine": {
          "modifierName": "",
          "elementDurability": 100.0,
          "onAdded": [
            {
              "$type": "AttachEffect",
              "target": "Applier",
              "rotationDampTime": "Eff_SceneObj_Runes_01_Chains",
              "born": {
                "$type": "ConfigBornByAttachPoint",
                "attachPointName": "EffPoint01",
                "attachPointTargetType": "Self"
              },
              "PPPDJGDDOGD": 1.0,
              "AJDILHJFNKE": -1.0
            }
          ]
        },
        "ChangeFatherGlobalValue": {
          "modifierName": "",
          "duration": 0.5,
          "elementDurability": 100.0,
          "onRemoved": [
            {
              "$type": "SetGlobalValue",
              "otherTargets": {
                "$type": "FHBCCNMKPHK",
                "value": 2
              },
              "value": 1.0,
              "key": "_Children01_Active",
              "maxValue": 0.0,
              "minValue": 0.0
            },
            {
              "$type": "SetGlobalValue",
              "otherTargets": {
                "$type": "FHBCCNMKPHK",
                "value": 4
              },
              "value": 1.0,
              "key": "_Children01_Active",
              "maxValue": 0.0,
              "minValue": 0.0
            }
          ]
        }
      },
      "onAdded": [
        {
          "$type": "AttachEffect",
          "rotationDampTime": "Eff_SceneObj_RunesChild_01",
          "born": {
            "$type": "ConfigBornByAttachPoint",
            "attachPointName": "EffectNode"
          },
          "PPPDJGDDOGD": 1.0,
          "AJDILHJFNKE": 100.0
        }
      ]
    }
  },
  {
    "Default": {
      "$type": "ConfigAbility",
      "abilityName": "SceneObj_Level_Common_Property_Prop_RunesChild_02_Ability",
      "abilityMixins": [
        {
          "$type": "AttachToGadgetStateMixin",
          "modifierName": "DisActive"
        },
        {
          "$type": "AttachToGadgetStateMixin",
          "gadgetState": 201,
          "modifierName": "Active"
        },
        {
          "$type": "AttachToGadgetStateMixin",
          "gadgetState": 202,
          "modifierName": "Success"
        }
      ],
      "modifiers": {
        "DisActive": {
          "modifierName": "",
          "elementDurability": 100.0,
          "onAdded": [
            {
              "$type": "SendEffectTrigger",
              "parameter": "State",
              "attachPoint": "",
              "damageRatio": "Int",
              "rotationDampTime": "Eff_SceneObj_RunesChild_01"
            }
          ]
        },
        "Active": {
          "modifierName": "",
          "elementDurability": 100.0,
          "onAdded": [
            {
              "$type": "SendEffectTrigger",
              "parameter": "State",
              "attachPoint": "",
              "damageRatio": "Int",
              "value": 201,
              "rotationDampTime": "Eff_SceneObj_RunesChild_01"
            }
          ]
        },
        "Success": {
          "modifierName": "",
          "duration": 1.0,
          "elementDurability": 100.0,
          "onAdded": [
            {
              "$type": "SendEffectTrigger",
              "parameter": "State",
              "attachPoint": "",
              "damageRatio": "Int",
              "value": 201,
              "rotationDampTime": "Eff_SceneObj_RunesChild_01"
            }
          ],
          "onRemoved": [
            {
              "$type": "FireEffect",
              "rotationDampTime": "Eff_SceneObj_Common_Success_01",
              "born": {
                "$type": "ConfigBornByAttachPoint",
                "attachPointName": "ReceivePoint"
              },
              "PPPDJGDDOGD": 1.0,
              "AJDILHJFNKE": -1.0
            },
            {
              "$type": "ApplyModifier",
              "otherTargets": {
                "$type": "FHBCCNMKPHK",
                "value": 2
              },
              "modifierName": "SendLine"
            },
            {
              "$type": "ApplyModifier",
              "modifierName": "ChangeFatherGlobalValue"
            }
          ]
        },
        "SendLine": {
          "modifierName": "",
          "elementDurability": 100.0,
          "onAdded": [
            {
              "$type": "AttachEffect",
              "target": "Applier",
              "rotationDampTime": "Eff_SceneObj_Runes_01_Chains",
              "born": {
                "$type": "ConfigBornByAttachPoint",
                "attachPointName": "EffPoint02",
                "attachPointTargetType": "Self"
              },
              "PPPDJGDDOGD": 1.0,
              "AJDILHJFNKE": -1.0
            }
          ]
        },
        "ChangeFatherGlobalValue": {
          "modifierName": "",
          "duration": 0.5,
          "elementDurability": 100.0,
          "onRemoved": [
            {
              "$type": "SetGlobalValue",
              "otherTargets": {
                "$type": "FHBCCNMKPHK",
                "value": 2
              },
              "value": 1.0,
              "key": "_Children02_Active",
              "maxValue": 0.0,
              "minValue": 0.0
            },
            {
              "$type": "SetGlobalValue",
              "otherTargets": {
                "$type": "FHBCCNMKPHK",
                "value": 4
              },
              "value": 1.0,
              "key": "_Children02_Active",
              "maxValue": 0.0,
              "minValue": 0.0
            }
          ]
        }
      },
      "onAdded": [
        {
          "$type": "AttachEffect",
          "rotationDampTime": "Eff_SceneObj_RunesChild_01",
          "born": {
            "$type": "ConfigBornByAttachPoint",
            "attachPointName": "EffectNode"
          },
          "PPPDJGDDOGD": 1.0,
          "AJDILHJFNKE": 101.0
        }
      ]
    }
  },
  {
    "Default": {
      "$type": "ConfigAbility",
      "abilityName": "SceneObj_Level_Common_Property_Prop_RunesChild_03_Ability",
      "abilityMixins": [
        {
          "$type": "AttachToGadgetStateMixin",
          "modifierName": "DisActive"
        },
        {
          "$type": "AttachToGadgetStateMixin",
          "gadgetState": 201,
          "modifierName": "Active"
        },
        {
          "$type": "AttachToGadgetStateMixin",
          "gadgetState": 202,
          "modifierName": "Success"
        }
      ],
      "modifiers": {
        "DisActive": {
          "modifierName": "",
          "elementDurability": 100.0,
          "onAdded": [
            {
              "$type": "SendEffectTrigger",
              "parameter": "State",
              "attachPoint": "",
              "damageRatio": "Int",
              "rotationDampTime": "Eff_SceneObj_RunesChild_01"
            }
          ]
        },
        "Active": {
          "modifierName": "",
          "elementDurability": 100.0,
          "onAdded": [
            {
              "$type": "SendEffectTrigger",
              "parameter": "State",
              "attachPoint": "",
              "damageRatio": "Int",
              "value": 201,
              "rotationDampTime": "Eff_SceneObj_RunesChild_01"
            }
          ]
        },
        "Success": {
          "modifierName": "",
          "duration": 1.0,
          "elementDurability": 100.0,
          "onAdded": [
            {
              "$type": "SendEffectTrigger",
              "parameter": "State",
              "attachPoint": "",
              "damageRatio": "Int",
              "value": 201,
              "rotationDampTime": "Eff_SceneObj_RunesChild_01"
            }
          ],
          "onRemoved": [
            {
              "$type": "FireEffect",
              "rotationDampTime": "Eff_SceneObj_Common_Success_01",
              "born": {
                "$type": "ConfigBornByAttachPoint",
                "attachPointName": "ReceivePoint"
              },
              "PPPDJGDDOGD": 1.0,
              "AJDILHJFNKE": -1.0
            },
            {
              "$type": "ApplyModifier",
              "otherTargets": {
                "$type": "FHBCCNMKPHK",
                "value": 2
              },
              "modifierName": "SendLine"
            },
            {
              "$type": "ApplyModifier",
              "modifierName": "ChangeFatherGlobalValue"
            }
          ]
        },
        "SendLine": {
          "modifierName": "",
          "elementDurability": 100.0,
          "onAdded": [
            {
              "$type": "AttachEffect",
              "target": "Applier",
              "rotationDampTime": "Eff_SceneObj_Runes_01_Chains",
              "born": {
                "$type": "ConfigBornByAttachPoint",
                "attachPointName": "EffPoint03",
                "attachPointTargetType": "Self"
              },
              "PPPDJGDDOGD": 1.0,
              "AJDILHJFNKE": -1.0
            }
          ]
        },
        "ChangeFatherGlobalValue": {
          "modifierName": "",
          "duration": 0.5,
          "elementDurability": 100.0,
          "onRemoved": [
            {
              "$type": "SetGlobalValue",
              "otherTargets": {
                "$type": "FHBCCNMKPHK",
                "value": 2
              },
              "value": 1.0,
              "key": "_Children03_Active",
              "maxValue": 0.0,
              "minValue": 0.0
            },
            {
              "$type": "SetGlobalValue",
              "otherTargets": {
                "$type": "FHBCCNMKPHK",
                "value": 4
              },
              "value": 1.0,
              "key": "_Children03_Active",
              "maxValue": 0.0,
              "minValue": 0.0
            }
          ]
        }
      },
      "onAdded": [
        {
          "$type": "AttachEffect",
          "rotationDampTime": "Eff_SceneObj_RunesChild_01",
          "born": {
            "$type": "ConfigBornByAttachPoint",
            "attachPointName": "EffectNode"
          },
          "PPPDJGDDOGD": 1.0,
          "AJDILHJFNKE": 102.0
        }
      ]
    }
  },
  {
    "Default": {
      "$type": "ConfigAbility",
      "abilityName": "SceneObj_Gear_Dungeon_MistTrial_Ball_AttackUp",
      "modifiers": {
        "EffectBall": {
          "modifierName": "",
          "elementDurability": 100.0,
          "onAdded": [
            {
              "$type": "AttachEffect",
              "rotationDampTime": "Eff_Tower_Ball_AttackUp_01",
              "PPPDJGDDOGD": 1.0,
              "AJDILHJFNKE": -1.0
            }
          ]
        },
        "AttackUp": {
          "modifierName": "",
          "duration": 30.0,
          "elementDurability": 100.0,
          "properties": {
            "Actor_AttackRatio": 0.25
          },
          "state": "AttackUp",
          "isLimitedProperties": true
        }
      },
      "onAdded": [
        {
          "$type": "AttachModifier",
          "modifierName": "EffectBall"
        }
      ],
      "onFieldEnter": [
        {
          "$type": "ApplyModifier",
          "target": "CurTeamAvatars",
          "shieldHP": true,
          "modifierName": "AttackUp"
        },
        {
          "$type": "RemoveModifier",
          "modifierName": "EffectBall"
        },
        {
          "$type": "FireEffect",
          "rotationDampTime": "Eff_Tower_Ball_Active_01",
          "PPPDJGDDOGD": 1.0,
          "AJDILHJFNKE": -1.0
        },
        {
          "$type": "KillSelf",
          "hideEntity": true
        }
      ]
    }
  },
  {
    "Default": {
      "$type": "ConfigAbility",
      "abilityName": "SceneObj_Gear_Dungeon_MistTrial_Ball_Heal",
      "modifiers": {
        "EffectBall": {
          "modifierName": "",
          "elementDurability": 100.0,
          "onAdded": [
            {
              "$type": "AttachEffect",
              "rotationDampTime": "Eff_Tower_Ball_Heal_01",
              "PPPDJGDDOGD": 1.0,
              "AJDILHJFNKE": -1.0
            }
          ]
        },
        "HealHP": {
          "modifierName": "",
          "duration": 0.5,
          "elementDurability": 100.0,
          "onAdded": [
            {
              "$type": "HealHP",
              "shieldHP": true,
              "CKDBFHCIJEK": 0.20000000298023224,
              "cdRatio": ""
            }
          ]
        }
      },
      "onAdded": [
        {
          "$type": "AttachModifier",
          "modifierName": "EffectBall"
        }
      ],
      "onFieldEnter": [
        {
          "$type": "ApplyModifier",
          "target": "CurTeamAvatars",
          "shieldHP": true,
          "modifierName": "HealHP"
        },
        {
          "$type": "RemoveModifier",
          "modifierName": "EffectBall"
        },
        {
          "$type": "FireEffect",
          "rotationDampTime": "Eff_Tower_Ball_Active_01",
          "PPPDJGDDOGD": 1.0,
          "AJDILHJFNKE": -1.0
        },
        {
          "$type": "KillSelf",
          "hideEntity": true
        }
      ]
    }
  },
  {
    "Default": {
      "$type": "ConfigAbility",
      "abilityName": "SceneObj_Gear_Dungeon_MistTrial_Ball_SpeedUp",
      "modifiers": {
        "EffectBall": {
          "modifierName": "",
          "elementDurability": 100.0,
          "onAdded": [
            {
              "$type": "AttachEffect",
              "rotationDampTime": "Eff_Tower_Ball_MoveSpeed_01",
              "PPPDJGDDOGD": 1.0,
              "AJDILHJFNKE": -1.0
            }
          ]
        },
        "SpeedUp": {
          "modifierName": "",
          "duration": 30.0,
          "elementDurability": 100.0,
          "properties": {
            "Animator_MoveSpeedRatio": 0.15000000596046448
          },
          "state": "SpeedUp",
          "isLimitedProperties": true
        }
      },
      "onAdded": [
        {
          "$type": "AttachModifier",
          "modifierName": "EffectBall"
        }
      ],
      "onFieldEnter": [
        {
          "$type": "ApplyModifier",
          "target": "CurTeamAvatars",
          "shieldHP": true,
          "modifierName": "SpeedUp"
        },
        {
          "$type": "RemoveModifier",
          "modifierName": "EffectBall"
        },
        {
          "$type": "FireEffect",
          "rotationDampTime": "Eff_Tower_Ball_Active_01",
          "PPPDJGDDOGD": 1.0,
          "AJDILHJFNKE": -1.0
        },
        {
          "$type": "KillSelf",
          "hideEntity": true
        }
      ]
    }
  },
  {
    "Default": {
      "$type": "ConfigAbility",
      "abilityName": "SceneObj_Level_Common_Property_Ani_Prop_StageFireBasket_01",
      "abilityMixins": [
        {
          "$type": "AttachToGadgetStateMixin",
          "modifierName": "DefaultEffect"
        },
        {
          "$type": "AttachToGadgetStateMixin",
          "gadgetState": 101,
          "modifierName": "BurnEffect"
        },
        {
          "$type": "AttachToGadgetStateMixin",
          "gadgetState": 201,
          "modifierName": "SuperBurnEffect"
        },
        {
          "$type": "AttachToGadgetStateMixin",
          "gadgetState": 202,
          "modifierName": "TempSuperBurnEffect"
        },
        {
          "$type": "AttachToGadgetStateMixin",
          "gadgetState": 203,
          "modifierName": "PersistentSuperBurnEffect"
        }
      ],
      "modifiers": {
        "DefaultEffect": {
          "modifierName": "",
          "elementDurability": 100.0
        },
        "BurnEffect": {
          "modifierName": "",
          "elementDurability": 100.0,
          "onAdded": [
            {
              "$type": "AttachEffect",
              "rotationDampTime": "Eff_SceneObj_Fire_01_StageBasin_Large",
              "PPPDJGDDOGD": 1.0,
              "AJDILHJFNKE": -1.0
            }
          ]
        },
        "SuperBurnEffect": {
          "modifierName": "",
          "duration": 5.0,
          "elementDurability": 100.0,
          "onAdded": [
            {
              "$type": "AttachEffect",
              "rotationDampTime": "Eff_SceneObj_Fire_02_LargeFireBasket",
              "PPPDJGDDOGD": 1.0,
              "AJDILHJFNKE": -1.0
            }
          ],
          "onRemoved": [
            {
              "$type": "ExecuteGadgetLua",
              "param1": 101
            }
          ]
        },
        "TempSuperBurnEffect": {
          "modifierName": "",
          "duration": 5.0,
          "elementDurability": 100.0,
          "onAdded": [
            {
              "$type": "AttachEffect",
              "rotationDampTime": "Eff_SceneObj_Fire_02_LargeFireBasket",
              "PPPDJGDDOGD": 1.0,
              "AJDILHJFNKE": -1.0
            }
          ],
          "onRemoved": [
            {
              "$type": "ExecuteGadgetLua",
              "param1": 203
            }
          ]
        },
        "PersistentSuperBurnEffect": {
          "modifierName": "",
          "elementDurability": 100.0,
          "onAdded": [
            {
              "$type": "AttachEffect",
              "rotationDampTime": "Eff_SceneObj_Fire_01_StageBasin_LargeHigh",
              "PPPDJGDDOGD": 1.0,
              "AJDILHJFNKE": -1.0
            }
          ]
        }
      }
    }
  },
  {
    "Default": {
      "$type": "ConfigAbility",
      "abilityName": "SceneObj_Level_Common_Property_Ani_Prop_StageSmallFireBasket_01",
      "abilityMixins": [
        {
          "$type": "AttachToGadgetStateMixin",
          "modifierName": "DefaultEffect"
        },
        {
          "$type": "AttachToGadgetStateMixin",
          "gadgetState": 101,
          "modifierName": "BurnEffect"
        },
        {
          "$type": "AttachToGadgetStateMixin",
          "gadgetState": 201,
          "modifierName": "SuperBurnEffect"
        },
        {
          "$type": "AttachToGadgetStateMixin",
          "gadgetState": 202,
          "modifierName": "TempSuperBurnEffect"
        },
        {
          "$type": "AttachToGadgetStateMixin",
          "gadgetState": 203,
          "modifierName": "PersistentSuperBurnEffect"
        }
      ],
      "modifiers": {
        "DefaultEffect": {
          "modifierName": "",
          "elementDurability": 100.0
        },
        "BurnEffect": {
          "modifierName": "",
          "elementDurability": 100.0,
          "onAdded": [
            {
              "$type": "AttachEffect",
              "rotationDampTime": "Eff_SceneObj_Fire_01_StageHangLamp",
              "PPPDJGDDOGD": 1.0,
              "AJDILHJFNKE": -1.0
            }
          ]
        },
        "SuperBurnEffect": {
          "modifierName": "",
          "duration": 5.0,
          "elementDurability": 100.0,
          "onAdded": [
            {
              "$type": "AttachEffect",
              "rotationDampTime": "Eff_SceneObj_Fire_02_SmallFireBasket",
              "PPPDJGDDOGD": 1.0,
              "AJDILHJFNKE": -1.0
            }
          ],
          "onRemoved": [
            {
              "$type": "ExecuteGadgetLua",
              "param1": 101
            }
          ]
        },
        "TempSuperBurnEffect": {
          "modifierName": "",
          "duration": 5.0,
          "elementDurability": 100.0,
          "onAdded": [
            {
              "$type": "AttachEffect",
              "rotationDampTime": "Eff_SceneObj_Fire_02_SmallFireBasket",
              "PPPDJGDDOGD": 1.0,
              "AJDILHJFNKE": -1.0
            }
          ],
          "onRemoved": [
            {
              "$type": "ExecuteGadgetLua",
              "param1": 203
            }
          ]
        },
        "PersistentSuperBurnEffect": {
          "modifierName": "",
          "elementDurability": 100.0,
          "onAdded": [
            {
              "$type": "AttachEffect",
              "rotationDampTime": "Eff_SceneObj_Fire_01_StageHangLamp",
              "PPPDJGDDOGD": 1.0,
              "AJDILHJFNKE": -1.0
            }
          ]
        }
      }
    }
  },
  {
    "Default": {
      "$type": "ConfigAbility",
      "abilityName": "SceneObj_Level_Common_Property_Ani_Prop_StageHangLamp_01",
      "abilityMixins": [
        {
          "$type": "AttachToGadgetStateMixin",
          "modifierName": "DefaultEffect"
        },
        {
          "$type": "AttachToGadgetStateMixin",
          "gadgetState": 201,
          "modifierName": "BurnEffect"
        }
      ],
      "modifiers": {
        "DefaultEffect": {
          "modifierName": "",
          "elementDurability": 100.0
        },
        "BurnEffect": {
          "modifierName": "",
          "elementDurability": 100.0,
          "onAdded": [
            {
              "$type": "AttachEffect",
              "rotationDampTime": "Eff_SceneObj_Fire_01_StageHangLamp",
              "PPPDJGDDOGD": 1.0,
              "AJDILHJFNKE": -1.0
            }
          ]
        }
      }
    }
  },
  {
    "Default": {
      "$type": "ConfigAbility",
      "abilityName": "SceneObj_Level_Common_Property_Prop_SumoAtmosphere",
      "abilityMixins": [
        {
          "$type": "AttachToGadgetStateMixin",
          "modifierName": "Default"
        },
        {
          "$type": "AttachToGadgetStateMixin",
          "gadgetState": 201,
          "modifierName": "Phase1"
        },
        {
          "$type": "AttachToGadgetStateMixin",
          "gadgetState": 202,
          "modifierName": "Phase2"
        },
        {
          "$type": "AttachToGadgetStateMixin",
          "gadgetState": 203,
          "modifierName": "Phase3"
        },
        {
          "$type": "AttachToGadgetStateMixin",
          "gadgetState": 204,
          "modifierName": "Phase4"
        }
      ],
      "modifiers": {
        "Default": {
          "modifierName": "",
          "elementDurability": 100.0,
          "onAdded": [
            {
              "$type": "CLKGEHMNIEF",
              "transformNames": ["Default_Light"],
              "setEnable": true
            },
            {
              "$type": "CLKGEHMNIEF",
              "transformNames": ["Default_Light_Mobile"],
              "setEnable": true
            },
            {
              "$type": "CLKGEHMNIEF",
              "transformNames": ["Phase1_Light"]
            },
            {
              "$type": "CLKGEHMNIEF",
              "transformNames": ["Phase1_Light_Mobile"]
            },
            {
              "$type": "CLKGEHMNIEF",
              "transformNames": ["Phase2_Light"]
            },
            {
              "$type": "CLKGEHMNIEF",
              "transformNames": ["Phase2_Light_Mobile"]
            },
            {
              "$type": "CLKGEHMNIEF",
              "transformNames": ["Phase3_Light"]
            },
            {
              "$type": "CLKGEHMNIEF",
              "transformNames": ["Phase3_Light_Mobile"]
            },
            {
              "$type": "CLKGEHMNIEF",
              "transformNames": ["Phase4_Light"]
            },
            {
              "$type": "CLKGEHMNIEF",
              "transformNames": ["Phase4_Light_Mobile"]
            },
            {
              "$type": "CLKGEHMNIEF",
              "transformNames": ["Default_Windows"],
              "setEnable": true
            },
            {
              "$type": "CLKGEHMNIEF",
              "transformNames": ["Phase3_Windows"]
            },
            {
              "$type": "CLKGEHMNIEF",
              "transformNames": ["Phase4_Windows"]
            }
          ]
        },
        "Phase1": {
          "modifierName": "",
          "elementDurability": 100.0,
          "onAdded": [
            {
              "$type": "CLKGEHMNIEF",
              "transformNames": ["Default_Light"]
            },
            {
              "$type": "CLKGEHMNIEF",
              "transformNames": ["Default_Light_Mobile"]
            },
            {
              "$type": "CLKGEHMNIEF",
              "transformNames": ["Phase1_Light"],
              "setEnable": true
            },
            {
              "$type": "CLKGEHMNIEF",
              "transformNames": ["Phase1_Light_Mobile"],
              "setEnable": true
            },
            {
              "$type": "CLKGEHMNIEF",
              "transformNames": ["Phase2_Light"]
            },
            {
              "$type": "CLKGEHMNIEF",
              "transformNames": ["Phase2_Light_Mobile"]
            },
            {
              "$type": "CLKGEHMNIEF",
              "transformNames": ["Phase3_Light"]
            },
            {
              "$type": "CLKGEHMNIEF",
              "transformNames": ["Phase3_Light_Mobile"]
            },
            {
              "$type": "CLKGEHMNIEF",
              "transformNames": ["Phase4_Light"]
            },
            {
              "$type": "CLKGEHMNIEF",
              "transformNames": ["Phase4_Light_Mobile"]
            },
            {
              "$type": "CLKGEHMNIEF",
              "transformNames": ["Default_Windows"],
              "setEnable": true
            },
            {
              "$type": "CLKGEHMNIEF",
              "transformNames": ["Phase3_Windows"]
            },
            {
              "$type": "CLKGEHMNIEF",
              "transformNames": ["Phase4_Windows"]
            }
          ]
        },
        "Phase2": {
          "modifierName": "",
          "elementDurability": 100.0,
          "onAdded": [
            {
              "$type": "CLKGEHMNIEF",
              "transformNames": ["Default_Light"]
            },
            {
              "$type": "CLKGEHMNIEF",
              "transformNames": ["Default_Light_Mobile"]
            },
            {
              "$type": "CLKGEHMNIEF",
              "transformNames": ["Phase1_Light"]
            },
            {
              "$type": "CLKGEHMNIEF",
              "transformNames": ["Phase1_Light_Mobile"]
            },
            {
              "$type": "CLKGEHMNIEF",
              "transformNames": ["Phase2_Light"],
              "setEnable": true
            },
            {
              "$type": "CLKGEHMNIEF",
              "transformNames": ["Phase2_Light_Mobile"],
              "setEnable": true
            },
            {
              "$type": "CLKGEHMNIEF",
              "transformNames": ["Phase3_Light"]
            },
            {
              "$type": "CLKGEHMNIEF",
              "transformNames": ["Phase3_Light_Mobile"]
            },
            {
              "$type": "CLKGEHMNIEF",
              "transformNames": ["Phase4_Light"]
            },
            {
              "$type": "CLKGEHMNIEF",
              "transformNames": ["Phase4_Light_Mobile"]
            },
            {
              "$type": "CLKGEHMNIEF",
              "transformNames": ["Default_Windows"],
              "setEnable": true
            },
            {
              "$type": "CLKGEHMNIEF",
              "transformNames": ["Phase3_Windows"]
            },
            {
              "$type": "CLKGEHMNIEF",
              "transformNames": ["Phase4_Windows"]
            }
          ]
        },
        "Phase3": {
          "modifierName": "",
          "elementDurability": 100.0,
          "onAdded": [
            {
              "$type": "CLKGEHMNIEF",
              "transformNames": ["Default_Light"]
            },
            {
              "$type": "CLKGEHMNIEF",
              "transformNames": ["Default_Light_Mobile"]
            },
            {
              "$type": "CLKGEHMNIEF",
              "transformNames": ["Phase1_Light"]
            },
            {
              "$type": "CLKGEHMNIEF",
              "transformNames": ["Phase1_Light_Mobile"]
            },
            {
              "$type": "CLKGEHMNIEF",
              "transformNames": ["Phase2_Light"]
            },
            {
              "$type": "CLKGEHMNIEF",
              "transformNames": ["Phase2_Light_Mobile"]
            },
            {
              "$type": "CLKGEHMNIEF",
              "transformNames": ["Phase3_Light"],
              "setEnable": true
            },
            {
              "$type": "CLKGEHMNIEF",
              "transformNames": ["Phase3_Light_Mobile"],
              "setEnable": true
            },
            {
              "$type": "CLKGEHMNIEF",
              "transformNames": ["Phase4_Light"]
            },
            {
              "$type": "CLKGEHMNIEF",
              "transformNames": ["Phase4_Light_Mobile"]
            },
            {
              "$type": "CLKGEHMNIEF",
              "transformNames": ["Default_Windows"]
            },
            {
              "$type": "CLKGEHMNIEF",
              "transformNames": ["Phase3_Windows"],
              "setEnable": true
            },
            {
              "$type": "CLKGEHMNIEF",
              "transformNames": ["Phase4_Windows"]
            }
          ]
        },
        "Phase4": {
          "modifierName": "",
          "elementDurability": 100.0,
          "onAdded": [
            {
              "$type": "CLKGEHMNIEF",
              "transformNames": ["Default_Light"]
            },
            {
              "$type": "CLKGEHMNIEF",
              "transformNames": ["Default_Light_Mobile"]
            },
            {
              "$type": "CLKGEHMNIEF",
              "transformNames": ["Phase1_Light"]
            },
            {
              "$type": "CLKGEHMNIEF",
              "transformNames": ["Phase1_Light_Mobile"]
            },
            {
              "$type": "CLKGEHMNIEF",
              "transformNames": ["Phase2_Light"]
            },
            {
              "$type": "CLKGEHMNIEF",
              "transformNames": ["Phase2_Light_Mobile"]
            },
            {
              "$type": "CLKGEHMNIEF",
              "transformNames": ["Phase3_Light"]
            },
            {
              "$type": "CLKGEHMNIEF",
              "transformNames": ["Phase3_Light_Mobile"]
            },
            {
              "$type": "CLKGEHMNIEF",
              "transformNames": ["Phase4_Light"],
              "setEnable": true
            },
            {
              "$type": "CLKGEHMNIEF",
              "transformNames": ["Phase4_Light_Mobile"],
              "setEnable": true
            },
            {
              "$type": "CLKGEHMNIEF",
              "transformNames": ["Default_Windows"]
            },
            {
              "$type": "CLKGEHMNIEF",
              "transformNames": ["Phase3_Windows"]
            },
            {
              "$type": "CLKGEHMNIEF",
              "transformNames": ["Phase4_Windows"],
              "setEnable": true
            }
          ]
        }
      }
    }
  },
  {
    "Default": {
      "$type": "ConfigAbility",
      "abilityName": "SceneObj_Level_Common_Property_Ani_Prop_EffectOperatorBattle_01_Ability",
      "abilityMixins": [
        {
          "$type": "AttachToGadgetStateMixin",
          "modifierName": "InNormal"
        },
        {
          "$type": "AttachToGadgetStateMixin",
          "gadgetState": 201,
          "modifierName": "InBattle"
        },
        {
          "$type": "AttachToGadgetStateMixin",
          "gadgetState": 202,
          "modifierName": "BattleSuccess"
        },
        {
          "$type": "AttachToGadgetStateMixin",
          "gadgetState": 203,
          "modifierName": "BattleFinish"
        }
      ],
      "modifiers": {
        "InNormal": {
          "modifierName": "",
          "elementDurability": 100.0,
          "onAdded": [
            {
              "$type": "AttachEffect",
              "rotationDampTime": "Eff_SceneObj_RougeBattle_01",
              "PPPDJGDDOGD": 1.0,
              "AJDILHJFNKE": -1.0
            }
          ]
        },
        "InBattle": {
          "modifierName": "",
          "elementDurability": 100.0,
          "onAdded": [
            {
              "$type": "FireEffect",
              "rotationDampTime": "Eff_SceneObj_RougeBattle_01_Disappear",
              "PPPDJGDDOGD": 1.0,
              "AJDILHJFNKE": -1.0
            }
          ]
        },
        "BattleFinish": {
          "modifierName": "",
          "elementDurability": 100.0,
          "onAdded": [
            {
              "$type": "AttachEffect",
              "rotationDampTime": "Eff_SceneObj_RougeBattle_01_Finish",
              "PPPDJGDDOGD": 1.0,
              "AJDILHJFNKE": -1.0
            },
            {
              "$type": "FireEffect",
              "rotationDampTime": "Eff_SceneObj_RougeBattle_Success_Disappear",
              "PPPDJGDDOGD": 1.0,
              "AJDILHJFNKE": -1.0
            }
          ]
        },
        "BattleSuccess": {
          "modifierName": "",
          "elementDurability": 100.0,
          "onAdded": [
            {
              "$type": "AttachEffect",
              "rotationDampTime": "Eff_SceneObj_RougeBattle_01_Success",
              "PPPDJGDDOGD": 1.0,
              "AJDILHJFNKE": -1.0
            }
          ]
        }
      }
    }
  },
  {
    "Default": {
      "$type": "ConfigAbility",
      "abilityName": "SceneObj_Level_Common_Property_Ani_Prop_EffectOperatorRevive_01_Ability",
      "abilityMixins": [
        {
          "$type": "AttachToGadgetStateMixin",
          "modifierName": "InNormal"
        },
        {
          "$type": "AttachToGadgetStateMixin",
          "gadgetState": 201,
          "modifierName": "StopHeal"
        },
        {
          "$type": "AttachToGadgetStateMixin",
          "gadgetState": 202,
          "modifierName": "InNormal2"
        },
        {
          "$type": "AttachToGadgetStateMixin",
          "gadgetState": 203,
          "modifierName": "End"
        }
      ],
      "modifiers": {
        "StopHeal": {
          "modifierName": "",
          "elementDurability": 100.0,
          "onAdded": [
            {
              "$type": "AttachEffect",
              "rotationDampTime": "Eff_SceneObj_RougeCure_01",
              "PPPDJGDDOGD": 1.0,
              "AJDILHJFNKE": -1.0
            }
          ]
        },
        "InNormal": {
          "modifierName": "",
          "elementDurability": 100.0,
          "onAdded": [
            {
              "$type": "AttachEffect",
              "rotationDampTime": "Eff_SceneObj_RougeCure_01",
              "PPPDJGDDOGD": 1.0,
              "AJDILHJFNKE": -1.0
            }
          ]
        },
        "InNormal2": {
          "modifierName": "",
          "elementDurability": 100.0,
          "onAdded": [
            {
              "$type": "AttachEffect",
              "rotationDampTime": "Eff_SceneObj_RougeCure_01_Stay",
              "PPPDJGDDOGD": 1.0,
              "AJDILHJFNKE": -1.0
            }
          ]
        },
        "End": {
          "modifierName": "",
          "elementDurability": 100.0,
          "onAdded": [
            {
              "$type": "FireEffect",
              "rotationDampTime": "Eff_SceneObj_RougeBattle_Success_Disappear",
              "PPPDJGDDOGD": 1.0,
              "AJDILHJFNKE": -1.0
            },
            {
              "$type": "AttachEffect",
              "rotationDampTime": "Eff_SceneObj_RougeCure_01_Used",
              "PPPDJGDDOGD": 1.0,
              "AJDILHJFNKE": -1.0
            }
          ]
        }
      }
    }
  },
  {
    "Default": {
      "$type": "ConfigAbility",
      "abilityName": "SceneObj_Level_Xm_Property_Prop_LostCityRunesParent_01_Ability",
      "abilityMixins": [
        {
          "$type": "AttachToGadgetStateMixin",
          "modifierName": "CheckSelf"
        },
        {
          "$type": "AttachToGadgetStateMixin",
          "gadgetState": 201,
          "modifierName": "WaitState"
        },
        {
          "$type": "AttachToGadgetStateMixin",
          "gadgetState": 202,
          "modifierName": "ActiveState"
        },
        {
          "$type": "AttachModifierToSelfGlobalValueMixin",
          "globalValueKey": "_Children01_Active",
          "gvInTalk": 0.0,
          "valueSteps": [0.5, 1.5],
          "modifierNameSteps": ["Active01"]
        },
        {
          "$type": "AttachModifierToSelfGlobalValueMixin",
          "globalValueKey": "_Children02_Active",
          "gvInTalk": 0.0,
          "valueSteps": [0.5, 1.5],
          "modifierNameSteps": ["Active02"]
        },
        {
          "$type": "AttachModifierToSelfGlobalValueMixin",
          "globalValueKey": "_Children03_Active",
          "gvInTalk": 0.0,
          "valueSteps": [0.5, 1.5],
          "modifierNameSteps": ["Active03"]
        }
      ],
      "modifiers": {
        "CheckSelf": {
          "modifierName": "",
          "elementDurability": 100.0,
          "thinkInterval": 1.0,
          "onAdded": [
            {
              "$type": "ANNOBMCGOEC",
              "canBeHandledOnRecover": true,
              "matName": "Mat01",
              "EKHLCLJELIP": "_EmissionStrength",
              "value": 2.0
            },
            {
              "$type": "ANNOBMCGOEC",
              "canBeHandledOnRecover": true,
              "matName": "Mat02",
              "EKHLCLJELIP": "_EmissionStrength",
              "value": 0.0
            },
            {
              "$type": "ANNOBMCGOEC",
              "canBeHandledOnRecover": true,
              "matName": "Mat03",
              "EKHLCLJELIP": "_EmissionStrength",
              "value": 0.0
            },
            {
              "$type": "ANNOBMCGOEC",
              "canBeHandledOnRecover": true,
              "matName": "Mat04",
              "EKHLCLJELIP": "_EmissionStrength",
              "value": 0.0
            }
          ],
          "onThinkInterval": [
            {
              "$type": "Predicated",
              "targetPredicates": [
                {
                  "$type": "ByTargetGlobalValue",
                  "key": "_Children01_Active",
                  "value": 1.0
                },
                {
                  "$type": "ByTargetGlobalValue",
                  "key": "_Children02_Active",
                  "value": 1.0
                },
                {
                  "$type": "ByTargetGlobalValue",
                  "key": "_Children03_Active",
                  "value": 1.0
                }
              ],
              "successActions": [
                {
                  "$type": "HPIDNBEGJLL",
                  "state": 201
                }
              ]
            }
          ]
        },
        "WaitState": {
          "modifierName": "",
          "elementDurability": 100.0
        },
        "ActiveState": {
          "modifierName": "",
          "elementDurability": 100.0,
          "onAdded": [
            {
              "$type": "ANNOBMCGOEC",
              "canBeHandledOnRecover": true,
              "matName": "Mat01",
              "EKHLCLJELIP": "_EmissionStrength",
              "value": 5.0,
              "useCurve": true,
              "lerpTime": 0.5
            },
            {
              "$type": "AttachEffect",
              "rotationDampTime": "Eff_SceneObj_LostCityRunesParent_01_Active",
              "PPPDJGDDOGD": 1.0,
              "AJDILHJFNKE": -1.0
            }
          ]
        },
        "Active01": {
          "modifierName": "",
          "elementDurability": 100.0,
          "onAdded": [
            {
              "$type": "ANNOBMCGOEC",
              "canBeHandledOnRecover": true,
              "matName": "Mat02",
              "EKHLCLJELIP": "_EmissionStrength",
              "value": 5.0,
              "useCurve": true,
              "lerpTime": 1.0
            }
          ]
        },
        "Active02": {
          "modifierName": "",
          "elementDurability": 100.0,
          "onAdded": [
            {
              "$type": "ANNOBMCGOEC",
              "canBeHandledOnRecover": true,
              "matName": "Mat03",
              "EKHLCLJELIP": "_EmissionStrength",
              "value": 5.0,
              "useCurve": true,
              "lerpTime": 1.0
            }
          ]
        },
        "Active03": {
          "modifierName": "",
          "elementDurability": 100.0,
          "onAdded": [
            {
              "$type": "ANNOBMCGOEC",
              "canBeHandledOnRecover": true,
              "matName": "Mat04",
              "EKHLCLJELIP": "_EmissionStrength",
              "value": 5.0,
              "useCurve": true,
              "lerpTime": 1.0
            }
          ]
        }
      }
    }
  },
  {
    "Default": {
      "$type": "ConfigAbility",
      "abilityName": "SceneObj_Level_Xm_Property_Prop_LostCityRunesChild_01_Ability",
      "abilityMixins": [
        {
          "$type": "AttachToGadgetStateMixin",
          "modifierName": "DisActive"
        },
        {
          "$type": "AttachToGadgetStateMixin",
          "gadgetState": 201,
          "modifierName": "Active"
        },
        {
          "$type": "AttachToGadgetStateMixin",
          "gadgetState": 202,
          "modifierName": "Success"
        }
      ],
      "modifiers": {
        "DisActive": {
          "modifierName": "",
          "elementDurability": 100.0,
          "onAdded": [
            {
              "$type": "AttachEffect",
              "rotationDampTime": "Eff_SceneObj_LostCityRunesChild_01_Idle",
              "born": {
                "$type": "ConfigBornByAttachPoint",
                "useRotation": true,
                "attachPointName": "AttachPoint"
              },
              "PPPDJGDDOGD": 1.0,
              "AJDILHJFNKE": 101.0
            }
          ]
        },
        "Active": {
          "modifierName": "",
          "elementDurability": 100.0,
          "onAdded": [
            {
              "$type": "AttachEffect",
              "rotationDampTime": "Eff_SceneObj_LostCityRunesChild_01_Disappear",
              "born": {
                "$type": "ConfigBornByAttachPoint",
                "useRotation": true,
                "attachPointName": "AttachPoint"
              },
              "PPPDJGDDOGD": 1.0,
              "AJDILHJFNKE": 101.0
            }
          ]
        },
        "Success": {
          "modifierName": "",
          "elementDurability": 100.0,
          "onAdded": [
            {
              "$type": "AttachEffect",
              "rotationDampTime": "Eff_SceneObj_LostCityRunesChild_01_Active",
              "born": {
                "$type": "ConfigBornByAttachPoint",
                "useRotation": true,
                "attachPointName": "AttachPoint"
              },
              "PPPDJGDDOGD": 1.0,
              "AJDILHJFNKE": 101.0
            },
            {
              "$type": "ApplyModifier",
              "modifierName": "ChangeFatherGlobalValue"
            }
          ]
        },
        "ChangeFatherGlobalValue": {
          "modifierName": "",
          "duration": 0.5,
          "elementDurability": 100.0,
          "onRemoved": [
            {
              "$type": "SetGlobalValue",
              "otherTargets": {
                "$type": "FHBCCNMKPHK",
                "value": 2
              },
              "value": 1.0,
              "key": "_Children01_Active",
              "maxValue": 0.0,
              "minValue": 0.0
            },
            {
              "$type": "SetGlobalValue",
              "otherTargets": {
                "$type": "FHBCCNMKPHK",
                "value": 4
              },
              "value": 1.0,
              "key": "_Children01_Active",
              "maxValue": 0.0,
              "minValue": 0.0
            }
          ]
        }
      }
    }
  },
  {
    "Default": {
      "$type": "ConfigAbility",
      "abilityName": "SceneObj_Level_Xm_Property_Prop_LostCityRunesChild_02_Ability",
      "abilityMixins": [
        {
          "$type": "AttachToGadgetStateMixin",
          "modifierName": "DisActive"
        },
        {
          "$type": "AttachToGadgetStateMixin",
          "gadgetState": 201,
          "modifierName": "Active"
        },
        {
          "$type": "AttachToGadgetStateMixin",
          "gadgetState": 202,
          "modifierName": "Success"
        }
      ],
      "modifiers": {
        "DisActive": {
          "modifierName": "",
          "elementDurability": 100.0,
          "onAdded": [
            {
              "$type": "AttachEffect",
              "rotationDampTime": "Eff_SceneObj_LostCityRunesChild_01_Idle",
              "born": {
                "$type": "ConfigBornByAttachPoint",
                "useRotation": true,
                "attachPointName": "AttachPoint"
              },
              "PPPDJGDDOGD": 1.0,
              "AJDILHJFNKE": 102.0
            }
          ]
        },
        "Active": {
          "modifierName": "",
          "elementDurability": 100.0,
          "onAdded": [
            {
              "$type": "AttachEffect",
              "rotationDampTime": "Eff_SceneObj_LostCityRunesChild_01_Disappear",
              "born": {
                "$type": "ConfigBornByAttachPoint",
                "useRotation": true,
                "attachPointName": "AttachPoint"
              },
              "PPPDJGDDOGD": 1.0,
              "AJDILHJFNKE": 102.0
            }
          ]
        },
        "Success": {
          "modifierName": "",
          "elementDurability": 100.0,
          "onAdded": [
            {
              "$type": "AttachEffect",
              "rotationDampTime": "Eff_SceneObj_LostCityRunesChild_01_Active",
              "born": {
                "$type": "ConfigBornByAttachPoint",
                "useRotation": true,
                "attachPointName": "AttachPoint"
              },
              "PPPDJGDDOGD": 1.0,
              "AJDILHJFNKE": 102.0
            },
            {
              "$type": "ApplyModifier",
              "modifierName": "ChangeFatherGlobalValue"
            }
          ]
        },
        "ChangeFatherGlobalValue": {
          "modifierName": "",
          "duration": 0.5,
          "elementDurability": 100.0,
          "onRemoved": [
            {
              "$type": "SetGlobalValue",
              "otherTargets": {
                "$type": "FHBCCNMKPHK",
                "value": 2
              },
              "value": 1.0,
              "key": "_Children02_Active",
              "maxValue": 0.0,
              "minValue": 0.0
            },
            {
              "$type": "SetGlobalValue",
              "otherTargets": {
                "$type": "FHBCCNMKPHK",
                "value": 4
              },
              "value": 1.0,
              "key": "_Children02_Active",
              "maxValue": 0.0,
              "minValue": 0.0
            }
          ]
        }
      }
    }
  },
  {
    "Default": {
      "$type": "ConfigAbility",
      "abilityName": "SceneObj_Level_Xm_Property_Prop_LostCityRunesChild_03_Ability",
      "abilityMixins": [
        {
          "$type": "AttachToGadgetStateMixin",
          "modifierName": "DisActive"
        },
        {
          "$type": "AttachToGadgetStateMixin",
          "gadgetState": 201,
          "modifierName": "Active"
        },
        {
          "$type": "AttachToGadgetStateMixin",
          "gadgetState": 202,
          "modifierName": "Success"
        }
      ],
      "modifiers": {
        "DisActive": {
          "modifierName": "",
          "elementDurability": 100.0,
          "onAdded": [
            {
              "$type": "AttachEffect",
              "rotationDampTime": "Eff_SceneObj_LostCityRunesChild_01_Idle",
              "born": {
                "$type": "ConfigBornByAttachPoint",
                "useRotation": true,
                "attachPointName": "AttachPoint"
              },
              "PPPDJGDDOGD": 1.0,
              "AJDILHJFNKE": 103.0
            }
          ]
        },
        "Active": {
          "modifierName": "",
          "elementDurability": 100.0,
          "onAdded": [
            {
              "$type": "AttachEffect",
              "rotationDampTime": "Eff_SceneObj_LostCityRunesChild_01_Disappear",
              "born": {
                "$type": "ConfigBornByAttachPoint",
                "useRotation": true,
                "attachPointName": "AttachPoint"
              },
              "PPPDJGDDOGD": 1.0,
              "AJDILHJFNKE": 103.0
            }
          ]
        },
        "Success": {
          "modifierName": "",
          "elementDurability": 100.0,
          "onAdded": [
            {
              "$type": "AttachEffect",
              "rotationDampTime": "Eff_SceneObj_LostCityRunesChild_01_Active",
              "born": {
                "$type": "ConfigBornByAttachPoint",
                "useRotation": true,
                "attachPointName": "AttachPoint"
              },
              "PPPDJGDDOGD": 1.0,
              "AJDILHJFNKE": 103.0
            },
            {
              "$type": "ApplyModifier",
              "modifierName": "ChangeFatherGlobalValue"
            }
          ]
        },
        "ChangeFatherGlobalValue": {
          "modifierName": "",
          "duration": 0.5,
          "elementDurability": 100.0,
          "onRemoved": [
            {
              "$type": "SetGlobalValue",
              "otherTargets": {
                "$type": "FHBCCNMKPHK",
                "value": 2
              },
              "value": 1.0,
              "key": "_Children03_Active",
              "maxValue": 0.0,
              "minValue": 0.0
            },
            {
              "$type": "SetGlobalValue",
              "otherTargets": {
                "$type": "FHBCCNMKPHK",
                "value": 4
              },
              "value": 1.0,
              "key": "_Children03_Active",
              "maxValue": 0.0,
              "minValue": 0.0
            }
          ]
        }
      }
    }
  },
  {
    "Default": {
      "$type": "ConfigAbility",
      "abilityName": "SceneObj_Level_Common_Property_Ani_Bridge_LyFloatingBridge_01",
      "abilityMixins": [
        {
          "$type": "AttachToGadgetStateMixin",
          "gadgetState": 201,
          "modifierName": "ActiveState"
        }
      ],
      "modifiers": {
        "ActiveState": {
          "modifierName": "",
          "elementDurability": 100.0,
          "onAdded": [
            {
              "$type": "CLKGEHMNIEF",
              "transformNames": ["ColNode"],
              "setEnable": true
            }
          ],
          "onRemoved": [
            {
              "$type": "CLKGEHMNIEF",
              "transformNames": ["ColNode"]
            }
          ]
        }
      }
    }
  }
]
