[
  {
    "Default": {
      "$type": "ConfigAbility",
      "abilityName": "SceneObj_Area_Ljxs_Property_Prop_ChestClaymoreDragonfell_01_Ability",
      "modifiers": {
        "StateModifier": {
          "modifierName": "",
          "elementDurability": 100.0,
          "onAdded": [
            {
              "$type": "AttachEffect",
              "rotationDampTime": "Eff_SceneObj_ChestClaymoreDragonfell_01",
              "born": {
                "$type": "ConfigBornByAttachPoint",
                "attachPointName": "WeaponNode"
              },
              "PPPDJGDDOGD": 1.0,
              "AJDILHJFNKE": -1.0
            }
          ],
          "onKill": [
            {
              "$type": "SendEffectTrigger",
              "parameter": "Disappear",
              "attachPoint": "",
              "rotationDampTime": "Eff_SceneObj_ChestClaymoreDragonfell_01"
            }
          ]
        }
      },
      "onAdded": [
        {
          "$type": "ApplyModifier",
          "modifierName": "StateModifier"
        }
      ]
    }
  },
  {
    "Default": {
      "$type": "ConfigAbility",
      "abilityName": "SceneObj_Area_Dq_Property_Build_WataShrineChest_01_Ability",
      "modifiers": {
        "StateModifier": {
          "modifierName": "",
          "elementDurability": 100.0,
          "onAdded": [
            {
              "$type": "AttachEffect",
              "rotationDampTime": "Eff_SceneObj_ChestClaymoreDragonfell_01",
              "born": {
                "$type": "ConfigBornByAttachPoint",
                "attachPointName": "WeaponNode"
              },
              "PPPDJGDDOGD": 1.0,
              "AJDILHJFNKE": -1.0
            }
          ],
          "onKill": [
            {
              "$type": "SendEffectTrigger",
              "parameter": "Disappear",
              "attachPoint": "",
              "rotationDampTime": "Eff_SceneObj_ChestClaymoreDragonfell_01"
            }
          ]
        }
      },
      "onAdded": [
        {
          "$type": "ApplyModifier",
          "modifierName": "StateModifier"
        }
      ]
    }
  }
]
