[
  {
    "Default": {
      "$type": "ConfigAbility",
      "abilityName": "TargetShooting_Cannon_Init",
      "abilityMixins": [
        {
          "$type": "AttachModifierToSelfGlobalValueMixin",
          "globalValueKey": "_CURRENT_AMMO_NUMBER",
          "gvInTalk": 0.0,
          "valueSteps": [-0.5, 30.5],
          "modifierNameSteps": ["Reload_Listener"]
        },
        {
          "$type": "AttachModifierToSelfGlobalValueMixin",
          "globalValueKey": "_CURRENT_AMMO_NUMBER",
          "gvInTalk": 0.0,
          "valueSteps": [-0.5, 5.5, 30.5],
          "modifierNameSteps": [
            "TargetShooting_MaterialStateSwitch_LackAmmo",
            "TargetShooting_MaterialStateSwitch_EnoughAmmoMaterial"
          ]
        },
        {
          "$type": "EFDKCGMBIBD",
          "HEHMNFGBNOP": "VerticalRotateBone",
          "OKGKJKDNHFL": -12.0,
          "OCPGCJAMFJK": "HorizontalRotateBone",
          "KJELNBILAFG": ["Cannon"]
        }
      ],
      "modifiers": {
        "TargetShooting_MaterialStateSwitch_LackAmmo": {
          "modifierName": "",
          "elementDurability": 100.0,
          "modifierMixins": [
            {
              "$type": "GPCGHACDPIF",
              "DPAOMNELPHI": 1,
              "NLIOHMNJBAM": ""
            }
          ],
          "onAdded": [
            {
              "$type": "AttachEffect",
              "rotationDampTime": "Eff_SceneObj_Cannon_09",
              "PPPDJGDDOGD": 1.0,
              "AJDILHJFNKE": -1.0
            }
          ]
        },
        "TargetShooting_MaterialStateSwitch_EnoughAmmoMaterial": {
          "modifierName": "",
          "elementDurability": 100.0,
          "modifierMixins": [
            {
              "$type": "GPCGHACDPIF",
              "NLIOHMNJBAM": ""
            }
          ]
        },
        "Reload_Listener": {
          "modifierName": "",
          "elementDurability": 100.0,
          "modifierMixins": [
            {
              "$type": "AttachModifierToSelfGlobalValueMixin",
              "globalValueKey": "_CURRENT_AMMO_NUMBER",
              "gvInTalk": 0.0,
              "valueSteps": [-0.5, 0.5],
              "modifierNameSteps": ["Auto_Trigger_Reload"]
            }
          ]
        },
        "Auto_Trigger_Reload": {
          "modifierName": "",
          "duration": 1.5,
          "elementDurability": 100.0,
          "onAdded": [
            {
              "$type": "TriggerAbility",
              "abilityName": "TargetShooting_Reload"
            }
          ]
        }
      },
      "onAdded": [
        {
          "$type": "Predicated",
          "targetPredicates": [
            {
              "$type": "ByTargetGlobalValue",
              "key": "_LOCAL_MAX_AMMO",
              "value": 0.0,
              "compareType": "NoneOrEqual"
            }
          ],
          "successActions": [
            {
              "$type": "SetGlobalValue",
              "value": 10.0,
              "key": "_LOCAL_MAX_AMMO",
              "maxValue": 0.0,
              "minValue": 0.0
            },
            {
              "$type": "SetGlobalValue",
              "value": 10.0,
              "key": "_CURRENT_AMMO_NUMBER",
              "maxValue": 0.0,
              "minValue": 0.0
            }
          ]
        },
        {
          "$type": "SetGlobalValue",
          "value": 0.0,
          "key": "_AMMO_RELOADING",
          "maxValue": 0.0,
          "minValue": 0.0
        },
        {
          "$type": "ApplyModifier",
          "modifierName": "TargetShooting_MaterialStateSwitch_EnoughAmmoMaterial"
        }
      ]
    }
  },
  {
    "Default": {
      "$type": "ConfigAbility",
      "abilityName": "TargetShooting_Reload",
      "abilityMixins": [
        {
          "$type": "JPPFBGJICKI",
          "key": "SGV_TARGETSHOOTING_BUFF_ACTIVE",
          "useLimitRange": true,
          "maxValue": 1.0,
          "minValue": 0.0
        },
        {
          "$type": "AttachModifierToGlobalValueMixin",
          "globalValueTarget": "Team",
          "globalValueKey": "SGV_TARGETSHOOTING_BUFF_ACTIVE",
          "valueSteps": [0.5, 1.5],
          "modifierNameSteps": ["TARGETSHOOTING_BURSTBUFF_ACTIVE"],
          "NMCLMHFBALJ": true
        }
      ],
      "modifiers": {
        "Reload_Cannon_Ball": {
          "modifierName": "",
          "duration": 1.5,
          "elementDurability": 100.0,
          "modifierMixins": [
            {
              "$type": "AttachModifierToSelfGlobalValueMixin",
              "globalValueKey": "_LOCAL_MAX_AMMO",
              "gvInTalk": 0.0,
              "valueSteps": [-0.5, 10.5, 15.5, 20.5, 25.5, 30.5],
              "modifierNameSteps": [
                "Basic_Reload",
                "Reload_1_Extra_Mag",
                "Reload_2_Extra_Mag",
                "Reload_3_Extra_Mag",
                "Reload_Full_Extra_Mag"
              ]
            }
          ],
          "onAdded": [
            {
              "$type": "SetGlobalValue",
              "value": 1.0,
              "key": "_AMMO_RELOADING",
              "maxValue": 0.0,
              "minValue": 0.0
            },
            {
              "$type": "AttachEffect",
              "rotationDampTime": "Eff_SceneObj_Cannon_08",
              "PPPDJGDDOGD": 1.0,
              "AJDILHJFNKE": -1.0
            }
          ],
          "onRemoved": [
            {
              "$type": "SetGlobalValue",
              "value": 0.0,
              "key": "_AMMO_RELOADING",
              "maxValue": 0.0,
              "minValue": 0.0
            }
          ]
        },
        "TargetShooting_Remove_Burst_Delay": {
          "modifierName": "",
          "duration": 0.44999998807907104,
          "elementDurability": 100.0
        },
        "TARGETSHOOTING_BURSTBUFF_ACTIVE": {
          "modifierName": "",
          "elementDurability": 100.0,
          "modifierMixins": [
            {
              "$type": "AttachModifierToSelfGlobalValueMixin",
              "globalValueKey": "_LOCAL_MAX_AMMO",
              "gvInTalk": 0.0,
              "valueSteps": [-0.5, 10.5, 15.5, 20.5, 25.5, 30.5],
              "modifierNameSteps": [
                "Basic_Reload",
                "Reload_1_Extra_Mag",
                "Reload_2_Extra_Mag",
                "Reload_3_Extra_Mag",
                "Reload_Full_Extra_Mag"
              ]
            },
            {
              "$type": "GPCGHACDPIF",
              "NLIOHMNJBAM": ""
            }
          ],
          "onAdded": [
            {
              "$type": "AttachEffect",
              "rotationDampTime": "Eff_SceneObj_Cannon_05",
              "PPPDJGDDOGD": 1.0,
              "AJDILHJFNKE": -1.0
            }
          ],
          "onRemoved": [
            {
              "$type": "SetGlobalValue",
              "value": 0.0,
              "key": "_AMMO_RELOADING",
              "maxValue": 0.0,
              "minValue": 0.0
            },
            {
              "$type": "ApplyModifier",
              "modifierName": "TargetShooting_Remove_Burst_Delay"
            }
          ]
        },
        "Basic_Reload": {
          "modifierName": "",
          "elementDurability": 100.0,
          "onAdded": [
            {
              "$type": "SetGlobalValue",
              "value": 10.0,
              "key": "_CURRENT_AMMO_NUMBER",
              "maxValue": 0.0,
              "minValue": 0.0
            }
          ]
        },
        "Reload_1_Extra_Mag": {
          "modifierName": "",
          "elementDurability": 100.0,
          "onAdded": [
            {
              "$type": "SetGlobalValue",
              "value": 15.0,
              "key": "_CURRENT_AMMO_NUMBER",
              "maxValue": 0.0,
              "minValue": 0.0
            }
          ]
        },
        "Reload_2_Extra_Mag": {
          "modifierName": "",
          "elementDurability": 100.0,
          "onAdded": [
            {
              "$type": "SetGlobalValue",
              "value": 20.0,
              "key": "_CURRENT_AMMO_NUMBER",
              "maxValue": 0.0,
              "minValue": 0.0
            }
          ]
        },
        "Reload_3_Extra_Mag": {
          "modifierName": "",
          "elementDurability": 100.0,
          "onAdded": [
            {
              "$type": "SetGlobalValue",
              "value": 25.0,
              "key": "_CURRENT_AMMO_NUMBER",
              "maxValue": 0.0,
              "minValue": 0.0
            }
          ]
        },
        "Reload_Full_Extra_Mag": {
          "modifierName": "",
          "elementDurability": 100.0,
          "onAdded": [
            {
              "$type": "SetGlobalValue",
              "value": 30.0,
              "key": "_CURRENT_AMMO_NUMBER",
              "maxValue": 0.0,
              "minValue": 0.0
            }
          ]
        }
      },
      "onAbilityStart": [
        {
          "$type": "ApplyModifier",
          "modifierName": "Reload_Cannon_Ball"
        }
      ]
    }
  },
  {
    "Default": {
      "$type": "ConfigAbility",
      "abilityName": "TargetShooting_Extra_Magzine",
      "abilityMixins": [
        {
          "$type": "JPPFBGJICKI",
          "key": "SGV_TARGETSHOOTING_BULLET_MAX",
          "useLimitRange": true,
          "maxValue": 30.0,
          "minValue": 10.0
        },
        {
          "$type": "AttachModifierToGlobalValueMixin",
          "globalValueTarget": "Team",
          "globalValueKey": "SGV_TARGETSHOOTING_BULLET_MAX",
          "valueSteps": [9.5, 10.5, 15.5, 20.5, 25.5, 30.5],
          "modifierNameSteps": [
            "Base_Magzine",
            "One_Extra_Mag",
            "Two_Extra_Mag",
            "Three_Extra_Mag",
            "Full_Magzine"
          ],
          "NMCLMHFBALJ": true
        }
      ],
      "modifiers": {
        "Base_Magzine": {
          "modifierName": "",
          "elementDurability": 100.0,
          "onAdded": [
            {
              "$type": "SetGlobalValue",
              "value": 10.0,
              "key": "_LOCAL_MAX_AMMO",
              "maxValue": 0.0,
              "minValue": 0.0
            }
          ]
        },
        "One_Extra_Mag": {
          "modifierName": "",
          "elementDurability": 100.0,
          "onAdded": [
            {
              "$type": "SetGlobalValue",
              "value": 15.0,
              "key": "_LOCAL_MAX_AMMO",
              "maxValue": 0.0,
              "minValue": 0.0
            },
            {
              "$type": "AddGlobalValue",
              "value": 5.0,
              "key": "_CURRENT_AMMO_NUMBER",
              "useLimitRange": true,
              "maxValue": 15.0,
              "minValue": 0.0
            }
          ]
        },
        "Two_Extra_Mag": {
          "modifierName": "",
          "elementDurability": 100.0,
          "onAdded": [
            {
              "$type": "SetGlobalValue",
              "value": 20.0,
              "key": "_LOCAL_MAX_AMMO",
              "maxValue": 0.0,
              "minValue": 0.0
            },
            {
              "$type": "AddGlobalValue",
              "value": 5.0,
              "key": "_CURRENT_AMMO_NUMBER",
              "useLimitRange": true,
              "maxValue": 20.0,
              "minValue": 0.0
            }
          ]
        },
        "Three_Extra_Mag": {
          "modifierName": "",
          "elementDurability": 100.0,
          "onAdded": [
            {
              "$type": "SetGlobalValue",
              "value": 25.0,
              "key": "_LOCAL_MAX_AMMO",
              "maxValue": 0.0,
              "minValue": 0.0
            },
            {
              "$type": "AddGlobalValue",
              "value": 5.0,
              "key": "_CURRENT_AMMO_NUMBER",
              "useLimitRange": true,
              "maxValue": 25.0,
              "minValue": 0.0
            }
          ]
        },
        "Full_Magzine": {
          "modifierName": "",
          "elementDurability": 100.0,
          "onAdded": [
            {
              "$type": "SetGlobalValue",
              "value": 30.0,
              "key": "_LOCAL_MAX_AMMO",
              "maxValue": 0.0,
              "minValue": 0.0
            },
            {
              "$type": "AddGlobalValue",
              "value": 5.0,
              "key": "_CURRENT_AMMO_NUMBER",
              "useLimitRange": true,
              "maxValue": 30.0,
              "minValue": 0.0
            }
          ]
        }
      }
    }
  },
  {
    "Default": {
      "$type": "ConfigAbility",
      "abilityName": "TargetShooting_Cannon_Shot",
      "abilitySpecials": {
        "Auto_Reload_CD": 1.5,
        "Manual_Reload_CD": 1.5
      },
      "modifiers": {
        "TargetShooting_ExplosiveShootDelay": {
          "modifierName": "",
          "duration": 0.009999999776482582,
          "elementDurability": 100.0,
          "onAdded": [
            {
              "$type": "FireEffect",
              "rotationDampTime": "Eff_SceneObj_Cannon_01",
              "PPPDJGDDOGD": 1.0,
              "AJDILHJFNKE": -1.0
            },
            {
              "$type": "FireEffect",
              "rotationDampTime": "Eff_SceneObj_Cannon_02",
              "PPPDJGDDOGD": 1.0,
              "AJDILHJFNKE": -1.0
            }
          ],
          "onRemoved": [
            {
              "$type": "ActCameraShake",
              "cameraShake": {
                "shakeType": "CustomVector",
                "shakeRange": 0.5,
                "shakeTime": 0.3499999940395355,
                "shakeDistance": 30.0,
                "shakeDir": {
                  "y": 1.0
                },
                "extension": {
                  "baseCycle": 0.5,
                  "cycleDamping": 0.0,
                  "rangeAttenuation": 0.30000001192092896
                }
              }
            },
            {
              "$type": "TriggerBullet",
              "bulletID": 70291152,
              "born": {
                "$type": "ConfigBornByAttachPoint",
                "offset": {
                  "x": 0.0,
                  "y": 0.0,
                  "z": 0.10000000149011612
                },
                "direction": {
                  "$type": "JBJMPEHPIDI"
                },
                "useRotation": true,
                "attachPointName": "ShootPoint"
              },
              "ownerIs": "CurLocalAvatar",
              "propOwnerIs": "CurLocalAvatar"
            },
            {
              "$type": "SetAnimatorTrigger",
              "triggerID": "ExplosiveShot"
            }
          ]
        },
        "TargetShooting_ShootDelay": {
          "modifierName": "",
          "duration": 0.009999999776482582,
          "elementDurability": 100.0,
          "onAdded": [
            {
              "$type": "FireEffect",
              "rotationDampTime": "Eff_SceneObj_Cannon_01",
              "PPPDJGDDOGD": 1.0,
              "AJDILHJFNKE": -1.0
            },
            {
              "$type": "FireEffect",
              "rotationDampTime": "Eff_SceneObj_Cannon_02",
              "PPPDJGDDOGD": 1.0,
              "AJDILHJFNKE": -1.0
            }
          ],
          "onRemoved": [
            {
              "$type": "AddGlobalValue",
              "value": -1.0,
              "key": "_CURRENT_AMMO_NUMBER",
              "useLimitRange": true,
              "maxValue": 30.0,
              "minValue": 0.0
            },
            {
              "$type": "ActCameraShake",
              "cameraShake": {
                "shakeType": "CustomVector",
                "shakeRange": 0.5,
                "shakeTime": 0.3499999940395355,
                "shakeDistance": 30.0,
                "shakeDir": {
                  "y": 1.0
                },
                "extension": {
                  "baseCycle": 0.5,
                  "cycleDamping": 0.0,
                  "rangeAttenuation": 0.30000001192092896
                }
              }
            },
            {
              "$type": "TriggerBullet",
              "bulletID": 70291151,
              "born": {
                "$type": "ConfigBornByAttachPoint",
                "offset": {
                  "x": 0.0,
                  "y": 0.0,
                  "z": 0.10000000149011612
                },
                "direction": {
                  "$type": "JBJMPEHPIDI"
                },
                "useRotation": true,
                "attachPointName": "ShootPoint"
              },
              "ownerIs": "OriginOwner",
              "propOwnerIs": "OriginOwner"
            },
            {
              "$type": "SetAnimatorTrigger",
              "triggerID": "Shot"
            }
          ]
        }
      },
      "onAbilityStart": [
        {
          "$type": "Predicated",
          "targetPredicates": [
            {
              "$type": "ByTargetGlobalValue",
              "key": "_AMMO_RELOADING",
              "value": 0.0
            }
          ],
          "successActions": [
            {
              "$type": "Predicated",
              "targetPredicates": [
                {
                  "$type": "ByTargetGlobalValue",
                  "key": "_CURRENT_AMMO_NUMBER",
                  "value": 0.0,
                  "compareType": "MoreThan"
                }
              ],
              "successActions": [
                {
                  "$type": "Predicated",
                  "target": "Team",
                  "targetPredicates": [
                    {
                      "$type": "ByTargetGlobalValue",
                      "key": "SGV_TARGETSHOOTING_BUFF_ACTIVE",
                      "value": 0.0,
                      "compareType": "MoreThan"
                    }
                  ],
                  "successActions": [
                    {
                      "$type": "ApplyModifier",
                      "modifierName": "TargetShooting_ExplosiveShootDelay"
                    }
                  ],
                  "failActions": [
                    {
                      "$type": "ApplyModifier",
                      "modifierName": "TargetShooting_ShootDelay"
                    }
                  ]
                }
              ]
            }
          ]
        }
      ]
    }
  },
  {
    "Default": {
      "$type": "ConfigAbility",
      "abilityName": "Bullet_TargetShooting_CannonBall",
      "abilitySpecials": {
        "DamagePercentage": 0.0,
        "LevelEntity_AvatarDot_SystemValue": 1.0
      },
      "modifiers": {
        "BulletEffect": {
          "modifierName": "",
          "elementDurability": 100.0,
          "onAdded": [
            {
              "$type": "AttachEffect",
              "rotationDampTime": "Eff_SceneObj_Cannon_03",
              "PPPDJGDDOGD": 1.0,
              "AJDILHJFNKE": -1.0
            }
          ]
        }
      },
      "onAdded": [
        {
          "$type": "ApplyModifier",
          "modifierName": "BulletEffect"
        },
        {
          "$type": "GDHGMAPPGHD",
          "key": "LevelEntity_AvatarDot_SystemValue",
          "damageRatio": "ElementLevelCo"
        }
      ],
      "onAbilityStart": [
        {
          "$type": "TriggerAttackEvent",
          "attackEvent": {
            "attackPattern": {
              "$type": "ConfigAttackSphere",
              "triggerType": "TriggerNoRepeat",
              "born": {
                "$type": "ConfigBornByCollisionPoint"
              },
              "radius": 3.299999952316284
            },
            "attackInfo": {
              "attackTag": "TargetShootingCannon",
              "attenuationTag": "",
              "attenuationGroup": "default",
              "attackProperty": {
                "actorGrassSubHurtDelta": 0.0,
                "actorWindSubHurtDelta": 0.0,
                "elementType": "Water",
                "elementDurability": 0.0,
                "ignoreAttackerProperty": true,
                "strikeType": "Blunt",
                "enBreak": 0.0,
                "HMBONGBFIAP": [
                  "LevelEntity_AvatarDot_SystemValue",
                  "DamagePercentage",
                  "MUL"
                ],
                "trueDamage": true,
                "ignoreModifyDamage": true,
                "GLKMCMDJBIK": 0.0
              },
              "hitPattern": {
                "onHitEffectName": "",
                "hitImpulseY": "",
                "hitImpulseType": "LV4",
                "hitHaltTimeScale": 0.05000000074505806,
                "muteHitText": true
              },
              "canBeModifiedBy": "OriginOwner"
            }
          },
          "targetType": "AllExceptSelf"
        },
        {
          "$type": "FireEffect",
          "rotationDampTime": "Eff_SceneObj_Cannon_04",
          "PPPDJGDDOGD": 1.0,
          "AJDILHJFNKE": -1.0
        }
      ]
    }
  },
  {
    "Default": {
      "$type": "ConfigAbility",
      "abilityName": "Bullet_TargetShooting_ExplosiveCannonBall",
      "abilitySpecials": {
        "DamagePercentage": 0.0,
        "LevelEntity_AvatarDot_SystemValue": 1.0
      },
      "modifiers": {
        "BulletEffect": {
          "modifierName": "",
          "elementDurability": 100.0,
          "onAdded": [
            {
              "$type": "AttachEffect",
              "rotationDampTime": "Eff_SceneObj_Cannon_06",
              "PPPDJGDDOGD": 1.0,
              "AJDILHJFNKE": -1.0
            }
          ]
        }
      },
      "onAdded": [
        {
          "$type": "ApplyModifier",
          "modifierName": "BulletEffect"
        },
        {
          "$type": "GDHGMAPPGHD",
          "key": "LevelEntity_AvatarDot_SystemValue",
          "damageRatio": "ElementLevelCo"
        }
      ],
      "onAbilityStart": [
        {
          "$type": "TriggerAttackEvent",
          "attackEvent": {
            "attackPattern": {
              "$type": "ConfigAttackSphere",
              "triggerType": "TriggerNoRepeat",
              "born": {
                "$type": "ConfigBornByCollisionPoint"
              },
              "radius": 15.0
            },
            "attackInfo": {
              "attackTag": "TargetShootingCannonMax",
              "attenuationTag": "",
              "attenuationGroup": "default",
              "attackProperty": {
                "actorGrassSubHurtDelta": 0.0,
                "actorWindSubHurtDelta": 0.0,
                "elementType": "Water",
                "elementDurability": 0.0,
                "ignoreAttackerProperty": true,
                "strikeType": "Blunt",
                "enBreak": 0.0,
                "HMBONGBFIAP": [
                  "LevelEntity_AvatarDot_SystemValue",
                  "DamagePercentage",
                  "MUL"
                ],
                "trueDamage": true,
                "ignoreModifyDamage": true,
                "GLKMCMDJBIK": 0.0
              },
              "hitPattern": {
                "onHitEffectName": "",
                "hitImpulseY": "",
                "hitImpulseType": "LV4",
                "hitHaltTimeScale": 0.05000000074505806,
                "muteHitText": true
              },
              "canBeModifiedBy": "OriginOwner"
            }
          },
          "targetType": "AllExceptSelf"
        },
        {
          "$type": "FireEffect",
          "rotationDampTime": "Eff_SceneObj_Cannon_07",
          "PPPDJGDDOGD": 1.0,
          "AJDILHJFNKE": -1.0
        }
      ]
    }
  }
]
